{
  "id": 2321,
  "name": "Xpand Rally Xtreme",
  "slug": "xpand-rally-xtreme",
  "year": 2006,
  "banner_url": "https://lutris.net/games/banner/xpand-rally-xtreme.jpg",
  "icon_url": "https://lutris.net/games/icon/xpand-rally-xtreme.png",
  "coverart": "https://lutris.net/media/igdb/cover_big/co2f9c.jpg",
  "platforms": [
    {
      "name": "Windows"
    }
  ],
  "provider_games": [
    {
      "name": "Xpand Rally Xtreme",
      "slug": "3050",
      "service": "steam"
    },
    {
      "name": "Xpand Rally Xtreme",
      "slug": "xpand-rally-xtreme",
      "service": "igdb"
    }
  ],
  "aliases": [],
  "shaders": [],
  "discord_id": "",
  "change_for": null
}