{
  "id": 62043,
  "name": "Johann Sebastian Joust",
  "slug": "johann-sebastian-joust",
  "year": null,
  "banner_url": "",
  "icon_url": "",
  "coverart": "https://lutris.net/media/igdb/cover_big/cmyf2ut0orzqp0s6j8uo.jpg",
  "platforms": [],
  "provider_games": [
    {
      "name": "Johann Sebastian Joust",
      "slug": "johann-sebastian-joust",
      "service": "igdb"
    }
  ],
  "aliases": [],
  "shaders": [],
  "discord_id": "",
  "change_for": null
}