{
  "id": 273637,
  "name": "Megalotrain",
  "slug": "megalotrain",
  "year": null,
  "banner_url": "",
  "icon_url": "",
  "coverart": "https://lutris.net/media/igdb/cover_big/co7q4z.jpg",
  "platforms": [],
  "provider_games": [
    {
      "name": "Megalotrain",
      "slug": "megalotrain",
      "service": "igdb"
    }
  ],
  "aliases": [],
  "shaders": [],
  "discord_id": "",
  "change_for": null
}