{
  "id": 113604,
  "name": "Zipper",
  "slug": "zipper",
  "year": null,
  "banner_url": "",
  "icon_url": "",
  "coverart": "https://lutris.net/media/igdb/cover_big/co39nu.jpg",
  "platforms": [
    {
      "name": "Playdate"
    }
  ],
  "provider_games": [
    {
      "name": "Zipper",
      "slug": "zipper",
      "service": "igdb"
    }
  ],
  "aliases": [],
  "shaders": [],
  "discord_id": "",
  "change_for": null
}