{
  "id": 117738,
  "name": "Digimon Heroes!",
  "slug": "digimon-heroes",
  "year": 2016,
  "banner_url": "",
  "icon_url": "",
  "coverart": "https://lutris.net/media/igdb/cover_big/co3gkb.jpg",
  "platforms": [],
  "provider_games": [
    {
      "name": "Digimon Heroes!",
      "slug": "digimon-heroes",
      "service": "igdb"
    }
  ],
  "aliases": [],
  "shaders": [],
  "discord_id": "",
  "change_for": null
}