{
  "id": 57534,
  "name": "Anacreon: Imperial Conquest in the Far Future",
  "slug": "anacreon-imperial-conquest-in-the-far-future",
  "year": null,
  "banner_url": "",
  "icon_url": "",
  "coverart": "https://lutris.net/media/igdb/cover_big/glx8rrca0aenngmncb7h.jpg",
  "platforms": [],
  "provider_games": [
    {
      "name": "Anacreon: Imperial Conquest in the Far Future",
      "slug": "anacreon-imperial-conquest-in-the-far-future",
      "service": "igdb"
    }
  ],
  "aliases": [],
  "shaders": [],
  "discord_id": "",
  "change_for": null
}