{
  "id": 38209,
  "name": "Sakura Succubus 2",
  "slug": "sakura-succubus-2",
  "year": 2020,
  "banner_url": "https://lutris.net/games/banner/sakura-succubus-2.jpg",
  "icon_url": "https://lutris.net/games/icon/sakura-succubus-2.png",
  "coverart": "https://lutris.net/media/igdb/cover_big/co3ytb.jpg",
  "platforms": [
    {
      "name": "Nintendo Switch"
    },
    {
      "name": "Sony Playstation 4"
    },
    {
      "name": "Sony PlayStation 5"
    },
    {
      "name": "Windows"
    }
  ],
  "provider_games": [
    {
      "name": "Sakura Succubus 2",
      "slug": "1326000",
      "service": "steam"
    },
    {
      "name": "Sakura Succubus 2",
      "slug": "sakura-succubus-2",
      "service": "igdb"
    }
  ],
  "aliases": [],
  "shaders": [],
  "discord_id": "",
  "change_for": null
}