{
  "id": 284872,
  "name": "Neverdaunt:8Bit",
  "slug": "neverdaunt-8bit",
  "year": 2007,
  "banner_url": "",
  "icon_url": "",
  "coverart": null,
  "platforms": [
    {
      "name": "Windows"
    }
  ],
  "provider_games": [
    {
      "name": "Neverdaunt:8Bit",
      "slug": "neverdaunt-8bit",
      "service": "igdb"
    }
  ],
  "aliases": [],
  "shaders": [],
  "discord_id": "",
  "change_for": null
}