{
  "id": 230970,
  "name": "Q.u.q.",
  "slug": "quq",
  "year": 2023,
  "banner_url": "https://lutris.net/games/banner/quq.jpg",
  "icon_url": "",
  "coverart": "https://lutris.net/media/igdb/cover_big/co68lq.jpg",
  "platforms": [
    {
      "name": "Windows"
    }
  ],
  "provider_games": [
    {
      "name": "q.u.q.",
      "slug": "2302140",
      "service": "steam"
    },
    {
      "name": "Q.u.q.",
      "slug": "quq",
      "service": "igdb"
    }
  ],
  "aliases": [],
  "shaders": [],
  "discord_id": "",
  "change_for": null
}