{
  "id": 128003,
  "name": "Chain Break",
  "slug": "chain-break",
  "year": 2019,
  "banner_url": "",
  "icon_url": "",
  "coverart": "https://lutris.net/media/igdb/cover_big/co3hi3.jpg",
  "platforms": [
    {
      "name": "Game Boy"
    },
    {
      "name": "Windows"
    }
  ],
  "provider_games": [
    {
      "name": "Chain Break",
      "slug": "chain-break",
      "service": "igdb"
    }
  ],
  "aliases": [],
  "shaders": [],
  "discord_id": "",
  "change_for": null
}