{
  "id": 210371,
  "name": "Tantei Jinguuji Saburou Series No.16: Tsubaki no Yukue",
  "slug": "tantei-jinguuji-saburou-series-no-dot-16-tsubaki-no-yukue",
  "year": null,
  "banner_url": "",
  "icon_url": "",
  "coverart": null,
  "platforms": [],
  "provider_games": [
    {
      "name": "Tantei Jinguuji Saburou Series No.16: Tsubaki no Yukue",
      "slug": "tantei-jinguuji-saburou-series-no-dot-16-tsubaki-no-yukue",
      "service": "igdb"
    }
  ],
  "aliases": [],
  "shaders": [],
  "discord_id": "",
  "change_for": null
}