{
  "id": 93374,
  "name": "What's inside the box?",
  "slug": "whats-inside-the-box",
  "year": null,
  "banner_url": "",
  "icon_url": "",
  "coverart": "https://lutris.net/media/igdb/cover_big/co67pg.jpg",
  "platforms": [],
  "provider_games": [
    {
      "name": "What's Inside the Box?",
      "slug": "whats-inside-the-box",
      "service": "igdb"
    }
  ],
  "aliases": [],
  "shaders": [],
  "discord_id": "",
  "change_for": null
}