{
  "id": 53078,
  "name": "Lexit",
  "slug": "lexit",
  "year": null,
  "banner_url": "",
  "icon_url": "",
  "coverart": "https://lutris.net/media/igdb/cover_big/bag3ldnwlphj2fex4tiu.jpg",
  "platforms": [],
  "provider_games": [
    {
      "name": "Lexit",
      "slug": "lexit",
      "service": "igdb"
    }
  ],
  "aliases": [],
  "shaders": [],
  "discord_id": "",
  "change_for": null
}