{
  "id": 241099,
  "name": "Amazing Love: Cupid's Arrows",
  "slug": "amazing-love-cupids-arrows",
  "year": null,
  "banner_url": "",
  "icon_url": "",
  "coverart": null,
  "platforms": [],
  "provider_games": [
    {
      "name": "Amazing Love: Cupid's Arrows",
      "slug": "amazing-love-cupids-arrows",
      "service": "igdb"
    }
  ],
  "aliases": [],
  "shaders": [],
  "discord_id": "",
  "change_for": null
}