{
  "id": 248884,
  "name": "Nevultra",
  "slug": "nevultra",
  "year": null,
  "banner_url": "",
  "icon_url": "",
  "coverart": "https://lutris.net/media/igdb/cover_big/co6n4o.jpg",
  "platforms": [],
  "provider_games": [
    {
      "name": "Nevultra",
      "slug": "nevultra",
      "service": "igdb"
    }
  ],
  "aliases": [],
  "shaders": [],
  "discord_id": "",
  "change_for": null
}