{
  "id": 226769,
  "name": "Jigsaw Puzzle: Futanari Pool Party",
  "slug": "jigsaw-puzzle-futanari-pool-party",
  "year": 2022,
  "banner_url": "https://lutris.net/games/banner/jigsaw-puzzle-futanari-pool-party.jpg",
  "icon_url": "",
  "coverart": "https://lutris.net/media/igdb/cover_big/co515t.jpg",
  "platforms": [
    {
      "name": "Windows"
    }
  ],
  "provider_games": [
    {
      "name": "Jigsaw Puzzle: Futanari Pool Party",
      "slug": "jigsaw-puzzle-futanari-pool-party",
      "service": "igdb"
    },
    {
      "name": "Jigsaw Puzzle - Futanari Pool Party",
      "slug": "2104060",
      "service": "steam"
    }
  ],
  "aliases": [],
  "shaders": [],
  "discord_id": "",
  "change_for": null
}