{
  "id": 203343,
  "name": "City of Murals",
  "slug": "city-of-murals",
  "year": null,
  "banner_url": "",
  "icon_url": "",
  "coverart": "https://lutris.net/media/igdb/cover_big/co4g8n.jpg",
  "platforms": [],
  "provider_games": [
    {
      "name": "City of Murals",
      "slug": "city-of-murals",
      "service": "igdb"
    }
  ],
  "aliases": [],
  "shaders": [],
  "discord_id": "",
  "change_for": null
}