{
  "id": 66197,
  "name": "Huxley: The Dystopia",
  "slug": "huxley-the-dystopia",
  "year": null,
  "banner_url": "",
  "icon_url": "",
  "coverart": "https://lutris.net/media/igdb/cover_big/co247t.jpg",
  "platforms": [
    {
      "name": "Windows"
    }
  ],
  "provider_games": [
    {
      "name": "Huxley: The Dystopia",
      "slug": "huxley-the-dystopia",
      "service": "igdb"
    }
  ],
  "aliases": [],
  "shaders": [],
  "discord_id": "",
  "change_for": null
}