{
  "id": 232721,
  "name": "Ben 10 Omni-Charged",
  "slug": "ben-10-omni-charged",
  "year": null,
  "banner_url": "",
  "icon_url": "",
  "coverart": "https://lutris.net/media/igdb/cover_big/co6ash.jpg",
  "platforms": [],
  "provider_games": [
    {
      "name": "Ben 10 Omni-Charged",
      "slug": "ben-10-omni-charged",
      "service": "igdb"
    }
  ],
  "aliases": [],
  "shaders": [],
  "discord_id": "",
  "change_for": null
}