{
  "id": 139474,
  "name": "Crawlyard",
  "slug": "crawlyard",
  "year": null,
  "banner_url": "",
  "icon_url": "",
  "coverart": "https://lutris.net/media/igdb/cover_big/co3rxy.jpg",
  "platforms": [],
  "provider_games": [
    {
      "name": "Crawlyard",
      "slug": "crawlyard",
      "service": "igdb"
    }
  ],
  "aliases": [],
  "shaders": [],
  "discord_id": "",
  "change_for": null
}