{
  "id": 179219,
  "name": "Relic Hunters Legend",
  "slug": "relic-hunters-legend",
  "year": null,
  "banner_url": "https://lutris.net/games/banner/relic-hunters-legend.jpg",
  "icon_url": "",
  "coverart": "https://lutris.net/media/igdb/cover_big/lgaja6ik0qhg3xa3bbut.jpg",
  "platforms": [
    {
      "name": "Linux"
    },
    {
      "name": "Mac"
    },
    {
      "name": "Windows"
    }
  ],
  "provider_games": [
    {
      "name": "Relic Hunters Legend",
      "slug": "633080",
      "service": "steam"
    },
    {
      "name": "Relic Hunters Legend",
      "slug": "relic-hunters-legend",
      "service": "igdb"
    }
  ],
  "aliases": [],
  "shaders": [],
  "discord_id": "",
  "change_for": null
}