{
  "id": 85336,
  "name": "LEGO Chima: Laval's Journey",
  "slug": "lego-chima-lavals-journey",
  "year": 2013,
  "banner_url": "",
  "icon_url": "",
  "coverart": "https://lutris.net/media/igdb/cover_big/am3cepxorp7j6lt32veb.jpg",
  "platforms": [
    {
      "name": "Nintendo DS"
    }
  ],
  "provider_games": [
    {
      "name": "LEGO Chima: Laval's Journey",
      "slug": "lego-chima-lavals-journey",
      "service": "igdb"
    }
  ],
  "aliases": [],
  "shaders": [],
  "discord_id": "",
  "change_for": null
}