{
  "id": 4167,
  "name": "FINAL FANTASY® XI: Ultimate Collection Seekers Edition NA",
  "slug": "final-fantasy-xi-ultimate-collection-seekers-editi",
  "year": null,
  "banner_url": "https://lutris.net/games/banner/final-fantasy-xi-ultimate-collection-seekers-editi.jpg",
  "icon_url": "https://lutris.net/games/icon/final-fantasy-xi-ultimate-collection-seekers-editi.png",
  "coverart": null,
  "platforms": [],
  "provider_games": [
    {
      "name": "FINAL FANTASY® XI: Ultimate Collection Seekers Edition NA",
      "slug": "230330",
      "service": "steam"
    }
  ],
  "aliases": [],
  "shaders": [],
  "discord_id": "",
  "change_for": null
}