{
  "id": 40006,
  "name": "uFactory",
  "slug": "ufactory",
  "year": 2019,
  "banner_url": "https://lutris.net/games/banner/ufactory.jpg",
  "icon_url": "https://lutris.net/games/icon/ufactory.png",
  "coverart": "https://lutris.net/media/igdb/cover_big/co3pb0.jpg",
  "platforms": [
    {
      "name": "Windows"
    }
  ],
  "provider_games": [
    {
      "name": "uFactory",
      "slug": "923710",
      "service": "steam"
    },
    {
      "name": "uFactory",
      "slug": "ufactory",
      "service": "igdb"
    }
  ],
  "aliases": [],
  "shaders": [],
  "discord_id": "",
  "change_for": null
}