{
  "id": 21960,
  "name": "God of War II",
  "slug": "god-of-war-ii",
  "year": 2007,
  "banner_url": "https://lutris.net/games/banner/god-of-war-ii.jpg",
  "icon_url": "",
  "coverart": "https://lutris.net/media/igdb/cover_big/co3dik.jpg",
  "platforms": [
    {
      "name": "Sony PlayStation 2"
    }
  ],
  "provider_games": [
    {
      "name": "God of War II",
      "slug": "god-of-war-ii",
      "service": "igdb"
    }
  ],
  "aliases": [],
  "shaders": [],
  "discord_id": "",
  "change_for": null
}