{
  "id": 99237,
  "name": "The Fairies' Curse",
  "slug": "the-fairies-curse",
  "year": 2013,
  "banner_url": "",
  "icon_url": "",
  "coverart": "https://lutris.net/media/igdb/cover_big/co1x36.jpg",
  "platforms": [
    {
      "name": "Browser"
    }
  ],
  "provider_games": [
    {
      "name": "The Fairies' Curse",
      "slug": "the-fairies-curse",
      "service": "igdb"
    }
  ],
  "aliases": [],
  "shaders": [],
  "discord_id": "",
  "change_for": null
}