{
  "id": 302061,
  "name": "Nehan 2: Darkness Fantasy",
  "slug": "nehan-2-darkness-fantasy",
  "year": 2006,
  "banner_url": "",
  "icon_url": "",
  "coverart": "https://lutris.net/media/igdb/cover_big/co8zex.jpg",
  "platforms": [
    {
      "name": "Windows"
    }
  ],
  "provider_games": [
    {
      "name": "Nehan 2: Darkness Fantasy",
      "slug": "nehan-2-darkness-fantasy",
      "service": "igdb"
    }
  ],
  "aliases": [],
  "shaders": [],
  "discord_id": "",
  "change_for": null
}