{
  "id": 126565,
  "name": "Flotilla 2",
  "slug": "flotilla-2",
  "year": 2018,
  "banner_url": "",
  "icon_url": "",
  "coverart": "https://lutris.net/media/igdb/cover_big/co2ee6.jpg",
  "platforms": [
    {
      "name": "Oculus VR"
    },
    {
      "name": "SteamVR"
    },
    {
      "name": "Windows"
    }
  ],
  "provider_games": [
    {
      "name": "Flotilla 2",
      "slug": "flotilla-2",
      "service": "igdb"
    }
  ],
  "aliases": [],
  "shaders": [],
  "discord_id": "",
  "change_for": null
}