{
  "id": 211533,
  "name": "Ultimotion: Sleeping Beauty & Tinker Bell",
  "slug": "ultimotion-sleeping-beauty-and-tinker-bell",
  "year": 2008,
  "banner_url": "",
  "icon_url": "",
  "coverart": "https://lutris.net/media/igdb/cover_big/co5fc9.jpg",
  "platforms": [
    {
      "name": "Plug & Play"
    }
  ],
  "provider_games": [
    {
      "name": "Ultimotion: Sleeping Beauty & Tinker Bell",
      "slug": "ultimotion-sleeping-beauty-and-tinker-bell",
      "service": "igdb"
    }
  ],
  "aliases": [],
  "shaders": [],
  "discord_id": "",
  "change_for": null
}