{
  "id": 9112,
  "game_id": 19851,
  "game_slug": "dejection-an-ode",
  "name": "Dejection: An Ode",
  "year": 2014,
  "user": "kimchitea",
  "runner": "web",
  "slug": "dejection-an-ode-browser",
  "version": "Browser",
  "description": null,
  "notes": "",
  "credits": "",
  "created_at": "2018-07-09T07:35:03.107000Z",
  "updated_at": "2024-04-03T05:59:16.938213Z",
  "draft": false,
  "published": true,
  "published_by": null,
  "rating": "",
  "is_playable": null,
  "steamid": null,
  "gogid": null,
  "gogslug": "",
  "humbleid": "",
  "humblestoreid": "",
  "humblestoreid_real": "",
  "script": {
    "game": {
      "main_file": "http://sandbox-adventure.com/dejection/"
    }
  },
  "content": "game:\n  main_file: http://sandbox-adventure.com/dejection/\n",
  "discord_id": ""
}