{
  "id": 133515,
  "name": "Almastriga: Relics of Azathoth",
  "slug": "almastriga-relics-of-azathoth",
  "year": null,
  "banner_url": "",
  "icon_url": "",
  "coverart": "https://lutris.net/media/igdb/cover_big/co3ldc.jpg",
  "platforms": [],
  "provider_games": [
    {
      "name": "Almastriga: Relics of Azathoth",
      "slug": "almastriga-relics-of-azathoth",
      "service": "igdb"
    }
  ],
  "aliases": [],
  "shaders": [],
  "discord_id": "",
  "change_for": null
}