{
  "id": 134168,
  "name": "Broken Sword 2.5: The Return of the Templars",
  "slug": "broken-sword-2-dot-5-the-return-of-the-templars",
  "year": 2008,
  "banner_url": "",
  "icon_url": "",
  "coverart": "https://lutris.net/media/igdb/cover_big/co2mmo.jpg",
  "platforms": [
    {
      "name": "Windows"
    }
  ],
  "provider_games": [
    {
      "name": "Broken Sword 2.5: The Return of the Templars",
      "slug": "broken-sword-2-dot-5-the-return-of-the-templars",
      "service": "igdb"
    }
  ],
  "aliases": [],
  "shaders": [],
  "discord_id": "",
  "change_for": null
}