{
  "id": 41199,
  "name": "Arrest of a stone Buddha",
  "slug": "arrest-of-a-stone-buddha",
  "year": 2020,
  "banner_url": "https://lutris.net/games/banner/arrest-of-a-stone-buddha.jpg",
  "icon_url": "https://lutris.net/games/icon/arrest-of-a-stone-buddha.png",
  "coverart": "https://lutris.net/media/igdb/cover_big/co2t59.jpg",
  "platforms": [
    {
      "name": "Nintendo Switch"
    },
    {
      "name": "Windows"
    },
    {
      "name": "Xbox One"
    }
  ],
  "provider_games": [
    {
      "name": "Arrest of a stone Buddha",
      "slug": "1151120",
      "service": "steam"
    },
    {
      "name": "Arrest of a stone Buddha",
      "slug": "arrest-of-a-stone-buddha",
      "service": "igdb"
    }
  ],
  "aliases": [],
  "shaders": [],
  "discord_id": "",
  "change_for": null
}