{
  "id": 251046,
  "name": "Syrenka Racer",
  "slug": "syrenka-racer",
  "year": 2004,
  "banner_url": "",
  "icon_url": "",
  "coverart": "https://lutris.net/media/igdb/cover_big/co6pmi.jpg",
  "platforms": [
    {
      "name": "Windows"
    }
  ],
  "provider_games": [
    {
      "name": "Syrenka Racer",
      "slug": "syrenka-racer",
      "service": "igdb"
    }
  ],
  "aliases": [],
  "shaders": [],
  "discord_id": "",
  "change_for": null
}