{
  "id": 217856,
  "name": "Cursed Broom",
  "slug": "cursed-broom",
  "year": null,
  "banner_url": "",
  "icon_url": "",
  "coverart": "https://lutris.net/media/igdb/cover_big/co53xi.jpg",
  "platforms": [],
  "provider_games": [
    {
      "name": "Cursed Broom",
      "slug": "cursed-broom",
      "service": "igdb"
    }
  ],
  "aliases": [],
  "shaders": [],
  "discord_id": "",
  "change_for": null
}