{
  "id": 161372,
  "name": "Flight Attendant Simulator",
  "slug": "flight-attendant-simulator",
  "year": null,
  "banner_url": "",
  "icon_url": "",
  "coverart": "https://lutris.net/media/igdb/cover_big/co3zqy.jpg",
  "platforms": [],
  "provider_games": [
    {
      "name": "Flight Attendant Simulator",
      "slug": "flight-attendant-simulator",
      "service": "igdb"
    }
  ],
  "aliases": [],
  "shaders": [],
  "discord_id": "",
  "change_for": null
}