{
  "id": 306488,
  "name": "Black Mystery: Wujing",
  "slug": "black-mystery-wujing",
  "year": null,
  "banner_url": "",
  "icon_url": "",
  "coverart": "https://lutris.net/media/igdb/cover_big/co9d6j.jpg",
  "platforms": [],
  "provider_games": [
    {
      "name": "Black Mystery: Wujing",
      "slug": "black-mystery-wujing",
      "service": "igdb"
    }
  ],
  "aliases": [],
  "shaders": [],
  "discord_id": "",
  "change_for": null
}