{
  "id": 64388,
  "name": "Disney Learning Adventure: Search for the Secret Keys",
  "slug": "disney-learning-adventure-search-for-the-secret-keys",
  "year": 2002,
  "banner_url": "",
  "icon_url": "",
  "coverart": "https://lutris.net/media/igdb/cover_big/co1w68.jpg",
  "platforms": [
    {
      "name": "Mac"
    },
    {
      "name": "Windows"
    }
  ],
  "provider_games": [
    {
      "name": "Disney Learning Adventure: Search for the Secret Keys",
      "slug": "disney-learning-adventure-search-for-the-secret-keys",
      "service": "igdb"
    }
  ],
  "aliases": [],
  "shaders": [],
  "discord_id": "",
  "change_for": null
}