{
  "id": 241424,
  "name": "Oblivion Eagle",
  "slug": "oblivion-eagle",
  "year": null,
  "banner_url": "",
  "icon_url": "",
  "coverart": "https://lutris.net/media/igdb/cover_big/co60ok.jpg",
  "platforms": [],
  "provider_games": [
    {
      "name": "Oblivion Eagle",
      "slug": "oblivion-eagle",
      "service": "igdb"
    }
  ],
  "aliases": [],
  "shaders": [],
  "discord_id": "",
  "change_for": null
}