{
  "id": 244808,
  "name": "Pro Crack",
  "slug": "pro-crack",
  "year": null,
  "banner_url": "",
  "icon_url": "",
  "coverart": null,
  "platforms": [
    {
      "name": "Plug & Play"
    }
  ],
  "provider_games": [
    {
      "name": "Pro Crack",
      "slug": "pro-crack",
      "service": "igdb"
    }
  ],
  "aliases": [],
  "shaders": [],
  "discord_id": "",
  "change_for": null
}