{
  "id": 136597,
  "name": "Keith Van Eron's Pro Soccer",
  "slug": "keith-van-erons-pro-soccer",
  "year": 1988,
  "banner_url": "",
  "icon_url": "",
  "coverart": "https://lutris.net/media/igdb/cover_big/co3ogf.jpg",
  "platforms": [
    {
      "name": "Amiga"
    },
    {
      "name": "Amstrad CPC"
    },
    {
      "name": "Atari ST"
    },
    {
      "name": "Commodore C64/128"
    },
    {
      "name": "Windows"
    },
    {
      "name": "ZX Spectrum"
    }
  ],
  "provider_games": [
    {
      "name": "Keith Van Eron's Pro Soccer",
      "slug": "keith-van-erons-pro-soccer",
      "service": "igdb"
    }
  ],
  "aliases": [],
  "shaders": [],
  "discord_id": "",
  "change_for": null
}