{
  "id": 20652,
  "name": "Sky Noon",
  "slug": "sky-noon",
  "year": 2018,
  "banner_url": "https://lutris.net/games/banner/sky-noon.jpg",
  "icon_url": "https://lutris.net/games/icon/sky-noon.png",
  "coverart": "https://lutris.net/media/igdb/cover_big/co2rbi.jpg",
  "platforms": [
    {
      "name": "Windows"
    }
  ],
  "provider_games": [
    {
      "name": "Sky Noon",
      "slug": "569530",
      "service": "steam"
    },
    {
      "name": "Sky Noon",
      "slug": "sky-noon",
      "service": "igdb"
    }
  ],
  "aliases": [],
  "shaders": [],
  "discord_id": "",
  "change_for": null
}