{
  "id": 136182,
  "name": "Drones",
  "slug": "drones",
  "year": null,
  "banner_url": "",
  "icon_url": "",
  "coverart": "https://lutris.net/media/igdb/cover_big/co3ozw.jpg",
  "platforms": [],
  "provider_games": [
    {
      "name": "Drones",
      "slug": "drones",
      "service": "igdb"
    }
  ],
  "aliases": [],
  "shaders": [],
  "discord_id": "",
  "change_for": null
}