{
  "id": 69204,
  "name": "Magician of Fallen",
  "slug": "magician-of-fallen",
  "year": null,
  "banner_url": "",
  "icon_url": "",
  "coverart": "https://lutris.net/media/igdb/cover_big/f1awneqkum28b0blstba.jpg",
  "platforms": [],
  "provider_games": [
    {
      "name": "Magician of Fallen",
      "slug": "magician-of-fallen",
      "service": "igdb"
    }
  ],
  "aliases": [],
  "shaders": [],
  "discord_id": "",
  "change_for": null
}