{
  "id": 244871,
  "name": "Guinea Pig Bridge!",
  "slug": "guinea-pig-bridge",
  "year": null,
  "banner_url": "",
  "icon_url": "",
  "coverart": null,
  "platforms": [],
  "provider_games": [
    {
      "name": "Guinea Pig Bridge!",
      "slug": "guinea-pig-bridge",
      "service": "igdb"
    }
  ],
  "aliases": [],
  "shaders": [],
  "discord_id": "",
  "change_for": null
}