{
  "id": 217187,
  "name": "Folktale",
  "slug": "folktale",
  "year": null,
  "banner_url": "",
  "icon_url": "",
  "coverart": "https://lutris.net/media/igdb/cover_big/co55tl.jpg",
  "platforms": [],
  "provider_games": [
    {
      "name": "Folktale",
      "slug": "folktale",
      "service": "igdb"
    }
  ],
  "aliases": [],
  "shaders": [],
  "discord_id": "",
  "change_for": null
}