{
  "id": 67654,
  "name": "Knack' den Code",
  "slug": "knack-den-code",
  "year": null,
  "banner_url": "",
  "icon_url": "",
  "coverart": null,
  "platforms": [],
  "provider_games": [
    {
      "name": "Knack' den Code",
      "slug": "knack-den-code",
      "service": "igdb"
    }
  ],
  "aliases": [],
  "shaders": [],
  "discord_id": "",
  "change_for": null
}