{
  "id": 208084,
  "name": "Daily Bubble",
  "slug": "daily-bubble",
  "year": null,
  "banner_url": "",
  "icon_url": "",
  "coverart": null,
  "platforms": [],
  "provider_games": [
    {
      "name": "Daily Bubble",
      "slug": "daily-bubble",
      "service": "igdb"
    }
  ],
  "aliases": [],
  "shaders": [],
  "discord_id": "",
  "change_for": null
}