{
  "id": 221898,
  "name": "Online @ The Perfect Time",
  "slug": "online-at-the-perfect-time",
  "year": null,
  "banner_url": "",
  "icon_url": "",
  "coverart": "https://lutris.net/media/igdb/cover_big/co5frr.jpg",
  "platforms": [],
  "provider_games": [
    {
      "name": "Online @ The Perfect Time",
      "slug": "online-at-the-perfect-time",
      "service": "igdb"
    }
  ],
  "aliases": [],
  "shaders": [],
  "discord_id": "",
  "change_for": null
}