{
  "id": 254885,
  "name": "Sweet Dreams",
  "slug": "sweet-dreams--2",
  "year": null,
  "banner_url": "",
  "icon_url": "",
  "coverart": "https://lutris.net/media/igdb/cover_big/co6wg8.jpg",
  "platforms": [],
  "provider_games": [
    {
      "name": "Sweet Dreams",
      "slug": "sweet-dreams--2",
      "service": "igdb"
    }
  ],
  "aliases": [],
  "shaders": [],
  "discord_id": "",
  "change_for": null
}