{
  "id": 203780,
  "name": "Evochron Mobile",
  "slug": "evochron-mobile",
  "year": null,
  "banner_url": "",
  "icon_url": "",
  "coverart": null,
  "platforms": [],
  "provider_games": [
    {
      "name": "Evochron Mobile",
      "slug": "evochron-mobile",
      "service": "igdb"
    }
  ],
  "aliases": [],
  "shaders": [],
  "discord_id": "",
  "change_for": null
}