{
  "id": 109778,
  "name": "Showdown in 2100 A.D.",
  "slug": "showdown-in-2100-ad",
  "year": 1979,
  "banner_url": "",
  "icon_url": "",
  "coverart": "https://lutris.net/media/igdb/cover_big/iskmm83l74vuu4bmvzl5.jpg",
  "platforms": [
    {
      "name": "Philips Videopac G7000"
    }
  ],
  "provider_games": [
    {
      "name": "Showdown in 2100 A.D.",
      "slug": "showdown-in-2100-ad",
      "service": "igdb"
    }
  ],
  "aliases": [],
  "shaders": [],
  "discord_id": "",
  "change_for": null
}