{
  "id": 140386,
  "name": "Tom Clancy's Splinter Cell: Conviction - Deluxe Edition",
  "slug": "tom-clancys-splinter-cell-conviction-deluxe-edition",
  "year": 2010,
  "banner_url": "",
  "icon_url": "",
  "coverart": "https://lutris.net/media/igdb/cover_big/yiw74eth8vfrqg5byxtf.jpg",
  "platforms": [
    {
      "name": "Windows"
    }
  ],
  "provider_games": [
    {
      "name": "Tom Clancy's Splinter Cell: Conviction - Deluxe Edition",
      "slug": "tom-clancys-splinter-cell-conviction-deluxe-edition",
      "service": "igdb"
    }
  ],
  "aliases": [],
  "shaders": [],
  "discord_id": "",
  "change_for": null
}