{
  "id": 79394,
  "name": "Cosmic Swarm",
  "slug": "cosmic-swarm",
  "year": 1982,
  "banner_url": "",
  "icon_url": "",
  "coverart": "https://lutris.net/media/igdb/cover_big/pfkj7uvhlu11lpniigmv.jpg",
  "platforms": [],
  "provider_games": [
    {
      "name": "Cosmic Swarm",
      "slug": "cosmic-swarm",
      "service": "igdb"
    }
  ],
  "aliases": [],
  "shaders": [],
  "discord_id": "",
  "change_for": null
}