{
  "id": 134066,
  "name": "Be The One",
  "slug": "be-the-one",
  "year": null,
  "banner_url": "",
  "icon_url": "",
  "coverart": "https://lutris.net/media/igdb/cover_big/co3m18.jpg",
  "platforms": [],
  "provider_games": [
    {
      "name": "Be the One",
      "slug": "be-the-one",
      "service": "igdb"
    }
  ],
  "aliases": [],
  "shaders": [],
  "discord_id": "",
  "change_for": null
}