{
  "id": 60649,
  "name": "Kuroko no Baske: Shouri e no Kiseki",
  "slug": "kuroko-no-baske-shouri-e-no-kiseki",
  "year": null,
  "banner_url": "",
  "icon_url": "",
  "coverart": "https://lutris.net/media/igdb/cover_big/co4xgq.jpg",
  "platforms": [],
  "provider_games": [
    {
      "name": "Kuroko no Baske: Shouri e no Kiseki",
      "slug": "kuroko-no-baske-shouri-e-no-kiseki",
      "service": "igdb"
    }
  ],
  "aliases": [],
  "shaders": [],
  "discord_id": "",
  "change_for": null
}