{
  "id": 144255,
  "name": "Rockman Complete Works: Rockman",
  "slug": "rockman-complete-works-rockman",
  "year": 1999,
  "banner_url": "",
  "icon_url": "",
  "coverart": "https://lutris.net/media/igdb/cover_big/co3usz.jpg",
  "platforms": [
    {
      "name": "Sony PlayStation"
    }
  ],
  "provider_games": [
    {
      "name": "Rockman Complete Works: Rockman",
      "slug": "rockman-complete-works-rockman",
      "service": "igdb"
    }
  ],
  "aliases": [],
  "shaders": [],
  "discord_id": "",
  "change_for": null
}