{
  "id": 13198,
  "name": "Trio",
  "slug": "trio",
  "year": 2017,
  "banner_url": "https://lutris.net/games/banner/trio.jpg",
  "icon_url": "https://lutris.net/games/icon/trio.png",
  "coverart": "https://lutris.net/media/igdb/cover_big/co2xb5.jpg",
  "platforms": [
    {
      "name": "Windows"
    }
  ],
  "provider_games": [
    {
      "name": "Trio",
      "slug": "642520",
      "service": "steam"
    },
    {
      "name": "Trio",
      "slug": "trio",
      "service": "igdb"
    }
  ],
  "aliases": [],
  "shaders": [],
  "discord_id": "",
  "change_for": null
}