{
  "id": 63048,
  "name": "All Stars",
  "slug": "all-stars",
  "year": null,
  "banner_url": "",
  "icon_url": "",
  "coverart": "https://lutris.net/media/igdb/cover_big/aeg6xrnxj9l4dka9uz8z.jpg",
  "platforms": [],
  "provider_games": [
    {
      "name": "All Stars",
      "slug": "all-stars",
      "service": "igdb"
    }
  ],
  "aliases": [],
  "shaders": [],
  "discord_id": "",
  "change_for": null
}