{
  "id": 242825,
  "name": "Menseki: Area Maze Search",
  "slug": "menseki-area-maze-search",
  "year": 2023,
  "banner_url": "",
  "icon_url": "",
  "coverart": "https://lutris.net/media/igdb/cover_big/co6ff1.jpg",
  "platforms": [
    {
      "name": "Nintendo Switch"
    }
  ],
  "provider_games": [
    {
      "name": "Menseki: Area Maze Search",
      "slug": "menseki-area-maze-search",
      "service": "igdb"
    }
  ],
  "aliases": [],
  "shaders": [],
  "discord_id": "",
  "change_for": null
}