{
  "id": 44026,
  "name": "Unearthed Inc: The Lost Temple",
  "slug": "unearthed-inc-the-lost-temple",
  "year": 2016,
  "banner_url": "https://lutris.net/games/banner/unearthed-inc-the-lost-temple.jpg",
  "icon_url": "https://lutris.net/games/icon/unearthed-inc-the-lost-temple.png",
  "coverart": null,
  "platforms": [
    {
      "name": "Windows"
    }
  ],
  "provider_games": [
    {
      "name": "Unearthed Inc: The Lost Temple",
      "slug": "551720",
      "service": "steam"
    },
    {
      "name": "Unearthed Inc: The Lost Temple",
      "slug": "unearthed-inc-the-lost-temple",
      "service": "igdb"
    }
  ],
  "aliases": [],
  "shaders": [],
  "discord_id": "",
  "change_for": null
}