{
  "id": 29804,
  "name": "Starship Clicker",
  "slug": "starship-clicker",
  "year": 2017,
  "banner_url": "https://lutris.net/games/banner/starship-clicker.jpg",
  "icon_url": "https://lutris.net/games/icon/starship-clicker.png",
  "coverart": null,
  "platforms": [
    {
      "name": "Windows"
    }
  ],
  "provider_games": [
    {
      "name": "Starship Clicker",
      "slug": "744590",
      "service": "steam"
    },
    {
      "name": "Starship Clicker",
      "slug": "starship-clicker",
      "service": "igdb"
    }
  ],
  "aliases": [],
  "shaders": [],
  "discord_id": "",
  "change_for": null
}