{
  "id": 165265,
  "name": "Street Legal Racing: Redline v2.3.1",
  "slug": "street-legal-racing-redline-v2-dot-3-1",
  "year": 2016,
  "banner_url": "",
  "icon_url": "",
  "coverart": "https://lutris.net/media/igdb/cover_big/co425v.jpg",
  "platforms": [
    {
      "name": "Windows"
    }
  ],
  "provider_games": [
    {
      "name": "Street Legal Racing: Redline v2.3.1",
      "slug": "street-legal-racing-redline-v2-dot-3-1",
      "service": "igdb"
    }
  ],
  "aliases": [],
  "shaders": [],
  "discord_id": "",
  "change_for": null
}