{
  "id": 131083,
  "name": "*NEW* SCUFFED EPIC BHOP SIMULATOR 2023 (POG CHAMP)",
  "slug": "star-new-star-scuffed-epic-bhop-simulator-2023-pog-champ",
  "year": 2020,
  "banner_url": "",
  "icon_url": "",
  "coverart": "https://lutris.net/media/igdb/cover_big/co2l5s.jpg",
  "platforms": [
    {
      "name": "Windows"
    }
  ],
  "provider_games": [
    {
      "name": "*NEW* SCUFFED EPIC BHOP SIMULATOR 2023 (POG CHAMP)",
      "slug": "star-new-star-scuffed-epic-bhop-simulator-2023-pog-champ",
      "service": "igdb"
    }
  ],
  "aliases": [],
  "shaders": [],
  "discord_id": "",
  "change_for": null
}