{
  "id": 17848,
  "name": "Radical Heights",
  "slug": "radical-heights",
  "year": 2018,
  "banner_url": "https://lutris.net/games/banner/radical-heights.jpg",
  "icon_url": "https://lutris.net/games/icon/radical-heights.png",
  "coverart": "https://lutris.net/media/igdb/cover_big/co1igj.jpg",
  "platforms": [
    {
      "name": "Windows"
    }
  ],
  "provider_games": [
    {
      "name": "Radical Heights",
      "slug": "809960",
      "service": "steam"
    },
    {
      "name": "Radical Heights",
      "slug": "radical-heights",
      "service": "igdb"
    }
  ],
  "aliases": [],
  "shaders": [],
  "discord_id": "443158281624617000",
  "change_for": null
}