{
  "id": 33399,
  "name": "Bomber Man World / New Dyna Blaster - Global Quest",
  "slug": "bomber-man-world-new-dyna-blaster-global-quest",
  "year": 1992,
  "banner_url": "",
  "icon_url": "https://lutris.net/games/icon/bomber-man-world-new-dyna-blaster-global-quest.png",
  "coverart": null,
  "platforms": [
    {
      "name": "Arcade"
    }
  ],
  "provider_games": [
    {
      "name": "Bomber Man World / New Dyna Blaster - Global Quest",
      "slug": "bbmanw",
      "service": "mame"
    }
  ],
  "aliases": [],
  "shaders": [],
  "discord_id": "",
  "change_for": null
}