{
  "id": 292409,
  "name": "Concrete",
  "slug": "concrete",
  "year": null,
  "banner_url": "",
  "icon_url": "",
  "coverart": "https://lutris.net/media/igdb/cover_big/co8mfg.jpg",
  "platforms": [],
  "provider_games": [
    {
      "name": "Concrete",
      "slug": "concrete",
      "service": "igdb"
    }
  ],
  "aliases": [],
  "shaders": [],
  "discord_id": "",
  "change_for": null
}