{
  "id": 58127,
  "name": "Kung Fu Do Fighting",
  "slug": "kung-fu-do-fighting",
  "year": null,
  "banner_url": "",
  "icon_url": "",
  "coverart": "https://lutris.net/media/igdb/cover_big/ec4oa3tl4afxexuspzvg.jpg",
  "platforms": [],
  "provider_games": [
    {
      "name": "Kung Fu Do Fighting",
      "slug": "kung-fu-do-fighting",
      "service": "igdb"
    }
  ],
  "aliases": [],
  "shaders": [],
  "discord_id": "",
  "change_for": null
}