{
  "id": 49276,
  "name": "Oji-san Tomete Iede Gal to no Win Win Sex Life",
  "slug": "oji-san-tomete-iede-gal-to-no-win-win-sex-life",
  "year": null,
  "banner_url": "",
  "icon_url": "",
  "coverart": null,
  "platforms": [],
  "provider_games": [
    {
      "name": "Oji-san Tomete Iede Gal to no Win Win Sex Life",
      "slug": "oji-san-tomete-iede-gal-to-no-win-win-sex-life",
      "service": "igdb"
    }
  ],
  "aliases": [],
  "shaders": [],
  "discord_id": "",
  "change_for": null
}