{
  "id": 287603,
  "name": "Nemo: Puzzle Pack II",
  "slug": "nemo-puzzle-pack-ii",
  "year": 2022,
  "banner_url": "",
  "icon_url": "",
  "coverart": "https://lutris.net/media/igdb/cover_big/co8a3i.jpg",
  "platforms": [
    {
      "name": "Browser"
    }
  ],
  "provider_games": [
    {
      "name": "Nemo: Puzzle Pack II",
      "slug": "nemo-puzzle-pack-ii",
      "service": "igdb"
    }
  ],
  "aliases": [],
  "shaders": [],
  "discord_id": "",
  "change_for": null
}