{
  "id": 72898,
  "name": "Nama Chūkei 68",
  "slug": "nama-chukei-68",
  "year": null,
  "banner_url": "",
  "icon_url": "",
  "coverart": null,
  "platforms": [],
  "provider_games": [
    {
      "name": "Nama Chūkei 68",
      "slug": "nama-chukei-68",
      "service": "igdb"
    }
  ],
  "aliases": [],
  "shaders": [],
  "discord_id": "",
  "change_for": null
}