{
  "id": 86398,
  "name": "G2: Geeks Unleashed",
  "slug": "g2-geeks-unleashed",
  "year": null,
  "banner_url": "",
  "icon_url": "",
  "coverart": null,
  "platforms": [],
  "provider_games": [
    {
      "name": "G2: Geeks Unleashed",
      "slug": "g2-geeks-unleashed",
      "service": "igdb"
    }
  ],
  "aliases": [],
  "shaders": [],
  "discord_id": "",
  "change_for": null
}