{
  "id": 106575,
  "name": "Pearl Harbor Trilogy: 1941 - Red Sun Rising",
  "slug": "pearl-harbor-trilogy-1941-red-sun-rising",
  "year": 2010,
  "banner_url": "",
  "icon_url": "",
  "coverart": "https://lutris.net/media/igdb/cover_big/sovrtpb5foeks5cf53yv.jpg",
  "platforms": [
    {
      "name": "Nintendo Wii"
    }
  ],
  "provider_games": [
    {
      "name": "Pearl Harbor Trilogy: 1941 - Red Sun Rising",
      "slug": "pearl-harbor-trilogy-1941-red-sun-rising",
      "service": "igdb"
    }
  ],
  "aliases": [],
  "shaders": [],
  "discord_id": "",
  "change_for": null
}