{
  "id": 161681,
  "name": "Furry Shakespeare: Emperor Penguin Lear",
  "slug": "furry-shakespeare-emperor-penguin-lear",
  "year": null,
  "banner_url": "",
  "icon_url": "",
  "coverart": "https://lutris.net/media/igdb/cover_big/co400v.jpg",
  "platforms": [],
  "provider_games": [
    {
      "name": "Furry Shakespeare: Emperor Penguin Lear",
      "slug": "furry-shakespeare-emperor-penguin-lear",
      "service": "igdb"
    }
  ],
  "aliases": [],
  "shaders": [],
  "discord_id": "",
  "change_for": null
}