{
  "id": 31574,
  "name": "Seal Guardian",
  "slug": "seal-guardian",
  "year": 2017,
  "banner_url": "https://lutris.net/games/banner/seal-guardian.jpg",
  "icon_url": "https://lutris.net/games/icon/seal-guardian.png",
  "coverart": "https://lutris.net/media/igdb/cover_big/linx0so2zshdtpmgh0hk.jpg",
  "platforms": [
    {
      "name": "Mac"
    },
    {
      "name": "Windows"
    }
  ],
  "provider_games": [
    {
      "name": "Seal Guardian",
      "slug": "741620",
      "service": "steam"
    },
    {
      "name": "Seal Guardian",
      "slug": "seal-guardian",
      "service": "igdb"
    }
  ],
  "aliases": [],
  "shaders": [],
  "discord_id": "",
  "change_for": null
}