{
  "id": 152474,
  "name": "Oakwood",
  "slug": "oakwood",
  "year": 2018,
  "banner_url": "https://lutris.net/games/banner/oakwood.jpg",
  "icon_url": "",
  "coverart": "https://lutris.net/media/igdb/cover_big/co1t6d.jpg",
  "platforms": [
    {
      "name": "Windows"
    }
  ],
  "provider_games": [
    {
      "name": "Oakwood",
      "slug": "890970",
      "service": "steam"
    },
    {
      "name": "Oakwood",
      "slug": "oakwood",
      "service": "igdb"
    }
  ],
  "aliases": [],
  "shaders": [],
  "discord_id": "",
  "change_for": null
}