{
  "id": 47109,
  "name": "Call of Mini: Zombies",
  "slug": "call-of-mini-zombies",
  "year": null,
  "banner_url": "",
  "icon_url": "",
  "coverart": "https://lutris.net/media/igdb/cover_big/yothjzuxmpikslaro55g.jpg",
  "platforms": [],
  "provider_games": [
    {
      "name": "Call of Mini: Zombies",
      "slug": "call-of-mini-zombies",
      "service": "igdb"
    }
  ],
  "aliases": [],
  "shaders": [],
  "discord_id": "",
  "change_for": null
}