{
  "id": 57007,
  "name": "Johnny 3: Moonlightificated",
  "slug": "johnny-3-moonlightificated",
  "year": null,
  "banner_url": "",
  "icon_url": "",
  "coverart": "https://lutris.net/media/igdb/cover_big/kcotuf64tawmuboranul.jpg",
  "platforms": [],
  "provider_games": [
    {
      "name": "Johnny 3: Moonlightificated",
      "slug": "johnny-3-moonlightificated",
      "service": "igdb"
    }
  ],
  "aliases": [],
  "shaders": [],
  "discord_id": "",
  "change_for": null
}