{
  "id": 267367,
  "name": "Annihilator",
  "slug": "annihilator--2",
  "year": null,
  "banner_url": "",
  "icon_url": "",
  "coverart": "https://lutris.net/media/igdb/cover_big/co7e5f.jpg",
  "platforms": [],
  "provider_games": [
    {
      "name": "Annihilator",
      "slug": "annihilator--2",
      "service": "igdb"
    }
  ],
  "aliases": [],
  "shaders": [],
  "discord_id": "",
  "change_for": null
}