{
  "id": 276351,
  "name": "Phenom Overdrive",
  "slug": "phenom-overdrive",
  "year": null,
  "banner_url": "",
  "icon_url": "",
  "coverart": "https://lutris.net/media/igdb/cover_big/co7um3.jpg",
  "platforms": [],
  "provider_games": [
    {
      "name": "Phenom Overdrive",
      "slug": "phenom-overdrive",
      "service": "igdb"
    }
  ],
  "aliases": [],
  "shaders": [],
  "discord_id": "",
  "change_for": null
}