{
  "id": 170848,
  "name": "Move It Up",
  "slug": "move-it-up",
  "year": null,
  "banner_url": "",
  "icon_url": "",
  "coverart": "https://lutris.net/media/igdb/cover_big/co46zs.jpg",
  "platforms": [],
  "provider_games": [
    {
      "name": "Move It Up",
      "slug": "move-it-up",
      "service": "igdb"
    }
  ],
  "aliases": [],
  "shaders": [],
  "discord_id": "",
  "change_for": null
}