{
  "id": 87749,
  "name": "Prism Queen's Heroine",
  "slug": "prism-queens-heroine",
  "year": null,
  "banner_url": "",
  "icon_url": "",
  "coverart": null,
  "platforms": [],
  "provider_games": [
    {
      "name": "Prism Queen's Heroine",
      "slug": "prism-queens-heroine",
      "service": "igdb"
    }
  ],
  "aliases": [],
  "shaders": [],
  "discord_id": "",
  "change_for": null
}