{
  "id": 235569,
  "name": "Franco and Apollo",
  "slug": "franco-and-apollo",
  "year": null,
  "banner_url": "",
  "icon_url": "",
  "coverart": null,
  "platforms": [
    {
      "name": "Windows"
    }
  ],
  "provider_games": [
    {
      "name": "Franco and Apollo",
      "slug": "franco-and-apollo",
      "service": "igdb"
    }
  ],
  "aliases": [],
  "shaders": [],
  "discord_id": "",
  "change_for": null
}