{
  "id": 148277,
  "name": "Taking Valhalla VR",
  "slug": "taking-valhalla-vr",
  "year": 2017,
  "banner_url": "https://lutris.net/games/banner/taking-valhalla-vr.jpg",
  "icon_url": "",
  "coverart": null,
  "platforms": [
    {
      "name": "Windows"
    }
  ],
  "provider_games": [
    {
      "name": "Taking Valhalla VR",
      "slug": "693400",
      "service": "steam"
    },
    {
      "name": "Taking Valhalla VR",
      "slug": "taking-valhalla-vr",
      "service": "igdb"
    }
  ],
  "aliases": [],
  "shaders": [],
  "discord_id": "",
  "change_for": null
}