{
  "id": 202705,
  "name": "B-Team",
  "slug": "b-team",
  "year": 2020,
  "banner_url": "",
  "icon_url": "",
  "coverart": "https://lutris.net/media/igdb/cover_big/co63lp.jpg",
  "platforms": [
    {
      "name": "Oculus Quest"
    },
    {
      "name": "Oculus Quest 2"
    }
  ],
  "provider_games": [
    {
      "name": "B-Team",
      "slug": "b-team",
      "service": "igdb"
    }
  ],
  "aliases": [],
  "shaders": [],
  "discord_id": "",
  "change_for": null
}