{
  "id": 26636,
  "name": "DragonFangZ",
  "slug": "dragonfangz",
  "year": null,
  "banner_url": "https://lutris.net/games/banner/dragonfangz.jpg",
  "icon_url": "https://lutris.net/games/icon/dragonfangz.png",
  "coverart": null,
  "platforms": [],
  "provider_games": [
    {
      "name": "DragonFangZ",
      "slug": "749850",
      "service": "steam"
    }
  ],
  "aliases": [],
  "shaders": [],
  "discord_id": "",
  "change_for": null
}