{
  "id": 67944,
  "name": "Triad Volume 2",
  "slug": "triad-volume-2",
  "year": null,
  "banner_url": "",
  "icon_url": "",
  "coverart": null,
  "platforms": [],
  "provider_games": [
    {
      "name": "Triad Volume 2",
      "slug": "triad-volume-2",
      "service": "igdb"
    }
  ],
  "aliases": [],
  "shaders": [],
  "discord_id": "",
  "change_for": null
}