{
  "id": 122763,
  "name": "Spark in the Dark",
  "slug": "spark-in-the-dark",
  "year": null,
  "banner_url": "",
  "icon_url": "",
  "coverart": "https://lutris.net/media/igdb/cover_big/co2jpj.jpg",
  "platforms": [],
  "provider_games": [
    {
      "name": "Spark in the Dark",
      "slug": "spark-in-the-dark",
      "service": "igdb"
    },
    {
      "name": "Spark in the Dark",
      "slug": "1450374085",
      "service": "gog"
    }
  ],
  "aliases": [],
  "shaders": [],
  "discord_id": "",
  "change_for": null
}