{
  "id": 19736,
  "game_id": 7845,
  "game_slug": "cataclysm-dark-days-ahead",
  "name": "Cataclysm: Dark Days Ahead",
  "year": 2013,
  "user": "proletariatpowershell",
  "runner": "linux",
  "slug": "cataclysm-dark-days-ahead-0e-ellison-stable-ti",
  "version": "0.E Ellison Stable Tiles",
  "description": null,
  "notes": "",
  "credits": "",
  "created_at": "2020-04-16T01:16:34.829000Z",
  "updated_at": "2024-04-03T05:34:04.352164Z",
  "draft": false,
  "published": true,
  "published_by": 20548,
  "rating": "",
  "is_playable": null,
  "steamid": 2330750,
  "gogid": null,
  "gogslug": "",
  "humbleid": "",
  "humblestoreid": "",
  "humblestoreid_real": "",
  "script": {
    "files": [
      {
        "game": "https://github.com/CleverRaven/Cataclysm-DDA/releases/download/0.E/cataclysmdda-0.E-Linux_x64-Tiles-10478.tar.gz"
      }
    ],
    "game": {
      "exe": "cataclysm-launcher"
    },
    "installer": [
      {
        "extract": {
          "dst": "$GAMEDIR/",
          "format": "tgz",
          "src": "game"
        }
      }
    ]
  },
  "content": "files:\n- game: https://github.com/CleverRaven/Cataclysm-DDA/releases/download/0.E/cataclysmdda-0.E-Linux_x64-Tiles-10478.tar.gz\ngame:\n  exe: cataclysm-launcher\ninstaller:\n- extract:\n    dst: $GAMEDIR/\n    format: tgz\n    src: game\n",
  "discord_id": ""
}