{
  "id": 150095,
  "name": "Undead Legions II",
  "slug": "undead-legions-ii",
  "year": 2018,
  "banner_url": "https://lutris.net/games/banner/undead-legions-ii.jpg",
  "icon_url": "",
  "coverart": null,
  "platforms": [
    {
      "name": "Windows"
    }
  ],
  "provider_games": [
    {
      "name": "Undead Legions II",
      "slug": "341490",
      "service": "steam"
    },
    {
      "name": "Undead Legions II",
      "slug": "undead-legions-ii",
      "service": "igdb"
    }
  ],
  "aliases": [],
  "shaders": [],
  "discord_id": "",
  "change_for": null
}