{
  "id": 42426,
  "name": "Yo! Joe!",
  "slug": "yo-joe",
  "year": 1993,
  "banner_url": "https://lutris.net/games/banner/yo-joe.jpg",
  "icon_url": "",
  "coverart": "https://lutris.net/media/igdb/cover_big/d9cvul6wcemu3kieriwu.jpg",
  "platforms": [
    {
      "name": "Amiga"
    },
    {
      "name": "MS-DOS"
    }
  ],
  "provider_games": [
    {
      "name": "Yo! Joe!",
      "slug": "yo-joe",
      "service": "igdb"
    }
  ],
  "aliases": [],
  "shaders": [],
  "discord_id": "",
  "change_for": null
}