{
  "id": 136902,
  "name": "Entertainment Hero",
  "slug": "entertainment-hero",
  "year": null,
  "banner_url": "https://lutris.net/games/banner/entertainment-hero.jpg",
  "icon_url": "",
  "coverart": "https://lutris.net/media/igdb/cover_big/co3px9.jpg",
  "platforms": [],
  "provider_games": [
    {
      "name": "The Windzen Hero",
      "slug": "777540",
      "service": "steam"
    },
    {
      "name": "Entertainment Hero",
      "slug": "entertainment-hero",
      "service": "igdb"
    }
  ],
  "aliases": [],
  "shaders": [],
  "discord_id": "",
  "change_for": null
}