{
  "id": 291839,
  "name": "Lightracer: For Judge",
  "slug": "lightracer-for-judge",
  "year": null,
  "banner_url": "",
  "icon_url": "",
  "coverart": "https://lutris.net/media/igdb/cover_big/co8k2h.jpg",
  "platforms": [],
  "provider_games": [
    {
      "name": "Lightracer: For Judge",
      "slug": "lightracer-for-judge",
      "service": "igdb"
    }
  ],
  "aliases": [],
  "shaders": [],
  "discord_id": "",
  "change_for": null
}