{
  "id": 224480,
  "name": "Blocky Dungeon",
  "slug": "blocky-dungeon",
  "year": null,
  "banner_url": "https://lutris.net/games/banner/blocky-dungeon.jpg",
  "icon_url": "",
  "coverart": "https://lutris.net/media/igdb/cover_big/co5bql.jpg",
  "platforms": [],
  "provider_games": [
    {
      "name": "Blocky Dungeon",
      "slug": "1683370",
      "service": "steam"
    },
    {
      "name": "Blocky Dungeon",
      "slug": "blocky-dungeon",
      "service": "igdb"
    }
  ],
  "aliases": [],
  "shaders": [],
  "discord_id": "",
  "change_for": null
}