{
  "id": 93506,
  "name": "Into the Realm",
  "slug": "into-the-realm",
  "year": null,
  "banner_url": "",
  "icon_url": "",
  "coverart": null,
  "platforms": [],
  "provider_games": [
    {
      "name": "Into the Realm",
      "slug": "into-the-realm",
      "service": "igdb"
    }
  ],
  "aliases": [],
  "shaders": [],
  "discord_id": "",
  "change_for": null
}