{
  "id": 210187,
  "name": "Q Remastered",
  "slug": "q-remastered",
  "year": null,
  "banner_url": "https://lutris.net/games/banner/q-remastered.jpg",
  "icon_url": "",
  "coverart": "https://lutris.net/media/igdb/cover_big/co5sa1.jpg",
  "platforms": [],
  "provider_games": [
    {
      "name": "Q Remastered",
      "slug": "q-remastered",
      "service": "igdb"
    },
    {
      "name": "Q  REMASTERED",
      "slug": "2246110",
      "service": "steam"
    }
  ],
  "aliases": [],
  "shaders": [],
  "discord_id": "",
  "change_for": null
}