{
  "id": 19150,
  "name": "The Legend of Spyro: The Eternal Night",
  "slug": "the-legend-of-spyro-the-eternal-night",
  "year": 2007,
  "banner_url": "https://lutris.net/games/banner/the-legend-of-spyro-the-eternal-night.jpg",
  "icon_url": "",
  "coverart": "https://lutris.net/media/igdb/cover_big/co1yrz.jpg",
  "platforms": [
    {
      "name": "Nintendo DS"
    },
    {
      "name": "Nintendo Game Boy Advance"
    },
    {
      "name": "Nintendo Wii"
    },
    {
      "name": "Sony PlayStation 2"
    }
  ],
  "provider_games": [
    {
      "name": "The Legend of Spyro: The Eternal Night",
      "slug": "the-legend-of-spyro-the-eternal-night",
      "service": "igdb"
    }
  ],
  "aliases": [],
  "shaders": [],
  "discord_id": "",
  "change_for": null
}