{
  "id": 117238,
  "name": "Castle Conqueror EX",
  "slug": "castle-conqueror-ex",
  "year": 2014,
  "banner_url": "",
  "icon_url": "",
  "coverart": "https://lutris.net/media/igdb/cover_big/by5okyge1ml6twt5j6yn.jpg",
  "platforms": [
    {
      "name": "Nintendo 3DS"
    }
  ],
  "provider_games": [
    {
      "name": "Castle Conqueror EX",
      "slug": "castle-conqueror-ex",
      "service": "igdb"
    }
  ],
  "aliases": [],
  "shaders": [],
  "discord_id": "",
  "change_for": null
}