{
  "id": 281568,
  "name": "Speed Tapping Idle RPG for Touhou",
  "slug": "speed-tapping-idle-rpg-for-touhou",
  "year": null,
  "banner_url": "",
  "icon_url": "",
  "coverart": null,
  "platforms": [],
  "provider_games": [
    {
      "name": "Speed Tapping Idle RPG for Touhou",
      "slug": "speed-tapping-idle-rpg-for-touhou",
      "service": "igdb"
    }
  ],
  "aliases": [],
  "shaders": [],
  "discord_id": "",
  "change_for": null
}