{
  "id": 155148,
  "name": "Parallel",
  "slug": "parallel--2",
  "year": null,
  "banner_url": "",
  "icon_url": "",
  "coverart": "https://lutris.net/media/igdb/cover_big/co3xl8.jpg",
  "platforms": [],
  "provider_games": [
    {
      "name": "Parallel",
      "slug": "parallel--2",
      "service": "igdb"
    }
  ],
  "aliases": [],
  "shaders": [],
  "discord_id": "",
  "change_for": null
}