{
  "id": 9644,
  "name": "Clown2Beat",
  "slug": "clown2beat",
  "year": 2016,
  "banner_url": "https://lutris.net/games/banner/clown2beat.jpg",
  "icon_url": "https://lutris.net/games/icon/clown2beat.png",
  "coverart": "https://lutris.net/media/igdb/cover_big/co3nbp.jpg",
  "platforms": [
    {
      "name": "Windows"
    }
  ],
  "provider_games": [
    {
      "name": "Clown2Beat",
      "slug": "547870",
      "service": "steam"
    },
    {
      "name": "Clown2Beat",
      "slug": "clown2beat",
      "service": "igdb"
    }
  ],
  "aliases": [],
  "shaders": [],
  "discord_id": "",
  "change_for": null
}