{
  "id": 59674,
  "name": "Amen Jesus Flap",
  "slug": "amen-jesus-flap",
  "year": null,
  "banner_url": "",
  "icon_url": "",
  "coverart": "https://lutris.net/media/igdb/cover_big/dqhyhrbvrevlo4j1y7ar.jpg",
  "platforms": [],
  "provider_games": [
    {
      "name": "Amen Jesus Flap",
      "slug": "amen-jesus-flap",
      "service": "igdb"
    }
  ],
  "aliases": [],
  "shaders": [],
  "discord_id": "",
  "change_for": null
}