{
  "id": 230842,
  "name": "Downtown Dealers",
  "slug": "downtown-dealers",
  "year": null,
  "banner_url": "",
  "icon_url": "",
  "coverart": "https://lutris.net/media/igdb/cover_big/co6cop.jpg",
  "platforms": [],
  "provider_games": [
    {
      "name": "Downtown Dealers",
      "slug": "downtown-dealers",
      "service": "igdb"
    }
  ],
  "aliases": [],
  "shaders": [],
  "discord_id": "",
  "change_for": null
}