{
  "id": 231283,
  "name": "SharkKing",
  "slug": "sharkking",
  "year": null,
  "banner_url": "",
  "icon_url": "",
  "coverart": "https://lutris.net/media/igdb/cover_big/co68d7.jpg",
  "platforms": [],
  "provider_games": [
    {
      "name": "SharkKing",
      "slug": "sharkking",
      "service": "igdb"
    }
  ],
  "aliases": [],
  "shaders": [],
  "discord_id": "",
  "change_for": null
}