{
  "id": 133338,
  "name": "Zenorost Realm",
  "slug": "zenorost-realm",
  "year": null,
  "banner_url": "",
  "icon_url": "",
  "coverart": "https://lutris.net/media/igdb/cover_big/co3l0e.jpg",
  "platforms": [],
  "provider_games": [
    {
      "name": "Zenorost Realm",
      "slug": "zenorost-realm",
      "service": "igdb"
    }
  ],
  "aliases": [],
  "shaders": [],
  "discord_id": "",
  "change_for": null
}