{
  "id": 167167,
  "name": "The Girl of Glass: A Summer Bird's Tale",
  "slug": "the-girl-of-glass-a-summer-birds-tale",
  "year": 2020,
  "banner_url": "https://lutris.net/games/banner/the-girl-of-glass-a-summer-birds-tale.jpg",
  "icon_url": "",
  "coverart": "https://lutris.net/media/igdb/cover_big/co43t3.jpg",
  "platforms": [
    {
      "name": "Windows"
    }
  ],
  "provider_games": [
    {
      "name": "The Girl of Glass: A Summer Bird's Tale",
      "slug": "1203750",
      "service": "steam"
    },
    {
      "name": "The Girl of Glass: A Summer Bird's Tale",
      "slug": "the-girl-of-glass-a-summer-birds-tale",
      "service": "igdb"
    }
  ],
  "aliases": [],
  "shaders": [],
  "discord_id": "",
  "change_for": null
}