{
  "id": 386,
  "game_id": 1710,
  "game_slug": "arma-gold-edition",
  "name": "Arma: Gold Edition",
  "year": 2011,
  "user": "strider",
  "runner": "steam",
  "slug": "arma-gold-edition-proton",
  "version": "Proton",
  "description": "",
  "notes": "",
  "credits": "",
  "created_at": "2014-01-16T21:46:22.485000Z",
  "updated_at": "2021-05-04T02:43:01.239084Z",
  "draft": false,
  "published": true,
  "published_by": null,
  "rating": "",
  "is_playable": null,
  "steamid": 65780,
  "gogid": null,
  "gogslug": "",
  "humbleid": "",
  "humblestoreid": "",
  "humblestoreid_real": "",
  "script": {
    "game": {
      "appid": 65780
    }
  },
  "content": "game:\n  appid: 65780\n",
  "discord_id": ""
}