{
  "id": 260253,
  "name": "Devil's Mansion",
  "slug": "devils-mansion",
  "year": null,
  "banner_url": "",
  "icon_url": "",
  "coverart": null,
  "platforms": [],
  "provider_games": [
    {
      "name": "Devil's Mansion",
      "slug": "devils-mansion",
      "service": "igdb"
    }
  ],
  "aliases": [],
  "shaders": [],
  "discord_id": "",
  "change_for": null
}