{
  "id": 34705,
  "name": "Lode Runner II - The Bungeling Strikes Back",
  "slug": "lode-runner-ii-the-bungeling-strikes-back",
  "year": 1984,
  "banner_url": "",
  "icon_url": "https://lutris.net/games/icon/lode-runner-ii-the-bungeling-strikes-back.png",
  "coverart": null,
  "platforms": [
    {
      "name": "Arcade"
    }
  ],
  "provider_games": [
    {
      "name": "Lode Runner II - The Bungeling Strikes Back",
      "slug": "ldrun2",
      "service": "mame"
    }
  ],
  "aliases": [],
  "shaders": [],
  "discord_id": "",
  "change_for": null
}