{
  "id": 287434,
  "name": "Tales from Toyotoki: Arrival of the Witch",
  "slug": "tales-from-toyotoki-arrival-of-the-witch--1",
  "year": 2022,
  "banner_url": "",
  "icon_url": "",
  "coverart": null,
  "platforms": [
    {
      "name": "Nintendo Switch"
    },
    {
      "name": "Sony Playstation 4"
    },
    {
      "name": "Sony PlayStation 5"
    },
    {
      "name": "Windows"
    },
    {
      "name": "Xbox One"
    },
    {
      "name": "Xbox Series X|S"
    }
  ],
  "provider_games": [
    {
      "name": "Tales From Toyotoki: Arrival of the Witch",
      "slug": "tales-from-toyotoki-arrival-of-the-witch--1",
      "service": "igdb"
    }
  ],
  "aliases": [],
  "shaders": [],
  "discord_id": "",
  "change_for": null
}