{
  "id": 223034,
  "name": "Bounty Hunter 2099 Pinball",
  "slug": "bounty-hunter-2099-pinball",
  "year": null,
  "banner_url": "",
  "icon_url": "",
  "coverart": "https://lutris.net/media/igdb/cover_big/co6xxi.jpg",
  "platforms": [],
  "provider_games": [
    {
      "name": "Bounty Hunter 2099 Pinball",
      "slug": "bounty-hunter-2099-pinball",
      "service": "igdb"
    }
  ],
  "aliases": [],
  "shaders": [],
  "discord_id": "",
  "change_for": null
}