{
  "id": 61519,
  "name": "Mavis Beacon Teaches Typing: 2011 Ultimate Mac Edition",
  "slug": "mavis-beacon-teaches-typing-2011-ultimate-mac-edition",
  "year": null,
  "banner_url": "",
  "icon_url": "",
  "coverart": "https://lutris.net/media/igdb/cover_big/qglrsy1qmntlihmwl2y8.jpg",
  "platforms": [],
  "provider_games": [
    {
      "name": "Mavis Beacon Teaches Typing: 2011 Ultimate Mac Edition",
      "slug": "mavis-beacon-teaches-typing-2011-ultimate-mac-edition",
      "service": "igdb"
    }
  ],
  "aliases": [],
  "shaders": [],
  "discord_id": "",
  "change_for": null
}