{
  "id": 82970,
  "name": "Breaking Bad: VR Experience",
  "slug": "breaking-bad-vr-experience",
  "year": null,
  "banner_url": "",
  "icon_url": "",
  "coverart": "https://lutris.net/media/igdb/cover_big/co53mb.jpg",
  "platforms": [],
  "provider_games": [
    {
      "name": "Breaking Bad: VR Experience",
      "slug": "breaking-bad-vr-experience",
      "service": "igdb"
    }
  ],
  "aliases": [],
  "shaders": [],
  "discord_id": "",
  "change_for": null
}