{
  "id": 92152,
  "name": "Idle Drops",
  "slug": "idle-drops",
  "year": null,
  "banner_url": "",
  "icon_url": "",
  "coverart": null,
  "platforms": [],
  "provider_games": [
    {
      "name": "Idle Drops",
      "slug": "idle-drops",
      "service": "igdb"
    }
  ],
  "aliases": [],
  "shaders": [],
  "discord_id": "",
  "change_for": null
}