{
  "id": 233622,
  "name": "Zig Zag Boom",
  "slug": "zig-zag-boom",
  "year": null,
  "banner_url": "",
  "icon_url": "",
  "coverart": null,
  "platforms": [],
  "provider_games": [
    {
      "name": "Zig Zag Boom",
      "slug": "zig-zag-boom",
      "service": "igdb"
    }
  ],
  "aliases": [],
  "shaders": [],
  "discord_id": "",
  "change_for": null
}