{
  "id": 107161,
  "name": "Staggy the Boy Scout Slayer II",
  "slug": "staggy-the-boy-scout-slayer-ii",
  "year": 2006,
  "banner_url": "",
  "icon_url": "",
  "coverart": null,
  "platforms": [
    {
      "name": "Browser"
    }
  ],
  "provider_games": [
    {
      "name": "Staggy the Boy Scout Slayer II",
      "slug": "staggy-the-boy-scout-slayer-ii",
      "service": "igdb"
    }
  ],
  "aliases": [],
  "shaders": [],
  "discord_id": "",
  "change_for": null
}