{
  "id": 52090,
  "name": "The House Jack Built",
  "slug": "the-house-jack-built",
  "year": null,
  "banner_url": "",
  "icon_url": "",
  "coverart": "https://lutris.net/media/igdb/cover_big/wvztonsd1ezzckxry0tq.jpg",
  "platforms": [],
  "provider_games": [
    {
      "name": "The House Jack Built",
      "slug": "the-house-jack-built",
      "service": "igdb"
    }
  ],
  "aliases": [],
  "shaders": [],
  "discord_id": "",
  "change_for": null
}