{
  "id": 993,
  "name": "Puzzle Kingdoms",
  "slug": "puzzle-kingdoms",
  "year": 2009,
  "banner_url": "https://lutris.net/games/banner/puzzle-kingdoms.jpg",
  "icon_url": "https://lutris.net/games/icon/puzzle-kingdoms.png",
  "coverart": "https://lutris.net/media/igdb/cover_big/co21gs.jpg",
  "platforms": [
    {
      "name": "Nintendo DS"
    },
    {
      "name": "Nintendo Wii"
    },
    {
      "name": "Windows"
    }
  ],
  "provider_games": [
    {
      "name": "Puzzle Kingdoms",
      "slug": "23700",
      "service": "steam"
    },
    {
      "name": "Puzzle Kingdoms",
      "slug": "puzzle-kingdoms",
      "service": "igdb"
    }
  ],
  "aliases": [],
  "shaders": [],
  "discord_id": "",
  "change_for": null
}