{
  "id": 216070,
  "name": "When Honor Dies",
  "slug": "when-honor-dies",
  "year": null,
  "banner_url": "",
  "icon_url": "",
  "coverart": "https://lutris.net/media/igdb/cover_big/co58f6.jpg",
  "platforms": [],
  "provider_games": [
    {
      "name": "When Honor Dies",
      "slug": "when-honor-dies",
      "service": "igdb"
    }
  ],
  "aliases": [],
  "shaders": [],
  "discord_id": "",
  "change_for": null
}