{
  "id": 239790,
  "name": "Ornament Express",
  "slug": "ornament-express",
  "year": null,
  "banner_url": "",
  "icon_url": "",
  "coverart": "https://lutris.net/media/igdb/cover_big/co62nc.jpg",
  "platforms": [],
  "provider_games": [
    {
      "name": "Ornament Express",
      "slug": "ornament-express",
      "service": "igdb"
    }
  ],
  "aliases": [],
  "shaders": [],
  "discord_id": "",
  "change_for": null
}