{
  "id": 298005,
  "name": "Through The Veil",
  "slug": "through-the-veil",
  "year": null,
  "banner_url": "",
  "icon_url": "",
  "coverart": "https://lutris.net/media/igdb/cover_big/co8x2p.jpg",
  "platforms": [],
  "provider_games": [
    {
      "name": "Through The Veil",
      "slug": "through-the-veil",
      "service": "igdb"
    }
  ],
  "aliases": [],
  "shaders": [],
  "discord_id": "",
  "change_for": null
}