{
  "id": 75931,
  "name": "State of Decay 3",
  "slug": "state-of-decay-3",
  "year": null,
  "banner_url": "",
  "icon_url": "",
  "coverart": "https://lutris.net/media/igdb/cover_big/co2eby.jpg",
  "platforms": [
    {
      "name": "Windows"
    },
    {
      "name": "Xbox Series X|S"
    }
  ],
  "provider_games": [
    {
      "name": "State of Decay 3",
      "slug": "state-of-decay-3",
      "service": "igdb"
    }
  ],
  "aliases": [],
  "shaders": [],
  "discord_id": "",
  "change_for": null
}