{
  "id": 272767,
  "name": "Hentai Karada",
  "slug": "hentai-karada",
  "year": null,
  "banner_url": "",
  "icon_url": "",
  "coverart": null,
  "platforms": [],
  "provider_games": [
    {
      "name": "Hentai Karada",
      "slug": "hentai-karada",
      "service": "igdb"
    }
  ],
  "aliases": [],
  "shaders": [],
  "discord_id": "",
  "change_for": null
}