{
  "id": 290340,
  "name": "PPA Pickleball Tour 2025",
  "slug": "ppa-pickleball-tour-2025",
  "year": 2024,
  "banner_url": "",
  "icon_url": "",
  "coverart": "https://lutris.net/media/igdb/cover_big/co8j5n.jpg",
  "platforms": [
    {
      "name": "Xbox One"
    },
    {
      "name": "Xbox Series X|S"
    }
  ],
  "provider_games": [
    {
      "name": "PPA Pickleball Tour 2025",
      "slug": "ppa-pickleball-tour-2025",
      "service": "igdb"
    }
  ],
  "aliases": [],
  "shaders": [],
  "discord_id": "",
  "change_for": null
}