{
  "id": 235580,
  "name": "Digital Pierrot Museum",
  "slug": "digital-pierrot-museum",
  "year": 2023,
  "banner_url": "",
  "icon_url": "",
  "coverart": "https://lutris.net/media/igdb/cover_big/co67po.jpg",
  "platforms": [
    {
      "name": "Windows"
    }
  ],
  "provider_games": [
    {
      "name": "Digital Pierrot Museum",
      "slug": "digital-pierrot-museum",
      "service": "igdb"
    }
  ],
  "aliases": [],
  "shaders": [],
  "discord_id": "",
  "change_for": null
}