{
  "id": 218303,
  "name": "Unreal Vendetta",
  "slug": "unreal-vendetta",
  "year": null,
  "banner_url": "",
  "icon_url": "",
  "coverart": "https://lutris.net/media/igdb/cover_big/co5ibq.jpg",
  "platforms": [],
  "provider_games": [
    {
      "name": "Unreal Vendetta",
      "slug": "unreal-vendetta",
      "service": "igdb"
    }
  ],
  "aliases": [],
  "shaders": [],
  "discord_id": "",
  "change_for": null
}