{
  "id": 243596,
  "name": "Candy Lattice",
  "slug": "candy-lattice",
  "year": null,
  "banner_url": "",
  "icon_url": "",
  "coverart": "https://lutris.net/media/igdb/cover_big/co6dxz.jpg",
  "platforms": [],
  "provider_games": [
    {
      "name": "Candy Lattice",
      "slug": "candy-lattice",
      "service": "igdb"
    }
  ],
  "aliases": [],
  "shaders": [],
  "discord_id": "",
  "change_for": null
}