{
  "id": 67263,
  "name": "Air Legends",
  "slug": "air-legends",
  "year": null,
  "banner_url": "",
  "icon_url": "",
  "coverart": "https://lutris.net/media/igdb/cover_big/zoffafcolwfxfqncxv59.jpg",
  "platforms": [],
  "provider_games": [
    {
      "name": "Air Legends",
      "slug": "air-legends",
      "service": "igdb"
    }
  ],
  "aliases": [],
  "shaders": [],
  "discord_id": "",
  "change_for": null
}