{
  "id": 178139,
  "name": "Selfloss",
  "slug": "selfloss",
  "year": 2022,
  "banner_url": "",
  "icon_url": "",
  "coverart": "https://lutris.net/media/igdb/cover_big/co40y8.jpg",
  "platforms": [
    {
      "name": "Windows"
    }
  ],
  "provider_games": [
    {
      "name": "Selfloss",
      "slug": "1575028451",
      "service": "gog"
    },
    {
      "name": "Selfloss",
      "slug": "selfloss",
      "service": "igdb"
    }
  ],
  "aliases": [],
  "shaders": [],
  "discord_id": "",
  "change_for": null
}