{
  "id": 68609,
  "name": "YuYu Hakusho Dai-Ni-Dan: Ankoku Bujutsu Kai Hen",
  "slug": "yuyu-hakusho-dai-ni-dan-ankoku-bujutsu-kai-hen",
  "year": null,
  "banner_url": "",
  "icon_url": "",
  "coverart": "https://lutris.net/media/igdb/cover_big/hdtgiydk16u70s18g1wa.jpg",
  "platforms": [],
  "provider_games": [
    {
      "name": "YuYu Hakusho Dai-Ni-Dan: Ankoku Bujutsu Kai-hen",
      "slug": "yuyu-hakusho-dai-ni-dan-ankoku-bujutsu-kai-hen",
      "service": "igdb"
    }
  ],
  "aliases": [],
  "shaders": [],
  "discord_id": "",
  "change_for": null
}