{
  "id": 301007,
  "name": "Arcade Action",
  "slug": "arcade-action--1",
  "year": 1983,
  "banner_url": "",
  "icon_url": "",
  "coverart": "https://lutris.net/media/igdb/cover_big/co92e8.jpg",
  "platforms": [
    {
      "name": "Sinclair ZX81"
    }
  ],
  "provider_games": [
    {
      "name": "Arcade Action",
      "slug": "arcade-action--1",
      "service": "igdb"
    }
  ],
  "aliases": [],
  "shaders": [],
  "discord_id": "",
  "change_for": null
}