{
  "id": 268488,
  "name": "Bloody Knuckles Street Boxing",
  "slug": "bloody-knuckles-street-boxing--1",
  "year": null,
  "banner_url": "",
  "icon_url": "",
  "coverart": "https://lutris.net/media/igdb/cover_big/co7h31.jpg",
  "platforms": [],
  "provider_games": [
    {
      "name": "Bloody Knuckles Street Boxing",
      "slug": "bloody-knuckles-street-boxing--1",
      "service": "igdb"
    }
  ],
  "aliases": [],
  "shaders": [],
  "discord_id": "",
  "change_for": null
}