{
  "id": 144180,
  "name": "QWOP",
  "slug": "qwop",
  "year": 2008,
  "banner_url": "",
  "icon_url": "",
  "coverart": "https://lutris.net/media/igdb/cover_big/co2nu3.jpg",
  "platforms": [
    {
      "name": "Android"
    },
    {
      "name": "Browser"
    },
    {
      "name": "Legacy Cellphone"
    }
  ],
  "provider_games": [
    {
      "name": "QWOP",
      "slug": "qwop",
      "service": "igdb"
    }
  ],
  "aliases": [],
  "shaders": [],
  "discord_id": "",
  "change_for": null
}