{
  "id": 157637,
  "name": "Surferman - A FC pixel surfing to avoid obstacles",
  "slug": "surferman-a-fc-pixel-surfing-to-avoid-obstacles",
  "year": 2015,
  "banner_url": "",
  "icon_url": "",
  "coverart": null,
  "platforms": [],
  "provider_games": [
    {
      "name": "Surferman - A FC pixel surfing to avoid obstacles",
      "slug": "surferman-a-fc-pixel-surfing-to-avoid-obstacles",
      "service": "igdb"
    }
  ],
  "aliases": [],
  "shaders": [],
  "discord_id": "",
  "change_for": null
}