{
  "id": 116546,
  "name": "My Puppy Shop",
  "slug": "my-puppy-shop",
  "year": null,
  "banner_url": "",
  "icon_url": "",
  "coverart": "https://lutris.net/media/igdb/cover_big/co3dfw.jpg",
  "platforms": [],
  "provider_games": [
    {
      "name": "My Puppy Shop",
      "slug": "my-puppy-shop",
      "service": "igdb"
    }
  ],
  "aliases": [],
  "shaders": [],
  "discord_id": "",
  "change_for": null
}