{
  "id": 93981,
  "name": "Angry Granny 2-Angry Neighbor",
  "slug": "angry-granny-2-angry-neighbor",
  "year": null,
  "banner_url": "",
  "icon_url": "",
  "coverart": null,
  "platforms": [],
  "provider_games": [
    {
      "name": "Angry Granny 2-Angry Neighbor",
      "slug": "angry-granny-2-angry-neighbor",
      "service": "igdb"
    }
  ],
  "aliases": [],
  "shaders": [],
  "discord_id": "",
  "change_for": null
}