{
  "id": 145208,
  "name": "Yu-Gi-Oh! 5D's Stardust Accelerator World Championship Tournament 2009",
  "slug": "yu-gi-oh-5ds-stardust-accelerator-world-championship-tournament-2009",
  "year": 2009,
  "banner_url": "",
  "icon_url": "",
  "coverart": "https://lutris.net/media/igdb/cover_big/co3vm8.jpg",
  "platforms": [
    {
      "name": "Nintendo DS"
    }
  ],
  "provider_games": [
    {
      "name": "Yu-Gi-Oh! 5D's Stardust Accelerator World Championship Tournament 2009",
      "slug": "yu-gi-oh-5ds-stardust-accelerator-world-championship-tournament-2009",
      "service": "igdb"
    }
  ],
  "aliases": [],
  "shaders": [],
  "discord_id": "",
  "change_for": null
}