{
  "id": 47944,
  "name": "T-Rex Runner",
  "slug": "t-rex-runner",
  "year": null,
  "banner_url": "",
  "icon_url": "",
  "coverart": null,
  "platforms": [],
  "provider_games": [
    {
      "name": "T-Rex Runner",
      "slug": "t-rex-runner",
      "service": "igdb"
    }
  ],
  "aliases": [],
  "shaders": [],
  "discord_id": "",
  "change_for": null
}