{
  "id": 26832,
  "game_id": 41657,
  "game_slug": "kra-ken",
  "name": "Kra-Ken",
  "year": 2019,
  "user": "vanstaveren",
  "runner": "steam",
  "slug": "kra-ken-steam",
  "version": "steam",
  "description": null,
  "notes": "",
  "credits": "",
  "created_at": "2021-03-09T13:44:05.962555Z",
  "updated_at": "2021-12-13T19:10:35.371301Z",
  "draft": false,
  "published": true,
  "published_by": null,
  "rating": "",
  "is_playable": null,
  "steamid": null,
  "gogid": null,
  "gogslug": "",
  "humbleid": "",
  "humblestoreid": "",
  "humblestoreid_real": "",
  "script": {
    "game": {
      "appid": 1105560
    }
  },
  "content": "game:\n  appid: 1105560\n",
  "discord_id": ""
}