{
  "id": 113059,
  "name": "Kirby no Omochabako: Baseball",
  "slug": "kirby-no-omochabako-baseball",
  "year": 1995,
  "banner_url": "",
  "icon_url": "",
  "coverart": "https://lutris.net/media/igdb/cover_big/co30de.jpg",
  "platforms": [
    {
      "name": "Satellaview"
    }
  ],
  "provider_games": [
    {
      "name": "Kirby no Omochabako: Baseball",
      "slug": "kirby-no-omochabako-baseball",
      "service": "igdb"
    }
  ],
  "aliases": [],
  "shaders": [],
  "discord_id": "",
  "change_for": null
}