{
  "id": 44552,
  "name": "Bunhouse",
  "slug": "bunhouse",
  "year": null,
  "banner_url": "https://lutris.net/games/banner/bunhouse.jpg",
  "icon_url": "https://lutris.net/games/icon/bunhouse.png",
  "coverart": "https://lutris.net/media/igdb/cover_big/co3mn5.jpg",
  "platforms": [],
  "provider_games": [
    {
      "name": "Bunhouse",
      "slug": "bunhouse",
      "service": "igdb"
    },
    {
      "name": "Bunhouse",
      "slug": "1617430",
      "service": "steam"
    }
  ],
  "aliases": [],
  "shaders": [],
  "discord_id": "",
  "change_for": null
}