{
  "id": 4006,
  "game_id": 3428,
  "game_slug": "a-story-about-my-uncle",
  "name": "A Story About My Uncle",
  "year": 2014,
  "user": "FakeShemp",
  "runner": "linux",
  "slug": "a-story-about-my-uncle-humble",
  "version": "Humble",
  "description": "",
  "notes": "",
  "credits": "",
  "created_at": "2017-05-31T15:51:07.886559Z",
  "updated_at": "2024-04-03T05:44:11.661741Z",
  "draft": false,
  "published": true,
  "published_by": null,
  "rating": "",
  "is_playable": null,
  "steamid": 278360,
  "gogid": 1207664673,
  "gogslug": "story_about_my_uncle_a",
  "humbleid": "astoryaboutmyuncle",
  "humblestoreid": "astoryaboutmyuncle",
  "humblestoreid_real": "astoryaboutmyuncle",
  "script": {
    "files": [
      {
        "file1": "N/A:Please select the Humble archive"
      }
    ],
    "game": {
      "exe": "Binaries/linux-amd64/ASAMU",
      "launch_configs": [
        {
          "exe": "Binaries/linux-x86/ASAMU",
          "name": "32 bit version"
        }
      ]
    },
    "installer": [
      {
        "extract": {
          "file": "$file1"
        }
      }
    ]
  },
  "content": "files:\n- file1: N/A:Please select the Humble archive\ngame:\n  exe: Binaries/linux-amd64/ASAMU\n  launch_configs:\n  - exe: Binaries/linux-x86/ASAMU\n    name: 32 bit version\ninstaller:\n- extract:\n    file: $file1\n",
  "discord_id": "457095132119040020"
}