{
  "id": 185573,
  "name": "Self",
  "slug": "self--1",
  "year": null,
  "banner_url": "",
  "icon_url": "",
  "coverart": "https://lutris.net/media/igdb/cover_big/co48p9.jpg",
  "platforms": [],
  "provider_games": [
    {
      "name": "Self",
      "slug": "self--1",
      "service": "igdb"
    }
  ],
  "aliases": [],
  "shaders": [],
  "discord_id": "",
  "change_for": null
}