{
  "id": 40828,
  "name": "Movavi Video Editor Plus 2020",
  "slug": "movavi-video-editor-plus-2020",
  "year": null,
  "banner_url": "https://lutris.net/games/banner/movavi-video-editor-plus-2020.jpg",
  "icon_url": "https://lutris.net/games/icon/movavi-video-editor-plus-2020.png",
  "coverart": null,
  "platforms": [],
  "provider_games": [
    {
      "name": "Movavi Video Editor Plus 2020",
      "slug": "1182920",
      "service": "steam"
    }
  ],
  "aliases": [],
  "shaders": [],
  "discord_id": "",
  "change_for": null
}