{
  "id": 257141,
  "name": "Sneaky Peeky",
  "slug": "sneaky-peeky",
  "year": null,
  "banner_url": "",
  "icon_url": "",
  "coverart": "https://lutris.net/media/igdb/cover_big/co70x5.jpg",
  "platforms": [],
  "provider_games": [
    {
      "name": "Sneaky Peeky",
      "slug": "sneaky-peeky",
      "service": "igdb"
    }
  ],
  "aliases": [],
  "shaders": [],
  "discord_id": "",
  "change_for": null
}