{
  "id": 158252,
  "name": "Bubble Shooter: HD",
  "slug": "bubble-shooter-hd",
  "year": 2014,
  "banner_url": "",
  "icon_url": "",
  "coverart": "https://lutris.net/media/igdb/cover_big/co9bqp.jpg",
  "platforms": [],
  "provider_games": [
    {
      "name": "Bubble Shooter: HD",
      "slug": "bubble-shooter-hd",
      "service": "igdb"
    }
  ],
  "aliases": [],
  "shaders": [],
  "discord_id": "",
  "change_for": null
}