{
  "id": 33293,
  "name": "Alpine Ski",
  "slug": "alpine-ski",
  "year": 1982,
  "banner_url": "https://lutris.net/games/banner/alpine-ski.jpg",
  "icon_url": "https://lutris.net/games/icon/alpine-ski.png",
  "coverart": "https://lutris.net/media/igdb/cover_big/veusdqra83qdzef67sih.jpg",
  "platforms": [
    {
      "name": "Arcade"
    }
  ],
  "provider_games": [
    {
      "name": "Alpine Ski",
      "slug": "alpine",
      "service": "mame"
    },
    {
      "name": "Alpine Ski",
      "slug": "alpine-ski",
      "service": "igdb"
    }
  ],
  "aliases": [],
  "shaders": [],
  "discord_id": "",
  "change_for": null
}