{
  "id": 33535,
  "name": "Boxy Boy",
  "slug": "boxy-boy",
  "year": 1990,
  "banner_url": "",
  "icon_url": "https://lutris.net/games/icon/boxy-boy.png",
  "coverart": "https://lutris.net/media/igdb/cover_big/co7e69.jpg",
  "platforms": [
    {
      "name": "Arcade"
    }
  ],
  "provider_games": [
    {
      "name": "Boxy Boy",
      "slug": "boxyboy",
      "service": "mame"
    },
    {
      "name": "Boxy Boy",
      "slug": "boxy-boy",
      "service": "igdb"
    }
  ],
  "aliases": [],
  "shaders": [],
  "discord_id": "",
  "change_for": null
}