{
  "id": 195723,
  "name": "Train Simulator World",
  "slug": "train-simulator-world",
  "year": null,
  "banner_url": "",
  "icon_url": "",
  "coverart": "https://lutris.net/media/igdb/cover_big/co4mlm.jpg",
  "platforms": [],
  "provider_games": [
    {
      "name": "Train Simulator World",
      "slug": "train-simulator-world",
      "service": "igdb"
    }
  ],
  "aliases": [],
  "shaders": [],
  "discord_id": "",
  "change_for": null
}