{
  "id": 250227,
  "name": "Stay Home",
  "slug": "stay-home--2",
  "year": null,
  "banner_url": "",
  "icon_url": "",
  "coverart": "https://lutris.net/media/igdb/cover_big/co6pd6.jpg",
  "platforms": [],
  "provider_games": [
    {
      "name": "Stay Home",
      "slug": "stay-home--2",
      "service": "igdb"
    }
  ],
  "aliases": [],
  "shaders": [],
  "discord_id": "",
  "change_for": null
}