{
  "id": 238775,
  "name": "Bebop",
  "slug": "bebop",
  "year": null,
  "banner_url": "",
  "icon_url": "",
  "coverart": "https://lutris.net/media/igdb/cover_big/co64zk.jpg",
  "platforms": [],
  "provider_games": [
    {
      "name": "Bebop",
      "slug": "bebop",
      "service": "igdb"
    }
  ],
  "aliases": [],
  "shaders": [],
  "discord_id": "",
  "change_for": null
}