{
  "id": 123696,
  "name": "The Lost And Forgotten",
  "slug": "the-lost-and-forgotten",
  "year": 2018,
  "banner_url": "",
  "icon_url": "",
  "coverart": "https://lutris.net/media/igdb/cover_big/co23ts.jpg",
  "platforms": [
    {
      "name": "Windows"
    }
  ],
  "provider_games": [
    {
      "name": "The Lost and Forgotten",
      "slug": "the-lost-and-forgotten",
      "service": "igdb"
    }
  ],
  "aliases": [],
  "shaders": [],
  "discord_id": "",
  "change_for": null
}