{
  "id": 193145,
  "name": "Firearms Factory",
  "slug": "firearms-factory",
  "year": null,
  "banner_url": "",
  "icon_url": "",
  "coverart": "https://lutris.net/media/igdb/cover_big/co4g5x.jpg",
  "platforms": [],
  "provider_games": [
    {
      "name": "Firearms Factory",
      "slug": "firearms-factory",
      "service": "igdb"
    }
  ],
  "aliases": [],
  "shaders": [],
  "discord_id": "",
  "change_for": null
}