{
  "id": 161908,
  "name": "Cetetorius",
  "slug": "cetetorius",
  "year": null,
  "banner_url": "",
  "icon_url": "",
  "coverart": "https://lutris.net/media/igdb/cover_big/co3mzj.jpg",
  "platforms": [],
  "provider_games": [
    {
      "name": "Cetetorius",
      "slug": "cetetorius",
      "service": "igdb"
    }
  ],
  "aliases": [],
  "shaders": [],
  "discord_id": "",
  "change_for": null
}