{
  "id": 181497,
  "name": "Battlefleet Gothic: Armada 2 - Complete Edition",
  "slug": "battlefleet-gothic-armada-2-complete-edition",
  "year": null,
  "banner_url": "",
  "icon_url": "",
  "coverart": "https://lutris.net/media/igdb/cover_big/co3drk.jpg",
  "platforms": [],
  "provider_games": [
    {
      "name": "Battlefleet Gothic: Armada 2 - Complete Edition",
      "slug": "battlefleet-gothic-armada-2-complete-edition",
      "service": "igdb"
    }
  ],
  "aliases": [],
  "shaders": [],
  "discord_id": "",
  "change_for": null
}