{
  "id": 276884,
  "name": "Lost In Failures",
  "slug": "lost-in-failures",
  "year": null,
  "banner_url": "",
  "icon_url": "",
  "coverart": "https://lutris.net/media/igdb/cover_big/co7vzv.jpg",
  "platforms": [],
  "provider_games": [
    {
      "name": "Lost In Failures",
      "slug": "lost-in-failures",
      "service": "igdb"
    }
  ],
  "aliases": [],
  "shaders": [],
  "discord_id": "",
  "change_for": null
}