{
  "id": 202943,
  "name": "Polgar Magic Detective: Murder Mystery Journey",
  "slug": "polgar-magic-detective-murder-mystery-journey",
  "year": 2022,
  "banner_url": "",
  "icon_url": "",
  "coverart": "https://lutris.net/media/igdb/cover_big/co4iup.jpg",
  "platforms": [
    {
      "name": "Nintendo Switch"
    }
  ],
  "provider_games": [
    {
      "name": "Polgar Magic Detective: Murder Mystery Journey",
      "slug": "polgar-magic-detective-murder-mystery-journey",
      "service": "igdb"
    }
  ],
  "aliases": [],
  "shaders": [],
  "discord_id": "",
  "change_for": null
}