{
  "id": 212607,
  "name": "Against All Odds",
  "slug": "against-all-odds--3",
  "year": null,
  "banner_url": "",
  "icon_url": "",
  "coverart": "https://lutris.net/media/igdb/cover_big/co5vpo.jpg",
  "platforms": [],
  "provider_games": [
    {
      "name": "Against All Odds",
      "slug": "against-all-odds--3",
      "service": "igdb"
    }
  ],
  "aliases": [],
  "shaders": [],
  "discord_id": "",
  "change_for": null
}