{
  "id": 163181,
  "name": "Redout: Enhanced Edition",
  "slug": "redout-enhanced-edition",
  "year": 2016,
  "banner_url": "https://lutris.net/games/banner/redout-enhanced-edition.jpg",
  "icon_url": "",
  "coverart": "https://lutris.net/media/igdb/cover_big/co258s.jpg",
  "platforms": [
    {
      "name": "Windows"
    }
  ],
  "provider_games": [
    {
      "name": "Redout: Enhanced Edition",
      "slug": "redout-enhanced-edition",
      "service": "igdb"
    }
  ],
  "aliases": [],
  "shaders": [],
  "discord_id": "",
  "change_for": null
}