{
  "id": 37896,
  "game_id": 116479,
  "game_slug": "hentai-heroes",
  "name": "Hentai Heroes",
  "year": 2016,
  "user": "ValkyrieGA",
  "runner": "web",
  "slug": "hentai-heroes-20",
  "version": "2.0",
  "description": null,
  "notes": "",
  "credits": "",
  "created_at": "2023-10-04T00:53:42.029494Z",
  "updated_at": "2024-04-03T05:59:14.562394Z",
  "draft": false,
  "published": true,
  "published_by": null,
  "rating": "",
  "is_playable": null,
  "steamid": null,
  "gogid": null,
  "gogslug": "",
  "humbleid": "",
  "humblestoreid": "",
  "humblestoreid_real": "",
  "script": {
    "game": {
      "main_file": "https://gamingadlt.com/?offer=47&uid=a3cbebe3-a63f-4325-8c50-758a95db39fe"
    }
  },
  "content": "game:\r\n  main_file: https://gamingadlt.com/?offer=47&uid=a3cbebe3-a63f-4325-8c50-758a95db39fe",
  "discord_id": ""
}