{
  "id": 111383,
  "name": "Wizardry Gaiden II: Curse of the Ancient Emperor",
  "slug": "wizardry-gaiden-ii-curse-of-the-ancient-emperor",
  "year": 1993,
  "banner_url": "",
  "icon_url": "",
  "coverart": "https://lutris.net/media/igdb/cover_big/j5s4um2bbn84xmrl2rwz.jpg",
  "platforms": [
    {
      "name": "Game Boy"
    }
  ],
  "provider_games": [
    {
      "name": "Wizardry Gaiden II: Curse of the Ancient Emperor",
      "slug": "wizardry-gaiden-ii-curse-of-the-ancient-emperor",
      "service": "igdb"
    }
  ],
  "aliases": [],
  "shaders": [],
  "discord_id": "",
  "change_for": null
}