{
  "id": 17673,
  "name": "Murder In Tehran's Alleys 2016",
  "slug": "murder-in-tehrans-alleys-2016",
  "year": 2017,
  "banner_url": "https://lutris.net/games/banner/murder-in-tehrans-alleys-2016.jpg",
  "icon_url": "https://lutris.net/games/icon/murder-in-tehrans-alleys-2016.png",
  "coverart": "https://lutris.net/media/igdb/cover_big/co2770.jpg",
  "platforms": [
    {
      "name": "Windows"
    }
  ],
  "provider_games": [
    {
      "name": "Murder In Tehran's Alleys 2016",
      "slug": "639730",
      "service": "steam"
    },
    {
      "name": "Murder In Tehran's Alleys 2016",
      "slug": "murder-in-tehrans-alleys-2016",
      "service": "igdb"
    }
  ],
  "aliases": [],
  "shaders": [],
  "discord_id": "",
  "change_for": null
}