{
  "id": 285051,
  "name": "ScarQuest",
  "slug": "scarquest",
  "year": null,
  "banner_url": "",
  "icon_url": "",
  "coverart": "https://lutris.net/media/igdb/cover_big/co87jo.jpg",
  "platforms": [],
  "provider_games": [
    {
      "name": "ScarQuest",
      "slug": "scarquest",
      "service": "igdb"
    }
  ],
  "aliases": [],
  "shaders": [],
  "discord_id": "",
  "change_for": null
}