{
  "id": 34217,
  "name": "Gekirindan",
  "slug": "gekirindan",
  "year": 1995,
  "banner_url": "",
  "icon_url": "https://lutris.net/games/icon/gekirindan.png",
  "coverart": "https://lutris.net/media/igdb/cover_big/co483n.jpg",
  "platforms": [
    {
      "name": "Arcade"
    },
    {
      "name": "Sega Saturn"
    }
  ],
  "provider_games": [
    {
      "name": "Gekirindan",
      "slug": "gekiridn",
      "service": "mame"
    },
    {
      "name": "Gekirindan",
      "slug": "gekirindan",
      "service": "igdb"
    }
  ],
  "aliases": [],
  "shaders": [],
  "discord_id": "",
  "change_for": null
}