{
  "id": 76787,
  "name": "Dr. Slump & Arale-Chan",
  "slug": "dr-slump-and-arale-chan",
  "year": null,
  "banner_url": "",
  "icon_url": "",
  "coverart": "https://lutris.net/media/igdb/cover_big/co765m.jpg",
  "platforms": [],
  "provider_games": [
    {
      "name": "Dr. Slump & Arale-chan",
      "slug": "dr-slump-and-arale-chan",
      "service": "igdb"
    }
  ],
  "aliases": [],
  "shaders": [],
  "discord_id": "",
  "change_for": null
}