{
  "id": 214291,
  "name": "Red Dot: Front Line",
  "slug": "red-dot-front-line",
  "year": null,
  "banner_url": "",
  "icon_url": "",
  "coverart": null,
  "platforms": [],
  "provider_games": [
    {
      "name": "Red Dot: Front Line",
      "slug": "red-dot-front-line",
      "service": "igdb"
    }
  ],
  "aliases": [],
  "shaders": [],
  "discord_id": "",
  "change_for": null
}