{
  "id": 225073,
  "name": "Who Let the Critters Out?!",
  "slug": "who-let-the-critters-out",
  "year": 2020,
  "banner_url": "",
  "icon_url": "",
  "coverart": "https://lutris.net/media/igdb/cover_big/co4sto.jpg",
  "platforms": [
    {
      "name": "Browser"
    }
  ],
  "provider_games": [
    {
      "name": "Who Let the Critters Out?!",
      "slug": "who-let-the-critters-out",
      "service": "igdb"
    }
  ],
  "aliases": [],
  "shaders": [],
  "discord_id": "",
  "change_for": null
}