{
  "id": 174789,
  "name": "BS Ihatovo Monogatari",
  "slug": "bs-ihatovo-monogatari",
  "year": 1997,
  "banner_url": "",
  "icon_url": "",
  "coverart": "https://lutris.net/media/igdb/cover_big/co3z6c.jpg",
  "platforms": [
    {
      "name": "Satellaview"
    }
  ],
  "provider_games": [
    {
      "name": "BS Ihatovo Monogatari",
      "slug": "bs-ihatovo-monogatari",
      "service": "igdb"
    }
  ],
  "aliases": [],
  "shaders": [],
  "discord_id": "",
  "change_for": null
}