{
  "id": 32196,
  "name": "Ace Attorney: Investigations 2",
  "slug": "ace-attorney-investigations-2",
  "year": 2011,
  "banner_url": "https://lutris.net/games/banner/ace-attorney-investigations-2.jpg",
  "icon_url": "",
  "coverart": "https://lutris.net/media/igdb/cover_big/co2h33.jpg",
  "platforms": [
    {
      "name": "Nintendo DS"
    }
  ],
  "provider_games": [
    {
      "name": "Ace Attorney Investigations 2",
      "slug": "ace-attorney-investigations-2",
      "service": "igdb"
    }
  ],
  "aliases": [],
  "shaders": [],
  "discord_id": "",
  "change_for": null
}