{
  "id": 11442,
  "game_id": 7364,
  "game_slug": "empress-of-the-deep-2-song-of-the-blue-whale",
  "name": "Empress Of The Deep 2: Song Of The Blue Whale",
  "year": 2014,
  "user": "kimchitea",
  "runner": "steam",
  "slug": "empress-of-the-deep-2-song-of-steam-proton",
  "version": "Steam Proton",
  "description": null,
  "notes": "",
  "credits": "",
  "created_at": "2019-01-05T05:35:12.825000Z",
  "updated_at": "2019-05-22T00:07:14.916598Z",
  "draft": false,
  "published": true,
  "published_by": 19464,
  "rating": "",
  "is_playable": null,
  "steamid": 299160,
  "gogid": null,
  "gogslug": "",
  "humbleid": "",
  "humblestoreid": "",
  "humblestoreid_real": "",
  "script": {
    "game": {
      "appid": 299160
    }
  },
  "content": "game:\n  appid: 299160\n",
  "discord_id": ""
}