{
  "id": 1751,
  "name": "Joint Task Force",
  "slug": "joint-task-force",
  "year": 2007,
  "banner_url": "https://lutris.net/games/banner/joint-task-force.jpg",
  "icon_url": "https://lutris.net/games/icon/joint-task-force.png",
  "coverart": "https://lutris.net/media/igdb/cover_big/co1weq.jpg",
  "platforms": [
    {
      "name": "Windows"
    }
  ],
  "provider_games": [
    {
      "name": "Joint Task Force",
      "slug": "6400",
      "service": "steam"
    },
    {
      "name": "Joint Task Force",
      "slug": "joint-task-force",
      "service": "igdb"
    }
  ],
  "aliases": [],
  "shaders": [],
  "discord_id": "",
  "change_for": null
}