{
  "id": 24517,
  "name": "Toy Story Racer",
  "slug": "toy-story-racer",
  "year": 2001,
  "banner_url": "https://lutris.net/games/banner/toy-story-racer.jpg",
  "icon_url": "",
  "coverart": "https://lutris.net/media/igdb/cover_big/co2rqc.jpg",
  "platforms": [
    {
      "name": "Nintendo Game Boy Color"
    },
    {
      "name": "Sony PlayStation"
    },
    {
      "name": "Sony Playstation 3"
    },
    {
      "name": "Sony PSP"
    }
  ],
  "provider_games": [
    {
      "name": "Toy Story Racer",
      "slug": "toy-story-racer",
      "service": "igdb"
    }
  ],
  "aliases": [
    {
      "slug": "disneypixar-toy-story-racer",
      "name": "Disney•Pixar Toy Story Racer"
    }
  ],
  "shaders": [],
  "discord_id": "",
  "change_for": null
}