{
  "id": 82628,
  "name": "Fate of the World: Tipping Point",
  "slug": "fate-of-the-world-tipping-point",
  "year": 2011,
  "banner_url": "",
  "icon_url": "",
  "coverart": "https://lutris.net/media/igdb/cover_big/r93bivrhghcpgwshx0uk.jpg",
  "platforms": [
    {
      "name": "Linux"
    },
    {
      "name": "Windows"
    }
  ],
  "provider_games": [
    {
      "name": "Fate of the World: Tipping Point",
      "slug": "fate-of-the-world-tipping-point",
      "service": "igdb"
    }
  ],
  "aliases": [],
  "shaders": [],
  "discord_id": "",
  "change_for": null
}