{
  "id": 73647,
  "name": "HxHxH = Hajimari wa H kara: Daisuki Dakara, Daikirai!",
  "slug": "hxhxh-equals-hajimari-wa-h-kara-daisuki-dakara-daikirai",
  "year": null,
  "banner_url": "",
  "icon_url": "",
  "coverart": null,
  "platforms": [],
  "provider_games": [
    {
      "name": "HxHxH = Hajimari wa H kara: Daisuki Dakara, Daikirai!",
      "slug": "hxhxh-equals-hajimari-wa-h-kara-daisuki-dakara-daikirai",
      "service": "igdb"
    }
  ],
  "aliases": [],
  "shaders": [],
  "discord_id": "",
  "change_for": null
}