{
  "id": 24933,
  "name": "TrainerVR",
  "slug": "trainervr",
  "year": null,
  "banner_url": "https://lutris.net/games/banner/trainervr.jpg",
  "icon_url": "https://lutris.net/games/icon/trainervr.png",
  "coverart": "https://lutris.net/media/igdb/cover_big/co44ut.jpg",
  "platforms": [],
  "provider_games": [
    {
      "name": "TrainerVR",
      "slug": "763790",
      "service": "steam"
    },
    {
      "name": "TrainerVR",
      "slug": "trainervr",
      "service": "igdb"
    }
  ],
  "aliases": [],
  "shaders": [],
  "discord_id": "",
  "change_for": null
}