{
  "id": 138536,
  "name": "Taco: Princess from the Moon",
  "slug": "taco-princess-from-the-moon",
  "year": null,
  "banner_url": "",
  "icon_url": "",
  "coverart": "https://lutris.net/media/igdb/cover_big/co3r9w.jpg",
  "platforms": [],
  "provider_games": [
    {
      "name": "Taco: Princess from the Moon",
      "slug": "taco-princess-from-the-moon",
      "service": "igdb"
    }
  ],
  "aliases": [],
  "shaders": [],
  "discord_id": "",
  "change_for": null
}