{
  "id": 276340,
  "name": "Rama's Quest",
  "slug": "ramas-quest",
  "year": null,
  "banner_url": "",
  "icon_url": "",
  "coverart": "https://lutris.net/media/igdb/cover_big/co7tzt.jpg",
  "platforms": [],
  "provider_games": [
    {
      "name": "Rama's Quest",
      "slug": "ramas-quest",
      "service": "igdb"
    }
  ],
  "aliases": [],
  "shaders": [],
  "discord_id": "",
  "change_for": null
}