{
  "id": 38929,
  "game_id": 207741,
  "game_slug": "wall-world",
  "name": "Wall World",
  "year": 2023,
  "user": "vanstaveren",
  "runner": "steam",
  "slug": "wall-world-steam",
  "version": "steam",
  "description": "",
  "notes": "",
  "credits": "",
  "created_at": "2024-11-10T07:12:00.170375Z",
  "updated_at": "2024-11-10T07:12:00.170409Z",
  "draft": false,
  "published": true,
  "published_by": null,
  "rating": "",
  "is_playable": null,
  "steamid": 2187290,
  "gogid": 1346065995,
  "gogslug": "wall_world",
  "humbleid": "",
  "humblestoreid": "",
  "humblestoreid_real": "",
  "script": {
    "game": {
      "appid": 2187290
    }
  },
  "content": "game:\n  appid: 2187290\n",
  "discord_id": ""
}