{
  "id": 136281,
  "name": "Kingdom Hearts III: Deluxe Edition",
  "slug": "kingdom-hearts-iii-deluxe-edition",
  "year": null,
  "banner_url": "",
  "icon_url": "",
  "coverart": "https://lutris.net/media/igdb/cover_big/co31q9.jpg",
  "platforms": [],
  "provider_games": [
    {
      "name": "Kingdom Hearts III: Deluxe Edition",
      "slug": "kingdom-hearts-iii-deluxe-edition",
      "service": "igdb"
    }
  ],
  "aliases": [],
  "shaders": [],
  "discord_id": "",
  "change_for": null
}