{
  "id": 214162,
  "name": "Merge AirPlane",
  "slug": "merge-airplane",
  "year": null,
  "banner_url": "",
  "icon_url": "",
  "coverart": null,
  "platforms": [],
  "provider_games": [
    {
      "name": "Merge AirPlane",
      "slug": "merge-airplane",
      "service": "igdb"
    }
  ],
  "aliases": [],
  "shaders": [],
  "discord_id": "",
  "change_for": null
}