{
  "id": 68264,
  "name": "Dreamer Series: Horse Trainer",
  "slug": "dreamer-series-horse-trainer",
  "year": null,
  "banner_url": "",
  "icon_url": "",
  "coverart": "https://lutris.net/media/igdb/cover_big/bhar2dnmwocaghtckt2c.jpg",
  "platforms": [],
  "provider_games": [
    {
      "name": "Dreamer Series: Horse Trainer",
      "slug": "dreamer-series-horse-trainer",
      "service": "igdb"
    }
  ],
  "aliases": [],
  "shaders": [],
  "discord_id": "",
  "change_for": null
}