{
  "id": 200332,
  "name": "The Unseen Fears: Ominous Talent",
  "slug": "the-unseen-fears-ominous-talent",
  "year": null,
  "banner_url": "",
  "icon_url": "",
  "coverart": "https://lutris.net/media/igdb/cover_big/co4dy8.jpg",
  "platforms": [],
  "provider_games": [
    {
      "name": "The Unseen Fears: Ominous Talent",
      "slug": "the-unseen-fears-ominous-talent",
      "service": "igdb"
    }
  ],
  "aliases": [],
  "shaders": [],
  "discord_id": "",
  "change_for": null
}