{
  "id": 262706,
  "name": "Bumper Stickers MZX",
  "slug": "bumper-stickers-mzx",
  "year": 2019,
  "banner_url": "",
  "icon_url": "",
  "coverart": "https://lutris.net/media/igdb/cover_big/co78k4.jpg",
  "platforms": [],
  "provider_games": [
    {
      "name": "Bumper Stickers MZX",
      "slug": "bumper-stickers-mzx",
      "service": "igdb"
    }
  ],
  "aliases": [],
  "shaders": [],
  "discord_id": "",
  "change_for": null
}