{
  "id": 219827,
  "name": "Hexahedron",
  "slug": "hexahedron",
  "year": null,
  "banner_url": "",
  "icon_url": "",
  "coverart": "https://lutris.net/media/igdb/cover_big/co5e98.jpg",
  "platforms": [],
  "provider_games": [
    {
      "name": "Hexahedron",
      "slug": "hexahedron",
      "service": "igdb"
    }
  ],
  "aliases": [],
  "shaders": [],
  "discord_id": "",
  "change_for": null
}