{
  "id": 163632,
  "name": "Max Steel: Covert Missions",
  "slug": "max-steel-covert-missions",
  "year": 2000,
  "banner_url": "",
  "icon_url": "",
  "coverart": "https://lutris.net/media/igdb/cover_big/co40p3.jpg",
  "platforms": [
    {
      "name": "Dreamcast"
    },
    {
      "name": "Nintendo Game Boy Color"
    }
  ],
  "provider_games": [
    {
      "name": "Max Steel: Covert Missions",
      "slug": "max-steel-covert-missions",
      "service": "igdb"
    }
  ],
  "aliases": [],
  "shaders": [],
  "discord_id": "",
  "change_for": null
}