{
  "id": 57694,
  "name": "Time Out Sports: Baseball",
  "slug": "time-out-sports-baseball",
  "year": 1994,
  "banner_url": "",
  "icon_url": "",
  "coverart": "https://lutris.net/media/igdb/cover_big/tiqydee3xslnjkt07o0g.jpg",
  "platforms": [
    {
      "name": "Windows"
    }
  ],
  "provider_games": [
    {
      "name": "Time Out Sports: Baseball",
      "slug": "time-out-sports-baseball",
      "service": "igdb"
    }
  ],
  "aliases": [],
  "shaders": [],
  "discord_id": "",
  "change_for": null
}