{
  "id": 76458,
  "name": "Love*Tra: Mint",
  "slug": "love-star-tra-mint",
  "year": null,
  "banner_url": "",
  "icon_url": "",
  "coverart": null,
  "platforms": [],
  "provider_games": [
    {
      "name": "Love*Tra: Mint",
      "slug": "love-star-tra-mint",
      "service": "igdb"
    }
  ],
  "aliases": [],
  "shaders": [],
  "discord_id": "",
  "change_for": null
}