{
  "id": 75175,
  "name": "Hardknock Nights Live",
  "slug": "hardknock-nights-live",
  "year": null,
  "banner_url": "",
  "icon_url": "",
  "coverart": null,
  "platforms": [],
  "provider_games": [
    {
      "name": "Hardknock Nights Live",
      "slug": "hardknock-nights-live",
      "service": "igdb"
    }
  ],
  "aliases": [],
  "shaders": [],
  "discord_id": "",
  "change_for": null
}