{
  "id": 10323,
  "name": "Curse of Enchantia",
  "slug": "curse-of-enchantia",
  "year": 1992,
  "banner_url": "https://lutris.net/games/banner/curse-of-enchantia.jpg",
  "icon_url": "",
  "coverart": "https://lutris.net/media/igdb/cover_big/co2y3u.jpg",
  "platforms": [
    {
      "name": "Amiga"
    },
    {
      "name": "MS-DOS"
    }
  ],
  "provider_games": [
    {
      "name": "Curse of Enchantia",
      "slug": "curse-of-enchantia",
      "service": "igdb"
    }
  ],
  "aliases": [],
  "shaders": [],
  "discord_id": "",
  "change_for": null
}