{
  "id": 91047,
  "name": "Sinister Zombies",
  "slug": "sinister-zombies",
  "year": null,
  "banner_url": "",
  "icon_url": "",
  "coverart": "https://lutris.net/media/igdb/cover_big/co1tes.jpg",
  "platforms": [],
  "provider_games": [
    {
      "name": "Sinister Zombies",
      "slug": "sinister-zombies",
      "service": "igdb"
    }
  ],
  "aliases": [],
  "shaders": [],
  "discord_id": "",
  "change_for": null
}