{
  "id": 278016,
  "name": "CEO Sim: GameDev",
  "slug": "ceo-sim-gamedev",
  "year": null,
  "banner_url": "",
  "icon_url": "",
  "coverart": "https://lutris.net/media/igdb/cover_big/co7vmm.jpg",
  "platforms": [],
  "provider_games": [
    {
      "name": "CEO Sim: GameDev",
      "slug": "ceo-sim-gamedev",
      "service": "igdb"
    }
  ],
  "aliases": [],
  "shaders": [],
  "discord_id": "",
  "change_for": null
}