{
  "id": 157785,
  "name": "Impossible Car Racing: Stunts",
  "slug": "impossible-car-racing-stunts",
  "year": 2018,
  "banner_url": "",
  "icon_url": "",
  "coverart": null,
  "platforms": [],
  "provider_games": [
    {
      "name": "Impossible Car Racing: Stunts",
      "slug": "impossible-car-racing-stunts",
      "service": "igdb"
    }
  ],
  "aliases": [],
  "shaders": [],
  "discord_id": "",
  "change_for": null
}