{
  "id": 64567,
  "name": "Adventure Hall of Fame",
  "slug": "adventure-hall-of-fame",
  "year": null,
  "banner_url": "",
  "icon_url": "",
  "coverart": "https://lutris.net/media/igdb/cover_big/xnwpe3nb0bnt6ruh7h0k.jpg",
  "platforms": [],
  "provider_games": [
    {
      "name": "Adventure Hall of Fame",
      "slug": "adventure-hall-of-fame",
      "service": "igdb"
    }
  ],
  "aliases": [],
  "shaders": [],
  "discord_id": "",
  "change_for": null
}