{
  "id": 159664,
  "name": "About Love and Hate 2",
  "slug": "about-love-and-hate-2",
  "year": 2021,
  "banner_url": "",
  "icon_url": "",
  "coverart": null,
  "platforms": [],
  "provider_games": [
    {
      "name": "About Love and Hate 2",
      "slug": "about-love-and-hate-2",
      "service": "igdb"
    }
  ],
  "aliases": [],
  "shaders": [],
  "discord_id": "",
  "change_for": null
}