{
  "id": 4645,
  "game_id": 2810,
  "game_slug": "putt-putt-and-fatty-bears-activity-pack",
  "name": "Putt-Putt and Fatty Bear's Activity Pack",
  "year": 1994,
  "user": "FakeShemp",
  "runner": "scummvm",
  "slug": "putt-putt-and-fatty-bears-act-humble",
  "version": "Humble",
  "description": "Uses the files from the Windows installer from Humble.",
  "notes": "",
  "credits": "",
  "created_at": "2017-06-26T20:29:46.494000Z",
  "updated_at": "2022-02-03T06:41:35.491980Z",
  "draft": false,
  "published": true,
  "published_by": null,
  "rating": "",
  "is_playable": null,
  "steamid": 294720,
  "gogid": null,
  "gogslug": "",
  "humbleid": "",
  "humblestoreid": "",
  "humblestoreid_real": "",
  "script": {
    "files": [
      {
        "file1": "N/A:Please select the Humble installer"
      }
    ],
    "game": {
      "game_id": "activity",
      "path": "$GAMEDIR",
      "subtitles": true
    },
    "installer": [
      {
        "task": {
          "args": "/S",
          "executable": "$file1",
          "name": "wine.wineexec",
          "prefix": "$CACHE"
        }
      },
      {
        "merge": {
          "dst": "$GAMEDIR",
          "src": "$CACHE/drive_c/Games/Humongous Entertainment/Putt-Putt and Fatty Bear's Activity Pack"
        }
      }
    ]
  },
  "content": "files:\n- file1: N/A:Please select the Humble installer\ngame:\n  game_id: activity\n  path: $GAMEDIR\n  subtitles: true\ninstaller:\n- task:\n    args: /S\n    executable: $file1\n    name: wine.wineexec\n    prefix: $CACHE\n- merge:\n    dst: $GAMEDIR\n    src: $CACHE/drive_c/Games/Humongous Entertainment/Putt-Putt and Fatty Bear's Activity\n      Pack\n",
  "discord_id": ""
}