{
  "id": 176559,
  "name": "WWE SmackDown vs. Raw 2008",
  "slug": "wwe-smackdown-vs-raw-2008",
  "year": 2007,
  "banner_url": "",
  "icon_url": "",
  "coverart": "https://lutris.net/media/igdb/cover_big/co1pob.jpg",
  "platforms": [
    {
      "name": "Legacy Cellphone"
    },
    {
      "name": "Nintendo DS"
    },
    {
      "name": "Nintendo Wii"
    },
    {
      "name": "Sony PlayStation 2"
    },
    {
      "name": "Sony Playstation 3"
    },
    {
      "name": "Sony PSP"
    },
    {
      "name": "Xbox 360"
    }
  ],
  "provider_games": [
    {
      "name": "WWE SmackDown vs. Raw 2008",
      "slug": "wwe-smackdown-vs-raw-2008",
      "service": "igdb"
    }
  ],
  "aliases": [],
  "shaders": [],
  "discord_id": "",
  "change_for": null
}