{
  "id": 112960,
  "name": "DoReMi-ya no Original Sound Witch: Blue Sound Witch",
  "slug": "doremi-ya-no-original-sound-witch-blue-sound-witch",
  "year": 1997,
  "banner_url": "",
  "icon_url": "",
  "coverart": null,
  "platforms": [
    {
      "name": "Satellaview"
    }
  ],
  "provider_games": [
    {
      "name": "DoReMi-ya no Original Sound Witch: Blue Sound Witch",
      "slug": "doremi-ya-no-original-sound-witch-blue-sound-witch",
      "service": "igdb"
    }
  ],
  "aliases": [],
  "shaders": [],
  "discord_id": "",
  "change_for": null
}