{
  "id": 92350,
  "name": "Word Link - Word Puzzle Game",
  "slug": "word-link-word-puzzle-game",
  "year": null,
  "banner_url": "",
  "icon_url": "",
  "coverart": null,
  "platforms": [],
  "provider_games": [
    {
      "name": "Word Link - Word Puzzle Game",
      "slug": "word-link-word-puzzle-game",
      "service": "igdb"
    }
  ],
  "aliases": [],
  "shaders": [],
  "discord_id": "",
  "change_for": null
}