{
  "id": 170232,
  "name": "Jack Walker: Ethereal",
  "slug": "jack-walker-ethereal",
  "year": null,
  "banner_url": "",
  "icon_url": "",
  "coverart": "https://lutris.net/media/igdb/cover_big/co46gu.jpg",
  "platforms": [],
  "provider_games": [
    {
      "name": "Jack Walker: Ethereal",
      "slug": "jack-walker-ethereal",
      "service": "igdb"
    }
  ],
  "aliases": [],
  "shaders": [],
  "discord_id": "",
  "change_for": null
}