{
  "id": 166249,
  "name": "THE ART - Metamorphosis",
  "slug": "the-art-metamorphosis",
  "year": null,
  "banner_url": "",
  "icon_url": "",
  "coverart": "https://lutris.net/media/igdb/cover_big/co431q.jpg",
  "platforms": [],
  "provider_games": [
    {
      "name": "THE ART: Metamorphosis",
      "slug": "the-art-metamorphosis",
      "service": "igdb"
    }
  ],
  "aliases": [],
  "shaders": [],
  "discord_id": "",
  "change_for": null
}