{
  "id": 201196,
  "name": "Jelly Express",
  "slug": "jelly-express",
  "year": null,
  "banner_url": "",
  "icon_url": "",
  "coverart": "https://lutris.net/media/igdb/cover_big/co4pqv.jpg",
  "platforms": [],
  "provider_games": [
    {
      "name": "Jelly Express",
      "slug": "jelly-express",
      "service": "igdb"
    }
  ],
  "aliases": [],
  "shaders": [],
  "discord_id": "",
  "change_for": null
}