{
  "id": 11864,
  "name": "Ultimate Epic Battle Simulator",
  "slug": "ultimate-epic-battle-simulator",
  "year": 2017,
  "banner_url": "https://lutris.net/games/banner/ultimate-epic-battle-simulator.jpg",
  "icon_url": "https://lutris.net/games/icon/ultimate-epic-battle-simulator.png",
  "coverart": "https://lutris.net/media/igdb/cover_big/co2rrx.jpg",
  "platforms": [
    {
      "name": "Windows"
    }
  ],
  "provider_games": [
    {
      "name": "Ultimate Epic Battle Simulator",
      "slug": "616560",
      "service": "steam"
    },
    {
      "name": "Ultimate Epic Battle Simulator",
      "slug": "ultimate-epic-battle-simulator",
      "service": "igdb"
    }
  ],
  "aliases": [],
  "shaders": [],
  "discord_id": "448537306345898014",
  "change_for": null
}