{
  "id": 60125,
  "name": "NIRA Intense Import Drag Racing",
  "slug": "nira-intense-import-drag-racing",
  "year": null,
  "banner_url": "",
  "icon_url": "",
  "coverart": "https://lutris.net/media/igdb/cover_big/fhwnikkuwgw6gyiynuzv.jpg",
  "platforms": [],
  "provider_games": [
    {
      "name": "NIRA Intense Import Drag Racing",
      "slug": "nira-intense-import-drag-racing",
      "service": "igdb"
    }
  ],
  "aliases": [],
  "shaders": [],
  "discord_id": "",
  "change_for": null
}