{
  "id": 178576,
  "name": "Stray Souls",
  "slug": "stray-souls",
  "year": null,
  "banner_url": "https://lutris.net/games/banner/stray-souls.jpg",
  "icon_url": "",
  "coverart": "https://lutris.net/media/igdb/cover_big/co49ud.jpg",
  "platforms": [
    {
      "name": "Windows"
    }
  ],
  "provider_games": [
    {
      "name": "Stray Souls",
      "slug": "stray-souls",
      "service": "igdb"
    },
    {
      "name": "Stray Souls",
      "slug": "1807210",
      "service": "steam"
    },
    {
      "name": "Stray Souls",
      "slug": "1240322197",
      "service": "gog"
    }
  ],
  "aliases": [],
  "shaders": [],
  "discord_id": "",
  "change_for": null
}