{
  "id": 90385,
  "name": "Coloring Book - Sports",
  "slug": "coloring-book-sports",
  "year": null,
  "banner_url": "",
  "icon_url": "",
  "coverart": null,
  "platforms": [],
  "provider_games": [
    {
      "name": "Coloring Book - Sports",
      "slug": "coloring-book-sports",
      "service": "igdb"
    }
  ],
  "aliases": [],
  "shaders": [],
  "discord_id": "",
  "change_for": null
}