{
  "id": 158222,
  "name": "Air Supply: SOS (Save Our Sheep)",
  "slug": "air-supply-sos-save-our-sheep",
  "year": 2014,
  "banner_url": "",
  "icon_url": "",
  "coverart": null,
  "platforms": [],
  "provider_games": [
    {
      "name": "Air Supply: SOS (Save Our Sheep)",
      "slug": "air-supply-sos-save-our-sheep",
      "service": "igdb"
    }
  ],
  "aliases": [],
  "shaders": [],
  "discord_id": "",
  "change_for": null
}