{
  "id": 58735,
  "name": "Superhero Fighting Game",
  "slug": "superhero-fighting-game",
  "year": null,
  "banner_url": "",
  "icon_url": "",
  "coverart": "https://lutris.net/media/igdb/cover_big/wbijvvf3n3kugvtupjmm.jpg",
  "platforms": [],
  "provider_games": [
    {
      "name": "Superhero Fighting Game",
      "slug": "superhero-fighting-game",
      "service": "igdb"
    }
  ],
  "aliases": [],
  "shaders": [],
  "discord_id": "",
  "change_for": null
}