{
  "id": 284399,
  "name": "My Talking Pretty Girl",
  "slug": "my-talking-pretty-girl",
  "year": null,
  "banner_url": "",
  "icon_url": "",
  "coverart": null,
  "platforms": [
    {
      "name": "Android"
    }
  ],
  "provider_games": [
    {
      "name": "My Talking Pretty Girl",
      "slug": "my-talking-pretty-girl",
      "service": "igdb"
    }
  ],
  "aliases": [],
  "shaders": [],
  "discord_id": "",
  "change_for": null
}