{
  "id": 36448,
  "name": "Witch Up & Down",
  "slug": "witch-up-down",
  "year": 1998,
  "banner_url": "",
  "icon_url": "https://lutris.net/games/icon/witch-up-down.png",
  "coverart": null,
  "platforms": [
    {
      "name": "Arcade"
    }
  ],
  "provider_games": [
    {
      "name": "Witch Up & Down",
      "slug": "wupndown",
      "service": "mame"
    }
  ],
  "aliases": [],
  "shaders": [],
  "discord_id": "",
  "change_for": null
}