{
  "id": 118560,
  "name": "The PIT: Broken Bones",
  "slug": "the-pit-broken-bones",
  "year": null,
  "banner_url": "",
  "icon_url": "",
  "coverart": null,
  "platforms": [],
  "provider_games": [
    {
      "name": "The PIT: Broken Bones",
      "slug": "the-pit-broken-bones",
      "service": "igdb"
    }
  ],
  "aliases": [],
  "shaders": [],
  "discord_id": "",
  "change_for": null
}