{
  "id": 87648,
  "name": "Jacob Jones and the Bigfoot Mystery: Episode One - A Bump in the Night",
  "slug": "jacob-jones-and-the-bigfoot-mystery-episode-one-a-bump-in-the-night",
  "year": null,
  "banner_url": "",
  "icon_url": "",
  "coverart": "https://lutris.net/media/igdb/cover_big/ochikgsvlqtele1nn7tt.jpg",
  "platforms": [],
  "provider_games": [
    {
      "name": "Jacob Jones and the Bigfoot Mystery: Episode One - A Bump in the Night",
      "slug": "jacob-jones-and-the-bigfoot-mystery-episode-one-a-bump-in-the-night",
      "service": "igdb"
    }
  ],
  "aliases": [],
  "shaders": [],
  "discord_id": "",
  "change_for": null
}