{
  "id": 267047,
  "name": "Virtualis World",
  "slug": "virtualis-world--1",
  "year": 2023,
  "banner_url": "",
  "icon_url": "",
  "coverart": "https://lutris.net/media/igdb/cover_big/co7edj.jpg",
  "platforms": [
    {
      "name": "Browser"
    }
  ],
  "provider_games": [
    {
      "name": "Virtualis World",
      "slug": "virtualis-world--1",
      "service": "igdb"
    }
  ],
  "aliases": [],
  "shaders": [],
  "discord_id": "",
  "change_for": null
}