{
  "id": 174124,
  "name": "System Intrusion",
  "slug": "system-intrusion",
  "year": null,
  "banner_url": "",
  "icon_url": "",
  "coverart": "https://lutris.net/media/igdb/cover_big/co3t7e.jpg",
  "platforms": [],
  "provider_games": [
    {
      "name": "System Intrusion",
      "slug": "system-intrusion",
      "service": "igdb"
    }
  ],
  "aliases": [],
  "shaders": [],
  "discord_id": "",
  "change_for": null
}