{
  "id": 230178,
  "name": "Sheepdogs",
  "slug": "sheepdogs",
  "year": null,
  "banner_url": "",
  "icon_url": "",
  "coverart": "https://lutris.net/media/igdb/cover_big/co6d9e.jpg",
  "platforms": [],
  "provider_games": [
    {
      "name": "Sheepdogs",
      "slug": "sheepdogs",
      "service": "igdb"
    }
  ],
  "aliases": [],
  "shaders": [],
  "discord_id": "",
  "change_for": null
}