{
  "id": 86608,
  "name": "Gem Boy",
  "slug": "gem-boy",
  "year": null,
  "banner_url": "",
  "icon_url": "",
  "coverart": null,
  "platforms": [],
  "provider_games": [
    {
      "name": "Gem Boy",
      "slug": "gem-boy",
      "service": "igdb"
    }
  ],
  "aliases": [],
  "shaders": [],
  "discord_id": "",
  "change_for": null
}