{
  "id": 170280,
  "name": "Karakia Shooter",
  "slug": "karakia-shooter",
  "year": null,
  "banner_url": "",
  "icon_url": "",
  "coverart": "https://lutris.net/media/igdb/cover_big/co46hn.jpg",
  "platforms": [],
  "provider_games": [
    {
      "name": "Karakia Shooter",
      "slug": "karakia-shooter",
      "service": "igdb"
    }
  ],
  "aliases": [],
  "shaders": [],
  "discord_id": "",
  "change_for": null
}