{
  "id": 169614,
  "name": "Brawl Chess: Gambit",
  "slug": "brawl-chess-gambit",
  "year": 2020,
  "banner_url": "",
  "icon_url": "",
  "coverart": "https://lutris.net/media/igdb/cover_big/co45xs.jpg",
  "platforms": [
    {
      "name": "Xbox One"
    }
  ],
  "provider_games": [
    {
      "name": "Brawl Chess: Gambit",
      "slug": "brawl-chess-gambit",
      "service": "igdb"
    }
  ],
  "aliases": [],
  "shaders": [],
  "discord_id": "",
  "change_for": null
}