{
  "id": 216667,
  "name": "Rise of Awakened: Project E",
  "slug": "rise-of-awakened-project-e",
  "year": null,
  "banner_url": "",
  "icon_url": "",
  "coverart": null,
  "platforms": [],
  "provider_games": [
    {
      "name": "Rise of Awakened: Project E",
      "slug": "rise-of-awakened-project-e",
      "service": "igdb"
    }
  ],
  "aliases": [],
  "shaders": [],
  "discord_id": "",
  "change_for": null
}