{
  "id": 105060,
  "name": "Water Wars",
  "slug": "water-wars",
  "year": null,
  "banner_url": "",
  "icon_url": "",
  "coverart": "https://lutris.net/media/igdb/cover_big/co2ruy.jpg",
  "platforms": [],
  "provider_games": [
    {
      "name": "Water Wars",
      "slug": "water-wars",
      "service": "igdb"
    }
  ],
  "aliases": [],
  "shaders": [],
  "discord_id": "",
  "change_for": null
}