{
  "id": 254196,
  "name": "Path of Exile 2",
  "slug": "path-of-exile-2",
  "year": null,
  "banner_url": "https://lutris.net/games/banner/path-of-exile-2.jpg",
  "icon_url": "",
  "coverart": "https://lutris.net/media/igdb/cover_big/co8ae0.jpg",
  "platforms": [
    {
      "name": "Mac"
    },
    {
      "name": "Sony Playstation 4"
    },
    {
      "name": "Windows"
    },
    {
      "name": "Xbox One"
    }
  ],
  "provider_games": [
    {
      "name": "Path of Exile 2",
      "slug": "path-of-exile-2",
      "service": "igdb"
    },
    {
      "name": "Path of Exile 2",
      "slug": "2694490",
      "service": "steam"
    }
  ],
  "aliases": [],
  "shaders": [],
  "discord_id": "",
  "change_for": null
}