{
  "id": 160728,
  "name": "Dragon Quest X Online",
  "slug": "dragon-quest-x-online",
  "year": 2012,
  "banner_url": "",
  "icon_url": "",
  "coverart": "https://lutris.net/media/igdb/cover_big/co1x9k.jpg",
  "platforms": [
    {
      "name": "Android"
    },
    {
      "name": "Nintendo 3DS"
    },
    {
      "name": "Nintendo Switch"
    },
    {
      "name": "Nintendo Wii"
    },
    {
      "name": "Nintendo Wii U"
    },
    {
      "name": "Sony Playstation 4"
    },
    {
      "name": "Windows"
    }
  ],
  "provider_games": [
    {
      "name": "Dragon Quest X Online",
      "slug": "dragon-quest-x-online",
      "service": "igdb"
    }
  ],
  "aliases": [],
  "shaders": [],
  "discord_id": "",
  "change_for": null
}