{
  "id": 195260,
  "name": "Timeways",
  "slug": "timeways",
  "year": null,
  "banner_url": "",
  "icon_url": "",
  "coverart": "https://lutris.net/media/igdb/cover_big/co4pj8.jpg",
  "platforms": [],
  "provider_games": [
    {
      "name": "Timeways",
      "slug": "timeways",
      "service": "igdb"
    }
  ],
  "aliases": [],
  "shaders": [],
  "discord_id": "",
  "change_for": null
}