{
  "id": 60109,
  "name": "Beast Master And Prince",
  "slug": "beast-master-and-prince--1",
  "year": null,
  "banner_url": "",
  "icon_url": "",
  "coverart": null,
  "platforms": [],
  "provider_games": [
    {
      "name": "Beast Master and Prince",
      "slug": "beast-master-and-prince--1",
      "service": "igdb"
    }
  ],
  "aliases": [],
  "shaders": [],
  "discord_id": "",
  "change_for": null
}