{
  "id": 221308,
  "name": "Non Fingo",
  "slug": "non-fingo",
  "year": null,
  "banner_url": "",
  "icon_url": "",
  "coverart": "https://lutris.net/media/igdb/cover_big/co5jsy.jpg",
  "platforms": [],
  "provider_games": [
    {
      "name": "Non Fingo",
      "slug": "non-fingo",
      "service": "igdb"
    }
  ],
  "aliases": [],
  "shaders": [],
  "discord_id": "",
  "change_for": null
}