{
  "id": 189556,
  "name": "Call of Duty: Modern Warfare 2 - Force Recon",
  "slug": "call-of-duty-modern-warfare-2-force-recon",
  "year": 2009,
  "banner_url": "",
  "icon_url": "",
  "coverart": "https://lutris.net/media/igdb/cover_big/co3cyk.jpg",
  "platforms": [
    {
      "name": "Legacy Cellphone"
    }
  ],
  "provider_games": [
    {
      "name": "Call of Duty: Modern Warfare 2 - Force Recon",
      "slug": "call-of-duty-modern-warfare-2-force-recon",
      "service": "igdb"
    }
  ],
  "aliases": [],
  "shaders": [],
  "discord_id": "",
  "change_for": null
}