{
  "id": 264363,
  "name": "Iron Saga vs.",
  "slug": "iron-saga-vs",
  "year": null,
  "banner_url": "",
  "icon_url": "",
  "coverart": "https://lutris.net/media/igdb/cover_big/co7a49.jpg",
  "platforms": [],
  "provider_games": [
    {
      "name": "Iron Saga vs.",
      "slug": "iron-saga-vs",
      "service": "igdb"
    }
  ],
  "aliases": [],
  "shaders": [],
  "discord_id": "",
  "change_for": null
}