{
  "id": 292239,
  "name": "Rangarok End Girls",
  "slug": "rangarok-end-girls",
  "year": null,
  "banner_url": "",
  "icon_url": "",
  "coverart": "https://lutris.net/media/igdb/cover_big/co8jl2.jpg",
  "platforms": [],
  "provider_games": [
    {
      "name": "Rangarok End Girls",
      "slug": "rangarok-end-girls",
      "service": "igdb"
    }
  ],
  "aliases": [],
  "shaders": [],
  "discord_id": "",
  "change_for": null
}