{
  "id": 66541,
  "name": "Jonny Quest: Curse of the Mayan Warriors",
  "slug": "jonny-quest-curse-of-the-mayan-warriors",
  "year": null,
  "banner_url": "",
  "icon_url": "",
  "coverart": null,
  "platforms": [],
  "provider_games": [
    {
      "name": "Jonny Quest: Curse of the Mayan Warriors",
      "slug": "jonny-quest-curse-of-the-mayan-warriors",
      "service": "igdb"
    }
  ],
  "aliases": [],
  "shaders": [],
  "discord_id": "",
  "change_for": null
}