{
  "id": 34354,
  "name": "Hanaroku",
  "slug": "hanaroku",
  "year": 1988,
  "banner_url": "",
  "icon_url": "https://lutris.net/games/icon/hanaroku.png",
  "coverart": null,
  "platforms": [
    {
      "name": "Arcade"
    }
  ],
  "provider_games": [
    {
      "name": "Hanaroku",
      "slug": "hanaroku",
      "service": "mame"
    }
  ],
  "aliases": [],
  "shaders": [],
  "discord_id": "",
  "change_for": null
}