{
  "id": 56117,
  "name": "Trollz: Hair Affair!",
  "slug": "trollz-hair-affair",
  "year": 2005,
  "banner_url": "",
  "icon_url": "",
  "coverart": "https://lutris.net/media/igdb/cover_big/y0affxd9geimvuvsemrt.jpg",
  "platforms": [
    {
      "name": "Nintendo Game Boy Advance"
    }
  ],
  "provider_games": [
    {
      "name": "Trollz: Hair Affair!",
      "slug": "trollz-hair-affair",
      "service": "igdb"
    }
  ],
  "aliases": [],
  "shaders": [],
  "discord_id": "",
  "change_for": null
}