{
  "id": 44261,
  "name": "Cowbots and Aliens",
  "slug": "cowbots-and-aliens",
  "year": 2016,
  "banner_url": "https://lutris.net/games/banner/cowbots-and-aliens.jpg",
  "icon_url": "https://lutris.net/games/icon/cowbots-and-aliens.png",
  "coverart": "https://lutris.net/media/igdb/cover_big/co5866.jpg",
  "platforms": [
    {
      "name": "Windows"
    }
  ],
  "provider_games": [
    {
      "name": "Cowbots and Aliens",
      "slug": "517670",
      "service": "steam"
    },
    {
      "name": "Cowbots and Aliens",
      "slug": "cowbots-and-aliens",
      "service": "igdb"
    }
  ],
  "aliases": [],
  "shaders": [],
  "discord_id": "",
  "change_for": null
}