{
  "id": 51340,
  "name": "Arcadians",
  "slug": "arcadians",
  "year": 1982,
  "banner_url": "",
  "icon_url": "",
  "coverart": "https://lutris.net/media/igdb/cover_big/hqxvoneeuykjprmjwdb8.jpg",
  "platforms": [
    {
      "name": "Acorn Electron"
    },
    {
      "name": "BBC Microcomputer System"
    }
  ],
  "provider_games": [
    {
      "name": "Arcadians",
      "slug": "arcadians",
      "service": "igdb"
    }
  ],
  "aliases": [],
  "shaders": [],
  "discord_id": "",
  "change_for": null
}