{
  "id": 54918,
  "name": "Brands Hatch",
  "slug": "brands-hatch",
  "year": null,
  "banner_url": "",
  "icon_url": "",
  "coverart": "https://lutris.net/media/igdb/cover_big/dq4hcmu8vpjhq6ekxyvu.jpg",
  "platforms": [],
  "provider_games": [
    {
      "name": "Brands Hatch",
      "slug": "brands-hatch",
      "service": "igdb"
    }
  ],
  "aliases": [],
  "shaders": [],
  "discord_id": "",
  "change_for": null
}