{
  "id": 264189,
  "name": "Jouka no Monshou",
  "slug": "jouka-no-monshou",
  "year": null,
  "banner_url": "",
  "icon_url": "",
  "coverart": "https://lutris.net/media/igdb/cover_big/co7apm.jpg",
  "platforms": [],
  "provider_games": [
    {
      "name": "Jouka no Monshou",
      "slug": "jouka-no-monshou",
      "service": "igdb"
    }
  ],
  "aliases": [],
  "shaders": [],
  "discord_id": "",
  "change_for": null
}