{
  "id": 84128,
  "name": "Craze",
  "slug": "craze",
  "year": 1988,
  "banner_url": "",
  "icon_url": "",
  "coverart": null,
  "platforms": [
    {
      "name": "MSX"
    }
  ],
  "provider_games": [
    {
      "name": "Craze",
      "slug": "craze",
      "service": "igdb"
    }
  ],
  "aliases": [],
  "shaders": [],
  "discord_id": "",
  "change_for": null
}