{
  "id": 48895,
  "name": "Desperados",
  "slug": "desperados",
  "year": null,
  "banner_url": "",
  "icon_url": "",
  "coverart": "https://lutris.net/media/igdb/cover_big/awbvqvvpoxtpei7afd4w.jpg",
  "platforms": [],
  "provider_games": [
    {
      "name": "Desperados",
      "slug": "desperados",
      "service": "igdb"
    }
  ],
  "aliases": [],
  "shaders": [],
  "discord_id": "",
  "change_for": null
}