{
  "id": 39878,
  "name": "Pool of Radiance: Ruins of Myth Drannor",
  "slug": "pool-of-radiance-ruins-of-myth-drannor",
  "year": 2001,
  "banner_url": "https://lutris.net/games/banner/pool-of-radiance-ruins-of-myth-drannor.jpg",
  "icon_url": "",
  "coverart": "https://lutris.net/media/igdb/cover_big/oszta0ks5l5bfkrfuvdd.jpg",
  "platforms": [
    {
      "name": "Windows"
    }
  ],
  "provider_games": [
    {
      "name": "Pool of Radiance: Ruins of Myth Drannor",
      "slug": "pool-of-radiance-ruins-of-myth-drannor",
      "service": "igdb"
    }
  ],
  "aliases": [],
  "shaders": [],
  "discord_id": "",
  "change_for": null
}