{
  "id": 184548,
  "name": "Wildfire: Ticket to Rock",
  "slug": "wildfire-ticket-to-rock",
  "year": null,
  "banner_url": "",
  "icon_url": "",
  "coverart": "https://lutris.net/media/igdb/cover_big/co3n8l.jpg",
  "platforms": [],
  "provider_games": [
    {
      "name": "Wildfire: Ticket to Rock",
      "slug": "wildfire-ticket-to-rock",
      "service": "igdb"
    }
  ],
  "aliases": [],
  "shaders": [],
  "discord_id": "",
  "change_for": null
}