{
  "id": 88760,
  "name": "Stone Flood",
  "slug": "stone-flood",
  "year": null,
  "banner_url": "",
  "icon_url": "",
  "coverart": null,
  "platforms": [],
  "provider_games": [
    {
      "name": "Stone Flood",
      "slug": "stone-flood",
      "service": "igdb"
    }
  ],
  "aliases": [],
  "shaders": [],
  "discord_id": "",
  "change_for": null
}