{
  "id": 268408,
  "name": "AE Mini Game Collection",
  "slug": "ae-mini-game-collection",
  "year": 2007,
  "banner_url": "",
  "icon_url": "",
  "coverart": null,
  "platforms": [
    {
      "name": "Nintendo DS"
    }
  ],
  "provider_games": [
    {
      "name": "AE Mini Game Collection",
      "slug": "ae-mini-game-collection",
      "service": "igdb"
    }
  ],
  "aliases": [],
  "shaders": [],
  "discord_id": "",
  "change_for": null
}