{
  "id": 41298,
  "name": "Treasure Galaxy!",
  "slug": "treasure-galaxy",
  "year": 1992,
  "banner_url": "https://lutris.net/games/banner/treasure-galaxy.jpg",
  "icon_url": "",
  "coverart": "https://lutris.net/media/igdb/cover_big/co2njn.jpg",
  "platforms": [
    {
      "name": "Mac"
    },
    {
      "name": "MS-DOS"
    },
    {
      "name": "Windows"
    }
  ],
  "provider_games": [
    {
      "name": "Treasure Galaxy!",
      "slug": "treasure-galaxy",
      "service": "igdb"
    }
  ],
  "aliases": [],
  "shaders": [],
  "discord_id": "",
  "change_for": null
}