{
  "id": 270593,
  "name": "Sleep When I'm Dead: Chapter 0",
  "slug": "sleep-when-im-dead-chapter-0",
  "year": 2022,
  "banner_url": "",
  "icon_url": "",
  "coverart": "https://lutris.net/media/igdb/cover_big/co7nmm.jpg",
  "platforms": [
    {
      "name": "Browser"
    }
  ],
  "provider_games": [
    {
      "name": "Sleep When I'm Dead: Chapter 0",
      "slug": "sleep-when-im-dead-chapter-0",
      "service": "igdb"
    }
  ],
  "aliases": [],
  "shaders": [],
  "discord_id": "",
  "change_for": null
}