{
  "id": 82279,
  "name": "Black Mirror 3: Final Fear",
  "slug": "black-mirror-3-final-fear",
  "year": null,
  "banner_url": "",
  "icon_url": "",
  "coverart": null,
  "platforms": [],
  "provider_games": [
    {
      "name": "Black Mirror 3: Final Fear",
      "slug": "black-mirror-3-final-fear",
      "service": "igdb"
    }
  ],
  "aliases": [],
  "shaders": [],
  "discord_id": "",
  "change_for": null
}