{
  "id": 198158,
  "name": "Loco Bonobo",
  "slug": "loco-bonobo",
  "year": null,
  "banner_url": "",
  "icon_url": "",
  "coverart": "https://lutris.net/media/igdb/cover_big/co4j8l.jpg",
  "platforms": [],
  "provider_games": [
    {
      "name": "Loco Bonobo",
      "slug": "loco-bonobo",
      "service": "igdb"
    }
  ],
  "aliases": [],
  "shaders": [],
  "discord_id": "",
  "change_for": null
}