{
  "id": 63229,
  "name": "Op Pop Pop",
  "slug": "op-pop-pop",
  "year": null,
  "banner_url": "",
  "icon_url": "",
  "coverart": null,
  "platforms": [],
  "provider_games": [
    {
      "name": "Op Pop Pop",
      "slug": "op-pop-pop",
      "service": "igdb"
    }
  ],
  "aliases": [],
  "shaders": [],
  "discord_id": "",
  "change_for": null
}