{
  "id": 44151,
  "name": "Takenoko",
  "slug": "takenoko",
  "year": 2019,
  "banner_url": "https://lutris.net/games/banner/takenoko.jpg",
  "icon_url": "https://lutris.net/games/icon/takenoko.png",
  "coverart": "https://lutris.net/media/igdb/cover_big/co42vc.jpg",
  "platforms": [
    {
      "name": "Windows"
    }
  ],
  "provider_games": [
    {
      "name": "Takenoko",
      "slug": "865160",
      "service": "steam"
    },
    {
      "name": "Takenoko",
      "slug": "takenoko",
      "service": "igdb"
    }
  ],
  "aliases": [],
  "shaders": [],
  "discord_id": "",
  "change_for": null
}