{
  "id": 197190,
  "name": "Artifact Hunter: The Lost Prophecy",
  "slug": "artifact-hunter-the-lost-prophecy",
  "year": null,
  "banner_url": "",
  "icon_url": "",
  "coverart": "https://lutris.net/media/igdb/cover_big/co4ldf.jpg",
  "platforms": [],
  "provider_games": [
    {
      "name": "Artifact Hunter: The Lost Prophecy",
      "slug": "artifact-hunter-the-lost-prophecy",
      "service": "igdb"
    }
  ],
  "aliases": [],
  "shaders": [],
  "discord_id": "",
  "change_for": null
}