{
  "id": 253840,
  "name": "WitchHand",
  "slug": "witchhand",
  "year": null,
  "banner_url": "",
  "icon_url": "",
  "coverart": "https://lutris.net/media/igdb/cover_big/co6tna.jpg",
  "platforms": [],
  "provider_games": [
    {
      "name": "WitchHand",
      "slug": "witchhand",
      "service": "igdb"
    }
  ],
  "aliases": [],
  "shaders": [],
  "discord_id": "",
  "change_for": null
}