{
  "id": 196904,
  "name": "The Tower of Turmoil",
  "slug": "the-tower-of-turmoil",
  "year": 2019,
  "banner_url": "",
  "icon_url": "",
  "coverart": "https://lutris.net/media/igdb/cover_big/co4lt4.jpg",
  "platforms": [
    {
      "name": "NES"
    }
  ],
  "provider_games": [
    {
      "name": "The Tower of Turmoil",
      "slug": "the-tower-of-turmoil",
      "service": "igdb"
    }
  ],
  "aliases": [],
  "shaders": [],
  "discord_id": "",
  "change_for": null
}