{
  "id": 174534,
  "name": "Stronghold: Crusader Extreme",
  "slug": "stronghold-crusader-extreme",
  "year": 2008,
  "banner_url": "",
  "icon_url": "",
  "coverart": "https://lutris.net/media/igdb/cover_big/co3m7z.jpg",
  "platforms": [
    {
      "name": "Windows"
    }
  ],
  "provider_games": [
    {
      "name": "Stronghold: Crusader Extreme",
      "slug": "stronghold-crusader-extreme",
      "service": "igdb"
    }
  ],
  "aliases": [],
  "shaders": [],
  "discord_id": "",
  "change_for": null
}