{
  "id": 71611,
  "name": "Indoor Soccer for the TI 99/4A",
  "slug": "indoor-soccer-for-the-ti-99-slash-4a",
  "year": null,
  "banner_url": "",
  "icon_url": "",
  "coverart": null,
  "platforms": [],
  "provider_games": [
    {
      "name": "Indoor Soccer for the TI 99/4A",
      "slug": "indoor-soccer-for-the-ti-99-slash-4a",
      "service": "igdb"
    }
  ],
  "aliases": [],
  "shaders": [],
  "discord_id": "",
  "change_for": null
}