{
  "id": 155222,
  "name": "CTcity",
  "slug": "ctcity",
  "year": null,
  "banner_url": "",
  "icon_url": "",
  "coverart": "https://lutris.net/media/igdb/cover_big/co3xnr.jpg",
  "platforms": [],
  "provider_games": [
    {
      "name": "CTcity",
      "slug": "ctcity",
      "service": "igdb"
    }
  ],
  "aliases": [],
  "shaders": [],
  "discord_id": "",
  "change_for": null
}