{
  "id": 79584,
  "name": "Persona Ain Soph",
  "slug": "persona-ain-soph",
  "year": 2008,
  "banner_url": "",
  "icon_url": "",
  "coverart": "https://lutris.net/media/igdb/cover_big/cvcsocdor1n302vpi4xq.jpg",
  "platforms": [
    {
      "name": "Browser"
    }
  ],
  "provider_games": [
    {
      "name": "Persona Ain Soph",
      "slug": "persona-ain-soph",
      "service": "igdb"
    }
  ],
  "aliases": [],
  "shaders": [],
  "discord_id": "",
  "change_for": null
}