{
  "id": 42010,
  "name": "OUTRIDERS",
  "slug": "outriders",
  "year": 2021,
  "banner_url": "https://lutris.net/games/banner/outriders.jpg",
  "icon_url": "https://lutris.net/games/icon/outriders.png",
  "coverart": "https://lutris.net/media/igdb/cover_big/co2e4r.jpg",
  "platforms": [
    {
      "name": "Google Stadia"
    },
    {
      "name": "Sony Playstation 4"
    },
    {
      "name": "Sony PlayStation 5"
    },
    {
      "name": "Windows"
    },
    {
      "name": "Xbox One"
    },
    {
      "name": "Xbox Series X|S"
    }
  ],
  "provider_games": [
    {
      "name": "Outriders",
      "slug": "outriders",
      "service": "igdb"
    },
    {
      "name": "OUTRIDERS",
      "slug": "680420",
      "service": "steam"
    }
  ],
  "aliases": [],
  "shaders": [],
  "discord_id": "",
  "change_for": null
}