{
  "id": 171123,
  "name": "Rave Asylum",
  "slug": "rave-asylum",
  "year": null,
  "banner_url": "",
  "icon_url": "",
  "coverart": "https://lutris.net/media/igdb/cover_big/co4789.jpg",
  "platforms": [],
  "provider_games": [
    {
      "name": "Rave Asylum",
      "slug": "rave-asylum",
      "service": "igdb"
    }
  ],
  "aliases": [],
  "shaders": [],
  "discord_id": "",
  "change_for": null
}