{
  "id": 185649,
  "name": "Monet Heist",
  "slug": "monet-heist",
  "year": null,
  "banner_url": "",
  "icon_url": "",
  "coverart": "https://lutris.net/media/igdb/cover_big/co7kws.jpg",
  "platforms": [],
  "provider_games": [
    {
      "name": "Monet Heist",
      "slug": "monet-heist",
      "service": "igdb"
    }
  ],
  "aliases": [],
  "shaders": [],
  "discord_id": "",
  "change_for": null
}