{
  "id": 67227,
  "name": "New Star Tennis",
  "slug": "new-star-tennis",
  "year": null,
  "banner_url": "",
  "icon_url": "",
  "coverart": "https://lutris.net/media/igdb/cover_big/goehyypyiziy5gagkind.jpg",
  "platforms": [],
  "provider_games": [
    {
      "name": "New Star Tennis",
      "slug": "new-star-tennis",
      "service": "igdb"
    }
  ],
  "aliases": [],
  "shaders": [],
  "discord_id": "",
  "change_for": null
}