{
  "id": 266554,
  "name": "No Me: The Future is Ours",
  "slug": "no-me-the-future-is-ours",
  "year": 2023,
  "banner_url": "",
  "icon_url": "",
  "coverart": "https://lutris.net/media/igdb/cover_big/co7dgs.jpg",
  "platforms": [
    {
      "name": "Windows"
    }
  ],
  "provider_games": [
    {
      "name": "No Me: The Future is Ours",
      "slug": "no-me-the-future-is-ours",
      "service": "igdb"
    }
  ],
  "aliases": [],
  "shaders": [],
  "discord_id": "",
  "change_for": null
}