{
  "id": 58359,
  "name": "Donkey Kong: Banana Kingdom",
  "slug": "donkey-kong-banana-kingdom",
  "year": 2006,
  "banner_url": "",
  "icon_url": "",
  "coverart": "https://lutris.net/media/igdb/cover_big/co218b.jpg",
  "platforms": [],
  "provider_games": [
    {
      "name": "Donkey Kong Banana Kingdom",
      "slug": "donkey-kong-banana-kingdom",
      "service": "igdb"
    }
  ],
  "aliases": [],
  "shaders": [],
  "discord_id": "",
  "change_for": null
}