{
  "id": 26469,
  "name": "Tiny Toon Adventures 3",
  "slug": "tiny-toon-adventures-3",
  "year": 1996,
  "banner_url": "https://lutris.net/games/banner/tiny-toon-adventures-3.jpg",
  "icon_url": "",
  "coverart": "https://lutris.net/media/igdb/cover_big/co7yro.jpg",
  "platforms": [
    {
      "name": "Sega Genesis / Mega Drive"
    }
  ],
  "provider_games": [
    {
      "name": "Tiny Toon Adventures 3",
      "slug": "tiny-toon-adventures-3",
      "service": "igdb"
    }
  ],
  "aliases": [],
  "shaders": [],
  "discord_id": "",
  "change_for": null
}