{
  "id": 23934,
  "game_id": 9348,
  "game_slug": "business-tour",
  "name": "Business Tour",
  "year": 2017,
  "user": "vanstaveren",
  "runner": "steam",
  "slug": "business-tour-proton",
  "version": "proton",
  "description": null,
  "notes": "",
  "credits": "",
  "created_at": "2020-10-15T19:51:29.218716Z",
  "updated_at": "2021-12-13T19:14:46.079062Z",
  "draft": false,
  "published": true,
  "published_by": null,
  "rating": "",
  "is_playable": null,
  "steamid": 397900,
  "gogid": null,
  "gogslug": "",
  "humbleid": "",
  "humblestoreid": "",
  "humblestoreid_real": "",
  "script": {
    "game": {
      "appid": 397900
    }
  },
  "content": "game:\n  appid: 397900\n",
  "discord_id": ""
}