{
  "id": 292137,
  "name": "Flappy Horse",
  "slug": "flappy-horse",
  "year": null,
  "banner_url": "",
  "icon_url": "",
  "coverart": "https://lutris.net/media/igdb/cover_big/co8jlk.jpg",
  "platforms": [],
  "provider_games": [
    {
      "name": "Flappy Horse",
      "slug": "flappy-horse",
      "service": "igdb"
    }
  ],
  "aliases": [],
  "shaders": [],
  "discord_id": "",
  "change_for": null
}