{
  "id": 37061,
  "name": "Sakura Sakura",
  "slug": "sakura-sakura",
  "year": null,
  "banner_url": "https://lutris.net/games/banner/sakura-sakura.jpg",
  "icon_url": "https://lutris.net/games/icon/sakura-sakura.png",
  "coverart": null,
  "platforms": [],
  "provider_games": [
    {
      "name": "Sakura Sakura",
      "slug": "658140",
      "service": "steam"
    },
    {
      "name": "Sakura Sakura",
      "slug": "sakura-sakura",
      "service": "igdb"
    }
  ],
  "aliases": [],
  "shaders": [],
  "discord_id": "",
  "change_for": null
}