{
  "id": 169531,
  "name": "Be Hero",
  "slug": "be-hero--1",
  "year": null,
  "banner_url": "",
  "icon_url": "",
  "coverart": "https://lutris.net/media/igdb/cover_big/co45vc.jpg",
  "platforms": [],
  "provider_games": [
    {
      "name": "Be Hero",
      "slug": "be-hero--1",
      "service": "igdb"
    }
  ],
  "aliases": [],
  "shaders": [],
  "discord_id": "",
  "change_for": null
}