{
  "id": 26829,
  "game_id": 422,
  "game_slug": "kings-bounty-the-legend",
  "name": "King's Bounty: The Legend",
  "year": 2008,
  "user": "appoloin",
  "runner": "wine",
  "slug": "kings-bounty-the-legend-gog",
  "version": "GOG",
  "description": null,
  "notes": "",
  "credits": "",
  "created_at": "2021-03-09T10:25:27.309747Z",
  "updated_at": "2023-01-11T07:39:32.459078Z",
  "draft": false,
  "published": true,
  "published_by": null,
  "rating": "",
  "is_playable": null,
  "steamid": 25900,
  "gogid": 1207658867,
  "gogslug": "kings_bounty_the_legend",
  "humbleid": "",
  "humblestoreid": "",
  "humblestoreid_real": "",
  "script": {
    "files": [
      {
        "setup": "N/A:Select installer"
      }
    ],
    "game": {
      "arch": "win32",
      "exe": "$GAMEDIR/drive_c/GOG Games/King's Bounty The Legend/kb.exe",
      "prefix": "$GAMEDIR"
    },
    "installer": [
      {
        "task": {
          "arch": "win32",
          "install_gecko": false,
          "install_mono": false,
          "name": "create_prefix",
          "prefix": "$GAMEDIR"
        }
      },
      {
        "task": {
          "executable": "$setup",
          "name": "wineexec",
          "prefix": "$GAMEDIR"
        }
      }
    ],
    "wine": {
      "Desktop": true
    }
  },
  "content": "files:\n- setup: N/A:Select installer\ngame:\n  arch: win32\n  exe: $GAMEDIR/drive_c/GOG Games/King's Bounty The Legend/kb.exe\n  prefix: $GAMEDIR\ninstaller:\n- task:\n    arch: win32\n    install_gecko: false\n    install_mono: false\n    name: create_prefix\n    prefix: $GAMEDIR\n- task:\n    executable: $setup\n    name: wineexec\n    prefix: $GAMEDIR\nwine:\n  Desktop: true\n",
  "discord_id": ""
}