{
  "id": 287115,
  "name": "Alpha Nomos",
  "slug": "alpha-nomos",
  "year": null,
  "banner_url": "",
  "icon_url": "",
  "coverart": "https://lutris.net/media/igdb/cover_big/co89jm.jpg",
  "platforms": [],
  "provider_games": [
    {
      "name": "Alpha Nomos",
      "slug": "alpha-nomos",
      "service": "igdb"
    }
  ],
  "aliases": [],
  "shaders": [],
  "discord_id": "",
  "change_for": null
}