{
  "id": 209138,
  "name": "Eevee x Tamagotchi",
  "slug": "eevee-x-tamagotchi",
  "year": 2019,
  "banner_url": "",
  "icon_url": "",
  "coverart": "https://lutris.net/media/igdb/cover_big/co5y5w.jpg",
  "platforms": [],
  "provider_games": [
    {
      "name": "Eevee x Tamagotchi",
      "slug": "eevee-x-tamagotchi",
      "service": "igdb"
    }
  ],
  "aliases": [],
  "shaders": [],
  "discord_id": "",
  "change_for": null
}