{
  "id": 245090,
  "name": "Fantasy Baseball",
  "slug": "fantasy-baseball",
  "year": 2007,
  "banner_url": "",
  "icon_url": "",
  "coverart": null,
  "platforms": [
    {
      "name": "Plug & Play"
    }
  ],
  "provider_games": [
    {
      "name": "Fantasy Baseball",
      "slug": "fantasy-baseball",
      "service": "igdb"
    }
  ],
  "aliases": [],
  "shaders": [],
  "discord_id": "",
  "change_for": null
}