{
  "id": 280645,
  "name": "SpongeBob SolitairePants",
  "slug": "spongebob-solitairepants",
  "year": 2022,
  "banner_url": "",
  "icon_url": "",
  "coverart": "https://lutris.net/media/igdb/cover_big/co809d.jpg",
  "platforms": [
    {
      "name": "Mac"
    }
  ],
  "provider_games": [
    {
      "name": "SpongeBob SolitairePants",
      "slug": "spongebob-solitairepants",
      "service": "igdb"
    }
  ],
  "aliases": [],
  "shaders": [],
  "discord_id": "",
  "change_for": null
}