{
  "id": 159932,
  "name": "Ultraman Powered",
  "slug": "ultraman-powered",
  "year": 1994,
  "banner_url": "",
  "icon_url": "",
  "coverart": "https://lutris.net/media/igdb/cover_big/vcolw2rcgca1fweahfye.jpg",
  "platforms": [
    {
      "name": "3DO"
    }
  ],
  "provider_games": [
    {
      "name": "Ultraman Powered",
      "slug": "ultraman-powered",
      "service": "igdb"
    }
  ],
  "aliases": [],
  "shaders": [],
  "discord_id": "",
  "change_for": null
}