{
  "id": 7497,
  "name": "AGON - The Lost Sword of Toledo",
  "slug": "agon-the-lost-sword-of-toledo",
  "year": 2015,
  "banner_url": "https://lutris.net/games/banner/agon-the-lost-sword-of-toledo.jpg",
  "icon_url": "https://lutris.net/games/icon/agon-the-lost-sword-of-toledo.png",
  "coverart": "https://lutris.net/media/igdb/cover_big/co3l7a.jpg",
  "platforms": [
    {
      "name": "Windows"
    }
  ],
  "provider_games": [
    {
      "name": "AGON - The Lost Sword of Toledo",
      "slug": "410130",
      "service": "steam"
    },
    {
      "name": "Agon: The Lost Sword of Toledo",
      "slug": "agon-the-lost-sword-of-toledo",
      "service": "igdb"
    }
  ],
  "aliases": [],
  "shaders": [],
  "discord_id": "",
  "change_for": null
}