{
  "id": 21516,
  "game_id": 37292,
  "game_slug": "kamasutra",
  "name": "Kamasutra",
  "year": 1998,
  "user": "x_l_ours",
  "runner": "wine",
  "slug": "kamasutra-cddvd",
  "version": "CD/DVD",
  "description": "Quand un maître de la BD érotique rencontre le chef d’œuvre de la littérature érotique",
  "notes": "nécessite QuickTime et QuickMove",
  "credits": "",
  "created_at": "2020-06-14T17:33:33.873067Z",
  "updated_at": "2024-04-03T04:38:05.316452Z",
  "draft": true,
  "published": true,
  "published_by": 1,
  "rating": "",
  "is_playable": null,
  "steamid": null,
  "gogid": null,
  "gogslug": "",
  "humbleid": "",
  "humblestoreid": "",
  "humblestoreid_real": "",
  "script": {
    "game": {
      "arch": "win32",
      "prefix": "$GAMEDIR/prefix",
      "exe": "prefix/drive_c/KamaSutra/install.exe"
    },
    "installer": [
      {
        "task": {
          "app": "win98",
          "arch": "win32",
          "description": "Setting Windows Version to 98",
          "name": "winetricks",
          "prefix": "$GAMEDIR/prefix"
        }
      },
      {
        "task": {
          "arch": "win32",
          "description": "Creating Wine Prefix",
          "name": "create_prefix",
          "prefix": "$GAMEDIR/prefix"
        }
      },
      {
        "insert-disc": {
          "requires": "install.exe"
        }
      },
      {
        "task": {
          "executable": "$DISC/install/qm95.exe",
          "name": "wineexec",
          "prefix": "$GAMEDIR/prefix"
        }
      },
      {
        "task": {
          "executable": "$DISC/install.exe",
          "name": "wineexec",
          "prefix": "$GAMEDIR/prefix"
        }
      },
      {
        "task": {
          "app": "win98",
          "arch": "win32",
          "description": "Setting Windows Version to 98",
          "name": "winetricks",
          "prefix": "$GAMEDIR/prefix"
        }
      }
    ]
  },
  "content": "game:\r\n  arch: win32\r\n  prefix: $GAMEDIR/prefix\r\n  exe: prefix/drive_c/KamaSutra/install.exe\r\ninstaller:\r\n- task:\r\n    app: win98\r\n    arch: win32\r\n    description: Setting Windows Version to 98\r\n    name: winetricks\r\n    prefix: $GAMEDIR/prefix\r\n- task:\r\n    arch: win32\r\n    description: Creating Wine Prefix\r\n    name: create_prefix\r\n    prefix: $GAMEDIR/prefix\r\n- insert-disc:\r\n    requires: install.exe\r\n- task:\r\n    executable: $DISC/install/qm95.exe\r\n    name: wineexec\r\n    prefix: $GAMEDIR/prefix\r\n- task:\r\n    executable: $DISC/install.exe\r\n    name: wineexec\r\n    prefix: $GAMEDIR/prefix\r\n- task:\r\n    app: win98\r\n    arch: win32\r\n    description: Setting Windows Version to 98\r\n    name: winetricks\r\n    prefix: $GAMEDIR/prefix",
  "discord_id": ""
}