{
  "id": 187825,
  "name": "Pumpkin Eater",
  "slug": "pumpkin-eater",
  "year": null,
  "banner_url": "",
  "icon_url": "",
  "coverart": "https://lutris.net/media/igdb/cover_big/co4k2h.jpg",
  "platforms": [],
  "provider_games": [
    {
      "name": "Pumpkin Eater",
      "slug": "pumpkin-eater",
      "service": "igdb"
    }
  ],
  "aliases": [],
  "shaders": [],
  "discord_id": "",
  "change_for": null
}