{
  "id": 295570,
  "name": "Whatever We Decide to Call this Game",
  "slug": "whatever-we-decide-to-call-this-game",
  "year": 1993,
  "banner_url": "",
  "icon_url": "",
  "coverart": null,
  "platforms": [],
  "provider_games": [
    {
      "name": "Whatever We Decide to Call this Game",
      "slug": "whatever-we-decide-to-call-this-game",
      "service": "igdb"
    }
  ],
  "aliases": [],
  "shaders": [],
  "discord_id": "",
  "change_for": null
}