{
  "id": 211387,
  "name": "Ralph and the Blue Ball",
  "slug": "ralph-and-the-blue-ball",
  "year": 2022,
  "banner_url": "",
  "icon_url": "",
  "coverart": "https://lutris.net/media/igdb/cover_big/co5lq8.jpg",
  "platforms": [
    {
      "name": "Windows"
    }
  ],
  "provider_games": [
    {
      "name": "Ralph and the Blue Ball",
      "slug": "ralph-and-the-blue-ball",
      "service": "igdb"
    }
  ],
  "aliases": [],
  "shaders": [],
  "discord_id": "",
  "change_for": null
}