{
  "id": 178277,
  "name": "Monster Girls: the Advent",
  "slug": "monster-girls-the-advent",
  "year": null,
  "banner_url": "",
  "icon_url": "",
  "coverart": null,
  "platforms": [],
  "provider_games": [
    {
      "name": "Monster Girls: the Advent",
      "slug": "monster-girls-the-advent",
      "service": "igdb"
    }
  ],
  "aliases": [],
  "shaders": [],
  "discord_id": "",
  "change_for": null
}