{
  "id": 278773,
  "name": "Rest to Landia",
  "slug": "rest-to-landia",
  "year": null,
  "banner_url": "",
  "icon_url": "",
  "coverart": "https://lutris.net/media/igdb/cover_big/co7x8s.jpg",
  "platforms": [],
  "provider_games": [
    {
      "name": "Rest to Landia",
      "slug": "rest-to-landia",
      "service": "igdb"
    }
  ],
  "aliases": [],
  "shaders": [],
  "discord_id": "",
  "change_for": null
}