{
  "id": 261833,
  "name": "Underground Defense Force: Sword and Sorcery and Swarm of Insects",
  "slug": "underground-defense-force-sword-and-sorcery-and-swarm-of-insects",
  "year": null,
  "banner_url": "",
  "icon_url": "",
  "coverart": "https://lutris.net/media/igdb/cover_big/co76ld.jpg",
  "platforms": [],
  "provider_games": [
    {
      "name": "Underground Defense Force: Sword and Sorcery and Swarm of Insects",
      "slug": "underground-defense-force-sword-and-sorcery-and-swarm-of-insects",
      "service": "igdb"
    }
  ],
  "aliases": [],
  "shaders": [],
  "discord_id": "",
  "change_for": null
}