{
  "id": 233427,
  "name": "Nico Yazawa is Dreaming",
  "slug": "nico-yazawa-is-dreaming",
  "year": 2018,
  "banner_url": "",
  "icon_url": "",
  "coverart": "https://lutris.net/media/igdb/cover_big/co69uf.jpg",
  "platforms": [
    {
      "name": "Windows"
    }
  ],
  "provider_games": [
    {
      "name": "Nico Yazawa is Dreaming",
      "slug": "nico-yazawa-is-dreaming",
      "service": "igdb"
    }
  ],
  "aliases": [],
  "shaders": [],
  "discord_id": "",
  "change_for": null
}