{
  "id": 268825,
  "name": "Clean Up After Your Dog",
  "slug": "clean-up-after-your-dog",
  "year": 2024,
  "banner_url": "",
  "icon_url": "",
  "coverart": "https://lutris.net/media/igdb/cover_big/co7iz7.jpg",
  "platforms": [
    {
      "name": "Windows"
    }
  ],
  "provider_games": [
    {
      "name": "Clean Up After Your Dog",
      "slug": "clean-up-after-your-dog",
      "service": "igdb"
    }
  ],
  "aliases": [],
  "shaders": [],
  "discord_id": "",
  "change_for": null
}