{
  "id": 287026,
  "name": "Love, Death & Mummies: Zombie Romance Visual Novel",
  "slug": "love-death-and-mummies-zombie-romance-visual-novel",
  "year": null,
  "banner_url": "",
  "icon_url": "",
  "coverart": "https://lutris.net/media/igdb/cover_big/co89qi.jpg",
  "platforms": [],
  "provider_games": [
    {
      "name": "Love, Death & Mummies: Zombie Romance Visual Novel",
      "slug": "love-death-and-mummies-zombie-romance-visual-novel",
      "service": "igdb"
    }
  ],
  "aliases": [],
  "shaders": [],
  "discord_id": "",
  "change_for": null
}