{
  "id": 128043,
  "name": "Asteroids: Far Away From Home",
  "slug": "asteroids-far-away-from-home",
  "year": 2020,
  "banner_url": "",
  "icon_url": "",
  "coverart": "https://lutris.net/media/igdb/cover_big/co3gem.jpg",
  "platforms": [
    {
      "name": "Windows"
    }
  ],
  "provider_games": [
    {
      "name": "Asteroids: Far Away From Home",
      "slug": "asteroids-far-away-from-home",
      "service": "igdb"
    }
  ],
  "aliases": [],
  "shaders": [],
  "discord_id": "",
  "change_for": null
}