{
  "id": 306588,
  "name": "Sonic: The Trials of Time",
  "slug": "sonic-the-trials-of-time",
  "year": null,
  "banner_url": "",
  "icon_url": "",
  "coverart": null,
  "platforms": [
    {
      "name": "Windows"
    }
  ],
  "provider_games": [
    {
      "name": "Sonic: The Trials of Time",
      "slug": "sonic-the-trials-of-time",
      "service": "igdb"
    }
  ],
  "aliases": [],
  "shaders": [],
  "discord_id": "",
  "change_for": null
}