{
  "id": 5333,
  "game_id": 1353,
  "game_slug": "teenagent",
  "name": "TeenAgent",
  "year": 1995,
  "user": "FakeShemp",
  "runner": "scummvm",
  "slug": "teenagent-gog",
  "version": "GOG",
  "description": "",
  "notes": "",
  "credits": "",
  "created_at": "2017-08-11T21:58:23.368000Z",
  "updated_at": "2022-02-03T06:41:28.117886Z",
  "draft": false,
  "published": true,
  "published_by": 494,
  "rating": "",
  "is_playable": null,
  "steamid": null,
  "gogid": 1207658753,
  "gogslug": "teenagent",
  "humbleid": "",
  "humblestoreid": "",
  "humblestoreid_real": "",
  "script": {
    "files": [
      {
        "file1": "N/A:Please select the GOG installer"
      },
      {
        "file2": "http://constexpr.org/innoextract/files/innoextract-1.6-linux.tar.xz"
      }
    ],
    "game": {
      "game_id": "teenagent",
      "path": "$GAMEDIR",
      "subtitles": true
    },
    "installer": [
      {
        "extract": {
          "dst": "$CACHE",
          "file": "$file2"
        }
      },
      {
        "execute": {
          "args": "-d \"$CACHE\" \"$file1\"",
          "file": "$CACHE/innoextract"
        }
      },
      {
        "merge": {
          "dst": "$GAMEDIR",
          "src": "$CACHE/app"
        }
      }
    ]
  },
  "content": "files:\n- file1: N/A:Please select the GOG installer\n- file2: http://constexpr.org/innoextract/files/innoextract-1.6-linux.tar.xz\ngame:\n  game_id: teenagent\n  path: $GAMEDIR\n  subtitles: true\ninstaller:\n- extract:\n    dst: $CACHE\n    file: $file2\n- execute:\n    args: -d \"$CACHE\" \"$file1\"\n    file: $CACHE/innoextract\n- merge:\n    dst: $GAMEDIR\n    src: $CACHE/app\n",
  "discord_id": ""
}