{
  "id": 173249,
  "name": "Warlander",
  "slug": "warlander",
  "year": 2020,
  "banner_url": "https://lutris.net/games/banner/warlander.jpg",
  "icon_url": "",
  "coverart": "https://lutris.net/media/igdb/cover_big/co1xe7.jpg",
  "platforms": [
    {
      "name": "Sony Playstation 4"
    },
    {
      "name": "Windows"
    },
    {
      "name": "Xbox One"
    }
  ],
  "provider_games": [
    {
      "name": "Warlander",
      "slug": "warlander",
      "service": "igdb"
    },
    {
      "name": "Warlander",
      "slug": "1675900",
      "service": "steam"
    }
  ],
  "aliases": [],
  "shaders": [],
  "discord_id": "",
  "change_for": null
}