{
  "id": 8124,
  "game_id": 7175,
  "game_slug": "from-earth",
  "name": "From Earth",
  "year": 2016,
  "user": "soredake",
  "runner": "steam",
  "slug": "from-earth-proton",
  "version": "Proton",
  "description": null,
  "notes": "",
  "credits": "",
  "created_at": "2018-05-09T06:09:06.003742Z",
  "updated_at": "2021-05-04T02:43:08.072061Z",
  "draft": false,
  "published": true,
  "published_by": null,
  "rating": "",
  "is_playable": null,
  "steamid": 334370,
  "gogid": null,
  "gogslug": "",
  "humbleid": "",
  "humblestoreid": "",
  "humblestoreid_real": "",
  "script": {
    "game": {
      "appid": 334370
    }
  },
  "content": "game:\n  appid: 334370\n",
  "discord_id": ""
}