{
  "id": 13549,
  "name": "GRAVEN The Purple Moon Prophecy",
  "slug": "graven-the-purple-moon-prophecy",
  "year": 2016,
  "banner_url": "https://lutris.net/games/banner/graven-the-purple-moon-prophecy.jpg",
  "icon_url": "https://lutris.net/games/icon/graven-the-purple-moon-prophecy.png",
  "coverart": "https://lutris.net/media/igdb/cover_big/co40lk.jpg",
  "platforms": [
    {
      "name": "Windows"
    }
  ],
  "provider_games": [
    {
      "name": "GRAVEN The Purple Moon Prophecy",
      "slug": "467490",
      "service": "steam"
    },
    {
      "name": "Graven: The Purple Moon Prophecy",
      "slug": "graven-the-purple-moon-prophecy",
      "service": "igdb"
    }
  ],
  "aliases": [],
  "shaders": [],
  "discord_id": "",
  "change_for": null
}