{
  "id": 156650,
  "name": "BMX Boy",
  "slug": "bmx-boy",
  "year": null,
  "banner_url": "",
  "icon_url": "",
  "coverart": "https://lutris.net/media/igdb/cover_big/co4sz5.jpg",
  "platforms": [],
  "provider_games": [
    {
      "name": "BMX Boy",
      "slug": "bmx-boy",
      "service": "igdb"
    }
  ],
  "aliases": [],
  "shaders": [],
  "discord_id": "",
  "change_for": null
}