{
  "id": 29624,
  "name": "Namco Tennis Smash Court",
  "slug": "namco-tennis-smash-court",
  "year": 1996,
  "banner_url": "https://lutris.net/games/banner/namco-tennis-smash-court.jpg",
  "icon_url": "",
  "coverart": "https://lutris.net/media/igdb/cover_big/co3a7t.jpg",
  "platforms": [
    {
      "name": "Sony PlayStation"
    }
  ],
  "provider_games": [
    {
      "name": "Namco Tennis Smash Court",
      "slug": "namco-tennis-smash-court",
      "service": "igdb"
    }
  ],
  "aliases": [],
  "shaders": [],
  "discord_id": "",
  "change_for": null
}