{
  "id": 1184,
  "name": "Remember Me",
  "slug": "remember-me",
  "year": 2013,
  "banner_url": "https://lutris.net/games/banner/remember-me.jpg",
  "icon_url": "https://lutris.net/games/icon/remember-me.png",
  "coverart": "https://lutris.net/media/igdb/cover_big/co2h9u.jpg",
  "platforms": [
    {
      "name": "Sony Playstation 3"
    },
    {
      "name": "Windows"
    },
    {
      "name": "Xbox 360"
    }
  ],
  "provider_games": [
    {
      "name": "Remember Me",
      "slug": "228300",
      "service": "steam"
    },
    {
      "name": "Remember Me",
      "slug": "remember-me",
      "service": "igdb"
    }
  ],
  "aliases": [],
  "shaders": [],
  "discord_id": "",
  "change_for": null
}