{
  "id": 59325,
  "name": "Sanyo Pachinko Paradise 8: Shin Umi Monogatari",
  "slug": "sanyo-pachinko-paradise-8-shin-umi-monogatari",
  "year": null,
  "banner_url": "",
  "icon_url": "",
  "coverart": "https://lutris.net/media/igdb/cover_big/co5jo8.jpg",
  "platforms": [],
  "provider_games": [
    {
      "name": "Sanyo Pachinko Paradise 8: Shin Umi Monogatari",
      "slug": "sanyo-pachinko-paradise-8-shin-umi-monogatari",
      "service": "igdb"
    }
  ],
  "aliases": [],
  "shaders": [],
  "discord_id": "",
  "change_for": null
}