{
  "id": 228546,
  "name": "Soldiers - Heroes of World War II (game)",
  "slug": "soldiers-heroes-of-world-war-ii-game",
  "year": null,
  "banner_url": "",
  "icon_url": "",
  "coverart": null,
  "platforms": [],
  "provider_games": [
    {
      "name": "Soldiers - Heroes of World War II (game)",
      "slug": "1207662153",
      "service": "gog"
    }
  ],
  "aliases": [],
  "shaders": [],
  "discord_id": "",
  "change_for": null
}