{
  "id": 164799,
  "name": "Snow Arena",
  "slug": "snow-arena",
  "year": null,
  "banner_url": "",
  "icon_url": "",
  "coverart": "https://lutris.net/media/igdb/cover_big/co41pw.jpg",
  "platforms": [],
  "provider_games": [
    {
      "name": "Snow Arena",
      "slug": "snow-arena",
      "service": "igdb"
    }
  ],
  "aliases": [],
  "shaders": [],
  "discord_id": "",
  "change_for": null
}