{
  "id": 104484,
  "name": "Home Run Derby VR",
  "slug": "home-run-derby-vr",
  "year": null,
  "banner_url": "",
  "icon_url": "",
  "coverart": "https://lutris.net/media/igdb/cover_big/co2qcy.jpg",
  "platforms": [],
  "provider_games": [
    {
      "name": "Home Run Derby VR",
      "slug": "home-run-derby-vr",
      "service": "igdb"
    }
  ],
  "aliases": [],
  "shaders": [],
  "discord_id": "",
  "change_for": null
}