{
  "id": 218816,
  "name": "Japanese Nekosama: Escape The Sento",
  "slug": "japanese-nekosama-escape-the-sento",
  "year": null,
  "banner_url": "",
  "icon_url": "",
  "coverart": "https://lutris.net/media/igdb/cover_big/co522c.jpg",
  "platforms": [],
  "provider_games": [
    {
      "name": "Japanese Nekosama: Escape the Sento",
      "slug": "japanese-nekosama-escape-the-sento",
      "service": "igdb"
    }
  ],
  "aliases": [],
  "shaders": [],
  "discord_id": "",
  "change_for": null
}