{
  "id": 111080,
  "name": "Youyou Kengeki Musou",
  "slug": "youyou-kengeki-musou",
  "year": 2011,
  "banner_url": "",
  "icon_url": "",
  "coverart": "https://lutris.net/media/igdb/cover_big/co2t1s.jpg",
  "platforms": [
    {
      "name": "Windows"
    }
  ],
  "provider_games": [
    {
      "name": "Youyou Kengeki Musou",
      "slug": "youyou-kengeki-musou",
      "service": "igdb"
    }
  ],
  "aliases": [],
  "shaders": [],
  "discord_id": "",
  "change_for": null
}