{
  "id": 27411,
  "name": "WWE Smackdown! Here Comes the Pain",
  "slug": "wwe-smackdown-here-comes-the-pain",
  "year": 2003,
  "banner_url": "https://lutris.net/games/banner/wwe-smackdown-here-comes-the-pain.jpg",
  "icon_url": "",
  "coverart": "https://lutris.net/media/igdb/cover_big/co2rwt.jpg",
  "platforms": [
    {
      "name": "Sony PlayStation 2"
    }
  ],
  "provider_games": [
    {
      "name": "WWE Smackdown! Here Comes the Pain",
      "slug": "wwe-smackdown-here-comes-the-pain",
      "service": "igdb"
    }
  ],
  "aliases": [],
  "shaders": [],
  "discord_id": "",
  "change_for": null
}