{
  "id": 35088,
  "name": "Nebulas Ray",
  "slug": "nebulas-ray",
  "year": 1994,
  "banner_url": "",
  "icon_url": "https://lutris.net/games/icon/nebulas-ray.png",
  "coverart": "https://lutris.net/media/igdb/cover_big/ief3yt4ejuowsnmpqras.jpg",
  "platforms": [
    {
      "name": "Arcade"
    }
  ],
  "provider_games": [
    {
      "name": "Nebulas Ray",
      "slug": "nebulray",
      "service": "mame"
    },
    {
      "name": "Nebulas ray",
      "slug": "nebulas-ray",
      "service": "igdb"
    }
  ],
  "aliases": [],
  "shaders": [],
  "discord_id": "",
  "change_for": null
}