{
  "id": 150858,
  "name": "Mahjong Masters: Temple of the Ten Gods",
  "slug": "mahjong-masters-temple-of-the-ten-gods",
  "year": 2017,
  "banner_url": "https://lutris.net/games/banner/mahjong-masters-temple-of-the-ten-gods.jpg",
  "icon_url": "",
  "coverart": null,
  "platforms": [
    {
      "name": "Windows"
    }
  ],
  "provider_games": [
    {
      "name": "Mahjong Masters: Temple of the Ten Gods",
      "slug": "655650",
      "service": "steam"
    },
    {
      "name": "Mahjong Masters: Temple of the Ten Gods",
      "slug": "mahjong-masters-temple-of-the-ten-gods",
      "service": "igdb"
    }
  ],
  "aliases": [],
  "shaders": [],
  "discord_id": "",
  "change_for": null
}