{
  "id": 33025,
  "name": "Wolflord BETA",
  "slug": "wolflord-beta",
  "year": null,
  "banner_url": "https://lutris.net/games/banner/wolflord-beta.jpg",
  "icon_url": "https://lutris.net/games/icon/wolflord-beta.png",
  "coverart": null,
  "platforms": [],
  "provider_games": [
    {
      "name": "Wolflord - Werewolf Online",
      "slug": "657730",
      "service": "steam"
    }
  ],
  "aliases": [],
  "shaders": [],
  "discord_id": "",
  "change_for": null
}