{
  "id": 155368,
  "name": "Gluk The Thunder Warrior",
  "slug": "gluk-the-thunder-warrior",
  "year": 1992,
  "banner_url": "",
  "icon_url": "",
  "coverart": "https://lutris.net/media/igdb/cover_big/co3xp5.jpg",
  "platforms": [
    {
      "name": "NES"
    }
  ],
  "provider_games": [
    {
      "name": "Gluk the Thunder Warrior",
      "slug": "gluk-the-thunder-warrior",
      "service": "igdb"
    }
  ],
  "aliases": [],
  "shaders": [],
  "discord_id": "",
  "change_for": null
}