{
  "id": 14186,
  "name": "Tatsu",
  "slug": "tatsu",
  "year": 2016,
  "banner_url": "https://lutris.net/games/banner/tatsu.jpg",
  "icon_url": "https://lutris.net/games/icon/tatsu.png",
  "coverart": "https://lutris.net/media/igdb/cover_big/mq06alyz4yog8nmoezmh.jpg",
  "platforms": [
    {
      "name": "Linux"
    },
    {
      "name": "Mac"
    },
    {
      "name": "Windows"
    }
  ],
  "provider_games": [
    {
      "name": "Tatsu",
      "slug": "445070",
      "service": "steam"
    },
    {
      "name": "Tatsu",
      "slug": "tatsu",
      "service": "igdb"
    }
  ],
  "aliases": [],
  "shaders": [],
  "discord_id": "",
  "change_for": null
}