{
  "id": 98955,
  "name": "The Magic School Bus: Oceans",
  "slug": "the-magic-school-bus-oceans",
  "year": null,
  "banner_url": "",
  "icon_url": "",
  "coverart": "https://lutris.net/media/igdb/cover_big/co5yu3.jpg",
  "platforms": [],
  "provider_games": [
    {
      "name": "The Magic School Bus: Oceans",
      "slug": "the-magic-school-bus-oceans",
      "service": "igdb"
    }
  ],
  "aliases": [],
  "shaders": [],
  "discord_id": "",
  "change_for": null
}