{
  "id": 190108,
  "name": "Six Days in Fallujah",
  "slug": "six-days-in-fallujah",
  "year": 2022,
  "banner_url": "https://lutris.net/games/banner/six-days-in-fallujah.jpg",
  "icon_url": "",
  "coverart": "https://lutris.net/media/igdb/cover_big/co4aqw.jpg",
  "platforms": [
    {
      "name": "Sony Playstation 4"
    },
    {
      "name": "Sony PlayStation 5"
    },
    {
      "name": "Windows"
    },
    {
      "name": "Xbox One"
    },
    {
      "name": "Xbox Series X|S"
    }
  ],
  "provider_games": [
    {
      "name": "Six Days in Fallujah",
      "slug": "six-days-in-fallujah",
      "service": "igdb"
    },
    {
      "name": "Six Days in Fallujah",
      "slug": "1548850",
      "service": "steam"
    }
  ],
  "aliases": [],
  "shaders": [],
  "discord_id": "",
  "change_for": null
}