{
  "id": 38302,
  "game_id": 273769,
  "game_slug": "phantom-ascension-2",
  "name": "Phantom Ascension 2",
  "year": 2024,
  "user": "vanstaveren",
  "runner": "steam",
  "slug": "phantom-ascension-2-steam",
  "version": "steam",
  "description": "",
  "notes": "",
  "credits": "",
  "created_at": "2024-02-26T23:14:05.818305Z",
  "updated_at": "2024-02-26T23:14:05.818334Z",
  "draft": false,
  "published": true,
  "published_by": null,
  "rating": "",
  "is_playable": null,
  "steamid": null,
  "gogid": null,
  "gogslug": "",
  "humbleid": "",
  "humblestoreid": "",
  "humblestoreid_real": "",
  "script": {
    "game": {
      "appid": 2738320
    }
  },
  "content": "game:\n  appid: 2738320\n",
  "discord_id": ""
}