{
  "id": 114698,
  "name": "Nayuta no Kiseki: Kai",
  "slug": "nayuta-no-kiseki-kai",
  "year": 2021,
  "banner_url": "https://lutris.net/games/banner/nayuta-no-kiseki-kai.jpg",
  "icon_url": "",
  "coverart": "https://lutris.net/media/igdb/cover_big/co2yt5.jpg",
  "platforms": [
    {
      "name": "Sony Playstation 4"
    }
  ],
  "provider_games": [
    {
      "name": "Nayuta no Kiseki: Kai",
      "slug": "nayuta-no-kiseki-kai",
      "service": "igdb"
    },
    {
      "name": "Nayuta no Kiseki: KAI",
      "slug": "1732390",
      "service": "steam"
    }
  ],
  "aliases": [],
  "shaders": [],
  "discord_id": "",
  "change_for": null
}