{
  "id": 20668,
  "name": "Final Fantasy Origins",
  "slug": "final-fantasy-origins",
  "year": 2002,
  "banner_url": "https://lutris.net/games/banner/final-fantasy-origins.jpg",
  "icon_url": "",
  "coverart": "https://lutris.net/media/igdb/cover_big/co25pn.jpg",
  "platforms": [
    {
      "name": "Sony PlayStation"
    }
  ],
  "provider_games": [
    {
      "name": "Final Fantasy Origins",
      "slug": "final-fantasy-origins",
      "service": "igdb"
    }
  ],
  "aliases": [],
  "shaders": [],
  "discord_id": "",
  "change_for": null
}