{
  "id": 225134,
  "name": "Lock In: Final Cut",
  "slug": "lock-in-final-cut",
  "year": null,
  "banner_url": "",
  "icon_url": "",
  "coverart": "https://lutris.net/media/igdb/cover_big/co4sfa.jpg",
  "platforms": [],
  "provider_games": [
    {
      "name": "Lock In: Final Cut",
      "slug": "lock-in-final-cut",
      "service": "igdb"
    }
  ],
  "aliases": [],
  "shaders": [],
  "discord_id": "",
  "change_for": null
}