{
  "id": 38725,
  "name": "Solitaire VR",
  "slug": "solitaire-vr",
  "year": 2017,
  "banner_url": "https://lutris.net/games/banner/solitaire-vr.jpg",
  "icon_url": "https://lutris.net/games/icon/solitaire-vr.png",
  "coverart": null,
  "platforms": [
    {
      "name": "Windows"
    }
  ],
  "provider_games": [
    {
      "name": "Solitaire VR",
      "slug": "570590",
      "service": "steam"
    },
    {
      "name": "Solitaire VR",
      "slug": "solitaire-vr",
      "service": "igdb"
    }
  ],
  "aliases": [],
  "shaders": [],
  "discord_id": "",
  "change_for": null
}