{
  "id": 63692,
  "name": "Solar",
  "slug": "solar",
  "year": null,
  "banner_url": "",
  "icon_url": "",
  "coverart": "https://lutris.net/media/igdb/cover_big/mrb6l9bh0dz13heemczh.jpg",
  "platforms": [],
  "provider_games": [
    {
      "name": "Solar",
      "slug": "solar",
      "service": "igdb"
    }
  ],
  "aliases": [],
  "shaders": [],
  "discord_id": "",
  "change_for": null
}