{
  "id": 5107,
  "name": "Kingdom: Classic",
  "slug": "kingdom",
  "year": 2015,
  "banner_url": "https://lutris.net/games/banner/kingdom.jpg",
  "icon_url": "https://lutris.net/games/icon/kingdom.png",
  "coverart": "https://lutris.net/media/igdb/cover_big/co7e05.jpg",
  "platforms": [
    {
      "name": "Linux"
    }
  ],
  "provider_games": [
    {
      "name": "Kingdom: Classic",
      "slug": "368230",
      "service": "steam"
    },
    {
      "name": "Kingdom",
      "slug": "1444654650",
      "service": "gog"
    },
    {
      "name": "Kingdom",
      "slug": "kingdom",
      "service": "igdb"
    }
  ],
  "aliases": [],
  "shaders": [],
  "discord_id": "",
  "change_for": null
}