{
  "id": 9372,
  "game_id": 9744,
  "game_slug": "football-manager-2017",
  "name": "Football Manager 2017",
  "year": 2016,
  "user": "cxf",
  "runner": "steam",
  "slug": "football-manager-2017-steam",
  "version": "Steam",
  "description": null,
  "notes": "",
  "credits": "",
  "created_at": "2018-07-25T08:17:26.509556Z",
  "updated_at": "2018-07-25T08:18:04.379768Z",
  "draft": false,
  "published": true,
  "published_by": null,
  "rating": "",
  "is_playable": null,
  "steamid": 482730,
  "gogid": null,
  "gogslug": "",
  "humbleid": "",
  "humblestoreid": "",
  "humblestoreid_real": "",
  "script": {
    "game": {
      "appid": 482730
    }
  },
  "content": "game:\n  appid: 482730\n",
  "discord_id": "451545279154487306"
}