{
  "id": 49885,
  "name": "Really? Really!",
  "slug": "really-really",
  "year": null,
  "banner_url": "",
  "icon_url": "",
  "coverart": "https://lutris.net/media/igdb/cover_big/co291o.jpg",
  "platforms": [],
  "provider_games": [
    {
      "name": "Really? Really!",
      "slug": "really-really",
      "service": "igdb"
    }
  ],
  "aliases": [],
  "shaders": [],
  "discord_id": "",
  "change_for": null
}