{
  "id": 138207,
  "name": "Omega Labyrinth Z - Limited Edition",
  "slug": "omega-labyrinth-z-limited-edition",
  "year": null,
  "banner_url": "",
  "icon_url": "",
  "coverart": "https://lutris.net/media/igdb/cover_big/co728j.jpg",
  "platforms": [],
  "provider_games": [
    {
      "name": "Omega Labyrinth Z: Limited Edition",
      "slug": "omega-labyrinth-z-limited-edition",
      "service": "igdb"
    }
  ],
  "aliases": [],
  "shaders": [],
  "discord_id": "",
  "change_for": null
}