{
  "id": 244202,
  "name": "Run Tank Run",
  "slug": "run-tank-run",
  "year": null,
  "banner_url": "",
  "icon_url": "",
  "coverart": "https://lutris.net/media/igdb/cover_big/co6fry.jpg",
  "platforms": [],
  "provider_games": [
    {
      "name": "Run Tank Run",
      "slug": "run-tank-run",
      "service": "igdb"
    }
  ],
  "aliases": [],
  "shaders": [],
  "discord_id": "",
  "change_for": null
}