{
  "id": 260934,
  "name": "Blobber",
  "slug": "blobber",
  "year": null,
  "banner_url": "",
  "icon_url": "",
  "coverart": "https://lutris.net/media/igdb/cover_big/co75n3.jpg",
  "platforms": [],
  "provider_games": [
    {
      "name": "Blobber",
      "slug": "blobber",
      "service": "igdb"
    }
  ],
  "aliases": [],
  "shaders": [],
  "discord_id": "",
  "change_for": null
}