{
  "id": 39085,
  "game_id": 303875,
  "game_slug": "hidden-tomatoes",
  "name": "Hidden Tomatoes",
  "year": 2024,
  "user": "vanstaveren",
  "runner": "steam",
  "slug": "hidden-tomatoes-steam",
  "version": "steam",
  "description": "",
  "notes": "",
  "credits": "",
  "created_at": "2024-12-26T07:12:00.075959Z",
  "updated_at": "2024-12-26T07:12:00.075993Z",
  "draft": false,
  "published": true,
  "published_by": null,
  "rating": "",
  "is_playable": null,
  "steamid": null,
  "gogid": null,
  "gogslug": "",
  "humbleid": "",
  "humblestoreid": "",
  "humblestoreid_real": "",
  "script": {
    "game": {
      "appid": 3367590
    }
  },
  "content": "game:\n  appid: 3367590\n",
  "discord_id": ""
}