{
  "id": 87002,
  "name": "Tanezuke Bokujou Gakuen: Gakuen Marugoto Goshujin-sama no Kachiku Buhi ♪ Yaritai Houdai Haramase Shiikushite Kudasai!",
  "slug": "tanezuke-bokujou-gakuen-gakuen-marugoto-goshujin-sama-no-kachiku-buhi-yaritai-houdai-haramase-shiikushite-kudasai",
  "year": null,
  "banner_url": "",
  "icon_url": "",
  "coverart": null,
  "platforms": [],
  "provider_games": [
    {
      "name": "Tanezuke Bokujou Gakuen: Gakuen Marugoto Goshujin-sama no Kachiku Buhi ♪ Yaritai Houdai Haramase Shiikushite Kudasai!",
      "slug": "tanezuke-bokujou-gakuen-gakuen-marugoto-goshujin-sama-no-kachiku-buhi-yaritai-houdai-haramase-shiikushite-kudasai",
      "service": "igdb"
    }
  ],
  "aliases": [],
  "shaders": [],
  "discord_id": "",
  "change_for": null
}