{
  "id": 268565,
  "name": "Drop Command",
  "slug": "drop-command",
  "year": null,
  "banner_url": "",
  "icon_url": "",
  "coverart": "https://lutris.net/media/igdb/cover_big/co7ggd.jpg",
  "platforms": [],
  "provider_games": [
    {
      "name": "Drop Command",
      "slug": "drop-command",
      "service": "igdb"
    }
  ],
  "aliases": [],
  "shaders": [],
  "discord_id": "",
  "change_for": null
}