{
  "id": 275524,
  "name": "Wagon Gloom",
  "slug": "wagon-gloom",
  "year": null,
  "banner_url": "",
  "icon_url": "",
  "coverart": "https://lutris.net/media/igdb/cover_big/co7tdw.jpg",
  "platforms": [],
  "provider_games": [
    {
      "name": "Wagon Gloom",
      "slug": "wagon-gloom",
      "service": "igdb"
    }
  ],
  "aliases": [],
  "shaders": [],
  "discord_id": "",
  "change_for": null
}