{
  "id": 52372,
  "name": "Video Checkers",
  "slug": "video-checkers",
  "year": 1980,
  "banner_url": "",
  "icon_url": "",
  "coverart": "https://lutris.net/media/igdb/cover_big/yyttoxymb7xktjchelvq.jpg",
  "platforms": [],
  "provider_games": [
    {
      "name": "Video Checkers",
      "slug": "video-checkers",
      "service": "igdb"
    }
  ],
  "aliases": [],
  "shaders": [],
  "discord_id": "",
  "change_for": null
}