{
  "id": 137840,
  "name": "Kandagawa Jet Girls",
  "slug": "kandagawa-jet-girls",
  "year": 2020,
  "banner_url": "https://lutris.net/games/banner/kandagawa-jet-girls.jpg",
  "icon_url": "",
  "coverart": "https://lutris.net/media/igdb/cover_big/co2ebw.jpg",
  "platforms": [
    {
      "name": "Sony Playstation 4"
    },
    {
      "name": "Windows"
    }
  ],
  "provider_games": [
    {
      "name": "Kandagawa Jet Girls",
      "slug": "1233800",
      "service": "steam"
    },
    {
      "name": "Kandagawa Jet Girls",
      "slug": "kandagawa-jet-girls",
      "service": "igdb"
    }
  ],
  "aliases": [],
  "shaders": [],
  "discord_id": "",
  "change_for": null
}