{
  "id": 287578,
  "name": "Boomadrons Bouncyverse Rebound",
  "slug": "boomadrons-bouncyverse-rebound",
  "year": 2014,
  "banner_url": "",
  "icon_url": "",
  "coverart": "https://lutris.net/media/igdb/cover_big/co8a5u.jpg",
  "platforms": [
    {
      "name": "Browser"
    }
  ],
  "provider_games": [
    {
      "name": "Boomadrons Bouncyverse Rebound",
      "slug": "boomadrons-bouncyverse-rebound",
      "service": "igdb"
    }
  ],
  "aliases": [],
  "shaders": [],
  "discord_id": "",
  "change_for": null
}