{
  "id": 306671,
  "name": "La Odisea del Fracaso III",
  "slug": "la-odisea-del-fracaso-iii",
  "year": 2012,
  "banner_url": "",
  "icon_url": "",
  "coverart": "https://lutris.net/media/igdb/cover_big/co938n.jpg",
  "platforms": [
    {
      "name": "Windows"
    }
  ],
  "provider_games": [
    {
      "name": "La Odisea del Fracaso III",
      "slug": "la-odisea-del-fracaso-iii",
      "service": "igdb"
    }
  ],
  "aliases": [],
  "shaders": [],
  "discord_id": "",
  "change_for": null
}