{
  "id": 143366,
  "name": "Opa: Definitive Edition",
  "slug": "opa-definitive-edition",
  "year": null,
  "banner_url": "",
  "icon_url": "",
  "coverart": "https://lutris.net/media/igdb/cover_big/co3u99.jpg",
  "platforms": [],
  "provider_games": [
    {
      "name": "Opa: Definitive Edition",
      "slug": "opa-definitive-edition",
      "service": "igdb"
    }
  ],
  "aliases": [],
  "shaders": [],
  "discord_id": "",
  "change_for": null
}