{
  "id": 249048,
  "name": "Leaf Trombone: World Stage",
  "slug": "leaf-trombone-world-stage",
  "year": 2009,
  "banner_url": "",
  "icon_url": "",
  "coverart": "https://lutris.net/media/igdb/cover_big/co6myk.jpg",
  "platforms": [],
  "provider_games": [
    {
      "name": "Leaf Trombone: World Stage",
      "slug": "leaf-trombone-world-stage",
      "service": "igdb"
    }
  ],
  "aliases": [],
  "shaders": [],
  "discord_id": "",
  "change_for": null
}