{
  "id": 153870,
  "name": "Missing Features: 2D",
  "slug": "missing-features-2d",
  "year": 2020,
  "banner_url": "",
  "icon_url": "",
  "coverart": "https://lutris.net/media/igdb/cover_big/co2l9a.jpg",
  "platforms": [
    {
      "name": "Nintendo Switch"
    },
    {
      "name": "Windows"
    }
  ],
  "provider_games": [
    {
      "name": "Missing Features: 2D",
      "slug": "missing-features-2d",
      "service": "igdb"
    }
  ],
  "aliases": [],
  "shaders": [],
  "discord_id": "",
  "change_for": null
}