{
  "id": 247381,
  "name": "Nazotoki Suiri! Yuuzai? Muzai?",
  "slug": "nazotoki-suiri-yuuzai-muzai",
  "year": null,
  "banner_url": "",
  "icon_url": "",
  "coverart": null,
  "platforms": [],
  "provider_games": [
    {
      "name": "Nazotoki Suiri! Yuuzai? Muzai?",
      "slug": "nazotoki-suiri-yuuzai-muzai",
      "service": "igdb"
    }
  ],
  "aliases": [],
  "shaders": [],
  "discord_id": "",
  "change_for": null
}