{
  "id": 114422,
  "name": "Mortal Kombat II Unlimited",
  "slug": "mortal-kombat-ii-unlimited",
  "year": 2011,
  "banner_url": "",
  "icon_url": "",
  "coverart": "https://lutris.net/media/igdb/cover_big/co3awv.jpg",
  "platforms": [
    {
      "name": "Sega Genesis / Mega Drive"
    }
  ],
  "provider_games": [
    {
      "name": "Mortal Kombat II Unlimited",
      "slug": "mortal-kombat-ii-unlimited",
      "service": "igdb"
    }
  ],
  "aliases": [],
  "shaders": [],
  "discord_id": "",
  "change_for": null
}