{
  "id": 230641,
  "name": "SokoLab",
  "slug": "sokolab",
  "year": null,
  "banner_url": "",
  "icon_url": "",
  "coverart": "https://lutris.net/media/igdb/cover_big/co6cqu.jpg",
  "platforms": [],
  "provider_games": [
    {
      "name": "SokoLab",
      "slug": "sokolab",
      "service": "igdb"
    }
  ],
  "aliases": [],
  "shaders": [],
  "discord_id": "",
  "change_for": null
}