{
  "id": 69321,
  "name": "42nd Street",
  "slug": "42nd-street",
  "year": null,
  "banner_url": "",
  "icon_url": "",
  "coverart": null,
  "platforms": [],
  "provider_games": [
    {
      "name": "42nd Street",
      "slug": "42nd-street",
      "service": "igdb"
    }
  ],
  "aliases": [],
  "shaders": [],
  "discord_id": "",
  "change_for": null
}