{
  "id": 124849,
  "name": "Virtual Reality Girls 2",
  "slug": "virtual-reality-girls-2",
  "year": 2017,
  "banner_url": "https://lutris.net/games/banner/virtual-reality-girls-2.jpg",
  "icon_url": "",
  "coverart": "https://lutris.net/media/igdb/cover_big/ryzwjk60abwouw8uxnsi.jpg",
  "platforms": [
    {
      "name": "Windows"
    }
  ],
  "provider_games": [
    {
      "name": "Virtual Reality Girls 2",
      "slug": "767130",
      "service": "steam"
    },
    {
      "name": "Virtual Reality Girls 2",
      "slug": "virtual-reality-girls-2",
      "service": "igdb"
    }
  ],
  "aliases": [],
  "shaders": [],
  "discord_id": "",
  "change_for": null
}