{
  "id": 31441,
  "name": "RollerGirls From Beyond",
  "slug": "rollergirls-from-beyond",
  "year": 2016,
  "banner_url": "https://lutris.net/games/banner/rollergirls-from-beyond.jpg",
  "icon_url": "https://lutris.net/games/icon/rollergirls-from-beyond.png",
  "coverart": "https://lutris.net/media/igdb/cover_big/lil9qn68jielvodnukqg.jpg",
  "platforms": [
    {
      "name": "Windows"
    }
  ],
  "provider_games": [
    {
      "name": "RollerGirls From Beyond",
      "slug": "470490",
      "service": "steam"
    },
    {
      "name": "RollerGirls From Beyond",
      "slug": "rollergirls-from-beyond",
      "service": "igdb"
    }
  ],
  "aliases": [],
  "shaders": [],
  "discord_id": "",
  "change_for": null
}