{
  "id": 215662,
  "name": "These Doomed Isles",
  "slug": "these-doomed-isles",
  "year": null,
  "banner_url": "",
  "icon_url": "",
  "coverart": "https://lutris.net/media/igdb/cover_big/co5aw5.jpg",
  "platforms": [],
  "provider_games": [
    {
      "name": "These Doomed Isles",
      "slug": "these-doomed-isles",
      "service": "igdb"
    }
  ],
  "aliases": [],
  "shaders": [],
  "discord_id": "",
  "change_for": null
}