{
  "id": 87009,
  "name": "Saiin Dutch Wife: Inran Spray de Teishuku na Hitozuma-tachi o Kyousei Hatsujou! Itsudemo Dokodemo Namadashi Ahe Haramase Houdai!",
  "slug": "saiin-dutch-wife-inran-spray-de-teishuku-na-hitozuma-tachi-o-kyousei-hatsujou-itsudemo-dokodemo-namadashi-ahe-haramase-houdai",
  "year": null,
  "banner_url": "",
  "icon_url": "",
  "coverart": "https://lutris.net/media/igdb/cover_big/ajxkmtdhksfjzxmo1fkl.jpg",
  "platforms": [],
  "provider_games": [
    {
      "name": "Saiin Dutch Wife: Inran Spray de Teishuku na Hitozuma-tachi o Kyousei Hatsujou! Itsudemo Dokodemo Namadashi Ahe Haramase Houdai!",
      "slug": "saiin-dutch-wife-inran-spray-de-teishuku-na-hitozuma-tachi-o-kyousei-hatsujou-itsudemo-dokodemo-namadashi-ahe-haramase-houdai",
      "service": "igdb"
    }
  ],
  "aliases": [],
  "shaders": [],
  "discord_id": "",
  "change_for": null
}