{
  "id": 196026,
  "name": "Nifty Drifty",
  "slug": "nifty-drifty",
  "year": 2015,
  "banner_url": "",
  "icon_url": "",
  "coverart": null,
  "platforms": [],
  "provider_games": [
    {
      "name": "Nifty Drifty",
      "slug": "nifty-drifty",
      "service": "igdb"
    }
  ],
  "aliases": [],
  "shaders": [],
  "discord_id": "",
  "change_for": null
}