{
  "id": 213789,
  "name": "Esukoto Makai Youhei-dan",
  "slug": "esukoto-makai-youhei-dan",
  "year": 2022,
  "banner_url": "",
  "icon_url": "",
  "coverart": "https://lutris.net/media/igdb/cover_big/co4xbq.jpg",
  "platforms": [
    {
      "name": "Android"
    }
  ],
  "provider_games": [
    {
      "name": "Esukoto Makai Youhei-dan",
      "slug": "esukoto-makai-youhei-dan",
      "service": "igdb"
    }
  ],
  "aliases": [],
  "shaders": [],
  "discord_id": "",
  "change_for": null
}