{
  "id": 228762,
  "name": "Overcooked: Gourmet Edition",
  "slug": "overcooked-gourmet-edition",
  "year": 2016,
  "banner_url": "",
  "icon_url": "",
  "coverart": null,
  "platforms": [],
  "provider_games": [
    {
      "name": "Overcooked: Gourmet Edition",
      "slug": "1223053864",
      "service": "gog"
    }
  ],
  "aliases": [],
  "shaders": [],
  "discord_id": "",
  "change_for": null
}