{
  "id": 8554,
  "name": "Game Character Hub: Portfolio Edition",
  "slug": "game-character-hub-portfolio-edition",
  "year": null,
  "banner_url": "https://lutris.net/games/banner/game-character-hub-portfolio-edition.jpg",
  "icon_url": "https://lutris.net/games/icon/game-character-hub-portfolio-edition.png",
  "coverart": null,
  "platforms": [],
  "provider_games": [
    {
      "name": "Game Character Hub: Portfolio Edition",
      "slug": "529830",
      "service": "steam"
    }
  ],
  "aliases": [],
  "shaders": [],
  "discord_id": "",
  "change_for": null
}