{
  "id": 163335,
  "name": "Crookz: The Big Heist",
  "slug": "crookz-the-big-heist--1",
  "year": 2015,
  "banner_url": "",
  "icon_url": "",
  "coverart": "https://lutris.net/media/igdb/cover_big/zhnaz68pk20lhirbkuev.jpg",
  "platforms": [
    {
      "name": "Linux"
    },
    {
      "name": "Mac"
    },
    {
      "name": "Windows"
    }
  ],
  "provider_games": [
    {
      "name": "Crookz: The Big Heist",
      "slug": "crookz-the-big-heist--1",
      "service": "igdb"
    }
  ],
  "aliases": [],
  "shaders": [],
  "discord_id": "",
  "change_for": null
}