{
  "id": 67552,
  "name": "Cherry Works: Boku ga Imouto o Daita Riyuu",
  "slug": "cherry-works-boku-ga-imouto-o-daita-riyuu",
  "year": null,
  "banner_url": "",
  "icon_url": "",
  "coverart": "https://lutris.net/media/igdb/cover_big/ts0l2jzywowxukks2h32.jpg",
  "platforms": [],
  "provider_games": [
    {
      "name": "Cherry Works: Boku ga Imouto o Daita Riyuu",
      "slug": "cherry-works-boku-ga-imouto-o-daita-riyuu",
      "service": "igdb"
    }
  ],
  "aliases": [],
  "shaders": [],
  "discord_id": "",
  "change_for": null
}