{
  "id": 238446,
  "name": "Wizabeasts",
  "slug": "wizabeasts",
  "year": null,
  "banner_url": "",
  "icon_url": "",
  "coverart": "https://lutris.net/media/igdb/cover_big/co6427.jpg",
  "platforms": [],
  "provider_games": [
    {
      "name": "Wizabeasts",
      "slug": "wizabeasts",
      "service": "igdb"
    }
  ],
  "aliases": [],
  "shaders": [],
  "discord_id": "",
  "change_for": null
}