{
  "id": 20694,
  "name": "Electromaze Defense",
  "slug": "electromaze-defense",
  "year": null,
  "banner_url": "https://lutris.net/games/banner/electromaze-defense.jpg",
  "icon_url": "https://lutris.net/games/icon/electromaze-defense.png",
  "coverart": "https://lutris.net/media/igdb/cover_big/co3ptz.jpg",
  "platforms": [],
  "provider_games": [
    {
      "name": "Electromaze Defense",
      "slug": "769410",
      "service": "steam"
    },
    {
      "name": "Electromaze Defense",
      "slug": "electromaze-defense",
      "service": "igdb"
    }
  ],
  "aliases": [],
  "shaders": [],
  "discord_id": "",
  "change_for": null
}