{
  "id": 276015,
  "name": "My Bestie is a Femboy Streamer",
  "slug": "my-bestie-is-a-femboy-streamer",
  "year": null,
  "banner_url": "",
  "icon_url": "",
  "coverart": "https://lutris.net/media/igdb/cover_big/co7v19.jpg",
  "platforms": [],
  "provider_games": [
    {
      "name": "My Bestie is a Femboy Streamer",
      "slug": "my-bestie-is-a-femboy-streamer",
      "service": "igdb"
    }
  ],
  "aliases": [],
  "shaders": [],
  "discord_id": "",
  "change_for": null
}