{
  "id": 70276,
  "name": "Pranksterz - Wie ärgere ich meinen Chef?",
  "slug": "pranksterz-wie-argere-ich-meinen-chef",
  "year": null,
  "banner_url": "",
  "icon_url": "",
  "coverart": null,
  "platforms": [],
  "provider_games": [
    {
      "name": "Pranksterz: Wie Ärgere ich Meinen Chef?",
      "slug": "pranksterz-wie-argere-ich-meinen-chef",
      "service": "igdb"
    }
  ],
  "aliases": [],
  "shaders": [],
  "discord_id": "",
  "change_for": null
}