{
  "id": 187762,
  "name": "Heartscape",
  "slug": "heartscape",
  "year": null,
  "banner_url": "",
  "icon_url": "",
  "coverart": "https://lutris.net/media/igdb/cover_big/co7s7e.jpg",
  "platforms": [],
  "provider_games": [
    {
      "name": "Heartscape",
      "slug": "heartscape",
      "service": "igdb"
    }
  ],
  "aliases": [],
  "shaders": [],
  "discord_id": "",
  "change_for": null
}