{
  "id": 206202,
  "name": "Lost Pages: The First Cycle",
  "slug": "lost-pages-the-first-cycle",
  "year": null,
  "banner_url": "",
  "icon_url": "",
  "coverart": null,
  "platforms": [],
  "provider_games": [
    {
      "name": "Lost Pages: The First Cycle",
      "slug": "lost-pages-the-first-cycle",
      "service": "igdb"
    }
  ],
  "aliases": [],
  "shaders": [],
  "discord_id": "",
  "change_for": null
}