{
  "id": 61776,
  "name": "Dino Run SE",
  "slug": "dino-run-se",
  "year": null,
  "banner_url": "",
  "icon_url": "",
  "coverart": "https://lutris.net/media/igdb/cover_big/silp3dykz3ejptz5a9lw.jpg",
  "platforms": [],
  "provider_games": [
    {
      "name": "Dino Run SE",
      "slug": "dino-run-se",
      "service": "igdb"
    }
  ],
  "aliases": [],
  "shaders": [],
  "discord_id": "",
  "change_for": null
}