{
  "id": 99741,
  "name": "Forever Lost In The Never Ending Museum Of Still Life",
  "slug": "forever-lost-in-the-never-ending-museum-of-still-life",
  "year": 2016,
  "banner_url": "",
  "icon_url": "",
  "coverart": "https://lutris.net/media/igdb/cover_big/co1yo1.jpg",
  "platforms": [
    {
      "name": "Browser"
    }
  ],
  "provider_games": [
    {
      "name": "Forever Lost in the Never Ending Museum of Still Life",
      "slug": "forever-lost-in-the-never-ending-museum-of-still-life",
      "service": "igdb"
    }
  ],
  "aliases": [],
  "shaders": [],
  "discord_id": "",
  "change_for": null
}