{
  "id": 160433,
  "name": "GT and the Evil Factory",
  "slug": "gt-and-the-evil-factory",
  "year": 2009,
  "banner_url": "",
  "icon_url": "",
  "coverart": "https://lutris.net/media/igdb/cover_big/co3z5h.jpg",
  "platforms": [
    {
      "name": "Browser"
    }
  ],
  "provider_games": [
    {
      "name": "GT and the Evil Factory",
      "slug": "gt-and-the-evil-factory",
      "service": "igdb"
    }
  ],
  "aliases": [],
  "shaders": [],
  "discord_id": "",
  "change_for": null
}