{
  "id": 103236,
  "name": "Football Strike",
  "slug": "football-strike",
  "year": 2017,
  "banner_url": "",
  "icon_url": "",
  "coverart": "https://lutris.net/media/igdb/cover_big/byg2lfm7oafhps2bc59p.jpg",
  "platforms": [],
  "provider_games": [
    {
      "name": "Football Strike",
      "slug": "football-strike",
      "service": "igdb"
    }
  ],
  "aliases": [],
  "shaders": [],
  "discord_id": "",
  "change_for": null
}