{
  "id": 98021,
  "name": "Flaws in the People We Love",
  "slug": "flaws-in-the-people-we-love",
  "year": null,
  "banner_url": "",
  "icon_url": "",
  "coverart": "https://lutris.net/media/igdb/cover_big/co8v9q.jpg",
  "platforms": [],
  "provider_games": [
    {
      "name": "Flaws in the People We Love",
      "slug": "flaws-in-the-people-we-love",
      "service": "igdb"
    }
  ],
  "aliases": [],
  "shaders": [],
  "discord_id": "",
  "change_for": null
}