{
  "id": 3572,
  "game_id": 2524,
  "game_slug": "age-of-wonders-2",
  "name": "Age of Wonders II: The Wizard's Throne",
  "year": 2002,
  "user": "schaap137",
  "runner": "steam",
  "slug": "age-of-wonders-ii-the-wizards-proton",
  "version": "Proton",
  "description": "",
  "notes": "",
  "credits": "",
  "created_at": "2017-04-27T21:39:06.529433Z",
  "updated_at": "2021-05-04T02:43:17.575205Z",
  "draft": false,
  "published": true,
  "published_by": null,
  "rating": "",
  "is_playable": null,
  "steamid": 61510,
  "gogid": null,
  "gogslug": "",
  "humbleid": "",
  "humblestoreid": "",
  "humblestoreid_real": "",
  "script": {
    "game": {
      "appid": 61510
    }
  },
  "content": "game:\n  appid: 61510\n",
  "discord_id": ""
}