{
  "id": 5867,
  "game_id": 2524,
  "game_slug": "age-of-wonders-2",
  "name": "Age of Wonders II: The Wizard's Throne",
  "year": 2002,
  "user": "Noxes",
  "runner": "wine",
  "slug": "age-of-wonders-ii-the-wizards-gog",
  "version": "GOG",
  "description": "",
  "notes": "Game runs in fullscreen, but the intro does not play. In window mode both game and intro work great however.",
  "credits": "",
  "created_at": "2017-09-29T19:26:06.030000Z",
  "updated_at": "2024-04-03T05:34:19.655499Z",
  "draft": false,
  "published": true,
  "published_by": null,
  "rating": "",
  "is_playable": null,
  "steamid": 61510,
  "gogid": null,
  "gogslug": "",
  "humbleid": "",
  "humblestoreid": "",
  "humblestoreid_real": "",
  "script": {
    "files": [
      {
        "aow2": "N/A:Select the Windows installer downloaded from GOG"
      }
    ],
    "game": {
      "exe": "drive_c/GOG Games/Age of Wonders 2/AoW2.exe",
      "prefix": "$GAMEDIR"
    },
    "installer": [
      {
        "task": {
          "args": null,
          "executable": "aow2",
          "name": "wineexec",
          "prefix": "$GAMEDIR"
        }
      }
    ]
  },
  "content": "files:\n- aow2: N/A:Select the Windows installer downloaded from GOG\ngame:\n  exe: drive_c/GOG Games/Age of Wonders 2/AoW2.exe\n  prefix: $GAMEDIR\ninstaller:\n- task:\n    args: null\n    executable: aow2\n    name: wineexec\n    prefix: $GAMEDIR\n",
  "discord_id": ""
}