{
  "id": 6419,
  "name": "Surge",
  "slug": "surge",
  "year": 2016,
  "banner_url": "https://lutris.net/games/banner/surge.jpg",
  "icon_url": "https://lutris.net/games/icon/surge.png",
  "coverart": "https://lutris.net/media/igdb/cover_big/ahb1anrag2kwn54ijjko.jpg",
  "platforms": [
    {
      "name": "Windows"
    }
  ],
  "provider_games": [
    {
      "name": "Surge",
      "slug": "477130",
      "service": "steam"
    },
    {
      "name": "Surge",
      "slug": "surge",
      "service": "igdb"
    }
  ],
  "aliases": [],
  "shaders": [],
  "discord_id": "",
  "change_for": null
}