{
  "id": 2339,
  "name": "Castlevania: Lords of Shadow – Mirror of Fate HD",
  "slug": "castlevania-lords-of-shadow-mirror-of-fate-hd",
  "year": 2014,
  "banner_url": "https://lutris.net/games/banner/castlevania-lords-of-shadow-mirror-of-fate-hd.jpg",
  "icon_url": "https://lutris.net/games/icon/castlevania-lords-of-shadow-mirror-of-fate-hd.png",
  "coverart": "https://lutris.net/media/igdb/cover_big/co2eie.jpg",
  "platforms": [
    {
      "name": "Sony Playstation 3"
    },
    {
      "name": "Windows"
    },
    {
      "name": "Xbox 360"
    }
  ],
  "provider_games": [
    {
      "name": "Castlevania: Lords of Shadow – Mirror of Fate HD",
      "slug": "282530",
      "service": "steam"
    },
    {
      "name": "Castlevania: Lords of Shadow - Mirror of Fate HD",
      "slug": "castlevania-lords-of-shadow-mirror-of-fate-hd",
      "service": "igdb"
    }
  ],
  "aliases": [],
  "shaders": [],
  "discord_id": "",
  "change_for": null
}