{
  "id": 292445,
  "name": "Capybara Park",
  "slug": "capybara-park",
  "year": null,
  "banner_url": "",
  "icon_url": "",
  "coverart": "https://lutris.net/media/igdb/cover_big/co8mfo.jpg",
  "platforms": [],
  "provider_games": [
    {
      "name": "Capybara Park",
      "slug": "capybara-park",
      "service": "igdb"
    }
  ],
  "aliases": [],
  "shaders": [],
  "discord_id": "",
  "change_for": null
}