{
  "id": 146785,
  "name": "All Stars Racing Cup",
  "slug": "all-stars-racing-cup",
  "year": null,
  "banner_url": "https://lutris.net/games/banner/all-stars-racing-cup.jpg",
  "icon_url": "",
  "coverart": null,
  "platforms": [],
  "provider_games": [
    {
      "name": "All Stars Racing Cup",
      "slug": "780160",
      "service": "steam"
    },
    {
      "name": "All Stars Racing Cup",
      "slug": "all-stars-racing-cup",
      "service": "igdb"
    }
  ],
  "aliases": [],
  "shaders": [],
  "discord_id": "",
  "change_for": null
}