{
  "id": 1022,
  "game_id": 1853,
  "game_slug": "banished",
  "name": "Banished",
  "year": 2014,
  "user": "Xodetaetl",
  "runner": "winesteam",
  "slug": "banished-steam",
  "version": "Steam",
  "description": null,
  "notes": "",
  "credits": "",
  "created_at": "2014-11-06T21:57:32.609000Z",
  "updated_at": "2020-01-09T09:30:57.291921Z",
  "draft": false,
  "published": true,
  "published_by": null,
  "rating": "",
  "is_playable": null,
  "steamid": 242920,
  "gogid": 1207660783,
  "gogslug": "banished",
  "humbleid": "",
  "humblestoreid": "",
  "humblestoreid_real": "",
  "script": {
    "game": {
      "appid": 242920
    },
    "installer": [
      {
        "move": {
          "dst": "$GAMEDIR/VideoDX11-x32.dll",
          "src": "$GAMEDIR/VideoDX11-steam-x32.dll"
        }
      }
    ]
  },
  "content": "game:\r\n  appid: 242920\r\ninstaller:\r\n- move:\r\n    dst: $GAMEDIR/VideoDX11-x32.dll\r\n    src: $GAMEDIR/VideoDX11-steam-x32.dll",
  "discord_id": "425750064963780628"
}