{
  "id": 178212,
  "name": "AFL Evolution 2",
  "slug": "afl-evolution-2",
  "year": 2020,
  "banner_url": "https://lutris.net/games/banner/afl-evolution-2.jpg",
  "icon_url": "",
  "coverart": "https://lutris.net/media/igdb/cover_big/co245z.jpg",
  "platforms": [
    {
      "name": "Nintendo Switch"
    },
    {
      "name": "Sony Playstation 4"
    },
    {
      "name": "Windows"
    },
    {
      "name": "Xbox One"
    }
  ],
  "provider_games": [
    {
      "name": "AFL Evolution 2",
      "slug": "856850",
      "service": "steam"
    },
    {
      "name": "AFL Evolution 2",
      "slug": "afl-evolution-2",
      "service": "igdb"
    }
  ],
  "aliases": [],
  "shaders": [],
  "discord_id": "",
  "change_for": null
}