{
  "id": 4959,
  "game_id": 7959,
  "game_slug": "super-robot-jump-jump",
  "name": "Super Robot Jump Jump",
  "year": 2016,
  "user": "FakeShemp",
  "runner": "wine",
  "slug": "super-robot-jump-jump-groupees",
  "version": "Groupees",
  "description": "",
  "notes": "",
  "credits": "",
  "created_at": "2017-07-10T20:07:44.155000Z",
  "updated_at": "2018-05-19T03:41:55.912593Z",
  "draft": false,
  "published": true,
  "published_by": null,
  "rating": "",
  "is_playable": null,
  "steamid": 422980,
  "gogid": null,
  "gogslug": "",
  "humbleid": "",
  "humblestoreid": "",
  "humblestoreid_real": "",
  "script": {
    "files": [
      {
        "file1": "N/A:Please select the Groupees installer"
      }
    ],
    "game": {
      "arch": "win32",
      "exe": "drive_c/Program Files/Super Robot Jump Jump/Super Robot Jump Jump.exe",
      "prefix": "$GAMEDIR"
    },
    "installer": [
      {
        "task": {
          "args": "\"/S\" \"/D=\"C:\\\\Program Files\\\\Super Robot Jump Jump\"\"",
          "executable": "$file1",
          "name": "wineexec",
          "prefix": "$GAMEDIR"
        }
      }
    ]
  },
  "content": "files:\n- file1: N/A:Please select the Groupees installer\ngame:\n  arch: win32\n  exe: drive_c/Program Files/Super Robot Jump Jump/Super Robot Jump Jump.exe\n  prefix: $GAMEDIR\ninstaller:\n- task:\n    args: '\"/S\" \"/D=\"C:\\\\Program Files\\\\Super Robot Jump Jump\"\"'\n    executable: $file1\n    name: wineexec\n    prefix: $GAMEDIR\n",
  "discord_id": ""
}