{
  "id": 203393,
  "name": "Prison Life Simulator: The Legend of Navalny",
  "slug": "prison-life-simulator-the-legend-of-navalny",
  "year": null,
  "banner_url": "",
  "icon_url": "",
  "coverart": "https://lutris.net/media/igdb/cover_big/co4fus.jpg",
  "platforms": [],
  "provider_games": [
    {
      "name": "Prison Life Simulator: The Legend of Navalny",
      "slug": "prison-life-simulator-the-legend-of-navalny",
      "service": "igdb"
    }
  ],
  "aliases": [],
  "shaders": [],
  "discord_id": "",
  "change_for": null
}