{
  "id": 72995,
  "name": "Hidden Object: Aliens - The Arrival",
  "slug": "hidden-object-aliens-the-arrival",
  "year": null,
  "banner_url": "",
  "icon_url": "",
  "coverart": null,
  "platforms": [],
  "provider_games": [
    {
      "name": "Hidden Object: Aliens - The Arrival",
      "slug": "hidden-object-aliens-the-arrival",
      "service": "igdb"
    }
  ],
  "aliases": [],
  "shaders": [],
  "discord_id": "",
  "change_for": null
}