{
  "id": 38399,
  "game_id": 277312,
  "game_slug": "annoy-this-guy",
  "name": "Annoy This Guy",
  "year": null,
  "user": "vanstaveren",
  "runner": "steam",
  "slug": "annoy-this-guy-steam",
  "version": "steam",
  "description": "",
  "notes": "",
  "credits": "",
  "created_at": "2024-04-03T01:49:24.440428Z",
  "updated_at": "2024-04-03T01:49:24.440443Z",
  "draft": false,
  "published": true,
  "published_by": null,
  "rating": "",
  "is_playable": null,
  "steamid": null,
  "gogid": null,
  "gogslug": "",
  "humbleid": "",
  "humblestoreid": "",
  "humblestoreid_real": "",
  "script": {
    "game": {
      "appid": 2873740
    }
  },
  "content": "game:\n  appid: 2873740\n",
  "discord_id": ""
}