{
  "id": 1201,
  "name": "The Raven - Legacy of a Master Thief",
  "slug": "the-raven-legacy-of-a-master-thief",
  "year": 2013,
  "banner_url": "https://lutris.net/games/banner/the-raven-legacy-of-a-master-thief.jpg",
  "icon_url": "https://lutris.net/games/icon/the-raven-legacy-of-a-master-thief.png",
  "coverart": "https://lutris.net/media/igdb/cover_big/co2k25.jpg",
  "platforms": [
    {
      "name": "Linux"
    },
    {
      "name": "Mac"
    },
    {
      "name": "Sony Playstation 3"
    },
    {
      "name": "Windows"
    },
    {
      "name": "Xbox 360"
    }
  ],
  "provider_games": [
    {
      "name": "The Raven - Legacy of a Master Thief",
      "slug": "233370",
      "service": "steam"
    },
    {
      "name": "The Raven: Legacy of a Master Thief",
      "slug": "1207659783",
      "service": "gog"
    },
    {
      "name": "The Raven: Legacy of a Master Thief",
      "slug": "the-raven-legacy-of-a-master-thief",
      "service": "igdb"
    }
  ],
  "aliases": [],
  "shaders": [],
  "discord_id": "",
  "change_for": null
}