{
  "id": 37474,
  "name": "My Little Blacksmith Shop",
  "slug": "my-little-blacksmith-shop",
  "year": 2017,
  "banner_url": "https://lutris.net/games/banner/my-little-blacksmith-shop.jpg",
  "icon_url": "",
  "coverart": "https://lutris.net/media/igdb/cover_big/co252y.jpg",
  "platforms": [
    {
      "name": "Windows"
    }
  ],
  "provider_games": [
    {
      "name": "My Little Blacksmith Shop",
      "slug": "980940",
      "service": "steam"
    },
    {
      "name": "My Little Blacksmith Shop",
      "slug": "my-little-blacksmith-shop",
      "service": "igdb"
    }
  ],
  "aliases": [],
  "shaders": [],
  "discord_id": "",
  "change_for": null
}