{
  "id": 147424,
  "name": "Darkened Glory",
  "slug": "darkened-glory",
  "year": null,
  "banner_url": "",
  "icon_url": "",
  "coverart": "https://lutris.net/media/igdb/cover_big/co3v4a.jpg",
  "platforms": [],
  "provider_games": [
    {
      "name": "Darkened Glory",
      "slug": "darkened-glory",
      "service": "igdb"
    }
  ],
  "aliases": [],
  "shaders": [],
  "discord_id": "",
  "change_for": null
}