{
  "id": 299797,
  "name": "Combat Rover: Operation Storm",
  "slug": "combat-rover-operation-storm",
  "year": null,
  "banner_url": "",
  "icon_url": "",
  "coverart": "https://lutris.net/media/igdb/cover_big/co8z2o.jpg",
  "platforms": [],
  "provider_games": [
    {
      "name": "Combat Rover: Operation Storm",
      "slug": "combat-rover-operation-storm",
      "service": "igdb"
    }
  ],
  "aliases": [],
  "shaders": [],
  "discord_id": "",
  "change_for": null
}