{
  "id": 67697,
  "name": "Lernen leicht gemacht! Für Kids",
  "slug": "lernen-leicht-gemacht-fur-kids",
  "year": null,
  "banner_url": "",
  "icon_url": "",
  "coverart": "https://lutris.net/media/igdb/cover_big/gfdi5pqjjwwi6aizps8y.jpg",
  "platforms": [],
  "provider_games": [
    {
      "name": "Lernen Leicht Gemacht! Für Kids",
      "slug": "lernen-leicht-gemacht-fur-kids",
      "service": "igdb"
    }
  ],
  "aliases": [],
  "shaders": [],
  "discord_id": "",
  "change_for": null
}