{
  "id": 154194,
  "name": "Night Cascades",
  "slug": "night-cascades",
  "year": null,
  "banner_url": "https://lutris.net/games/banner/night-cascades.jpg",
  "icon_url": "",
  "coverart": "https://lutris.net/media/igdb/cover_big/co3x1v.jpg",
  "platforms": [],
  "provider_games": [
    {
      "name": "Night Cascades",
      "slug": "night-cascades",
      "service": "igdb"
    },
    {
      "name": "Night Cascades",
      "slug": "1743080",
      "service": "steam"
    }
  ],
  "aliases": [],
  "shaders": [],
  "discord_id": "",
  "change_for": null
}