{
  "id": 230388,
  "name": "Tunnels Under Yorion",
  "slug": "tunnels-under-yorion",
  "year": null,
  "banner_url": "",
  "icon_url": "",
  "coverart": "https://lutris.net/media/igdb/cover_big/co6cv5.jpg",
  "platforms": [],
  "provider_games": [
    {
      "name": "Tunnels Under Yorion",
      "slug": "tunnels-under-yorion",
      "service": "igdb"
    }
  ],
  "aliases": [],
  "shaders": [],
  "discord_id": "",
  "change_for": null
}