{
  "id": 243047,
  "name": "Roald Dahl's Twit or Miss",
  "slug": "roald-dahls-twit-or-miss",
  "year": null,
  "banner_url": "",
  "icon_url": "",
  "coverart": null,
  "platforms": [],
  "provider_games": [
    {
      "name": "Roald Dahl's Twit or Miss",
      "slug": "roald-dahls-twit-or-miss",
      "service": "igdb"
    }
  ],
  "aliases": [],
  "shaders": [],
  "discord_id": "",
  "change_for": null
}