{
  "id": 234935,
  "name": "Snops Attack! Zombie Defense",
  "slug": "snops-attack-zombie-defense",
  "year": 2012,
  "banner_url": "",
  "icon_url": "",
  "coverart": "https://lutris.net/media/igdb/cover_big/co6850.jpg",
  "platforms": [
    {
      "name": "Xbox 360"
    }
  ],
  "provider_games": [
    {
      "name": "Snops Attack! Zombie Defense",
      "slug": "snops-attack-zombie-defense",
      "service": "igdb"
    }
  ],
  "aliases": [],
  "shaders": [],
  "discord_id": "",
  "change_for": null
}