{
  "id": 3280,
  "name": "LocoCycle",
  "slug": "lococycle",
  "year": 2013,
  "banner_url": "https://lutris.net/games/banner/lococycle.jpg",
  "icon_url": "https://lutris.net/games/icon/lococycle.png",
  "coverart": "https://lutris.net/media/igdb/cover_big/co45dn.jpg",
  "platforms": [
    {
      "name": "Windows"
    },
    {
      "name": "Xbox 360"
    },
    {
      "name": "Xbox One"
    }
  ],
  "provider_games": [
    {
      "name": "LocoCycle",
      "slug": "224040",
      "service": "steam"
    },
    {
      "name": "LocoCycle",
      "slug": "lococycle",
      "service": "igdb"
    }
  ],
  "aliases": [],
  "shaders": [],
  "discord_id": "",
  "change_for": null
}