{
  "id": 36864,
  "name": "The Dark Crystal: Age of Resistance Tactics",
  "slug": "the-dark-crystal-age-of-resistance-tactics",
  "year": 2020,
  "banner_url": "https://lutris.net/games/banner/the-dark-crystal-age-of-resistance-tactics.jpg",
  "icon_url": "",
  "coverart": "https://lutris.net/media/igdb/cover_big/co3wmw.jpg",
  "platforms": [
    {
      "name": "Mac"
    },
    {
      "name": "Nintendo Switch"
    },
    {
      "name": "Sony Playstation 4"
    },
    {
      "name": "Windows"
    },
    {
      "name": "Xbox One"
    }
  ],
  "provider_games": [
    {
      "name": "The Dark Crystal: Age of Resistance Tactics",
      "slug": "2147483084",
      "service": "gog"
    },
    {
      "name": "The Dark Crystal: Age of Resistance Tactics",
      "slug": "1097790",
      "service": "steam"
    },
    {
      "name": "The Dark Crystal: Age of Resistance Tactics",
      "slug": "the-dark-crystal-age-of-resistance-tactics",
      "service": "igdb"
    }
  ],
  "aliases": [],
  "shaders": [],
  "discord_id": "",
  "change_for": null
}