{
  "id": 12756,
  "name": "Ultimate Solid",
  "slug": "ultimate-solid",
  "year": 2016,
  "banner_url": "https://lutris.net/games/banner/ultimate-solid.jpg",
  "icon_url": "https://lutris.net/games/icon/ultimate-solid.png",
  "coverart": "https://lutris.net/media/igdb/cover_big/g2tiegqgx3z5en9rz4rr.jpg",
  "platforms": [
    {
      "name": "Mac"
    },
    {
      "name": "Windows"
    }
  ],
  "provider_games": [
    {
      "name": "Ultimate Solid",
      "slug": "534200",
      "service": "steam"
    },
    {
      "name": "Ultimate Solid",
      "slug": "ultimate-solid",
      "service": "igdb"
    }
  ],
  "aliases": [],
  "shaders": [],
  "discord_id": "",
  "change_for": null
}