{
  "id": 159525,
  "name": "Legend Of Ace",
  "slug": "legend-of-ace",
  "year": null,
  "banner_url": "",
  "icon_url": "",
  "coverart": "https://lutris.net/media/igdb/cover_big/co2qjs.jpg",
  "platforms": [],
  "provider_games": [
    {
      "name": "Legend of Ace",
      "slug": "legend-of-ace",
      "service": "igdb"
    }
  ],
  "aliases": [],
  "shaders": [],
  "discord_id": "",
  "change_for": null
}