{
  "id": 217080,
  "name": "0 World TD",
  "slug": "0-world-td",
  "year": null,
  "banner_url": "",
  "icon_url": "",
  "coverart": "https://lutris.net/media/igdb/cover_big/co561y.jpg",
  "platforms": [],
  "provider_games": [
    {
      "name": "0 World TD",
      "slug": "0-world-td",
      "service": "igdb"
    }
  ],
  "aliases": [],
  "shaders": [],
  "discord_id": "",
  "change_for": null
}