{
  "id": 118816,
  "name": "做个好梦",
  "slug": "zuo-ge-hao-meng",
  "year": null,
  "banner_url": "",
  "icon_url": "",
  "coverart": "https://lutris.net/media/igdb/cover_big/co380i.jpg",
  "platforms": [],
  "provider_games": [
    {
      "name": "做个好梦",
      "slug": "zuo-ge-hao-meng",
      "service": "igdb"
    }
  ],
  "aliases": [],
  "shaders": [],
  "discord_id": "",
  "change_for": null
}