{
  "id": 286739,
  "name": "Chip & Sparky",
  "slug": "chip-and-sparky",
  "year": null,
  "banner_url": "",
  "icon_url": "",
  "coverart": "https://lutris.net/media/igdb/cover_big/co8a1q.jpg",
  "platforms": [],
  "provider_games": [
    {
      "name": "Chip & Sparky",
      "slug": "chip-and-sparky",
      "service": "igdb"
    }
  ],
  "aliases": [],
  "shaders": [],
  "discord_id": "",
  "change_for": null
}