{
  "id": 176038,
  "name": "After Burner",
  "slug": "after-burner",
  "year": 1987,
  "banner_url": "",
  "icon_url": "",
  "coverart": "https://lutris.net/media/igdb/cover_big/da86yojgmrblhuxieuuc.jpg",
  "platforms": [
    {
      "name": "Amiga"
    },
    {
      "name": "Commodore C64/128"
    },
    {
      "name": "NES"
    },
    {
      "name": "Sega Master System"
    }
  ],
  "provider_games": [
    {
      "name": "After Burner",
      "slug": "after-burner",
      "service": "igdb"
    }
  ],
  "aliases": [],
  "shaders": [],
  "discord_id": "",
  "change_for": null
}