{
  "id": 81129,
  "name": "Criminal Girls: Invitation Only",
  "slug": "criminal-girls-invitation-only",
  "year": null,
  "banner_url": "",
  "icon_url": "",
  "coverart": "https://lutris.net/media/igdb/cover_big/oanbtiuvrkjpq1kdqedk.jpg",
  "platforms": [],
  "provider_games": [
    {
      "name": "Criminal Girls: Invitation Only",
      "slug": "criminal-girls-invitation-only",
      "service": "igdb"
    }
  ],
  "aliases": [],
  "shaders": [],
  "discord_id": "",
  "change_for": null
}