{
  "id": 153289,
  "name": "Endless Fighter",
  "slug": "endless-fighter",
  "year": null,
  "banner_url": "",
  "icon_url": "",
  "coverart": null,
  "platforms": [],
  "provider_games": [
    {
      "name": "Endless Fighter",
      "slug": "endless-fighter",
      "service": "igdb"
    }
  ],
  "aliases": [],
  "shaders": [],
  "discord_id": "",
  "change_for": null
}