{
  "id": 136405,
  "name": "Dungeon Overseer",
  "slug": "dungeon-overseer",
  "year": null,
  "banner_url": "",
  "icon_url": "",
  "coverart": "https://lutris.net/media/igdb/cover_big/co3p90.jpg",
  "platforms": [],
  "provider_games": [
    {
      "name": "Dungeon Overseer",
      "slug": "dungeon-overseer",
      "service": "igdb"
    }
  ],
  "aliases": [],
  "shaders": [],
  "discord_id": "",
  "change_for": null
}