{
  "id": 97714,
  "name": "Dogtown Barkery",
  "slug": "dogtown-barkery",
  "year": null,
  "banner_url": "",
  "icon_url": "",
  "coverart": null,
  "platforms": [
    {
      "name": "Browser"
    }
  ],
  "provider_games": [
    {
      "name": "Dogtown Barkery",
      "slug": "dogtown-barkery",
      "service": "igdb"
    }
  ],
  "aliases": [],
  "shaders": [],
  "discord_id": "",
  "change_for": null
}