{
  "id": 120313,
  "name": "DUNKYPUNG",
  "slug": "dunkypung",
  "year": null,
  "banner_url": "",
  "icon_url": "",
  "coverart": null,
  "platforms": [],
  "provider_games": [
    {
      "name": "Dunkypung",
      "slug": "dunkypung",
      "service": "igdb"
    }
  ],
  "aliases": [],
  "shaders": [],
  "discord_id": "",
  "change_for": null
}