{
  "id": 173880,
  "name": "Collection of SaGa: Final Fantasy Legend",
  "slug": "collection-of-saga-final-fantasy-legend",
  "year": 2020,
  "banner_url": "https://lutris.net/games/banner/collection-of-saga-final-fantasy-legend.jpg",
  "icon_url": "",
  "coverart": "https://lutris.net/media/igdb/cover_big/co2mn6.jpg",
  "platforms": [
    {
      "name": "Nintendo Switch"
    },
    {
      "name": "Windows"
    }
  ],
  "provider_games": [
    {
      "name": "Collection of SaGa: Final Fantasy Legend",
      "slug": "collection-of-saga-final-fantasy-legend",
      "service": "igdb"
    },
    {
      "name": "COLLECTION of SaGa FINAL FANTASY LEGEND",
      "slug": "1642620",
      "service": "steam"
    }
  ],
  "aliases": [],
  "shaders": [],
  "discord_id": "",
  "change_for": null
}