{
  "id": 12857,
  "name": "Neon Arena",
  "slug": "neon-arena",
  "year": 2017,
  "banner_url": "https://lutris.net/games/banner/neon-arena.jpg",
  "icon_url": "https://lutris.net/games/icon/neon-arena.png",
  "coverart": null,
  "platforms": [
    {
      "name": "Windows"
    }
  ],
  "provider_games": [
    {
      "name": "Neon Arena",
      "slug": "neon-arena",
      "service": "igdb"
    }
  ],
  "aliases": [],
  "shaders": [],
  "discord_id": "",
  "change_for": null
}