{
  "id": 231962,
  "name": "MiniCar Extreme: Car Driving Racing (Truck, Suv, Sedan, Cars)",
  "slug": "minicar-extreme-car-driving-racing-truck-suv-sedan-cars",
  "year": 2023,
  "banner_url": "",
  "icon_url": "",
  "coverart": "https://lutris.net/media/igdb/cover_big/co6avr.jpg",
  "platforms": [
    {
      "name": "Nintendo Switch"
    }
  ],
  "provider_games": [
    {
      "name": "MiniCar Extreme: Car Driving Racing (Truck, Suv, Sedan, Cars)",
      "slug": "minicar-extreme-car-driving-racing-truck-suv-sedan-cars",
      "service": "igdb"
    }
  ],
  "aliases": [],
  "shaders": [],
  "discord_id": "",
  "change_for": null
}