{
  "id": 95176,
  "name": "Castle Creeps Battle",
  "slug": "castle-creeps-battle",
  "year": null,
  "banner_url": "",
  "icon_url": "",
  "coverart": null,
  "platforms": [],
  "provider_games": [
    {
      "name": "Castle Creeps Battle",
      "slug": "castle-creeps-battle",
      "service": "igdb"
    }
  ],
  "aliases": [],
  "shaders": [],
  "discord_id": "",
  "change_for": null
}