{
  "id": 192048,
  "name": "Dark City: Paris Collector's Edition",
  "slug": "dark-city-paris-collectors-edition",
  "year": null,
  "banner_url": "https://lutris.net/games/banner/dark-city-paris-collectors-edition.jpg",
  "icon_url": "https://lutris.net/games/icon/dark-city-paris-collectors-edition.png",
  "coverart": "https://lutris.net/media/igdb/cover_big/co4g2v.jpg",
  "platforms": [],
  "provider_games": [
    {
      "name": "Dark City: Paris - Collector's Edition",
      "slug": "dark-city-paris-collectors-edition",
      "service": "igdb"
    },
    {
      "name": "Dark City: Paris Collector's Edition",
      "slug": "1805100",
      "service": "steam"
    }
  ],
  "aliases": [],
  "shaders": [],
  "discord_id": "",
  "change_for": null
}