{
  "id": 113482,
  "name": "Rengoku II: The Stairway to H.E.A.V.E.N.",
  "slug": "rengoku-ii-the-stairway-to-heaven",
  "year": 2006,
  "banner_url": "",
  "icon_url": "",
  "coverart": "https://lutris.net/media/igdb/cover_big/co2nz2.jpg",
  "platforms": [
    {
      "name": "Sony PSP"
    }
  ],
  "provider_games": [
    {
      "name": "Rengoku II: The Stairway to H.E.A.V.E.N.",
      "slug": "rengoku-ii-the-stairway-to-heaven",
      "service": "igdb"
    }
  ],
  "aliases": [],
  "shaders": [],
  "discord_id": "",
  "change_for": null
}