{
  "id": 11996,
  "game_id": 5342,
  "game_slug": "convoy",
  "name": "Convoy",
  "year": 2015,
  "user": "rpr",
  "runner": "linux",
  "slug": "convoy-gog",
  "version": "GOG",
  "description": null,
  "notes": "",
  "credits": "",
  "created_at": "2019-02-13T11:14:40.791000Z",
  "updated_at": "2019-02-15T01:28:39.634206Z",
  "draft": false,
  "published": true,
  "published_by": 19464,
  "rating": "",
  "is_playable": null,
  "steamid": 318230,
  "gogid": 1432538826,
  "gogslug": "convoy",
  "humbleid": "",
  "humblestoreid": "",
  "humblestoreid_real": "",
  "script": {
    "files": [
      {
        "goginstaller": "N/A:Please select the GOG.com Linux installer"
      }
    ],
    "game": {
      "exe": "start.sh"
    },
    "installer": [
      {
        "extract": {
          "dst": "$CACHE/GOG",
          "file": "goginstaller",
          "format": "zip"
        }
      },
      {
        "merge": {
          "dst": "$GAMEDIR",
          "src": "$CACHE/GOG/data/noarch/"
        }
      }
    ]
  },
  "content": "files:\n- goginstaller: N/A:Please select the GOG.com Linux installer\ngame:\n  exe: start.sh\ninstaller:\n- extract:\n    dst: $CACHE/GOG\n    file: goginstaller\n    format: zip\n- merge:\n    dst: $GAMEDIR\n    src: $CACHE/GOG/data/noarch/\n",
  "discord_id": ""
}