{
  "id": 190691,
  "name": "Men in Black: The Series",
  "slug": "men-in-black-the-series",
  "year": 2002,
  "banner_url": "",
  "icon_url": "",
  "coverart": "https://lutris.net/media/igdb/cover_big/qttz9fuwtyztjatwo5vg.jpg",
  "platforms": [
    {
      "name": "Nintendo Game Boy Advance"
    }
  ],
  "provider_games": [
    {
      "name": "Men in Black: The Series",
      "slug": "men-in-black-the-series",
      "service": "igdb"
    }
  ],
  "aliases": [],
  "shaders": [],
  "discord_id": "",
  "change_for": null
}