{
  "id": 151554,
  "name": "Box the Beat VR",
  "slug": "box-the-beat-vr",
  "year": null,
  "banner_url": "",
  "icon_url": "",
  "coverart": "https://lutris.net/media/igdb/cover_big/co3mjb.jpg",
  "platforms": [],
  "provider_games": [
    {
      "name": "Box the Beat VR",
      "slug": "box-the-beat-vr",
      "service": "igdb"
    }
  ],
  "aliases": [],
  "shaders": [],
  "discord_id": "",
  "change_for": null
}