{
  "id": 299524,
  "name": "Emerald Isle",
  "slug": "emerald-isle--1",
  "year": 1985,
  "banner_url": "",
  "icon_url": "",
  "coverart": "https://lutris.net/media/igdb/cover_big/co8wn2.jpg",
  "platforms": [
    {
      "name": "Amstrad CPC"
    },
    {
      "name": "Atari 8-bit"
    },
    {
      "name": "BBC Microcomputer System"
    },
    {
      "name": "Commodore C64/128"
    },
    {
      "name": "MSX"
    },
    {
      "name": "ZX Spectrum"
    }
  ],
  "provider_games": [
    {
      "name": "Emerald Isle",
      "slug": "emerald-isle--1",
      "service": "igdb"
    }
  ],
  "aliases": [],
  "shaders": [],
  "discord_id": "",
  "change_for": null
}