{
  "id": 17295,
  "name": "Def Jam: Fight for NY",
  "slug": "def-jam-fight-for-ny",
  "year": 2004,
  "banner_url": "https://lutris.net/games/banner/def-jam-fight-for-ny.jpg",
  "icon_url": "",
  "coverart": "https://lutris.net/media/igdb/cover_big/co2lis.jpg",
  "platforms": [
    {
      "name": "GameCube"
    },
    {
      "name": "Nintendo GameCube"
    },
    {
      "name": "Sony PlayStation 2"
    }
  ],
  "provider_games": [
    {
      "name": "Def Jam: Fight for NY",
      "slug": "def-jam-fight-for-ny",
      "service": "igdb"
    }
  ],
  "aliases": [],
  "shaders": [],
  "discord_id": "",
  "change_for": null
}