{
  "id": 219308,
  "name": "Train Mechanic Simulator 2022",
  "slug": "train-mechanic-simulator-2022",
  "year": null,
  "banner_url": "",
  "icon_url": "",
  "coverart": "https://lutris.net/media/igdb/cover_big/co5nmy.jpg",
  "platforms": [],
  "provider_games": [
    {
      "name": "Train Mechanic Simulator 2022",
      "slug": "train-mechanic-simulator-2022",
      "service": "igdb"
    }
  ],
  "aliases": [],
  "shaders": [],
  "discord_id": "",
  "change_for": null
}