{
  "id": 71843,
  "name": "V for Victory: Velikiye Luki",
  "slug": "v-for-victory-velikiye-luki",
  "year": null,
  "banner_url": "",
  "icon_url": "",
  "coverart": null,
  "platforms": [],
  "provider_games": [
    {
      "name": "V for Victory: Velikiye Luki",
      "slug": "v-for-victory-velikiye-luki",
      "service": "igdb"
    }
  ],
  "aliases": [],
  "shaders": [],
  "discord_id": "",
  "change_for": null
}