{
  "id": 283100,
  "name": "The Clown's Forest: Fear of a Survivor",
  "slug": "the-clowns-forest-fear-of-a-survivor",
  "year": null,
  "banner_url": "",
  "icon_url": "",
  "coverart": "https://lutris.net/media/igdb/cover_big/co83tp.jpg",
  "platforms": [],
  "provider_games": [
    {
      "name": "The Clown's Forest: Fear of a Survivor",
      "slug": "the-clowns-forest-fear-of-a-survivor",
      "service": "igdb"
    }
  ],
  "aliases": [],
  "shaders": [],
  "discord_id": "",
  "change_for": null
}