{
  "id": 218495,
  "name": "Live Art",
  "slug": "live-art",
  "year": null,
  "banner_url": "",
  "icon_url": "",
  "coverart": "https://lutris.net/media/igdb/cover_big/co52s1.jpg",
  "platforms": [],
  "provider_games": [
    {
      "name": "Live Art",
      "slug": "live-art",
      "service": "igdb"
    }
  ],
  "aliases": [],
  "shaders": [],
  "discord_id": "",
  "change_for": null
}