{
  "id": 83061,
  "name": "Soroban Gu",
  "slug": "soroban-gu",
  "year": 2001,
  "banner_url": "",
  "icon_url": "",
  "coverart": "https://lutris.net/media/igdb/cover_big/co2f2j.jpg",
  "platforms": [
    {
      "name": "WonderSwan Color"
    }
  ],
  "provider_games": [
    {
      "name": "Soroban Gu",
      "slug": "soroban-gu",
      "service": "igdb"
    }
  ],
  "aliases": [],
  "shaders": [],
  "discord_id": "",
  "change_for": null
}