{
  "id": 45024,
  "name": "Thayer's Quest",
  "slug": "thayers-quest",
  "year": null,
  "banner_url": "",
  "icon_url": "",
  "coverart": null,
  "platforms": [],
  "provider_games": [
    {
      "name": "Thayer's Quest",
      "slug": "thayers-quest",
      "service": "igdb"
    }
  ],
  "aliases": [],
  "shaders": [],
  "discord_id": "",
  "change_for": null
}