{
  "id": 189801,
  "name": "Remnant: From the Ashes - Complete Edition",
  "slug": "remnant-from-the-ashes-complete-edition",
  "year": 2020,
  "banner_url": "",
  "icon_url": "",
  "coverart": "https://lutris.net/media/igdb/cover_big/co3kbo.jpg",
  "platforms": [
    {
      "name": "Xbox One"
    }
  ],
  "provider_games": [
    {
      "name": "Remnant: From the Ashes - Complete Edition",
      "slug": "remnant-from-the-ashes-complete-edition",
      "service": "igdb"
    }
  ],
  "aliases": [],
  "shaders": [],
  "discord_id": "",
  "change_for": null
}