{
  "id": 191373,
  "name": "Fantastic Fishing Online",
  "slug": "fantastic-fishing-online",
  "year": 2013,
  "banner_url": "https://lutris.net/games/banner/fantastic-fishing-online.jpg",
  "icon_url": "",
  "coverart": null,
  "platforms": [
    {
      "name": "Windows"
    }
  ],
  "provider_games": [],
  "aliases": [],
  "shaders": [],
  "discord_id": "",
  "change_for": null
}