{
  "id": 108875,
  "name": "Kabuki Klash",
  "slug": "kabuki-klash",
  "year": 1995,
  "banner_url": "",
  "icon_url": "",
  "coverart": "https://lutris.net/media/igdb/cover_big/co2xdn.jpg",
  "platforms": [
    {
      "name": "Neo Geo AES"
    },
    {
      "name": "Neo Geo CD"
    }
  ],
  "provider_games": [
    {
      "name": "Kabuki Klash",
      "slug": "kabuki-klash",
      "service": "igdb"
    }
  ],
  "aliases": [],
  "shaders": [],
  "discord_id": "",
  "change_for": null
}