{
  "id": 238821,
  "name": "Wild Radio Flux",
  "slug": "wild-radio-flux",
  "year": null,
  "banner_url": "",
  "icon_url": "",
  "coverart": "https://lutris.net/media/igdb/cover_big/co64y5.jpg",
  "platforms": [],
  "provider_games": [
    {
      "name": "Wild Radio Flux",
      "slug": "wild-radio-flux",
      "service": "igdb"
    }
  ],
  "aliases": [],
  "shaders": [],
  "discord_id": "",
  "change_for": null
}