{
  "id": 195829,
  "name": "Don't Be Afraid: The First Toy",
  "slug": "dont-be-afraid-the-first-toy",
  "year": 2020,
  "banner_url": "",
  "icon_url": "",
  "coverart": "https://lutris.net/media/igdb/cover_big/co4o6u.jpg",
  "platforms": [
    {
      "name": "Windows"
    }
  ],
  "provider_games": [
    {
      "name": "Don't Be Afraid: The First Toy",
      "slug": "dont-be-afraid-the-first-toy",
      "service": "igdb"
    }
  ],
  "aliases": [],
  "shaders": [],
  "discord_id": "",
  "change_for": null
}