{
  "id": 193505,
  "name": "Monopoly",
  "slug": "monopoly--10",
  "year": null,
  "banner_url": "",
  "icon_url": "",
  "coverart": "https://lutris.net/media/igdb/cover_big/co4t6u.jpg",
  "platforms": [
    {
      "name": "Game.com"
    }
  ],
  "provider_games": [
    {
      "name": "Monopoly",
      "slug": "monopoly--10",
      "service": "igdb"
    }
  ],
  "aliases": [],
  "shaders": [],
  "discord_id": "",
  "change_for": null
}