{
  "id": 17959,
  "name": "The Swords of Ditto",
  "slug": "the-swords-of-ditto",
  "year": 2017,
  "banner_url": "https://lutris.net/games/banner/the-swords-of-ditto.jpg",
  "icon_url": "",
  "coverart": "https://lutris.net/media/igdb/cover_big/co27bh.jpg",
  "platforms": [
    {
      "name": "Linux"
    },
    {
      "name": "Sony Playstation 4"
    },
    {
      "name": "Windows"
    }
  ],
  "provider_games": [
    {
      "name": "The Swords of Ditto: Mormo’s Curse",
      "slug": "1673521992",
      "service": "gog"
    },
    {
      "name": "The Swords of Ditto: Mormo's Curse",
      "slug": "619780",
      "service": "steam"
    },
    {
      "name": "The Swords of Ditto",
      "slug": "the-swords-of-ditto",
      "service": "igdb"
    }
  ],
  "aliases": [],
  "shaders": [],
  "discord_id": "",
  "change_for": null
}