{
  "id": 84755,
  "name": "Crying Aseimei Sendou",
  "slug": "crying-aseimei-sendou",
  "year": null,
  "banner_url": "",
  "icon_url": "",
  "coverart": null,
  "platforms": [],
  "provider_games": [
    {
      "name": "Crying Aseimei Sendou",
      "slug": "crying-aseimei-sendou",
      "service": "igdb"
    }
  ],
  "aliases": [],
  "shaders": [],
  "discord_id": "",
  "change_for": null
}