{
  "id": 44276,
  "name": "The Jackbox Party Pack 8",
  "slug": "the-jackbox-party-pack-8",
  "year": 2021,
  "banner_url": "https://lutris.net/games/banner/the-jackbox-party-pack-8.jpg",
  "icon_url": "https://lutris.net/games/icon/the-jackbox-party-pack-8.png",
  "coverart": "https://lutris.net/media/igdb/cover_big/co3uad.jpg",
  "platforms": [
    {
      "name": "Amazon Fire TV"
    },
    {
      "name": "Android"
    },
    {
      "name": "Google Stadia"
    },
    {
      "name": "Linux"
    },
    {
      "name": "Mac"
    },
    {
      "name": "Nintendo Switch"
    },
    {
      "name": "Sony Playstation 4"
    },
    {
      "name": "Sony PlayStation 5"
    },
    {
      "name": "Windows"
    },
    {
      "name": "Xbox One"
    },
    {
      "name": "Xbox Series X|S"
    }
  ],
  "provider_games": [
    {
      "name": "The Jackbox Party Pack 8",
      "slug": "the-jackbox-party-pack-8",
      "service": "igdb"
    },
    {
      "name": "The Jackbox Party Pack 8",
      "slug": "1552350",
      "service": "steam"
    }
  ],
  "aliases": [],
  "shaders": [],
  "discord_id": "",
  "change_for": null
}