{
  "id": 240168,
  "name": "Nu, pogodi! Vypusk 5: Po sledam zajca",
  "slug": "nu-pogodi-vypusk-5-po-sledam-zajca",
  "year": 2010,
  "banner_url": "",
  "icon_url": "",
  "coverart": "https://lutris.net/media/igdb/cover_big/co61mm.jpg",
  "platforms": [
    {
      "name": "Windows"
    }
  ],
  "provider_games": [
    {
      "name": "Nu, pogodi! Vypusk 5: Po sledam zajca",
      "slug": "nu-pogodi-vypusk-5-po-sledam-zajca",
      "service": "igdb"
    }
  ],
  "aliases": [],
  "shaders": [],
  "discord_id": "",
  "change_for": null
}