{
  "id": 240993,
  "name": "Devil's 5 Days: Mischief Game",
  "slug": "devils-5-days-mischief-game",
  "year": null,
  "banner_url": "",
  "icon_url": "",
  "coverart": "https://lutris.net/media/igdb/cover_big/co611k.jpg",
  "platforms": [],
  "provider_games": [
    {
      "name": "Devil's 5 Days: Mischief Game",
      "slug": "devils-5-days-mischief-game",
      "service": "igdb"
    }
  ],
  "aliases": [],
  "shaders": [],
  "discord_id": "",
  "change_for": null
}