{
  "id": 303812,
  "name": "Sonic FGX Ultimate",
  "slug": "sonic-fgx-ultimate",
  "year": null,
  "banner_url": "",
  "icon_url": "",
  "coverart": "https://lutris.net/media/igdb/cover_big/co96fz.jpg",
  "platforms": [
    {
      "name": "Windows"
    }
  ],
  "provider_games": [
    {
      "name": "Sonic FGX: Ultimate",
      "slug": "sonic-fgx-ultimate",
      "service": "igdb"
    }
  ],
  "aliases": [],
  "shaders": [],
  "discord_id": "",
  "change_for": null
}