{
  "id": 141142,
  "name": "Bisque Doll",
  "slug": "bisque-doll",
  "year": null,
  "banner_url": "",
  "icon_url": "",
  "coverart": "https://lutris.net/media/igdb/cover_big/co3ssf.jpg",
  "platforms": [],
  "provider_games": [
    {
      "name": "Bisque Doll",
      "slug": "bisque-doll",
      "service": "igdb"
    }
  ],
  "aliases": [],
  "shaders": [],
  "discord_id": "",
  "change_for": null
}