{
  "id": 253351,
  "name": "Cut Master Spades",
  "slug": "cut-master-spades",
  "year": null,
  "banner_url": "",
  "icon_url": "",
  "coverart": "https://lutris.net/media/igdb/cover_big/co6u53.jpg",
  "platforms": [],
  "provider_games": [
    {
      "name": "Cut Master Spades",
      "slug": "cut-master-spades",
      "service": "igdb"
    }
  ],
  "aliases": [],
  "shaders": [],
  "discord_id": "",
  "change_for": null
}