{
  "id": 37318,
  "name": "Torchlight III",
  "slug": "torchlight-iii",
  "year": 2020,
  "banner_url": "https://lutris.net/games/banner/torchlight-iii.jpg",
  "icon_url": "https://lutris.net/games/icon/torchlight-iii.png",
  "coverart": "https://lutris.net/media/igdb/cover_big/co2t2f.jpg",
  "platforms": [
    {
      "name": "Nintendo Switch"
    },
    {
      "name": "Sony Playstation 4"
    },
    {
      "name": "Windows"
    },
    {
      "name": "Xbox One"
    }
  ],
  "provider_games": [
    {
      "name": "Torchlight III",
      "slug": "1030210",
      "service": "steam"
    },
    {
      "name": "Torchlight III",
      "slug": "torchlight-iii",
      "service": "igdb"
    }
  ],
  "aliases": [],
  "shaders": [],
  "discord_id": "",
  "change_for": null
}