{
  "id": 148331,
  "name": "Castle: Jigsaw Puzzles",
  "slug": "castle-jigsaw-puzzles",
  "year": null,
  "banner_url": "https://lutris.net/games/banner/castle-jigsaw-puzzles.jpg",
  "icon_url": "",
  "coverart": null,
  "platforms": [],
  "provider_games": [
    {
      "name": "Castle: Jigsaw Puzzles",
      "slug": "860880",
      "service": "steam"
    },
    {
      "name": "Castle: Jigsaw Puzzles",
      "slug": "castle-jigsaw-puzzles",
      "service": "igdb"
    }
  ],
  "aliases": [],
  "shaders": [],
  "discord_id": "",
  "change_for": null
}