{
  "id": 9647,
  "name": "ObserVR Beta",
  "slug": "observr-beta",
  "year": null,
  "banner_url": "https://lutris.net/games/banner/observr-beta.jpg",
  "icon_url": "https://lutris.net/games/icon/observr-beta.png",
  "coverart": null,
  "platforms": [],
  "provider_games": [],
  "aliases": [],
  "shaders": [],
  "discord_id": "",
  "change_for": null
}