{
  "id": 31622,
  "name": "Angles",
  "slug": "angles",
  "year": null,
  "banner_url": "https://lutris.net/games/banner/angles.jpg",
  "icon_url": "https://lutris.net/games/icon/angles.png",
  "coverart": null,
  "platforms": [],
  "provider_games": [
    {
      "name": "Angles",
      "slug": "799570",
      "service": "steam"
    },
    {
      "name": "Angles",
      "slug": "angles",
      "service": "igdb"
    }
  ],
  "aliases": [],
  "shaders": [],
  "discord_id": "",
  "change_for": null
}