{
  "id": 40130,
  "name": "Idle Big Devil",
  "slug": "idle-big-devil",
  "year": 2020,
  "banner_url": "https://lutris.net/games/banner/idle-big-devil.jpg",
  "icon_url": "",
  "coverart": "https://lutris.net/media/igdb/cover_big/co7jlj.jpg",
  "platforms": [
    {
      "name": "Linux"
    },
    {
      "name": "Windows"
    }
  ],
  "provider_games": [
    {
      "name": "Idle big Devil",
      "slug": "1158980",
      "service": "steam"
    },
    {
      "name": "Idle Big Devil",
      "slug": "idle-big-devil",
      "service": "igdb"
    }
  ],
  "aliases": [],
  "shaders": [],
  "discord_id": "",
  "change_for": null
}