{
  "id": 136559,
  "name": "Mountain Taxi Driver",
  "slug": "mountain-taxi-driver",
  "year": null,
  "banner_url": "",
  "icon_url": "",
  "coverart": "https://lutris.net/media/igdb/cover_big/co3peg.jpg",
  "platforms": [],
  "provider_games": [
    {
      "name": "Mountain Taxi Driver",
      "slug": "mountain-taxi-driver",
      "service": "igdb"
    }
  ],
  "aliases": [],
  "shaders": [],
  "discord_id": "",
  "change_for": null
}