{
  "id": 280239,
  "name": "Backpack Quest: Battles And Adventures",
  "slug": "backpack-quest-battles-and-adventures",
  "year": null,
  "banner_url": "",
  "icon_url": "",
  "coverart": "https://lutris.net/media/igdb/cover_big/co80o5.jpg",
  "platforms": [],
  "provider_games": [
    {
      "name": "Backpack Quest: Battles And Adventures",
      "slug": "backpack-quest-battles-and-adventures",
      "service": "igdb"
    }
  ],
  "aliases": [],
  "shaders": [],
  "discord_id": "",
  "change_for": null
}