{
  "id": 98437,
  "name": "BRAVURA - QUEST RUSH",
  "slug": "bravura-quest-rush",
  "year": null,
  "banner_url": "",
  "icon_url": "",
  "coverart": null,
  "platforms": [],
  "provider_games": [
    {
      "name": "Bravura: Quest Rush",
      "slug": "bravura-quest-rush",
      "service": "igdb"
    }
  ],
  "aliases": [],
  "shaders": [],
  "discord_id": "",
  "change_for": null
}