{
  "id": 305451,
  "name": "Just Move On!",
  "slug": "just-move-on",
  "year": null,
  "banner_url": "",
  "icon_url": "",
  "coverart": null,
  "platforms": [],
  "provider_games": [
    {
      "name": "Just Move On!",
      "slug": "just-move-on",
      "service": "igdb"
    }
  ],
  "aliases": [],
  "shaders": [],
  "discord_id": "",
  "change_for": null
}