{
  "id": 284584,
  "name": "Arishia Tale",
  "slug": "arishia-tale",
  "year": null,
  "banner_url": "",
  "icon_url": "",
  "coverart": "https://lutris.net/media/igdb/cover_big/co86cr.jpg",
  "platforms": [],
  "provider_games": [
    {
      "name": "Arishia Tale",
      "slug": "arishia-tale",
      "service": "igdb"
    }
  ],
  "aliases": [],
  "shaders": [],
  "discord_id": "",
  "change_for": null
}