{
  "id": 4261,
  "name": "Landmark",
  "slug": "landmark",
  "year": 2014,
  "banner_url": "https://lutris.net/games/banner/landmark.jpg",
  "icon_url": "https://lutris.net/games/icon/landmark.png",
  "coverart": "https://lutris.net/media/igdb/cover_big/co1u19.jpg",
  "platforms": [
    {
      "name": "Windows"
    }
  ],
  "provider_games": [
    {
      "name": "Landmark",
      "slug": "297810",
      "service": "steam"
    },
    {
      "name": "Landmark",
      "slug": "landmark",
      "service": "igdb"
    }
  ],
  "aliases": [],
  "shaders": [],
  "discord_id": "496846777023070218",
  "change_for": null
}