{
  "id": 152904,
  "name": "Heroes of Yore",
  "slug": "heroes-of-yore",
  "year": null,
  "banner_url": "",
  "icon_url": "",
  "coverart": "https://lutris.net/media/igdb/cover_big/co3r1w.jpg",
  "platforms": [],
  "provider_games": [
    {
      "name": "Heroes of Yore",
      "slug": "heroes-of-yore",
      "service": "igdb"
    }
  ],
  "aliases": [],
  "shaders": [],
  "discord_id": "",
  "change_for": null
}