{
  "id": 148573,
  "name": "World of Feudal",
  "slug": "world-of-feudal",
  "year": null,
  "banner_url": "",
  "icon_url": "",
  "coverart": null,
  "platforms": [],
  "provider_games": [
    {
      "name": "World of Feudal",
      "slug": "world-of-feudal",
      "service": "igdb"
    }
  ],
  "aliases": [],
  "shaders": [],
  "discord_id": "",
  "change_for": null
}