{
  "id": 25671,
  "name": "To the City of the Clouds",
  "slug": "to-the-city-of-the-clouds",
  "year": 2018,
  "banner_url": "https://lutris.net/games/banner/to-the-city-of-the-clouds.jpg",
  "icon_url": "https://lutris.net/games/icon/to-the-city-of-the-clouds.png",
  "coverart": null,
  "platforms": [
    {
      "name": "Linux"
    },
    {
      "name": "Mac"
    },
    {
      "name": "Windows"
    }
  ],
  "provider_games": [
    {
      "name": "To the City of the Clouds",
      "slug": "772300",
      "service": "steam"
    },
    {
      "name": "To the City of the Clouds",
      "slug": "to-the-city-of-the-clouds",
      "service": "igdb"
    }
  ],
  "aliases": [],
  "shaders": [],
  "discord_id": "",
  "change_for": null
}