{
  "id": 260340,
  "name": "Craft Carnage",
  "slug": "craft-carnage",
  "year": null,
  "banner_url": "",
  "icon_url": "",
  "coverart": "https://lutris.net/media/igdb/cover_big/co73g9.jpg",
  "platforms": [],
  "provider_games": [
    {
      "name": "Craft Carnage",
      "slug": "craft-carnage",
      "service": "igdb"
    }
  ],
  "aliases": [],
  "shaders": [],
  "discord_id": "",
  "change_for": null
}