{
  "id": 16962,
  "name": "Xenoslaive Overdrive",
  "slug": "xenoslaive-overdrive",
  "year": 2017,
  "banner_url": "https://lutris.net/games/banner/xenoslaive-overdrive.jpg",
  "icon_url": "https://lutris.net/games/icon/xenoslaive-overdrive.png",
  "coverart": null,
  "platforms": [
    {
      "name": "Windows"
    }
  ],
  "provider_games": [
    {
      "name": "Xenoslaive Overdrive",
      "slug": "654240",
      "service": "steam"
    },
    {
      "name": "Xenoslaive Overdrive",
      "slug": "xenoslaive-overdrive",
      "service": "igdb"
    }
  ],
  "aliases": [],
  "shaders": [],
  "discord_id": "",
  "change_for": null
}