{
  "id": 38513,
  "name": "Riddle School 2",
  "slug": "riddle-school-2",
  "year": 2006,
  "banner_url": "https://lutris.net/games/banner/riddle-school-2.jpg",
  "icon_url": "",
  "coverart": "https://lutris.net/media/igdb/cover_big/co47uh.jpg",
  "platforms": [
    {
      "name": "Browser"
    },
    {
      "name": "Windows"
    }
  ],
  "provider_games": [
    {
      "name": "Riddle School 2",
      "slug": "riddle-school-2",
      "service": "igdb"
    }
  ],
  "aliases": [],
  "shaders": [],
  "discord_id": "",
  "change_for": null
}