{
  "id": 286675,
  "name": "Apocalyptic cat",
  "slug": "apocalyptic-cat",
  "year": null,
  "banner_url": "",
  "icon_url": "",
  "coverart": "https://lutris.net/media/igdb/cover_big/co8a6p.jpg",
  "platforms": [],
  "provider_games": [
    {
      "name": "Apocalyptic cat",
      "slug": "apocalyptic-cat",
      "service": "igdb"
    }
  ],
  "aliases": [],
  "shaders": [],
  "discord_id": "",
  "change_for": null
}