{
  "id": 115526,
  "name": "Inferno: Beyond the 7th Circle",
  "slug": "inferno-beyond-the-7th-circle",
  "year": 2021,
  "banner_url": "https://lutris.net/games/banner/inferno-beyond-the-7th-circle.jpg",
  "icon_url": "",
  "coverart": "https://lutris.net/media/igdb/cover_big/co31pu.jpg",
  "platforms": [
    {
      "name": "Linux"
    },
    {
      "name": "Mac"
    },
    {
      "name": "Windows"
    }
  ],
  "provider_games": [
    {
      "name": "Inferno - Beyond the 7th Circle",
      "slug": "1251850",
      "service": "steam"
    },
    {
      "name": "Inferno - Beyond the 7th Circle",
      "slug": "1211127702",
      "service": "gog"
    },
    {
      "name": "Inferno: Beyond the 7th Circle",
      "slug": "inferno-beyond-the-7th-circle",
      "service": "igdb"
    }
  ],
  "aliases": [],
  "shaders": [],
  "discord_id": "",
  "change_for": null
}