{
  "id": 93488,
  "name": "Primal Wars: Dino Age",
  "slug": "primal-wars-dino-age",
  "year": null,
  "banner_url": "",
  "icon_url": "",
  "coverart": null,
  "platforms": [],
  "provider_games": [
    {
      "name": "Primal Wars: Dino Age",
      "slug": "primal-wars-dino-age",
      "service": "igdb"
    }
  ],
  "aliases": [],
  "shaders": [],
  "discord_id": "",
  "change_for": null
}