{
  "id": 202998,
  "name": "Blastocitos",
  "slug": "blastocitos",
  "year": null,
  "banner_url": "",
  "icon_url": "",
  "coverart": "https://lutris.net/media/igdb/cover_big/co4in0.jpg",
  "platforms": [],
  "provider_games": [
    {
      "name": "Blastocitos",
      "slug": "blastocitos",
      "service": "igdb"
    }
  ],
  "aliases": [],
  "shaders": [],
  "discord_id": "",
  "change_for": null
}