{
  "id": 207436,
  "name": "Toko-toko Neko Puzzle Schrodinger no Hakoniwa",
  "slug": "toko-toko-neko-puzzle-schrodinger-no-hakoniwa",
  "year": null,
  "banner_url": "",
  "icon_url": "",
  "coverart": null,
  "platforms": [],
  "provider_games": [
    {
      "name": "Toko-toko Neko Puzzle Schrodinger no Hakoniwa",
      "slug": "toko-toko-neko-puzzle-schrodinger-no-hakoniwa",
      "service": "igdb"
    }
  ],
  "aliases": [],
  "shaders": [],
  "discord_id": "",
  "change_for": null
}