{
  "id": 13274,
  "name": "Pokémon Yellow Version: Special Pikachu Edition",
  "slug": "pokemon-yellow-version-special-pikachu-edition",
  "year": 1998,
  "banner_url": "https://lutris.net/games/banner/pokemon-yellow-version-special-pikachu-edition.jpg",
  "icon_url": "",
  "coverart": null,
  "platforms": [
    {
      "name": "Game Boy"
    }
  ],
  "provider_games": [],
  "aliases": [],
  "shaders": [],
  "discord_id": "",
  "change_for": null
}