{
  "id": 61801,
  "name": "Captain Tsubasa J: Zenkoku Seiha e no Chousen",
  "slug": "captain-tsubasa-j-zenkoku-seiha-e-no-chousen",
  "year": null,
  "banner_url": "",
  "icon_url": "",
  "coverart": "https://lutris.net/media/igdb/cover_big/te4tbkjnzah7nordlbrr.jpg",
  "platforms": [],
  "provider_games": [
    {
      "name": "Captain Tsubasa J: Zenkoku Seiha e no Chousen",
      "slug": "captain-tsubasa-j-zenkoku-seiha-e-no-chousen",
      "service": "igdb"
    }
  ],
  "aliases": [],
  "shaders": [],
  "discord_id": "",
  "change_for": null
}