{
  "id": 212464,
  "name": "Mother Goose no Himitsu no Yakata: Blue Label",
  "slug": "mother-goose-no-himitsu-no-yakata-blue-label",
  "year": 2011,
  "banner_url": "",
  "icon_url": "",
  "coverart": "https://lutris.net/media/igdb/cover_big/co5dkf.jpg",
  "platforms": [
    {
      "name": "Sony PSP"
    }
  ],
  "provider_games": [
    {
      "name": "Mother Goose no Himitsu no Yakata: Blue Label",
      "slug": "mother-goose-no-himitsu-no-yakata-blue-label",
      "service": "igdb"
    }
  ],
  "aliases": [],
  "shaders": [],
  "discord_id": "",
  "change_for": null
}