{
  "id": 169431,
  "name": "Ahead",
  "slug": "ahead",
  "year": null,
  "banner_url": "",
  "icon_url": "",
  "coverart": "https://lutris.net/media/igdb/cover_big/co45si.jpg",
  "platforms": [],
  "provider_games": [
    {
      "name": "Ahead",
      "slug": "ahead",
      "service": "igdb"
    }
  ],
  "aliases": [],
  "shaders": [],
  "discord_id": "",
  "change_for": null
}