{
  "id": 225487,
  "name": "Desert Lost",
  "slug": "desert-lost",
  "year": null,
  "banner_url": "",
  "icon_url": "",
  "coverart": "https://lutris.net/media/igdb/cover_big/co4rse.jpg",
  "platforms": [],
  "provider_games": [
    {
      "name": "Desert Lost",
      "slug": "desert-lost",
      "service": "igdb"
    }
  ],
  "aliases": [],
  "shaders": [],
  "discord_id": "",
  "change_for": null
}