{
  "id": 295892,
  "name": "GhoulScrapers",
  "slug": "ghoulscrapers",
  "year": null,
  "banner_url": "",
  "icon_url": "",
  "coverart": "https://lutris.net/media/igdb/cover_big/co8sb2.jpg",
  "platforms": [],
  "provider_games": [
    {
      "name": "GhoulScrapers",
      "slug": "ghoulscrapers",
      "service": "igdb"
    }
  ],
  "aliases": [],
  "shaders": [],
  "discord_id": "",
  "change_for": null
}