{
  "id": 38669,
  "name": "Donkey Kong Jr. Math",
  "slug": "donkey-kong-jr-math",
  "year": 1983,
  "banner_url": "https://lutris.net/games/banner/donkey-kong-jr-math.jpg",
  "icon_url": "",
  "coverart": "https://lutris.net/media/igdb/cover_big/co23ir.jpg",
  "platforms": [
    {
      "name": "NES"
    },
    {
      "name": "Nintendo Wii"
    },
    {
      "name": "Nintendo Wii U"
    }
  ],
  "provider_games": [
    {
      "name": "Donkey Kong Jr. Math",
      "slug": "donkey-kong-jr-math",
      "service": "igdb"
    }
  ],
  "aliases": [],
  "shaders": [],
  "discord_id": "",
  "change_for": null
}