{
  "id": 127680,
  "name": "Angst: Rahz's Revenge",
  "slug": "angst-rahzs-revenge",
  "year": 1996,
  "banner_url": "",
  "icon_url": "",
  "coverart": "https://lutris.net/media/igdb/cover_big/co1yxq.jpg",
  "platforms": [],
  "provider_games": [
    {
      "name": "Angst: Rahz's Revenge",
      "slug": "angst-rahzs-revenge",
      "service": "igdb"
    }
  ],
  "aliases": [],
  "shaders": [],
  "discord_id": "",
  "change_for": null
}