{
  "id": 22356,
  "game_id": 751,
  "game_slug": "champions-online-free-for-all",
  "name": "Champions Online",
  "year": 2009,
  "user": "vanstaveren",
  "runner": "steam",
  "slug": "champions-online-free-for-all-steam",
  "version": "Steam",
  "description": null,
  "notes": "",
  "credits": "",
  "created_at": "2020-07-15T00:29:22.724116Z",
  "updated_at": "2021-12-13T19:10:38.354435Z",
  "draft": false,
  "published": true,
  "published_by": null,
  "rating": "",
  "is_playable": null,
  "steamid": 9880,
  "gogid": null,
  "gogslug": "",
  "humbleid": "",
  "humblestoreid": "",
  "humblestoreid_real": "",
  "script": {
    "game": {
      "appid": 9880
    }
  },
  "content": "game:\n  appid: 9880\n",
  "discord_id": ""
}