{
  "id": 72325,
  "name": "Ghana Bwana",
  "slug": "ghana-bwana",
  "year": null,
  "banner_url": "",
  "icon_url": "",
  "coverart": null,
  "platforms": [],
  "provider_games": [
    {
      "name": "Ghana Bwana",
      "slug": "ghana-bwana",
      "service": "igdb"
    }
  ],
  "aliases": [],
  "shaders": [],
  "discord_id": "",
  "change_for": null
}