{
  "id": 141397,
  "name": "Dark Deception: Monsters & Mortals",
  "slug": "dark-deception-monsters-and-mortals",
  "year": null,
  "banner_url": "",
  "icon_url": "",
  "coverart": "https://lutris.net/media/igdb/cover_big/co3sdr.jpg",
  "platforms": [],
  "provider_games": [
    {
      "name": "Dark Deception: Monsters & Mortals",
      "slug": "dark-deception-monsters-and-mortals",
      "service": "igdb"
    }
  ],
  "aliases": [],
  "shaders": [],
  "discord_id": "",
  "change_for": null
}