{
  "id": 254307,
  "name": "Rune Golf",
  "slug": "rune-golf",
  "year": null,
  "banner_url": "",
  "icon_url": "",
  "coverart": "https://lutris.net/media/igdb/cover_big/co6w9y.jpg",
  "platforms": [],
  "provider_games": [
    {
      "name": "Rune Golf",
      "slug": "rune-golf",
      "service": "igdb"
    }
  ],
  "aliases": [],
  "shaders": [],
  "discord_id": "",
  "change_for": null
}