{
  "id": 225994,
  "name": "Witch Strandings",
  "slug": "witch-strandings",
  "year": 2022,
  "banner_url": "https://lutris.net/games/banner/witch-strandings.jpg",
  "icon_url": "",
  "coverart": "https://lutris.net/media/igdb/cover_big/co4r9m.jpg",
  "platforms": [
    {
      "name": "Windows"
    }
  ],
  "provider_games": [
    {
      "name": "Witch Strandings",
      "slug": "1507790",
      "service": "steam"
    },
    {
      "name": "Witch Strandings",
      "slug": "witch-strandings",
      "service": "igdb"
    }
  ],
  "aliases": [],
  "shaders": [],
  "discord_id": "",
  "change_for": null
}