{
  "id": 89113,
  "name": "Team Canada Table Hockey",
  "slug": "team-canada-table-hockey",
  "year": null,
  "banner_url": "",
  "icon_url": "",
  "coverart": null,
  "platforms": [],
  "provider_games": [
    {
      "name": "Team Canada Table Hockey",
      "slug": "team-canada-table-hockey",
      "service": "igdb"
    }
  ],
  "aliases": [],
  "shaders": [],
  "discord_id": "",
  "change_for": null
}