{
  "id": 11275,
  "name": "Townsmen",
  "slug": "townsmen",
  "year": 2012,
  "banner_url": "https://lutris.net/games/banner/townsmen.jpg",
  "icon_url": "https://lutris.net/games/icon/townsmen.png",
  "coverart": "https://lutris.net/media/igdb/cover_big/co2rq9.jpg",
  "platforms": [
    {
      "name": "Android"
    },
    {
      "name": "Windows"
    },
    {
      "name": "Windows Phone"
    }
  ],
  "provider_games": [
    {
      "name": "Townsmen",
      "slug": "486540",
      "service": "steam"
    },
    {
      "name": "Townsmen",
      "slug": "townsmen",
      "service": "igdb"
    }
  ],
  "aliases": [],
  "shaders": [],
  "discord_id": "425457401769099297",
  "change_for": null
}