{
  "id": 127304,
  "name": "BipBop II",
  "slug": "bipbop-ii",
  "year": null,
  "banner_url": "",
  "icon_url": "",
  "coverart": "https://lutris.net/media/igdb/cover_big/co5bwq.jpg",
  "platforms": [],
  "provider_games": [
    {
      "name": "BipBop II",
      "slug": "bipbop-ii",
      "service": "igdb"
    }
  ],
  "aliases": [],
  "shaders": [],
  "discord_id": "",
  "change_for": null
}