{
  "id": 216672,
  "name": "Happy Merge Home",
  "slug": "happy-merge-home",
  "year": null,
  "banner_url": "",
  "icon_url": "",
  "coverart": null,
  "platforms": [],
  "provider_games": [
    {
      "name": "Happy Merge Home",
      "slug": "happy-merge-home",
      "service": "igdb"
    }
  ],
  "aliases": [],
  "shaders": [],
  "discord_id": "",
  "change_for": null
}