{
  "id": 25432,
  "name": "Lode Runner Legacy",
  "slug": "lode-runner-legacy",
  "year": 2017,
  "banner_url": "https://lutris.net/games/banner/lode-runner-legacy.jpg",
  "icon_url": "https://lutris.net/games/icon/lode-runner-legacy.png",
  "coverart": "https://lutris.net/media/igdb/cover_big/co27z0.jpg",
  "platforms": [
    {
      "name": "Nintendo Switch"
    },
    {
      "name": "Sony Playstation 4"
    },
    {
      "name": "Windows"
    }
  ],
  "provider_games": [
    {
      "name": "Lode Runner Legacy",
      "slug": "628660",
      "service": "steam"
    },
    {
      "name": "Lode Runner Legacy",
      "slug": "lode-runner-legacy",
      "service": "igdb"
    }
  ],
  "aliases": [],
  "shaders": [],
  "discord_id": "",
  "change_for": null
}