{
  "id": 230261,
  "name": "Cook'n'Slash",
  "slug": "cooknslash",
  "year": null,
  "banner_url": "",
  "icon_url": "",
  "coverart": "https://lutris.net/media/igdb/cover_big/co6ctb.jpg",
  "platforms": [],
  "provider_games": [
    {
      "name": "Cook'n'Slash",
      "slug": "cooknslash",
      "service": "igdb"
    }
  ],
  "aliases": [],
  "shaders": [],
  "discord_id": "",
  "change_for": null
}