{
  "id": 26788,
  "game_id": 28593,
  "game_slug": "gods-unchained",
  "name": "Gods Unchained",
  "year": 2019,
  "user": "CompassNeedle",
  "runner": "wine",
  "slug": "gods-unchained-0157-autoupdate",
  "version": "0.15.7 (autoupdate)",
  "description": "Downloads version 0.15.7 of the immutable installer and installs it. The program should update automatically, see technical notes if it doesn't.Weird issues:- The first login can take multiple attempts without any indication of progress- New card packs and levels are not always shown instantly. Nothing was lost, though. May be an issue of Gods Unchained rather than wine / this install script, though.- After installation, the client wants to immediately update. Maybe that's expected as well.",
  "notes": "Go to https://downloads.immutable.com/ to find all available versions. Just add the key to after the url (as the file name) and remember to url encode it (i.e. replace spaces by %20).\r\n\r\nCurrently a .bat file (gu.bat) is used to resolve the installation directory because it is inside the user profile. If there is a better way to do this feel free to update the installer.",
  "credits": "",
  "created_at": "2021-03-07T10:30:37.813000Z",
  "updated_at": "2024-11-02T10:35:09.309821Z",
  "draft": false,
  "published": true,
  "published_by": 494,
  "rating": "",
  "is_playable": null,
  "steamid": null,
  "gogid": null,
  "gogslug": "",
  "humbleid": "",
  "humblestoreid": "",
  "humblestoreid_real": "",
  "script": {
    "files": [
      {
        "installer": "https://downloads.godsunchained.com/Gods+Unchained+Setup+0.15.7.exe"
      }
    ],
    "game": {
      "arch": "win64",
      "exe": "drive_c/gu.bat",
      "prefix": "$GAMEDIR"
    },
    "installer": [
      {
        "task": {
          "arch": "win64",
          "description": "Creating win64 prefix",
          "name": "create_prefix",
          "prefix": "$GAMEDIR"
        }
      },
      {
        "task": {
          "description": "Installing \"Gods Unchained\"...",
          "executable": "installer",
          "name": "wineexec",
          "prefix": "$GAMEDIR"
        }
      },
      {
        "execute": {
          "command": "echo \"%USERPROFILE%\\AppData\\Local\\immutable-launcher-updater\\installer.exe\" > $GAMEDIR/drive_c/gu.bat"
        }
      }
    ]
  },
  "content": "files:\n- installer: https://downloads.godsunchained.com/Gods+Unchained+Setup+0.15.7.exe\ngame:\n  arch: win64\n  exe: drive_c/gu.bat\n  prefix: $GAMEDIR\ninstaller:\n- task:\n    arch: win64\n    description: Creating win64 prefix\n    name: create_prefix\n    prefix: $GAMEDIR\n- task:\n    description: Installing \"Gods Unchained\"...\n    executable: installer\n    name: wineexec\n    prefix: $GAMEDIR\n- execute:\n    command: echo \"%USERPROFILE%\\AppData\\Local\\immutable-launcher-updater\\installer.exe\"\n      > $GAMEDIR/drive_c/gu.bat\n",
  "discord_id": ""
}