{
  "id": 42528,
  "name": "Tales From The Under-Realm: Hazel",
  "slug": "tales-from-the-under-realm-hazel",
  "year": null,
  "banner_url": "https://lutris.net/games/banner/tales-from-the-under-realm-hazel.jpg",
  "icon_url": "https://lutris.net/games/icon/tales-from-the-under-realm-hazel.png",
  "coverart": "https://lutris.net/media/igdb/cover_big/co42w7.jpg",
  "platforms": [],
  "provider_games": [
    {
      "name": "Tales from the Under-Realm: Hazel",
      "slug": "tales-from-the-under-realm-hazel",
      "service": "igdb"
    },
    {
      "name": "Tales From The Under-Realm: Hazel",
      "slug": "1394550",
      "service": "steam"
    }
  ],
  "aliases": [],
  "shaders": [],
  "discord_id": "",
  "change_for": null
}