{
  "id": 71847,
  "name": "Elisabeth I.",
  "slug": "elisabeth-i",
  "year": null,
  "banner_url": "",
  "icon_url": "",
  "coverart": null,
  "platforms": [],
  "provider_games": [
    {
      "name": "Elisabeth I.",
      "slug": "elisabeth-i",
      "service": "igdb"
    }
  ],
  "aliases": [],
  "shaders": [],
  "discord_id": "",
  "change_for": null
}