{
  "id": 253602,
  "name": "Annum Crossroads",
  "slug": "annum-crossroads",
  "year": null,
  "banner_url": "",
  "icon_url": "",
  "coverart": "https://lutris.net/media/igdb/cover_big/co6tv3.jpg",
  "platforms": [],
  "provider_games": [
    {
      "name": "Annum Crossroads",
      "slug": "annum-crossroads",
      "service": "igdb"
    }
  ],
  "aliases": [],
  "shaders": [],
  "discord_id": "",
  "change_for": null
}