{
  "id": 232067,
  "name": "F Class Adventurer",
  "slug": "f-class-adventurer",
  "year": null,
  "banner_url": "",
  "icon_url": "",
  "coverart": null,
  "platforms": [],
  "provider_games": [
    {
      "name": "F Class Adventurer",
      "slug": "f-class-adventurer",
      "service": "igdb"
    }
  ],
  "aliases": [],
  "shaders": [],
  "discord_id": "",
  "change_for": null
}