{
  "id": 75838,
  "name": "Escape from the Lost World",
  "slug": "escape-from-the-lost-world",
  "year": null,
  "banner_url": "",
  "icon_url": "",
  "coverart": null,
  "platforms": [],
  "provider_games": [
    {
      "name": "Escape from the Lost World",
      "slug": "escape-from-the-lost-world",
      "service": "igdb"
    }
  ],
  "aliases": [],
  "shaders": [],
  "discord_id": "",
  "change_for": null
}