{
  "id": 44307,
  "name": "Terrordrome: Rise of the boogeymen",
  "slug": "terrordrome-rise-of-the-boogeymen",
  "year": 2015,
  "banner_url": "https://lutris.net/games/banner/terrordrome-rise-of-the-boogeymen.jpg",
  "icon_url": "",
  "coverart": "https://lutris.net/media/igdb/cover_big/dqf5qeulquj69udanwvf.jpg",
  "platforms": [
    {
      "name": "Windows"
    }
  ],
  "provider_games": [
    {
      "name": "Terrordrome: Rise of the Boogeymen",
      "slug": "terrordrome-rise-of-the-boogeymen",
      "service": "igdb"
    }
  ],
  "aliases": [],
  "shaders": [],
  "discord_id": "",
  "change_for": null
}