{
  "id": 299246,
  "name": "Princess Snow White: The Enchanted Mirror",
  "slug": "princess-snow-white-the-enchanted-mirror",
  "year": 2024,
  "banner_url": "",
  "icon_url": "",
  "coverart": "https://lutris.net/media/igdb/cover_big/co8yxj.jpg",
  "platforms": [
    {
      "name": "Nintendo Switch"
    }
  ],
  "provider_games": [
    {
      "name": "Princess Snow White: The Enchanted Mirror",
      "slug": "princess-snow-white-the-enchanted-mirror",
      "service": "igdb"
    }
  ],
  "aliases": [],
  "shaders": [],
  "discord_id": "",
  "change_for": null
}