{
  "id": 136141,
  "name": "Draconic Echoes: The Ardent War",
  "slug": "draconic-echoes-the-ardent-war",
  "year": 2019,
  "banner_url": "",
  "icon_url": "",
  "coverart": "https://lutris.net/media/igdb/cover_big/co3owl.jpg",
  "platforms": [
    {
      "name": "Windows"
    }
  ],
  "provider_games": [
    {
      "name": "Draconic Echoes: The Ardent War",
      "slug": "draconic-echoes-the-ardent-war",
      "service": "igdb"
    }
  ],
  "aliases": [],
  "shaders": [],
  "discord_id": "",
  "change_for": null
}