{
  "id": 82056,
  "name": "Voyager I: Sabotage of the Robot Ship",
  "slug": "voyager-i-sabotage-of-the-robot-ship",
  "year": 1981,
  "banner_url": "",
  "icon_url": "",
  "coverart": "https://lutris.net/media/igdb/cover_big/hbl4fbe6vw2aulukavtf.jpg",
  "platforms": [
    {
      "name": "Apple II"
    },
    {
      "name": "Atari 8-bit"
    },
    {
      "name": "Commodore PET"
    },
    {
      "name": "FM-7"
    },
    {
      "name": "PC-8801"
    },
    {
      "name": "TRS-80"
    },
    {
      "name": "TRS-80 Color Computer"
    }
  ],
  "provider_games": [
    {
      "name": "Voyager I: Sabotage of the Robot Ship",
      "slug": "voyager-i-sabotage-of-the-robot-ship",
      "service": "igdb"
    }
  ],
  "aliases": [],
  "shaders": [],
  "discord_id": "",
  "change_for": null
}