{
  "id": 100685,
  "name": "Eigo de Tabi Suru: Little Charo",
  "slug": "eigo-de-tabi-suru-little-charo",
  "year": null,
  "banner_url": "",
  "icon_url": "",
  "coverart": "https://lutris.net/media/igdb/cover_big/co5t3f.jpg",
  "platforms": [],
  "provider_games": [
    {
      "name": "Eigo de Tabi Suru: Little Charo",
      "slug": "eigo-de-tabi-suru-little-charo",
      "service": "igdb"
    }
  ],
  "aliases": [],
  "shaders": [],
  "discord_id": "",
  "change_for": null
}