{
  "id": 258697,
  "name": "Wreckage",
  "slug": "wreckage",
  "year": null,
  "banner_url": "",
  "icon_url": "",
  "coverart": "https://lutris.net/media/igdb/cover_big/co71gu.jpg",
  "platforms": [],
  "provider_games": [
    {
      "name": "Wreckage",
      "slug": "wreckage",
      "service": "igdb"
    }
  ],
  "aliases": [],
  "shaders": [],
  "discord_id": "",
  "change_for": null
}