{
  "id": 203499,
  "name": "Astatos",
  "slug": "astatos",
  "year": 2021,
  "banner_url": "https://lutris.net/games/banner/astatos.jpg",
  "icon_url": "",
  "coverart": "https://lutris.net/media/igdb/cover_big/co4ba1.jpg",
  "platforms": [
    {
      "name": "Mac"
    },
    {
      "name": "Windows"
    }
  ],
  "provider_games": [
    {
      "name": "Astatos",
      "slug": "astatos",
      "service": "igdb"
    },
    {
      "name": "Astatos",
      "slug": "1430970",
      "service": "steam"
    }
  ],
  "aliases": [],
  "shaders": [],
  "discord_id": "",
  "change_for": null
}