{
  "id": 298901,
  "name": "Happy Birthday: With Sergio Spellbound",
  "slug": "happy-birthday-with-sergio-spellbound",
  "year": 2024,
  "banner_url": "",
  "icon_url": "",
  "coverart": "https://lutris.net/media/igdb/cover_big/co8xo6.jpg",
  "platforms": [
    {
      "name": "Windows"
    }
  ],
  "provider_games": [
    {
      "name": "Happy Birthday: With Sergio Spellbound",
      "slug": "happy-birthday-with-sergio-spellbound",
      "service": "igdb"
    }
  ],
  "aliases": [],
  "shaders": [],
  "discord_id": "",
  "change_for": null
}