{
  "id": 118357,
  "name": "Space Chip",
  "slug": "space-chip",
  "year": 2018,
  "banner_url": "https://lutris.net/games/banner/space-chip.jpg",
  "icon_url": "",
  "coverart": "https://lutris.net/media/igdb/cover_big/fh82rdwrwdjtpslnwfub.jpg",
  "platforms": [
    {
      "name": "Windows"
    }
  ],
  "provider_games": [
    {
      "name": "Space Chip",
      "slug": "790760",
      "service": "steam"
    },
    {
      "name": "Space Chip",
      "slug": "space-chip",
      "service": "igdb"
    }
  ],
  "aliases": [],
  "shaders": [],
  "discord_id": "",
  "change_for": null
}