{
  "id": 11857,
  "name": "Excubitor",
  "slug": "excubitor",
  "year": 2016,
  "banner_url": "https://lutris.net/games/banner/excubitor.jpg",
  "icon_url": "https://lutris.net/games/icon/excubitor.png",
  "coverart": "https://lutris.net/media/igdb/cover_big/znictvlcucg8kcmrk6cy.jpg",
  "platforms": [
    {
      "name": "Linux"
    },
    {
      "name": "Mac"
    },
    {
      "name": "Windows"
    }
  ],
  "provider_games": [
    {
      "name": "Excubitor",
      "slug": "357030",
      "service": "steam"
    },
    {
      "name": "Excubitor",
      "slug": "excubitor",
      "service": "igdb"
    },
    {
      "name": "Excubitor",
      "slug": "1456234285",
      "service": "gog"
    }
  ],
  "aliases": [],
  "shaders": [],
  "discord_id": "",
  "change_for": null
}