{
  "id": 176852,
  "name": "Harvest Moon: Magical Melody",
  "slug": "harvest-moon-magical-melody",
  "year": 2005,
  "banner_url": "",
  "icon_url": "",
  "coverart": "https://lutris.net/media/igdb/cover_big/co2xk5.jpg",
  "platforms": [
    {
      "name": "Nintendo GameCube"
    },
    {
      "name": "Nintendo Wii"
    }
  ],
  "provider_games": [
    {
      "name": "Harvest Moon: Magical Melody",
      "slug": "harvest-moon-magical-melody",
      "service": "igdb"
    }
  ],
  "aliases": [],
  "shaders": [],
  "discord_id": "",
  "change_for": null
}