{
  "id": 135235,
  "name": "Crazy Factory",
  "slug": "crazy-factory",
  "year": null,
  "banner_url": "",
  "icon_url": "",
  "coverart": "https://lutris.net/media/igdb/cover_big/co3nmw.jpg",
  "platforms": [],
  "provider_games": [
    {
      "name": "Crazy Factory",
      "slug": "crazy-factory",
      "service": "igdb"
    }
  ],
  "aliases": [],
  "shaders": [],
  "discord_id": "",
  "change_for": null
}