{
  "id": 23275,
  "game_id": 4843,
  "game_slug": "moonbase-commander",
  "name": "MoonBase Commander",
  "year": 2014,
  "user": "Codesaru",
  "runner": "wine",
  "slug": "moonbase-commander-gog",
  "version": "GOG",
  "description": "Due to Moonbase Commander being very sensitive to aiming direction, the game stretching itself to fullscreen, and it being made in the old 4:3 days, this installer configures the game to run in an 800x600 window.  It's very small, but if you go fullscreen, good luck actually landing any shots.  If you do really want to go fullscreen anyway, just go to the game's \"Runner options\" and turn off \"Windowed (virtual desktop)\".",
  "notes": "If you launch the game directly from installation, it'll be in a full-screen virtual desktop instead of its 800x600 window.  Just launch from Lutris normally after installation and it'll be fine.",
  "credits": "",
  "created_at": "2020-09-08T23:11:15.226000Z",
  "updated_at": "2021-12-11T19:11:48.514256Z",
  "draft": false,
  "published": true,
  "published_by": 51687,
  "rating": "",
  "is_playable": null,
  "steamid": 254880,
  "gogid": 1207659114,
  "gogslug": "moonbase_commander",
  "humbleid": "",
  "humblestoreid": "",
  "humblestoreid_real": "",
  "script": {
    "files": [
      {
        "installer": "N/A:Select the GOG installer"
      }
    ],
    "game": {
      "exe": "$GAMEDIR/drive_c/game/moonbase.exe",
      "prefix": "$GAMEDIR"
    },
    "installer": [
      {
        "task": {
          "app": "directplay",
          "arch": "win32",
          "description": "Installing DirectPlay to enable multiplayer features",
          "name": "winetricks",
          "prefix": "$GAMEDIR"
        }
      },
      {
        "task": {
          "args": "/SILENT /LANG=en /SP- /NOCANCEL /SUPPRESSMSGBOXES /NOGUI /DIR=\"C:/game\"",
          "executable": "installer",
          "name": "wineexec"
        }
      }
    ],
    "wine": {
      "Desktop": true,
      "WineDesktop": "640x480",
      "overrides": {
        "ddraw.dll": "n"
      }
    }
  },
  "content": "files:\n- installer: N/A:Select the GOG installer\ngame:\n  exe: $GAMEDIR/drive_c/game/moonbase.exe\n  prefix: $GAMEDIR\ninstaller:\n- task:\n    app: directplay\n    arch: win32\n    description: Installing DirectPlay to enable multiplayer features\n    name: winetricks\n    prefix: $GAMEDIR\n- task:\n    args: /SILENT /LANG=en /SP- /NOCANCEL /SUPPRESSMSGBOXES /NOGUI /DIR=\"C:/game\"\n    executable: installer\n    name: wineexec\nwine:\n  Desktop: true\n  WineDesktop: 640x480\n  overrides:\n    ddraw.dll: n\n",
  "discord_id": ""
}