{
  "id": 262108,
  "name": "Disney Dreamlight Valley: Cozy Edition",
  "slug": "disney-dreamlight-valley-cozy-edition",
  "year": null,
  "banner_url": "",
  "icon_url": "",
  "coverart": "https://lutris.net/media/igdb/cover_big/co85pd.jpg",
  "platforms": [
    {
      "name": "Xbox Series X|S"
    }
  ],
  "provider_games": [
    {
      "name": "Disney Dreamlight Valley: Cozy Edition",
      "slug": "disney-dreamlight-valley-cozy-edition",
      "service": "igdb"
    }
  ],
  "aliases": [],
  "shaders": [],
  "discord_id": "",
  "change_for": null
}