{
  "id": 265954,
  "name": "The Wrath of Sona",
  "slug": "the-wrath-of-sona",
  "year": 1999,
  "banner_url": "",
  "icon_url": "",
  "coverart": "https://lutris.net/media/igdb/cover_big/co7c3a.jpg",
  "platforms": [],
  "provider_games": [
    {
      "name": "The Wrath of Sona",
      "slug": "the-wrath-of-sona",
      "service": "igdb"
    }
  ],
  "aliases": [],
  "shaders": [],
  "discord_id": "",
  "change_for": null
}