{
  "id": 37435,
  "game_id": 167689,
  "game_slug": "jigsaw-puzzles-master-artists-of-old",
  "name": "Jigsaw Puzzles: Master Artists of Old",
  "year": null,
  "user": "vanstaveren",
  "runner": "steam",
  "slug": "jigsaw-puzzles-master-artists-steam",
  "version": "steam",
  "description": "",
  "notes": "",
  "credits": "",
  "created_at": "2023-05-11T21:37:39.353661Z",
  "updated_at": "2023-05-11T21:37:39.353688Z",
  "draft": false,
  "published": true,
  "published_by": null,
  "rating": "",
  "is_playable": null,
  "steamid": null,
  "gogid": null,
  "gogslug": "",
  "humbleid": "",
  "humblestoreid": "",
  "humblestoreid_real": "",
  "script": {
    "game": {
      "appid": 1368750
    }
  },
  "content": "game:\n  appid: 1368750\n",
  "discord_id": ""
}