{
  "id": 233680,
  "name": "Gênio Quiz Felipe Neto",
  "slug": "genio-quiz-felipe-neto",
  "year": 2018,
  "banner_url": "",
  "icon_url": "",
  "coverart": "https://lutris.net/media/igdb/cover_big/co69n2.jpg",
  "platforms": [
    {
      "name": "Android"
    }
  ],
  "provider_games": [
    {
      "name": "Gênio Quiz Felipe Neto",
      "slug": "genio-quiz-felipe-neto",
      "service": "igdb"
    }
  ],
  "aliases": [],
  "shaders": [],
  "discord_id": "",
  "change_for": null
}