{
  "id": 11005,
  "name": "TacoFace",
  "slug": "tacoface",
  "year": 2016,
  "banner_url": "https://lutris.net/games/banner/tacoface.jpg",
  "icon_url": "https://lutris.net/games/icon/tacoface.png",
  "coverart": "https://lutris.net/media/igdb/cover_big/co3vzj.jpg",
  "platforms": [
    {
      "name": "Windows"
    }
  ],
  "provider_games": [
    {
      "name": "TacoFace",
      "slug": "570060",
      "service": "steam"
    },
    {
      "name": "TacoFace",
      "slug": "tacoface",
      "service": "igdb"
    }
  ],
  "aliases": [],
  "shaders": [],
  "discord_id": "",
  "change_for": null
}