{
  "id": 75878,
  "name": "Hissatsu Pachinko Station Now 8: Jarinko Chie",
  "slug": "hissatsu-pachinko-station-now-8-jarinko-chie",
  "year": null,
  "banner_url": "",
  "icon_url": "",
  "coverart": null,
  "platforms": [],
  "provider_games": [
    {
      "name": "Hissatsu Pachinko Station Now 8: Jarinko Chie",
      "slug": "hissatsu-pachinko-station-now-8-jarinko-chie",
      "service": "igdb"
    }
  ],
  "aliases": [],
  "shaders": [],
  "discord_id": "",
  "change_for": null
}