{
  "id": 273717,
  "name": "Dark Bows",
  "slug": "dark-bows",
  "year": null,
  "banner_url": "",
  "icon_url": "",
  "coverart": "https://lutris.net/media/igdb/cover_big/co7pga.jpg",
  "platforms": [],
  "provider_games": [
    {
      "name": "Dark Bows",
      "slug": "dark-bows",
      "service": "igdb"
    }
  ],
  "aliases": [],
  "shaders": [],
  "discord_id": "",
  "change_for": null
}