{
  "id": 211269,
  "name": "Legends of Amberland II: The Song of Trees",
  "slug": "legends-of-amberland-ii-the-song-of-trees",
  "year": null,
  "banner_url": "",
  "icon_url": "",
  "coverart": "https://lutris.net/media/igdb/cover_big/co5fna.jpg",
  "platforms": [],
  "provider_games": [
    {
      "name": "Legends of Amberland II: The Song of Trees",
      "slug": "legends-of-amberland-ii-the-song-of-trees",
      "service": "igdb"
    },
    {
      "name": "Legends of Amberland II: The Song of Trees",
      "slug": "1849781464",
      "service": "gog"
    }
  ],
  "aliases": [],
  "shaders": [],
  "discord_id": "",
  "change_for": null
}