{
  "id": 126876,
  "name": "Final Fantasy: Brave Exvius",
  "slug": "final-fantasy-brave-exvius",
  "year": 2015,
  "banner_url": "",
  "icon_url": "",
  "coverart": "https://lutris.net/media/igdb/cover_big/co1j27.jpg",
  "platforms": [
    {
      "name": "Android"
    }
  ],
  "provider_games": [
    {
      "name": "Final Fantasy: Brave Exvius",
      "slug": "final-fantasy-brave-exvius",
      "service": "igdb"
    }
  ],
  "aliases": [],
  "shaders": [],
  "discord_id": "",
  "change_for": null
}