{
  "id": 212763,
  "name": "Yume Nikki: Date Poniko!",
  "slug": "yume-nikki-date-poniko",
  "year": 2017,
  "banner_url": "",
  "icon_url": "",
  "coverart": "https://lutris.net/media/igdb/cover_big/co5xd6.jpg",
  "platforms": [
    {
      "name": "Windows"
    }
  ],
  "provider_games": [
    {
      "name": "Yume Nikki: Date Poniko!",
      "slug": "yume-nikki-date-poniko",
      "service": "igdb"
    }
  ],
  "aliases": [],
  "shaders": [],
  "discord_id": "",
  "change_for": null
}