{
  "id": 263072,
  "name": "Hell Well",
  "slug": "hell-well",
  "year": null,
  "banner_url": "",
  "icon_url": "",
  "coverart": "https://lutris.net/media/igdb/cover_big/co77jz.jpg",
  "platforms": [],
  "provider_games": [
    {
      "name": "Hell Well",
      "slug": "hell-well",
      "service": "igdb"
    }
  ],
  "aliases": [],
  "shaders": [],
  "discord_id": "",
  "change_for": null
}