{
  "id": 297797,
  "name": "Pharaoh's Riches",
  "slug": "pharaohs-riches",
  "year": null,
  "banner_url": "",
  "icon_url": "",
  "coverart": "https://lutris.net/media/igdb/cover_big/co8x3f.jpg",
  "platforms": [],
  "provider_games": [
    {
      "name": "Pharaoh's Riches",
      "slug": "pharaohs-riches",
      "service": "igdb"
    }
  ],
  "aliases": [],
  "shaders": [],
  "discord_id": "",
  "change_for": null
}