{
  "id": 109429,
  "name": "Garfield's Scary Scavenger Hunt",
  "slug": "garfields-scary-scavenger-hunt",
  "year": 2002,
  "banner_url": "",
  "icon_url": "",
  "coverart": "https://lutris.net/media/igdb/cover_big/co22ym.jpg",
  "platforms": [
    {
      "name": "Browser"
    }
  ],
  "provider_games": [
    {
      "name": "Garfield's Scary Scavenger Hunt",
      "slug": "garfields-scary-scavenger-hunt",
      "service": "igdb"
    }
  ],
  "aliases": [],
  "shaders": [],
  "discord_id": "",
  "change_for": null
}