{
  "id": 171036,
  "name": "Pitcher and the Whale",
  "slug": "pitcher-and-the-whale",
  "year": null,
  "banner_url": "",
  "icon_url": "",
  "coverart": "https://lutris.net/media/igdb/cover_big/co475b.jpg",
  "platforms": [],
  "provider_games": [
    {
      "name": "Pitcher and the Whale",
      "slug": "pitcher-and-the-whale",
      "service": "igdb"
    }
  ],
  "aliases": [],
  "shaders": [],
  "discord_id": "",
  "change_for": null
}