{
  "id": 260118,
  "name": "Balvenie's Birthday Party",
  "slug": "balvenies-birthday-party",
  "year": 2023,
  "banner_url": "",
  "icon_url": "",
  "coverart": "https://lutris.net/media/igdb/cover_big/co73v5.jpg",
  "platforms": [
    {
      "name": "Windows"
    }
  ],
  "provider_games": [
    {
      "name": "Balvenie's Birthday Party",
      "slug": "balvenies-birthday-party",
      "service": "igdb"
    }
  ],
  "aliases": [],
  "shaders": [],
  "discord_id": "",
  "change_for": null
}