{
  "id": 3189,
  "game_id": 6135,
  "game_slug": "don-bradman-cricket-14",
  "name": "Don Bradman Cricket 14",
  "year": 2014,
  "user": "bradgy",
  "runner": "steam",
  "slug": "don-bradman-cricket-14-proton",
  "version": "Proton",
  "description": "",
  "notes": "",
  "credits": "",
  "created_at": "2017-01-26T18:48:19.290306Z",
  "updated_at": "2021-05-04T02:43:02.302938Z",
  "draft": false,
  "published": true,
  "published_by": null,
  "rating": "",
  "is_playable": null,
  "steamid": 216260,
  "gogid": null,
  "gogslug": "",
  "humbleid": "",
  "humblestoreid": "",
  "humblestoreid_real": "",
  "script": {
    "game": {
      "appid": 216260
    }
  },
  "content": "game:\n  appid: 216260\n",
  "discord_id": ""
}