{
  "id": 30871,
  "name": "Gadgeteer",
  "slug": "gadgeteer",
  "year": 2019,
  "banner_url": "https://lutris.net/games/banner/gadgeteer.jpg",
  "icon_url": "https://lutris.net/games/icon/gadgeteer.png",
  "coverart": "https://lutris.net/media/igdb/cover_big/co1kw4.jpg",
  "platforms": [
    {
      "name": "PlayStation VR"
    },
    {
      "name": "SteamVR"
    }
  ],
  "provider_games": [
    {
      "name": "Gadgeteer",
      "slug": "746560",
      "service": "steam"
    },
    {
      "name": "Gadgeteer",
      "slug": "gadgeteer",
      "service": "igdb"
    }
  ],
  "aliases": [],
  "shaders": [],
  "discord_id": "",
  "change_for": null
}