{
  "id": 156475,
  "name": "Faily Skater",
  "slug": "faily-skater",
  "year": null,
  "banner_url": "",
  "icon_url": "",
  "coverart": null,
  "platforms": [],
  "provider_games": [
    {
      "name": "Faily Skater",
      "slug": "faily-skater",
      "service": "igdb"
    }
  ],
  "aliases": [],
  "shaders": [],
  "discord_id": "",
  "change_for": null
}