{
  "id": 89471,
  "name": "Air Force Commander - Combat Arms Fighter Shooting Attack",
  "slug": "air-force-commander-combat-arms-fighter-shooting-attack",
  "year": null,
  "banner_url": "",
  "icon_url": "",
  "coverart": null,
  "platforms": [],
  "provider_games": [
    {
      "name": "Air Force Commander: Combat Arms Fighter Shooting Attack",
      "slug": "air-force-commander-combat-arms-fighter-shooting-attack",
      "service": "igdb"
    }
  ],
  "aliases": [],
  "shaders": [],
  "discord_id": "",
  "change_for": null
}