{
  "id": 135288,
  "name": "Prey: An Alien Encounter",
  "slug": "prey-an-alien-encounter",
  "year": 1993,
  "banner_url": "",
  "icon_url": "",
  "coverart": "https://lutris.net/media/igdb/cover_big/co1qp0.jpg",
  "platforms": [
    {
      "name": "Amiga"
    },
    {
      "name": "Amiga CD32"
    },
    {
      "name": "Commodore CDTV"
    }
  ],
  "provider_games": [
    {
      "name": "Prey: An Alien Encounter",
      "slug": "prey-an-alien-encounter",
      "service": "igdb"
    }
  ],
  "aliases": [],
  "shaders": [],
  "discord_id": "",
  "change_for": null
}