{
  "id": 173132,
  "name": "Midnight Calling: Jeronimo",
  "slug": "midnight-calling-jeronimo",
  "year": null,
  "banner_url": "",
  "icon_url": "",
  "coverart": "https://lutris.net/media/igdb/cover_big/co47vk.jpg",
  "platforms": [],
  "provider_games": [
    {
      "name": "Midnight Calling: Jeronimo",
      "slug": "midnight-calling-jeronimo",
      "service": "igdb"
    }
  ],
  "aliases": [],
  "shaders": [],
  "discord_id": "",
  "change_for": null
}