{
  "id": 127176,
  "name": "A.R.C. Squadron",
  "slug": "arc-squadron",
  "year": null,
  "banner_url": "",
  "icon_url": "",
  "coverart": null,
  "platforms": [],
  "provider_games": [
    {
      "name": "A.R.C. Squadron",
      "slug": "arc-squadron",
      "service": "igdb"
    }
  ],
  "aliases": [],
  "shaders": [],
  "discord_id": "",
  "change_for": null
}