{
  "id": 143685,
  "name": "Space Survival",
  "slug": "space-survival--1",
  "year": null,
  "banner_url": "",
  "icon_url": "",
  "coverart": "https://lutris.net/media/igdb/cover_big/co3ufs.jpg",
  "platforms": [],
  "provider_games": [
    {
      "name": "Space Survival",
      "slug": "space-survival--1",
      "service": "igdb"
    }
  ],
  "aliases": [],
  "shaders": [],
  "discord_id": "",
  "change_for": null
}