{
  "id": 119905,
  "name": "Core Awaken ~The Yuka~",
  "slug": "core-awaken-the-yuka",
  "year": null,
  "banner_url": "",
  "icon_url": "",
  "coverart": "https://lutris.net/media/igdb/cover_big/co6o42.jpg",
  "platforms": [],
  "provider_games": [
    {
      "name": "Core Awaken: The Yuka",
      "slug": "core-awaken-the-yuka",
      "service": "igdb"
    }
  ],
  "aliases": [],
  "shaders": [],
  "discord_id": "",
  "change_for": null
}