{
  "id": 200564,
  "name": "Secret Mission: The Forgotten Island",
  "slug": "secret-mission-the-forgotten-island",
  "year": 2022,
  "banner_url": "",
  "icon_url": "",
  "coverart": "https://lutris.net/media/igdb/cover_big/co4c4d.jpg",
  "platforms": [
    {
      "name": "Windows"
    }
  ],
  "provider_games": [
    {
      "name": "Secret Mission: The Forgotten Island",
      "slug": "secret-mission-the-forgotten-island",
      "service": "igdb"
    }
  ],
  "aliases": [],
  "shaders": [],
  "discord_id": "",
  "change_for": null
}