{
  "id": 109493,
  "name": "Weapons of Mythology: New Age",
  "slug": "weapons-of-mythology-new-age",
  "year": 2016,
  "banner_url": "",
  "icon_url": "",
  "coverart": "https://lutris.net/media/igdb/cover_big/co2fsl.jpg",
  "platforms": [
    {
      "name": "Windows"
    }
  ],
  "provider_games": [
    {
      "name": "Weapons of Mythology: New Age",
      "slug": "weapons-of-mythology-new-age",
      "service": "igdb"
    }
  ],
  "aliases": [],
  "shaders": [],
  "discord_id": "",
  "change_for": null
}