{
  "id": 9946,
  "name": "Once on a windswept night",
  "slug": "once-on-a-windswept-night",
  "year": 2017,
  "banner_url": "https://lutris.net/games/banner/once-on-a-windswept-night.jpg",
  "icon_url": "https://lutris.net/games/icon/once-on-a-windswept-night.png",
  "coverart": "https://lutris.net/media/igdb/cover_big/co22sf.jpg",
  "platforms": [
    {
      "name": "Linux"
    },
    {
      "name": "Mac"
    },
    {
      "name": "Windows"
    }
  ],
  "provider_games": [
    {
      "name": "Once on a windswept night",
      "slug": "585880",
      "service": "steam"
    },
    {
      "name": "Once On a Windswept Night",
      "slug": "once-on-a-windswept-night",
      "service": "igdb"
    }
  ],
  "aliases": [],
  "shaders": [],
  "discord_id": "",
  "change_for": null
}