{
  "id": 174998,
  "name": "Mystery Case Files: Moths to a Flame",
  "slug": "mystery-case-files-moths-to-a-flame",
  "year": null,
  "banner_url": "",
  "icon_url": "",
  "coverart": "https://lutris.net/media/igdb/cover_big/co48mv.jpg",
  "platforms": [],
  "provider_games": [
    {
      "name": "Mystery Case Files: Moths to a Flame",
      "slug": "mystery-case-files-moths-to-a-flame",
      "service": "igdb"
    }
  ],
  "aliases": [],
  "shaders": [],
  "discord_id": "",
  "change_for": null
}