{
  "id": 179520,
  "name": "Bitter Sweet Memories",
  "slug": "bitter-sweet-memories",
  "year": null,
  "banner_url": "",
  "icon_url": "",
  "coverart": null,
  "platforms": [],
  "provider_games": [
    {
      "name": "Bitter Sweet Memories",
      "slug": "bitter-sweet-memories",
      "service": "igdb"
    }
  ],
  "aliases": [],
  "shaders": [],
  "discord_id": "",
  "change_for": null
}