{
  "id": 119965,
  "name": "Ascent: The Space Game",
  "slug": "ascent-the-space-game--1",
  "year": 2016,
  "banner_url": "",
  "icon_url": "",
  "coverart": "https://lutris.net/media/igdb/cover_big/dqi72lzsvipxcfwpjpat.jpg",
  "platforms": [
    {
      "name": "Windows"
    }
  ],
  "provider_games": [
    {
      "name": "Ascent: The Space Game",
      "slug": "ascent-the-space-game--1",
      "service": "igdb"
    }
  ],
  "aliases": [],
  "shaders": [],
  "discord_id": "",
  "change_for": null
}