{
  "id": 75779,
  "name": "Mathosaurus",
  "slug": "mathosaurus",
  "year": null,
  "banner_url": "",
  "icon_url": "",
  "coverart": "https://lutris.net/media/igdb/cover_big/co7qcd.jpg",
  "platforms": [],
  "provider_games": [
    {
      "name": "Mathosaurus",
      "slug": "mathosaurus",
      "service": "igdb"
    }
  ],
  "aliases": [],
  "shaders": [],
  "discord_id": "",
  "change_for": null
}