{
  "id": 70414,
  "name": "What's Michael?",
  "slug": "whats-michael",
  "year": null,
  "banner_url": "",
  "icon_url": "",
  "coverart": "https://lutris.net/media/igdb/cover_big/co82ip.jpg",
  "platforms": [],
  "provider_games": [
    {
      "name": "What's Michael?",
      "slug": "whats-michael",
      "service": "igdb"
    }
  ],
  "aliases": [],
  "shaders": [],
  "discord_id": "",
  "change_for": null
}