{
  "id": 155652,
  "name": "Sense – 不祥的预感: A Cyberpunk Ghost Story",
  "slug": "sense-bu-xiang-de-yu-gan-a-cyberpunk-ghost-story",
  "year": 2020,
  "banner_url": "",
  "icon_url": "",
  "coverart": "https://lutris.net/media/igdb/cover_big/co1xgy.jpg",
  "platforms": [
    {
      "name": "Linux"
    },
    {
      "name": "Mac"
    },
    {
      "name": "Nintendo Switch"
    },
    {
      "name": "PlayStation Vita"
    },
    {
      "name": "Sony Playstation 4"
    },
    {
      "name": "Windows"
    },
    {
      "name": "Xbox One"
    }
  ],
  "provider_games": [
    {
      "name": "Sense – 不祥的预感: A Cyberpunk Ghost Story",
      "slug": "sense-bu-xiang-de-yu-gan-a-cyberpunk-ghost-story",
      "service": "igdb"
    }
  ],
  "aliases": [],
  "shaders": [],
  "discord_id": "",
  "change_for": null
}