{
  "id": 111728,
  "name": "Uta no Prince-sama: Sweet Serenade",
  "slug": "uta-no-prince-sama-sweet-serenade",
  "year": null,
  "banner_url": "",
  "icon_url": "",
  "coverart": "https://lutris.net/media/igdb/cover_big/vsxkpyaz3usdxk5dqfsv.jpg",
  "platforms": [],
  "provider_games": [
    {
      "name": "Uta no Prince-sama: Sweet Serenade",
      "slug": "uta-no-prince-sama-sweet-serenade",
      "service": "igdb"
    }
  ],
  "aliases": [],
  "shaders": [],
  "discord_id": "",
  "change_for": null
}