{
  "id": 108219,
  "name": "In The Crags",
  "slug": "in-the-crags",
  "year": null,
  "banner_url": "",
  "icon_url": "",
  "coverart": "https://lutris.net/media/igdb/cover_big/co2wl6.jpg",
  "platforms": [],
  "provider_games": [
    {
      "name": "In the Crags",
      "slug": "in-the-crags",
      "service": "igdb"
    }
  ],
  "aliases": [],
  "shaders": [],
  "discord_id": "",
  "change_for": null
}