{
  "id": 268080,
  "name": "Kyonshies 2",
  "slug": "kyonshies-2--1",
  "year": 1987,
  "banner_url": "",
  "icon_url": "",
  "coverart": null,
  "platforms": [
    {
      "name": "Family Computer"
    }
  ],
  "provider_games": [
    {
      "name": "Kyonshies 2",
      "slug": "kyonshies-2--1",
      "service": "igdb"
    }
  ],
  "aliases": [],
  "shaders": [],
  "discord_id": "",
  "change_for": null
}