{
  "id": 161673,
  "name": "Futanari of the Amazon",
  "slug": "futanari-of-the-amazon",
  "year": null,
  "banner_url": "",
  "icon_url": "",
  "coverart": "https://lutris.net/media/igdb/cover_big/co4012.jpg",
  "platforms": [],
  "provider_games": [
    {
      "name": "Futanari of the Amazon",
      "slug": "futanari-of-the-amazon",
      "service": "igdb"
    }
  ],
  "aliases": [],
  "shaders": [],
  "discord_id": "",
  "change_for": null
}