{
  "id": 111913,
  "name": "Tetsu Ikuzawa Kanshuu Meisha Retsuden: Greatest 70's",
  "slug": "tetsu-ikuzawa-kanshuu-meisha-retsuden-greatest-70-s",
  "year": 1997,
  "banner_url": "",
  "icon_url": "",
  "coverart": "https://lutris.net/media/igdb/cover_big/ohwp1cuuu2a9fsdjwjdd.jpg",
  "platforms": [
    {
      "name": "Sony PlayStation"
    }
  ],
  "provider_games": [
    {
      "name": "Tetsu Ikuzawa Kanshuu Meisha Retsuden: Greatest 70's",
      "slug": "tetsu-ikuzawa-kanshuu-meisha-retsuden-greatest-70-s",
      "service": "igdb"
    }
  ],
  "aliases": [],
  "shaders": [],
  "discord_id": "",
  "change_for": null
}