{
  "id": 9932,
  "game_id": 23987,
  "game_slug": "the-legend-of-kyrandia-hand-of-fate-book-two",
  "name": "The Legend of Kyrandia: Hand of Fate (Book Two)",
  "year": 1993,
  "user": "miky_kr5",
  "runner": "scummvm",
  "slug": "the-legend-of-kyrandia-hand-o-gog",
  "version": "GOG",
  "description": "",
  "notes": "",
  "credits": "",
  "created_at": "2018-08-29T01:27:37.471000Z",
  "updated_at": "2022-02-03T06:41:28.488325Z",
  "draft": false,
  "published": true,
  "published_by": null,
  "rating": "",
  "is_playable": null,
  "steamid": null,
  "gogid": 1207659813,
  "gogslug": "legend_of_kyrandia_hand_of_fate",
  "humbleid": "",
  "humblestoreid": "",
  "humblestoreid_real": "",
  "script": {
    "files": [
      {
        "file1": "N/A:Please select the GOG installer"
      },
      {
        "file2": "https://lutris.nyc3.digitaloceanspaces.com/tools/innoextract/innoextract-1.8-dev-2019-01-13-linux.tar.xz"
      }
    ],
    "game": {
      "game_id": "kyra2",
      "path": "$GAMEDIR",
      "subtitles": true
    },
    "installer": [
      {
        "extract": {
          "dst": "$CACHE",
          "file": "$file2"
        }
      },
      {
        "execute": {
          "args": "-d \"$CACHE\" \"$file1\"",
          "file": "$CACHE/innoextract"
        }
      },
      {
        "merge": {
          "dst": "$GAMEDIR",
          "src": "$CACHE/app"
        }
      }
    ]
  },
  "content": "files:\n- file1: N/A:Please select the GOG installer\n- file2: https://lutris.nyc3.digitaloceanspaces.com/tools/innoextract/innoextract-1.8-dev-2019-01-13-linux.tar.xz\ngame:\n  game_id: kyra2\n  path: $GAMEDIR\n  subtitles: true\ninstaller:\n- extract:\n    dst: $CACHE\n    file: $file2\n- execute:\n    args: -d \"$CACHE\" \"$file1\"\n    file: $CACHE/innoextract\n- merge:\n    dst: $GAMEDIR\n    src: $CACHE/app\n",
  "discord_id": ""
}