{
  "id": 165129,
  "name": "Endless Ocean 2: Adventures of the Deep",
  "slug": "endless-ocean-2-adventures-of-the-deep",
  "year": 2009,
  "banner_url": "",
  "icon_url": "",
  "coverart": "https://lutris.net/media/igdb/cover_big/co4cze.jpg",
  "platforms": [
    {
      "name": "Nintendo Wii"
    }
  ],
  "provider_games": [
    {
      "name": "Endless Ocean 2: Adventures of the Deep",
      "slug": "endless-ocean-2-adventures-of-the-deep",
      "service": "igdb"
    }
  ],
  "aliases": [],
  "shaders": [],
  "discord_id": "",
  "change_for": null
}