{
  "id": 39342,
  "name": "Nikki and The Robots",
  "slug": "nikki-and-the-robots",
  "year": 2012,
  "banner_url": "https://lutris.net/games/banner/nikki-and-the-robots.jpg",
  "icon_url": "",
  "coverart": null,
  "platforms": [
    {
      "name": "Linux"
    },
    {
      "name": "Windows"
    }
  ],
  "provider_games": [],
  "aliases": [],
  "shaders": [],
  "discord_id": "",
  "change_for": null
}