{
  "id": 101618,
  "name": "The Monitor Puzzle Kineko: Kinetic Connection",
  "slug": "the-monitor-puzzle-kineko-kinetic-connection",
  "year": 1986,
  "banner_url": "",
  "icon_url": "",
  "coverart": "https://lutris.net/media/igdb/cover_big/vuhzhszxixltexakbryc.jpg",
  "platforms": [
    {
      "name": "Family Computer Disk System"
    }
  ],
  "provider_games": [
    {
      "name": "The Monitor Puzzle Kineko: Kinetic Connection",
      "slug": "the-monitor-puzzle-kineko-kinetic-connection",
      "service": "igdb"
    }
  ],
  "aliases": [],
  "shaders": [],
  "discord_id": "",
  "change_for": null
}