{
  "id": 68046,
  "name": "Whirlwind",
  "slug": "whirlwind",
  "year": null,
  "banner_url": "",
  "icon_url": "",
  "coverart": "https://lutris.net/media/igdb/cover_big/aoia2qlu02wwd2xbx8mc.jpg",
  "platforms": [],
  "provider_games": [
    {
      "name": "Whirlwind",
      "slug": "whirlwind",
      "service": "igdb"
    }
  ],
  "aliases": [],
  "shaders": [],
  "discord_id": "",
  "change_for": null
}