{
  "id": 66567,
  "name": "Jewels 20",
  "slug": "jewels-20",
  "year": null,
  "banner_url": "",
  "icon_url": "",
  "coverart": null,
  "platforms": [],
  "provider_games": [
    {
      "name": "Jewels 20",
      "slug": "jewels-20",
      "service": "igdb"
    }
  ],
  "aliases": [],
  "shaders": [],
  "discord_id": "",
  "change_for": null
}