{
  "id": 228071,
  "name": "Wings of Glory",
  "slug": "wings-of-glory--1",
  "year": null,
  "banner_url": "",
  "icon_url": "",
  "coverart": "https://lutris.net/media/igdb/cover_big/co51wi.jpg",
  "platforms": [],
  "provider_games": [
    {
      "name": "Wings of Glory",
      "slug": "wings-of-glory--1",
      "service": "igdb"
    }
  ],
  "aliases": [],
  "shaders": [],
  "discord_id": "",
  "change_for": null
}