{
  "id": 58845,
  "name": "Bima-X",
  "slug": "bima-x",
  "year": null,
  "banner_url": "",
  "icon_url": "",
  "coverart": "https://lutris.net/media/igdb/cover_big/xwrhh93u3twdcjpevojk.jpg",
  "platforms": [],
  "provider_games": [
    {
      "name": "Bima-X",
      "slug": "bima-x",
      "service": "igdb"
    }
  ],
  "aliases": [],
  "shaders": [],
  "discord_id": "",
  "change_for": null
}