{
  "id": 75275,
  "name": "Braains.io",
  "slug": "braains-dot-io",
  "year": null,
  "banner_url": "",
  "icon_url": "",
  "coverart": null,
  "platforms": [],
  "provider_games": [
    {
      "name": "Braains.io",
      "slug": "braains-dot-io",
      "service": "igdb"
    }
  ],
  "aliases": [],
  "shaders": [],
  "discord_id": "",
  "change_for": null
}