{
  "id": 189144,
  "name": "Far Cry Instincts: Evolution",
  "slug": "far-cry-instincts-evolution",
  "year": 2006,
  "banner_url": "",
  "icon_url": "",
  "coverart": "https://lutris.net/media/igdb/cover_big/co4aoa.jpg",
  "platforms": [],
  "provider_games": [
    {
      "name": "Far Cry Instincts: Evolution",
      "slug": "far-cry-instincts-evolution",
      "service": "igdb"
    }
  ],
  "aliases": [],
  "shaders": [],
  "discord_id": "",
  "change_for": null
}