{
  "id": 272959,
  "name": "La Voix",
  "slug": "la-voix",
  "year": null,
  "banner_url": "",
  "icon_url": "",
  "coverart": "https://lutris.net/media/igdb/cover_big/co7quw.jpg",
  "platforms": [],
  "provider_games": [
    {
      "name": "La Voix",
      "slug": "la-voix",
      "service": "igdb"
    }
  ],
  "aliases": [],
  "shaders": [],
  "discord_id": "",
  "change_for": null
}