{
  "id": 260545,
  "name": "Jianghu Road",
  "slug": "jianghu-road",
  "year": null,
  "banner_url": "",
  "icon_url": "",
  "coverart": "https://lutris.net/media/igdb/cover_big/co72w6.jpg",
  "platforms": [],
  "provider_games": [
    {
      "name": "Jianghu Road",
      "slug": "jianghu-road",
      "service": "igdb"
    }
  ],
  "aliases": [],
  "shaders": [],
  "discord_id": "",
  "change_for": null
}