{
  "id": 216006,
  "name": "Super Snow Tubes",
  "slug": "super-snow-tubes",
  "year": null,
  "banner_url": "",
  "icon_url": "",
  "coverart": "https://lutris.net/media/igdb/cover_big/co58h3.jpg",
  "platforms": [],
  "provider_games": [
    {
      "name": "Super Snow Tubes",
      "slug": "super-snow-tubes",
      "service": "igdb"
    }
  ],
  "aliases": [],
  "shaders": [],
  "discord_id": "",
  "change_for": null
}