{
  "id": 11670,
  "name": "KEK Story",
  "slug": "kek-story",
  "year": null,
  "banner_url": "https://lutris.net/games/banner/kek-story.jpg",
  "icon_url": "https://lutris.net/games/icon/kek-story.png",
  "coverart": null,
  "platforms": [],
  "provider_games": [],
  "aliases": [],
  "shaders": [],
  "discord_id": "",
  "change_for": null
}