{
  "id": 49717,
  "name": "Gothic 3: Gold Edition",
  "slug": "gothic-3-gold-edition",
  "year": null,
  "banner_url": "",
  "icon_url": "",
  "coverart": "https://lutris.net/media/igdb/cover_big/co25om.jpg",
  "platforms": [],
  "provider_games": [
    {
      "name": "Gothic 3: Gold Edition",
      "slug": "gothic-3-gold-edition",
      "service": "igdb"
    }
  ],
  "aliases": [],
  "shaders": [],
  "discord_id": "",
  "change_for": null
}