{
  "id": 151274,
  "name": "OnlyGame: Athlete Girls",
  "slug": "onlygame-athlete-girls",
  "year": 2021,
  "banner_url": "",
  "icon_url": "",
  "coverart": "https://lutris.net/media/igdb/cover_big/co3v6g.jpg",
  "platforms": [
    {
      "name": "Windows"
    }
  ],
  "provider_games": [
    {
      "name": "OnlyGame: Athlete Girls",
      "slug": "onlygame-athlete-girls",
      "service": "igdb"
    }
  ],
  "aliases": [],
  "shaders": [],
  "discord_id": "",
  "change_for": null
}