{
  "id": 259080,
  "name": "Tawamu i-call",
  "slug": "tawamu-i-call",
  "year": 2022,
  "banner_url": "",
  "icon_url": "",
  "coverart": null,
  "platforms": [
    {
      "name": "Mac"
    },
    {
      "name": "Windows"
    }
  ],
  "provider_games": [
    {
      "name": "Tawamu i-call",
      "slug": "tawamu-i-call",
      "service": "igdb"
    }
  ],
  "aliases": [],
  "shaders": [],
  "discord_id": "",
  "change_for": null
}