{
  "id": 27208,
  "name": "Shadow Legend VR",
  "slug": "shadow-legend-vr",
  "year": 2019,
  "banner_url": "https://lutris.net/games/banner/shadow-legend-vr.jpg",
  "icon_url": "https://lutris.net/games/icon/shadow-legend-vr.png",
  "coverart": "https://lutris.net/media/igdb/cover_big/co40zl.jpg",
  "platforms": [
    {
      "name": "PlayStation VR"
    },
    {
      "name": "Sony Playstation 4"
    },
    {
      "name": "Windows"
    }
  ],
  "provider_games": [
    {
      "name": "Shadow Legend VR",
      "slug": "987230",
      "service": "steam"
    },
    {
      "name": "Shadow Legend VR",
      "slug": "shadow-legend-vr",
      "service": "igdb"
    }
  ],
  "aliases": [],
  "shaders": [],
  "discord_id": "",
  "change_for": null
}