{
  "id": 87031,
  "name": "Word Wow - Help a worm out!",
  "slug": "word-wow-help-a-worm-out",
  "year": null,
  "banner_url": "",
  "icon_url": "",
  "coverart": null,
  "platforms": [],
  "provider_games": [
    {
      "name": "Word Wow - Help a worm out!",
      "slug": "word-wow-help-a-worm-out",
      "service": "igdb"
    }
  ],
  "aliases": [],
  "shaders": [],
  "discord_id": "",
  "change_for": null
}