{
  "id": 38483,
  "game_id": 283921,
  "game_slug": "pixel-puzzles-musical",
  "name": "Pixel Puzzles Musical",
  "year": 2024,
  "user": "vanstaveren",
  "runner": "steam",
  "slug": "pixel-puzzles-musical-steam",
  "version": "steam",
  "description": "",
  "notes": "",
  "credits": "",
  "created_at": "2024-05-19T21:45:26.248997Z",
  "updated_at": "2024-05-19T21:45:26.249023Z",
  "draft": false,
  "published": true,
  "published_by": null,
  "rating": "",
  "is_playable": null,
  "steamid": 1005230,
  "gogid": null,
  "gogslug": "",
  "humbleid": "",
  "humblestoreid": "",
  "humblestoreid_real": "",
  "script": {
    "game": {
      "appid": 1005230
    }
  },
  "content": "game:\n  appid: 1005230\n",
  "discord_id": ""
}