{
  "id": 50037,
  "name": "THIEF: Master Thief Edition",
  "slug": "thief-master-thief-edition",
  "year": 2014,
  "banner_url": "",
  "icon_url": "",
  "coverart": "https://lutris.net/media/igdb/cover_big/co2czi.jpg",
  "platforms": [
    {
      "name": "Windows"
    }
  ],
  "provider_games": [
    {
      "name": "Thief: Master Thief Edition",
      "slug": "thief-master-thief-edition",
      "service": "igdb"
    }
  ],
  "aliases": [],
  "shaders": [],
  "discord_id": "",
  "change_for": null
}