{
  "id": 96111,
  "name": "GT Drift: Max Race Car",
  "slug": "gt-drift-max-race-car",
  "year": null,
  "banner_url": "",
  "icon_url": "",
  "coverart": null,
  "platforms": [],
  "provider_games": [
    {
      "name": "GT Drift: Max Race Car",
      "slug": "gt-drift-max-race-car",
      "service": "igdb"
    }
  ],
  "aliases": [],
  "shaders": [],
  "discord_id": "",
  "change_for": null
}