{
  "id": 149098,
  "name": "Violet Girl",
  "slug": "violet-girl",
  "year": null,
  "banner_url": "",
  "icon_url": "",
  "coverart": "https://lutris.net/media/igdb/cover_big/co3tic.jpg",
  "platforms": [],
  "provider_games": [
    {
      "name": "Violet Girl",
      "slug": "violet-girl",
      "service": "igdb"
    }
  ],
  "aliases": [],
  "shaders": [],
  "discord_id": "",
  "change_for": null
}