{
  "id": 13256,
  "name": "Ping",
  "slug": "ping",
  "year": null,
  "banner_url": "https://lutris.net/games/banner/ping.jpg",
  "icon_url": "https://lutris.net/games/icon/ping.png",
  "coverart": "https://lutris.net/media/igdb/cover_big/ejwiiwto19hlv6qay6ak.jpg",
  "platforms": [],
  "provider_games": [
    {
      "name": "Ping",
      "slug": "655280",
      "service": "steam"
    },
    {
      "name": "Ping!",
      "slug": "ping",
      "service": "igdb"
    }
  ],
  "aliases": [],
  "shaders": [],
  "discord_id": "",
  "change_for": null
}