{
  "id": 5901,
  "game_id": 401,
  "game_slug": "prince-of-persia-the-two-thrones",
  "name": "Prince of Persia: The Two Thrones",
  "year": 2005,
  "user": "king_dick",
  "runner": "steam",
  "slug": "prince-of-persia-the-two-thro-proton",
  "version": "Proton",
  "description": "",
  "notes": "",
  "credits": "",
  "created_at": "2017-10-05T07:20:04.324000Z",
  "updated_at": "2021-05-04T02:43:05.012934Z",
  "draft": false,
  "published": true,
  "published_by": null,
  "rating": "",
  "is_playable": null,
  "steamid": 13530,
  "gogid": 1207659091,
  "gogslug": "prince_of_persia_the_two_thrones",
  "humbleid": "",
  "humblestoreid": "",
  "humblestoreid_real": "",
  "script": {
    "game": {
      "appid": 13530
    }
  },
  "content": "game:\n  appid: 13530\n",
  "discord_id": ""
}