{
  "id": 252638,
  "name": "Sweet Girl Gurumelo",
  "slug": "sweet-girl-gurumelo",
  "year": null,
  "banner_url": "",
  "icon_url": "",
  "coverart": "https://lutris.net/media/igdb/cover_big/co6up3.jpg",
  "platforms": [],
  "provider_games": [
    {
      "name": "Sweet Girl Gurumelo",
      "slug": "sweet-girl-gurumelo",
      "service": "igdb"
    }
  ],
  "aliases": [],
  "shaders": [],
  "discord_id": "",
  "change_for": null
}