{
  "id": 164622,
  "name": "Hamster Scramble",
  "slug": "hamster-scramble",
  "year": null,
  "banner_url": "",
  "icon_url": "",
  "coverart": "https://lutris.net/media/igdb/cover_big/co41kq.jpg",
  "platforms": [],
  "provider_games": [
    {
      "name": "Hamster Scramble",
      "slug": "hamster-scramble",
      "service": "igdb"
    }
  ],
  "aliases": [],
  "shaders": [],
  "discord_id": "",
  "change_for": null
}