{
  "id": 57198,
  "name": "Snake & Snake",
  "slug": "snake-and-snake",
  "year": null,
  "banner_url": "",
  "icon_url": "",
  "coverart": "https://lutris.net/media/igdb/cover_big/bec5hkgeg4rohdv62ywj.jpg",
  "platforms": [],
  "provider_games": [
    {
      "name": "Snake & Snake",
      "slug": "snake-and-snake",
      "service": "igdb"
    }
  ],
  "aliases": [],
  "shaders": [],
  "discord_id": "",
  "change_for": null
}