{
  "id": 83415,
  "name": "WIND Runner Adventure",
  "slug": "wind-runner-adventure",
  "year": 2016,
  "banner_url": "",
  "icon_url": "",
  "coverart": null,
  "platforms": [
    {
      "name": "Android"
    }
  ],
  "provider_games": [
    {
      "name": "Wind Runner Adventure",
      "slug": "wind-runner-adventure",
      "service": "igdb"
    }
  ],
  "aliases": [],
  "shaders": [],
  "discord_id": "",
  "change_for": null
}