{
  "id": 105945,
  "name": "Fighting Fantasy: Talisman Of Death",
  "slug": "fighting-fantasy-talisman-of-death",
  "year": 2011,
  "banner_url": "",
  "icon_url": "",
  "coverart": "https://lutris.net/media/igdb/cover_big/b8mcqutifboxf3uadvqc.jpg",
  "platforms": [
    {
      "name": "Sony PSP"
    }
  ],
  "provider_games": [
    {
      "name": "Fighting Fantasy: Talisman of Death",
      "slug": "fighting-fantasy-talisman-of-death",
      "service": "igdb"
    }
  ],
  "aliases": [],
  "shaders": [],
  "discord_id": "",
  "change_for": null
}