{
  "id": 16764,
  "name": "Sokoban",
  "slug": "sokoban",
  "year": 1984,
  "banner_url": "https://lutris.net/games/banner/sokoban.jpg",
  "icon_url": "",
  "coverart": "https://lutris.net/media/igdb/cover_big/gngk2uecww3qx6twwhvo.jpg",
  "platforms": [
    {
      "name": "Apple II"
    },
    {
      "name": "Commodore C64/128"
    },
    {
      "name": "FM-7"
    },
    {
      "name": "MS-DOS"
    },
    {
      "name": "MSX"
    },
    {
      "name": "NEC PC-6000 Series"
    },
    {
      "name": "PC-8801"
    },
    {
      "name": "SG-1000"
    },
    {
      "name": "Sharp X1"
    },
    {
      "name": "TRS-80 Color Computer"
    }
  ],
  "provider_games": [
    {
      "name": "Sokoban",
      "slug": "sokoban",
      "service": "igdb"
    }
  ],
  "aliases": [],
  "shaders": [],
  "discord_id": "",
  "change_for": null
}