{
  "id": 44849,
  "name": "Voidigo",
  "slug": "voidigo",
  "year": 2021,
  "banner_url": "https://lutris.net/games/banner/voidigo.jpg",
  "icon_url": "https://lutris.net/games/icon/voidigo.png",
  "coverart": "https://lutris.net/media/igdb/cover_big/co2ti5.jpg",
  "platforms": [
    {
      "name": "Windows"
    }
  ],
  "provider_games": [
    {
      "name": "Voidigo",
      "slug": "1304680",
      "service": "steam"
    },
    {
      "name": "Voidigo",
      "slug": "voidigo",
      "service": "igdb"
    }
  ],
  "aliases": [],
  "shaders": [],
  "discord_id": "",
  "change_for": null
}