{
  "id": 303643,
  "name": "Beach Outlet Simulator",
  "slug": "beach-outlet-simulator",
  "year": null,
  "banner_url": "",
  "icon_url": "",
  "coverart": "https://lutris.net/media/igdb/cover_big/co96qt.jpg",
  "platforms": [],
  "provider_games": [
    {
      "name": "Beach Outlet Simulator",
      "slug": "beach-outlet-simulator",
      "service": "igdb"
    }
  ],
  "aliases": [],
  "shaders": [],
  "discord_id": "",
  "change_for": null
}