{
  "id": 35396,
  "name": "Power Instinct 2",
  "slug": "power-instinct-2",
  "year": 1994,
  "banner_url": "https://lutris.net/games/banner/power-instinct-2.jpg",
  "icon_url": "https://lutris.net/games/icon/power-instinct-2.png",
  "coverart": "https://lutris.net/media/igdb/cover_big/co2pbp.jpg",
  "platforms": [
    {
      "name": "Arcade"
    }
  ],
  "provider_games": [
    {
      "name": "Power Instinct 2",
      "slug": "pwrinst2",
      "service": "mame"
    },
    {
      "name": "Power Instinct 2",
      "slug": "power-instinct-2",
      "service": "igdb"
    }
  ],
  "aliases": [],
  "shaders": [],
  "discord_id": "",
  "change_for": null
}