{
  "id": 204357,
  "name": "Sokpop S06: Klym",
  "slug": "sokpop-s06-klym",
  "year": null,
  "banner_url": "https://lutris.net/games/banner/sokpop-s06-klym.jpg",
  "icon_url": "https://lutris.net/games/icon/sokpop-s06-klym.png",
  "coverart": null,
  "platforms": [],
  "provider_games": [
    {
      "name": "Sokpop S06: Klym",
      "slug": "1207400",
      "service": "steam"
    }
  ],
  "aliases": [],
  "shaders": [],
  "discord_id": "",
  "change_for": null
}