{
  "id": 56763,
  "name": "Necrocosmos: There Is No God Up Here",
  "slug": "necrocosmos-there-is-no-god-up-here",
  "year": null,
  "banner_url": "",
  "icon_url": "",
  "coverart": "https://lutris.net/media/igdb/cover_big/gjzpwalfuwezgl5qwxtc.jpg",
  "platforms": [],
  "provider_games": [
    {
      "name": "Necrocosmos: There Is No God Up Here",
      "slug": "necrocosmos-there-is-no-god-up-here",
      "service": "igdb"
    }
  ],
  "aliases": [],
  "shaders": [],
  "discord_id": "",
  "change_for": null
}