{
  "id": 80343,
  "name": "Nightclub Imperium",
  "slug": "nightclub-imperium",
  "year": null,
  "banner_url": "",
  "icon_url": "",
  "coverart": "https://lutris.net/media/igdb/cover_big/co7uue.jpg",
  "platforms": [],
  "provider_games": [
    {
      "name": "Nightclub Imperium",
      "slug": "nightclub-imperium",
      "service": "igdb"
    }
  ],
  "aliases": [],
  "shaders": [],
  "discord_id": "",
  "change_for": null
}