{
  "id": 236329,
  "name": "Hoppin",
  "slug": "hoppin",
  "year": null,
  "banner_url": "",
  "icon_url": "",
  "coverart": "https://lutris.net/media/igdb/cover_big/co641h.jpg",
  "platforms": [],
  "provider_games": [
    {
      "name": "Hoppin",
      "slug": "hoppin",
      "service": "igdb"
    }
  ],
  "aliases": [],
  "shaders": [],
  "discord_id": "",
  "change_for": null
}