{
  "id": 77795,
  "name": "Kidz Sports Crazy Golf",
  "slug": "kidz-sports-crazy-golf",
  "year": 2008,
  "banner_url": "",
  "icon_url": "",
  "coverart": "https://lutris.net/media/igdb/cover_big/co25fs.jpg",
  "platforms": [
    {
      "name": "Nintendo Wii"
    }
  ],
  "provider_games": [
    {
      "name": "Kidz Sports Crazy Golf",
      "slug": "kidz-sports-crazy-golf",
      "service": "igdb"
    }
  ],
  "aliases": [],
  "shaders": [],
  "discord_id": "",
  "change_for": null
}