{
  "id": 202759,
  "name": "Splinters of Regret",
  "slug": "splinters-of-regret",
  "year": null,
  "banner_url": "",
  "icon_url": "",
  "coverart": "https://lutris.net/media/igdb/cover_big/co4jqx.jpg",
  "platforms": [],
  "provider_games": [
    {
      "name": "Splinters of Regret",
      "slug": "splinters-of-regret",
      "service": "igdb"
    }
  ],
  "aliases": [],
  "shaders": [],
  "discord_id": "",
  "change_for": null
}