{
  "id": 14634,
  "name": "Its Village",
  "slug": "its-village",
  "year": 2017,
  "banner_url": "https://lutris.net/games/banner/its-village.jpg",
  "icon_url": "https://lutris.net/games/icon/its-village.png",
  "coverart": "https://lutris.net/media/igdb/cover_big/co2bqz.jpg",
  "platforms": [
    {
      "name": "Windows"
    }
  ],
  "provider_games": [
    {
      "name": "Its Village",
      "slug": "its-village",
      "service": "igdb"
    }
  ],
  "aliases": [],
  "shaders": [],
  "discord_id": "",
  "change_for": null
}