{
  "id": 53006,
  "name": "Entombed",
  "slug": "entombed",
  "year": 1982,
  "banner_url": "",
  "icon_url": "",
  "coverart": "https://lutris.net/media/igdb/cover_big/essgvbvar0mbgoqs39xh.jpg",
  "platforms": [],
  "provider_games": [
    {
      "name": "Entombed",
      "slug": "entombed",
      "service": "igdb"
    }
  ],
  "aliases": [],
  "shaders": [],
  "discord_id": "",
  "change_for": null
}