{
  "id": 208689,
  "name": "Pneumata",
  "slug": "pneumata",
  "year": 2023,
  "banner_url": "",
  "icon_url": "",
  "coverart": "https://lutris.net/media/igdb/cover_big/co5pok.jpg",
  "platforms": [
    {
      "name": "Windows"
    }
  ],
  "provider_games": [
    {
      "name": "Pneumata",
      "slug": "pneumata",
      "service": "igdb"
    },
    {
      "name": "Pneumata",
      "slug": "1469060845",
      "service": "gog"
    }
  ],
  "aliases": [],
  "shaders": [],
  "discord_id": "",
  "change_for": null
}