{
  "id": 181373,
  "name": "Ghost of Tsushima: Director's Cut",
  "slug": "ghost-of-tsushima-directors-cut",
  "year": 2021,
  "banner_url": "https://lutris.net/games/banner/ghost-of-tsushima-directors-cut.jpg",
  "icon_url": "",
  "coverart": "https://lutris.net/media/igdb/cover_big/co3p5f.jpg",
  "platforms": [
    {
      "name": "Sony Playstation 4"
    },
    {
      "name": "Sony PlayStation 5"
    },
    {
      "name": "Windows"
    }
  ],
  "provider_games": [
    {
      "name": "Ghost of Tsushima: Director's Cut",
      "slug": "ghost-of-tsushima-directors-cut",
      "service": "igdb"
    }
  ],
  "aliases": [],
  "shaders": [],
  "discord_id": "",
  "change_for": null
}