{
  "id": 10393,
  "name": "White Night",
  "slug": "white-night",
  "year": 2015,
  "banner_url": "https://lutris.net/games/banner/white-night.jpg",
  "icon_url": "https://lutris.net/games/icon/white-night.png",
  "coverart": "https://lutris.net/media/igdb/cover_big/co1z4p.jpg",
  "platforms": [
    {
      "name": "Nintendo Switch"
    },
    {
      "name": "Sony Playstation 4"
    },
    {
      "name": "Windows"
    },
    {
      "name": "Xbox One"
    }
  ],
  "provider_games": [
    {
      "name": "White Night",
      "slug": "301560",
      "service": "steam"
    },
    {
      "name": "White Night",
      "slug": "white-night",
      "service": "igdb"
    }
  ],
  "aliases": [],
  "shaders": [],
  "discord_id": "",
  "change_for": null
}