{
  "id": 93120,
  "name": "Real Craft: City Builder",
  "slug": "real-craft-city-builder",
  "year": null,
  "banner_url": "",
  "icon_url": "",
  "coverart": null,
  "platforms": [],
  "provider_games": [
    {
      "name": "Real Craft: City Builder",
      "slug": "real-craft-city-builder",
      "service": "igdb"
    }
  ],
  "aliases": [],
  "shaders": [],
  "discord_id": "",
  "change_for": null
}