{
  "id": 112800,
  "name": "Super Ultra Star Shooter",
  "slug": "super-ultra-star-shooter",
  "year": 2017,
  "banner_url": "",
  "icon_url": "",
  "coverart": "https://lutris.net/media/igdb/cover_big/co4k41.jpg",
  "platforms": [
    {
      "name": "Nintendo Wii U"
    }
  ],
  "provider_games": [
    {
      "name": "Super Ultra Star Shooter",
      "slug": "super-ultra-star-shooter",
      "service": "igdb"
    }
  ],
  "aliases": [],
  "shaders": [],
  "discord_id": "",
  "change_for": null
}