{
  "id": 263252,
  "name": "The Cerpan Project",
  "slug": "the-cerpan-project",
  "year": null,
  "banner_url": "",
  "icon_url": "",
  "coverart": "https://lutris.net/media/igdb/cover_big/co79vt.jpg",
  "platforms": [],
  "provider_games": [
    {
      "name": "The Cerpan Project",
      "slug": "the-cerpan-project",
      "service": "igdb"
    }
  ],
  "aliases": [],
  "shaders": [],
  "discord_id": "",
  "change_for": null
}