{
  "id": 305090,
  "name": "CBeebies Playtime Island: Game",
  "slug": "cbeebies-playtime-island-game",
  "year": 2016,
  "banner_url": "",
  "icon_url": "",
  "coverart": null,
  "platforms": [
    {
      "name": "Android"
    }
  ],
  "provider_games": [
    {
      "name": "CBeebies Playtime Island: Game",
      "slug": "cbeebies-playtime-island-game",
      "service": "igdb"
    }
  ],
  "aliases": [],
  "shaders": [],
  "discord_id": "",
  "change_for": null
}