{
  "id": 39184,
  "name": "Talk To Me",
  "slug": "talk-to-me",
  "year": 2017,
  "banner_url": "https://lutris.net/games/banner/talk-to-me.jpg",
  "icon_url": "",
  "coverart": "https://lutris.net/media/igdb/cover_big/co29jl.jpg",
  "platforms": [
    {
      "name": "Linux"
    },
    {
      "name": "Mac"
    },
    {
      "name": "Windows"
    }
  ],
  "provider_games": [
    {
      "name": "Talk To Me",
      "slug": "talk-to-me",
      "service": "igdb"
    }
  ],
  "aliases": [],
  "shaders": [],
  "discord_id": "",
  "change_for": null
}