{
  "id": 183126,
  "name": "It All Boils Down To This",
  "slug": "it-all-boils-down-to-this",
  "year": null,
  "banner_url": "",
  "icon_url": "",
  "coverart": null,
  "platforms": [],
  "provider_games": [
    {
      "name": "It All Boils Down to This",
      "slug": "it-all-boils-down-to-this",
      "service": "igdb"
    }
  ],
  "aliases": [],
  "shaders": [],
  "discord_id": "",
  "change_for": null
}