{
  "id": 72157,
  "name": "Sega Worldwide Soccer PC",
  "slug": "sega-worldwide-soccer-pc",
  "year": null,
  "banner_url": "",
  "icon_url": "",
  "coverart": null,
  "platforms": [],
  "provider_games": [
    {
      "name": "Sega Worldwide Soccer PC",
      "slug": "sega-worldwide-soccer-pc",
      "service": "igdb"
    }
  ],
  "aliases": [],
  "shaders": [],
  "discord_id": "",
  "change_for": null
}