{
  "id": 190292,
  "name": "3D Chess: Nocca Nocca",
  "slug": "3d-chess-nocca-nocca",
  "year": 2021,
  "banner_url": "",
  "icon_url": "",
  "coverart": "https://lutris.net/media/igdb/cover_big/co390i.jpg",
  "platforms": [
    {
      "name": "Android"
    }
  ],
  "provider_games": [
    {
      "name": "3D Chess: Nocca Nocca",
      "slug": "3d-chess-nocca-nocca",
      "service": "igdb"
    }
  ],
  "aliases": [],
  "shaders": [],
  "discord_id": "",
  "change_for": null
}