{
  "id": 34166,
  "name": "Fun River",
  "slug": "fun-river",
  "year": 2005,
  "banner_url": "",
  "icon_url": "https://lutris.net/games/icon/fun-river.png",
  "coverart": null,
  "platforms": [
    {
      "name": "Arcade"
    }
  ],
  "provider_games": [
    {
      "name": "Fun River",
      "slug": "funriver",
      "service": "mame"
    }
  ],
  "aliases": [],
  "shaders": [],
  "discord_id": "",
  "change_for": null
}