{
  "id": 111777,
  "name": "My Pet Pony",
  "slug": "my-pet-pony",
  "year": null,
  "banner_url": "",
  "icon_url": "",
  "coverart": "https://lutris.net/media/igdb/cover_big/co30mj.jpg",
  "platforms": [],
  "provider_games": [
    {
      "name": "My Pet Pony",
      "slug": "my-pet-pony",
      "service": "igdb"
    }
  ],
  "aliases": [],
  "shaders": [],
  "discord_id": "",
  "change_for": null
}