{
  "id": 261045,
  "name": "EarthKart",
  "slug": "earthkart",
  "year": null,
  "banner_url": "",
  "icon_url": "",
  "coverart": "https://lutris.net/media/igdb/cover_big/co75e2.jpg",
  "platforms": [],
  "provider_games": [
    {
      "name": "EarthKart",
      "slug": "earthkart",
      "service": "igdb"
    }
  ],
  "aliases": [],
  "shaders": [],
  "discord_id": "",
  "change_for": null
}