{
  "id": 203035,
  "name": "The Battle Cats Unite!",
  "slug": "the-battle-cats-unite",
  "year": 2018,
  "banner_url": "",
  "icon_url": "",
  "coverart": null,
  "platforms": [
    {
      "name": "Nintendo Switch"
    }
  ],
  "provider_games": [
    {
      "name": "The Battle Cats Unite!",
      "slug": "the-battle-cats-unite",
      "service": "igdb"
    }
  ],
  "aliases": [],
  "shaders": [],
  "discord_id": "",
  "change_for": null
}