{
  "id": 291485,
  "name": "Don't Drop The Wall, Jack!",
  "slug": "dont-drop-the-wall-jack",
  "year": null,
  "banner_url": "",
  "icon_url": "",
  "coverart": "https://lutris.net/media/igdb/cover_big/co8kk1.jpg",
  "platforms": [],
  "provider_games": [
    {
      "name": "Don't Drop The Wall, Jack!",
      "slug": "dont-drop-the-wall-jack",
      "service": "igdb"
    }
  ],
  "aliases": [],
  "shaders": [],
  "discord_id": "",
  "change_for": null
}