{
  "id": 50977,
  "name": "Microsurgeon",
  "slug": "microsurgeon",
  "year": 1982,
  "banner_url": "",
  "icon_url": "",
  "coverart": "https://lutris.net/media/igdb/cover_big/co1pg9.jpg",
  "platforms": [
    {
      "name": "Intellivision"
    },
    {
      "name": "Texas Instruments TI-99"
    }
  ],
  "provider_games": [
    {
      "name": "Microsurgeon",
      "slug": "microsurgeon",
      "service": "igdb"
    }
  ],
  "aliases": [],
  "shaders": [],
  "discord_id": "",
  "change_for": null
}