{
  "id": 278142,
  "name": "Princess X FD: Fiancees Forever!",
  "slug": "princess-x-fd-fiancees-forever",
  "year": 2012,
  "banner_url": "https://lutris.net/games/banner/princess-x-fd-fiancees-forever.jpg",
  "icon_url": "",
  "coverart": null,
  "platforms": [
    {
      "name": "Windows"
    }
  ],
  "provider_games": [],
  "aliases": [],
  "shaders": [],
  "discord_id": "",
  "change_for": null
}