{
  "id": 36222,
  "name": "Truco-Tron",
  "slug": "truco-tron",
  "year": null,
  "banner_url": "",
  "icon_url": "https://lutris.net/games/icon/truco-tron.png",
  "coverart": null,
  "platforms": [
    {
      "name": "Arcade"
    }
  ],
  "provider_games": [
    {
      "name": "Truco-Tron",
      "slug": "truco",
      "service": "mame"
    }
  ],
  "aliases": [],
  "shaders": [],
  "discord_id": "",
  "change_for": null
}