{
  "id": 78288,
  "name": "Higurashi no Naku Koro ni Kizuna: Dainikan Sou",
  "slug": "higurashi-no-naku-koro-ni-kizuna-dainikan-sou",
  "year": null,
  "banner_url": "",
  "icon_url": "",
  "coverart": "https://lutris.net/media/igdb/cover_big/co6zcj.jpg",
  "platforms": [],
  "provider_games": [
    {
      "name": "Higurashi no Naku Koro ni Kizuna: Dainikan Sou",
      "slug": "higurashi-no-naku-koro-ni-kizuna-dainikan-sou",
      "service": "igdb"
    }
  ],
  "aliases": [],
  "shaders": [],
  "discord_id": "",
  "change_for": null
}