{
  "id": 21616,
  "name": "Tesseract VR",
  "slug": "tesseract-vr",
  "year": 2018,
  "banner_url": "https://lutris.net/games/banner/tesseract-vr.jpg",
  "icon_url": "https://lutris.net/games/icon/tesseract-vr.png",
  "coverart": null,
  "platforms": [
    {
      "name": "Windows"
    }
  ],
  "provider_games": [
    {
      "name": "Tesseract VR",
      "slug": "809150",
      "service": "steam"
    },
    {
      "name": "Tesseract VR",
      "slug": "tesseract-vr",
      "service": "igdb"
    }
  ],
  "aliases": [],
  "shaders": [],
  "discord_id": "",
  "change_for": null
}