{
  "id": 7362,
  "name": "Marine Park Empire",
  "slug": "marine-park-empire",
  "year": 2005,
  "banner_url": "https://lutris.net/games/banner/marine-park-empire.jpg",
  "icon_url": "https://lutris.net/games/icon/marine-park-empire.png",
  "coverart": "https://lutris.net/media/igdb/cover_big/nu3k53moe0rsbwhknsej.jpg",
  "platforms": [
    {
      "name": "Windows"
    }
  ],
  "provider_games": [
    {
      "name": "Marine Park Empire",
      "slug": "294730",
      "service": "steam"
    },
    {
      "name": "Marine Park Empire",
      "slug": "marine-park-empire",
      "service": "igdb"
    }
  ],
  "aliases": [],
  "shaders": [],
  "discord_id": "",
  "change_for": null
}