{
  "id": 20877,
  "name": "Death Squared",
  "slug": "death-squared",
  "year": 2017,
  "banner_url": "https://lutris.net/games/banner/death-squared.jpg",
  "icon_url": "https://lutris.net/games/icon/death-squared.png",
  "coverart": "https://lutris.net/media/igdb/cover_big/qrjrknu797scexyv0c0u.jpg",
  "platforms": [
    {
      "name": "Mac"
    },
    {
      "name": "Nintendo Switch"
    },
    {
      "name": "Sony Playstation 4"
    },
    {
      "name": "Windows"
    },
    {
      "name": "Xbox One"
    }
  ],
  "provider_games": [
    {
      "name": "Death Squared",
      "slug": "471810",
      "service": "steam"
    },
    {
      "name": "Death Squared",
      "slug": "death-squared",
      "service": "igdb"
    }
  ],
  "aliases": [],
  "shaders": [],
  "discord_id": "",
  "change_for": null
}