{
  "id": 35454,
  "name": "Rabbit",
  "slug": "rabbit",
  "year": 1997,
  "banner_url": "",
  "icon_url": "https://lutris.net/games/icon/rabbit.png",
  "coverart": "https://lutris.net/media/igdb/cover_big/mxapjlxxnwas4qc8myi7.jpg",
  "platforms": [
    {
      "name": "Arcade"
    },
    {
      "name": "Sega Saturn"
    }
  ],
  "provider_games": [
    {
      "name": "Rabbit",
      "slug": "rabbit",
      "service": "mame"
    },
    {
      "name": "Rabbit",
      "slug": "rabbit",
      "service": "igdb"
    }
  ],
  "aliases": [],
  "shaders": [],
  "discord_id": "",
  "change_for": null
}