{
  "id": 123996,
  "name": "IMAZE.EXE 2",
  "slug": "imaze-dot-exe-2",
  "year": null,
  "banner_url": "",
  "icon_url": "",
  "coverart": null,
  "platforms": [],
  "provider_games": [
    {
      "name": "Imaze.exe 2",
      "slug": "imaze-dot-exe-2",
      "service": "igdb"
    }
  ],
  "aliases": [],
  "shaders": [],
  "discord_id": "",
  "change_for": null
}