{
  "id": 112291,
  "name": "Escalation VR!",
  "slug": "escalation-vr",
  "year": 2021,
  "banner_url": "",
  "icon_url": "",
  "coverart": null,
  "platforms": [
    {
      "name": "SteamVR"
    }
  ],
  "provider_games": [
    {
      "name": "Escalation VR!",
      "slug": "escalation-vr",
      "service": "igdb"
    }
  ],
  "aliases": [],
  "shaders": [],
  "discord_id": "",
  "change_for": null
}