{
  "id": 238156,
  "name": "Balance 100",
  "slug": "balance-100",
  "year": null,
  "banner_url": "",
  "icon_url": "",
  "coverart": "https://lutris.net/media/igdb/cover_big/co64lg.jpg",
  "platforms": [],
  "provider_games": [
    {
      "name": "Balance 100",
      "slug": "balance-100",
      "service": "igdb"
    }
  ],
  "aliases": [],
  "shaders": [],
  "discord_id": "",
  "change_for": null
}