{
  "id": 3130,
  "name": "Back to Bed",
  "slug": "back-to-bed",
  "year": 2014,
  "banner_url": "https://lutris.net/games/banner/back-to-bed.jpg",
  "icon_url": "https://lutris.net/games/icon/back-to-bed.png",
  "coverart": "https://lutris.net/media/igdb/cover_big/co1klw.jpg",
  "platforms": [
    {
      "name": "Android"
    },
    {
      "name": "Linux"
    },
    {
      "name": "Mac"
    },
    {
      "name": "Nintendo Switch"
    },
    {
      "name": "Nintendo Wii U"
    },
    {
      "name": "Ouya"
    },
    {
      "name": "PlayStation Vita"
    },
    {
      "name": "Sony Playstation 3"
    },
    {
      "name": "Sony Playstation 4"
    },
    {
      "name": "Windows"
    },
    {
      "name": "Windows Phone"
    }
  ],
  "provider_games": [
    {
      "name": "Back to Bed",
      "slug": "308040",
      "service": "steam"
    },
    {
      "name": "Back to Bed",
      "slug": "back-to-bed",
      "service": "igdb"
    }
  ],
  "aliases": [],
  "shaders": [],
  "discord_id": "",
  "change_for": null
}