{
  "id": 68776,
  "name": "Sabrina, the Teenage Witch: Brat Attack",
  "slug": "sabrina-the-teenage-witch-brat-attack",
  "year": null,
  "banner_url": "",
  "icon_url": "",
  "coverart": "https://lutris.net/media/igdb/cover_big/rcml0mvcq6j0soflqu7r.jpg",
  "platforms": [],
  "provider_games": [
    {
      "name": "Sabrina, the Teenage Witch: Brat Attack",
      "slug": "sabrina-the-teenage-witch-brat-attack",
      "service": "igdb"
    }
  ],
  "aliases": [],
  "shaders": [],
  "discord_id": "",
  "change_for": null
}