{
  "id": 248887,
  "name": "Technophobia: Do Androids go to Heaven?",
  "slug": "technophobia-do-androids-go-to-heaven",
  "year": null,
  "banner_url": "",
  "icon_url": "",
  "coverart": "https://lutris.net/media/igdb/cover_big/co6n3e.jpg",
  "platforms": [],
  "provider_games": [
    {
      "name": "Technophobia: Do Androids go to Heaven?",
      "slug": "technophobia-do-androids-go-to-heaven",
      "service": "igdb"
    }
  ],
  "aliases": [],
  "shaders": [],
  "discord_id": "",
  "change_for": null
}