{
  "id": 238735,
  "name": "Spilled!",
  "slug": "spilled",
  "year": null,
  "banner_url": "",
  "icon_url": "",
  "coverart": "https://lutris.net/media/igdb/cover_big/co7aal.jpg",
  "platforms": [],
  "provider_games": [
    {
      "name": "Spilled!",
      "slug": "spilled",
      "service": "igdb"
    }
  ],
  "aliases": [],
  "shaders": [],
  "discord_id": "",
  "change_for": null
}