{
  "id": 193438,
  "name": "Batman and Robin",
  "slug": "batman-and-robin--1",
  "year": null,
  "banner_url": "",
  "icon_url": "",
  "coverart": "https://lutris.net/media/igdb/cover_big/co4qe6.jpg",
  "platforms": [],
  "provider_games": [
    {
      "name": "Batman & Robin",
      "slug": "batman-and-robin--1",
      "service": "igdb"
    }
  ],
  "aliases": [],
  "shaders": [],
  "discord_id": "",
  "change_for": null
}