{
  "id": 103966,
  "name": "Battle Royale",
  "slug": "battle-royale",
  "year": 1990,
  "banner_url": "",
  "icon_url": "",
  "coverart": "https://lutris.net/media/igdb/cover_big/co6xcb.jpg",
  "platforms": [
    {
      "name": "TurboGrafx-16/PC Engine"
    }
  ],
  "provider_games": [
    {
      "name": "Battle Royale",
      "slug": "battle-royale",
      "service": "igdb"
    }
  ],
  "aliases": [],
  "shaders": [],
  "discord_id": "",
  "change_for": null
}