{
  "id": 112547,
  "name": "Yume, Shosen Mousou",
  "slug": "yume-shosen-mousou",
  "year": 2010,
  "banner_url": "",
  "icon_url": "",
  "coverart": "https://lutris.net/media/igdb/cover_big/co31kz.jpg",
  "platforms": [
    {
      "name": "Windows"
    }
  ],
  "provider_games": [
    {
      "name": "Yume, Shosen Mousou",
      "slug": "yume-shosen-mousou",
      "service": "igdb"
    }
  ],
  "aliases": [],
  "shaders": [],
  "discord_id": "",
  "change_for": null
}