{
  "id": 109298,
  "name": "ABPA Backgammon",
  "slug": "abpa-backgammon",
  "year": 1979,
  "banner_url": "",
  "icon_url": "",
  "coverart": "https://lutris.net/media/igdb/cover_big/co1pj3.jpg",
  "platforms": [
    {
      "name": "Intellivision"
    }
  ],
  "provider_games": [
    {
      "name": "ABPA Backgammon",
      "slug": "abpa-backgammon",
      "service": "igdb"
    }
  ],
  "aliases": [],
  "shaders": [],
  "discord_id": "",
  "change_for": null
}