{
  "id": 107685,
  "name": "Tokimeki Memorial Private Collection",
  "slug": "tokimeki-memorial-private-collection",
  "year": 1996,
  "banner_url": "",
  "icon_url": "",
  "coverart": "https://lutris.net/media/igdb/cover_big/co2vko.jpg",
  "platforms": [
    {
      "name": "Sony PlayStation"
    }
  ],
  "provider_games": [
    {
      "name": "Tokimeki Memorial Private Collection",
      "slug": "tokimeki-memorial-private-collection",
      "service": "igdb"
    }
  ],
  "aliases": [],
  "shaders": [],
  "discord_id": "",
  "change_for": null
}