{
  "id": 174708,
  "name": "Tall Poppy",
  "slug": "tall-poppy",
  "year": 2019,
  "banner_url": "https://lutris.net/games/banner/tall-poppy.jpg",
  "icon_url": "",
  "coverart": "https://lutris.net/media/igdb/cover_big/co3vzy.jpg",
  "platforms": [
    {
      "name": "Windows"
    }
  ],
  "provider_games": [
    {
      "name": "Tall Poppy",
      "slug": "tall-poppy",
      "service": "igdb"
    },
    {
      "name": "Tall Poppy",
      "slug": "1814770",
      "service": "steam"
    }
  ],
  "aliases": [],
  "shaders": [],
  "discord_id": "",
  "change_for": null
}