{
  "id": 277572,
  "name": "Billy's Game Show",
  "slug": "billys-game-show",
  "year": null,
  "banner_url": "",
  "icon_url": "",
  "coverart": "https://lutris.net/media/igdb/cover_big/co7w53.jpg",
  "platforms": [],
  "provider_games": [
    {
      "name": "Billy's Game Show",
      "slug": "billys-game-show",
      "service": "igdb"
    }
  ],
  "aliases": [],
  "shaders": [],
  "discord_id": "",
  "change_for": null
}