{
  "id": 44621,
  "name": "Exo One",
  "slug": "exo-one",
  "year": null,
  "banner_url": "https://lutris.net/games/banner/exo-one.jpg",
  "icon_url": "https://lutris.net/games/icon/exo-one.png",
  "coverart": null,
  "platforms": [],
  "provider_games": [
    {
      "name": "Exo One",
      "slug": "773370",
      "service": "steam"
    }
  ],
  "aliases": [],
  "shaders": [],
  "discord_id": "",
  "change_for": null
}