{
  "id": 259766,
  "name": "Welly Wang VR",
  "slug": "welly-wang-vr",
  "year": null,
  "banner_url": "",
  "icon_url": "",
  "coverart": "https://lutris.net/media/igdb/cover_big/co742t.jpg",
  "platforms": [],
  "provider_games": [
    {
      "name": "Welly Wang VR",
      "slug": "welly-wang-vr",
      "service": "igdb"
    }
  ],
  "aliases": [],
  "shaders": [],
  "discord_id": "",
  "change_for": null
}