{
  "id": 115774,
  "name": "Drawngeon: Dungeons of Ink and Paper",
  "slug": "drawngeon-dungeons-of-ink-and-paper",
  "year": 2019,
  "banner_url": "",
  "icon_url": "",
  "coverart": "https://lutris.net/media/igdb/cover_big/co2kgg.jpg",
  "platforms": [
    {
      "name": "Nintendo Switch"
    },
    {
      "name": "Sony Playstation 4"
    },
    {
      "name": "Windows"
    },
    {
      "name": "Xbox One"
    }
  ],
  "provider_games": [
    {
      "name": "Drawngeon: Dungeons of Ink and Paper",
      "slug": "drawngeon-dungeons-of-ink-and-paper",
      "service": "igdb"
    }
  ],
  "aliases": [],
  "shaders": [],
  "discord_id": "",
  "change_for": null
}