{
  "id": 111929,
  "name": "Nat Geo Challenge! Wild Life",
  "slug": "nat-geo-challenge-wild-life",
  "year": 2010,
  "banner_url": "",
  "icon_url": "",
  "coverart": "https://lutris.net/media/igdb/cover_big/rpirokimf8cxezajkaoe.jpg",
  "platforms": [
    {
      "name": "Nintendo Wii"
    },
    {
      "name": "Sony Playstation 3"
    }
  ],
  "provider_games": [
    {
      "name": "Nat Geo Challenge! Wild Life",
      "slug": "nat-geo-challenge-wild-life",
      "service": "igdb"
    }
  ],
  "aliases": [],
  "shaders": [],
  "discord_id": "",
  "change_for": null
}