{
  "id": 7227,
  "game_id": 1823,
  "game_slug": "lego-racers",
  "name": "Lego Racers",
  "year": 1999,
  "user": "t-rex91",
  "runner": "libretro",
  "slug": "lego-racers-playstation",
  "version": "Playstation",
  "description": null,
  "notes": "",
  "credits": "",
  "created_at": "2018-02-02T20:05:07.416792Z",
  "updated_at": "2018-02-03T18:59:52.408157Z",
  "draft": false,
  "published": true,
  "published_by": null,
  "rating": "",
  "is_playable": null,
  "steamid": null,
  "gogid": null,
  "gogslug": "",
  "humbleid": "",
  "humblestoreid": "",
  "humblestoreid_real": "",
  "script": {
    "files": [
      {
        "file1": "N/A:Please select the PlayStation image file"
      }
    ],
    "game": {
      "core": "mednafen_psx_hw",
      "main_file": "file1"
    },
    "installer": [
      {
        "merge": {
          "dst": "$GAMEDIR",
          "src": "file1"
        }
      }
    ]
  },
  "content": "files:\n- file1: N/A:Please select the PlayStation image file\ngame:\n  core: mednafen_psx_hw\n  main_file: file1\ninstaller:\n- merge:\n    dst: $GAMEDIR\n    src: file1\n",
  "discord_id": ""
}