{
  "id": 200589,
  "name": "Free Heroes of Might and Magic II: Resurrection",
  "slug": "free-heroes-of-might-and-magic-ii-resurrection",
  "year": 2019,
  "banner_url": "",
  "icon_url": "",
  "coverart": "https://lutris.net/media/igdb/cover_big/co4bsu.jpg",
  "platforms": [
    {
      "name": "Windows"
    }
  ],
  "provider_games": [
    {
      "name": "Free Heroes of Might and Magic II: Resurrection",
      "slug": "free-heroes-of-might-and-magic-ii-resurrection",
      "service": "igdb"
    }
  ],
  "aliases": [],
  "shaders": [],
  "discord_id": "",
  "change_for": null
}