{
  "id": 13455,
  "name": "Party Hard 2",
  "slug": "party-hard-2",
  "year": 2018,
  "banner_url": "https://lutris.net/games/banner/party-hard-2.jpg",
  "icon_url": "https://lutris.net/games/icon/party-hard-2.png",
  "coverart": "https://lutris.net/media/igdb/cover_big/co1xd2.jpg",
  "platforms": [
    {
      "name": "Nintendo Switch"
    },
    {
      "name": "Sony Playstation 4"
    },
    {
      "name": "Windows"
    },
    {
      "name": "Xbox One"
    }
  ],
  "provider_games": [
    {
      "name": "Party Hard 2",
      "slug": "2028010515",
      "service": "gog"
    },
    {
      "name": "Party Hard 2 ",
      "slug": "572430",
      "service": "steam"
    },
    {
      "name": "Party Hard 2",
      "slug": "party-hard-2",
      "service": "igdb"
    }
  ],
  "aliases": [],
  "shaders": [],
  "discord_id": "",
  "change_for": null
}