{
  "id": 14046,
  "name": "Pokémon Crystal Version",
  "slug": "pokemon-crystal-version",
  "year": 2000,
  "banner_url": "https://lutris.net/games/banner/pokemon-crystal-version.jpg",
  "icon_url": "",
  "coverart": null,
  "platforms": [
    {
      "name": "Nintendo Game Boy Color"
    }
  ],
  "provider_games": [],
  "aliases": [],
  "shaders": [],
  "discord_id": "",
  "change_for": null
}