{
  "id": 107440,
  "name": "SeaWorld Adventure Parks Tycoon",
  "slug": "seaworld-adventure-parks-tycoon",
  "year": 2003,
  "banner_url": "",
  "icon_url": "",
  "coverart": "https://lutris.net/media/igdb/cover_big/e8veqm5ymublh7rvknak.jpg",
  "platforms": [
    {
      "name": "Windows"
    }
  ],
  "provider_games": [
    {
      "name": "SeaWorld Adventure Parks Tycoon",
      "slug": "seaworld-adventure-parks-tycoon",
      "service": "igdb"
    }
  ],
  "aliases": [],
  "shaders": [],
  "discord_id": "",
  "change_for": null
}