{
  "id": 120925,
  "name": "Flying Baron 1916",
  "slug": "flying-baron-1916",
  "year": 2016,
  "banner_url": "",
  "icon_url": "",
  "coverart": null,
  "platforms": [
    {
      "name": "Windows"
    }
  ],
  "provider_games": [
    {
      "name": "Flying Baron 1916",
      "slug": "flying-baron-1916",
      "service": "igdb"
    }
  ],
  "aliases": [],
  "shaders": [],
  "discord_id": "",
  "change_for": null
}