{
  "id": 53765,
  "name": "Sylphia",
  "slug": "sylphia",
  "year": null,
  "banner_url": "",
  "icon_url": "",
  "coverart": "https://lutris.net/media/igdb/cover_big/oychapch4pxkilkzbc6s.jpg",
  "platforms": [],
  "provider_games": [
    {
      "name": "Sylphia",
      "slug": "sylphia",
      "service": "igdb"
    }
  ],
  "aliases": [],
  "shaders": [],
  "discord_id": "",
  "change_for": null
}