{
  "id": 231452,
  "name": "Jigsaw Puzzles: Fantasy Landscapes",
  "slug": "jigsaw-puzzles-fantasy-landscapes",
  "year": null,
  "banner_url": "",
  "icon_url": "",
  "coverart": "https://lutris.net/media/igdb/cover_big/co67s3.jpg",
  "platforms": [],
  "provider_games": [
    {
      "name": "Jigsaw Puzzles: Fantasy Landscapes",
      "slug": "jigsaw-puzzles-fantasy-landscapes",
      "service": "igdb"
    }
  ],
  "aliases": [],
  "shaders": [],
  "discord_id": "",
  "change_for": null
}