{
  "id": 80119,
  "name": "Jewelpet: Magical Dance in Style Deco!",
  "slug": "jewelpet-magical-dance-in-style-deco",
  "year": 2012,
  "banner_url": "",
  "icon_url": "",
  "coverart": "https://lutris.net/media/igdb/cover_big/ft0hqkqbmh2pspoodr4y.jpg",
  "platforms": [
    {
      "name": "Nintendo 3DS"
    }
  ],
  "provider_games": [
    {
      "name": "Jewelpet: Magical Dance in Style Deco!",
      "slug": "jewelpet-magical-dance-in-style-deco",
      "service": "igdb"
    }
  ],
  "aliases": [],
  "shaders": [],
  "discord_id": "",
  "change_for": null
}