{
  "id": 47361,
  "name": "Luv Me Buddies Wonderland",
  "slug": "luv-me-buddies-wonderland--1",
  "year": 2015,
  "banner_url": "",
  "icon_url": "",
  "coverart": "https://lutris.net/media/igdb/cover_big/co674n.jpg",
  "platforms": [
    {
      "name": "Nintendo 3DS"
    }
  ],
  "provider_games": [
    {
      "name": "Luv Me Buddies Wonderland",
      "slug": "luv-me-buddies-wonderland--1",
      "service": "igdb"
    }
  ],
  "aliases": [],
  "shaders": [],
  "discord_id": "",
  "change_for": null
}