{
  "id": 93301,
  "name": "Dark Cut 3",
  "slug": "dark-cut-3",
  "year": null,
  "banner_url": "",
  "icon_url": "",
  "coverart": "https://lutris.net/media/igdb/cover_big/co9cs2.jpg",
  "platforms": [],
  "provider_games": [
    {
      "name": "Dark Cut 3",
      "slug": "dark-cut-3",
      "service": "igdb"
    }
  ],
  "aliases": [],
  "shaders": [],
  "discord_id": "",
  "change_for": null
}