{
  "id": 115132,
  "name": "The Real Man Summer Championship 2019",
  "slug": "the-real-man-summer-championship-2019",
  "year": 2019,
  "banner_url": "",
  "icon_url": "",
  "coverart": "https://lutris.net/media/igdb/cover_big/co2t20.jpg",
  "platforms": [
    {
      "name": "Windows"
    }
  ],
  "provider_games": [
    {
      "name": "The Real Man Summer Championship 2019",
      "slug": "the-real-man-summer-championship-2019",
      "service": "igdb"
    }
  ],
  "aliases": [],
  "shaders": [],
  "discord_id": "",
  "change_for": null
}