{
  "id": 200444,
  "name": "Rome 2077: Tactics",
  "slug": "rome-2077-tactics",
  "year": null,
  "banner_url": "",
  "icon_url": "",
  "coverart": "https://lutris.net/media/igdb/cover_big/co4d6p.jpg",
  "platforms": [],
  "provider_games": [
    {
      "name": "Rome 2077: Tactics",
      "slug": "rome-2077-tactics",
      "service": "igdb"
    }
  ],
  "aliases": [],
  "shaders": [],
  "discord_id": "",
  "change_for": null
}