{
  "id": 169983,
  "name": "The Island of Spirits",
  "slug": "the-island-of-spirits",
  "year": null,
  "banner_url": "",
  "icon_url": "",
  "coverart": "https://lutris.net/media/igdb/cover_big/co4690.jpg",
  "platforms": [],
  "provider_games": [
    {
      "name": "The Island of Spirits",
      "slug": "the-island-of-spirits",
      "service": "igdb"
    }
  ],
  "aliases": [],
  "shaders": [],
  "discord_id": "",
  "change_for": null
}