{
  "id": 210915,
  "name": "Reality Rash",
  "slug": "reality-rash",
  "year": null,
  "banner_url": "",
  "icon_url": "",
  "coverart": "https://lutris.net/media/igdb/cover_big/co5gcu.jpg",
  "platforms": [],
  "provider_games": [
    {
      "name": "Reality Rash",
      "slug": "reality-rash",
      "service": "igdb"
    }
  ],
  "aliases": [],
  "shaders": [],
  "discord_id": "",
  "change_for": null
}