{
  "id": 1565,
  "game_id": 563,
  "game_slug": "prey-2006",
  "name": "Prey (2006)",
  "year": 2006,
  "user": "strider",
  "runner": "linux",
  "slug": "prey-native",
  "version": "Native",
  "description": "",
  "notes": "",
  "credits": "",
  "created_at": "2015-07-23T08:50:50.978441Z",
  "updated_at": "2016-08-17T10:26:53.738652Z",
  "draft": false,
  "published": true,
  "published_by": null,
  "rating": "",
  "is_playable": null,
  "steamid": 3970,
  "gogid": null,
  "gogslug": "",
  "humbleid": "",
  "humblestoreid": "",
  "humblestoreid_real": "",
  "script": {
    "files": [
      {
        "installer": "http://icculus.org/prey/downloads/prey-installer-02192009.bin"
      }
    ],
    "game": {
      "exe": "$GAMEDIR/prey",
      "working_dir": "$GAMEDIR"
    },
    "installer": [
      {
        "insert-disc": {
          "message": "Please insert the Prey CD",
          "requires": "data2.cab"
        }
      },
      {
        "chmodx": "installer"
      },
      {
        "execute": {
          "args": "--destination=$GAMEDIR",
          "file": "installer"
        }
      }
    ],
    "system": {
      "terminal": true
    }
  },
  "content": "files:\n- installer: http://icculus.org/prey/downloads/prey-installer-02192009.bin\ngame:\n  exe: $GAMEDIR/prey\n  working_dir: $GAMEDIR\ninstaller:\n- insert-disc:\n    message: Please insert the Prey CD\n    requires: data2.cab\n- chmodx: installer\n- execute:\n    args: --destination=$GAMEDIR\n    file: installer\nsystem:\n  terminal: true\n",
  "discord_id": ""
}