{
  "id": 19891,
  "game_id": 563,
  "game_slug": "prey-2006",
  "name": "Prey (2006)",
  "year": 2006,
  "user": "oster",
  "runner": "wine",
  "slug": "prey-2006-installer",
  "version": "Installer",
  "description": "",
  "notes": "In base/autoexec.cfg need set screen resolution if you have widescreen monitor",
  "credits": "",
  "created_at": "2020-04-22T15:27:22.711000Z",
  "updated_at": "2021-12-05T10:04:00.488538Z",
  "draft": false,
  "published": true,
  "published_by": 1,
  "rating": "",
  "is_playable": null,
  "steamid": 3970,
  "gogid": null,
  "gogslug": "",
  "humbleid": "",
  "humblestoreid": "",
  "humblestoreid_real": "",
  "script": {
    "files": [
      {
        "setup": "N/A:Select the game's setup file"
      }
    ],
    "game": {
      "arch": "win32",
      "exe": "drive_c/Program Files/Prey/PREY.exe",
      "prefix": "$GAMEDIR"
    },
    "installer": [
      {
        "task": {
          "app": "d3dcompiler_43 d3dcompiler_47 d3dx9",
          "name": "winetricks"
        }
      },
      {
        "task": {
          "executable": "setup",
          "name": "wineexec"
        }
      }
    ]
  },
  "content": "files:\n- setup: N/A:Select the game's setup file\ngame:\n  arch: win32\n  exe: drive_c/Program Files/Prey/PREY.exe\n  prefix: $GAMEDIR\ninstaller:\n- task:\n    app: d3dcompiler_43 d3dcompiler_47 d3dx9\n    name: winetricks\n- task:\n    executable: setup\n    name: wineexec\n",
  "discord_id": ""
}