{
  "id": 22494,
  "game_id": 8957,
  "game_slug": "human-fall-flat",
  "name": "Human: Fall Flat",
  "year": 2016,
  "user": "Kylianalex",
  "runner": "steam",
  "slug": "human-fall-flat-steam-proton",
  "version": "Steam Proton",
  "description": null,
  "notes": "You need to activate steam proton (in steam play options)\r\nYou need to uninstall human fall flat, go to Properties and force to use steam proton",
  "credits": "",
  "created_at": "2020-07-21T12:33:03.822082Z",
  "updated_at": "2021-12-13T19:17:50.050772Z",
  "draft": false,
  "published": true,
  "published_by": null,
  "rating": "",
  "is_playable": null,
  "steamid": 477160,
  "gogid": 1203767418,
  "gogslug": "human_fall_flat",
  "humbleid": "",
  "humblestoreid": "",
  "humblestoreid_real": "",
  "script": {
    "game": {
      "appid": 477160
    }
  },
  "content": "game:\n  appid: 477160\n",
  "discord_id": ""
}