{
  "id": 259556,
  "name": "Tribe of the Accord",
  "slug": "tribe-of-the-accord",
  "year": null,
  "banner_url": "",
  "icon_url": "",
  "coverart": "https://lutris.net/media/igdb/cover_big/co74oq.jpg",
  "platforms": [],
  "provider_games": [
    {
      "name": "Tribe of the Accord",
      "slug": "tribe-of-the-accord",
      "service": "igdb"
    }
  ],
  "aliases": [],
  "shaders": [],
  "discord_id": "",
  "change_for": null
}