{
  "id": 283942,
  "name": "Dare ga Humpty wo Koroshita no?: Lizzie, Futatabi Tantei ni Naru",
  "slug": "dare-ga-humpty-wo-koroshita-no-lizzie-futatabi-tantei-ni-naru",
  "year": 2014,
  "banner_url": "",
  "icon_url": "",
  "coverart": "https://lutris.net/media/igdb/cover_big/co85am.jpg",
  "platforms": [
    {
      "name": "Windows"
    }
  ],
  "provider_games": [
    {
      "name": "Dare ga Humpty wo Koroshita no?: Lizzie, Futatabi Tantei ni Naru",
      "slug": "dare-ga-humpty-wo-koroshita-no-lizzie-futatabi-tantei-ni-naru",
      "service": "igdb"
    }
  ],
  "aliases": [],
  "shaders": [],
  "discord_id": "",
  "change_for": null
}