{
  "id": 73044,
  "name": "Cos-tte! Aki-san! vol.2",
  "slug": "cos-tte-aki-san-vol-dot-2",
  "year": null,
  "banner_url": "",
  "icon_url": "",
  "coverart": null,
  "platforms": [],
  "provider_games": [
    {
      "name": "Cos-tte! Aki-san! vol.2",
      "slug": "cos-tte-aki-san-vol-dot-2",
      "service": "igdb"
    }
  ],
  "aliases": [],
  "shaders": [],
  "discord_id": "",
  "change_for": null
}