{
  "id": 189782,
  "name": "Gearshifters",
  "slug": "gearshifters",
  "year": 2021,
  "banner_url": "https://lutris.net/games/banner/gearshifters.jpg",
  "icon_url": "",
  "coverart": "https://lutris.net/media/igdb/cover_big/co3gps.jpg",
  "platforms": [
    {
      "name": "Nintendo Switch"
    },
    {
      "name": "Sony Playstation 4"
    },
    {
      "name": "Windows"
    },
    {
      "name": "Xbox One"
    }
  ],
  "provider_games": [
    {
      "name": "Gearshifters",
      "slug": "gearshifters",
      "service": "igdb"
    },
    {
      "name": "Gearshifters",
      "slug": "1017160",
      "service": "steam"
    }
  ],
  "aliases": [],
  "shaders": [],
  "discord_id": "",
  "change_for": null
}