{
  "id": 243419,
  "name": "Abandoned Characters: Deadly Photo Opportunity",
  "slug": "abandoned-characters-deadly-photo-opportunity",
  "year": null,
  "banner_url": "",
  "icon_url": "",
  "coverart": "https://lutris.net/media/igdb/cover_big/co6gne.jpg",
  "platforms": [],
  "provider_games": [
    {
      "name": "Abandoned Characters: Deadly Photo Opportunity",
      "slug": "abandoned-characters-deadly-photo-opportunity",
      "service": "igdb"
    }
  ],
  "aliases": [],
  "shaders": [],
  "discord_id": "",
  "change_for": null
}