{
  "id": 269668,
  "name": "Mobile Suit Gundam",
  "slug": "mobile-suit-gundam--4",
  "year": 1995,
  "banner_url": "",
  "icon_url": "",
  "coverart": null,
  "platforms": [
    {
      "name": "Sega Saturn"
    }
  ],
  "provider_games": [
    {
      "name": "Mobile Suit Gundam",
      "slug": "mobile-suit-gundam--4",
      "service": "igdb"
    }
  ],
  "aliases": [],
  "shaders": [],
  "discord_id": "",
  "change_for": null
}