{
  "id": 14632,
  "name": "VRTGO",
  "slug": "vrtgo",
  "year": null,
  "banner_url": "https://lutris.net/games/banner/vrtgo.jpg",
  "icon_url": "https://lutris.net/games/icon/vrtgo.png",
  "coverart": null,
  "platforms": [],
  "provider_games": [
    {
      "name": "VRTGO",
      "slug": "651320",
      "service": "steam"
    }
  ],
  "aliases": [],
  "shaders": [],
  "discord_id": "",
  "change_for": null
}