{
  "id": 238457,
  "name": "The Kinky Kitsune and The Tantalizing Tanuki",
  "slug": "the-kinky-kitsune-and-the-tantalizing-tanuki",
  "year": null,
  "banner_url": "",
  "icon_url": "",
  "coverart": "https://lutris.net/media/igdb/cover_big/co64ai.jpg",
  "platforms": [],
  "provider_games": [
    {
      "name": "The Kinky Kitsune and The Tantalizing Tanuki",
      "slug": "the-kinky-kitsune-and-the-tantalizing-tanuki",
      "service": "igdb"
    },
    {
      "name": "The Kinky Kitsune and The Tantalizing Tanuki",
      "slug": "2034857839",
      "service": "gog"
    }
  ],
  "aliases": [],
  "shaders": [],
  "discord_id": "",
  "change_for": null
}