{
  "id": 34076,
  "game_id": 204403,
  "game_slug": "mala-petaka",
  "name": "Mala Petaka",
  "year": 2022,
  "user": "pbuyle",
  "runner": "zdoom",
  "slug": "mala-petaka-demo-v04",
  "version": "Demo v0.4",
  "description": "An installer for the 0.4 demo of an upcoming GZDoom standalone game",
  "notes": "Installer generated from https://gitlab.com/pbuyle/lutris-installer",
  "credits": "",
  "created_at": "2022-06-26T13:20:12.811000Z",
  "updated_at": "2023-01-11T03:52:39.883501Z",
  "draft": false,
  "published": true,
  "published_by": 1,
  "rating": "",
  "is_playable": null,
  "steamid": null,
  "gogid": null,
  "gogslug": "",
  "humbleid": "",
  "humblestoreid": "",
  "humblestoreid_real": "",
  "script": {
    "files": [
      {
        "dist": "N/A:Select `Mala Petaka v0.4.zip` downloaded from https://sanditiojitok.itch.io/mala-petaka-demo/purchase"
      }
    ],
    "game": {
      "main_file": "$GAMEDIR/malapetaka_demo.ipk3",
      "savedir": "$GAMEDIR/saves",
      "working_dir": "$GAMEDIR"
    },
    "installer": [
      {
        "extract": {
          "dst": "$CACHE/dist",
          "file": "dist"
        }
      },
      {
        "move": {
          "dst": "$GAMEDIR/malapetaka_demo.ipk3",
          "src": "$CACHE/dist/malapetaka_demo.ipk3"
        }
      },
      {
        "execute": {
          "command": "mkdir \"$GAMEDIR/saves\""
        }
      }
    ]
  },
  "content": "files:\n- dist: N/A:Select `Mala Petaka v0.4.zip` downloaded from https://sanditiojitok.itch.io/mala-petaka-demo/purchase\ngame:\n  main_file: $GAMEDIR/malapetaka_demo.ipk3\n  savedir: $GAMEDIR/saves\n  working_dir: $GAMEDIR\ninstaller:\n- extract:\n    dst: $CACHE/dist\n    file: dist\n- move:\n    dst: $GAMEDIR/malapetaka_demo.ipk3\n    src: $CACHE/dist/malapetaka_demo.ipk3\n- execute:\n    command: mkdir \"$GAMEDIR/saves\"\n",
  "discord_id": ""
}