{
  "id": 76959,
  "name": "Chemicus: Journey to the Other Side",
  "slug": "chemicus-journey-to-the-other-side",
  "year": 2001,
  "banner_url": "",
  "icon_url": "",
  "coverart": "https://lutris.net/media/igdb/cover_big/xrtba8n0e9hzbzfci7rm.jpg",
  "platforms": [
    {
      "name": "Windows"
    }
  ],
  "provider_games": [
    {
      "name": "Chemicus: Journey to the Other Side",
      "slug": "chemicus-journey-to-the-other-side",
      "service": "igdb"
    }
  ],
  "aliases": [],
  "shaders": [],
  "discord_id": "",
  "change_for": null
}