{
  "id": 93715,
  "name": "Sherlock Holmes: Art Of Detection (Ink Spotters)",
  "slug": "sherlock-holmes-art-of-detection-ink-spotters",
  "year": null,
  "banner_url": "",
  "icon_url": "",
  "coverart": null,
  "platforms": [],
  "provider_games": [
    {
      "name": "Sherlock Holmes: Art of Detection (Ink Spotters)",
      "slug": "sherlock-holmes-art-of-detection-ink-spotters",
      "service": "igdb"
    }
  ],
  "aliases": [],
  "shaders": [],
  "discord_id": "",
  "change_for": null
}