{
  "id": 297872,
  "name": "Super Slime Blitz",
  "slug": "super-slime-blitz",
  "year": 2016,
  "banner_url": "",
  "icon_url": "",
  "coverart": "https://lutris.net/media/igdb/cover_big/co8u0w.jpg",
  "platforms": [
    {
      "name": "Android"
    },
    {
      "name": "Browser"
    }
  ],
  "provider_games": [
    {
      "name": "Super Slime Blitz",
      "slug": "super-slime-blitz",
      "service": "igdb"
    }
  ],
  "aliases": [],
  "shaders": [],
  "discord_id": "",
  "change_for": null
}