{
  "id": 5642,
  "game_id": 2145,
  "game_slug": "volt",
  "name": "Volt",
  "year": 2014,
  "user": "FakeShemp",
  "runner": "linux",
  "slug": "volt-groupees",
  "version": "Groupees",
  "description": "",
  "notes": "",
  "credits": "",
  "created_at": "2017-09-09T20:55:37.580615Z",
  "updated_at": "2024-04-03T05:44:09.422872Z",
  "draft": false,
  "published": true,
  "published_by": null,
  "rating": "",
  "is_playable": null,
  "steamid": 290280,
  "gogid": null,
  "gogslug": "",
  "humbleid": "",
  "humblestoreid": "",
  "humblestoreid_real": "",
  "script": {
    "files": [
      {
        "file1": "N/A:Please select the Groupees archive"
      }
    ],
    "game": {
      "exe": "volt.x86_64",
      "launch_configs": [
        {
          "exe": "volt.x86",
          "name": "32 bit version"
        }
      ]
    },
    "installer": [
      {
        "extract": {
          "file": "$file1"
        }
      },
      {
        "chmodx": "$GAMEDIR/volt.x86"
      },
      {
        "chmodx": "$GAMEDIR/volt.x86_64"
      }
    ]
  },
  "content": "files:\n- file1: N/A:Please select the Groupees archive\ngame:\n  exe: volt.x86_64\n  launch_configs:\n  - exe: volt.x86\n    name: 32 bit version\ninstaller:\n- extract:\n    file: $file1\n- chmodx: $GAMEDIR/volt.x86\n- chmodx: $GAMEDIR/volt.x86_64\n",
  "discord_id": ""
}