{
  "id": 145021,
  "name": "PitBots",
  "slug": "pitbots",
  "year": null,
  "banner_url": "",
  "icon_url": "",
  "coverart": "https://lutris.net/media/igdb/cover_big/co3vd4.jpg",
  "platforms": [],
  "provider_games": [
    {
      "name": "PitBots",
      "slug": "pitbots",
      "service": "igdb"
    }
  ],
  "aliases": [],
  "shaders": [],
  "discord_id": "",
  "change_for": null
}