{
  "id": 203786,
  "name": "My Hero Academia: Ultra Impact",
  "slug": "my-hero-academia-ultra-impact",
  "year": null,
  "banner_url": "",
  "icon_url": "",
  "coverart": "https://lutris.net/media/igdb/cover_big/co4ba2.jpg",
  "platforms": [],
  "provider_games": [
    {
      "name": "My Hero Academia: Ultra Impact",
      "slug": "my-hero-academia-ultra-impact",
      "service": "igdb"
    }
  ],
  "aliases": [],
  "shaders": [],
  "discord_id": "",
  "change_for": null
}