{
  "id": 260546,
  "name": "Zarie: The Story of Sin",
  "slug": "zarie-the-story-of-sin",
  "year": null,
  "banner_url": "",
  "icon_url": "",
  "coverart": "https://lutris.net/media/igdb/cover_big/co72w7.jpg",
  "platforms": [],
  "provider_games": [
    {
      "name": "Zarie: The Story of Sin",
      "slug": "zarie-the-story-of-sin",
      "service": "igdb"
    }
  ],
  "aliases": [],
  "shaders": [],
  "discord_id": "",
  "change_for": null
}