{
  "id": 16133,
  "game_id": 12423,
  "game_slug": "hello-neighbor",
  "name": "Hello Neighbor",
  "year": 2017,
  "user": "cxf",
  "runner": "wine",
  "slug": "hello-neighbor-gog",
  "version": "GOG",
  "description": null,
  "notes": "",
  "credits": "",
  "created_at": "2019-10-12T02:50:22.222000Z",
  "updated_at": "2023-06-13T01:34:11.195219Z",
  "draft": false,
  "published": true,
  "published_by": 19464,
  "rating": "",
  "is_playable": null,
  "steamid": 521890,
  "gogid": 1086743022,
  "gogslug": "hello_neighbor",
  "humbleid": "",
  "humblestoreid": "",
  "humblestoreid_real": "",
  "script": {
    "files": [
      {
        "setup": "N/A:Select GOG setup exe"
      }
    ],
    "game": {
      "exe": "drive_c/GOG Games/Hello Neighbor/HelloNeighbor/Binaries/Win64/HelloNeighbor-Win64-Shipping.exe",
      "prefix": "$GAMEDIR"
    },
    "installer": [
      {
        "task": {
          "name": "create_prefix",
          "prefix": "$GAMEDIR"
        }
      },
      {
        "task": {
          "app": "vcrun2015 win7",
          "name": "winetricks",
          "prefix": "$GAMEDIR"
        }
      },
      {
        "task": {
          "args": "/SP- /SUPPRESSMSGBOXES /NOCANCEL",
          "executable": "setup",
          "name": "wineexec",
          "prefix": "$GAMEDIR"
        }
      }
    ],
    "system": {
      "env": {
        "DXVK_HUD": "compiler"
      }
    }
  },
  "content": "files:\n- setup: N/A:Select GOG setup exe\ngame:\n  exe: drive_c/GOG Games/Hello Neighbor/HelloNeighbor/Binaries/Win64/HelloNeighbor-Win64-Shipping.exe\n  prefix: $GAMEDIR\ninstaller:\n- task:\n    name: create_prefix\n    prefix: $GAMEDIR\n- task:\n    app: vcrun2015 win7\n    name: winetricks\n    prefix: $GAMEDIR\n- task:\n    args: /SP- /SUPPRESSMSGBOXES /NOCANCEL\n    executable: setup\n    name: wineexec\n    prefix: $GAMEDIR\nsystem:\n  env:\n    DXVK_HUD: compiler\n",
  "discord_id": ""
}