{
  "id": 159414,
  "name": "Russian Mailman Simulator",
  "slug": "russian-mailman-simulator",
  "year": null,
  "banner_url": "",
  "icon_url": "",
  "coverart": "https://lutris.net/media/igdb/cover_big/co3ys1.jpg",
  "platforms": [],
  "provider_games": [
    {
      "name": "Russian Mailman Simulator",
      "slug": "russian-mailman-simulator",
      "service": "igdb"
    }
  ],
  "aliases": [],
  "shaders": [],
  "discord_id": "",
  "change_for": null
}