{
  "id": 253577,
  "name": "Triplane Furball",
  "slug": "triplane-furball",
  "year": null,
  "banner_url": "",
  "icon_url": "",
  "coverart": "https://lutris.net/media/igdb/cover_big/co6twh.jpg",
  "platforms": [],
  "provider_games": [
    {
      "name": "Triplane Furball",
      "slug": "triplane-furball",
      "service": "igdb"
    }
  ],
  "aliases": [],
  "shaders": [],
  "discord_id": "",
  "change_for": null
}