{
  "id": 77651,
  "name": "Super Bases Loaded",
  "slug": "super-bases-loaded",
  "year": 1991,
  "banner_url": "",
  "icon_url": "",
  "coverart": "https://lutris.net/media/igdb/cover_big/xz5qqhkx8h6dov9tbc4q.jpg",
  "platforms": [
    {
      "name": "Super Nintendo"
    }
  ],
  "provider_games": [
    {
      "name": "Super Bases Loaded",
      "slug": "super-bases-loaded",
      "service": "igdb"
    }
  ],
  "aliases": [],
  "shaders": [],
  "discord_id": "",
  "change_for": null
}