{
  "id": 15507,
  "name": "The Arena of Gladiators",
  "slug": "the-arena-of-gladiators",
  "year": 2017,
  "banner_url": "https://lutris.net/games/banner/the-arena-of-gladiators.jpg",
  "icon_url": "https://lutris.net/games/icon/the-arena-of-gladiators.png",
  "coverart": null,
  "platforms": [
    {
      "name": "Windows"
    }
  ],
  "provider_games": [
    {
      "name": "The Arena of Gladiators",
      "slug": "716430",
      "service": "steam"
    },
    {
      "name": "The Arena of Gladiators",
      "slug": "the-arena-of-gladiators",
      "service": "igdb"
    }
  ],
  "aliases": [],
  "shaders": [],
  "discord_id": "",
  "change_for": null
}