{
  "id": 29058,
  "name": "Waltz of the Wizard: Extended Edition",
  "slug": "waltz-of-the-wizard-extended-edition",
  "year": 2019,
  "banner_url": "https://lutris.net/games/banner/waltz-of-the-wizard-extended-edition.jpg",
  "icon_url": "https://lutris.net/games/icon/waltz-of-the-wizard-extended-edition.png",
  "coverart": "https://lutris.net/media/igdb/cover_big/co2tvx.jpg",
  "platforms": [
    {
      "name": "Sony Playstation 4"
    },
    {
      "name": "Windows"
    }
  ],
  "provider_games": [
    {
      "name": "Waltz of the Wizard",
      "slug": "1094390",
      "service": "steam"
    },
    {
      "name": "Waltz of the Wizard: Extended Edition",
      "slug": "waltz-of-the-wizard-extended-edition",
      "service": "igdb"
    }
  ],
  "aliases": [],
  "shaders": [],
  "discord_id": "",
  "change_for": null
}