{
  "id": 2015,
  "game_id": 3846,
  "game_slug": "caesaria",
  "name": "CaesarIA",
  "year": 2015,
  "user": "dennisjj4",
  "runner": "steam",
  "slug": "caesaria-steam",
  "version": "Steam",
  "description": "",
  "notes": "",
  "credits": "",
  "created_at": "2016-03-07T02:43:57.776664Z",
  "updated_at": "2016-03-07T15:08:14.704178Z",
  "draft": false,
  "published": true,
  "published_by": null,
  "rating": "",
  "is_playable": null,
  "steamid": 327640,
  "gogid": null,
  "gogslug": "",
  "humbleid": "",
  "humblestoreid": "",
  "humblestoreid_real": "",
  "script": {
    "game": {
      "appid": 327640
    }
  },
  "content": "game:\r\n  appid: 327640\r\n",
  "discord_id": ""
}