{
  "id": 172322,
  "name": "Gamble Hourouki",
  "slug": "gamble-hourouki",
  "year": 1996,
  "banner_url": "",
  "icon_url": "",
  "coverart": "https://lutris.net/media/igdb/cover_big/co3bgy.jpg",
  "platforms": [
    {
      "name": "Satellaview"
    },
    {
      "name": "Super Nintendo"
    }
  ],
  "provider_games": [
    {
      "name": "Gamble Hourouki",
      "slug": "gamble-hourouki",
      "service": "igdb"
    }
  ],
  "aliases": [],
  "shaders": [],
  "discord_id": "",
  "change_for": null
}