{
  "id": 268236,
  "name": "Five Card Draw Poker",
  "slug": "five-card-draw-poker",
  "year": 1982,
  "banner_url": "",
  "icon_url": "",
  "coverart": "https://lutris.net/media/igdb/cover_big/co7hnn.jpg",
  "platforms": [
    {
      "name": "Apple II"
    },
    {
      "name": "Atari 8-bit"
    },
    {
      "name": "Commodore C64/128"
    },
    {
      "name": "Commodore PET"
    },
    {
      "name": "TRS-80 Color Computer"
    }
  ],
  "provider_games": [
    {
      "name": "Five Card Draw Poker",
      "slug": "five-card-draw-poker",
      "service": "igdb"
    }
  ],
  "aliases": [],
  "shaders": [],
  "discord_id": "",
  "change_for": null
}