{
  "id": 302758,
  "name": "Great Powers At War",
  "slug": "great-powers-at-war",
  "year": null,
  "banner_url": "",
  "icon_url": "",
  "coverart": "https://lutris.net/media/igdb/cover_big/co95v3.jpg",
  "platforms": [],
  "provider_games": [
    {
      "name": "Great Powers At War",
      "slug": "great-powers-at-war",
      "service": "igdb"
    }
  ],
  "aliases": [],
  "shaders": [],
  "discord_id": "",
  "change_for": null
}