{
  "id": 219429,
  "name": "Hit and Boom",
  "slug": "hit-and-boom",
  "year": null,
  "banner_url": "",
  "icon_url": "",
  "coverart": "https://lutris.net/media/igdb/cover_big/co5ebm.jpg",
  "platforms": [],
  "provider_games": [
    {
      "name": "Hit and Boom",
      "slug": "hit-and-boom",
      "service": "igdb"
    }
  ],
  "aliases": [],
  "shaders": [],
  "discord_id": "",
  "change_for": null
}