{
  "id": 2103,
  "name": "Vox",
  "slug": "vox",
  "year": 2013,
  "banner_url": "https://lutris.net/games/banner/vox.jpg",
  "icon_url": "https://lutris.net/games/icon/vox.png",
  "coverart": "https://lutris.net/media/igdb/cover_big/onygv14ous7mrehvttuk.jpg",
  "platforms": [
    {
      "name": "Windows"
    }
  ],
  "provider_games": [
    {
      "name": "Vox",
      "slug": "vox",
      "service": "igdb"
    }
  ],
  "aliases": [],
  "shaders": [],
  "discord_id": "",
  "change_for": null
}