{
  "id": 96096,
  "name": "Flying Bug Smasher",
  "slug": "flying-bug-smasher",
  "year": null,
  "banner_url": "",
  "icon_url": "",
  "coverart": null,
  "platforms": [],
  "provider_games": [
    {
      "name": "Flying Bug Smasher",
      "slug": "flying-bug-smasher",
      "service": "igdb"
    }
  ],
  "aliases": [],
  "shaders": [],
  "discord_id": "",
  "change_for": null
}