{
  "id": 261460,
  "name": "Hello Kitty no Panda Sports Stadium",
  "slug": "hello-kitty-no-panda-sports-stadium",
  "year": 2008,
  "banner_url": "",
  "icon_url": "",
  "coverart": "https://lutris.net/media/igdb/cover_big/co7625.jpg",
  "platforms": [
    {
      "name": "Nintendo DS"
    }
  ],
  "provider_games": [
    {
      "name": "Hello Kitty no Panda Sports Stadium",
      "slug": "hello-kitty-no-panda-sports-stadium",
      "service": "igdb"
    }
  ],
  "aliases": [],
  "shaders": [],
  "discord_id": "",
  "change_for": null
}