{
  "id": 236306,
  "name": "The Parcel",
  "slug": "the-parcel",
  "year": null,
  "banner_url": "",
  "icon_url": "",
  "coverart": "https://lutris.net/media/igdb/cover_big/co64fg.jpg",
  "platforms": [],
  "provider_games": [
    {
      "name": "The Parcel",
      "slug": "the-parcel",
      "service": "igdb"
    }
  ],
  "aliases": [],
  "shaders": [],
  "discord_id": "",
  "change_for": null
}