{
  "id": 252518,
  "name": "Eden: World Builder Simulator",
  "slug": "eden-world-builder-simulator",
  "year": null,
  "banner_url": "",
  "icon_url": "",
  "coverart": "https://lutris.net/media/igdb/cover_big/co7vga.jpg",
  "platforms": [],
  "provider_games": [
    {
      "name": "Eden: World Builder Simulator",
      "slug": "eden-world-builder-simulator",
      "service": "igdb"
    }
  ],
  "aliases": [],
  "shaders": [],
  "discord_id": "",
  "change_for": null
}