{
  "id": 13430,
  "game_id": 23962,
  "game_slug": "imperialism-2-the-age-of-exploration",
  "name": "Imperialism 2: The Age of Exploration",
  "year": 1999,
  "user": "Brohric",
  "runner": "wine",
  "slug": "imperialism-2-the-age-of-expl-gog",
  "version": "GOG",
  "description": "",
  "notes": "- to play this game fullscreen, use gamescope",
  "credits": "",
  "created_at": "2019-05-09T19:56:21.230000Z",
  "updated_at": "2024-12-16T04:43:25.386185Z",
  "draft": false,
  "published": true,
  "published_by": 494,
  "rating": "",
  "is_playable": null,
  "steamid": null,
  "gogid": 1207659153,
  "gogslug": "imperialism_2_the_age_of_exploration",
  "humbleid": "",
  "humblestoreid": "",
  "humblestoreid_real": "",
  "script": {
    "files": [
      {
        "setup": "N/A:Select the gog setup exe"
      }
    ],
    "game": {
      "exe": "drive_c/GOG Games/Imperialism II/Imperialism II.exe",
      "prefix": "$GAMEDIR"
    },
    "installer": [
      {
        "task": {
          "arch": "win64",
          "name": "create_prefix",
          "prefix": "$GAMEDIR"
        }
      },
      {
        "task": {
          "args": "/SP- /SUPPRESSMSGBOXES /NOCANCEL",
          "executable": "setup",
          "name": "wineexec",
          "prefix": "$GAMEDIR"
        }
      }
    ],
    "system": {
      "gamescope": false,
      "gamescope_game_res": "800x600",
      "gamescope_output_res": "$RESOLUTION",
      "mangohud": false
    }
  },
  "content": "files:\n- setup: N/A:Select the gog setup exe\ngame:\n  exe: drive_c/GOG Games/Imperialism II/Imperialism II.exe\n  prefix: $GAMEDIR\ninstaller:\n- task:\n    arch: win64\n    name: create_prefix\n    prefix: $GAMEDIR\n- task:\n    args: /SP- /SUPPRESSMSGBOXES /NOCANCEL\n    executable: setup\n    name: wineexec\n    prefix: $GAMEDIR\nsystem:\n  gamescope: false\n  gamescope_game_res: 800x600\n  gamescope_output_res: $RESOLUTION\n  mangohud: false\n",
  "discord_id": null
}