{
  "id": 13646,
  "game_id": 25578,
  "game_slug": "pixel-fx-designer",
  "name": "Pixel FX Designer",
  "year": null,
  "user": "editman",
  "runner": "steam",
  "slug": "pixel-fx-designer-proton",
  "version": "Proton",
  "description": null,
  "notes": "",
  "credits": "",
  "created_at": "2019-05-20T18:46:07.921000Z",
  "updated_at": "2021-05-04T02:43:14.100073Z",
  "draft": false,
  "published": true,
  "published_by": 19464,
  "rating": "",
  "is_playable": null,
  "steamid": 939360,
  "gogid": null,
  "gogslug": "",
  "humbleid": "",
  "humblestoreid": "",
  "humblestoreid_real": "",
  "script": {
    "game": {
      "appid": 939360
    }
  },
  "content": "game:\n  appid: 939360\n",
  "discord_id": ""
}