{
  "id": 198296,
  "name": "Robobeat",
  "slug": "robobeat",
  "year": null,
  "banner_url": "",
  "icon_url": "",
  "coverart": "https://lutris.net/media/igdb/cover_big/co4iz5.jpg",
  "platforms": [],
  "provider_games": [
    {
      "name": "Robobeat",
      "slug": "robobeat",
      "service": "igdb"
    }
  ],
  "aliases": [],
  "shaders": [],
  "discord_id": "",
  "change_for": null
}