{
  "id": 246330,
  "name": "Dark Desire Mute 5",
  "slug": "dark-desire-mute-5",
  "year": null,
  "banner_url": "",
  "icon_url": "",
  "coverart": "https://lutris.net/media/igdb/cover_big/co6i0t.jpg",
  "platforms": [],
  "provider_games": [
    {
      "name": "Dark Desire Mute 5",
      "slug": "dark-desire-mute-5",
      "service": "igdb"
    }
  ],
  "aliases": [],
  "shaders": [],
  "discord_id": "",
  "change_for": null
}