{
  "id": 154005,
  "name": "Magical Girl Lyrical Nanoha A's Portable: The Gears of Destiny",
  "slug": "magical-girl-lyrical-nanoha-as-portable-the-gears-of-destiny",
  "year": null,
  "banner_url": "",
  "icon_url": "",
  "coverart": "https://lutris.net/media/igdb/cover_big/co3wwa.jpg",
  "platforms": [],
  "provider_games": [
    {
      "name": "Magical Girl Lyrical Nanoha A's Portable: The Gears of Destiny",
      "slug": "magical-girl-lyrical-nanoha-as-portable-the-gears-of-destiny",
      "service": "igdb"
    }
  ],
  "aliases": [],
  "shaders": [],
  "discord_id": "",
  "change_for": null
}