{
  "id": 294809,
  "name": "Abejuela's Power: The Game",
  "slug": "abejuelas-power-the-game",
  "year": 2004,
  "banner_url": "",
  "icon_url": "",
  "coverart": "https://lutris.net/media/igdb/cover_big/co8ndb.jpg",
  "platforms": [
    {
      "name": "Windows"
    }
  ],
  "provider_games": [
    {
      "name": "Abejuela's Power: The Game",
      "slug": "abejuelas-power-the-game",
      "service": "igdb"
    }
  ],
  "aliases": [],
  "shaders": [],
  "discord_id": "",
  "change_for": null
}