{
  "id": 30248,
  "game_id": 9681,
  "game_slug": "zeus-poseidon",
  "name": "Zeus + Poseidon",
  "year": 2003,
  "user": "x_l_ours",
  "runner": "wine",
  "slug": "zeus-poseidon-cd",
  "version": "CD",
  "description": "Acropolis’ delivers the city-building excitement and strategy of both Zeus’ Master of Olympus’ and Zeus’ Official Expansion Poseidon’. Build great empires, dabble in combat, trade, and politics, and keep monsters like Medusa at bay with the help of great heroes from mythology. Establish new colonies in the ancient Americas, Africa, Europe, and Asia. Create your own adventures with a powerful yet easy to use Adventure Editor.",
  "notes": "",
  "credits": "",
  "created_at": "2021-11-07T13:26:41.281000Z",
  "updated_at": "2022-01-06T14:26:22.177459Z",
  "draft": false,
  "published": true,
  "published_by": 64834,
  "rating": "",
  "is_playable": null,
  "steamid": 566050,
  "gogid": 1207659039,
  "gogslug": "zeus_poseidon",
  "humbleid": "",
  "humblestoreid": "",
  "humblestoreid_real": "",
  "script": {
    "game": {
      "arch": "win32",
      "exe": "$GAMEDIR/drive_c/Sierra/Le Maître de l' Olympe  Zeus/Zeus.exe",
      "prefix": "$GAMEDIR",
      "working_dir": "$GAMEDIR/drive_c/Sierra/Le Maître de l' Olympe  Zeus"
    },
    "installer": [
      {
        "task": {
          "app": "winxp",
          "arch": "win32",
          "description": "Setting Windows Version to XP",
          "name": "winetricks",
          "prefix": "$GAMEDIR"
        }
      },
      {
        "task": {
          "arch": "win32",
          "description": "Creating Wine Prefix",
          "name": "create_prefix",
          "prefix": "$GAMEDIR"
        }
      },
      {
        "insert-disc": {
          "requires": "AUTORUN.exe"
        }
      },
      {
        "task": {
          "executable": "$DISC/AUTORUN.exe",
          "name": "wineexec",
          "prefix": "$GAMEDIR"
        }
      }
    ]
  },
  "content": "game:\n  arch: win32\n  exe: \"$GAMEDIR/drive_c/Sierra/Le Ma\\xEEtre de l' Olympe  Zeus/Zeus.exe\"\n  prefix: $GAMEDIR\n  working_dir: \"$GAMEDIR/drive_c/Sierra/Le Ma\\xEEtre de l' Olympe  Zeus\"\ninstaller:\n- task:\n    app: winxp\n    arch: win32\n    description: Setting Windows Version to XP\n    name: winetricks\n    prefix: $GAMEDIR\n- task:\n    arch: win32\n    description: Creating Wine Prefix\n    name: create_prefix\n    prefix: $GAMEDIR\n- insert-disc:\n    requires: AUTORUN.exe\n- task:\n    executable: $DISC/AUTORUN.exe\n    name: wineexec\n    prefix: $GAMEDIR\n",
  "discord_id": ""
}