{
  "id": 63212,
  "name": "Yojigen no Ie: 4 DIMENSION HOUSE",
  "slug": "yojigen-no-ie-4-dimension-house",
  "year": null,
  "banner_url": "",
  "icon_url": "",
  "coverart": "https://lutris.net/media/igdb/cover_big/rqnkjedpiobyooumk4qo.jpg",
  "platforms": [],
  "provider_games": [
    {
      "name": "Yojigen no Ie: 4 Dimension House",
      "slug": "yojigen-no-ie-4-dimension-house",
      "service": "igdb"
    }
  ],
  "aliases": [],
  "shaders": [],
  "discord_id": "",
  "change_for": null
}