{
  "id": 138698,
  "name": "Tales of Vesperia: Remaster - 10th Anniversary Edition",
  "slug": "tales-of-vesperia-remaster-10th-anniversary-edition",
  "year": null,
  "banner_url": "",
  "icon_url": "",
  "coverart": null,
  "platforms": [],
  "provider_games": [
    {
      "name": "Tales of Vesperia: Remaster - 10th Anniversary Edition",
      "slug": "tales-of-vesperia-remaster-10th-anniversary-edition",
      "service": "igdb"
    }
  ],
  "aliases": [],
  "shaders": [],
  "discord_id": "",
  "change_for": null
}