{
  "id": 185753,
  "name": "Cat Walker Simulator",
  "slug": "cat-walker-simulator",
  "year": null,
  "banner_url": "",
  "icon_url": "",
  "coverart": null,
  "platforms": [],
  "provider_games": [
    {
      "name": "Cat Walker Simulator",
      "slug": "cat-walker-simulator",
      "service": "igdb"
    }
  ],
  "aliases": [],
  "shaders": [],
  "discord_id": "",
  "change_for": null
}