{
  "id": 295272,
  "name": "Frog's Galaxy Escape",
  "slug": "frogs-galaxy-escape",
  "year": 2025,
  "banner_url": "",
  "icon_url": "",
  "coverart": "https://lutris.net/media/igdb/cover_big/co8riw.jpg",
  "platforms": [
    {
      "name": "Windows"
    }
  ],
  "provider_games": [
    {
      "name": "Frog's Galaxy Escape",
      "slug": "frogs-galaxy-escape",
      "service": "igdb"
    }
  ],
  "aliases": [],
  "shaders": [],
  "discord_id": "",
  "change_for": null
}