{
  "id": 34516,
  "name": "Ixion",
  "slug": "ixion",
  "year": 1983,
  "banner_url": "https://lutris.net/games/banner/ixion.jpg",
  "icon_url": "https://lutris.net/games/icon/ixion.png",
  "coverart": "https://lutris.net/media/igdb/cover_big/co5vud.jpg",
  "platforms": [
    {
      "name": "Arcade"
    }
  ],
  "provider_games": [
    {
      "name": "Ixion",
      "slug": "ixion",
      "service": "mame"
    },
    {
      "name": "Ixion",
      "slug": "ixion",
      "service": "igdb"
    },
    {
      "name": "IXION",
      "slug": "1113120",
      "service": "steam"
    },
    {
      "name": "IXION",
      "slug": "2014295976",
      "service": "gog"
    }
  ],
  "aliases": [],
  "shaders": [],
  "discord_id": "",
  "change_for": null
}