{
  "id": 42586,
  "name": "Manor of Mystic Courtesans",
  "slug": "manor-of-mystic-courtesans",
  "year": 2020,
  "banner_url": "https://lutris.net/games/banner/manor-of-mystic-courtesans.jpg",
  "icon_url": "https://lutris.net/games/icon/manor-of-mystic-courtesans.png",
  "coverart": "https://lutris.net/media/igdb/cover_big/co7vzg.jpg",
  "platforms": [
    {
      "name": "Windows"
    }
  ],
  "provider_games": [
    {
      "name": "Manor of Mystic Courtesans",
      "slug": "1180330",
      "service": "steam"
    },
    {
      "name": "Manor of Mystic Courtesans",
      "slug": "manor-of-mystic-courtesans",
      "service": "igdb"
    }
  ],
  "aliases": [],
  "shaders": [],
  "discord_id": "",
  "change_for": null
}