{
  "id": 189346,
  "name": "Slayaway Camp: Butcher's Cut",
  "slug": "slayaway-camp-butchers-cut",
  "year": 2017,
  "banner_url": "",
  "icon_url": "",
  "coverart": "https://lutris.net/media/igdb/cover_big/tdo5o7orqv8wn77rqmi5.jpg",
  "platforms": [
    {
      "name": "Nintendo Switch"
    },
    {
      "name": "PlayStation Vita"
    },
    {
      "name": "Sony Playstation 4"
    },
    {
      "name": "Xbox One"
    }
  ],
  "provider_games": [
    {
      "name": "Slayaway Camp: Butcher's Cut",
      "slug": "slayaway-camp-butchers-cut",
      "service": "igdb"
    }
  ],
  "aliases": [],
  "shaders": [],
  "discord_id": "",
  "change_for": null
}