{
  "id": 107479,
  "name": "Taishogun: The Rise of Emperor",
  "slug": "taishogun-the-rise-of-emperor",
  "year": 2021,
  "banner_url": "",
  "icon_url": "",
  "coverart": "https://lutris.net/media/igdb/cover_big/co2uys.jpg",
  "platforms": [
    {
      "name": "Sony Playstation 4"
    }
  ],
  "provider_games": [
    {
      "name": "Taishogun: The Rise of Emperor",
      "slug": "taishogun-the-rise-of-emperor",
      "service": "igdb"
    }
  ],
  "aliases": [],
  "shaders": [],
  "discord_id": "",
  "change_for": null
}