{
  "id": 146332,
  "name": "Sonic Boom: Rise of Lyric",
  "slug": "sonic-boom-rise-of-lyric",
  "year": 2014,
  "banner_url": "",
  "icon_url": "",
  "coverart": "https://lutris.net/media/igdb/cover_big/co1vo8.jpg",
  "platforms": [
    {
      "name": "Nintendo Wii U"
    }
  ],
  "provider_games": [
    {
      "name": "Sonic Boom: Rise of Lyric",
      "slug": "sonic-boom-rise-of-lyric",
      "service": "igdb"
    }
  ],
  "aliases": [],
  "shaders": [],
  "discord_id": "",
  "change_for": null
}