{
  "id": 157243,
  "name": "Poker Pretty Girls Battle: Fantasy World Edition",
  "slug": "poker-pretty-girls-battle-fantasy-world-edition",
  "year": 2021,
  "banner_url": "",
  "icon_url": "",
  "coverart": "https://lutris.net/media/igdb/cover_big/co2yuw.jpg",
  "platforms": [
    {
      "name": "Nintendo Switch"
    },
    {
      "name": "Sony Playstation 4"
    },
    {
      "name": "Sony PlayStation 5"
    }
  ],
  "provider_games": [
    {
      "name": "Poker Pretty Girls Battle: Fantasy World Edition",
      "slug": "poker-pretty-girls-battle-fantasy-world-edition",
      "service": "igdb"
    }
  ],
  "aliases": [],
  "shaders": [],
  "discord_id": "",
  "change_for": null
}