{
  "id": 15867,
  "name": "Road Rash",
  "slug": "road-rash",
  "year": 1988,
  "banner_url": "https://lutris.net/games/banner/road-rash.jpg",
  "icon_url": "",
  "coverart": "https://lutris.net/media/igdb/cover_big/eywipiisblrls5hjxcrm.jpg",
  "platforms": [
    {
      "name": "Amiga"
    },
    {
      "name": "Game Boy"
    },
    {
      "name": "Nintendo Game Boy Color"
    },
    {
      "name": "Sega Game Gear"
    },
    {
      "name": "Sega Genesis / Mega Drive"
    },
    {
      "name": "Sega Master System"
    },
    {
      "name": "Sega Saturn"
    },
    {
      "name": "Sony PlayStation"
    }
  ],
  "provider_games": [
    {
      "name": "Road Rash",
      "slug": "road-rash",
      "service": "igdb"
    }
  ],
  "aliases": [],
  "shaders": [],
  "discord_id": "",
  "change_for": null
}