{
  "id": 253981,
  "name": "Hill Dirt Master 3",
  "slug": "hill-dirt-master-3",
  "year": null,
  "banner_url": "",
  "icon_url": "",
  "coverart": null,
  "platforms": [],
  "provider_games": [
    {
      "name": "Hill Dirt Master 3",
      "slug": "hill-dirt-master-3",
      "service": "igdb"
    }
  ],
  "aliases": [],
  "shaders": [],
  "discord_id": "",
  "change_for": null
}