{
  "id": 25030,
  "name": "Tekken 4",
  "slug": "tekken-4",
  "year": 2001,
  "banner_url": "https://lutris.net/games/banner/tekken-4.jpg",
  "icon_url": "",
  "coverart": "https://lutris.net/media/igdb/cover_big/co46rs.jpg",
  "platforms": [
    {
      "name": "Arcade"
    },
    {
      "name": "Sony PlayStation 2"
    }
  ],
  "provider_games": [
    {
      "name": "Tekken 4",
      "slug": "tekken-4",
      "service": "igdb"
    }
  ],
  "aliases": [],
  "shaders": [],
  "discord_id": "",
  "change_for": null
}