{
  "id": 63897,
  "name": "D.A.: Pursuit of Justice - The Rat Tattoo Murder",
  "slug": "d-dot-a-pursuit-of-justice-the-rat-tattoo-murder",
  "year": null,
  "banner_url": "",
  "icon_url": "",
  "coverart": null,
  "platforms": [],
  "provider_games": [
    {
      "name": "D.A.: Pursuit of Justice - The Rat Tattoo Murder",
      "slug": "d-dot-a-pursuit-of-justice-the-rat-tattoo-murder",
      "service": "igdb"
    }
  ],
  "aliases": [],
  "shaders": [],
  "discord_id": "",
  "change_for": null
}