{
  "id": 89937,
  "name": "Baseball Trivia",
  "slug": "baseball-trivia",
  "year": null,
  "banner_url": "",
  "icon_url": "",
  "coverart": null,
  "platforms": [],
  "provider_games": [
    {
      "name": "Baseball Trivia",
      "slug": "baseball-trivia",
      "service": "igdb"
    }
  ],
  "aliases": [],
  "shaders": [],
  "discord_id": "",
  "change_for": null
}