{
  "id": 111185,
  "name": "Yahari Game Demo Ore no Seishun Love-come wa Machigatteiru.",
  "slug": "yahari-game-demo-ore-no-seishun-love-come-wa-machigatteiru",
  "year": 2013,
  "banner_url": "",
  "icon_url": "",
  "coverart": "https://lutris.net/media/igdb/cover_big/co1qzb.jpg",
  "platforms": [
    {
      "name": "PlayStation Vita"
    }
  ],
  "provider_games": [
    {
      "name": "Yahari Game Demo Ore no Seishun Love-come wa Machigatteiru.",
      "slug": "yahari-game-demo-ore-no-seishun-love-come-wa-machigatteiru",
      "service": "igdb"
    }
  ],
  "aliases": [],
  "shaders": [],
  "discord_id": "",
  "change_for": null
}