{
  "id": 223854,
  "name": "The Lawyer: Episode 1 - The White Bag",
  "slug": "the-lawyer-episode-1-the-white-bag",
  "year": null,
  "banner_url": "",
  "icon_url": "",
  "coverart": "https://lutris.net/media/igdb/cover_big/co5n6n.jpg",
  "platforms": [],
  "provider_games": [
    {
      "name": "The Lawyer: Episode 1 - The White Bag",
      "slug": "the-lawyer-episode-1-the-white-bag",
      "service": "igdb"
    }
  ],
  "aliases": [],
  "shaders": [],
  "discord_id": "",
  "change_for": null
}