{
  "id": 49676,
  "name": "Ace of Spades: Battle Builder",
  "slug": "ace-of-spades-battle-builder",
  "year": 2012,
  "banner_url": "",
  "icon_url": "",
  "coverart": "https://lutris.net/media/igdb/cover_big/co1rub.jpg",
  "platforms": [
    {
      "name": "Mac"
    },
    {
      "name": "Windows"
    }
  ],
  "provider_games": [
    {
      "name": "Ace of Spades: Battle Builder",
      "slug": "ace-of-spades-battle-builder",
      "service": "igdb"
    }
  ],
  "aliases": [],
  "shaders": [],
  "discord_id": "",
  "change_for": null
}