{
  "id": 136929,
  "name": "Tom Clancy's Rainbow Six Extraction: Limited Edition",
  "slug": "tom-clancys-rainbow-six-extraction-limited-edition",
  "year": 2022,
  "banner_url": "",
  "icon_url": "",
  "coverart": "https://lutris.net/media/igdb/cover_big/co3gn1.jpg",
  "platforms": [
    {
      "name": "Sony Playstation 4"
    },
    {
      "name": "Sony PlayStation 5"
    },
    {
      "name": "Windows"
    },
    {
      "name": "Xbox One"
    },
    {
      "name": "Xbox Series X|S"
    }
  ],
  "provider_games": [
    {
      "name": "Tom Clancy's Rainbow Six Extraction: Limited Edition",
      "slug": "tom-clancys-rainbow-six-extraction-limited-edition",
      "service": "igdb"
    }
  ],
  "aliases": [],
  "shaders": [],
  "discord_id": "",
  "change_for": null
}