{
  "id": 232240,
  "name": "A Valentine's Day Quizzle",
  "slug": "a-valentines-day-quizzle",
  "year": null,
  "banner_url": "",
  "icon_url": "",
  "coverart": null,
  "platforms": [],
  "provider_games": [
    {
      "name": "A Valentine's Day Quizzle",
      "slug": "a-valentines-day-quizzle",
      "service": "igdb"
    }
  ],
  "aliases": [],
  "shaders": [],
  "discord_id": "",
  "change_for": null
}