{
  "id": 241040,
  "name": "Fishdom Solitaire",
  "slug": "fishdom-solitaire",
  "year": null,
  "banner_url": "",
  "icon_url": "",
  "coverart": null,
  "platforms": [],
  "provider_games": [
    {
      "name": "Fishdom Solitaire",
      "slug": "fishdom-solitaire",
      "service": "igdb"
    }
  ],
  "aliases": [],
  "shaders": [],
  "discord_id": "",
  "change_for": null
}