{
  "id": 130248,
  "name": "Joan of Arc: The Beginning",
  "slug": "joan-of-arc-the-beginning",
  "year": 2021,
  "banner_url": "",
  "icon_url": "",
  "coverart": "https://lutris.net/media/igdb/cover_big/co3h8f.jpg",
  "platforms": [
    {
      "name": "Mac"
    },
    {
      "name": "Windows"
    }
  ],
  "provider_games": [
    {
      "name": "Joan of Arc: The Beginning",
      "slug": "joan-of-arc-the-beginning",
      "service": "igdb"
    }
  ],
  "aliases": [],
  "shaders": [],
  "discord_id": "",
  "change_for": null
}