{
  "id": 16456,
  "game_id": 281,
  "game_slug": "batman-arkham-asylum-goty-edition",
  "name": "Batman: Arkham Asylum",
  "year": 2009,
  "user": "Marcb",
  "runner": "wine",
  "slug": "batman-arkham-asylum-epic-games",
  "version": "Epic Games",
  "description": null,
  "notes": "Only installs the Epic Games Store. You'll need to install Batman: Arkham Asylum manually.",
  "credits": "",
  "created_at": "2019-10-28T07:58:50.654000Z",
  "updated_at": "2023-06-13T01:34:06.688444Z",
  "draft": false,
  "published": true,
  "published_by": 19464,
  "rating": "",
  "is_playable": null,
  "steamid": 35140,
  "gogid": 1482504285,
  "gogslug": "batman_arkham_asylum_goty",
  "humbleid": "",
  "humblestoreid": "",
  "humblestoreid_real": "batman-arkham-asylum-goty-edition",
  "script": {
    "files": [
      {
        "epic": "https://launcher-public-service-prod06.ol.epicgames.com/launcher/api/installer/download/EpicGamesLauncherInstaller.msi"
      },
      {
        "audio": "https://lutris.net/files/tools/directx-2010.tar.gz"
      },
      {
        "mfinstaller": "https://github.com/z0z0z/mf-install/archive/master.zip"
      }
    ],
    "game": {
      "arch": "win32",
      "args": "-opengl",
      "exe": "drive_c/Program Files (x86)/Epic Games/Launcher/Portal/Binaries/Win32/EpicGamesLauncher.exe",
      "prefix": "$GAMEDIR/prefix"
    },
    "installer": [
      {
        "extract": {
          "dst": "$CACHE/dxsetup",
          "file": "audio"
        }
      },
      {
        "task": {
          "arch": "win32",
          "name": "create_prefix",
          "prefix": "$GAMEDIR/prefix"
        }
      },
      {
        "extract": {
          "dst": "$CACHE/mfinstaller",
          "file": "mfinstaller"
        }
      },
      {
        "execute": {
          "command": "$CACHE/mfinstaller/install-mf.sh",
          "env": {
            "WINEPREFIX": "$GAMEDIR"
          },
          "terminal": true
        }
      },
      {
        "task": {
          "arch": "win32",
          "args": "/silent",
          "executable": "$CACHE/dxsetup/DXSETUP.exe",
          "name": "wineexec",
          "prefix": "$GAMEDIR"
        }
      },
      {
        "task": {
          "arch": "win32",
          "name": "winekill",
          "prefix": "$GAMEDIR"
        }
      },
      {
        "task": {
          "app": "arial dotnet48",
          "arch": "win32",
          "description": "Installing dependencies",
          "name": "winetricks",
          "prefix": "$GAMEDIR"
        }
      },
      {
        "copy": {
          "dst": "$CACHE/epic/",
          "src": "epic"
        }
      },
      {
        "task": {
          "arch": "win32",
          "args": "/i \"$CACHE/epic/EpicGamesLauncherInstaller.msi\" /q",
          "exclude_processes": "EpicGamesLauncher.exe",
          "executable": "msiexec",
          "name": "wineexec",
          "prefix": "$GAMEDIR"
        }
      },
      {
        "task": {
          "arch": "win32",
          "name": "winekill",
          "prefix": "$GAMEDIR"
        }
      },
      {
        "task": {
          "app": "winxp dotnet20 dotnet35 physx mdx d3dx9 d3dcompiler_43",
          "arch": "win32",
          "description": "Installing various fixes. This might take a while...",
          "name": "winetricks",
          "prefix": "$GAMEDIR/prefix",
          "silent": false
        }
      }
    ],
    "system": {
      "env": {
        "MESA_GL_VERSION_OVERRIDE": "4.4COMPAT",
        "__GL_SHADER_DISK_CACHE": 1,
        "__GL_SHADER_DISK_CACHE_PATH": "$GAMEDIR"
      }
    }
  },
  "content": "files:\n- epic: https://launcher-public-service-prod06.ol.epicgames.com/launcher/api/installer/download/EpicGamesLauncherInstaller.msi\n- audio: https://lutris.net/files/tools/directx-2010.tar.gz\n- mfinstaller: https://github.com/z0z0z/mf-install/archive/master.zip\ngame:\n  arch: win32\n  args: -opengl\n  exe: drive_c/Program Files (x86)/Epic Games/Launcher/Portal/Binaries/Win32/EpicGamesLauncher.exe\n  prefix: $GAMEDIR/prefix\ninstaller:\n- extract:\n    dst: $CACHE/dxsetup\n    file: audio\n- task:\n    arch: win32\n    name: create_prefix\n    prefix: $GAMEDIR/prefix\n- extract:\n    dst: $CACHE/mfinstaller\n    file: mfinstaller\n- execute:\n    command: $CACHE/mfinstaller/install-mf.sh\n    env:\n      WINEPREFIX: $GAMEDIR\n    terminal: true\n- task:\n    arch: win32\n    args: /silent\n    executable: $CACHE/dxsetup/DXSETUP.exe\n    name: wineexec\n    prefix: $GAMEDIR\n- task:\n    arch: win32\n    name: winekill\n    prefix: $GAMEDIR\n- task:\n    app: arial dotnet48\n    arch: win32\n    description: Installing dependencies\n    name: winetricks\n    prefix: $GAMEDIR\n- copy:\n    dst: $CACHE/epic/\n    src: epic\n- task:\n    arch: win32\n    args: /i \"$CACHE/epic/EpicGamesLauncherInstaller.msi\" /q\n    exclude_processes: EpicGamesLauncher.exe\n    executable: msiexec\n    name: wineexec\n    prefix: $GAMEDIR\n- task:\n    arch: win32\n    name: winekill\n    prefix: $GAMEDIR\n- task:\n    app: winxp dotnet20 dotnet35 physx mdx d3dx9 d3dcompiler_43\n    arch: win32\n    description: Installing various fixes. This might take a while...\n    name: winetricks\n    prefix: $GAMEDIR/prefix\n    silent: false\nsystem:\n  env:\n    MESA_GL_VERSION_OVERRIDE: 4.4COMPAT\n    __GL_SHADER_DISK_CACHE: 1\n    __GL_SHADER_DISK_CACHE_PATH: $GAMEDIR\n",
  "discord_id": ""
}