{
  "id": 237685,
  "name": "Ready, Steady, Ship!",
  "slug": "ready-steady-ship",
  "year": null,
  "banner_url": "",
  "icon_url": "",
  "coverart": "https://lutris.net/media/igdb/cover_big/co63v9.jpg",
  "platforms": [],
  "provider_games": [
    {
      "name": "Ready, Steady, Ship!",
      "slug": "ready-steady-ship",
      "service": "igdb"
    },
    {
      "name": "Ready, Steady, Ship!",
      "slug": "1426773992",
      "service": "gog"
    }
  ],
  "aliases": [],
  "shaders": [],
  "discord_id": "",
  "change_for": null
}