{
  "id": 54961,
  "name": "Spectral Force Chronicle",
  "slug": "spectral-force-chronicle",
  "year": 2005,
  "banner_url": "",
  "icon_url": "",
  "coverart": "https://lutris.net/media/igdb/cover_big/t8bpcuoqgjis2o6cnqx4.jpg",
  "platforms": [
    {
      "name": "Sony PlayStation 2"
    }
  ],
  "provider_games": [
    {
      "name": "Spectral Force Chronicle",
      "slug": "spectral-force-chronicle",
      "service": "igdb"
    }
  ],
  "aliases": [],
  "shaders": [],
  "discord_id": "",
  "change_for": null
}