{
  "id": 19501,
  "name": "Arthur's Nightmare",
  "slug": "arthurs-nightmare",
  "year": 2018,
  "banner_url": "https://lutris.net/games/banner/arthurs-nightmare.jpg",
  "icon_url": "",
  "coverart": null,
  "platforms": [
    {
      "name": "Linux"
    }
  ],
  "provider_games": [
    {
      "name": "Arthur's nightmare",
      "slug": "arthurs-nightmare",
      "service": "igdb"
    }
  ],
  "aliases": [],
  "shaders": [],
  "discord_id": "",
  "change_for": null
}