{
  "id": 223532,
  "name": "Independence Day",
  "slug": "independence-day--3",
  "year": null,
  "banner_url": "",
  "icon_url": "",
  "coverart": "https://lutris.net/media/igdb/cover_big/co4w5u.jpg",
  "platforms": [],
  "provider_games": [
    {
      "name": "Independence Day",
      "slug": "independence-day--3",
      "service": "igdb"
    }
  ],
  "aliases": [],
  "shaders": [],
  "discord_id": "",
  "change_for": null
}