{
  "id": 73178,
  "name": "Hidden Object: Home for the Holidays",
  "slug": "hidden-object-home-for-the-holidays",
  "year": null,
  "banner_url": "",
  "icon_url": "",
  "coverart": null,
  "platforms": [],
  "provider_games": [
    {
      "name": "Hidden Object: Home for the Holidays",
      "slug": "hidden-object-home-for-the-holidays",
      "service": "igdb"
    }
  ],
  "aliases": [],
  "shaders": [],
  "discord_id": "",
  "change_for": null
}