{
  "id": 276321,
  "name": "Endless Ocean",
  "slug": "endless-ocean--1",
  "year": null,
  "banner_url": "",
  "icon_url": "",
  "coverart": "https://lutris.net/media/igdb/cover_big/co7utk.jpg",
  "platforms": [],
  "provider_games": [
    {
      "name": "Endless Ocean",
      "slug": "endless-ocean--1",
      "service": "igdb"
    }
  ],
  "aliases": [],
  "shaders": [],
  "discord_id": "",
  "change_for": null
}