{
  "id": 57994,
  "name": "Rin the Tamarin",
  "slug": "rin-the-tamarin",
  "year": null,
  "banner_url": "",
  "icon_url": "",
  "coverart": "https://lutris.net/media/igdb/cover_big/co2iihmmutx4cz74gscv.jpg",
  "platforms": [],
  "provider_games": [
    {
      "name": "Rin the Tamarin",
      "slug": "rin-the-tamarin",
      "service": "igdb"
    }
  ],
  "aliases": [],
  "shaders": [],
  "discord_id": "",
  "change_for": null
}