{
  "id": 23588,
  "game_id": 947,
  "game_slug": "spec-ops-the-line",
  "name": "Spec Ops: The Line",
  "year": 2012,
  "user": "schmarky",
  "runner": "wine",
  "slug": "spec-ops-the-line-gog",
  "version": "GOG",
  "description": "The GOG version is missing the multiplayer mode. However, the game was intended as strictly a singleplayer experience.",
  "notes": "",
  "credits": "",
  "created_at": "2020-09-29T20:10:32.622000Z",
  "updated_at": "2021-01-10T07:09:37.609874Z",
  "draft": false,
  "published": true,
  "published_by": 1,
  "rating": "",
  "is_playable": null,
  "steamid": 50300,
  "gogid": 1710761915,
  "gogslug": "spec_ops_the_line",
  "humbleid": "",
  "humblestoreid": "",
  "humblestoreid_real": "spec-ops-the-line",
  "script": {
    "files": [
      {
        "goginstaller": "N/A:Please select the GOG.com Windows installer"
      }
    ],
    "game": {
      "arch": "win32",
      "exe": "drive_c/GOG Games/Spec Ops The Line/Binaries/Win32/SpecOpsTheLine.exe",
      "prefix": "$GAMEDIR"
    },
    "installer": [
      {
        "task": {
          "arch": "win32",
          "name": "create_prefix",
          "prefix": "$GAMEDIR"
        }
      },
      {
        "task": {
          "arch": "win32",
          "args": "/LANG=English /SP- /SUPPRESSMSGBOXES",
          "executable": "goginstaller",
          "name": "wineexec",
          "prefix": "$GAMEDIR"
        }
      }
    ]
  },
  "content": "files:\n- goginstaller: N/A:Please select the GOG.com Windows installer\ngame:\n  arch: win32\n  exe: drive_c/GOG Games/Spec Ops The Line/Binaries/Win32/SpecOpsTheLine.exe\n  prefix: $GAMEDIR\ninstaller:\n- task:\n    arch: win32\n    name: create_prefix\n    prefix: $GAMEDIR\n- task:\n    arch: win32\n    args: /LANG=English /SP- /SUPPRESSMSGBOXES\n    executable: goginstaller\n    name: wineexec\n    prefix: $GAMEDIR\n",
  "discord_id": ""
}