{
  "id": 1613,
  "game_id": 947,
  "game_slug": "spec-ops-the-line",
  "name": "Spec Ops: The Line",
  "year": 2012,
  "user": "KimplE",
  "runner": "steam",
  "slug": "spec-ops-the-line-steam",
  "version": "Steam",
  "description": "",
  "notes": "",
  "credits": "",
  "created_at": "2015-09-29T20:44:05.599000Z",
  "updated_at": "2022-06-09T00:55:31.629952Z",
  "draft": false,
  "published": true,
  "published_by": null,
  "rating": "",
  "is_playable": true,
  "steamid": 50300,
  "gogid": 1710761915,
  "gogslug": "spec_ops_the_line",
  "humbleid": "",
  "humblestoreid": "",
  "humblestoreid_real": "spec-ops-the-line",
  "script": {
    "game": {
      "appid": 50300
    }
  },
  "content": "game:\r\n  appid: 50300",
  "discord_id": ""
}