{
  "id": 5688,
  "game_id": 1547,
  "game_slug": "the-shivah",
  "name": "The Shivah",
  "year": 2006,
  "user": "FakeShemp",
  "runner": "ags",
  "slug": "the-shivah-groupees",
  "version": "Groupees",
  "description": "Uses the files from the Windows installer from Groupees.",
  "notes": "",
  "credits": "",
  "created_at": "2017-09-11T16:41:40.556000Z",
  "updated_at": "2024-04-03T05:13:30.603875Z",
  "draft": false,
  "published": true,
  "published_by": null,
  "rating": "",
  "is_playable": null,
  "steamid": 252370,
  "gogid": 1207660263,
  "gogslug": "the_shivah",
  "humbleid": "shivah",
  "humblestoreid": "shivah",
  "humblestoreid_real": "shivah",
  "script": {
    "files": [
      {
        "file1": "N/A:Please select the Groupees installer"
      },
      {
        "file2": "https://lutris.nyc3.digitaloceanspaces.com/tools/innoextract/innoextract-1.8-dev-2019-01-13-linux.tar.xz"
      }
    ],
    "game": {
      "main_file": "shivah.exe"
    },
    "installer": [
      {
        "extract": {
          "dst": "$CACHE",
          "file": "$file2"
        }
      },
      {
        "execute": {
          "args": "-d \"$CACHE\" \"$file1\"",
          "file": "$CACHE/innoextract"
        }
      },
      {
        "merge": {
          "dst": "$GAMEDIR",
          "src": "$CACHE/app"
        }
      }
    ]
  },
  "content": "files:\n- file1: N/A:Please select the Groupees installer\n- file2: https://lutris.nyc3.digitaloceanspaces.com/tools/innoextract/innoextract-1.8-dev-2019-01-13-linux.tar.xz\ngame:\n  main_file: shivah.exe\ninstaller:\n- extract:\n    dst: $CACHE\n    file: $file2\n- execute:\n    args: -d \"$CACHE\" \"$file1\"\n    file: $CACHE/innoextract\n- merge:\n    dst: $GAMEDIR\n    src: $CACHE/app\n",
  "discord_id": ""
}