{
  "id": 68071,
  "name": "CoreTechs Tactics",
  "slug": "coretechs-tactics",
  "year": null,
  "banner_url": "",
  "icon_url": "",
  "coverart": "https://lutris.net/media/igdb/cover_big/tr87vuweb38hswqvgdef.jpg",
  "platforms": [],
  "provider_games": [
    {
      "name": "CoreTechs Tactics",
      "slug": "coretechs-tactics",
      "service": "igdb"
    }
  ],
  "aliases": [],
  "shaders": [],
  "discord_id": "",
  "change_for": null
}