{
  "id": 172577,
  "name": "Vectorman 2",
  "slug": "vectorman-2",
  "year": 1996,
  "banner_url": "https://lutris.net/games/banner/vectorman-2.jpg",
  "icon_url": "",
  "coverart": "https://lutris.net/media/igdb/cover_big/co2k8c.jpg",
  "platforms": [
    {
      "name": "Sega Genesis / Mega Drive"
    }
  ],
  "provider_games": [
    {
      "name": "VectorMan 2",
      "slug": "vectorman-2",
      "service": "igdb"
    }
  ],
  "aliases": [],
  "shaders": [],
  "discord_id": "",
  "change_for": null
}