{
  "id": 40631,
  "name": "Combat Mission Shock Force 2",
  "slug": "combat-mission-shock-force-2",
  "year": 2020,
  "banner_url": "https://lutris.net/games/banner/combat-mission-shock-force-2.jpg",
  "icon_url": "https://lutris.net/games/icon/combat-mission-shock-force-2.png",
  "coverart": "https://lutris.net/media/igdb/cover_big/co2fv0.jpg",
  "platforms": [
    {
      "name": "Windows"
    }
  ],
  "provider_games": [
    {
      "name": "Combat Mission Shock Force 2",
      "slug": "1369370",
      "service": "steam"
    },
    {
      "name": "Combat Mission Shock Force 2",
      "slug": "combat-mission-shock-force-2",
      "service": "igdb"
    },
    {
      "name": "Combat Mission Shock Force 2",
      "slug": "1080005374",
      "service": "gog"
    }
  ],
  "aliases": [],
  "shaders": [],
  "discord_id": "",
  "change_for": null
}