{
  "id": 156395,
  "name": "Hitman Reborn!",
  "slug": "hitman-reborn",
  "year": null,
  "banner_url": "",
  "icon_url": "",
  "coverart": null,
  "platforms": [],
  "provider_games": [
    {
      "name": "Hitman Reborn!",
      "slug": "hitman-reborn",
      "service": "igdb"
    }
  ],
  "aliases": [],
  "shaders": [],
  "discord_id": "",
  "change_for": null
}