{
  "id": 10736,
  "name": "GoatPunks",
  "slug": "goatpunks",
  "year": 2017,
  "banner_url": "https://lutris.net/games/banner/goatpunks.jpg",
  "icon_url": "https://lutris.net/games/icon/goatpunks.png",
  "coverart": "https://lutris.net/media/igdb/cover_big/ydmeckdcwyqlkpwxcikz.jpg",
  "platforms": [
    {
      "name": "Linux"
    },
    {
      "name": "Mac"
    },
    {
      "name": "Nintendo Switch"
    },
    {
      "name": "Windows"
    },
    {
      "name": "Xbox One"
    }
  ],
  "provider_games": [
    {
      "name": "GoatPunks",
      "slug": "425450",
      "service": "steam"
    },
    {
      "name": "GoatPunks",
      "slug": "goatpunks",
      "service": "igdb"
    }
  ],
  "aliases": [],
  "shaders": [],
  "discord_id": "",
  "change_for": null
}