{
  "id": 174865,
  "name": "Space Shark",
  "slug": "space-shark",
  "year": 1990,
  "banner_url": "",
  "icon_url": "",
  "coverart": "https://lutris.net/media/igdb/cover_big/co48j3.jpg",
  "platforms": [
    {
      "name": "Apple IIGS"
    }
  ],
  "provider_games": [
    {
      "name": "Space Shark",
      "slug": "space-shark",
      "service": "igdb"
    }
  ],
  "aliases": [],
  "shaders": [],
  "discord_id": "",
  "change_for": null
}