{
  "id": 266085,
  "name": "Anonymous Hacker Simulator: Prologue",
  "slug": "anonymous-hacker-simulator-prologue",
  "year": 2023,
  "banner_url": "https://lutris.net/games/banner/anonymous-hacker-simulator-prologue.jpg",
  "icon_url": "",
  "coverart": null,
  "platforms": [
    {
      "name": "Linux"
    }
  ],
  "provider_games": [],
  "aliases": [],
  "shaders": [],
  "discord_id": "",
  "change_for": null
}