{
  "id": 17087,
  "game_id": 19856,
  "game_slug": "battle-realms",
  "name": "Battle Realms",
  "year": 2012,
  "user": "vinz1992",
  "runner": "wine",
  "slug": "battle-realms-battle-realms",
  "version": "battle realms",
  "description": "try",
  "notes": "try",
  "credits": "",
  "created_at": "2019-11-29T14:30:34.972000Z",
  "updated_at": "2019-12-23T10:50:27.760525Z",
  "draft": false,
  "published": true,
  "published_by": 20548,
  "rating": "",
  "is_playable": null,
  "steamid": null,
  "gogid": null,
  "gogslug": "",
  "humbleid": "",
  "humblestoreid": "",
  "humblestoreid_real": "",
  "script": {
    "files": [
      {
        "install": "N/A:Select the Windows setup file downloaded from GOG"
      }
    ],
    "game": {
      "exe": "$GAMEDIR/drive_c/game/battle-realms/Battle_Realms_F.exe",
      "prefix": "$GAMEDIR"
    },
    "installer": [
      {
        "task": {
          "args": "/LANG=en /SP- /NOCANCEL /SUPPRESSMSGBOXES /NOGUI /DIR=\"C:/game/battle-realms\"",
          "executable": "install",
          "name": "wineexec",
          "prefix": "$GAMEDIR"
        }
      },
      {
        "task": {
          "arch": "win32",
          "description": "Creating Wine prefix...",
          "name": "create_prefix",
          "prefix": "$GAMEDIR"
        }
      }
    ],
    "system": {
      "reset_desktop": true,
      "restore_gamma": true
    }
  },
  "content": "files:\n- install: N/A:Select the Windows setup file downloaded from GOG\ngame:\n  exe: $GAMEDIR/drive_c/game/battle-realms/Battle_Realms_F.exe\n  prefix: $GAMEDIR\ninstaller:\n- task:\n    args: /LANG=en /SP- /NOCANCEL /SUPPRESSMSGBOXES /NOGUI /DIR=\"C:/game/battle-realms\"\n    executable: install\n    name: wineexec\n    prefix: $GAMEDIR\n- task:\n    arch: win32\n    description: Creating Wine prefix...\n    name: create_prefix\n    prefix: $GAMEDIR\nsystem:\n  reset_desktop: true\n  restore_gamma: true\n",
  "discord_id": ""
}