{
  "id": 33603,
  "name": "Casanova",
  "slug": "casanova",
  "year": 1989,
  "banner_url": "",
  "icon_url": "https://lutris.net/games/icon/casanova.png",
  "coverart": "https://lutris.net/media/igdb/cover_big/co2mxg.jpg",
  "platforms": [
    {
      "name": "Amstrad CPC"
    },
    {
      "name": "Arcade"
    },
    {
      "name": "MSX"
    },
    {
      "name": "ZX Spectrum"
    }
  ],
  "provider_games": [
    {
      "name": "Casanova",
      "slug": "casanova",
      "service": "mame"
    },
    {
      "name": "Casanova",
      "slug": "casanova",
      "service": "igdb"
    }
  ],
  "aliases": [],
  "shaders": [],
  "discord_id": "",
  "change_for": null
}