{
  "id": 36931,
  "name": "Wanderlust: Travel Stories",
  "slug": "wanderlust-travel-stories",
  "year": 2019,
  "banner_url": "https://lutris.net/games/banner/wanderlust-travel-stories.jpg",
  "icon_url": "",
  "coverart": "https://lutris.net/media/igdb/cover_big/co1mvi.jpg",
  "platforms": [
    {
      "name": "Linux"
    },
    {
      "name": "Mac"
    },
    {
      "name": "Nintendo Switch"
    },
    {
      "name": "Windows"
    }
  ],
  "provider_games": [
    {
      "name": "Wanderlust: Travel Stories",
      "slug": "1739170762",
      "service": "gog"
    },
    {
      "name": "Wanderlust: Travel Stories",
      "slug": "1051410",
      "service": "steam"
    },
    {
      "name": "Wanderlust Travel Stories",
      "slug": "wanderlust-travel-stories",
      "service": "igdb"
    }
  ],
  "aliases": [],
  "shaders": [],
  "discord_id": "",
  "change_for": null
}