{
  "id": 210653,
  "name": "Nazotoki Battle Tore! Densetsu no Mamiya wo Fukkatsu Saseyo!",
  "slug": "nazotoki-battle-tore-densetsu-no-mamiya-wo-fukkatsu-saseyo",
  "year": null,
  "banner_url": "",
  "icon_url": "",
  "coverart": null,
  "platforms": [],
  "provider_games": [
    {
      "name": "Nazotoki Battle Tore! Densetsu no Mamiya wo Fukkatsu Saseyo!",
      "slug": "nazotoki-battle-tore-densetsu-no-mamiya-wo-fukkatsu-saseyo",
      "service": "igdb"
    }
  ],
  "aliases": [],
  "shaders": [],
  "discord_id": "",
  "change_for": null
}