{
  "id": 163658,
  "name": "Musapey's Choco Marker",
  "slug": "musapeys-choco-marker",
  "year": 2003,
  "banner_url": "",
  "icon_url": "",
  "coverart": "https://lutris.net/media/igdb/cover_big/csixq0socdectsiewqjs.jpg",
  "platforms": [
    {
      "name": "Dreamcast"
    }
  ],
  "provider_games": [
    {
      "name": "Musapey's Choco Marker",
      "slug": "musapeys-choco-marker",
      "service": "igdb"
    }
  ],
  "aliases": [],
  "shaders": [],
  "discord_id": "",
  "change_for": null
}