{
  "id": 237509,
  "name": "PyroSlam: VR Table Tennis",
  "slug": "pyroslam-vr-table-tennis",
  "year": null,
  "banner_url": "",
  "icon_url": "",
  "coverart": "https://lutris.net/media/igdb/cover_big/co660c.jpg",
  "platforms": [],
  "provider_games": [
    {
      "name": "PyroSlam: VR Table Tennis",
      "slug": "pyroslam-vr-table-tennis",
      "service": "igdb"
    }
  ],
  "aliases": [],
  "shaders": [],
  "discord_id": "",
  "change_for": null
}