{
  "id": 55736,
  "name": "Bop'n Rumble",
  "slug": "bopn-rumble",
  "year": 1986,
  "banner_url": "",
  "icon_url": "",
  "coverart": "https://lutris.net/media/igdb/cover_big/qt4vb8mo3mhks1h9edpz.jpg",
  "platforms": [
    {
      "name": "Commodore C64/128"
    }
  ],
  "provider_games": [
    {
      "name": "Bop'n Rumble",
      "slug": "bopn-rumble",
      "service": "igdb"
    }
  ],
  "aliases": [],
  "shaders": [],
  "discord_id": "",
  "change_for": null
}