{
  "id": 50810,
  "name": "Disney's Beauty and the Beast: Roar of the Beast",
  "slug": "disney-s-beauty-and-the-beast-roar-of-the-beast",
  "year": 1993,
  "banner_url": "",
  "icon_url": "",
  "coverart": "https://lutris.net/media/igdb/cover_big/co1w1h.jpg",
  "platforms": [
    {
      "name": "Sega Genesis / Mega Drive"
    }
  ],
  "provider_games": [
    {
      "name": "Disney's Beauty and the Beast: Roar of the Beast",
      "slug": "disney-s-beauty-and-the-beast-roar-of-the-beast",
      "service": "igdb"
    }
  ],
  "aliases": [],
  "shaders": [],
  "discord_id": "",
  "change_for": null
}