{
  "id": 35093,
  "name": "SD Gundam Neo Battling",
  "slug": "sd-gundam-neo-battling",
  "year": 1992,
  "banner_url": "",
  "icon_url": "https://lutris.net/games/icon/sd-gundam-neo-battling.png",
  "coverart": "https://lutris.net/media/igdb/cover_big/tkd090fh0ehb2fmicjem.jpg",
  "platforms": [
    {
      "name": "Arcade"
    }
  ],
  "provider_games": [
    {
      "name": "SD Gundam Neo Battling",
      "slug": "neobattl",
      "service": "mame"
    },
    {
      "name": "SD Gundam Neo Battling",
      "slug": "sd-gundam-neo-battling",
      "service": "igdb"
    }
  ],
  "aliases": [],
  "shaders": [],
  "discord_id": "",
  "change_for": null
}