{
  "id": 26697,
  "name": "Schacht",
  "slug": "schacht",
  "year": 2017,
  "banner_url": "https://lutris.net/games/banner/schacht.jpg",
  "icon_url": "https://lutris.net/games/icon/schacht.png",
  "coverart": "https://lutris.net/media/igdb/cover_big/co2r8w.jpg",
  "platforms": [
    {
      "name": "Windows"
    }
  ],
  "provider_games": [
    {
      "name": "Schacht",
      "slug": "513300",
      "service": "steam"
    },
    {
      "name": "Schacht",
      "slug": "schacht",
      "service": "igdb"
    }
  ],
  "aliases": [],
  "shaders": [],
  "discord_id": "",
  "change_for": null
}