{
  "id": 30907,
  "name": "Final Fantasy V Advance",
  "slug": "final-fantasy-v-advance",
  "year": 2006,
  "banner_url": "https://lutris.net/games/banner/final-fantasy-v-advance.jpg",
  "icon_url": "",
  "coverart": "https://lutris.net/media/igdb/cover_big/co2yc1.jpg",
  "platforms": [
    {
      "name": "Nintendo Game Boy Advance"
    }
  ],
  "provider_games": [
    {
      "name": "Final Fantasy V Advance",
      "slug": "final-fantasy-v-advance",
      "service": "igdb"
    }
  ],
  "aliases": [],
  "shaders": [],
  "discord_id": "",
  "change_for": null
}