{
  "id": 35197,
  "name": "Ozma Wars",
  "slug": "ozma-wars",
  "year": 1979,
  "banner_url": "https://lutris.net/games/banner/ozma-wars.jpg",
  "icon_url": "https://lutris.net/games/icon/ozma-wars.png",
  "coverart": "https://lutris.net/media/igdb/cover_big/glye6fbcocaudepjoyse.jpg",
  "platforms": [
    {
      "name": "Arcade"
    }
  ],
  "provider_games": [
    {
      "name": "Ozma Wars",
      "slug": "ozmawars",
      "service": "mame"
    },
    {
      "name": "Ozma Wars",
      "slug": "ozma-wars",
      "service": "igdb"
    }
  ],
  "aliases": [],
  "shaders": [],
  "discord_id": "",
  "change_for": null
}