{
  "id": 170792,
  "name": "Soul Rebellion",
  "slug": "soul-rebellion",
  "year": null,
  "banner_url": "",
  "icon_url": "",
  "coverart": "https://lutris.net/media/igdb/cover_big/co46xa.jpg",
  "platforms": [],
  "provider_games": [
    {
      "name": "Soul Rebellion",
      "slug": "soul-rebellion",
      "service": "igdb"
    }
  ],
  "aliases": [],
  "shaders": [],
  "discord_id": "",
  "change_for": null
}