{
  "id": 267554,
  "name": "Detective Masochist 3: The Case of the Naked Truth",
  "slug": "detective-masochist-3-the-case-of-the-naked-truth",
  "year": 2014,
  "banner_url": "",
  "icon_url": "",
  "coverart": "https://lutris.net/media/igdb/cover_big/co7g3e.jpg",
  "platforms": [
    {
      "name": "Windows"
    }
  ],
  "provider_games": [
    {
      "name": "Detective Masochist 3: The Case of the Naked Truth",
      "slug": "detective-masochist-3-the-case-of-the-naked-truth",
      "service": "igdb"
    }
  ],
  "aliases": [],
  "shaders": [],
  "discord_id": "",
  "change_for": null
}