{
  "id": 69169,
  "name": "GALS QUEST",
  "slug": "gals-quest",
  "year": null,
  "banner_url": "",
  "icon_url": "",
  "coverart": "https://lutris.net/media/igdb/cover_big/kcll6eeks4bg5icyuihb.jpg",
  "platforms": [],
  "provider_games": [
    {
      "name": "Gals Quest",
      "slug": "gals-quest",
      "service": "igdb"
    }
  ],
  "aliases": [],
  "shaders": [],
  "discord_id": "",
  "change_for": null
}