{
  "id": 263381,
  "name": "Furry Feet 2",
  "slug": "furry-feet-2",
  "year": null,
  "banner_url": "",
  "icon_url": "",
  "coverart": "https://lutris.net/media/igdb/cover_big/co79l8.jpg",
  "platforms": [],
  "provider_games": [
    {
      "name": "Furry Feet 2",
      "slug": "furry-feet-2",
      "service": "igdb"
    }
  ],
  "aliases": [],
  "shaders": [],
  "discord_id": "",
  "change_for": null
}