{
  "id": 257136,
  "name": "808s&Genetics",
  "slug": "808s-and-genetics",
  "year": null,
  "banner_url": "",
  "icon_url": "",
  "coverart": "https://lutris.net/media/igdb/cover_big/co70uy.jpg",
  "platforms": [],
  "provider_games": [
    {
      "name": "808s&Genetics",
      "slug": "808s-and-genetics",
      "service": "igdb"
    }
  ],
  "aliases": [],
  "shaders": [],
  "discord_id": "",
  "change_for": null
}