{
  "id": 92884,
  "name": "Blade & Wings",
  "slug": "blade-and-wings",
  "year": null,
  "banner_url": "",
  "icon_url": "",
  "coverart": null,
  "platforms": [],
  "provider_games": [
    {
      "name": "Blade & Wings",
      "slug": "blade-and-wings",
      "service": "igdb"
    }
  ],
  "aliases": [],
  "shaders": [],
  "discord_id": "",
  "change_for": null
}