{
  "id": 1794,
  "game_id": 4824,
  "game_slug": "simply-chess",
  "name": "Simply Chess",
  "year": 2015,
  "user": "RobLoach",
  "runner": "steam",
  "slug": "simply-chess-steam",
  "version": "Steam",
  "description": "",
  "notes": "",
  "credits": "",
  "created_at": "2015-12-29T08:36:08.384099Z",
  "updated_at": "2016-01-06T13:36:42.787096Z",
  "draft": false,
  "published": true,
  "published_by": null,
  "rating": "",
  "is_playable": null,
  "steamid": 312280,
  "gogid": null,
  "gogslug": "",
  "humbleid": "",
  "humblestoreid": "",
  "humblestoreid_real": "",
  "script": {
    "game": {
      "appid": 312280
    }
  },
  "content": "game:\r\n  appid: 312280\r\n",
  "discord_id": "491048607072387072"
}