{
  "id": 245007,
  "name": "Touhou Gyakumyouran: Ephemeral Unnatural Balance",
  "slug": "touhou-gyakumyouran-ephemeral-unnatural-balance",
  "year": 2019,
  "banner_url": "",
  "icon_url": "",
  "coverart": "https://lutris.net/media/igdb/cover_big/co6esb.jpg",
  "platforms": [
    {
      "name": "Windows"
    }
  ],
  "provider_games": [
    {
      "name": "Touhou Gyakumyouran: Ephemeral Unnatural Balance",
      "slug": "touhou-gyakumyouran-ephemeral-unnatural-balance",
      "service": "igdb"
    }
  ],
  "aliases": [],
  "shaders": [],
  "discord_id": "",
  "change_for": null
}