{
  "id": 195256,
  "name": "Secret of the Vikings: Mystery island",
  "slug": "secret-of-the-vikings-mystery-island",
  "year": null,
  "banner_url": "",
  "icon_url": "",
  "coverart": "https://lutris.net/media/igdb/cover_big/co4piz.jpg",
  "platforms": [],
  "provider_games": [
    {
      "name": "Secret of the Vikings: Mystery island",
      "slug": "secret-of-the-vikings-mystery-island",
      "service": "igdb"
    }
  ],
  "aliases": [],
  "shaders": [],
  "discord_id": "",
  "change_for": null
}