{
  "id": 6595,
  "name": "DiscStorm",
  "slug": "discstorm",
  "year": 2015,
  "banner_url": "https://lutris.net/games/banner/discstorm.jpg",
  "icon_url": "https://lutris.net/games/icon/discstorm.png",
  "coverart": "https://lutris.net/media/igdb/cover_big/cwrjq0dxru7ak0c3xdwr.jpg",
  "platforms": [
    {
      "name": "Linux"
    },
    {
      "name": "Mac"
    },
    {
      "name": "PlayStation Vita"
    },
    {
      "name": "Windows"
    }
  ],
  "provider_games": [
    {
      "name": "DiscStorm",
      "slug": "330670",
      "service": "steam"
    },
    {
      "name": "DiscStorm",
      "slug": "discstorm",
      "service": "igdb"
    }
  ],
  "aliases": [],
  "shaders": [],
  "discord_id": "",
  "change_for": null
}