{
  "id": 219965,
  "name": "Object Wars",
  "slug": "object-wars",
  "year": null,
  "banner_url": "",
  "icon_url": "",
  "coverart": "https://lutris.net/media/igdb/cover_big/co5jvb.jpg",
  "platforms": [],
  "provider_games": [
    {
      "name": "Object Wars",
      "slug": "object-wars",
      "service": "igdb"
    }
  ],
  "aliases": [],
  "shaders": [],
  "discord_id": "",
  "change_for": null
}