{
  "id": 264874,
  "name": "Tactical Rampart",
  "slug": "tactical-rampart",
  "year": null,
  "banner_url": "",
  "icon_url": "",
  "coverart": "https://lutris.net/media/igdb/cover_big/co7brq.jpg",
  "platforms": [],
  "provider_games": [
    {
      "name": "Tactical Rampart",
      "slug": "tactical-rampart",
      "service": "igdb"
    }
  ],
  "aliases": [],
  "shaders": [],
  "discord_id": "",
  "change_for": null
}