{
  "id": 54946,
  "name": "Super Trucks Racing",
  "slug": "super-trucks-racing",
  "year": 2003,
  "banner_url": "",
  "icon_url": "",
  "coverart": "https://lutris.net/media/igdb/cover_big/otrhdlwiveyc7tyly9ws.jpg",
  "platforms": [
    {
      "name": "Sony PlayStation 2"
    }
  ],
  "provider_games": [
    {
      "name": "Super Trucks Racing",
      "slug": "super-trucks-racing",
      "service": "igdb"
    }
  ],
  "aliases": [],
  "shaders": [],
  "discord_id": "",
  "change_for": null
}