{
  "id": 248731,
  "name": "Audsdg",
  "slug": "audsdg",
  "year": null,
  "banner_url": "",
  "icon_url": "",
  "coverart": "https://lutris.net/media/igdb/cover_big/co6n7y.jpg",
  "platforms": [],
  "provider_games": [
    {
      "name": "Audsdg",
      "slug": "audsdg",
      "service": "igdb"
    }
  ],
  "aliases": [],
  "shaders": [],
  "discord_id": "",
  "change_for": null
}