{
  "id": 63243,
  "name": "Lady Luck",
  "slug": "lady-luck",
  "year": null,
  "banner_url": "",
  "icon_url": "",
  "coverart": null,
  "platforms": [],
  "provider_games": [
    {
      "name": "Lady Luck",
      "slug": "lady-luck",
      "service": "igdb"
    }
  ],
  "aliases": [],
  "shaders": [],
  "discord_id": "",
  "change_for": null
}