{
  "id": 5936,
  "game_id": 12236,
  "game_slug": "black-squad",
  "name": "Black Squad",
  "year": 2017,
  "user": "SpeedyMexican",
  "runner": "steam",
  "slug": "black-squad-proton",
  "version": "Proton",
  "description": null,
  "notes": "",
  "credits": "",
  "created_at": "2017-10-11T16:43:00.336000Z",
  "updated_at": "2021-05-04T02:43:03.867707Z",
  "draft": false,
  "published": true,
  "published_by": null,
  "rating": "",
  "is_playable": null,
  "steamid": 550650,
  "gogid": null,
  "gogslug": "",
  "humbleid": "",
  "humblestoreid": "",
  "humblestoreid_real": "",
  "script": {
    "game": {
      "appid": 550650
    }
  },
  "content": "game:\n  appid: 550650\n",
  "discord_id": "358421399670358026"
}