{
  "id": 22100,
  "name": "Tropical Escape",
  "slug": "tropical-escape",
  "year": 2018,
  "banner_url": "https://lutris.net/games/banner/tropical-escape.jpg",
  "icon_url": "https://lutris.net/games/icon/tropical-escape.png",
  "coverart": "https://lutris.net/media/igdb/cover_big/yzamjx1wxvotcqppuayv.jpg",
  "platforms": [
    {
      "name": "Windows"
    }
  ],
  "provider_games": [
    {
      "name": "Tropical Escape",
      "slug": "729090",
      "service": "steam"
    },
    {
      "name": "Tropical Escape",
      "slug": "tropical-escape",
      "service": "igdb"
    }
  ],
  "aliases": [],
  "shaders": [],
  "discord_id": "",
  "change_for": null
}