{
  "id": 58676,
  "name": "Copts & Robbers",
  "slug": "copts-and-robbers",
  "year": 1981,
  "banner_url": "",
  "icon_url": "",
  "coverart": "https://lutris.net/media/igdb/cover_big/w7mtpzipjhlpbmfdgokd.jpg",
  "platforms": [
    {
      "name": "Apple II"
    }
  ],
  "provider_games": [
    {
      "name": "Copts & Robbers",
      "slug": "copts-and-robbers",
      "service": "igdb"
    }
  ],
  "aliases": [],
  "shaders": [],
  "discord_id": "",
  "change_for": null
}