{
  "id": 105756,
  "name": "Quiz & Dragons: Capcom Quiz Game",
  "slug": "quiz-and-dragons-capcom-quiz-game",
  "year": 1992,
  "banner_url": "",
  "icon_url": "",
  "coverart": "https://lutris.net/media/igdb/cover_big/co2tg0.jpg",
  "platforms": [],
  "provider_games": [
    {
      "name": "Quiz & Dragons: Capcom Quiz Game",
      "slug": "quiz-and-dragons-capcom-quiz-game",
      "service": "igdb"
    }
  ],
  "aliases": [],
  "shaders": [],
  "discord_id": "",
  "change_for": null
}