{
  "id": 39527,
  "name": "The Missing Locksmith",
  "slug": "the-missing-locksmith",
  "year": 2020,
  "banner_url": "https://lutris.net/games/banner/the-missing-locksmith.jpg",
  "icon_url": "",
  "coverart": "https://lutris.net/media/igdb/cover_big/co2l10.jpg",
  "platforms": [
    {
      "name": "Android"
    },
    {
      "name": "Linux"
    },
    {
      "name": "Mac"
    },
    {
      "name": "Windows"
    }
  ],
  "provider_games": [
    {
      "name": "The Missing Locksmith",
      "slug": "the-missing-locksmith",
      "service": "igdb"
    }
  ],
  "aliases": [],
  "shaders": [],
  "discord_id": "",
  "change_for": null
}