{
  "id": 197667,
  "name": "Pie.ai",
  "slug": "pie-dot-ai",
  "year": null,
  "banner_url": "",
  "icon_url": "",
  "coverart": null,
  "platforms": [],
  "provider_games": [
    {
      "name": "Pie.ai",
      "slug": "pie-dot-ai",
      "service": "igdb"
    }
  ],
  "aliases": [],
  "shaders": [],
  "discord_id": "",
  "change_for": null
}