{
  "id": 45202,
  "name": "Blob Game",
  "slug": "blob-game",
  "year": null,
  "banner_url": "",
  "icon_url": "",
  "coverart": "https://lutris.net/media/igdb/cover_big/bsb1ydqnkbisadbnqyla.jpg",
  "platforms": [],
  "provider_games": [
    {
      "name": "Blob Game",
      "slug": "blob-game",
      "service": "igdb"
    }
  ],
  "aliases": [],
  "shaders": [],
  "discord_id": "",
  "change_for": null
}