{
  "id": 5468,
  "name": "Tekken 6",
  "slug": "tekken-6",
  "year": 2007,
  "banner_url": "https://lutris.net/games/banner/tekken-6.jpg",
  "icon_url": "",
  "coverart": "https://lutris.net/media/igdb/cover_big/co1w4e.jpg",
  "platforms": [
    {
      "name": "Sony Playstation 3"
    },
    {
      "name": "Sony PSP"
    },
    {
      "name": "Xbox 360"
    }
  ],
  "provider_games": [
    {
      "name": "Tekken 6",
      "slug": "tekken-6",
      "service": "igdb"
    }
  ],
  "aliases": [],
  "shaders": [],
  "discord_id": "",
  "change_for": null
}