{
  "id": 13698,
  "name": "Michael Jackson's Moonwalker",
  "slug": "michael-jacksons-moonwalker",
  "year": 1990,
  "banner_url": "https://lutris.net/games/banner/michael-jacksons-moonwalker.jpg",
  "icon_url": "https://lutris.net/games/icon/michael-jacksons-moonwalker.png",
  "coverart": "https://lutris.net/media/igdb/cover_big/co20fl.jpg",
  "platforms": [
    {
      "name": "Amiga"
    },
    {
      "name": "Amstrad CPC"
    },
    {
      "name": "Arcade"
    },
    {
      "name": "Atari ST"
    },
    {
      "name": "Commodore C64/128"
    },
    {
      "name": "MSX"
    },
    {
      "name": "Sega Genesis / Mega Drive"
    },
    {
      "name": "Sega Master System"
    },
    {
      "name": "ZX Spectrum"
    }
  ],
  "provider_games": [
    {
      "name": "Michael Jackson's Moonwalker",
      "slug": "mwalk",
      "service": "mame"
    },
    {
      "name": "Michael Jackson's Moonwalker",
      "slug": "michael-jacksons-moonwalker",
      "service": "igdb"
    }
  ],
  "aliases": [],
  "shaders": [],
  "discord_id": "",
  "change_for": null
}