{
  "id": 253288,
  "name": "God Brawl",
  "slug": "god-brawl",
  "year": null,
  "banner_url": "",
  "icon_url": "",
  "coverart": "https://lutris.net/media/igdb/cover_big/co6u7i.jpg",
  "platforms": [],
  "provider_games": [
    {
      "name": "God Brawl",
      "slug": "god-brawl",
      "service": "igdb"
    }
  ],
  "aliases": [],
  "shaders": [],
  "discord_id": "",
  "change_for": null
}