{
  "id": 300542,
  "name": "Skibidi Toilet: Battle Royale",
  "slug": "skibidi-toilet-battle-royale",
  "year": 2024,
  "banner_url": "",
  "icon_url": "",
  "coverart": null,
  "platforms": [
    {
      "name": "Sony Playstation 4"
    }
  ],
  "provider_games": [
    {
      "name": "Skibidi Toilet: Battle Royale",
      "slug": "skibidi-toilet-battle-royale",
      "service": "igdb"
    }
  ],
  "aliases": [],
  "shaders": [],
  "discord_id": "",
  "change_for": null
}