{
  "id": 273798,
  "name": "Seiken Densetsu: Friends of Mana",
  "slug": "seiken-densetsu-friends-of-mana",
  "year": 2006,
  "banner_url": "",
  "icon_url": "",
  "coverart": "https://lutris.net/media/igdb/cover_big/co7xnc.jpg",
  "platforms": [
    {
      "name": "Legacy Cellphone"
    }
  ],
  "provider_games": [
    {
      "name": "Seiken Densetsu: Friends of Mana",
      "slug": "seiken-densetsu-friends-of-mana",
      "service": "igdb"
    }
  ],
  "aliases": [],
  "shaders": [],
  "discord_id": "",
  "change_for": null
}