{
  "id": 110231,
  "name": "500,000 Games 3.0",
  "slug": "500000-games-3-dot-0",
  "year": 2012,
  "banner_url": "",
  "icon_url": "",
  "coverart": "https://lutris.net/media/igdb/cover_big/co2yud.jpg",
  "platforms": [
    {
      "name": "Windows"
    }
  ],
  "provider_games": [
    {
      "name": "500,000 Games 3.0",
      "slug": "500000-games-3-dot-0",
      "service": "igdb"
    }
  ],
  "aliases": [],
  "shaders": [],
  "discord_id": "",
  "change_for": null
}