{
  "id": 59587,
  "name": "Mikan",
  "slug": "mikan",
  "year": null,
  "banner_url": "",
  "icon_url": "",
  "coverart": "https://lutris.net/media/igdb/cover_big/v1o1uh4qvwylscuw1iki.jpg",
  "platforms": [],
  "provider_games": [
    {
      "name": "Mikan",
      "slug": "mikan",
      "service": "igdb"
    }
  ],
  "aliases": [],
  "shaders": [],
  "discord_id": "",
  "change_for": null
}