{
  "id": 12617,
  "name": "Featherpunk Prime",
  "slug": "featherpunk-prime",
  "year": 2016,
  "banner_url": "https://lutris.net/games/banner/featherpunk-prime.jpg",
  "icon_url": "https://lutris.net/games/icon/featherpunk-prime.png",
  "coverart": "https://lutris.net/media/igdb/cover_big/co2q4y.jpg",
  "platforms": [
    {
      "name": "Windows"
    }
  ],
  "provider_games": [
    {
      "name": "Featherpunk Prime",
      "slug": "featherpunk-prime",
      "service": "igdb"
    }
  ],
  "aliases": [],
  "shaders": [],
  "discord_id": "",
  "change_for": null
}