{
  "id": 44894,
  "name": "Yetisports Deluxe",
  "slug": "yetisports-deluxe",
  "year": null,
  "banner_url": "",
  "icon_url": "",
  "coverart": "https://lutris.net/media/igdb/cover_big/co7h0w.jpg",
  "platforms": [],
  "provider_games": [
    {
      "name": "Yetisports Deluxe",
      "slug": "yetisports-deluxe",
      "service": "igdb"
    }
  ],
  "aliases": [],
  "shaders": [],
  "discord_id": "",
  "change_for": null
}