{
  "id": 222978,
  "name": "Megaman X Unleashed",
  "slug": "megaman-x-unleashed",
  "year": 2018,
  "banner_url": "",
  "icon_url": "",
  "coverart": "https://lutris.net/media/igdb/cover_big/co4wpy.jpg",
  "platforms": [
    {
      "name": "Windows"
    }
  ],
  "provider_games": [
    {
      "name": "Megaman X Unleashed",
      "slug": "megaman-x-unleashed",
      "service": "igdb"
    }
  ],
  "aliases": [],
  "shaders": [],
  "discord_id": "",
  "change_for": null
}