{
  "id": 17383,
  "game_id": 6065,
  "game_slug": "streets-of-rage-2",
  "name": "Streets of Rage 2",
  "year": 1992,
  "user": "leandrovitals",
  "runner": "libretro",
  "slug": "streets-of-rage-2-genesis",
  "version": "Genesis",
  "description": null,
  "notes": "",
  "credits": "",
  "created_at": "2019-12-17T00:50:30.105000Z",
  "updated_at": "2019-12-20T18:04:13.097856Z",
  "draft": false,
  "published": true,
  "published_by": 20548,
  "rating": "",
  "is_playable": null,
  "steamid": 71165,
  "gogid": null,
  "gogslug": "",
  "humbleid": "",
  "humblestoreid": "",
  "humblestoreid_real": "",
  "script": {
    "files": [
      {
        "rom": "N/A:Select the game's ROM file"
      }
    ],
    "game": {
      "core": "genesis_plus_gx",
      "main_file": "rom"
    },
    "installer": [
      {
        "merge": {
          "dst": "$GAMEDIR",
          "src": "rom"
        }
      }
    ]
  },
  "content": "files:\n- rom: N/A:Select the game's ROM file\ngame:\n  core: genesis_plus_gx\n  main_file: rom\ninstaller:\n- merge:\n    dst: $GAMEDIR\n    src: rom\n",
  "discord_id": ""
}