{
  "id": 245500,
  "name": "Hirata Shougo Interactive Ehon: Ookami to Shichi Hiki no Koyagi",
  "slug": "hirata-shougo-interactive-ehon-ookami-to-shichi-hiki-no-koyagi",
  "year": 1995,
  "banner_url": "",
  "icon_url": "",
  "coverart": "https://lutris.net/media/igdb/cover_big/co6dqr.jpg",
  "platforms": [
    {
      "name": "3DO"
    }
  ],
  "provider_games": [
    {
      "name": "Hirata Shougo Interactive Ehon: Ookami to Shichi Hiki no Koyagi",
      "slug": "hirata-shougo-interactive-ehon-ookami-to-shichi-hiki-no-koyagi",
      "service": "igdb"
    }
  ],
  "aliases": [],
  "shaders": [],
  "discord_id": "",
  "change_for": null
}