{
  "id": 10234,
  "name": "Die for the Empire",
  "slug": "die-for-the-empire",
  "year": 2016,
  "banner_url": "https://lutris.net/games/banner/die-for-the-empire.jpg",
  "icon_url": "https://lutris.net/games/icon/die-for-the-empire.png",
  "coverart": null,
  "platforms": [
    {
      "name": "Windows"
    }
  ],
  "provider_games": [
    {
      "name": "Die for the Empire",
      "slug": "537090",
      "service": "steam"
    },
    {
      "name": "Die for the Empire",
      "slug": "die-for-the-empire",
      "service": "igdb"
    }
  ],
  "aliases": [],
  "shaders": [],
  "discord_id": "",
  "change_for": null
}