{
  "id": 100340,
  "name": "Soviet Prisoner",
  "slug": "soviet-prisoner",
  "year": 1997,
  "banner_url": "",
  "icon_url": "",
  "coverart": "https://lutris.net/media/igdb/cover_big/co2atl.jpg",
  "platforms": [],
  "provider_games": [
    {
      "name": "Soviet Prisoner",
      "slug": "soviet-prisoner",
      "service": "igdb"
    }
  ],
  "aliases": [],
  "shaders": [],
  "discord_id": "",
  "change_for": null
}