{
  "id": 268925,
  "name": "Moto Rush GT: Diamond Edition",
  "slug": "moto-rush-gt-diamond-edition",
  "year": 2024,
  "banner_url": "",
  "icon_url": "",
  "coverart": "https://lutris.net/media/igdb/cover_big/co844y.jpg",
  "platforms": [
    {
      "name": "Nintendo Switch"
    }
  ],
  "provider_games": [
    {
      "name": "Moto Rush GT: Diamond Edition",
      "slug": "moto-rush-gt-diamond-edition",
      "service": "igdb"
    }
  ],
  "aliases": [],
  "shaders": [],
  "discord_id": "",
  "change_for": null
}