{
  "id": 104136,
  "name": "Crash Bandicoot Racing - 15th Anniversary Edition",
  "slug": "crash-bandicoot-racing-15th-anniversary-edition",
  "year": null,
  "banner_url": "",
  "icon_url": "",
  "coverart": null,
  "platforms": [],
  "provider_games": [
    {
      "name": "Crash Bandicoot Racing - 15th Anniversary Edition",
      "slug": "crash-bandicoot-racing-15th-anniversary-edition",
      "service": "igdb"
    }
  ],
  "aliases": [],
  "shaders": [],
  "discord_id": "",
  "change_for": null
}