{
  "id": 3567,
  "name": "OMG Zombies!",
  "slug": "omg-zombies",
  "year": 2012,
  "banner_url": "https://lutris.net/games/banner/omg-zombies.jpg",
  "icon_url": "https://lutris.net/games/icon/omg-zombies.png",
  "coverart": "https://lutris.net/media/igdb/cover_big/co26c3.jpg",
  "platforms": [
    {
      "name": "Nintendo Switch"
    },
    {
      "name": "PlayStation Vita"
    },
    {
      "name": "Windows"
    }
  ],
  "provider_games": [
    {
      "name": "OMG Zombies!",
      "slug": "259870",
      "service": "steam"
    },
    {
      "name": "OMG Zombies!",
      "slug": "omg-zombies",
      "service": "igdb"
    }
  ],
  "aliases": [],
  "shaders": [],
  "discord_id": "",
  "change_for": null
}