{
  "id": 44545,
  "name": "Tempo",
  "slug": "tempo",
  "year": 2021,
  "banner_url": "",
  "icon_url": "",
  "coverart": "https://lutris.net/media/igdb/cover_big/yhlybhskcxfczdemv1no.jpg",
  "platforms": [
    {
      "name": "Linux"
    },
    {
      "name": "Sega 32X"
    },
    {
      "name": "Windows"
    }
  ],
  "provider_games": [
    {
      "name": "Tempo",
      "slug": "tempo",
      "service": "igdb"
    }
  ],
  "aliases": [],
  "shaders": [],
  "discord_id": "",
  "change_for": null
}