{
  "id": 37231,
  "name": "8bitdo Ultimate Software",
  "slug": "8bitdo-ultimate-software",
  "year": 2017,
  "banner_url": "https://lutris.net/games/banner/8bitdo-ultimate-software.jpg",
  "icon_url": "",
  "coverart": null,
  "platforms": [
    {
      "name": "Windows"
    }
  ],
  "provider_games": [],
  "aliases": [],
  "shaders": [],
  "discord_id": "",
  "change_for": null
}