{
  "id": 37338,
  "name": "Ever Forward Prologue",
  "slug": "ever-forward-prologue",
  "year": null,
  "banner_url": "https://lutris.net/games/banner/ever-forward-prologue.jpg",
  "icon_url": "https://lutris.net/games/icon/ever-forward-prologue.png",
  "coverart": null,
  "platforms": [],
  "provider_games": [],
  "aliases": [],
  "shaders": [],
  "discord_id": "",
  "change_for": null
}