{
  "id": 17977,
  "name": "Tetris Attack",
  "slug": "tetris-attack",
  "year": 1995,
  "banner_url": "https://lutris.net/games/banner/tetris-attack.jpg",
  "icon_url": "",
  "coverart": "https://lutris.net/media/igdb/cover_big/co2w6k.jpg",
  "platforms": [
    {
      "name": "Game Boy"
    },
    {
      "name": "Satellaview"
    },
    {
      "name": "Super Nintendo"
    }
  ],
  "provider_games": [
    {
      "name": "Tetris Attack",
      "slug": "tetris-attack",
      "service": "igdb"
    }
  ],
  "aliases": [],
  "shaders": [],
  "discord_id": "",
  "change_for": null
}