{
  "id": 198316,
  "name": "Pizza Arena",
  "slug": "pizza-arena",
  "year": null,
  "banner_url": "",
  "icon_url": "",
  "coverart": "https://lutris.net/media/igdb/cover_big/co4ixm.jpg",
  "platforms": [],
  "provider_games": [
    {
      "name": "Pizza Arena",
      "slug": "pizza-arena",
      "service": "igdb"
    }
  ],
  "aliases": [],
  "shaders": [],
  "discord_id": "",
  "change_for": null
}