{
  "id": 284588,
  "name": "Game of Vampires: Twilight Sun",
  "slug": "game-of-vampires-twilight-sun",
  "year": 2024,
  "banner_url": "",
  "icon_url": "",
  "coverart": "https://lutris.net/media/igdb/cover_big/co85zs.jpg",
  "platforms": [
    {
      "name": "Android"
    }
  ],
  "provider_games": [
    {
      "name": "Game of Vampires: Twilight Sun",
      "slug": "game-of-vampires-twilight-sun",
      "service": "igdb"
    }
  ],
  "aliases": [],
  "shaders": [],
  "discord_id": "",
  "change_for": null
}