{
  "id": 29227,
  "name": "Super Off Road: The Baja",
  "slug": "super-off-road-the-baja",
  "year": 1993,
  "banner_url": "https://lutris.net/games/banner/super-off-road-the-baja.jpg",
  "icon_url": "",
  "coverart": "https://lutris.net/media/igdb/cover_big/co3ri8.jpg",
  "platforms": [
    {
      "name": "Super Nintendo"
    }
  ],
  "provider_games": [
    {
      "name": "Super Off Road: The Baja",
      "slug": "super-off-road-the-baja",
      "service": "igdb"
    }
  ],
  "aliases": [],
  "shaders": [],
  "discord_id": "",
  "change_for": null
}