{
  "id": 72645,
  "name": "Pro Mahjong Tsuwamono GB 2",
  "slug": "pro-mahjong-tsuwamono-gb-2",
  "year": null,
  "banner_url": "",
  "icon_url": "",
  "coverart": "https://lutris.net/media/igdb/cover_big/co7m99.jpg",
  "platforms": [],
  "provider_games": [
    {
      "name": "Pro Mahjong Tsuwamono GB 2",
      "slug": "pro-mahjong-tsuwamono-gb-2",
      "service": "igdb"
    }
  ],
  "aliases": [],
  "shaders": [],
  "discord_id": "",
  "change_for": null
}