{
  "id": 159288,
  "name": "Family Tennis SP",
  "slug": "family-tennis-sp",
  "year": 2015,
  "banner_url": "",
  "icon_url": "",
  "coverart": "https://lutris.net/media/igdb/cover_big/t63stwdejudsvixledp6.jpg",
  "platforms": [
    {
      "name": "Nintendo Switch"
    },
    {
      "name": "Nintendo Wii U"
    }
  ],
  "provider_games": [
    {
      "name": "Family Tennis SP",
      "slug": "family-tennis-sp",
      "service": "igdb"
    }
  ],
  "aliases": [],
  "shaders": [],
  "discord_id": "",
  "change_for": null
}