{
  "id": 295698,
  "name": "NeveRossa: Mille e una notte",
  "slug": "neverossa-mille-e-una-notte",
  "year": null,
  "banner_url": "",
  "icon_url": "",
  "coverart": "https://lutris.net/media/igdb/cover_big/co8t4c.jpg",
  "platforms": [],
  "provider_games": [
    {
      "name": "NeveRossa: Mille e una notte",
      "slug": "neverossa-mille-e-una-notte",
      "service": "igdb"
    }
  ],
  "aliases": [],
  "shaders": [],
  "discord_id": "",
  "change_for": null
}