{
  "id": 77979,
  "name": "Star Trek III",
  "slug": "star-trek-iii",
  "year": null,
  "banner_url": "",
  "icon_url": "",
  "coverart": "https://lutris.net/media/igdb/cover_big/vhezpv80db1o7vkb2c28.jpg",
  "platforms": [],
  "provider_games": [
    {
      "name": "Star Trek III",
      "slug": "star-trek-iii",
      "service": "igdb"
    }
  ],
  "aliases": [],
  "shaders": [],
  "discord_id": "",
  "change_for": null
}