{
  "id": 11315,
  "name": "Dirge of Cerberus: Final Fantasy VII",
  "slug": "dirge-of-cerberus-final-fantasy-vii",
  "year": 2006,
  "banner_url": "https://lutris.net/games/banner/dirge-of-cerberus-final-fantasy-vii.jpg",
  "icon_url": "",
  "coverart": "https://lutris.net/media/igdb/cover_big/co205e.jpg",
  "platforms": [
    {
      "name": "Sony PlayStation 2"
    }
  ],
  "provider_games": [
    {
      "name": "Dirge of Cerberus: Final Fantasy VII",
      "slug": "dirge-of-cerberus-final-fantasy-vii",
      "service": "igdb"
    }
  ],
  "aliases": [],
  "shaders": [],
  "discord_id": "",
  "change_for": null
}