{
  "id": 235828,
  "name": "Tales of the Magic Ball",
  "slug": "tales-of-the-magic-ball",
  "year": null,
  "banner_url": "",
  "icon_url": "",
  "coverart": "https://lutris.net/media/igdb/cover_big/co67c4.jpg",
  "platforms": [],
  "provider_games": [
    {
      "name": "Tales of the Magic Ball",
      "slug": "tales-of-the-magic-ball",
      "service": "igdb"
    }
  ],
  "aliases": [],
  "shaders": [],
  "discord_id": "",
  "change_for": null
}