{
  "id": 54179,
  "name": "Nintama Rantarou 3",
  "slug": "nintama-rantarou-3",
  "year": 1997,
  "banner_url": "",
  "icon_url": "",
  "coverart": "https://lutris.net/media/igdb/cover_big/hoqe9wwrm2hdkhussbt4.jpg",
  "platforms": [
    {
      "name": "Super Nintendo"
    }
  ],
  "provider_games": [
    {
      "name": "Nintama Rantarou 3",
      "slug": "nintama-rantarou-3",
      "service": "igdb"
    }
  ],
  "aliases": [],
  "shaders": [],
  "discord_id": "",
  "change_for": null
}