{
  "id": 170959,
  "name": "Orbit Outlaws",
  "slug": "orbit-outlaws",
  "year": null,
  "banner_url": "",
  "icon_url": "",
  "coverart": "https://lutris.net/media/igdb/cover_big/co473c.jpg",
  "platforms": [],
  "provider_games": [
    {
      "name": "Orbit Outlaws",
      "slug": "orbit-outlaws",
      "service": "igdb"
    }
  ],
  "aliases": [],
  "shaders": [],
  "discord_id": "",
  "change_for": null
}