{
  "id": 72249,
  "name": "Shrek Sugar Fever",
  "slug": "shrek-sugar-fever",
  "year": null,
  "banner_url": "",
  "icon_url": "",
  "coverart": "https://lutris.net/media/igdb/cover_big/co890s.jpg",
  "platforms": [],
  "provider_games": [
    {
      "name": "Shrek Sugar Fever",
      "slug": "shrek-sugar-fever",
      "service": "igdb"
    }
  ],
  "aliases": [],
  "shaders": [],
  "discord_id": "",
  "change_for": null
}