{
  "id": 152773,
  "name": "eyeDASH",
  "slug": "eyedash",
  "year": null,
  "banner_url": "",
  "icon_url": "",
  "coverart": "https://lutris.net/media/igdb/cover_big/co3qhn.jpg",
  "platforms": [],
  "provider_games": [
    {
      "name": "EyeDash",
      "slug": "eyedash",
      "service": "igdb"
    }
  ],
  "aliases": [],
  "shaders": [],
  "discord_id": "",
  "change_for": null
}