{
  "id": 149556,
  "name": "Quiz Time",
  "slug": "quiz-time",
  "year": null,
  "banner_url": "",
  "icon_url": "",
  "coverart": "https://lutris.net/media/igdb/cover_big/co6b8t.jpg",
  "platforms": [],
  "provider_games": [
    {
      "name": "Quiz Time",
      "slug": "quiz-time",
      "service": "igdb"
    }
  ],
  "aliases": [],
  "shaders": [],
  "discord_id": "",
  "change_for": null
}