{
  "id": 43268,
  "name": "EZ VR Video Player",
  "slug": "ez-vr-video-player",
  "year": null,
  "banner_url": "https://lutris.net/games/banner/ez-vr-video-player.jpg",
  "icon_url": "https://lutris.net/games/icon/ez-vr-video-player.png",
  "coverart": null,
  "platforms": [],
  "provider_games": [],
  "aliases": [],
  "shaders": [],
  "discord_id": "",
  "change_for": null
}