{
  "id": 235397,
  "name": "Heroes of Holdem",
  "slug": "heroes-of-holdem--5",
  "year": 2023,
  "banner_url": "",
  "icon_url": "",
  "coverart": "https://lutris.net/media/igdb/cover_big/co67vs.jpg",
  "platforms": [
    {
      "name": "Browser"
    }
  ],
  "provider_games": [
    {
      "name": "Heroes of Holdem",
      "slug": "heroes-of-holdem--5",
      "service": "igdb"
    }
  ],
  "aliases": [],
  "shaders": [],
  "discord_id": "",
  "change_for": null
}