{
  "id": 473,
  "game_id": 424,
  "game_slug": "sid-meiers-civilization-v",
  "name": "Sid Meier's Civilization V",
  "year": 2010,
  "user": "Xodetaetl",
  "runner": "steam",
  "slug": "civilization-v-steam",
  "version": "steam",
  "description": "",
  "notes": "",
  "credits": "",
  "created_at": "2014-06-10T22:30:32.787000Z",
  "updated_at": "2014-06-10T22:31:19.316000Z",
  "draft": false,
  "published": true,
  "published_by": null,
  "rating": "",
  "is_playable": null,
  "steamid": 8930,
  "gogid": null,
  "gogslug": "",
  "humbleid": "",
  "humblestoreid": "",
  "humblestoreid_real": "",
  "script": {
    "game": {
      "appid": 8930
    }
  },
  "content": "game:\n  appid: 8930\n",
  "discord_id": ""
}