{
  "id": 53412,
  "name": "Winx Club: Magical Fairy Party",
  "slug": "winx-club-magical-fairy-party",
  "year": 2012,
  "banner_url": "",
  "icon_url": "",
  "coverart": "https://lutris.net/media/igdb/cover_big/mdfal2ksgbipwnytuwlj.jpg",
  "platforms": [
    {
      "name": "Nintendo DS"
    }
  ],
  "provider_games": [
    {
      "name": "Winx Club: Magical Fairy Party",
      "slug": "winx-club-magical-fairy-party",
      "service": "igdb"
    }
  ],
  "aliases": [],
  "shaders": [],
  "discord_id": "",
  "change_for": null
}