{
  "id": 22913,
  "name": "Gulman 4: Still alive",
  "slug": "gulman-4-still-alive",
  "year": 2016,
  "banner_url": "https://lutris.net/games/banner/gulman-4-still-alive.jpg",
  "icon_url": "https://lutris.net/games/icon/gulman-4-still-alive.png",
  "coverart": "https://lutris.net/media/igdb/cover_big/co605p.jpg",
  "platforms": [
    {
      "name": "Windows"
    }
  ],
  "provider_games": [
    {
      "name": "Gulman 4: Still alive",
      "slug": "559900",
      "service": "steam"
    },
    {
      "name": "Gulman 4: Still alive",
      "slug": "gulman-4-still-alive",
      "service": "igdb"
    }
  ],
  "aliases": [],
  "shaders": [],
  "discord_id": "",
  "change_for": null
}