{
  "id": 29069,
  "name": "Boss 101",
  "slug": "boss-101",
  "year": 2017,
  "banner_url": "https://lutris.net/games/banner/boss-101.jpg",
  "icon_url": "https://lutris.net/games/icon/boss-101.png",
  "coverart": "https://lutris.net/media/igdb/cover_big/co29zm.jpg",
  "platforms": [
    {
      "name": "Windows"
    }
  ],
  "provider_games": [
    {
      "name": "Boss 101",
      "slug": "380920",
      "service": "steam"
    },
    {
      "name": "Boss 101",
      "slug": "boss-101",
      "service": "igdb"
    }
  ],
  "aliases": [],
  "shaders": [],
  "discord_id": "",
  "change_for": null
}