{
  "id": 295251,
  "name": "Yaso: Curse of Soirée",
  "slug": "yaso-curse-of-soiree",
  "year": 2022,
  "banner_url": "",
  "icon_url": "",
  "coverart": null,
  "platforms": [
    {
      "name": "Windows"
    }
  ],
  "provider_games": [
    {
      "name": "Yaso: Curse of Soirée",
      "slug": "yaso-curse-of-soiree",
      "service": "igdb"
    }
  ],
  "aliases": [],
  "shaders": [],
  "discord_id": "",
  "change_for": null
}