{
  "id": 213572,
  "name": "Endless Ruin Chapter II: Hall of Spores",
  "slug": "endless-ruin-chapter-ii-hall-of-spores",
  "year": 2022,
  "banner_url": "",
  "icon_url": "",
  "coverart": "https://lutris.net/media/igdb/cover_big/co5wdq.jpg",
  "platforms": [
    {
      "name": "Browser"
    }
  ],
  "provider_games": [
    {
      "name": "Endless Ruin Chapter II: Hall of Spores",
      "slug": "endless-ruin-chapter-ii-hall-of-spores",
      "service": "igdb"
    }
  ],
  "aliases": [],
  "shaders": [],
  "discord_id": "",
  "change_for": null
}