{
  "id": 79397,
  "name": "Killing Floor 2: Deluxe Edition",
  "slug": "killing-floor-2-deluxe-edition",
  "year": null,
  "banner_url": "",
  "icon_url": "",
  "coverart": "https://lutris.net/media/igdb/cover_big/co7pq3.jpg",
  "platforms": [],
  "provider_games": [
    {
      "name": "Killing Floor 2: Deluxe Edition",
      "slug": "killing-floor-2-deluxe-edition",
      "service": "igdb"
    }
  ],
  "aliases": [],
  "shaders": [],
  "discord_id": "",
  "change_for": null
}