{
  "id": 26048,
  "game_id": 6174,
  "game_slug": "medusas-labyrinth",
  "name": "Medusa's Labyrinth",
  "year": 2016,
  "user": "vanstaveren",
  "runner": "steam",
  "slug": "medusas-labyrinth-proton",
  "version": "proton",
  "description": null,
  "notes": "",
  "credits": "",
  "created_at": "2021-01-26T13:11:01.495651Z",
  "updated_at": "2021-12-13T19:14:45.934579Z",
  "draft": false,
  "published": true,
  "published_by": null,
  "rating": "",
  "is_playable": null,
  "steamid": 436110,
  "gogid": null,
  "gogslug": "",
  "humbleid": "",
  "humblestoreid": "",
  "humblestoreid_real": "",
  "script": {
    "game": {
      "appid": 436110
    }
  },
  "content": "game:\n  appid: 436110\n",
  "discord_id": ""
}