{
  "id": 162200,
  "name": "0 A.D: Empires Ascendant",
  "slug": "0-a-dot-d-empires-ascendant",
  "year": null,
  "banner_url": "",
  "icon_url": "",
  "coverart": "https://lutris.net/media/igdb/cover_big/co5gcw.jpg",
  "platforms": [],
  "provider_games": [
    {
      "name": "0 A.D: Empires Ascendant",
      "slug": "0-a-dot-d-empires-ascendant",
      "service": "igdb"
    }
  ],
  "aliases": [],
  "shaders": [],
  "discord_id": "",
  "change_for": null
}