{
  "id": 104214,
  "name": "Beast Master",
  "slug": "beast-master",
  "year": null,
  "banner_url": "",
  "icon_url": "",
  "coverart": "https://lutris.net/media/igdb/cover_big/co2pjd.jpg",
  "platforms": [],
  "provider_games": [
    {
      "name": "Beast Master",
      "slug": "beast-master",
      "service": "igdb"
    }
  ],
  "aliases": [],
  "shaders": [],
  "discord_id": "",
  "change_for": null
}