{
  "id": 5515,
  "game_id": 3798,
  "game_slug": "ostrich-island",
  "name": "Ostrich Island",
  "year": 2015,
  "user": "FakeShemp",
  "runner": "linux",
  "slug": "ostrich-island-groupees",
  "version": "Groupees",
  "description": "",
  "notes": "",
  "credits": "",
  "created_at": "2017-08-24T12:28:40.318442Z",
  "updated_at": "2024-04-03T05:44:09.854018Z",
  "draft": false,
  "published": true,
  "published_by": null,
  "rating": "",
  "is_playable": null,
  "steamid": 337270,
  "gogid": null,
  "gogslug": "",
  "humbleid": "",
  "humblestoreid": "",
  "humblestoreid_real": "",
  "script": {
    "files": [
      {
        "file1": "N/A:Please select the Groupees archive"
      }
    ],
    "game": {
      "exe": "OstrichIsland.x86_64",
      "launch_configs": [
        {
          "exe": "OstrichIsland.x86",
          "name": "32 bit version"
        }
      ]
    },
    "installer": [
      {
        "extract": {
          "file": "$file1",
          "format": "tgz"
        }
      }
    ]
  },
  "content": "files:\n- file1: N/A:Please select the Groupees archive\ngame:\n  exe: OstrichIsland.x86_64\n  launch_configs:\n  - exe: OstrichIsland.x86\n    name: 32 bit version\ninstaller:\n- extract:\n    file: $file1\n    format: tgz\n",
  "discord_id": ""
}