{
  "id": 268380,
  "name": "2048 Puzzle: K-ON! Edition",
  "slug": "2048-puzzle-k-on-edition",
  "year": 2014,
  "banner_url": "",
  "icon_url": "",
  "coverart": "https://lutris.net/media/igdb/cover_big/co7h9o.jpg",
  "platforms": [],
  "provider_games": [
    {
      "name": "2048 Puzzle: K-ON! Edition",
      "slug": "2048-puzzle-k-on-edition",
      "service": "igdb"
    }
  ],
  "aliases": [],
  "shaders": [],
  "discord_id": "",
  "change_for": null
}