{
  "id": 227655,
  "name": "Hidden",
  "slug": "hidden--1",
  "year": null,
  "banner_url": "",
  "icon_url": "",
  "coverart": "https://lutris.net/media/igdb/cover_big/co5e9h.jpg",
  "platforms": [],
  "provider_games": [
    {
      "name": "Hidden",
      "slug": "hidden--1",
      "service": "igdb"
    }
  ],
  "aliases": [],
  "shaders": [],
  "discord_id": "",
  "change_for": null
}