{
  "id": 19090,
  "name": "Lost in Secular Love",
  "slug": "lost-in-secular-love",
  "year": 2016,
  "banner_url": "https://lutris.net/games/banner/lost-in-secular-love.jpg",
  "icon_url": "https://lutris.net/games/icon/lost-in-secular-love.png",
  "coverart": "https://lutris.net/media/igdb/cover_big/co45fs.jpg",
  "platforms": [
    {
      "name": "Windows"
    }
  ],
  "provider_games": [
    {
      "name": "Lost in Secular Love",
      "slug": "520850",
      "service": "steam"
    },
    {
      "name": "Lost in Secular Love",
      "slug": "lost-in-secular-love",
      "service": "igdb"
    }
  ],
  "aliases": [],
  "shaders": [],
  "discord_id": "",
  "change_for": null
}