{
  "id": 15731,
  "game_id": 5959,
  "game_slug": "final-fantasy-vi",
  "name": "FINAL FANTASY VI",
  "year": 1994,
  "user": "ShadowStrike",
  "runner": "libretro",
  "slug": "final-fantasy-vi-playstation",
  "version": "PlayStation",
  "description": "Uses PCSX ReARMed core. Runs without requiring PSX BIOS",
  "notes": "",
  "credits": "",
  "created_at": "2019-09-21T05:04:45.721000Z",
  "updated_at": "2019-10-16T22:01:38.858040Z",
  "draft": false,
  "published": true,
  "published_by": 19464,
  "rating": "",
  "is_playable": null,
  "steamid": 382900,
  "gogid": null,
  "gogslug": "",
  "humbleid": "",
  "humblestoreid": "",
  "humblestoreid_real": "",
  "script": {
    "files": [
      {
        "iso": "N/A:Please select the PlayStation image file"
      }
    ],
    "game": {
      "core": "pcsx_rearmed",
      "main_file": "iso"
    },
    "installer": [
      {
        "merge": {
          "dst": "$GAMEDIR",
          "src": "iso"
        }
      }
    ]
  },
  "content": "files:\n- iso: N/A:Please select the PlayStation image file\ngame:\n  core: pcsx_rearmed\n  main_file: iso\ninstaller:\n- merge:\n    dst: $GAMEDIR\n    src: iso\n",
  "discord_id": "496742764344639488"
}