{
  "id": 229615,
  "name": "Gekko: Episode of Amelia",
  "slug": "gekko-episode-of-amelia",
  "year": 2023,
  "banner_url": "",
  "icon_url": "",
  "coverart": "https://lutris.net/media/igdb/cover_big/co6dgr.jpg",
  "platforms": [
    {
      "name": "Windows"
    }
  ],
  "provider_games": [
    {
      "name": "Gekko: Episode of Amelia",
      "slug": "gekko-episode-of-amelia",
      "service": "igdb"
    }
  ],
  "aliases": [],
  "shaders": [],
  "discord_id": "",
  "change_for": null
}