{
  "id": 5744,
  "name": "ChargeShot",
  "slug": "chargeshot",
  "year": 2015,
  "banner_url": "https://lutris.net/games/banner/chargeshot.jpg",
  "icon_url": "https://lutris.net/games/icon/chargeshot.png",
  "coverart": "https://lutris.net/media/igdb/cover_big/co1ocd.jpg",
  "platforms": [
    {
      "name": "Windows"
    }
  ],
  "provider_games": [
    {
      "name": "ChargeShot",
      "slug": "401840",
      "service": "steam"
    },
    {
      "name": "ChargeShot",
      "slug": "chargeshot",
      "service": "igdb"
    }
  ],
  "aliases": [],
  "shaders": [],
  "discord_id": "",
  "change_for": null
}