{
  "id": 276817,
  "name": "Blocksy",
  "slug": "blocksy",
  "year": 2022,
  "banner_url": "",
  "icon_url": "",
  "coverart": null,
  "platforms": [
    {
      "name": "Playdate"
    }
  ],
  "provider_games": [
    {
      "name": "Blocksy",
      "slug": "blocksy",
      "service": "igdb"
    }
  ],
  "aliases": [],
  "shaders": [],
  "discord_id": "",
  "change_for": null
}