{
  "id": 13528,
  "name": "Golden Krone Hotel",
  "slug": "golden-krone-hotel",
  "year": 2016,
  "banner_url": "https://lutris.net/games/banner/golden-krone-hotel.jpg",
  "icon_url": "https://lutris.net/games/icon/golden-krone-hotel.png",
  "coverart": "https://lutris.net/media/igdb/cover_big/co2q96.jpg",
  "platforms": [
    {
      "name": "Windows"
    }
  ],
  "provider_games": [
    {
      "name": "Golden Krone Hotel",
      "slug": "497800",
      "service": "steam"
    },
    {
      "name": "Golden Krone Hotel",
      "slug": "golden-krone-hotel",
      "service": "igdb"
    }
  ],
  "aliases": [],
  "shaders": [],
  "discord_id": "",
  "change_for": null
}