{
  "id": 196120,
  "name": "3D Puzzle: Alchemist House",
  "slug": "3d-puzzle-alchemist-house",
  "year": null,
  "banner_url": "",
  "icon_url": "",
  "coverart": "https://lutris.net/media/igdb/cover_big/co4nu1.jpg",
  "platforms": [],
  "provider_games": [
    {
      "name": "3D Puzzle: Alchemist House",
      "slug": "3d-puzzle-alchemist-house",
      "service": "igdb"
    }
  ],
  "aliases": [],
  "shaders": [],
  "discord_id": "",
  "change_for": null
}