{
  "id": 27170,
  "name": "Schlocks",
  "slug": "schlocks",
  "year": 2017,
  "banner_url": "https://lutris.net/games/banner/schlocks.jpg",
  "icon_url": "https://lutris.net/games/icon/schlocks.png",
  "coverart": "https://lutris.net/media/igdb/cover_big/co5ss6.jpg",
  "platforms": [
    {
      "name": "Windows"
    }
  ],
  "provider_games": [
    {
      "name": "Schlocks",
      "slug": "601320",
      "service": "steam"
    },
    {
      "name": "Schlocks",
      "slug": "schlocks",
      "service": "igdb"
    }
  ],
  "aliases": [],
  "shaders": [],
  "discord_id": "",
  "change_for": null
}