{
  "id": 9402,
  "name": "Warrior Kings: Battles",
  "slug": "warrior-kings-battles",
  "year": 2003,
  "banner_url": "https://lutris.net/games/banner/warrior-kings-battles.jpg",
  "icon_url": "https://lutris.net/games/icon/warrior-kings-battles.png",
  "coverart": "https://lutris.net/media/igdb/cover_big/hqnaacepwjm6muc9qcb4.jpg",
  "platforms": [
    {
      "name": "Windows"
    }
  ],
  "provider_games": [
    {
      "name": "Warrior Kings: Battles",
      "slug": "1438007195",
      "service": "gog"
    },
    {
      "name": "Warrior Kings: Battles",
      "slug": "299070",
      "service": "steam"
    },
    {
      "name": "Warrior Kings: Battles",
      "slug": "warrior-kings-battles",
      "service": "igdb"
    }
  ],
  "aliases": [],
  "shaders": [],
  "discord_id": "",
  "change_for": null
}