{
  "id": 26802,
  "game_id": 28973,
  "game_slug": "zork-ii",
  "name": "Zork II",
  "year": 1981,
  "user": "appoloin",
  "runner": "scummvm",
  "slug": "zork-ii-infocom-treasures-i-",
  "version": "Infocom Treasures I CD",
  "description": null,
  "notes": "",
  "credits": "",
  "created_at": "2021-03-07T22:18:19.235000Z",
  "updated_at": "2021-12-12T02:25:24.372765Z",
  "draft": false,
  "published": true,
  "published_by": 51687,
  "rating": "",
  "is_playable": null,
  "steamid": null,
  "gogid": null,
  "gogslug": "",
  "humbleid": "",
  "humblestoreid": "",
  "humblestoreid_real": "",
  "script": {
    "game": {
      "game_id": "zork2",
      "path": "$GAMEDIR"
    },
    "installer": [
      {
        "write_file": {
          "content": "#!/bin/bash\nsrc=$1\ndst=$2\nsrc_path=$(echo \"$1\" | sed -r \"s/(.+)\\/.+/\\1/\")\nfind \"$src_path\" -type f \\( -iname \"zork2.DAT\"  \\) -exec cp {} \"$dst\" \\;",
          "file": "$CACHE/selectcopy.sh"
        }
      },
      {
        "chmodx": "$CACHE/selectcopy.sh"
      },
      {
        "insert-disc": {
          "description": "Please insert Lost Treasures of Infocom I CD",
          "requires": "PC"
        }
      },
      {
        "execute": {
          "args": "$DISC \"$GAMEDIR\"",
          "file": "$CACHE/selectcopy.sh"
        }
      },
      {
        "execute": {
          "args": "-R 775  \"$GAMEDIR\"",
          "file": "/bin/chmod"
        }
      }
    ]
  },
  "content": "game:\n  game_id: zork2\n  path: $GAMEDIR\ninstaller:\n- write_file:\n    content: '#!/bin/bash\n\n      src=$1\n\n      dst=$2\n\n      src_path=$(echo \"$1\" | sed -r \"s/(.+)\\/.+/\\1/\")\n\n      find \"$src_path\" -type f \\( -iname \"zork2.DAT\"  \\) -exec cp {} \"$dst\" \\;'\n    file: $CACHE/selectcopy.sh\n- chmodx: $CACHE/selectcopy.sh\n- insert-disc:\n    description: Please insert Lost Treasures of Infocom I CD\n    requires: PC\n- execute:\n    args: $DISC \"$GAMEDIR\"\n    file: $CACHE/selectcopy.sh\n- execute:\n    args: -R 775  \"$GAMEDIR\"\n    file: /bin/chmod\n",
  "discord_id": ""
}