{
  "id": 280834,
  "name": "Fiona's Dream of Atlantis",
  "slug": "fionas-dream-of-atlantis",
  "year": 2017,
  "banner_url": "",
  "icon_url": "",
  "coverart": "https://lutris.net/media/igdb/cover_big/co7zqz.jpg",
  "platforms": [
    {
      "name": "Windows"
    }
  ],
  "provider_games": [
    {
      "name": "Fiona's Dream of Atlantis",
      "slug": "fionas-dream-of-atlantis",
      "service": "igdb"
    }
  ],
  "aliases": [],
  "shaders": [],
  "discord_id": "",
  "change_for": null
}