{
  "id": 105411,
  "name": "Frostborn",
  "slug": "frostborn",
  "year": null,
  "banner_url": "",
  "icon_url": "",
  "coverart": "https://lutris.net/media/igdb/cover_big/co2sic.jpg",
  "platforms": [],
  "provider_games": [
    {
      "name": "Frostborn",
      "slug": "frostborn",
      "service": "igdb"
    }
  ],
  "aliases": [],
  "shaders": [],
  "discord_id": "",
  "change_for": null
}