{
  "id": 9786,
  "name": "John Cena's Sexy High School Adventure!!! 2: AAs Through Time",
  "slug": "john-cenas-sexy-high-school-adventure-2-aas-throug",
  "year": 2015,
  "banner_url": "https://lutris.net/games/banner/john-cenas-sexy-high-school-adventure-2-aas-throug.jpg",
  "icon_url": "",
  "coverart": null,
  "platforms": [
    {
      "name": "Linux"
    }
  ],
  "provider_games": [],
  "aliases": [],
  "shaders": [],
  "discord_id": "",
  "change_for": null
}