{
  "id": 199875,
  "name": "Deep Russian Depression",
  "slug": "deep-russian-depression",
  "year": null,
  "banner_url": "",
  "icon_url": "",
  "coverart": "https://lutris.net/media/igdb/cover_big/co4f0n.jpg",
  "platforms": [],
  "provider_games": [
    {
      "name": "Deep Russian Depression",
      "slug": "deep-russian-depression",
      "service": "igdb"
    }
  ],
  "aliases": [],
  "shaders": [],
  "discord_id": "",
  "change_for": null
}