{
  "id": 172210,
  "name": "NHL 11",
  "slug": "nhl-11",
  "year": 2010,
  "banner_url": "",
  "icon_url": "",
  "coverart": "https://lutris.net/media/igdb/cover_big/co1xq4.jpg",
  "platforms": [
    {
      "name": "Sony Playstation 3"
    },
    {
      "name": "Xbox 360"
    }
  ],
  "provider_games": [
    {
      "name": "NHL 11",
      "slug": "nhl-11",
      "service": "igdb"
    }
  ],
  "aliases": [],
  "shaders": [],
  "discord_id": "",
  "change_for": null
}