{
  "id": 3195,
  "game_id": 1785,
  "game_slug": "prototype",
  "name": "Prototype",
  "year": 2009,
  "user": "bradgy",
  "runner": "steam",
  "slug": "prototype-proton",
  "version": "Proton",
  "description": "",
  "notes": "",
  "credits": "",
  "created_at": "2017-01-26T19:02:56.763576Z",
  "updated_at": "2021-05-04T02:43:02.231457Z",
  "draft": false,
  "published": true,
  "published_by": null,
  "rating": "",
  "is_playable": null,
  "steamid": 10150,
  "gogid": null,
  "gogslug": "",
  "humbleid": "",
  "humblestoreid": "",
  "humblestoreid_real": "",
  "script": {
    "game": {
      "appid": 10150
    }
  },
  "content": "game:\n  appid: 10150\n",
  "discord_id": ""
}