{
  "id": 214872,
  "name": "Spear of Destiny: The Kaiseki",
  "slug": "spear-of-destiny-the-kaiseki",
  "year": null,
  "banner_url": "",
  "icon_url": "",
  "coverart": "https://lutris.net/media/igdb/cover_big/co5yj2.jpg",
  "platforms": [],
  "provider_games": [
    {
      "name": "Spear of Destiny: The Kaiseki",
      "slug": "spear-of-destiny-the-kaiseki",
      "service": "igdb"
    }
  ],
  "aliases": [],
  "shaders": [],
  "discord_id": "",
  "change_for": null
}