{
  "id": 226644,
  "name": "Simple 2000 Series Vol. 88: The Mini Suke Porisu",
  "slug": "simple-2000-series-vol-88-the-mini-suke-porisu",
  "year": 2005,
  "banner_url": "",
  "icon_url": "",
  "coverart": null,
  "platforms": [
    {
      "name": "Sony PlayStation 2"
    }
  ],
  "provider_games": [
    {
      "name": "Simple 2000 Series Vol. 88: The Mini Suke Porisu",
      "slug": "simple-2000-series-vol-88-the-mini-suke-porisu",
      "service": "igdb"
    }
  ],
  "aliases": [],
  "shaders": [],
  "discord_id": "",
  "change_for": null
}