{
  "id": 39570,
  "name": "Breakout Poetry",
  "slug": "breakout-poetry",
  "year": 2020,
  "banner_url": "https://lutris.net/games/banner/breakout-poetry.jpg",
  "icon_url": "",
  "coverart": "https://lutris.net/media/igdb/cover_big/co2hp5.jpg",
  "platforms": [
    {
      "name": "Browser"
    }
  ],
  "provider_games": [
    {
      "name": "Breakout Poetry",
      "slug": "breakout-poetry",
      "service": "igdb"
    }
  ],
  "aliases": [],
  "shaders": [],
  "discord_id": "",
  "change_for": null
}