{
  "id": 26634,
  "name": "EXIT 3 - Painter",
  "slug": "exit-3-painter",
  "year": 2017,
  "banner_url": "https://lutris.net/games/banner/exit-3-painter.jpg",
  "icon_url": "https://lutris.net/games/icon/exit-3-painter.png",
  "coverart": "https://lutris.net/media/igdb/cover_big/co2b5x.jpg",
  "platforms": [
    {
      "name": "Windows"
    }
  ],
  "provider_games": [
    {
      "name": "EXIT 3 - Painter",
      "slug": "730670",
      "service": "steam"
    },
    {
      "name": "Exit 3: Painter",
      "slug": "exit-3-painter",
      "service": "igdb"
    }
  ],
  "aliases": [],
  "shaders": [],
  "discord_id": "",
  "change_for": null
}