{
  "id": 150847,
  "name": "Ignis Universia: Awakening of the Erudite Empress",
  "slug": "ignis-universia-awakening-of-the-erudite-empress",
  "year": null,
  "banner_url": "",
  "icon_url": "",
  "coverart": "https://lutris.net/media/igdb/cover_big/co3ufb.jpg",
  "platforms": [],
  "provider_games": [
    {
      "name": "Ignis Universia: Awakening of the Erudite Empress",
      "slug": "ignis-universia-awakening-of-the-erudite-empress",
      "service": "igdb"
    }
  ],
  "aliases": [],
  "shaders": [],
  "discord_id": "",
  "change_for": null
}