{
  "id": 287071,
  "name": "First Queen III",
  "slug": "first-queen-iii",
  "year": 1993,
  "banner_url": "",
  "icon_url": "",
  "coverart": "https://lutris.net/media/igdb/cover_big/co893c.jpg",
  "platforms": [
    {
      "name": "PC-98"
    }
  ],
  "provider_games": [
    {
      "name": "First Queen III",
      "slug": "first-queen-iii",
      "service": "igdb"
    }
  ],
  "aliases": [],
  "shaders": [],
  "discord_id": "",
  "change_for": null
}