{
  "id": 6392,
  "name": "Weapons Genius",
  "slug": "weapons-genius",
  "year": 2015,
  "banner_url": "https://lutris.net/games/banner/weapons-genius.jpg",
  "icon_url": "https://lutris.net/games/icon/weapons-genius.png",
  "coverart": "https://lutris.net/media/igdb/cover_big/co3m79.jpg",
  "platforms": [
    {
      "name": "Windows"
    }
  ],
  "provider_games": [
    {
      "name": "Weapons Genius",
      "slug": "385400",
      "service": "steam"
    },
    {
      "name": "Weapons Genius",
      "slug": "weapons-genius",
      "service": "igdb"
    }
  ],
  "aliases": [],
  "shaders": [],
  "discord_id": "",
  "change_for": null
}