{
  "id": 46360,
  "name": "Manhattan",
  "slug": "manhattan",
  "year": null,
  "banner_url": "",
  "icon_url": "",
  "coverart": "https://lutris.net/media/igdb/cover_big/ynrcfbrx9ogsfsjbiiyz.jpg",
  "platforms": [],
  "provider_games": [
    {
      "name": "Manhattan",
      "slug": "manhattan",
      "service": "igdb"
    }
  ],
  "aliases": [],
  "shaders": [],
  "discord_id": "",
  "change_for": null
}