{
  "id": 253850,
  "name": "Sudoban",
  "slug": "sudoban",
  "year": null,
  "banner_url": "",
  "icon_url": "",
  "coverart": "https://lutris.net/media/igdb/cover_big/co6tnk.jpg",
  "platforms": [],
  "provider_games": [
    {
      "name": "Sudoban",
      "slug": "sudoban",
      "service": "igdb"
    }
  ],
  "aliases": [],
  "shaders": [],
  "discord_id": "",
  "change_for": null
}