{
  "id": 182516,
  "name": "Shattered Legion",
  "slug": "shattered-legion",
  "year": null,
  "banner_url": "",
  "icon_url": "",
  "coverart": null,
  "platforms": [],
  "provider_games": [
    {
      "name": "Shattered Legion",
      "slug": "shattered-legion",
      "service": "igdb"
    }
  ],
  "aliases": [],
  "shaders": [],
  "discord_id": "",
  "change_for": null
}