{
  "id": 263092,
  "name": "Explaining Every String",
  "slug": "explaining-every-string",
  "year": null,
  "banner_url": "",
  "icon_url": "",
  "coverart": "https://lutris.net/media/igdb/cover_big/co77m1.jpg",
  "platforms": [],
  "provider_games": [
    {
      "name": "Explaining Every String",
      "slug": "explaining-every-string",
      "service": "igdb"
    }
  ],
  "aliases": [],
  "shaders": [],
  "discord_id": "",
  "change_for": null
}