{
  "id": 290334,
  "name": "Offroad Masters: Motocross Races",
  "slug": "offroad-masters-motocross-races",
  "year": 2024,
  "banner_url": "",
  "icon_url": "",
  "coverart": "https://lutris.net/media/igdb/cover_big/co8g65.jpg",
  "platforms": [
    {
      "name": "Nintendo Switch"
    },
    {
      "name": "Sony Playstation 4"
    },
    {
      "name": "Sony PlayStation 5"
    }
  ],
  "provider_games": [
    {
      "name": "Offroad Masters: Motocross Races",
      "slug": "offroad-masters-motocross-races",
      "service": "igdb"
    }
  ],
  "aliases": [],
  "shaders": [],
  "discord_id": "",
  "change_for": null
}