{
  "id": 96510,
  "name": "Seal Online: Blades of Destiny",
  "slug": "seal-online-blades-of-destiny",
  "year": null,
  "banner_url": "",
  "icon_url": "",
  "coverart": "https://lutris.net/media/igdb/cover_big/co73xa.jpg",
  "platforms": [],
  "provider_games": [
    {
      "name": "Seal Online: Blades of Destiny",
      "slug": "seal-online-blades-of-destiny",
      "service": "igdb"
    }
  ],
  "aliases": [],
  "shaders": [],
  "discord_id": "",
  "change_for": null
}