{
  "id": 10136,
  "game_id": 410,
  "game_slug": "uru-complete-chronicles",
  "name": "Uru: Complete Chronicles",
  "year": 2004,
  "user": "Medath",
  "runner": "wine",
  "slug": "uru-complete-chronicles-gog",
  "version": "GOG",
  "description": null,
  "notes": "",
  "credits": "",
  "created_at": "2018-09-09T16:43:39.641827Z",
  "updated_at": "2018-09-13T01:04:48.740943Z",
  "draft": false,
  "published": true,
  "published_by": null,
  "rating": "",
  "is_playable": null,
  "steamid": 63650,
  "gogid": 1207658827,
  "gogslug": "myst_30th_anniversary_collection",
  "humbleid": "",
  "humblestoreid": "",
  "humblestoreid_real": "",
  "script": {
    "files": [
      {
        "setup": "N/A:Please select the GOG installer"
      }
    ],
    "game": {
      "exe": "drive_c/GOG Games/Uru - Complete Chronicles/UruExplorer.exe",
      "prefix": "$GAMEDIR"
    },
    "installer": [
      {
        "task": {
          "args": "/sp- /silent /norestart",
          "executable": "$setup",
          "name": "wineexec",
          "prefix": "$GAMEDIR"
        }
      }
    ]
  },
  "content": "files:\n- setup: N/A:Please select the GOG installer\ngame:\n  exe: drive_c/GOG Games/Uru - Complete Chronicles/UruExplorer.exe\n  prefix: $GAMEDIR\ninstaller:\n- task:\n    args: /sp- /silent /norestart\n    executable: $setup\n    name: wineexec\n    prefix: $GAMEDIR\n",
  "discord_id": ""
}