{
  "id": 25980,
  "game_id": 23656,
  "game_slug": "homeworld-2",
  "name": "Homeworld 2",
  "year": 2003,
  "user": "helushune",
  "runner": "wine",
  "slug": "homeworld-2-retail-cd",
  "version": "Retail CD",
  "description": "",
  "notes": "Online play is not functional.\r\n\r\nAs per the official WineHQ notes, https://appdb.winehq.org/objectManager.php?sClass=version&iId=3803#knownbugs, a no-cd patch is required.\r\n\r\nInstaller mentions DX 9.0b is not installed and runs the DirectX installer which announces a newer version is installed and quits.",
  "credits": "",
  "created_at": "2021-01-23T23:04:58.374000Z",
  "updated_at": "2021-12-15T23:11:07.069188Z",
  "draft": false,
  "published": true,
  "published_by": 51687,
  "rating": "",
  "is_playable": null,
  "steamid": null,
  "gogid": null,
  "gogslug": "",
  "humbleid": "",
  "humblestoreid": "",
  "humblestoreid_real": "",
  "script": {
    "game": {
      "args": "-noS3TC -ssnologo -nomovies",
      "exe": "drive_c/Program Files/Sierra/Homeworld2/Bin/Release/Homeworld2.exe",
      "prefix": "$GAMEDIR"
    },
    "installer": [
      {
        "insert-disc": {
          "requires": "HW2_Setup.exe"
        }
      },
      {
        "task": {
          "executable": "$DISC/HW2_Setup.exe",
          "name": "wineexec",
          "prefix": "$GAMEDIR"
        }
      }
    ]
  },
  "content": "game:\n  args: -noS3TC -ssnologo -nomovies\n  exe: drive_c/Program Files/Sierra/Homeworld2/Bin/Release/Homeworld2.exe\n  prefix: $GAMEDIR\ninstaller:\n- insert-disc:\n    requires: HW2_Setup.exe\n- task:\n    executable: $DISC/HW2_Setup.exe\n    name: wineexec\n    prefix: $GAMEDIR\n",
  "discord_id": ""
}