{
  "id": 301941,
  "name": "Sailing the winds",
  "slug": "sailing-the-winds",
  "year": null,
  "banner_url": "",
  "icon_url": "",
  "coverart": "https://lutris.net/media/igdb/cover_big/co93ff.jpg",
  "platforms": [],
  "provider_games": [
    {
      "name": "Sailing the winds",
      "slug": "sailing-the-winds",
      "service": "igdb"
    }
  ],
  "aliases": [],
  "shaders": [],
  "discord_id": "",
  "change_for": null
}