{
  "id": 95780,
  "name": "Pop'n Emojis",
  "slug": "popn-emojis",
  "year": null,
  "banner_url": "",
  "icon_url": "",
  "coverart": null,
  "platforms": [],
  "provider_games": [
    {
      "name": "Pop'n Emojis",
      "slug": "popn-emojis",
      "service": "igdb"
    }
  ],
  "aliases": [],
  "shaders": [],
  "discord_id": "",
  "change_for": null
}