{
  "id": 220694,
  "name": "PGA Championship Golf Collecter's Edition",
  "slug": "pga-championship-golf-collecters-edition",
  "year": null,
  "banner_url": "",
  "icon_url": "",
  "coverart": null,
  "platforms": [],
  "provider_games": [
    {
      "name": "PGA Championship Golf Collecter's Edition",
      "slug": "pga-championship-golf-collecters-edition",
      "service": "igdb"
    }
  ],
  "aliases": [],
  "shaders": [],
  "discord_id": "",
  "change_for": null
}