{
  "id": 58236,
  "name": "Tales of Arcana",
  "slug": "tales-of-arcana",
  "year": null,
  "banner_url": "",
  "icon_url": "",
  "coverart": "https://lutris.net/media/igdb/cover_big/m8xdzuadfucskkbcvebu.jpg",
  "platforms": [],
  "provider_games": [
    {
      "name": "Tales of Arcana",
      "slug": "tales-of-arcana",
      "service": "igdb"
    }
  ],
  "aliases": [],
  "shaders": [],
  "discord_id": "",
  "change_for": null
}