{
  "id": 37700,
  "game_id": 243763,
  "game_slug": "the-dark-book",
  "name": "The Dark Book",
  "year": null,
  "user": "vanstaveren",
  "runner": "steam",
  "slug": "the-dark-book-steam",
  "version": "steam",
  "description": "",
  "notes": "",
  "credits": "",
  "created_at": "2023-08-22T20:48:58.563841Z",
  "updated_at": "2023-08-22T20:48:58.563868Z",
  "draft": false,
  "published": true,
  "published_by": null,
  "rating": "",
  "is_playable": null,
  "steamid": null,
  "gogid": null,
  "gogslug": "",
  "humbleid": "",
  "humblestoreid": "",
  "humblestoreid_real": "",
  "script": {
    "game": {
      "appid": 2408270
    }
  },
  "content": "game:\n  appid: 2408270\n",
  "discord_id": ""
}