{
  "id": 291459,
  "name": "Jazz Out",
  "slug": "jazz-out",
  "year": null,
  "banner_url": "",
  "icon_url": "",
  "coverart": "https://lutris.net/media/igdb/cover_big/co8khu.jpg",
  "platforms": [],
  "provider_games": [
    {
      "name": "Jazz Out",
      "slug": "jazz-out",
      "service": "igdb"
    }
  ],
  "aliases": [],
  "shaders": [],
  "discord_id": "",
  "change_for": null
}