{
  "id": 145269,
  "name": "Cyclone Circus: Power Sail Racing",
  "slug": "cyclone-circus-power-sail-racing",
  "year": 2006,
  "banner_url": "",
  "icon_url": "",
  "coverart": "https://lutris.net/media/igdb/cover_big/cglyygbpx2cfecu9aalh.jpg",
  "platforms": [
    {
      "name": "Sony PlayStation 2"
    }
  ],
  "provider_games": [
    {
      "name": "Cyclone Circus: Power Sail Racing",
      "slug": "cyclone-circus-power-sail-racing",
      "service": "igdb"
    }
  ],
  "aliases": [],
  "shaders": [],
  "discord_id": "",
  "change_for": null
}