{
  "id": 5008,
  "name": "The Old Tree",
  "slug": "the-old-tree",
  "year": 2012,
  "banner_url": "https://lutris.net/games/banner/the-old-tree.jpg",
  "icon_url": "https://lutris.net/games/icon/the-old-tree.png",
  "coverart": "https://lutris.net/media/igdb/cover_big/a1qlbsj6o09mar0dacsc.jpg",
  "platforms": [
    {
      "name": "Mac"
    },
    {
      "name": "Windows"
    }
  ],
  "provider_games": [
    {
      "name": "The Old Tree",
      "slug": "346250",
      "service": "steam"
    },
    {
      "name": "The Old Tree",
      "slug": "the-old-tree",
      "service": "igdb"
    }
  ],
  "aliases": [],
  "shaders": [],
  "discord_id": "",
  "change_for": null
}