{
  "id": 176576,
  "name": "DELTATRAVELER",
  "slug": "deltatraveler",
  "year": 2021,
  "banner_url": "https://lutris.net/games/banner/deltatraveler.jpg",
  "icon_url": "",
  "coverart": "https://lutris.net/media/igdb/cover_big/co49a5.jpg",
  "platforms": [
    {
      "name": "Linux"
    },
    {
      "name": "Windows"
    }
  ],
  "provider_games": [
    {
      "name": "Deltatraveler",
      "slug": "deltatraveler",
      "service": "igdb"
    }
  ],
  "aliases": [],
  "shaders": [],
  "discord_id": "",
  "change_for": null
}