{
  "id": 224738,
  "name": "Galaxy Angel Ex",
  "slug": "galaxy-angel-ex",
  "year": 2005,
  "banner_url": "",
  "icon_url": "",
  "coverart": "https://lutris.net/media/igdb/cover_big/co4tnc.jpg",
  "platforms": [
    {
      "name": "Windows"
    }
  ],
  "provider_games": [
    {
      "name": "Galaxy Angel Ex",
      "slug": "galaxy-angel-ex",
      "service": "igdb"
    }
  ],
  "aliases": [],
  "shaders": [],
  "discord_id": "",
  "change_for": null
}