{
  "id": 275911,
  "name": "Color Hunt: Number Jigsaw Puzzle",
  "slug": "color-hunt-number-jigsaw-puzzle",
  "year": 2024,
  "banner_url": "",
  "icon_url": "",
  "coverart": "https://lutris.net/media/igdb/cover_big/co7ush.jpg",
  "platforms": [
    {
      "name": "Windows"
    }
  ],
  "provider_games": [
    {
      "name": "Color Hunt: Number Jigsaw Puzzle",
      "slug": "color-hunt-number-jigsaw-puzzle",
      "service": "igdb"
    }
  ],
  "aliases": [],
  "shaders": [],
  "discord_id": "",
  "change_for": null
}