{
  "id": 261127,
  "name": "eSudoku 15K",
  "slug": "esudoku-15k",
  "year": null,
  "banner_url": "",
  "icon_url": "",
  "coverart": "https://lutris.net/media/igdb/cover_big/co75be.jpg",
  "platforms": [],
  "provider_games": [
    {
      "name": "eSudoku 15K",
      "slug": "esudoku-15k",
      "service": "igdb"
    }
  ],
  "aliases": [],
  "shaders": [],
  "discord_id": "",
  "change_for": null
}