{
  "id": 215960,
  "name": "Quacky Oliver",
  "slug": "quacky-oliver",
  "year": null,
  "banner_url": "",
  "icon_url": "",
  "coverart": "https://lutris.net/media/igdb/cover_big/co58i9.jpg",
  "platforms": [],
  "provider_games": [
    {
      "name": "Quacky Oliver",
      "slug": "quacky-oliver",
      "service": "igdb"
    }
  ],
  "aliases": [],
  "shaders": [],
  "discord_id": "",
  "change_for": null
}