{
  "id": 168996,
  "name": "Lost Roads",
  "slug": "lost-roads",
  "year": null,
  "banner_url": "",
  "icon_url": "",
  "coverart": "https://lutris.net/media/igdb/cover_big/co45g4.jpg",
  "platforms": [],
  "provider_games": [
    {
      "name": "Lost Roads",
      "slug": "lost-roads",
      "service": "igdb"
    }
  ],
  "aliases": [],
  "shaders": [],
  "discord_id": "",
  "change_for": null
}