{
  "id": 300349,
  "name": "Magic Card: CZ12",
  "slug": "magic-card-cz12",
  "year": 2024,
  "banner_url": "",
  "icon_url": "",
  "coverart": null,
  "platforms": [
    {
      "name": "Windows"
    }
  ],
  "provider_games": [
    {
      "name": "Magic Card: CZ12",
      "slug": "magic-card-cz12",
      "service": "igdb"
    }
  ],
  "aliases": [],
  "shaders": [],
  "discord_id": "",
  "change_for": null
}