{
  "id": 231000,
  "name": "Gift",
  "slug": "gift--3",
  "year": null,
  "banner_url": "",
  "icon_url": "",
  "coverart": "https://lutris.net/media/igdb/cover_big/co68hl.jpg",
  "platforms": [],
  "provider_games": [
    {
      "name": "Gift",
      "slug": "gift--3",
      "service": "igdb"
    }
  ],
  "aliases": [],
  "shaders": [],
  "discord_id": "",
  "change_for": null
}