{
  "id": 20576,
  "name": "Under a Desert Sun",
  "slug": "under-a-desert-sun",
  "year": 2017,
  "banner_url": "https://lutris.net/games/banner/under-a-desert-sun.jpg",
  "icon_url": "https://lutris.net/games/icon/under-a-desert-sun.png",
  "coverart": null,
  "platforms": [
    {
      "name": "Windows"
    }
  ],
  "provider_games": [
    {
      "name": "Under a Desert Sun",
      "slug": "587930",
      "service": "steam"
    },
    {
      "name": "Under a Desert Sun",
      "slug": "under-a-desert-sun",
      "service": "igdb"
    }
  ],
  "aliases": [],
  "shaders": [],
  "discord_id": "",
  "change_for": null
}