{
  "id": 193381,
  "name": "Backgammon",
  "slug": "backgammon--1",
  "year": 1988,
  "banner_url": "",
  "icon_url": "",
  "coverart": null,
  "platforms": [
    {
      "name": "Atari ST"
    }
  ],
  "provider_games": [
    {
      "name": "Backgammon",
      "slug": "backgammon--1",
      "service": "igdb"
    }
  ],
  "aliases": [],
  "shaders": [],
  "discord_id": "",
  "change_for": null
}