{
  "id": 130617,
  "name": "Super Loopz",
  "slug": "super-loopz",
  "year": 1994,
  "banner_url": "",
  "icon_url": "",
  "coverart": "https://lutris.net/media/igdb/cover_big/co3c9k.jpg",
  "platforms": [
    {
      "name": "Amiga CD32"
    },
    {
      "name": "Super Famicom"
    }
  ],
  "provider_games": [
    {
      "name": "Super Loopz",
      "slug": "super-loopz",
      "service": "igdb"
    }
  ],
  "aliases": [],
  "shaders": [],
  "discord_id": "",
  "change_for": null
}