{
  "id": 1051,
  "game_id": 3442,
  "game_slug": "sid-meiers-colonization",
  "name": "Sid Meier's Colonization",
  "year": 1994,
  "user": "Xodetaetl",
  "runner": "dosbox",
  "slug": "sid-meiers-colonization-gog",
  "version": "GOG",
  "description": "\"Sid Meier's Colonization\" GOG edition for DOSBox.",
  "notes": "- Please report issue concerning this script directly on my GitHub page:",
  "credits": "",
  "created_at": "2014-11-11T10:50:34.792000Z",
  "updated_at": "2022-02-03T06:41:34.931687Z",
  "draft": false,
  "published": true,
  "published_by": 494,
  "rating": "",
  "is_playable": null,
  "steamid": 327400,
  "gogid": 1207659051,
  "gogslug": "sid_meiers_colonization",
  "humbleid": "",
  "humblestoreid": "",
  "humblestoreid_real": "",
  "script": {
    "custom-name": "Sid Meier's Colonization - GOG",
    "files": [
      {
        "gog": "N/A:Select the Linux installer downloaded from GOG"
      },
      {
        "inno": "http://constexpr.org/innoextract/files/snapshots/innoextract-1.8-dev-2019-01-13/innoextract-1.8-dev-2019-01-13-linux.tar.xz"
      },
      {
        "dbxconf": "https://github.com/legluondunet/MyLittleLutrisScripts/raw/master/Sid%20Meier's%20Colonization/dosboxCOL.conf"
      }
    ],
    "game": {
      "main_file": "$GAMEDIR/dosboxCOL.conf"
    },
    "installer": [
      {
        "extract": {
          "dst": "$CACHE/innoextract",
          "file": "inno"
        }
      },
      {
        "execute": {
          "args": "--extract $gog --output-dir \"$CACHE\"",
          "file": "$CACHE/innoextract/innoextract"
        }
      },
      {
        "merge": {
          "dst": "$GAMEDIR",
          "src": "$CACHE/MPS/COLONIZE"
        }
      },
      {
        "merge": {
          "dst": "$GAMEDIR",
          "src": "dbxconf"
        }
      },
      {
        "move": {
          "dst": "$CACHE",
          "src": "$GAMEDIR/CONFIG.COL"
        }
      }
    ]
  },
  "content": "custom-name: Sid Meier's Colonization - GOG\nfiles:\n- gog: N/A:Select the Linux installer downloaded from GOG\n- inno: http://constexpr.org/innoextract/files/snapshots/innoextract-1.8-dev-2019-01-13/innoextract-1.8-dev-2019-01-13-linux.tar.xz\n- dbxconf: https://github.com/legluondunet/MyLittleLutrisScripts/raw/master/Sid%20Meier's%20Colonization/dosboxCOL.conf\ngame:\n  main_file: $GAMEDIR/dosboxCOL.conf\ninstaller:\n- extract:\n    dst: $CACHE/innoextract\n    file: inno\n- execute:\n    args: --extract $gog --output-dir \"$CACHE\"\n    file: $CACHE/innoextract/innoextract\n- merge:\n    dst: $GAMEDIR\n    src: $CACHE/MPS/COLONIZE\n- merge:\n    dst: $GAMEDIR\n    src: dbxconf\n- move:\n    dst: $CACHE\n    src: $GAMEDIR/CONFIG.COL\n",
  "discord_id": ""
}