{
  "id": 43563,
  "name": "Infinite Lagrange",
  "slug": "infinite-lagrange",
  "year": 2021,
  "banner_url": "https://lutris.net/games/banner/infinite-lagrange.jpg",
  "icon_url": "",
  "coverart": "https://lutris.net/media/igdb/cover_big/co3jdv.jpg",
  "platforms": [
    {
      "name": "Windows"
    }
  ],
  "provider_games": [
    {
      "name": "Infinite Lagrange",
      "slug": "infinite-lagrange",
      "service": "igdb"
    },
    {
      "name": "Infinite Lagrange",
      "slug": "1755920",
      "service": "steam"
    }
  ],
  "aliases": [],
  "shaders": [],
  "discord_id": "",
  "change_for": null
}