{
  "id": 159757,
  "name": "Sports Scramble",
  "slug": "sports-scramble",
  "year": 2019,
  "banner_url": "",
  "icon_url": "",
  "coverart": "https://lutris.net/media/igdb/cover_big/co5tzc.jpg",
  "platforms": [
    {
      "name": "Oculus Quest"
    },
    {
      "name": "Oculus Quest 2"
    }
  ],
  "provider_games": [
    {
      "name": "Sports Scramble",
      "slug": "sports-scramble",
      "service": "igdb"
    }
  ],
  "aliases": [],
  "shaders": [],
  "discord_id": "",
  "change_for": null
}