{
  "id": 1744,
  "name": "Pacific Storm",
  "slug": "pacific-storm",
  "year": 2008,
  "banner_url": "https://lutris.net/games/banner/pacific-storm.jpg",
  "icon_url": "https://lutris.net/games/icon/pacific-storm.png",
  "coverart": "https://lutris.net/media/igdb/cover_big/co3qr5.jpg",
  "platforms": [
    {
      "name": "Windows"
    }
  ],
  "provider_games": [
    {
      "name": "Pacific Storm",
      "slug": "11250",
      "service": "steam"
    },
    {
      "name": "Pacific Storm",
      "slug": "pacific-storm",
      "service": "igdb"
    }
  ],
  "aliases": [],
  "shaders": [],
  "discord_id": "",
  "change_for": null
}