{
  "id": 228370,
  "name": "Mech_Romancer Charity Bundle 2",
  "slug": "mech-romancer-charity-bundle-2",
  "year": null,
  "banner_url": "",
  "icon_url": "",
  "coverart": "https://lutris.net/media/igdb/cover_big/co4vj9.jpg",
  "platforms": [],
  "provider_games": [
    {
      "name": "Mech_Romancer Charity Bundle 2",
      "slug": "mech-romancer-charity-bundle-2",
      "service": "igdb"
    }
  ],
  "aliases": [],
  "shaders": [],
  "discord_id": "",
  "change_for": null
}