{
  "id": 285269,
  "name": "Vinebound: Tangled Together",
  "slug": "vinebound-tangled-together",
  "year": null,
  "banner_url": "",
  "icon_url": "",
  "coverart": null,
  "platforms": [
    {
      "name": "Windows"
    }
  ],
  "provider_games": [
    {
      "name": "Vinebound: Tangled Together",
      "slug": "vinebound-tangled-together",
      "service": "igdb"
    }
  ],
  "aliases": [],
  "shaders": [],
  "discord_id": "",
  "change_for": null
}