{
  "id": 94537,
  "name": "International Beach Volleyball",
  "slug": "international-beach-volleyball",
  "year": null,
  "banner_url": "",
  "icon_url": "",
  "coverart": null,
  "platforms": [],
  "provider_games": [
    {
      "name": "International Beach Volleyball",
      "slug": "international-beach-volleyball",
      "service": "igdb"
    }
  ],
  "aliases": [],
  "shaders": [],
  "discord_id": "",
  "change_for": null
}