{
  "id": 52199,
  "name": "Beef Drop",
  "slug": "beef-drop",
  "year": 2004,
  "banner_url": "",
  "icon_url": "",
  "coverart": "https://lutris.net/media/igdb/cover_big/b5tdx5ktm08nt24hdvcx.jpg",
  "platforms": [
    {
      "name": "Atari 5200"
    }
  ],
  "provider_games": [
    {
      "name": "Beef Drop",
      "slug": "beef-drop",
      "service": "igdb"
    }
  ],
  "aliases": [],
  "shaders": [],
  "discord_id": "",
  "change_for": null
}