{
  "id": 73192,
  "name": "Simple DS Series Vol. 40: The Gekai",
  "slug": "simple-ds-series-vol-40-the-gekai",
  "year": null,
  "banner_url": "",
  "icon_url": "",
  "coverart": null,
  "platforms": [],
  "provider_games": [
    {
      "name": "Simple DS Series Vol. 40: The Gekai",
      "slug": "simple-ds-series-vol-40-the-gekai",
      "service": "igdb"
    }
  ],
  "aliases": [],
  "shaders": [],
  "discord_id": "",
  "change_for": null
}