{
  "id": 195041,
  "name": "Sunset Driver",
  "slug": "sunset-driver",
  "year": null,
  "banner_url": "",
  "icon_url": "",
  "coverart": null,
  "platforms": [],
  "provider_games": [
    {
      "name": "Sunset Driver",
      "slug": "sunset-driver",
      "service": "igdb"
    }
  ],
  "aliases": [],
  "shaders": [],
  "discord_id": "",
  "change_for": null
}