{
  "id": 14658,
  "name": "Call of Duty: WWII",
  "slug": "call-of-duty-wwii",
  "year": 2017,
  "banner_url": "https://lutris.net/games/banner/call-of-duty-wwii.jpg",
  "icon_url": "https://lutris.net/games/icon/call-of-duty-wwii.png",
  "coverart": "https://lutris.net/media/igdb/cover_big/co1rdj.jpg",
  "platforms": [
    {
      "name": "Sony Playstation 4"
    },
    {
      "name": "Windows"
    },
    {
      "name": "Xbox One"
    }
  ],
  "provider_games": [
    {
      "name": "Call of Duty: WWII",
      "slug": "476600",
      "service": "steam"
    },
    {
      "name": "Call of Duty: WWII",
      "slug": "call-of-duty-wwii",
      "service": "igdb"
    }
  ],
  "aliases": [],
  "shaders": [],
  "discord_id": "",
  "change_for": null
}