{
  "id": 272329,
  "name": "The Quintessential Quintuplets: Gotopazu Story - Itsuki Nakano Set",
  "slug": "the-quintessential-quintuplets-gotopazu-story-itsuki-nakano-set",
  "year": 2023,
  "banner_url": "",
  "icon_url": "",
  "coverart": null,
  "platforms": [
    {
      "name": "Nintendo Switch"
    },
    {
      "name": "Sony Playstation 4"
    }
  ],
  "provider_games": [
    {
      "name": "The Quintessential Quintuplets: Gotopazu Story - Itsuki Nakano Set",
      "slug": "the-quintessential-quintuplets-gotopazu-story-itsuki-nakano-set",
      "service": "igdb"
    }
  ],
  "aliases": [],
  "shaders": [],
  "discord_id": "",
  "change_for": null
}