{
  "id": 119702,
  "name": "我有上将",
  "slug": "wo-you-shang-jiang",
  "year": null,
  "banner_url": "",
  "icon_url": "",
  "coverart": "https://lutris.net/media/igdb/cover_big/co362w.jpg",
  "platforms": [],
  "provider_games": [
    {
      "name": "我有上将",
      "slug": "wo-you-shang-jiang",
      "service": "igdb"
    }
  ],
  "aliases": [],
  "shaders": [],
  "discord_id": "",
  "change_for": null
}