{
  "id": 134536,
  "name": "Buff",
  "slug": "buff",
  "year": null,
  "banner_url": "",
  "icon_url": "",
  "coverart": "https://lutris.net/media/igdb/cover_big/co3mmf.jpg",
  "platforms": [],
  "provider_games": [
    {
      "name": "Buff",
      "slug": "buff",
      "service": "igdb"
    }
  ],
  "aliases": [],
  "shaders": [],
  "discord_id": "",
  "change_for": null
}