{
  "id": 168802,
  "name": "Level 22: Gary's Misadventures",
  "slug": "level-22-garys-misadventures--1",
  "year": 2016,
  "banner_url": "",
  "icon_url": "",
  "coverart": "https://lutris.net/media/igdb/cover_big/co459h.jpg",
  "platforms": [
    {
      "name": "Mac"
    },
    {
      "name": "Nintendo Wii U"
    },
    {
      "name": "PlayStation Vita"
    },
    {
      "name": "Sony Playstation 3"
    },
    {
      "name": "Sony Playstation 4"
    },
    {
      "name": "Windows"
    },
    {
      "name": "Xbox One"
    }
  ],
  "provider_games": [
    {
      "name": "Level 22: Gary's Misadventures",
      "slug": "level-22-garys-misadventures--1",
      "service": "igdb"
    }
  ],
  "aliases": [],
  "shaders": [],
  "discord_id": "",
  "change_for": null
}