{
  "id": 164465,
  "name": "GraFi Halloween",
  "slug": "grafi-halloween",
  "year": null,
  "banner_url": "",
  "icon_url": "",
  "coverart": "https://lutris.net/media/igdb/cover_big/co41f1.jpg",
  "platforms": [],
  "provider_games": [
    {
      "name": "GraFi Halloween",
      "slug": "grafi-halloween",
      "service": "igdb"
    }
  ],
  "aliases": [],
  "shaders": [],
  "discord_id": "",
  "change_for": null
}