{
  "id": 73523,
  "name": "SPACE MILKMAN~Tsuneo wa Uchuu no Gyuunyuuya san~ PlanningDevelopmentXbox 360",
  "slug": "space-milkman-tsuneo-wa-uchuu-no-gyuunyuuya-san-planningdevelopmentxbox-360",
  "year": null,
  "banner_url": "",
  "icon_url": "",
  "coverart": null,
  "platforms": [],
  "provider_games": [
    {
      "name": "SPACE MILKMAN~Tsuneo wa Uchuu no Gyuunyuuya san~ PlanningDevelopmentXbox 360",
      "slug": "space-milkman-tsuneo-wa-uchuu-no-gyuunyuuya-san-planningdevelopmentxbox-360",
      "service": "igdb"
    }
  ],
  "aliases": [],
  "shaders": [],
  "discord_id": "",
  "change_for": null
}