{
  "id": 281779,
  "name": "Cargo Master Transporter",
  "slug": "cargo-master-transporter",
  "year": null,
  "banner_url": "",
  "icon_url": "",
  "coverart": "https://lutris.net/media/igdb/cover_big/co826h.jpg",
  "platforms": [],
  "provider_games": [
    {
      "name": "Cargo Master Transporter",
      "slug": "cargo-master-transporter",
      "service": "igdb"
    }
  ],
  "aliases": [],
  "shaders": [],
  "discord_id": "",
  "change_for": null
}