{
  "id": 76245,
  "name": "Cobra: Kokuryuuou no Densetsu",
  "slug": "cobra-kokuryuuou-no-densetsu",
  "year": null,
  "banner_url": "",
  "icon_url": "",
  "coverart": "https://lutris.net/media/igdb/cover_big/mrl7lgvq0p9qkpeppjre.jpg",
  "platforms": [],
  "provider_games": [
    {
      "name": "Cobra: Kokuryuuou no Densetsu",
      "slug": "cobra-kokuryuuou-no-densetsu",
      "service": "igdb"
    }
  ],
  "aliases": [],
  "shaders": [],
  "discord_id": "",
  "change_for": null
}