{
  "id": 178530,
  "name": "WWF Royal Rumble",
  "slug": "wwf-royal-rumble",
  "year": 1993,
  "banner_url": "",
  "icon_url": "",
  "coverart": "https://lutris.net/media/igdb/cover_big/co2dir.jpg",
  "platforms": [
    {
      "name": "Sega Genesis / Mega Drive"
    },
    {
      "name": "Super Nintendo"
    }
  ],
  "provider_games": [
    {
      "name": "WWF Royal Rumble",
      "slug": "wwf-royal-rumble",
      "service": "igdb"
    }
  ],
  "aliases": [],
  "shaders": [],
  "discord_id": "",
  "change_for": null
}