{
  "id": 15592,
  "game_id": 589,
  "game_slug": "crysis-warhead",
  "name": "Crysis Warhead",
  "year": 2008,
  "user": "GloriousEggroll",
  "runner": "wine",
  "slug": "crysis-warhead-gog",
  "version": "GOG",
  "description": null,
  "notes": "At the end of the GOG installer you may get: \"Runtime Error\" - You can just press OK and ignore this.",
  "credits": "",
  "created_at": "2019-09-15T18:51:10.423565Z",
  "updated_at": "2023-06-13T01:34:11.144596Z",
  "draft": false,
  "published": true,
  "published_by": null,
  "rating": "",
  "is_playable": null,
  "steamid": 17330,
  "gogid": 1856743450,
  "gogslug": "crysiswarhead",
  "humbleid": "",
  "humblestoreid": "",
  "humblestoreid_real": "",
  "script": {
    "files": [
      {
        "game": "N/A:Select the Crysis Warhead installer provided by GOG."
      }
    ],
    "game": {
      "exe": "drive_c/GOG Games/Crysis Warhead/Bin64/Crysis.exe",
      "prefix": "$GAMEDIR"
    },
    "installer": [
      {
        "task": {
          "name": "create_prefix",
          "prefix": "$GAMEDIR"
        }
      },
      {
        "task": {
          "app": "vcrun2005",
          "name": "winetricks",
          "prefix": "$GAMEDIR"
        }
      },
      {
        "task": {
          "app": "d3dx10_43",
          "name": "winetricks",
          "prefix": "$GAMEDIR"
        }
      },
      {
        "task": {
          "app": "d3dcompiler_43",
          "name": "winetricks",
          "prefix": "$GAMEDIR"
        }
      },
      {
        "task": {
          "args": "/SP- /SUPPRESSMSGBOXES /NOCANCEL",
          "executable": "game",
          "name": "wineexec",
          "prefix": "$GAMEDIR"
        }
      }
    ]
  },
  "content": "files:\n- game: N/A:Select the Crysis Warhead installer provided by GOG.\ngame:\n  exe: drive_c/GOG Games/Crysis Warhead/Bin64/Crysis.exe\n  prefix: $GAMEDIR\ninstaller:\n- task:\n    name: create_prefix\n    prefix: $GAMEDIR\n- task:\n    app: vcrun2005\n    name: winetricks\n    prefix: $GAMEDIR\n- task:\n    app: d3dx10_43\n    name: winetricks\n    prefix: $GAMEDIR\n- task:\n    app: d3dcompiler_43\n    name: winetricks\n    prefix: $GAMEDIR\n- task:\n    args: /SP- /SUPPRESSMSGBOXES /NOCANCEL\n    executable: game\n    name: wineexec\n    prefix: $GAMEDIR\n",
  "discord_id": ""
}