{
  "id": 3945,
  "name": "Rising World Dedicated Server",
  "slug": "rising-world-dedicated-server",
  "year": null,
  "banner_url": "https://lutris.net/games/banner/rising-world-dedicated-server.jpg",
  "icon_url": "https://lutris.net/games/icon/rising-world-dedicated-server.png",
  "coverart": null,
  "platforms": [],
  "provider_games": [
    {
      "name": "Rising World Dedicated Server",
      "slug": "339010",
      "service": "steam"
    }
  ],
  "aliases": [],
  "shaders": [],
  "discord_id": "",
  "change_for": null
}