{
  "id": 209494,
  "name": "PUZZ'L",
  "slug": "puzzl",
  "year": 1987,
  "banner_url": "",
  "icon_url": "",
  "coverart": null,
  "platforms": [
    {
      "name": "Mac"
    }
  ],
  "provider_games": [
    {
      "name": "Puzz'l",
      "slug": "puzzl",
      "service": "igdb"
    }
  ],
  "aliases": [],
  "shaders": [],
  "discord_id": "",
  "change_for": null
}