{
  "id": 246259,
  "name": "Arcadia",
  "slug": "arcadia--4",
  "year": 1994,
  "banner_url": "",
  "icon_url": "",
  "coverart": null,
  "platforms": [
    {
      "name": "Arcade"
    }
  ],
  "provider_games": [
    {
      "name": "Arcadia",
      "slug": "arcadia--4",
      "service": "igdb"
    }
  ],
  "aliases": [],
  "shaders": [],
  "discord_id": "",
  "change_for": null
}