{
  "id": 90390,
  "name": "Secrets of the Dragon Wheel",
  "slug": "secrets-of-the-dragon-wheel",
  "year": null,
  "banner_url": "",
  "icon_url": "",
  "coverart": null,
  "platforms": [],
  "provider_games": [
    {
      "name": "Secrets of the Dragon Wheel",
      "slug": "secrets-of-the-dragon-wheel",
      "service": "igdb"
    }
  ],
  "aliases": [],
  "shaders": [],
  "discord_id": "",
  "change_for": null
}