{
  "id": 54461,
  "name": "Oscar's Trash Race",
  "slug": "oscars-trash-race",
  "year": 1983,
  "banner_url": "",
  "icon_url": "",
  "coverart": "https://lutris.net/media/igdb/cover_big/lfsrbkt34cdojt5ouyoq.jpg",
  "platforms": [],
  "provider_games": [
    {
      "name": "Oscar's Trash Race",
      "slug": "oscars-trash-race",
      "service": "igdb"
    }
  ],
  "aliases": [],
  "shaders": [],
  "discord_id": "",
  "change_for": null
}