{
  "id": 21028,
  "game_id": 12009,
  "game_slug": "dungeon-rats",
  "name": "Dungeon Rats",
  "year": 2016,
  "user": "Lethiks",
  "runner": "wine",
  "slug": "dungeon-rats-gog",
  "version": "GoG",
  "description": null,
  "notes": "",
  "credits": "",
  "created_at": "2020-05-30T15:01:47.964000Z",
  "updated_at": "2020-05-30T17:00:17.632231Z",
  "draft": false,
  "published": true,
  "published_by": 20548,
  "rating": "",
  "is_playable": null,
  "steamid": 531930,
  "gogid": 1835348437,
  "gogslug": "dungeon_rats",
  "humbleid": "",
  "humblestoreid": "",
  "humblestoreid_real": "",
  "script": {
    "files": [
      {
        "setup": "N/A: Please select the setup.exe downloaded from GOG.com"
      }
    ],
    "game": {
      "arch": "win64",
      "exe": "drive_c/GOG Games/Dungeon Rats/DR64.exe",
      "prefix": "$GAMEDIR"
    },
    "installer": [
      {
        "task": {
          "name": "create_prefix",
          "prefix": "$GAMEDIR"
        }
      },
      {
        "task": {
          "args": "/SP- /NOCANCEL /SUPPRESSMSGBOXES",
          "executable": "setup",
          "name": "wineexec",
          "prefix": "$GAMEDIR"
        }
      }
    ]
  },
  "content": "files:\n- setup: 'N/A: Please select the setup.exe downloaded from GOG.com'\ngame:\n  arch: win64\n  exe: drive_c/GOG Games/Dungeon Rats/DR64.exe\n  prefix: $GAMEDIR\ninstaller:\n- task:\n    name: create_prefix\n    prefix: $GAMEDIR\n- task:\n    args: /SP- /NOCANCEL /SUPPRESSMSGBOXES\n    executable: setup\n    name: wineexec\n    prefix: $GAMEDIR\n",
  "discord_id": ""
}