{
  "id": 37291,
  "game_id": 168065,
  "game_slug": "tiger-fighter-1931",
  "name": "Tiger Fighter 1931",
  "year": 2018,
  "user": "vanstaveren",
  "runner": "steam",
  "slug": "tiger-fighter-1931-steam",
  "version": "steam",
  "description": "",
  "notes": "",
  "credits": "",
  "created_at": "2023-04-13T06:38:39.003430Z",
  "updated_at": "2023-04-13T06:38:39.003481Z",
  "draft": false,
  "published": true,
  "published_by": null,
  "rating": "",
  "is_playable": null,
  "steamid": null,
  "gogid": null,
  "gogslug": "",
  "humbleid": "",
  "humblestoreid": "",
  "humblestoreid_real": "",
  "script": {
    "game": {
      "appid": 912520
    }
  },
  "content": "game:\n  appid: 912520\n",
  "discord_id": ""
}