{
  "id": 84071,
  "name": "Pleasure Hearts",
  "slug": "pleasure-hearts",
  "year": 1999,
  "banner_url": "",
  "icon_url": "",
  "coverart": "https://lutris.net/media/igdb/cover_big/co4be2.jpg",
  "platforms": [
    {
      "name": "MSX"
    }
  ],
  "provider_games": [
    {
      "name": "Pleasure Hearts",
      "slug": "pleasure-hearts",
      "service": "igdb"
    }
  ],
  "aliases": [],
  "shaders": [],
  "discord_id": "",
  "change_for": null
}