{
  "id": 262927,
  "name": "Rogue Nova",
  "slug": "rogue-nova",
  "year": null,
  "banner_url": "",
  "icon_url": "",
  "coverart": "https://lutris.net/media/igdb/cover_big/co77h9.jpg",
  "platforms": [],
  "provider_games": [
    {
      "name": "Rogue Nova",
      "slug": "rogue-nova",
      "service": "igdb"
    }
  ],
  "aliases": [],
  "shaders": [],
  "discord_id": "",
  "change_for": null
}