{
  "id": 221206,
  "name": "Elohim Eternal: Prologue",
  "slug": "elohim-eternal-prologue",
  "year": null,
  "banner_url": "",
  "icon_url": "",
  "coverart": "https://lutris.net/media/igdb/cover_big/co5gpd.jpg",
  "platforms": [],
  "provider_games": [
    {
      "name": "Elohim Eternal: Prologue",
      "slug": "elohim-eternal-prologue",
      "service": "igdb"
    }
  ],
  "aliases": [],
  "shaders": [],
  "discord_id": "",
  "change_for": null
}