{
  "id": 192760,
  "name": "Elite School Roof Club",
  "slug": "elite-school-roof-club",
  "year": null,
  "banner_url": "",
  "icon_url": "",
  "coverart": "https://lutris.net/media/igdb/cover_big/co4lyo.jpg",
  "platforms": [],
  "provider_games": [
    {
      "name": "Elite School Roof Club",
      "slug": "elite-school-roof-club",
      "service": "igdb"
    }
  ],
  "aliases": [],
  "shaders": [],
  "discord_id": "",
  "change_for": null
}