{
  "id": 280295,
  "name": "Legacy of Epstein: Foul Dreamer",
  "slug": "legacy-of-epstein-foul-dreamer",
  "year": null,
  "banner_url": "",
  "icon_url": "",
  "coverart": "https://lutris.net/media/igdb/cover_big/co80pj.jpg",
  "platforms": [],
  "provider_games": [
    {
      "name": "Legacy of Epstein: Foul Dreamer",
      "slug": "legacy-of-epstein-foul-dreamer",
      "service": "igdb"
    }
  ],
  "aliases": [],
  "shaders": [],
  "discord_id": "",
  "change_for": null
}