{
  "id": 118121,
  "name": "Another Century's Episode 3: The Final",
  "slug": "another-centurys-episode-3-the-final",
  "year": 2007,
  "banner_url": "",
  "icon_url": "",
  "coverart": "https://lutris.net/media/igdb/cover_big/co3gvp.jpg",
  "platforms": [
    {
      "name": "Sony PlayStation 2"
    }
  ],
  "provider_games": [
    {
      "name": "Another Century's Episode 3: The Final",
      "slug": "another-centurys-episode-3-the-final",
      "service": "igdb"
    }
  ],
  "aliases": [],
  "shaders": [],
  "discord_id": "",
  "change_for": null
}