{
  "id": 9800,
  "game_id": 6209,
  "game_slug": "electric-highways",
  "name": "Electric Highways",
  "year": 2015,
  "user": "maxlefou",
  "runner": "wine",
  "slug": "electric-highways-game-jolt",
  "version": "Game Jolt",
  "description": null,
  "notes": "Get the archive from the game's Game Jolt page",
  "credits": "",
  "created_at": "2018-08-19T13:02:25.473000Z",
  "updated_at": "2018-08-19T19:17:19.344215Z",
  "draft": false,
  "published": true,
  "published_by": null,
  "rating": "",
  "is_playable": null,
  "steamid": 412140,
  "gogid": null,
  "gogslug": "",
  "humbleid": "",
  "humblestoreid": "",
  "humblestoreid_real": "",
  "script": {
    "files": [
      {
        "archive": "N/A:Select the game's archive"
      }
    ],
    "game": {
      "exe": "Electric Highways.exe",
      "prefix": "$GAMEDIR/Electric Highways"
    },
    "installer": [
      {
        "extract": {
          "dst": "$GAMEDIR",
          "file": "archive"
        }
      }
    ]
  },
  "content": "files:\n- archive: N/A:Select the game's archive\ngame:\n  exe: Electric Highways.exe\n  prefix: $GAMEDIR/Electric Highways\ninstaller:\n- extract:\n    dst: $GAMEDIR\n    file: archive\n",
  "discord_id": ""
}