{
  "id": 159926,
  "name": "Chip's Challenge",
  "slug": "chips-challenge--1",
  "year": 1989,
  "banner_url": "",
  "icon_url": "",
  "coverart": "https://lutris.net/media/igdb/cover_big/co3wld.jpg",
  "platforms": [
    {
      "name": "Atari Lynx"
    }
  ],
  "provider_games": [
    {
      "name": "Chip's Challenge",
      "slug": "chips-challenge--1",
      "service": "igdb"
    }
  ],
  "aliases": [],
  "shaders": [],
  "discord_id": "",
  "change_for": null
}