{
  "id": 65841,
  "name": "Hidden Swap Buttons",
  "slug": "hidden-swap-buttons",
  "year": null,
  "banner_url": "",
  "icon_url": "",
  "coverart": "https://lutris.net/media/igdb/cover_big/cppr7jmpu0kc2xebvueq.jpg",
  "platforms": [],
  "provider_games": [
    {
      "name": "Hidden Swap Buttons",
      "slug": "hidden-swap-buttons",
      "service": "igdb"
    }
  ],
  "aliases": [],
  "shaders": [],
  "discord_id": "",
  "change_for": null
}