{
  "id": 39026,
  "game_id": 294748,
  "game_slug": "ruckingenur-ce",
  "name": "Ruckingenur CE",
  "year": 2009,
  "user": "BlueTheDuck",
  "runner": "wine",
  "slug": "ruckingenur-ce-thesiteformerlyknown",
  "version": "thesiteformerlyknownas",
  "description": "",
  "notes": "",
  "credits": "",
  "created_at": "2024-12-07T17:58:49.972051Z",
  "updated_at": "2024-12-07T17:58:49.972079Z",
  "draft": false,
  "published": true,
  "published_by": null,
  "rating": "",
  "is_playable": null,
  "steamid": null,
  "gogid": null,
  "gogslug": "",
  "humbleid": "",
  "humblestoreid": "",
  "humblestoreid_real": "",
  "script": {
    "files": [
      {
        "installer": "http://thesiteformerlyknownas.zachtronicsindustries.com/images/ruckingenur-ce-installer.exe"
      }
    ],
    "game": {
      "arch": "win32",
      "exe": "$GAMEDIR/drive_c/ruckingenur-ce/RuckingenurCE.exe",
      "prefix": "$GAMEDIR"
    },
    "installer": [
      {
        "task": {
          "description": "Creating wine prefix",
          "install_gecko": false,
          "install_mono": false,
          "name": "create_prefix",
          "prefix": "$GAMEDIR"
        }
      },
      {
        "execute": {
          "command": "7z x -o\"$GAMEDIR/drive_c/ruckingenur-ce/\" \"$installer\"",
          "description": "Extracting game files"
        }
      }
    ]
  },
  "content": "files:\n- installer: http://thesiteformerlyknownas.zachtronicsindustries.com/images/ruckingenur-ce-installer.exe\ngame:\n  arch: win32\n  exe: $GAMEDIR/drive_c/ruckingenur-ce/RuckingenurCE.exe\n  prefix: $GAMEDIR\ninstaller:\n- task:\n    description: Creating wine prefix\n    install_gecko: false\n    install_mono: false\n    name: create_prefix\n    prefix: $GAMEDIR\n- execute:\n    command: 7z x -o\"$GAMEDIR/drive_c/ruckingenur-ce/\" \"$installer\"\n    description: Extracting game files\n",
  "discord_id": ""
}