{
  "id": 263516,
  "name": "Crystal Comet",
  "slug": "crystal-comet",
  "year": null,
  "banner_url": "",
  "icon_url": "",
  "coverart": "https://lutris.net/media/igdb/cover_big/co79bn.jpg",
  "platforms": [],
  "provider_games": [
    {
      "name": "Crystal Comet",
      "slug": "crystal-comet",
      "service": "igdb"
    }
  ],
  "aliases": [],
  "shaders": [],
  "discord_id": "",
  "change_for": null
}