{
  "id": 63929,
  "name": "Scholastic: Clifford The Big Red Dog - Reading",
  "slug": "scholastic-clifford-the-big-red-dog-reading--1",
  "year": null,
  "banner_url": "",
  "icon_url": "",
  "coverart": "https://lutris.net/media/igdb/cover_big/jm9bxljhukujzaacp9lm.jpg",
  "platforms": [],
  "provider_games": [
    {
      "name": "Scholastic: Clifford the Big Red Dog - Reading",
      "slug": "scholastic-clifford-the-big-red-dog-reading--1",
      "service": "igdb"
    }
  ],
  "aliases": [],
  "shaders": [],
  "discord_id": "",
  "change_for": null
}