{
  "id": 189661,
  "name": "Smash Remix",
  "slug": "smash-remix",
  "year": 2019,
  "banner_url": "https://lutris.net/games/banner/smash-remix.jpg",
  "icon_url": "",
  "coverart": "https://lutris.net/media/igdb/cover_big/co4ap9.jpg",
  "platforms": [
    {
      "name": "Nintendo 64"
    }
  ],
  "provider_games": [
    {
      "name": "Smash Remix",
      "slug": "smash-remix",
      "service": "igdb"
    }
  ],
  "aliases": [],
  "shaders": [],
  "discord_id": "",
  "change_for": null
}