{
  "id": 220468,
  "name": "Nerd's Guide to Surviving High School",
  "slug": "nerds-guide-to-surviving-high-school",
  "year": 2021,
  "banner_url": "",
  "icon_url": "",
  "coverart": "https://lutris.net/media/igdb/cover_big/co5010.jpg",
  "platforms": [
    {
      "name": "Android"
    }
  ],
  "provider_games": [
    {
      "name": "Nerd's Guide to Surviving High School",
      "slug": "nerds-guide-to-surviving-high-school",
      "service": "igdb"
    }
  ],
  "aliases": [],
  "shaders": [],
  "discord_id": "",
  "change_for": null
}