{
  "id": 179560,
  "name": "Under the Rainbow: Prologue",
  "slug": "under-the-rainbow-prologue",
  "year": null,
  "banner_url": "",
  "icon_url": "",
  "coverart": "https://lutris.net/media/igdb/cover_big/co2h2u.jpg",
  "platforms": [
    {
      "name": "Windows"
    }
  ],
  "provider_games": [
    {
      "name": "Under the Rainbow: Prologue",
      "slug": "under-the-rainbow-prologue",
      "service": "igdb"
    }
  ],
  "aliases": [],
  "shaders": [],
  "discord_id": "",
  "change_for": null
}