{
  "id": 26108,
  "game_id": 15501,
  "game_slug": "sevgilim-olur-musun",
  "name": "Sevgilim Olur musun ?",
  "year": 2017,
  "user": "vanstaveren",
  "runner": "steam",
  "slug": "sevgilim-olur-musun-steam",
  "version": "Steam",
  "description": null,
  "notes": "",
  "credits": "",
  "created_at": "2021-01-28T20:17:57.492806Z",
  "updated_at": "2021-12-13T19:10:36.021043Z",
  "draft": false,
  "published": true,
  "published_by": null,
  "rating": "",
  "is_playable": null,
  "steamid": 713650,
  "gogid": null,
  "gogslug": "",
  "humbleid": "",
  "humblestoreid": "",
  "humblestoreid_real": "",
  "script": {
    "game": {
      "appid": 713650
    }
  },
  "content": "game:\n  appid: 713650\n",
  "discord_id": ""
}