{
  "id": 243793,
  "name": "Office Waifu",
  "slug": "office-waifu",
  "year": null,
  "banner_url": "",
  "icon_url": "",
  "coverart": "https://lutris.net/media/igdb/cover_big/co6gd8.jpg",
  "platforms": [],
  "provider_games": [
    {
      "name": "Office Waifu",
      "slug": "office-waifu",
      "service": "igdb"
    }
  ],
  "aliases": [],
  "shaders": [],
  "discord_id": "",
  "change_for": null
}