{
  "id": 196439,
  "name": "Sniper Game",
  "slug": "sniper-game",
  "year": null,
  "banner_url": "",
  "icon_url": "",
  "coverart": "https://lutris.net/media/igdb/cover_big/co4m4s.jpg",
  "platforms": [],
  "provider_games": [
    {
      "name": "Sniper Game",
      "slug": "sniper-game",
      "service": "igdb"
    }
  ],
  "aliases": [],
  "shaders": [],
  "discord_id": "",
  "change_for": null
}