{
  "id": 140554,
  "name": "Just A Game",
  "slug": "just-a-game--1",
  "year": null,
  "banner_url": "",
  "icon_url": "",
  "coverart": "https://lutris.net/media/igdb/cover_big/co3skq.jpg",
  "platforms": [],
  "provider_games": [
    {
      "name": "Just A Game",
      "slug": "just-a-game--1",
      "service": "igdb"
    }
  ],
  "aliases": [],
  "shaders": [],
  "discord_id": "",
  "change_for": null
}