{
  "id": 229478,
  "name": "LIP! Lewd Idol Project Vol. 3",
  "slug": "lip-lewd-idol-project-vol-3",
  "year": null,
  "banner_url": "",
  "icon_url": "",
  "coverart": "https://lutris.net/media/igdb/cover_big/co6d33.jpg",
  "platforms": [
    {
      "name": "Windows"
    }
  ],
  "provider_games": [
    {
      "name": "LIP! Lewd Idol Project Vol. 3",
      "slug": "lip-lewd-idol-project-vol-3",
      "service": "igdb"
    }
  ],
  "aliases": [],
  "shaders": [],
  "discord_id": "",
  "change_for": null
}