{
  "id": 20908,
  "game_id": 28958,
  "game_slug": "james-clavells-shogun",
  "name": "James Clavell's Shogun",
  "year": 1989,
  "user": "appoloin",
  "runner": "dosbox",
  "slug": "james-clavells-shogun-ms-dos",
  "version": "MS-DOS",
  "description": null,
  "notes": "",
  "credits": "",
  "created_at": "2020-05-28T20:02:51.424000Z",
  "updated_at": "2020-05-29T08:27:50.919967Z",
  "draft": false,
  "published": true,
  "published_by": 20548,
  "rating": "",
  "is_playable": null,
  "steamid": null,
  "gogid": null,
  "gogslug": "",
  "humbleid": "",
  "humblestoreid": "",
  "humblestoreid_real": "",
  "script": {
    "files": [
      {
        "game": "N/A:Select the file SHOGUN.EXE"
      }
    ],
    "game": {
      "main_file": "$GAMEDIR/SHOGUN.conf"
    },
    "installer": [
      {
        "execute": {
          "args": "$GAMEDIR/HDD  $GAMEDIR/HDD/SHOGUN",
          "file": "mkdir"
        }
      },
      {
        "write_file": {
          "content": "#!/bin/bash\nsrc=$1\ndst=$2\nsrc_path=$(echo \"$1\" | sed -r \"s/(.+)\\/.+/\\1/\")\ncp -avr \"$src_path/.\"  \"$dst\"",
          "file": "$CACHE/bulkcopy.sh"
        }
      },
      {
        "chmodx": "$CACHE/bulkcopy.sh"
      },
      {
        "execute": {
          "args": "$game $GAMEDIR/HDD/SHOGUN",
          "file": "$CACHE/bulkcopy.sh"
        }
      },
      {
        "write_file": {
          "content": "[sdl]\nsensitivity=20\n[autoexec]\nmount C \"$GAMEDIR/HDD\" -t dir\nC:\ncd SHOGUN\nSHOGUN.EXE\nexit",
          "file": "$GAMEDIR/SHOGUN.conf"
        }
      }
    ]
  },
  "content": "files:\n- game: N/A:Select the file SHOGUN.EXE\ngame:\n  main_file: $GAMEDIR/SHOGUN.conf\ninstaller:\n- execute:\n    args: $GAMEDIR/HDD  $GAMEDIR/HDD/SHOGUN\n    file: mkdir\n- write_file:\n    content: '#!/bin/bash\n\n      src=$1\n\n      dst=$2\n\n      src_path=$(echo \"$1\" | sed -r \"s/(.+)\\/.+/\\1/\")\n\n      cp -avr \"$src_path/.\"  \"$dst\"'\n    file: $CACHE/bulkcopy.sh\n- chmodx: $CACHE/bulkcopy.sh\n- execute:\n    args: $game $GAMEDIR/HDD/SHOGUN\n    file: $CACHE/bulkcopy.sh\n- write_file:\n    content: '[sdl]\n\n      sensitivity=20\n\n      [autoexec]\n\n      mount C \"$GAMEDIR/HDD\" -t dir\n\n      C:\n\n      cd SHOGUN\n\n      SHOGUN.EXE\n\n      exit'\n    file: $GAMEDIR/SHOGUN.conf\n",
  "discord_id": ""
}