{
  "id": 293326,
  "name": "Stickman Adventure",
  "slug": "stickman-adventure",
  "year": null,
  "banner_url": "",
  "icon_url": "",
  "coverart": "https://lutris.net/media/igdb/cover_big/co8li2.jpg",
  "platforms": [],
  "provider_games": [
    {
      "name": "Stickman Adventure",
      "slug": "stickman-adventure",
      "service": "igdb"
    }
  ],
  "aliases": [],
  "shaders": [],
  "discord_id": "",
  "change_for": null
}