{
  "id": 250550,
  "name": "Just a Boat Trip",
  "slug": "just-a-boat-trip",
  "year": null,
  "banner_url": "",
  "icon_url": "",
  "coverart": "https://lutris.net/media/igdb/cover_big/co6ofz.jpg",
  "platforms": [],
  "provider_games": [
    {
      "name": "Just a Boat Trip",
      "slug": "just-a-boat-trip",
      "service": "igdb"
    }
  ],
  "aliases": [],
  "shaders": [],
  "discord_id": "",
  "change_for": null
}