{
  "id": 205489,
  "name": "绯色物语",
  "slug": "fei-se-wu-yu",
  "year": null,
  "banner_url": "https://lutris.net/games/banner/fei-se-wu-yu.jpg",
  "icon_url": "https://lutris.net/games/icon/fei-se-wu-yu.png",
  "coverart": null,
  "platforms": [],
  "provider_games": [
    {
      "name": "绯色物语",
      "slug": "2138280",
      "service": "steam"
    }
  ],
  "aliases": [],
  "shaders": [],
  "discord_id": "",
  "change_for": null
}