{
  "id": 301080,
  "name": "Outbreak: Shades of Horror Chromatic Split",
  "slug": "outbreak-shades-of-horror-chromatic-split",
  "year": 2024,
  "banner_url": "",
  "icon_url": "",
  "coverart": "https://lutris.net/media/igdb/cover_big/co9204.jpg",
  "platforms": [
    {
      "name": "Windows"
    }
  ],
  "provider_games": [
    {
      "name": "Outbreak: Shades of Horror Chromatic Split",
      "slug": "outbreak-shades-of-horror-chromatic-split",
      "service": "igdb"
    }
  ],
  "aliases": [],
  "shaders": [],
  "discord_id": "",
  "change_for": null
}