{
  "id": 106012,
  "name": "The Misadventures of Tron Bonne",
  "slug": "the-misadventures-of-tron-bonne",
  "year": 1999,
  "banner_url": "",
  "icon_url": "",
  "coverart": "https://lutris.net/media/igdb/cover_big/co1onh.jpg",
  "platforms": [
    {
      "name": "PlayStation Vita"
    },
    {
      "name": "Sony PlayStation"
    },
    {
      "name": "Sony Playstation 3"
    },
    {
      "name": "Sony PSP"
    }
  ],
  "provider_games": [
    {
      "name": "The Misadventures of Tron Bonne",
      "slug": "the-misadventures-of-tron-bonne",
      "service": "igdb"
    }
  ],
  "aliases": [],
  "shaders": [],
  "discord_id": "",
  "change_for": null
}