{
  "id": 107625,
  "name": "You Don't Know Jack: Offline",
  "slug": "you-dont-know-jack-offline",
  "year": 1999,
  "banner_url": "",
  "icon_url": "",
  "coverart": "https://lutris.net/media/igdb/cover_big/p9xuu09vrrcuhbfnxn1u.jpg",
  "platforms": [
    {
      "name": "Mac"
    },
    {
      "name": "Windows"
    }
  ],
  "provider_games": [
    {
      "name": "You Don't Know Jack: Offline",
      "slug": "you-dont-know-jack-offline",
      "service": "igdb"
    }
  ],
  "aliases": [],
  "shaders": [],
  "discord_id": "",
  "change_for": null
}