{
  "id": 268107,
  "name": "Royal Romances: Cursed Hearts - Collector's Edition",
  "slug": "royal-romances-cursed-hearts-collectors-edition",
  "year": null,
  "banner_url": "",
  "icon_url": "",
  "coverart": "https://lutris.net/media/igdb/cover_big/co7f3a.jpg",
  "platforms": [],
  "provider_games": [
    {
      "name": "Royal Romances: Cursed Hearts - Collector's Edition",
      "slug": "royal-romances-cursed-hearts-collectors-edition",
      "service": "igdb"
    }
  ],
  "aliases": [],
  "shaders": [],
  "discord_id": "",
  "change_for": null
}