{
  "id": 7401,
  "name": "Dungeon Highway",
  "slug": "dungeon-highway",
  "year": 2015,
  "banner_url": "https://lutris.net/games/banner/dungeon-highway.jpg",
  "icon_url": "https://lutris.net/games/icon/dungeon-highway.png",
  "coverart": null,
  "platforms": [
    {
      "name": "Linux"
    },
    {
      "name": "Mac"
    },
    {
      "name": "Windows"
    }
  ],
  "provider_games": [
    {
      "name": "Dungeon Highway",
      "slug": "353340",
      "service": "steam"
    },
    {
      "name": "Dungeon Highway",
      "slug": "dungeon-highway",
      "service": "igdb"
    }
  ],
  "aliases": [],
  "shaders": [],
  "discord_id": "",
  "change_for": null
}