{
  "id": 227129,
  "name": "The Flintstones: Dino to the Rescue",
  "slug": "the-flintstones-dino-to-the-rescue",
  "year": null,
  "banner_url": "",
  "icon_url": "",
  "coverart": "https://lutris.net/media/igdb/cover_big/co5rs5.jpg",
  "platforms": [
    {
      "name": "Nintendo Game Boy Advance"
    }
  ],
  "provider_games": [
    {
      "name": "The Flintstones: Dino to the Rescue",
      "slug": "the-flintstones-dino-to-the-rescue",
      "service": "igdb"
    }
  ],
  "aliases": [],
  "shaders": [],
  "discord_id": "",
  "change_for": null
}