{
  "id": 29727,
  "game_id": 44007,
  "game_slug": "identity-v",
  "name": "Identity V",
  "year": 2018,
  "user": "NewJoarpa",
  "runner": "wine",
  "slug": "identity-v-1001",
  "version": "1.0.0.1",
  "description": null,
  "notes": "",
  "credits": "",
  "created_at": "2021-10-03T19:54:05.658000Z",
  "updated_at": "2024-09-13T18:34:13.936081Z",
  "draft": false,
  "published": false,
  "published_by": 51687,
  "rating": "",
  "is_playable": null,
  "steamid": null,
  "gogid": null,
  "gogslug": "",
  "humbleid": "",
  "humblestoreid": "",
  "humblestoreid_real": "",
  "script": {
    "files": [
      {
        "idv_installer": "https://h55na.gdl.netease.com/identityv_setup_release_oversea.exe"
      }
    ],
    "game": {
      "exe": "$GAMEDIR/drive_c/IdentityV/dwrg.exe",
      "prefix": "$GAMEDIR"
    },
    "installer": [
      {
        "task": {
          "description": "Creating Wine prefix",
          "name": "create_prefix",
          "prefix": "$GAMEDIR"
        }
      },
      {
        "task": {
          "executable": "$idv_installer",
          "name": "wineexec"
        }
      }
    ],
    "wine": {
      "install_gecko": true
    }
  },
  "content": "files:\n- idv_installer: https://h55na.gdl.netease.com/identityv_setup_release_oversea.exe\ngame:\n  exe: $GAMEDIR/drive_c/IdentityV/dwrg.exe\n  prefix: $GAMEDIR\ninstaller:\n- task:\n    description: Creating Wine prefix\n    name: create_prefix\n    prefix: $GAMEDIR\n- task:\n    executable: $idv_installer\n    name: wineexec\nwine:\n  install_gecko: true\n",
  "discord_id": ""
}