{
  "id": 227186,
  "name": "Idol Hunter: Hentai",
  "slug": "idol-hunter-hentai",
  "year": 2022,
  "banner_url": "",
  "icon_url": "",
  "coverart": "https://lutris.net/media/igdb/cover_big/co5h6y.jpg",
  "platforms": [
    {
      "name": "Windows"
    }
  ],
  "provider_games": [
    {
      "name": "Idol Hunter: Hentai",
      "slug": "idol-hunter-hentai",
      "service": "igdb"
    }
  ],
  "aliases": [],
  "shaders": [],
  "discord_id": "",
  "change_for": null
}