{
  "id": 29351,
  "name": "Game & Watch: Popeye",
  "slug": "game-watch-popeye",
  "year": 1983,
  "banner_url": "https://lutris.net/games/banner/game-watch-popeye.jpg",
  "icon_url": "",
  "coverart": null,
  "platforms": [
    {
      "name": "Arcade"
    }
  ],
  "provider_games": [],
  "aliases": [],
  "shaders": [],
  "discord_id": "",
  "change_for": null
}