{
  "id": 66820,
  "name": "The Secrets of Alamut",
  "slug": "the-secrets-of-alamut",
  "year": null,
  "banner_url": "",
  "icon_url": "",
  "coverart": "https://lutris.net/media/igdb/cover_big/co4xl4.jpg",
  "platforms": [],
  "provider_games": [
    {
      "name": "The Secrets of Alamut",
      "slug": "the-secrets-of-alamut",
      "service": "igdb"
    }
  ],
  "aliases": [],
  "shaders": [],
  "discord_id": "",
  "change_for": null
}