{
  "id": 230645,
  "name": "A Snowman's Chance",
  "slug": "a-snowmans-chance",
  "year": null,
  "banner_url": "",
  "icon_url": "",
  "coverart": "https://lutris.net/media/igdb/cover_big/co6cqc.jpg",
  "platforms": [],
  "provider_games": [
    {
      "name": "A Snowman's Chance",
      "slug": "a-snowmans-chance",
      "service": "igdb"
    }
  ],
  "aliases": [],
  "shaders": [],
  "discord_id": "",
  "change_for": null
}