{
  "id": 161438,
  "name": "Fono",
  "slug": "fono",
  "year": null,
  "banner_url": "",
  "icon_url": "",
  "coverart": "https://lutris.net/media/igdb/cover_big/co3zsq.jpg",
  "platforms": [],
  "provider_games": [
    {
      "name": "Fono",
      "slug": "fono",
      "service": "igdb"
    }
  ],
  "aliases": [],
  "shaders": [],
  "discord_id": "",
  "change_for": null
}