{
  "id": 106064,
  "name": "Tokyo Majin Gakuen: Gehoujou",
  "slug": "tokyo-majin-gakuen-gehoujou",
  "year": 2002,
  "banner_url": "",
  "icon_url": "",
  "coverart": "https://lutris.net/media/igdb/cover_big/co2gm7.jpg",
  "platforms": [
    {
      "name": "Sony PlayStation"
    },
    {
      "name": "Sony Playstation 3"
    }
  ],
  "provider_games": [
    {
      "name": "Tokyo Majin Gakuen: Gehoujou",
      "slug": "tokyo-majin-gakuen-gehoujou",
      "service": "igdb"
    }
  ],
  "aliases": [],
  "shaders": [],
  "discord_id": "",
  "change_for": null
}