{
  "id": 68382,
  "name": "Gizmondo Motocross 2005",
  "slug": "gizmondo-motocross-2005",
  "year": null,
  "banner_url": "",
  "icon_url": "",
  "coverart": "https://lutris.net/media/igdb/cover_big/uts8lukz1da7g8crdwmx.jpg",
  "platforms": [],
  "provider_games": [
    {
      "name": "Gizmondo Motocross 2005",
      "slug": "gizmondo-motocross-2005",
      "service": "igdb"
    }
  ],
  "aliases": [],
  "shaders": [],
  "discord_id": "",
  "change_for": null
}