{
  "id": 175461,
  "name": "Itorah",
  "slug": "itorah",
  "year": 2022,
  "banner_url": "https://lutris.net/games/banner/itorah.jpg",
  "icon_url": "",
  "coverart": "https://lutris.net/media/igdb/cover_big/co2esy.jpg",
  "platforms": [
    {
      "name": "Windows"
    }
  ],
  "provider_games": [
    {
      "name": "Itorah",
      "slug": "1132910",
      "service": "steam"
    },
    {
      "name": "ITORAH",
      "slug": "2043095980",
      "service": "gog"
    },
    {
      "name": "Itorah",
      "slug": "itorah",
      "service": "igdb"
    }
  ],
  "aliases": [],
  "shaders": [],
  "discord_id": "",
  "change_for": null
}