{
  "id": 163623,
  "name": "Heist Game: It’s Only Illegal if You Get Caught This Is Not Legal Advice Only a Title",
  "slug": "heist-game-its-only-illegal-if-you-get-caught-this-is-not-legal-advice-only-a-title",
  "year": null,
  "banner_url": "",
  "icon_url": "",
  "coverart": null,
  "platforms": [],
  "provider_games": [
    {
      "name": "Heist Game: It's Only Illegal if You Get Caught This Is Not Legal Advice Only a Title",
      "slug": "heist-game-its-only-illegal-if-you-get-caught-this-is-not-legal-advice-only-a-title",
      "service": "igdb"
    }
  ],
  "aliases": [],
  "shaders": [],
  "discord_id": "",
  "change_for": null
}