{
  "id": 153380,
  "name": "Dawn Break -Origin-",
  "slug": "dawn-break-origin",
  "year": null,
  "banner_url": "",
  "icon_url": "",
  "coverart": null,
  "platforms": [],
  "provider_games": [
    {
      "name": "Dawn Break -Origin-",
      "slug": "dawn-break-origin",
      "service": "igdb"
    }
  ],
  "aliases": [],
  "shaders": [],
  "discord_id": "",
  "change_for": null
}