{
  "id": 100177,
  "name": "Alphaputt",
  "slug": "alphaputt",
  "year": 2018,
  "banner_url": "",
  "icon_url": "",
  "coverart": "https://lutris.net/media/igdb/cover_big/co28ky.jpg",
  "platforms": [],
  "provider_games": [
    {
      "name": "Alphaputt",
      "slug": "alphaputt",
      "service": "igdb"
    }
  ],
  "aliases": [],
  "shaders": [],
  "discord_id": "",
  "change_for": null
}