{
  "id": 249739,
  "name": "Moto Rush GT: Silver Edition",
  "slug": "moto-rush-gt-silver-edition",
  "year": 2023,
  "banner_url": "",
  "icon_url": "",
  "coverart": "https://lutris.net/media/igdb/cover_big/co6sfi.jpg",
  "platforms": [
    {
      "name": "Nintendo Switch"
    }
  ],
  "provider_games": [
    {
      "name": "Moto Rush GT: Silver Edition",
      "slug": "moto-rush-gt-silver-edition",
      "service": "igdb"
    }
  ],
  "aliases": [],
  "shaders": [],
  "discord_id": "",
  "change_for": null
}