{
  "id": 37905,
  "game_id": 202328,
  "game_slug": "island-assault",
  "name": "Island Assault",
  "year": null,
  "user": "vanstaveren",
  "runner": "steam",
  "slug": "island-assault-steam",
  "version": "steam",
  "description": "",
  "notes": "",
  "credits": "",
  "created_at": "2023-10-09T22:32:41.229780Z",
  "updated_at": "2023-10-09T22:32:41.229800Z",
  "draft": false,
  "published": true,
  "published_by": null,
  "rating": "",
  "is_playable": null,
  "steamid": null,
  "gogid": null,
  "gogslug": "",
  "humbleid": "",
  "humblestoreid": "",
  "humblestoreid_real": "",
  "script": {
    "game": {
      "appid": 1929650
    }
  },
  "content": "game:\n  appid: 1929650\n",
  "discord_id": ""
}