{
  "id": 270445,
  "name": "Hentai Stars: Special Edition",
  "slug": "hentai-stars-special-edition",
  "year": 2023,
  "banner_url": "",
  "icon_url": "",
  "coverart": null,
  "platforms": [
    {
      "name": "Nintendo Switch"
    }
  ],
  "provider_games": [
    {
      "name": "Hentai Stars: Special Edition",
      "slug": "hentai-stars-special-edition",
      "service": "igdb"
    }
  ],
  "aliases": [],
  "shaders": [],
  "discord_id": "",
  "change_for": null
}