{
  "id": 246794,
  "name": "Zombreak: The Last Escape",
  "slug": "zombreak-the-last-escape",
  "year": null,
  "banner_url": "",
  "icon_url": "",
  "coverart": "https://lutris.net/media/igdb/cover_big/co6jo8.jpg",
  "platforms": [],
  "provider_games": [
    {
      "name": "Zombreak: The Last Escape",
      "slug": "zombreak-the-last-escape",
      "service": "igdb"
    }
  ],
  "aliases": [],
  "shaders": [],
  "discord_id": "",
  "change_for": null
}