{
  "id": 67388,
  "name": "Oukahouzin: Ouka Sakishi Toki",
  "slug": "oukahouzin-ouka-sakishi-toki",
  "year": null,
  "banner_url": "",
  "icon_url": "",
  "coverart": "https://lutris.net/media/igdb/cover_big/fonkwutthfj34xbkgz3f.jpg",
  "platforms": [],
  "provider_games": [
    {
      "name": "Oukahouzin: Ouka Sakishi Toki",
      "slug": "oukahouzin-ouka-sakishi-toki",
      "service": "igdb"
    }
  ],
  "aliases": [],
  "shaders": [],
  "discord_id": "",
  "change_for": null
}