{
  "id": 63744,
  "name": "Fitba",
  "slug": "fitba",
  "year": null,
  "banner_url": "",
  "icon_url": "",
  "coverart": "https://lutris.net/media/igdb/cover_big/zqtnni0ahbcrkc8scdyr.jpg",
  "platforms": [],
  "provider_games": [
    {
      "name": "Fitba",
      "slug": "fitba",
      "service": "igdb"
    }
  ],
  "aliases": [],
  "shaders": [],
  "discord_id": "",
  "change_for": null
}