{
  "id": 20809,
  "game_id": 22419,
  "game_slug": "outer-rim",
  "name": "Outer Rim",
  "year": 2017,
  "user": "vanstaveren",
  "runner": "steam",
  "slug": "outer-rim-proton",
  "version": "Proton",
  "description": null,
  "notes": "",
  "credits": "",
  "created_at": "2020-05-26T21:51:49.199000Z",
  "updated_at": "2021-05-04T02:43:15.001065Z",
  "draft": false,
  "published": true,
  "published_by": 20548,
  "rating": "",
  "is_playable": null,
  "steamid": 604640,
  "gogid": null,
  "gogslug": "",
  "humbleid": "",
  "humblestoreid": "",
  "humblestoreid_real": "",
  "script": {
    "game": {
      "appid": 604640
    }
  },
  "content": "game:\n  appid: 604640\n",
  "discord_id": ""
}