{
  "id": 306111,
  "name": "Immediate",
  "slug": "immediate",
  "year": 2020,
  "banner_url": "",
  "icon_url": "",
  "coverart": "https://lutris.net/media/igdb/cover_big/co91t7.jpg",
  "platforms": [
    {
      "name": "PC-8801"
    }
  ],
  "provider_games": [
    {
      "name": "Immediate",
      "slug": "immediate",
      "service": "igdb"
    }
  ],
  "aliases": [],
  "shaders": [],
  "discord_id": "",
  "change_for": null
}