{
  "id": 12981,
  "name": "1166",
  "slug": "1166",
  "year": 2017,
  "banner_url": "https://lutris.net/games/banner/1166.jpg",
  "icon_url": "https://lutris.net/games/icon/1166.png",
  "coverart": "https://lutris.net/media/igdb/cover_big/co22g9.jpg",
  "platforms": [
    {
      "name": "Linux"
    },
    {
      "name": "Mac"
    },
    {
      "name": "Windows"
    }
  ],
  "provider_games": [
    {
      "name": "1166",
      "slug": "581810",
      "service": "steam"
    },
    {
      "name": "1166",
      "slug": "1166",
      "service": "igdb"
    }
  ],
  "aliases": [],
  "shaders": [],
  "discord_id": "",
  "change_for": null
}