{
  "id": 122535,
  "name": "Critters: Cute Cubs in a Cruel World",
  "slug": "critters-cute-cubs-in-a-cruel-world",
  "year": 2017,
  "banner_url": "",
  "icon_url": "",
  "coverart": "https://lutris.net/media/igdb/cover_big/co2am5.jpg",
  "platforms": [
    {
      "name": "Windows"
    }
  ],
  "provider_games": [
    {
      "name": "Critters: Cute Cubs in a Cruel World",
      "slug": "critters-cute-cubs-in-a-cruel-world",
      "service": "igdb"
    }
  ],
  "aliases": [],
  "shaders": [],
  "discord_id": "",
  "change_for": null
}