{
  "id": 84206,
  "name": "Andre Panza Kick Boxing",
  "slug": "andre-panza-kick-boxing",
  "year": 1991,
  "banner_url": "",
  "icon_url": "",
  "coverart": "https://lutris.net/media/igdb/cover_big/xhepihwsnb92w6ewxoyh.jpg",
  "platforms": [
    {
      "name": "TurboGrafx-16/PC Engine"
    }
  ],
  "provider_games": [
    {
      "name": "Andre Panza Kick Boxing",
      "slug": "andre-panza-kick-boxing",
      "service": "igdb"
    }
  ],
  "aliases": [],
  "shaders": [],
  "discord_id": "",
  "change_for": null
}