{
  "id": 216394,
  "name": "Ancient Cultures: Tikal's Realm",
  "slug": "ancient-cultures-tikals-realm",
  "year": null,
  "banner_url": "",
  "icon_url": "",
  "coverart": "https://lutris.net/media/igdb/cover_big/co57y3.jpg",
  "platforms": [],
  "provider_games": [
    {
      "name": "Ancient Cultures: Tikal's Realm",
      "slug": "ancient-cultures-tikals-realm",
      "service": "igdb"
    }
  ],
  "aliases": [],
  "shaders": [],
  "discord_id": "",
  "change_for": null
}