{
  "id": 105855,
  "name": "Taiko no Tatsujin: Wii U Version",
  "slug": "taiko-no-tatsujin-wii-u-version",
  "year": 2013,
  "banner_url": "",
  "icon_url": "",
  "coverart": "https://lutris.net/media/igdb/cover_big/co2tpj.jpg",
  "platforms": [
    {
      "name": "Nintendo Wii U"
    }
  ],
  "provider_games": [
    {
      "name": "Taiko no Tatsujin: Wii U Version",
      "slug": "taiko-no-tatsujin-wii-u-version",
      "service": "igdb"
    }
  ],
  "aliases": [],
  "shaders": [],
  "discord_id": "",
  "change_for": null
}