{
  "id": 279283,
  "name": "SER: Into The Void",
  "slug": "ser-into-the-void",
  "year": null,
  "banner_url": "",
  "icon_url": "",
  "coverart": "https://lutris.net/media/igdb/cover_big/co80vd.jpg",
  "platforms": [],
  "provider_games": [
    {
      "name": "SER: Into The Void",
      "slug": "ser-into-the-void",
      "service": "igdb"
    }
  ],
  "aliases": [],
  "shaders": [],
  "discord_id": "",
  "change_for": null
}