{
  "id": 42398,
  "name": "Turnip Boy Commits Tax Evasion",
  "slug": "turnip-boy-commits-tax-evasion",
  "year": 2021,
  "banner_url": "https://lutris.net/games/banner/turnip-boy-commits-tax-evasion.jpg",
  "icon_url": "https://lutris.net/games/icon/turnip-boy-commits-tax-evasion.png",
  "coverart": "https://lutris.net/media/igdb/cover_big/co2g25.jpg",
  "platforms": [
    {
      "name": "Linux"
    },
    {
      "name": "Mac"
    },
    {
      "name": "Nintendo Switch"
    },
    {
      "name": "Windows"
    }
  ],
  "provider_games": [
    {
      "name": "Turnip Boy Commits Tax Evasion",
      "slug": "1205450",
      "service": "steam"
    },
    {
      "name": "Turnip Boy Commits Tax Evasion",
      "slug": "1590785655",
      "service": "gog"
    },
    {
      "name": "Turnip Boy Commits Tax Evasion",
      "slug": "turnip-boy-commits-tax-evasion",
      "service": "igdb"
    }
  ],
  "aliases": [],
  "shaders": [],
  "discord_id": "",
  "change_for": null
}