{
  "id": 209419,
  "name": "Miss Clue: Peril In Pemberley!",
  "slug": "miss-clue-peril-in-pemberley",
  "year": 2016,
  "banner_url": "",
  "icon_url": "",
  "coverart": "https://lutris.net/media/igdb/cover_big/co5xt7.jpg",
  "platforms": [
    {
      "name": "Mac"
    },
    {
      "name": "Windows"
    }
  ],
  "provider_games": [
    {
      "name": "Miss Clue: Peril In Pemberley!",
      "slug": "miss-clue-peril-in-pemberley",
      "service": "igdb"
    }
  ],
  "aliases": [],
  "shaders": [],
  "discord_id": "",
  "change_for": null
}