{
  "id": 186270,
  "name": "The Only One Girl 1stQ",
  "slug": "the-only-one-girl-1stq",
  "year": null,
  "banner_url": "",
  "icon_url": "",
  "coverart": null,
  "platforms": [],
  "provider_games": [
    {
      "name": "The Only One Girl 1stQ",
      "slug": "the-only-one-girl-1stq",
      "service": "igdb"
    }
  ],
  "aliases": [],
  "shaders": [],
  "discord_id": "",
  "change_for": null
}