{
  "id": 109609,
  "name": "Johnny Herbert's Grand Prix Championship 1998",
  "slug": "johnny-herberts-grand-prix-championship-1998",
  "year": 1998,
  "banner_url": "",
  "icon_url": "",
  "coverart": "https://lutris.net/media/igdb/cover_big/co20sw.jpg",
  "platforms": [
    {
      "name": "Windows"
    }
  ],
  "provider_games": [
    {
      "name": "Johnny Herbert's Grand Prix Championship 1998",
      "slug": "johnny-herberts-grand-prix-championship-1998",
      "service": "igdb"
    }
  ],
  "aliases": [],
  "shaders": [],
  "discord_id": "",
  "change_for": null
}