{
  "id": 243879,
  "name": "Barrel It: The Water Adventure",
  "slug": "barrel-it-the-water-adventure",
  "year": 2023,
  "banner_url": "",
  "icon_url": "",
  "coverart": "https://lutris.net/media/igdb/cover_big/co6g9e.jpg",
  "platforms": [
    {
      "name": "Android"
    }
  ],
  "provider_games": [
    {
      "name": "Barrel It: The Water Adventure",
      "slug": "barrel-it-the-water-adventure",
      "service": "igdb"
    }
  ],
  "aliases": [],
  "shaders": [],
  "discord_id": "",
  "change_for": null
}