{
  "id": 122249,
  "name": "Chronicles of Mystery - The Legend of the Sacred Treasure",
  "slug": "chronicles-of-mystery-the-legend-of-the-sacred-treasure",
  "year": 2010,
  "banner_url": "",
  "icon_url": "",
  "coverart": "https://lutris.net/media/igdb/cover_big/co2j29.jpg",
  "platforms": [
    {
      "name": "Windows"
    }
  ],
  "provider_games": [
    {
      "name": "Chronicles of Mystery: The Legend of the Sacred Treasure",
      "slug": "chronicles-of-mystery-the-legend-of-the-sacred-treasure",
      "service": "igdb"
    }
  ],
  "aliases": [],
  "shaders": [],
  "discord_id": "",
  "change_for": null
}