{
  "id": 213722,
  "name": "Century: Age of Ashes - Harbinger Edition",
  "slug": "century-age-of-ashes-harbinger-edition",
  "year": 2022,
  "banner_url": "",
  "icon_url": "",
  "coverart": "https://lutris.net/media/igdb/cover_big/co5lpk.jpg",
  "platforms": [
    {
      "name": "Xbox One"
    },
    {
      "name": "Xbox Series X|S"
    }
  ],
  "provider_games": [
    {
      "name": "Century: Age of Ashes - Harbinger Edition",
      "slug": "century-age-of-ashes-harbinger-edition",
      "service": "igdb"
    }
  ],
  "aliases": [],
  "shaders": [],
  "discord_id": "",
  "change_for": null
}