{
  "id": 227825,
  "name": "Caveman",
  "slug": "caveman--3",
  "year": 1982,
  "banner_url": "",
  "icon_url": "",
  "coverart": "https://lutris.net/media/igdb/cover_big/co58cz.jpg",
  "platforms": [],
  "provider_games": [
    {
      "name": "Caveman",
      "slug": "caveman--3",
      "service": "igdb"
    }
  ],
  "aliases": [],
  "shaders": [],
  "discord_id": "",
  "change_for": null
}