{
  "id": 197830,
  "name": "Cassiodora",
  "slug": "cassiodora",
  "year": null,
  "banner_url": "",
  "icon_url": "",
  "coverart": "https://lutris.net/media/igdb/cover_big/co4jy6.jpg",
  "platforms": [],
  "provider_games": [
    {
      "name": "Cassiodora",
      "slug": "cassiodora",
      "service": "igdb"
    }
  ],
  "aliases": [],
  "shaders": [],
  "discord_id": "",
  "change_for": null
}