{
  "id": 225584,
  "name": "Pizza Snake!",
  "slug": "pizza-snake",
  "year": null,
  "banner_url": "",
  "icon_url": "",
  "coverart": null,
  "platforms": [
    {
      "name": "Playdate"
    }
  ],
  "provider_games": [
    {
      "name": "Pizza Snake!",
      "slug": "pizza-snake",
      "service": "igdb"
    }
  ],
  "aliases": [],
  "shaders": [],
  "discord_id": "",
  "change_for": null
}