{
  "id": 63648,
  "name": "Pearl Jam Live: Rock Band",
  "slug": "pearl-jam-live-rock-band",
  "year": null,
  "banner_url": "",
  "icon_url": "",
  "coverart": "https://lutris.net/media/igdb/cover_big/co1se5.jpg",
  "platforms": [],
  "provider_games": [
    {
      "name": "Pearl Jam Live: Rock Band",
      "slug": "pearl-jam-live-rock-band",
      "service": "igdb"
    }
  ],
  "aliases": [],
  "shaders": [],
  "discord_id": "",
  "change_for": null
}