{
  "id": 31756,
  "name": "LUNA The Shadow Dust",
  "slug": "luna-the-shadow-dust",
  "year": 2020,
  "banner_url": "https://lutris.net/games/banner/luna-the-shadow-dust.jpg",
  "icon_url": "https://lutris.net/games/icon/luna-the-shadow-dust.png",
  "coverart": "https://lutris.net/media/igdb/cover_big/co1pal.jpg",
  "platforms": [
    {
      "name": "Linux"
    },
    {
      "name": "Mac"
    },
    {
      "name": "Nintendo Switch"
    },
    {
      "name": "Windows"
    }
  ],
  "provider_games": [
    {
      "name": "LUNA The Shadow Dust",
      "slug": "1799999374",
      "service": "gog"
    },
    {
      "name": "LUNA The Shadow Dust",
      "slug": "465100",
      "service": "steam"
    },
    {
      "name": "Luna: The Shadow Dust",
      "slug": "luna-the-shadow-dust",
      "service": "igdb"
    }
  ],
  "aliases": [],
  "shaders": [],
  "discord_id": "",
  "change_for": null
}