{
  "id": 223800,
  "name": "The Blight",
  "slug": "the-blight",
  "year": null,
  "banner_url": "",
  "icon_url": "",
  "coverart": "https://lutris.net/media/igdb/cover_big/co5myp.jpg",
  "platforms": [],
  "provider_games": [
    {
      "name": "The Blight",
      "slug": "the-blight",
      "service": "igdb"
    }
  ],
  "aliases": [],
  "shaders": [],
  "discord_id": "",
  "change_for": null
}