{
  "id": 174731,
  "name": "Blocky Highway Game",
  "slug": "blocky-highway-game",
  "year": null,
  "banner_url": "",
  "icon_url": "",
  "coverart": "https://lutris.net/media/igdb/cover_big/co4qm2.jpg",
  "platforms": [],
  "provider_games": [
    {
      "name": "Blocky Highway Game",
      "slug": "blocky-highway-game",
      "service": "igdb"
    }
  ],
  "aliases": [],
  "shaders": [],
  "discord_id": "",
  "change_for": null
}