{
  "id": 124912,
  "name": "Everything Explosive",
  "slug": "everything-explosive",
  "year": null,
  "banner_url": "",
  "icon_url": "",
  "coverart": "https://lutris.net/media/igdb/cover_big/co2sbx.jpg",
  "platforms": [],
  "provider_games": [
    {
      "name": "Everything Explosive",
      "slug": "everything-explosive",
      "service": "igdb"
    }
  ],
  "aliases": [],
  "shaders": [],
  "discord_id": "",
  "change_for": null
}