{
  "id": 156967,
  "name": "The Tenth Line: Special Edition",
  "slug": "the-tenth-line-special-edition",
  "year": 2019,
  "banner_url": "",
  "icon_url": "",
  "coverart": "https://lutris.net/media/igdb/cover_big/co4ce0.jpg",
  "platforms": [
    {
      "name": "Nintendo Switch"
    }
  ],
  "provider_games": [
    {
      "name": "The Tenth Line: Special Edition",
      "slug": "the-tenth-line-special-edition",
      "service": "igdb"
    }
  ],
  "aliases": [],
  "shaders": [],
  "discord_id": "",
  "change_for": null
}