{
  "id": 83652,
  "name": "Lode Runner - Teikoku Karano Dasshutsu",
  "slug": "lode-runner-teikoku-karano-dasshutsu",
  "year": 1986,
  "banner_url": "",
  "icon_url": "",
  "coverart": "https://lutris.net/media/igdb/cover_big/f0j408iehbnalq9ufhk0.jpg",
  "platforms": [],
  "provider_games": [
    {
      "name": "Lode Runner - Teikoku Karano Dasshutsu",
      "slug": "lode-runner-teikoku-karano-dasshutsu",
      "service": "igdb"
    }
  ],
  "aliases": [],
  "shaders": [],
  "discord_id": "",
  "change_for": null
}