{
  "id": 137157,
  "name": "Nyanco Card",
  "slug": "nyanco-card",
  "year": null,
  "banner_url": "",
  "icon_url": "",
  "coverart": "https://lutris.net/media/igdb/cover_big/co3q9k.jpg",
  "platforms": [],
  "provider_games": [
    {
      "name": "Nyanco Card",
      "slug": "nyanco-card",
      "service": "igdb"
    }
  ],
  "aliases": [],
  "shaders": [],
  "discord_id": "",
  "change_for": null
}