{
  "id": 1465,
  "name": "SOL: Exodus",
  "slug": "sol-exodus",
  "year": 2012,
  "banner_url": "https://lutris.net/games/banner/sol-exodus.jpg",
  "icon_url": "https://lutris.net/games/icon/sol-exodus.png",
  "coverart": "https://lutris.net/media/igdb/cover_big/co31c5.jpg",
  "platforms": [
    {
      "name": "Windows"
    }
  ],
  "provider_games": [
    {
      "name": "SOL: Exodus",
      "slug": "200410",
      "service": "steam"
    },
    {
      "name": "SOL Exodus",
      "slug": "sol-exodus",
      "service": "igdb"
    }
  ],
  "aliases": [],
  "shaders": [],
  "discord_id": "",
  "change_for": null
}