{
  "id": 206586,
  "name": "Simple Characters 2000 Series Vol. 10: Sakigake! Otokojuku - The Dodge Ball",
  "slug": "simple-characters-2000-series-vol-10-sakigake-otokojuku-the-dodge-ball",
  "year": 2002,
  "banner_url": "",
  "icon_url": "",
  "coverart": null,
  "platforms": [
    {
      "name": "Sony PlayStation"
    }
  ],
  "provider_games": [
    {
      "name": "Simple Characters 2000 Series Vol. 10: Sakigake! Otokojuku - The Dodge Ball",
      "slug": "simple-characters-2000-series-vol-10-sakigake-otokojuku-the-dodge-ball",
      "service": "igdb"
    }
  ],
  "aliases": [],
  "shaders": [],
  "discord_id": "",
  "change_for": null
}