{
  "id": 9979,
  "game_id": 11060,
  "game_slug": "copoka",
  "name": "Copoka",
  "year": 2016,
  "user": "491ed257bfd78b63f1290653f9768d16",
  "runner": "wine",
  "slug": "copoka-humblebundle-w-dxvk",
  "version": "HumbleBundle w/ DXVK",
  "description": "",
  "notes": "Might have performance issues.",
  "credits": "",
  "created_at": "2018-08-31T20:04:00.220000Z",
  "updated_at": "2023-06-13T01:34:20.612518Z",
  "draft": false,
  "published": true,
  "published_by": 19464,
  "rating": "",
  "is_playable": null,
  "steamid": 582620,
  "gogid": null,
  "gogslug": "",
  "humbleid": "",
  "humblestoreid": "",
  "humblestoreid_real": "",
  "script": {
    "files": [
      {
        "game": "N/A:Select the Windows installer downloaded from Humble Bundle Trove."
      }
    ],
    "game": {
      "arch": "win64",
      "exe": "drive_c/Program Files (x86)/Copoka/Copoka.exe",
      "prefix": "$GAMEDIR"
    },
    "installer": [
      {
        "task": {
          "arch": "win64",
          "name": "create_prefix",
          "prefix": "$GAMEDIR"
        }
      },
      {
        "task": {
          "arch": "win64",
          "executable": "game",
          "name": "wineexec",
          "prefix": "$GAMEDIR"
        }
      }
    ],
    "system": {
      "env": {
        "DXVK_HUD": 0
      }
    }
  },
  "content": "files:\n- game: N/A:Select the Windows installer downloaded from Humble Bundle Trove.\ngame:\n  arch: win64\n  exe: drive_c/Program Files (x86)/Copoka/Copoka.exe\n  prefix: $GAMEDIR\ninstaller:\n- task:\n    arch: win64\n    name: create_prefix\n    prefix: $GAMEDIR\n- task:\n    arch: win64\n    executable: game\n    name: wineexec\n    prefix: $GAMEDIR\nsystem:\n  env:\n    DXVK_HUD: 0\n",
  "discord_id": ""
}