{
  "id": 82149,
  "name": "Mig Alley Ace",
  "slug": "mig-alley-ace",
  "year": 1983,
  "banner_url": "",
  "icon_url": "",
  "coverart": "https://lutris.net/media/igdb/cover_big/hdv84chicazijunt98tl.jpg",
  "platforms": [
    {
      "name": "Atari 8-bit"
    },
    {
      "name": "Commodore C64/128"
    }
  ],
  "provider_games": [
    {
      "name": "Mig Alley Ace",
      "slug": "mig-alley-ace",
      "service": "igdb"
    }
  ],
  "aliases": [],
  "shaders": [],
  "discord_id": "",
  "change_for": null
}