{
  "id": 119465,
  "name": "Apollo 11 VR HD: First Steps",
  "slug": "apollo-11-vr-hd-first-steps",
  "year": null,
  "banner_url": "https://lutris.net/games/banner/apollo-11-vr-hd-first-steps.jpg",
  "icon_url": "",
  "coverart": null,
  "platforms": [],
  "provider_games": [
    {
      "name": "Apollo 11 VR HD: First Steps",
      "slug": "1115660",
      "service": "steam"
    },
    {
      "name": "Apollo 11 VR HD: First Steps",
      "slug": "apollo-11-vr-hd-first-steps",
      "service": "igdb"
    }
  ],
  "aliases": [],
  "shaders": [],
  "discord_id": "",
  "change_for": null
}