{
  "id": 173904,
  "name": "Kemono Heroes",
  "slug": "kemono-heroes",
  "year": 2020,
  "banner_url": "",
  "icon_url": "",
  "coverart": "https://lutris.net/media/igdb/cover_big/co206a.jpg",
  "platforms": [
    {
      "name": "Google Stadia"
    },
    {
      "name": "Nintendo Switch"
    }
  ],
  "provider_games": [
    {
      "name": "Kemono Heroes",
      "slug": "kemono-heroes",
      "service": "igdb"
    }
  ],
  "aliases": [],
  "shaders": [],
  "discord_id": "",
  "change_for": null
}