{
  "id": 22076,
  "name": "Final Fantasy III DS",
  "slug": "final-fantasy-iii-ds",
  "year": 2006,
  "banner_url": "https://lutris.net/games/banner/final-fantasy-iii-ds.jpg",
  "icon_url": "",
  "coverart": null,
  "platforms": [
    {
      "name": "Nintendo DS"
    }
  ],
  "provider_games": [],
  "aliases": [],
  "shaders": [],
  "discord_id": "",
  "change_for": null
}