{
  "id": 302664,
  "name": "Nitrogen Narcosis",
  "slug": "nitrogen-narcosis",
  "year": null,
  "banner_url": "",
  "icon_url": "",
  "coverart": "https://lutris.net/media/igdb/cover_big/co95zj.jpg",
  "platforms": [],
  "provider_games": [
    {
      "name": "Nitrogen Narcosis",
      "slug": "nitrogen-narcosis",
      "service": "igdb"
    }
  ],
  "aliases": [],
  "shaders": [],
  "discord_id": "",
  "change_for": null
}