{
  "id": 200827,
  "name": "Sorosoro Sushi wo Tabenai to Shinu ze!",
  "slug": "sorosoro-sushi-wo-tabenai-to-shinu-ze",
  "year": 2021,
  "banner_url": "",
  "icon_url": "",
  "coverart": "https://lutris.net/media/igdb/cover_big/co4dt5.jpg",
  "platforms": [
    {
      "name": "Windows"
    }
  ],
  "provider_games": [
    {
      "name": "Sorosoro Sushi wo Tabenai to Shinu ze!",
      "slug": "sorosoro-sushi-wo-tabenai-to-shinu-ze",
      "service": "igdb"
    }
  ],
  "aliases": [],
  "shaders": [],
  "discord_id": "",
  "change_for": null
}