{
  "id": 277250,
  "name": "Around The World: Travel To Brazil - Collector's Edition",
  "slug": "around-the-world-travel-to-brazil-collectors-edition",
  "year": 2024,
  "banner_url": "",
  "icon_url": "",
  "coverart": "https://lutris.net/media/igdb/cover_big/co7x4l.jpg",
  "platforms": [
    {
      "name": "Nintendo Switch"
    }
  ],
  "provider_games": [
    {
      "name": "Around The World: Travel To Brazil - Collector's Edition",
      "slug": "around-the-world-travel-to-brazil-collectors-edition",
      "service": "igdb"
    }
  ],
  "aliases": [],
  "shaders": [],
  "discord_id": "",
  "change_for": null
}