{
  "id": 83751,
  "name": "Bifrost Breakout",
  "slug": "bifrost-breakout",
  "year": null,
  "banner_url": "",
  "icon_url": "",
  "coverart": null,
  "platforms": [],
  "provider_games": [
    {
      "name": "Bifrost Breakout",
      "slug": "bifrost-breakout",
      "service": "igdb"
    }
  ],
  "aliases": [],
  "shaders": [],
  "discord_id": "",
  "change_for": null
}