{
  "id": 246920,
  "name": "Honey Are You There?",
  "slug": "honey-are-you-there",
  "year": null,
  "banner_url": "",
  "icon_url": "",
  "coverart": "https://lutris.net/media/igdb/cover_big/co6jhb.jpg",
  "platforms": [],
  "provider_games": [
    {
      "name": "Honey Are You There?",
      "slug": "honey-are-you-there",
      "service": "igdb"
    }
  ],
  "aliases": [],
  "shaders": [],
  "discord_id": "",
  "change_for": null
}