{
  "id": 72419,
  "name": "Ro Cannery",
  "slug": "ro-cannery",
  "year": null,
  "banner_url": "",
  "icon_url": "",
  "coverart": null,
  "platforms": [],
  "provider_games": [
    {
      "name": "Ro Cannery",
      "slug": "ro-cannery",
      "service": "igdb"
    }
  ],
  "aliases": [],
  "shaders": [],
  "discord_id": "",
  "change_for": null
}