{
  "id": 13167,
  "game_id": 5053,
  "game_slug": "the-royal-trap-the-confines-of-the-crown",
  "name": "The Royal Trap: The Confines Of The Crown",
  "year": 2013,
  "user": "cxf",
  "runner": "linux",
  "slug": "the-royal-trap-the-confines-o-demo",
  "version": "Demo",
  "description": null,
  "notes": "",
  "credits": "",
  "created_at": "2019-04-27T21:12:27.689000Z",
  "updated_at": "2024-04-03T05:34:13.634425Z",
  "draft": false,
  "published": true,
  "published_by": 19464,
  "rating": "",
  "is_playable": null,
  "steamid": 356530,
  "gogid": null,
  "gogslug": "",
  "humbleid": "",
  "humblestoreid": "",
  "humblestoreid_real": "",
  "script": {
    "files": [
      {
        "demo": "http://www.hanakogames.com/demos/TheRoyalTrapDemo-linux-1.0-x86.tar.bz2"
      }
    ],
    "game": {
      "exe": "The Royal Trap Demo.sh"
    },
    "installer": [
      {
        "extract": {
          "file": "demo"
        }
      }
    ]
  },
  "content": "files:\n- demo: http://www.hanakogames.com/demos/TheRoyalTrapDemo-linux-1.0-x86.tar.bz2\ngame:\n  exe: The Royal Trap Demo.sh\ninstaller:\n- extract:\n    file: demo\n",
  "discord_id": ""
}