{
  "id": 235024,
  "name": "Gone Man",
  "slug": "gone-man",
  "year": null,
  "banner_url": "",
  "icon_url": "",
  "coverart": "https://lutris.net/media/igdb/cover_big/co645v.jpg",
  "platforms": [],
  "provider_games": [
    {
      "name": "Gone Man",
      "slug": "gone-man",
      "service": "igdb"
    }
  ],
  "aliases": [],
  "shaders": [],
  "discord_id": "",
  "change_for": null
}