{
  "id": 201886,
  "name": "The Book of Weapons",
  "slug": "the-book-of-weapons",
  "year": null,
  "banner_url": "",
  "icon_url": "",
  "coverart": null,
  "platforms": [],
  "provider_games": [
    {
      "name": "The Book of Weapons",
      "slug": "the-book-of-weapons",
      "service": "igdb"
    }
  ],
  "aliases": [],
  "shaders": [],
  "discord_id": "",
  "change_for": null
}