{
  "id": 57118,
  "name": "Being Faust: Enter Mephisto",
  "slug": "being-faust-enter-mephisto",
  "year": null,
  "banner_url": "",
  "icon_url": "",
  "coverart": "https://lutris.net/media/igdb/cover_big/is70s2jia8dleob1vinw.jpg",
  "platforms": [],
  "provider_games": [
    {
      "name": "Being Faust: Enter Mephisto",
      "slug": "being-faust-enter-mephisto",
      "service": "igdb"
    }
  ],
  "aliases": [],
  "shaders": [],
  "discord_id": "",
  "change_for": null
}