{
  "id": 203165,
  "name": "Reader Rabbit",
  "slug": "reader-rabbit--1",
  "year": 1984,
  "banner_url": "",
  "icon_url": "",
  "coverart": null,
  "platforms": [
    {
      "name": "Apple II"
    },
    {
      "name": "Apple IIGS"
    },
    {
      "name": "Atari 8-bit"
    },
    {
      "name": "Commodore C64/128"
    },
    {
      "name": "Mac"
    }
  ],
  "provider_games": [
    {
      "name": "Reader Rabbit",
      "slug": "reader-rabbit--1",
      "service": "igdb"
    }
  ],
  "aliases": [],
  "shaders": [],
  "discord_id": "",
  "change_for": null
}