{
  "id": 15678,
  "name": "My Magical Divorce Bureau!!",
  "slug": "my-magical-divorce-bureau",
  "year": 2017,
  "banner_url": "https://lutris.net/games/banner/my-magical-divorce-bureau.jpg",
  "icon_url": "https://lutris.net/games/icon/my-magical-divorce-bureau.png",
  "coverart": null,
  "platforms": [
    {
      "name": "Linux"
    }
  ],
  "provider_games": [],
  "aliases": [],
  "shaders": [],
  "discord_id": "",
  "change_for": null
}