{
  "id": 36650,
  "game_id": 181143,
  "game_slug": "rush-royale",
  "name": "Rush Royale",
  "year": 2020,
  "user": "kesor",
  "runner": "wine",
  "slug": "rush-royale-17050179",
  "version": "17.0.50179",
  "description": "my.games launcher",
  "notes": "",
  "credits": "",
  "created_at": "2022-12-21T20:29:16.759171Z",
  "updated_at": "2023-01-11T07:21:17.940203Z",
  "draft": false,
  "published": true,
  "published_by": 1,
  "rating": "",
  "is_playable": null,
  "steamid": null,
  "gogid": null,
  "gogslug": "",
  "humbleid": "",
  "humblestoreid": "",
  "humblestoreid_real": "",
  "script": {
    "files": [
      {
        "file_id": "https://static.gc.my.games/RushRoyaleLoader.exe"
      }
    ],
    "installer": [
      {
        "move": {
          "dst": "$GAMEDIR",
          "src": "file_id"
        }
      }
    ]
  },
  "content": "files:\n- file_id: https://static.gc.my.games/RushRoyaleLoader.exe\ninstaller:\n- move:\n    dst: $GAMEDIR\n    src: file_id",
  "discord_id": ""
}