{
  "id": 268443,
  "name": "The Fan Game: Back to the Future - Part III: Timeline of Monkey Island",
  "slug": "the-fan-game-back-to-the-future-part-iii-timeline-of-monkey-island",
  "year": 2020,
  "banner_url": "",
  "icon_url": "",
  "coverart": "https://lutris.net/media/igdb/cover_big/co7gcr.jpg",
  "platforms": [
    {
      "name": "Windows"
    }
  ],
  "provider_games": [
    {
      "name": "The Fan Game: Back to the Future - Part III: Timeline of Monkey Island",
      "slug": "the-fan-game-back-to-the-future-part-iii-timeline-of-monkey-island",
      "service": "igdb"
    }
  ],
  "aliases": [],
  "shaders": [],
  "discord_id": "",
  "change_for": null
}