{
  "id": 703,
  "name": "Lara Croft and the Guardian of Light",
  "slug": "lara-croft-and-the-guardian-of-light",
  "year": 2010,
  "banner_url": "https://lutris.net/games/banner/lara-croft-and-the-guardian-of-light.jpg",
  "icon_url": "https://lutris.net/games/icon/lara-croft-and-the-guardian-of-light.png",
  "coverart": "https://lutris.net/media/igdb/cover_big/co1vod.jpg",
  "platforms": [
    {
      "name": "Google Stadia"
    },
    {
      "name": "Sony Playstation 3"
    },
    {
      "name": "Windows"
    },
    {
      "name": "Xbox 360"
    }
  ],
  "provider_games": [
    {
      "name": "Lara Croft and the Guardian of Light",
      "slug": "35130",
      "service": "steam"
    },
    {
      "name": "Lara Croft and the Guardian of Light",
      "slug": "lara-croft-and-the-guardian-of-light",
      "service": "igdb"
    }
  ],
  "aliases": [],
  "shaders": [],
  "discord_id": "496846884787191834",
  "change_for": null
}