{
  "id": 64432,
  "name": "Oscar the Balloonist Dives into the Lake",
  "slug": "oscar-the-balloonist-dives-into-the-lake",
  "year": null,
  "banner_url": "",
  "icon_url": "",
  "coverart": "https://lutris.net/media/igdb/cover_big/akjcpdos6z6lcmfnluqb.jpg",
  "platforms": [],
  "provider_games": [
    {
      "name": "Oscar the Balloonist Dives into the Lake",
      "slug": "oscar-the-balloonist-dives-into-the-lake",
      "service": "igdb"
    }
  ],
  "aliases": [],
  "shaders": [],
  "discord_id": "",
  "change_for": null
}