{
  "id": 233464,
  "name": "Disney Princess: Cinderella's Magic Wishes",
  "slug": "disney-princess-cinderellas-magic-wishes",
  "year": 2005,
  "banner_url": "",
  "icon_url": "",
  "coverart": null,
  "platforms": [],
  "provider_games": [
    {
      "name": "Disney Princess: Cinderella's Magic Wishes",
      "slug": "disney-princess-cinderellas-magic-wishes",
      "service": "igdb"
    }
  ],
  "aliases": [],
  "shaders": [],
  "discord_id": "",
  "change_for": null
}