{
  "id": 23,
  "game_id": 36,
  "game_slug": "stealth-bastard-deluxe",
  "name": "Stealth Bastard Deluxe",
  "year": 2012,
  "user": "strider",
  "runner": "linux",
  "slug": "stealth-bastard-deluxe-humble-bundle",
  "version": "Humble Bundle",
  "description": null,
  "notes": "",
  "credits": "",
  "created_at": "2013-07-03T20:07:31Z",
  "updated_at": "2020-12-23T19:46:09.707237Z",
  "draft": false,
  "published": true,
  "published_by": 1,
  "rating": "",
  "is_playable": null,
  "steamid": 209190,
  "gogid": 1430239690,
  "gogslug": "stealth_inc_2_a_game_of_clones_deluxe",
  "humbleid": "stealthbastarddeluxe",
  "humblestoreid": "stealthbastarddeluxe",
  "humblestoreid_real": "stealth-bastard-deluxe",
  "script": {
    "files": [
      {
        "humblegame": "N/A:Select the game's archive downloaded from Humble Bundle"
      },
      {
        "libssl": "http://lutris.net/files/lib32/libssl.so.1.0.0.gz"
      },
      {
        "libcrypto": "http://lutris.net/files/lib32/libcrypto.so.1.0.0.gz"
      }
    ],
    "game": {
      "exe": "StealthBastardDeluxe",
      "ld_library_path": "$GAMEDIR/lib"
    },
    "installer": [
      {
        "extract": {
          "dst": "$GAMEDIR",
          "file": "humblegame"
        }
      },
      {
        "chmodx": "$GAMEDIR/StealthBastardDeluxe"
      },
      {
        "mkdir": "$GAMEDIR/lib"
      },
      {
        "extract": {
          "dst": "$GAMEDIR/lib",
          "file": "libssl"
        }
      },
      {
        "extract": {
          "dst": "$GAMEDIR/lib",
          "file": "libcrypto"
        }
      }
    ]
  },
  "content": "files:\n- humblegame: N/A:Select the game's archive downloaded from Humble Bundle\n- libssl: http://lutris.net/files/lib32/libssl.so.1.0.0.gz\n- libcrypto: http://lutris.net/files/lib32/libcrypto.so.1.0.0.gz\ngame:\n  exe: StealthBastardDeluxe\n  ld_library_path: $GAMEDIR/lib\ninstaller:\n- extract:\n    dst: $GAMEDIR\n    file: humblegame\n- chmodx: $GAMEDIR/StealthBastardDeluxe\n- mkdir: $GAMEDIR/lib\n- extract:\n    dst: $GAMEDIR/lib\n    file: libssl\n- extract:\n    dst: $GAMEDIR/lib\n    file: libcrypto\n",
  "discord_id": ""
}