{
  "id": 64615,
  "name": "Davy Jones is Back",
  "slug": "davy-jones-is-back",
  "year": null,
  "banner_url": "",
  "icon_url": "",
  "coverart": null,
  "platforms": [],
  "provider_games": [
    {
      "name": "Davy Jones is Back",
      "slug": "davy-jones-is-back",
      "service": "igdb"
    }
  ],
  "aliases": [],
  "shaders": [],
  "discord_id": "",
  "change_for": null
}