{
  "id": 23077,
  "name": "Colour Box",
  "slug": "colour-box",
  "year": null,
  "banner_url": "https://lutris.net/games/banner/colour-box.jpg",
  "icon_url": "https://lutris.net/games/icon/colour-box.png",
  "coverart": null,
  "platforms": [],
  "provider_games": [
    {
      "name": "Colour Box",
      "slug": "810690",
      "service": "steam"
    },
    {
      "name": "Colour Box",
      "slug": "colour-box",
      "service": "igdb"
    }
  ],
  "aliases": [],
  "shaders": [],
  "discord_id": "",
  "change_for": null
}