{
  "id": 51047,
  "name": "Pirates: The Legend of Black Kat",
  "slug": "pirates-the-legend-of-black-kat",
  "year": 2002,
  "banner_url": "",
  "icon_url": "",
  "coverart": "https://lutris.net/media/igdb/cover_big/co20if.jpg",
  "platforms": [
    {
      "name": "Sony PlayStation 2"
    }
  ],
  "provider_games": [
    {
      "name": "Pirates: The Legend of Black Kat",
      "slug": "pirates-the-legend-of-black-kat",
      "service": "igdb"
    }
  ],
  "aliases": [],
  "shaders": [],
  "discord_id": "",
  "change_for": null
}