{
  "id": 145322,
  "name": "Voyager",
  "slug": "voyager--2",
  "year": null,
  "banner_url": "",
  "icon_url": "",
  "coverart": "https://lutris.net/media/igdb/cover_big/co3vqb.jpg",
  "platforms": [],
  "provider_games": [
    {
      "name": "Voyager",
      "slug": "voyager--2",
      "service": "igdb"
    }
  ],
  "aliases": [],
  "shaders": [],
  "discord_id": "",
  "change_for": null
}