{
  "id": 296292,
  "name": "Lost in Hieroglyphs: A Hidden Objects Expedition",
  "slug": "lost-in-hieroglyphs-a-hidden-objects-expedition",
  "year": null,
  "banner_url": "",
  "icon_url": "",
  "coverart": "https://lutris.net/media/igdb/cover_big/co8tsx.jpg",
  "platforms": [
    {
      "name": "Windows"
    }
  ],
  "provider_games": [
    {
      "name": "Lost in Hieroglyphs: A Hidden Objects Expedition",
      "slug": "lost-in-hieroglyphs-a-hidden-objects-expedition",
      "service": "igdb"
    }
  ],
  "aliases": [],
  "shaders": [],
  "discord_id": "",
  "change_for": null
}