{
  "id": 213571,
  "name": "RPG Alphadia Neo",
  "slug": "rpg-alphadia-neo",
  "year": 2022,
  "banner_url": "",
  "icon_url": "",
  "coverart": "https://lutris.net/media/igdb/cover_big/co5wd9.jpg",
  "platforms": [
    {
      "name": "Xbox One"
    },
    {
      "name": "Xbox Series X|S"
    }
  ],
  "provider_games": [
    {
      "name": "RPG Alphadia Neo",
      "slug": "rpg-alphadia-neo",
      "service": "igdb"
    }
  ],
  "aliases": [],
  "shaders": [],
  "discord_id": "",
  "change_for": null
}