{
  "id": 256991,
  "name": "Dough: A Crime Strategy RPG",
  "slug": "dough-a-crime-strategy-rpg",
  "year": null,
  "banner_url": "",
  "icon_url": "",
  "coverart": "https://lutris.net/media/igdb/cover_big/co70y1.jpg",
  "platforms": [],
  "provider_games": [
    {
      "name": "Dough: A Crime Strategy RPG",
      "slug": "dough-a-crime-strategy-rpg",
      "service": "igdb"
    }
  ],
  "aliases": [],
  "shaders": [],
  "discord_id": "",
  "change_for": null
}