{
  "id": 172700,
  "name": "Dr. Mario BS Ban",
  "slug": "dr-mario-bs-ban",
  "year": 1997,
  "banner_url": "",
  "icon_url": "",
  "coverart": "https://lutris.net/media/igdb/cover_big/co47pn.jpg",
  "platforms": [
    {
      "name": "Satellaview"
    }
  ],
  "provider_games": [
    {
      "name": "Dr. Mario BS Ban",
      "slug": "dr-mario-bs-ban",
      "service": "igdb"
    }
  ],
  "aliases": [],
  "shaders": [],
  "discord_id": "",
  "change_for": null
}