{
  "id": 52935,
  "name": "Mega Force",
  "slug": "mega-force",
  "year": 1982,
  "banner_url": "",
  "icon_url": "",
  "coverart": "https://lutris.net/media/igdb/cover_big/wohegtlecoc9cdi8eo4w.jpg",
  "platforms": [],
  "provider_games": [
    {
      "name": "Mega Force",
      "slug": "mega-force",
      "service": "igdb"
    }
  ],
  "aliases": [],
  "shaders": [],
  "discord_id": "",
  "change_for": null
}