{
  "id": 290938,
  "name": "Five Nights at Freddy's",
  "slug": "five-nights-at-freddys--4",
  "year": 2014,
  "banner_url": "",
  "icon_url": "",
  "coverart": "https://lutris.net/media/igdb/cover_big/co8idd.jpg",
  "platforms": [
    {
      "name": "Sony PSP"
    }
  ],
  "provider_games": [
    {
      "name": "Five Nights at Freddy's",
      "slug": "five-nights-at-freddys--4",
      "service": "igdb"
    }
  ],
  "aliases": [],
  "shaders": [],
  "discord_id": "",
  "change_for": null
}