{
  "id": 38599,
  "name": "Mega Man Battle Network 5: Double Team DS",
  "slug": "mega-man-battle-network-5-double-team-ds",
  "year": 2005,
  "banner_url": "https://lutris.net/games/banner/mega-man-battle-network-5-double-team-ds.jpg",
  "icon_url": "",
  "coverart": "https://lutris.net/media/igdb/cover_big/co3z0c.jpg",
  "platforms": [
    {
      "name": "Nintendo DS"
    }
  ],
  "provider_games": [
    {
      "name": "Mega Man Battle Network 5: Double Team DS",
      "slug": "mega-man-battle-network-5-double-team-ds",
      "service": "igdb"
    }
  ],
  "aliases": [],
  "shaders": [],
  "discord_id": "",
  "change_for": null
}