{
  "id": 216431,
  "name": "Tower of Greed",
  "slug": "tower-of-greed",
  "year": 2009,
  "banner_url": "",
  "icon_url": "",
  "coverart": "https://lutris.net/media/igdb/cover_big/co57gz.jpg",
  "platforms": [
    {
      "name": "Browser"
    }
  ],
  "provider_games": [
    {
      "name": "Tower of Greed",
      "slug": "tower-of-greed",
      "service": "igdb"
    }
  ],
  "aliases": [],
  "shaders": [],
  "discord_id": "",
  "change_for": null
}