{
  "id": 69054,
  "name": "Paramedium: Girl in the Road",
  "slug": "paramedium-girl-in-the-road",
  "year": 2017,
  "banner_url": "",
  "icon_url": "",
  "coverart": "https://lutris.net/media/igdb/cover_big/co283j.jpg",
  "platforms": [
    {
      "name": "Mac"
    },
    {
      "name": "Windows"
    }
  ],
  "provider_games": [
    {
      "name": "Paramedium: Girl in the Road",
      "slug": "paramedium-girl-in-the-road",
      "service": "igdb"
    }
  ],
  "aliases": [],
  "shaders": [],
  "discord_id": "",
  "change_for": null
}