{
  "id": 301520,
  "name": "Super Mario: Shatters of A Soul",
  "slug": "super-mario-shatters-of-a-soul",
  "year": null,
  "banner_url": "",
  "icon_url": "",
  "coverart": null,
  "platforms": [
    {
      "name": "Windows"
    }
  ],
  "provider_games": [
    {
      "name": "Super Mario: Shatters of A Soul",
      "slug": "super-mario-shatters-of-a-soul",
      "service": "igdb"
    }
  ],
  "aliases": [],
  "shaders": [],
  "discord_id": "",
  "change_for": null
}