{
  "id": 233494,
  "name": "EscapeTrick: 35 Fateful Enigmas",
  "slug": "escapetrick-35-fateful-enigmas",
  "year": 2018,
  "banner_url": "",
  "icon_url": "",
  "coverart": null,
  "platforms": [
    {
      "name": "Nintendo Switch"
    }
  ],
  "provider_games": [
    {
      "name": "EscapeTrick: 35 Fateful Enigmas",
      "slug": "escapetrick-35-fateful-enigmas",
      "service": "igdb"
    }
  ],
  "aliases": [],
  "shaders": [],
  "discord_id": "",
  "change_for": null
}