{
  "id": 15025,
  "name": "Perceptions of the Dead",
  "slug": "perceptions-of-the-dead",
  "year": 2017,
  "banner_url": "https://lutris.net/games/banner/perceptions-of-the-dead.jpg",
  "icon_url": "https://lutris.net/games/icon/perceptions-of-the-dead.png",
  "coverart": "https://lutris.net/media/igdb/cover_big/co278p.jpg",
  "platforms": [
    {
      "name": "Linux"
    },
    {
      "name": "Mac"
    },
    {
      "name": "Windows"
    }
  ],
  "provider_games": [
    {
      "name": "Perceptions of the Dead",
      "slug": "745760",
      "service": "steam"
    },
    {
      "name": "Perceptions of the Dead",
      "slug": "perceptions-of-the-dead",
      "service": "igdb"
    }
  ],
  "aliases": [],
  "shaders": [],
  "discord_id": "",
  "change_for": null
}