{
  "id": 23992,
  "name": "Corsairs Gold",
  "slug": "corsairs-gold",
  "year": 1999,
  "banner_url": "https://lutris.net/games/banner/corsairs-gold.jpg",
  "icon_url": "",
  "coverart": "https://lutris.net/media/igdb/cover_big/co2hnt.jpg",
  "platforms": [
    {
      "name": "Windows"
    }
  ],
  "provider_games": [
    {
      "name": "Corsairs Gold",
      "slug": "1207659943",
      "service": "gog"
    },
    {
      "name": "Corsairs Gold",
      "slug": "corsairs-gold",
      "service": "igdb"
    }
  ],
  "aliases": [],
  "shaders": [],
  "discord_id": "",
  "change_for": null
}