{
  "id": 267816,
  "name": "Golden Rails: Harvest of Riddles",
  "slug": "golden-rails-harvest-of-riddles",
  "year": null,
  "banner_url": "",
  "icon_url": "",
  "coverart": "https://lutris.net/media/igdb/cover_big/co7fef.jpg",
  "platforms": [],
  "provider_games": [
    {
      "name": "Golden Rails: Harvest of Riddles",
      "slug": "golden-rails-harvest-of-riddles",
      "service": "igdb"
    }
  ],
  "aliases": [],
  "shaders": [],
  "discord_id": "",
  "change_for": null
}