{
  "id": 17921,
  "name": "Horizon Chase Turbo",
  "slug": "horizon-chase-turbo",
  "year": 2018,
  "banner_url": "https://lutris.net/games/banner/horizon-chase-turbo.jpg",
  "icon_url": "https://lutris.net/games/icon/horizon-chase-turbo.png",
  "coverart": "https://lutris.net/media/igdb/cover_big/co27ow.jpg",
  "platforms": [
    {
      "name": "Linux"
    },
    {
      "name": "Mac"
    },
    {
      "name": "Nintendo Switch"
    },
    {
      "name": "PlayStation Vita"
    },
    {
      "name": "Sony Playstation 4"
    },
    {
      "name": "Windows"
    },
    {
      "name": "Xbox One"
    }
  ],
  "provider_games": [
    {
      "name": "Horizon Chase Turbo",
      "slug": "389140",
      "service": "steam"
    },
    {
      "name": "Horizon Chase Turbo",
      "slug": "horizon-chase-turbo",
      "service": "igdb"
    }
  ],
  "aliases": [],
  "shaders": [],
  "discord_id": "",
  "change_for": null
}