{
  "id": 58842,
  "name": "Golfinity",
  "slug": "golfinity",
  "year": null,
  "banner_url": "",
  "icon_url": "",
  "coverart": "https://lutris.net/media/igdb/cover_big/odi2ziszblfowtgv2aos.jpg",
  "platforms": [],
  "provider_games": [
    {
      "name": "Golfinity",
      "slug": "golfinity",
      "service": "igdb"
    }
  ],
  "aliases": [],
  "shaders": [],
  "discord_id": "",
  "change_for": null
}