{
  "id": 220125,
  "name": "Doggo Estates",
  "slug": "doggo-estates",
  "year": null,
  "banner_url": "",
  "icon_url": "",
  "coverart": "https://lutris.net/media/igdb/cover_big/co5gya.jpg",
  "platforms": [],
  "provider_games": [
    {
      "name": "Doggo Estates",
      "slug": "doggo-estates",
      "service": "igdb"
    }
  ],
  "aliases": [],
  "shaders": [],
  "discord_id": "",
  "change_for": null
}