{
  "id": 57719,
  "name": "Awakening: The Sunhook Spire",
  "slug": "awakening-the-sunhook-spire",
  "year": null,
  "banner_url": "",
  "icon_url": "",
  "coverart": "https://lutris.net/media/igdb/cover_big/fiyhroinb3auh3ucreca.jpg",
  "platforms": [],
  "provider_games": [
    {
      "name": "Awakening: The Sunhook Spire",
      "slug": "awakening-the-sunhook-spire",
      "service": "igdb"
    }
  ],
  "aliases": [],
  "shaders": [],
  "discord_id": "",
  "change_for": null
}