{
  "id": 220191,
  "name": "Spectre Of Eternity",
  "slug": "spectre-of-eternity",
  "year": null,
  "banner_url": "",
  "icon_url": "",
  "coverart": "https://lutris.net/media/igdb/cover_big/co5mb8.jpg",
  "platforms": [],
  "provider_games": [
    {
      "name": "Spectre of Eternity",
      "slug": "spectre-of-eternity",
      "service": "igdb"
    }
  ],
  "aliases": [],
  "shaders": [],
  "discord_id": "",
  "change_for": null
}