{
  "id": 120735,
  "name": "YUME",
  "slug": "yume",
  "year": 2021,
  "banner_url": "https://lutris.net/games/banner/yume.jpg",
  "icon_url": "",
  "coverart": "https://lutris.net/media/igdb/cover_big/co2nvh.jpg",
  "platforms": [
    {
      "name": "Windows"
    }
  ],
  "provider_games": [
    {
      "name": "Yume",
      "slug": "yume",
      "service": "igdb"
    },
    {
      "name": "YUME",
      "slug": "1471200",
      "service": "steam"
    }
  ],
  "aliases": [],
  "shaders": [],
  "discord_id": "",
  "change_for": null
}