{
  "id": 78634,
  "name": "America's Army: Operations",
  "slug": "americas-army-operations",
  "year": null,
  "banner_url": "",
  "icon_url": "",
  "coverart": null,
  "platforms": [],
  "provider_games": [
    {
      "name": "America's Army: Operations",
      "slug": "americas-army-operations",
      "service": "igdb"
    }
  ],
  "aliases": [],
  "shaders": [],
  "discord_id": "",
  "change_for": null
}