{
  "id": 51868,
  "name": "Werewolves of London",
  "slug": "werewolves-of-london",
  "year": 1987,
  "banner_url": "",
  "icon_url": "",
  "coverart": "https://lutris.net/media/igdb/cover_big/hxtdnqkznj0b7cxg7vun.jpg",
  "platforms": [
    {
      "name": "Amstrad CPC"
    },
    {
      "name": "Commodore C64/128"
    },
    {
      "name": "ZX Spectrum"
    }
  ],
  "provider_games": [
    {
      "name": "Werewolves of London",
      "slug": "werewolves-of-london",
      "service": "igdb"
    }
  ],
  "aliases": [],
  "shaders": [],
  "discord_id": "",
  "change_for": null
}