{
  "id": 37221,
  "name": "SIGame",
  "slug": "sigame",
  "year": null,
  "banner_url": "https://lutris.net/games/banner/sigame.jpg",
  "icon_url": "",
  "coverart": null,
  "platforms": [
    {
      "name": "Windows"
    }
  ],
  "provider_games": [],
  "aliases": [],
  "shaders": [],
  "discord_id": "",
  "change_for": null
}