{
  "id": 280705,
  "name": "Horror Hospital 2: Survival",
  "slug": "horror-hospital-2-survival",
  "year": 2016,
  "banner_url": "",
  "icon_url": "",
  "coverart": null,
  "platforms": [
    {
      "name": "Android"
    }
  ],
  "provider_games": [
    {
      "name": "Horror Hospital 2: Survival",
      "slug": "horror-hospital-2-survival",
      "service": "igdb"
    }
  ],
  "aliases": [],
  "shaders": [],
  "discord_id": "",
  "change_for": null
}