{
  "id": 277611,
  "name": "Blood Crossroad",
  "slug": "blood-crossroad",
  "year": null,
  "banner_url": "",
  "icon_url": "",
  "coverart": "https://lutris.net/media/igdb/cover_big/co7w1w.jpg",
  "platforms": [],
  "provider_games": [
    {
      "name": "Blood Crossroad",
      "slug": "blood-crossroad",
      "service": "igdb"
    }
  ],
  "aliases": [],
  "shaders": [],
  "discord_id": "",
  "change_for": null
}