{
  "id": 75539,
  "name": "Ken Uston BlackJack/Poker",
  "slug": "ken-uston-blackjack-slash-poker",
  "year": null,
  "banner_url": "",
  "icon_url": "",
  "coverart": "https://lutris.net/media/igdb/cover_big/co7l81.jpg",
  "platforms": [],
  "provider_games": [
    {
      "name": "Ken Uston BlackJack/Poker",
      "slug": "ken-uston-blackjack-slash-poker",
      "service": "igdb"
    }
  ],
  "aliases": [],
  "shaders": [],
  "discord_id": "",
  "change_for": null
}