{
  "id": 10843,
  "name": "Zero-G VR",
  "slug": "zero-g-vr",
  "year": 2016,
  "banner_url": "https://lutris.net/games/banner/zero-g-vr.jpg",
  "icon_url": "https://lutris.net/games/icon/zero-g-vr.png",
  "coverart": null,
  "platforms": [
    {
      "name": "Windows"
    }
  ],
  "provider_games": [
    {
      "name": "Zero-G VR",
      "slug": "491520",
      "service": "steam"
    },
    {
      "name": "Zero-G VR",
      "slug": "zero-g-vr",
      "service": "igdb"
    }
  ],
  "aliases": [],
  "shaders": [],
  "discord_id": "",
  "change_for": null
}