{
  "id": 28355,
  "name": "Swords and Sandals Medieval",
  "slug": "swords-and-sandals-medieval",
  "year": 2017,
  "banner_url": "https://lutris.net/games/banner/swords-and-sandals-medieval.jpg",
  "icon_url": "https://lutris.net/games/icon/swords-and-sandals-medieval.png",
  "coverart": "https://lutris.net/media/igdb/cover_big/co27eu.jpg",
  "platforms": [
    {
      "name": "Mac"
    },
    {
      "name": "Windows"
    }
  ],
  "provider_games": [
    {
      "name": "Swords and Sandals Medieval",
      "slug": "672970",
      "service": "steam"
    },
    {
      "name": "Swords and Sandals Medieval",
      "slug": "swords-and-sandals-medieval",
      "service": "igdb"
    }
  ],
  "aliases": [],
  "shaders": [],
  "discord_id": "",
  "change_for": null
}