{
  "id": 95354,
  "name": "Magic Piano Tiles 2018",
  "slug": "magic-piano-tiles-2018",
  "year": null,
  "banner_url": "",
  "icon_url": "",
  "coverart": null,
  "platforms": [],
  "provider_games": [
    {
      "name": "Magic Piano Tiles 2018",
      "slug": "magic-piano-tiles-2018",
      "service": "igdb"
    }
  ],
  "aliases": [],
  "shaders": [],
  "discord_id": "",
  "change_for": null
}