{
  "id": 68458,
  "name": "Santa Simon",
  "slug": "santa-simon",
  "year": null,
  "banner_url": "",
  "icon_url": "",
  "coverart": null,
  "platforms": [],
  "provider_games": [
    {
      "name": "Santa Simon",
      "slug": "santa-simon",
      "service": "igdb"
    }
  ],
  "aliases": [],
  "shaders": [],
  "discord_id": "",
  "change_for": null
}