{
  "id": 236924,
  "name": "Cartoon Rage",
  "slug": "cartoon-rage",
  "year": null,
  "banner_url": "",
  "icon_url": "",
  "coverart": "https://lutris.net/media/igdb/cover_big/co66s5.jpg",
  "platforms": [],
  "provider_games": [
    {
      "name": "Cartoon Rage",
      "slug": "cartoon-rage",
      "service": "igdb"
    }
  ],
  "aliases": [],
  "shaders": [],
  "discord_id": "",
  "change_for": null
}