{
  "id": 65665,
  "name": "Laser Hawk",
  "slug": "laser-hawk",
  "year": null,
  "banner_url": "",
  "icon_url": "",
  "coverart": "https://lutris.net/media/igdb/cover_big/zlppkqzlxd3z4blwgovl.jpg",
  "platforms": [],
  "provider_games": [
    {
      "name": "Laser Hawk",
      "slug": "laser-hawk",
      "service": "igdb"
    }
  ],
  "aliases": [],
  "shaders": [],
  "discord_id": "",
  "change_for": null
}