{
  "id": 209206,
  "name": "The Merchant's Guide to the Kingdom",
  "slug": "the-merchants-guide-to-the-kingdom",
  "year": null,
  "banner_url": "",
  "icon_url": "",
  "coverart": "https://lutris.net/media/igdb/cover_big/co502p.jpg",
  "platforms": [
    {
      "name": "Windows"
    }
  ],
  "provider_games": [
    {
      "name": "The Merchant's Guide to the Kingdom",
      "slug": "the-merchants-guide-to-the-kingdom",
      "service": "igdb"
    }
  ],
  "aliases": [],
  "shaders": [],
  "discord_id": "",
  "change_for": null
}