{
  "id": 4814,
  "game_id": 3745,
  "game_slug": "rob-blanc-ii-planet-of-the-pasteurised-pestilence",
  "name": "Rob Blanc II: Planet of the Pasteurised Pestilence",
  "year": 2000,
  "user": "FakeShemp",
  "runner": "wine",
  "slug": "rob-blanc-ii-planet-of-the-pa-12",
  "version": "1.2",
  "description": "",
  "notes": "",
  "credits": "",
  "created_at": "2017-07-04T20:52:06.382571Z",
  "updated_at": "2018-05-19T03:41:55.326775Z",
  "draft": false,
  "published": true,
  "published_by": null,
  "rating": "",
  "is_playable": null,
  "steamid": null,
  "gogid": null,
  "gogslug": "",
  "humbleid": "",
  "humblestoreid": "",
  "humblestoreid_real": "",
  "script": {
    "files": [
      {
        "file1": "http://www.agagames.com/netmonkey/rb2.zip"
      }
    ],
    "game": {
      "arch": "win32",
      "exe": "drive_c/Program Files/Rob Blanc II/rb2.exe",
      "prefix": "$GAMEDIR"
    },
    "installer": [
      {
        "extract": {
          "dst": "$GAMEDIR/drive_c/Program Files/Rob Blanc II",
          "file": "$file1"
        }
      }
    ],
    "wine": {
      "Desktop": true
    }
  },
  "content": "files:\n- file1: http://www.agagames.com/netmonkey/rb2.zip\ngame:\n  arch: win32\n  exe: drive_c/Program Files/Rob Blanc II/rb2.exe\n  prefix: $GAMEDIR\ninstaller:\n- extract:\n    dst: $GAMEDIR/drive_c/Program Files/Rob Blanc II\n    file: $file1\nwine:\n  Desktop: true\n",
  "discord_id": ""
}