{
  "id": 25852,
  "name": "Mortal Squad: Portal to Hell",
  "slug": "mortal-squad-portal-to-hell",
  "year": null,
  "banner_url": "https://lutris.net/games/banner/mortal-squad-portal-to-hell.jpg",
  "icon_url": "https://lutris.net/games/icon/mortal-squad-portal-to-hell.png",
  "coverart": null,
  "platforms": [],
  "provider_games": [
    {
      "name": "Mortal Squad: Portal to Hell",
      "slug": "822910",
      "service": "steam"
    },
    {
      "name": "Mortal Squad: Portal to Hell",
      "slug": "mortal-squad-portal-to-hell",
      "service": "igdb"
    }
  ],
  "aliases": [],
  "shaders": [],
  "discord_id": "",
  "change_for": null
}