{
  "id": 256929,
  "name": "Untamed Tactics: Humblewood Edition",
  "slug": "untamed-tactics-humblewood-edition",
  "year": null,
  "banner_url": "",
  "icon_url": "",
  "coverart": "https://lutris.net/media/igdb/cover_big/co713v.jpg",
  "platforms": [],
  "provider_games": [
    {
      "name": "Untamed Tactics: Humblewood Edition",
      "slug": "untamed-tactics-humblewood-edition",
      "service": "igdb"
    }
  ],
  "aliases": [],
  "shaders": [],
  "discord_id": "",
  "change_for": null
}