{
  "id": 61938,
  "name": "F1 Tornado",
  "slug": "f1-tornado",
  "year": null,
  "banner_url": "",
  "icon_url": "",
  "coverart": "https://lutris.net/media/igdb/cover_big/s44ecjddjc8n9ay37tcl.jpg",
  "platforms": [],
  "provider_games": [
    {
      "name": "F1 Tornado",
      "slug": "f1-tornado",
      "service": "igdb"
    }
  ],
  "aliases": [],
  "shaders": [],
  "discord_id": "",
  "change_for": null
}