{
  "id": 39004,
  "game_id": 296271,
  "game_slug": "theres-no-santa",
  "name": "There's No Santa",
  "year": 2024,
  "user": "vanstaveren",
  "runner": "steam",
  "slug": "theres-no-santa-steam",
  "version": "steam",
  "description": "",
  "notes": "",
  "credits": "",
  "created_at": "2024-12-01T07:12:00.157388Z",
  "updated_at": "2024-12-01T07:12:00.157417Z",
  "draft": false,
  "published": true,
  "published_by": null,
  "rating": "",
  "is_playable": null,
  "steamid": null,
  "gogid": null,
  "gogslug": "",
  "humbleid": "",
  "humblestoreid": "",
  "humblestoreid_real": "",
  "script": {
    "game": {
      "appid": 3192350
    }
  },
  "content": "game:\n  appid: 3192350\n",
  "discord_id": ""
}