{
  "id": 18809,
  "name": "Fruit Sudoku🍉 2",
  "slug": "fruit-sudoku-2",
  "year": null,
  "banner_url": "https://lutris.net/games/banner/fruit-sudoku-2.jpg",
  "icon_url": "https://lutris.net/games/icon/fruit-sudoku-2.png",
  "coverart": null,
  "platforms": [],
  "provider_games": [],
  "aliases": [],
  "shaders": [],
  "discord_id": "",
  "change_for": null
}