{
  "id": 237827,
  "name": "Pit Stop Challenge",
  "slug": "pit-stop-challenge",
  "year": null,
  "banner_url": "",
  "icon_url": "",
  "coverart": null,
  "platforms": [],
  "provider_games": [
    {
      "name": "Pit Stop Challenge",
      "slug": "pit-stop-challenge",
      "service": "igdb"
    }
  ],
  "aliases": [],
  "shaders": [],
  "discord_id": "",
  "change_for": null
}