{
  "id": 269241,
  "name": "HackeRPG",
  "slug": "hackerpg",
  "year": null,
  "banner_url": "",
  "icon_url": "",
  "coverart": "https://lutris.net/media/igdb/cover_big/co7ii0.jpg",
  "platforms": [],
  "provider_games": [
    {
      "name": "HackeRPG",
      "slug": "hackerpg",
      "service": "igdb"
    }
  ],
  "aliases": [],
  "shaders": [],
  "discord_id": "",
  "change_for": null
}