{
  "id": 220700,
  "name": "Phoenix Assault",
  "slug": "phoenix-assault",
  "year": null,
  "banner_url": "",
  "icon_url": "",
  "coverart": null,
  "platforms": [
    {
      "name": "Windows"
    }
  ],
  "provider_games": [
    {
      "name": "Phoenix Assault",
      "slug": "phoenix-assault",
      "service": "igdb"
    }
  ],
  "aliases": [],
  "shaders": [],
  "discord_id": "",
  "change_for": null
}