{
  "id": 37220,
  "game_id": 25264,
  "game_slug": "cncnet",
  "name": "CnCNet",
  "year": 2009,
  "user": "yorick1989",
  "runner": "wine",
  "slug": "cncnet-standard",
  "version": "Standard",
  "description": "Required: EA (Desktop) App with Red Alert 2: Yuri's Revenge installed.",
  "notes": "- The client can hang after updating during the first launch. Enforce a restart of the client to get the client to work.\r\n- If you'd experience glitches in game, you can try to change the Renderer to 'TS-DDraw (GDI)' (hover the top bar of the client > Options > Display) within the client itself.",
  "credits": "- Yorick Gruijthuijzen (yorick1989) - creator of this script\r\n- CnCNet / https://cncnet.org/ - developer of the client software itself\r\n- https://redalert2.com/ - best community that wants to see RA2 getting bigger with Tournaments that are free to attend.",
  "created_at": "2023-03-14T21:46:35.363618Z",
  "updated_at": "2023-03-14T21:46:35.363645Z",
  "draft": false,
  "published": true,
  "published_by": null,
  "rating": "",
  "is_playable": null,
  "steamid": null,
  "gogid": null,
  "gogslug": "",
  "humbleid": "",
  "humblestoreid": "",
  "humblestoreid_real": "",
  "script": {
    "files": [
      {
        "xnafx40": "https://download.microsoft.com/download/A/C/2/AC2C903B-E6E8-42C2-9FD7-BEBAC362A930/xnafx40_redist.msi"
      },
      {
        "cncnet-yuris-revenge": "https://downloads.cncnet.org/CnCNet5_YR_Installer.exe"
      }
    ],
    "game": {
      "exe": "$GAMEDIR/drive_c/Program Files/EA Games/Command and Conquer Red Alert II/Resources/clientxna.exe",
      "working_dir": "$GAMEDIR"
    },
    "installer": [
      {
        "task": {
          "app": "dotnet48",
          "name": "winetricks",
          "prefix": "$GAMEDIR"
        }
      },
      {
        "task": {
          "description": "Installing Microsoft .NET Framework 4 Client Profile (requirement)...",
          "executable": "xnafx40",
          "name": "wineexec",
          "prefix": "$GAMEDIR"
        }
      },
      {
        "task": {
          "description": "Installing CnCNet Yuri's Revenge client...",
          "exclude_processes": "CnCNetYRLauncher.exe clientxna.exe",
          "executable": "cncnet-yuris-revenge",
          "name": "wineexec",
          "prefix": "$GAMEDIR"
        }
      }
    ],
    "requires": "ea-app-standard"
  },
  "content": "files:\n- xnafx40: https://download.microsoft.com/download/A/C/2/AC2C903B-E6E8-42C2-9FD7-BEBAC362A930/xnafx40_redist.msi\n- cncnet-yuris-revenge: https://downloads.cncnet.org/CnCNet5_YR_Installer.exe\ngame:\n  exe: $GAMEDIR/drive_c/Program Files/EA Games/Command and Conquer Red Alert II/Resources/clientxna.exe\n  working_dir: $GAMEDIR\ninstaller:\n- task:\n    app: dotnet48\n    name: winetricks\n    prefix: $GAMEDIR\n- task:\n    description: Installing Microsoft .NET Framework 4 Client Profile (requirement)...\n    executable: xnafx40\n    name: wineexec\n    prefix: $GAMEDIR\n- task:\n    description: Installing CnCNet Yuri's Revenge client...\n    exclude_processes: CnCNetYRLauncher.exe clientxna.exe\n    executable: cncnet-yuris-revenge\n    name: wineexec\n    prefix: $GAMEDIR\nrequires: ea-app-standard\n",
  "discord_id": ""
}