{
  "id": 134087,
  "name": "Before Dark",
  "slug": "before-dark",
  "year": null,
  "banner_url": "",
  "icon_url": "",
  "coverart": "https://lutris.net/media/igdb/cover_big/co3m2x.jpg",
  "platforms": [],
  "provider_games": [
    {
      "name": "Before Dark",
      "slug": "before-dark",
      "service": "igdb"
    }
  ],
  "aliases": [],
  "shaders": [],
  "discord_id": "",
  "change_for": null
}