{
  "id": 77899,
  "name": "KAIO - King of Pirates",
  "slug": "kaio-king-of-pirates",
  "year": null,
  "banner_url": "",
  "icon_url": "",
  "coverart": "https://lutris.net/media/igdb/cover_big/udpekbhqhhcajm6dcfss.jpg",
  "platforms": [],
  "provider_games": [
    {
      "name": "Kaio: King of Pirates",
      "slug": "kaio-king-of-pirates",
      "service": "igdb"
    }
  ],
  "aliases": [],
  "shaders": [],
  "discord_id": "",
  "change_for": null
}