{
  "id": 15802,
  "name": "Conquests of the Longbow: The Legend of Robin Hood",
  "slug": "conquests-of-the-longbow-the-legend-of-robin-hood",
  "year": 1990,
  "banner_url": "https://lutris.net/games/banner/conquests-of-the-longbow-the-legend-of-robin-hood.jpg",
  "icon_url": "",
  "coverart": "https://lutris.net/media/igdb/cover_big/bhyim08umqe4gu9rrvue.jpg",
  "platforms": [
    {
      "name": "Amiga"
    },
    {
      "name": "MS-DOS"
    },
    {
      "name": "Windows"
    }
  ],
  "provider_games": [
    {
      "name": "Conquests of the Longbow: The Legend of Robin Hood",
      "slug": "1344050778",
      "service": "gog"
    },
    {
      "name": "Conquests of the Longbow: The Legend of Robin Hood",
      "slug": "conquests-of-the-longbow-the-legend-of-robin-hood",
      "service": "igdb"
    }
  ],
  "aliases": [],
  "shaders": [],
  "discord_id": "",
  "change_for": null
}