{
  "id": 112327,
  "name": "The Idolmaster: Mobile i",
  "slug": "the-idolmaster-mobile-i",
  "year": 2012,
  "banner_url": "",
  "icon_url": "",
  "coverart": "https://lutris.net/media/igdb/cover_big/co2rm2.jpg",
  "platforms": [],
  "provider_games": [
    {
      "name": "The Idolmaster: Mobile i",
      "slug": "the-idolmaster-mobile-i",
      "service": "igdb"
    }
  ],
  "aliases": [],
  "shaders": [],
  "discord_id": "",
  "change_for": null
}