{
  "id": 111517,
  "name": "Sengoku Bishoujo Emaki: Cut Sky ~Chapter Summer Wind~",
  "slug": "sengoku-bishoujo-emaki-cut-sky-chapter-summer-wind",
  "year": null,
  "banner_url": "",
  "icon_url": "",
  "coverart": "https://lutris.net/media/igdb/cover_big/co30gl.jpg",
  "platforms": [],
  "provider_games": [
    {
      "name": "Sengoku Bishoujo Emaki: Cut Sky ~Chapter Summer Wind~",
      "slug": "sengoku-bishoujo-emaki-cut-sky-chapter-summer-wind",
      "service": "igdb"
    }
  ],
  "aliases": [],
  "shaders": [],
  "discord_id": "",
  "change_for": null
}