{
  "id": 268229,
  "name": "Baba Yaga learns to read",
  "slug": "baba-yaga-learns-to-read--1",
  "year": null,
  "banner_url": "",
  "icon_url": "",
  "coverart": "https://lutris.net/media/igdb/cover_big/co7ho2.jpg",
  "platforms": [],
  "provider_games": [
    {
      "name": "Baba Yaga learns to read",
      "slug": "baba-yaga-learns-to-read--1",
      "service": "igdb"
    }
  ],
  "aliases": [],
  "shaders": [],
  "discord_id": "",
  "change_for": null
}