{
  "id": 8311,
  "name": "Dear RED - Extended",
  "slug": "dear-red-extended",
  "year": 2016,
  "banner_url": "https://lutris.net/games/banner/dear-red-extended.jpg",
  "icon_url": "https://lutris.net/games/icon/dear-red-extended.png",
  "coverart": "https://lutris.net/media/igdb/cover_big/co2vp9.jpg",
  "platforms": [
    {
      "name": "Windows"
    }
  ],
  "provider_games": [
    {
      "name": "Dear RED - Extended",
      "slug": "453850",
      "service": "steam"
    },
    {
      "name": "Dear Red: Extended",
      "slug": "dear-red-extended",
      "service": "igdb"
    }
  ],
  "aliases": [],
  "shaders": [],
  "discord_id": "",
  "change_for": null
}