{
  "id": 72739,
  "name": "Bakusuro Bank",
  "slug": "bakusuro-bank",
  "year": null,
  "banner_url": "",
  "icon_url": "",
  "coverart": null,
  "platforms": [],
  "provider_games": [
    {
      "name": "Bakusuro Bank",
      "slug": "bakusuro-bank",
      "service": "igdb"
    }
  ],
  "aliases": [],
  "shaders": [],
  "discord_id": "",
  "change_for": null
}