{
  "id": 214381,
  "name": "Harvest Moon: The Winds of Anthos",
  "slug": "harvest-moon-the-winds-of-anthos",
  "year": null,
  "banner_url": "https://lutris.net/games/banner/harvest-moon-the-winds-of-anthos.jpg",
  "icon_url": "",
  "coverart": "https://lutris.net/media/igdb/cover_big/co5w5b.jpg",
  "platforms": [],
  "provider_games": [
    {
      "name": "Harvest Moon: The Winds of Anthos",
      "slug": "harvest-moon-the-winds-of-anthos",
      "service": "igdb"
    },
    {
      "name": "Harvest Moon: The Winds of Anthos",
      "slug": "2140650",
      "service": "steam"
    }
  ],
  "aliases": [],
  "shaders": [],
  "discord_id": "",
  "change_for": null
}