{
  "id": 62418,
  "name": "Green Day Revenge",
  "slug": "green-day-revenge",
  "year": null,
  "banner_url": "",
  "icon_url": "",
  "coverart": "https://lutris.net/media/igdb/cover_big/yih9tvo4hyqwowuxeukh.jpg",
  "platforms": [],
  "provider_games": [
    {
      "name": "Green Day Revenge",
      "slug": "green-day-revenge",
      "service": "igdb"
    }
  ],
  "aliases": [],
  "shaders": [],
  "discord_id": "",
  "change_for": null
}