{
  "id": 43959,
  "name": "Iron Conflict",
  "slug": "iron-conflict",
  "year": 2021,
  "banner_url": "https://lutris.net/games/banner/iron-conflict.jpg",
  "icon_url": "https://lutris.net/games/icon/iron-conflict.png",
  "coverart": "https://lutris.net/media/igdb/cover_big/co2k19.jpg",
  "platforms": [
    {
      "name": "Windows"
    }
  ],
  "provider_games": [
    {
      "name": "Iron Conflict",
      "slug": "1371480",
      "service": "steam"
    },
    {
      "name": "Iron Conflict",
      "slug": "iron-conflict",
      "service": "igdb"
    }
  ],
  "aliases": [],
  "shaders": [],
  "discord_id": "",
  "change_for": null
}