{
  "id": 77306,
  "name": "Dasshutsu Youki no Jukai: Nehan no Mori",
  "slug": "dasshutsu-youki-no-jukai-nehan-no-mori",
  "year": null,
  "banner_url": "",
  "icon_url": "",
  "coverart": null,
  "platforms": [],
  "provider_games": [
    {
      "name": "Dasshutsu Youki no Jukai: Nehan no Mori",
      "slug": "dasshutsu-youki-no-jukai-nehan-no-mori",
      "service": "igdb"
    }
  ],
  "aliases": [],
  "shaders": [],
  "discord_id": "",
  "change_for": null
}