{
  "id": 229193,
  "name": "Memory Puzzle - Futanari Threesome",
  "slug": "memory-puzzle-futanari-threesome",
  "year": null,
  "banner_url": "https://lutris.net/games/banner/memory-puzzle-futanari-threesome.jpg",
  "icon_url": "https://lutris.net/games/icon/memory-puzzle-futanari-threesome.png",
  "coverart": "https://lutris.net/media/igdb/cover_big/co7r2n.jpg",
  "platforms": [],
  "provider_games": [
    {
      "name": "Memory Puzzle - Futanari Threesome",
      "slug": "1976030",
      "service": "steam"
    },
    {
      "name": "Memory Puzzle: Futanari Threesome",
      "slug": "memory-puzzle-futanari-threesome",
      "service": "igdb"
    }
  ],
  "aliases": [],
  "shaders": [],
  "discord_id": "",
  "change_for": null
}