{
  "id": 96193,
  "name": "Chicken Invaders 5 Xmas",
  "slug": "chicken-invaders-5-xmas",
  "year": null,
  "banner_url": "",
  "icon_url": "",
  "coverart": null,
  "platforms": [],
  "provider_games": [
    {
      "name": "Chicken Invaders 5 Xmas",
      "slug": "chicken-invaders-5-xmas",
      "service": "igdb"
    }
  ],
  "aliases": [],
  "shaders": [],
  "discord_id": "",
  "change_for": null
}