{
  "id": 26315,
  "game_id": 15880,
  "game_slug": "banyu-lintar-angin-little-storm-",
  "name": "Banyu Lintar Angin - Little Storm -",
  "year": 2017,
  "user": "vanstaveren",
  "runner": "steam",
  "slug": "banyu-lintar-angin-little-sto-proton",
  "version": "proton",
  "description": null,
  "notes": "",
  "credits": "",
  "created_at": "2021-02-08T15:14:27.752838Z",
  "updated_at": "2021-12-13T19:14:45.904648Z",
  "draft": false,
  "published": true,
  "published_by": null,
  "rating": "",
  "is_playable": null,
  "steamid": 744800,
  "gogid": null,
  "gogslug": "",
  "humbleid": "",
  "humblestoreid": "",
  "humblestoreid_real": "",
  "script": {
    "game": {
      "appid": 744800
    }
  },
  "content": "game:\n  appid: 744800\n",
  "discord_id": ""
}