{
  "id": 36939,
  "name": "Forgotten Realms - Unlimited Adventures",
  "slug": "forgotten-realms-unlimited-adventures",
  "year": 1993,
  "banner_url": "https://lutris.net/games/banner/forgotten-realms-unlimited-adventures.jpg",
  "icon_url": "",
  "coverart": "https://lutris.net/media/igdb/cover_big/jkqkl2gygwq1bptu6uhg.jpg",
  "platforms": [
    {
      "name": "Linux"
    },
    {
      "name": "MS-DOS"
    },
    {
      "name": "Windows"
    }
  ],
  "provider_games": [
    {
      "name": "Forgotten Realms - Unlimited Adventures",
      "slug": "1432650732",
      "service": "gog"
    },
    {
      "name": "Forgotten Realms: Unlimited Adventures",
      "slug": "forgotten-realms-unlimited-adventures",
      "service": "igdb"
    }
  ],
  "aliases": [],
  "shaders": [],
  "discord_id": "",
  "change_for": null
}