{
  "id": 255484,
  "name": "My Nonogram Waifu: Forbidden Love",
  "slug": "my-nonogram-waifu-forbidden-love",
  "year": null,
  "banner_url": "",
  "icon_url": "",
  "coverart": "https://lutris.net/media/igdb/cover_big/co7ybb.jpg",
  "platforms": [],
  "provider_games": [
    {
      "name": "My Nonogram Waifu: Forbidden Love",
      "slug": "my-nonogram-waifu-forbidden-love",
      "service": "igdb"
    }
  ],
  "aliases": [],
  "shaders": [],
  "discord_id": "",
  "change_for": null
}