{
  "id": 86062,
  "name": "Riding Rhodri",
  "slug": "riding-rhodri",
  "year": 2013,
  "banner_url": "",
  "icon_url": "",
  "coverart": null,
  "platforms": [
    {
      "name": "Ouya"
    }
  ],
  "provider_games": [
    {
      "name": "Riding Rhodri",
      "slug": "riding-rhodri",
      "service": "igdb"
    }
  ],
  "aliases": [],
  "shaders": [],
  "discord_id": "",
  "change_for": null
}