{
  "id": 182241,
  "name": "Broken Arrow",
  "slug": "broken-arrow",
  "year": null,
  "banner_url": "",
  "icon_url": "",
  "coverart": "https://lutris.net/media/igdb/cover_big/co3002.jpg",
  "platforms": [
    {
      "name": "Windows"
    }
  ],
  "provider_games": [
    {
      "name": "Broken Arrow",
      "slug": "1963042399",
      "service": "gog"
    },
    {
      "name": "Broken Arrow",
      "slug": "broken-arrow",
      "service": "igdb"
    }
  ],
  "aliases": [],
  "shaders": [],
  "discord_id": "",
  "change_for": null
}