{
  "id": 30947,
  "name": "Inventioneers",
  "slug": "inventioneers",
  "year": 2015,
  "banner_url": "https://lutris.net/games/banner/inventioneers.jpg",
  "icon_url": "https://lutris.net/games/icon/inventioneers.png",
  "coverart": "https://lutris.net/media/igdb/cover_big/co4jba.jpg",
  "platforms": [
    {
      "name": "Linux"
    },
    {
      "name": "Mac"
    },
    {
      "name": "Windows"
    }
  ],
  "provider_games": [
    {
      "name": "Inventioneers",
      "slug": "395580",
      "service": "steam"
    },
    {
      "name": "Inventioneers",
      "slug": "inventioneers",
      "service": "igdb"
    }
  ],
  "aliases": [],
  "shaders": [],
  "discord_id": "",
  "change_for": null
}