{
  "id": 195789,
  "name": "Witch's Weapon",
  "slug": "witchs-weapon",
  "year": null,
  "banner_url": "",
  "icon_url": "",
  "coverart": null,
  "platforms": [],
  "provider_games": [
    {
      "name": "Witch's Weapon",
      "slug": "witchs-weapon",
      "service": "igdb"
    }
  ],
  "aliases": [],
  "shaders": [],
  "discord_id": "",
  "change_for": null
}