{
  "id": 64708,
  "name": "Infinitroid",
  "slug": "infinitroid",
  "year": null,
  "banner_url": "",
  "icon_url": "",
  "coverart": "https://lutris.net/media/igdb/cover_big/kuqvftbrpc2qajjn2lyb.jpg",
  "platforms": [],
  "provider_games": [
    {
      "name": "Infinitroid",
      "slug": "infinitroid",
      "service": "igdb"
    }
  ],
  "aliases": [],
  "shaders": [],
  "discord_id": "",
  "change_for": null
}