{
  "id": 166533,
  "name": "Famicom Mini: Makaimura",
  "slug": "famicom-mini-makaimura",
  "year": 2004,
  "banner_url": "",
  "icon_url": "",
  "coverart": "https://lutris.net/media/igdb/cover_big/co438q.jpg",
  "platforms": [
    {
      "name": "Nintendo Game Boy Advance"
    }
  ],
  "provider_games": [
    {
      "name": "Famicom Mini: Makaimura",
      "slug": "famicom-mini-makaimura",
      "service": "igdb"
    }
  ],
  "aliases": [],
  "shaders": [],
  "discord_id": "",
  "change_for": null
}