{
  "id": 190507,
  "name": "Warhammer 40,000: Dawn of War",
  "slug": "warhammer-40-000-dawn-of-war",
  "year": 2004,
  "banner_url": "",
  "icon_url": "",
  "coverart": "https://lutris.net/media/igdb/cover_big/co1wep.jpg",
  "platforms": [
    {
      "name": "Windows"
    }
  ],
  "provider_games": [
    {
      "name": "Warhammer 40,000: Dawn of War",
      "slug": "warhammer-40-000-dawn-of-war",
      "service": "igdb"
    }
  ],
  "aliases": [],
  "shaders": [],
  "discord_id": "",
  "change_for": null
}