{
  "id": 288024,
  "name": "Paranoid",
  "slug": "paranoid--2",
  "year": null,
  "banner_url": "",
  "icon_url": "",
  "coverart": "https://lutris.net/media/igdb/cover_big/co8b5y.jpg",
  "platforms": [],
  "provider_games": [
    {
      "name": "Paranoid",
      "slug": "paranoid--2",
      "service": "igdb"
    }
  ],
  "aliases": [],
  "shaders": [],
  "discord_id": "",
  "change_for": null
}