{
  "id": 77458,
  "name": "Valhalla and the Lord of Infinity",
  "slug": "valhalla-and-the-lord-of-infinity",
  "year": 1994,
  "banner_url": "",
  "icon_url": "",
  "coverart": "https://lutris.net/media/igdb/cover_big/raewyyldvaixwicr5ujy.jpg",
  "platforms": [
    {
      "name": "Amiga"
    }
  ],
  "provider_games": [
    {
      "name": "Valhalla and the Lord of Infinity",
      "slug": "valhalla-and-the-lord-of-infinity",
      "service": "igdb"
    }
  ],
  "aliases": [],
  "shaders": [],
  "discord_id": "",
  "change_for": null
}