{
  "id": 259852,
  "name": "Idle Blocks",
  "slug": "idle-blocks",
  "year": null,
  "banner_url": "",
  "icon_url": "",
  "coverart": "https://lutris.net/media/igdb/cover_big/co7486.jpg",
  "platforms": [],
  "provider_games": [
    {
      "name": "Idle Blocks",
      "slug": "idle-blocks",
      "service": "igdb"
    }
  ],
  "aliases": [],
  "shaders": [],
  "discord_id": "",
  "change_for": null
}