{
  "id": 238418,
  "name": "Koler",
  "slug": "koler",
  "year": null,
  "banner_url": "",
  "icon_url": "",
  "coverart": "https://lutris.net/media/igdb/cover_big/co64dp.jpg",
  "platforms": [],
  "provider_games": [
    {
      "name": "Koler",
      "slug": "koler",
      "service": "igdb"
    }
  ],
  "aliases": [],
  "shaders": [],
  "discord_id": "",
  "change_for": null
}