{
  "id": 87981,
  "name": "City Transport Map Volumes 1 & 2 - 2009",
  "slug": "city-transport-map-volumes-1-and-2-2009",
  "year": 2009,
  "banner_url": "",
  "icon_url": "",
  "coverart": "https://lutris.net/media/igdb/cover_big/vzixxug6tj8bvyjwgvme.jpg",
  "platforms": [
    {
      "name": "Nintendo DSi"
    }
  ],
  "provider_games": [
    {
      "name": "City Transport Map Volumes 1 & 2 - 2009",
      "slug": "city-transport-map-volumes-1-and-2-2009",
      "service": "igdb"
    }
  ],
  "aliases": [],
  "shaders": [],
  "discord_id": "",
  "change_for": null
}