{
  "id": 107195,
  "name": "The Incredible Adventures of Van Helsing: Extended Edition",
  "slug": "the-incredible-adventures-of-van-helsing-extended-edition",
  "year": 2017,
  "banner_url": "",
  "icon_url": "",
  "coverart": "https://lutris.net/media/igdb/cover_big/co27v1.jpg",
  "platforms": [
    {
      "name": "Sony Playstation 4"
    }
  ],
  "provider_games": [
    {
      "name": "The Incredible Adventures of Van Helsing: Extended Edition",
      "slug": "the-incredible-adventures-of-van-helsing-extended-edition",
      "service": "igdb"
    }
  ],
  "aliases": [],
  "shaders": [],
  "discord_id": "",
  "change_for": null
}