{
  "id": 75769,
  "name": "Clock Faces",
  "slug": "clock-faces",
  "year": null,
  "banner_url": "",
  "icon_url": "",
  "coverart": null,
  "platforms": [],
  "provider_games": [
    {
      "name": "Clock Faces",
      "slug": "clock-faces",
      "service": "igdb"
    }
  ],
  "aliases": [],
  "shaders": [],
  "discord_id": "",
  "change_for": null
}