{
  "id": 64902,
  "name": "Kung Fu Panda: Path of the Panda",
  "slug": "kung-fu-panda-path-of-the-panda",
  "year": null,
  "banner_url": "",
  "icon_url": "",
  "coverart": "https://lutris.net/media/igdb/cover_big/cxpcwbjtpadtmsnub1rk.jpg",
  "platforms": [],
  "provider_games": [
    {
      "name": "Kung Fu Panda: Path of the Panda",
      "slug": "kung-fu-panda-path-of-the-panda",
      "service": "igdb"
    }
  ],
  "aliases": [],
  "shaders": [],
  "discord_id": "",
  "change_for": null
}