{
  "id": 6999,
  "game_id": 1019,
  "game_slug": "legend-of-fae",
  "name": "Legend of Fae",
  "year": 2011,
  "user": "FakeShemp",
  "runner": "wine",
  "slug": "legend-of-fae-desura",
  "version": "Desura",
  "description": null,
  "notes": "",
  "credits": "",
  "created_at": "2018-01-04T01:33:29.542000Z",
  "updated_at": "2018-05-19T03:41:59.958846Z",
  "draft": false,
  "published": true,
  "published_by": null,
  "rating": "",
  "is_playable": null,
  "steamid": 109200,
  "gogid": null,
  "gogslug": "",
  "humbleid": "",
  "humblestoreid": "",
  "humblestoreid_real": "",
  "script": {
    "files": [
      {
        "file1": "N/A:Please select the Desura installer"
      }
    ],
    "game": {
      "arch": "win32",
      "exe": "drive_c/Program Files/Legend of Fae/Legend_of_Fae.exe",
      "prefix": "$GAMEDIR"
    },
    "installer": [
      {
        "task": {
          "args": "\"/S\" \"/D=\"C:\\\\Program Files\\\\Legend of Fae\"\"",
          "executable": "$file1",
          "name": "wineexec",
          "prefix": "$GAMEDIR"
        }
      }
    ]
  },
  "content": "files:\n- file1: N/A:Please select the Desura installer\ngame:\n  arch: win32\n  exe: drive_c/Program Files/Legend of Fae/Legend_of_Fae.exe\n  prefix: $GAMEDIR\ninstaller:\n- task:\n    args: '\"/S\" \"/D=\"C:\\\\Program Files\\\\Legend of Fae\"\"'\n    executable: $file1\n    name: wineexec\n    prefix: $GAMEDIR\n",
  "discord_id": ""
}