{
  "id": 70109,
  "name": "Armored Warfare: Assault",
  "slug": "armored-warfare-assault",
  "year": null,
  "banner_url": "",
  "icon_url": "",
  "coverart": null,
  "platforms": [],
  "provider_games": [
    {
      "name": "Armored Warfare: Assault",
      "slug": "armored-warfare-assault",
      "service": "igdb"
    }
  ],
  "aliases": [],
  "shaders": [],
  "discord_id": "",
  "change_for": null
}