{
  "id": 49711,
  "name": "Ragnarok Battle Offline",
  "slug": "ragnarok-battle-offline",
  "year": 2004,
  "banner_url": "https://lutris.net/games/banner/ragnarok-battle-offline.jpg",
  "icon_url": "",
  "coverart": "https://lutris.net/media/igdb/cover_big/leqofsqx3jzm8bywfszv.jpg",
  "platforms": [
    {
      "name": "Windows"
    }
  ],
  "provider_games": [
    {
      "name": "Ragnarok Battle Offline",
      "slug": "ragnarok-battle-offline",
      "service": "igdb"
    }
  ],
  "aliases": [],
  "shaders": [],
  "discord_id": "",
  "change_for": null
}