{
  "id": 114598,
  "name": "Robinson's Requiem Collection",
  "slug": "robinsons-requiem-collection",
  "year": null,
  "banner_url": "",
  "icon_url": "",
  "coverart": null,
  "platforms": [],
  "provider_games": [
    {
      "name": "Robinson's Requiem Collection",
      "slug": "robinsons-requiem-collection",
      "service": "igdb"
    }
  ],
  "aliases": [],
  "shaders": [],
  "discord_id": "",
  "change_for": null
}