{
  "id": 95967,
  "name": "FlipPix Art - Civilizations",
  "slug": "flippix-art-civilizations",
  "year": null,
  "banner_url": "",
  "icon_url": "",
  "coverart": null,
  "platforms": [],
  "provider_games": [
    {
      "name": "FlipPix Art - Civilizations",
      "slug": "flippix-art-civilizations",
      "service": "igdb"
    }
  ],
  "aliases": [],
  "shaders": [],
  "discord_id": "",
  "change_for": null
}