{
  "id": 26856,
  "name": "Turtix",
  "slug": "turtix",
  "year": 2007,
  "banner_url": "https://lutris.net/games/banner/turtix.jpg",
  "icon_url": "",
  "coverart": "https://lutris.net/media/igdb/cover_big/co2z7g.jpg",
  "platforms": [
    {
      "name": "Windows"
    }
  ],
  "provider_games": [
    {
      "name": "Turtix",
      "slug": "turtix",
      "service": "igdb"
    }
  ],
  "aliases": [],
  "shaders": [],
  "discord_id": "",
  "change_for": null
}