{
  "id": 54609,
  "name": "Videocart-23: Galactic Space Wars",
  "slug": "videocart-23-galactic-space-wars",
  "year": 1980,
  "banner_url": "",
  "icon_url": "",
  "coverart": "https://lutris.net/media/igdb/cover_big/nuexqhdeoeuocbae4iv6.jpg",
  "platforms": [
    {
      "name": "Fairchild Channel F"
    }
  ],
  "provider_games": [
    {
      "name": "Videocart-23: Galactic Space Wars",
      "slug": "videocart-23-galactic-space-wars",
      "service": "igdb"
    }
  ],
  "aliases": [],
  "shaders": [],
  "discord_id": "",
  "change_for": null
}