{
  "id": 36247,
  "game_id": 23793,
  "game_slug": "my-paper-boat",
  "name": "My Paper Boat",
  "year": 2015,
  "user": "vanstaveren",
  "runner": "steam",
  "slug": "my-paper-boat-steam",
  "version": "Steam",
  "description": "",
  "notes": "",
  "credits": "",
  "created_at": "2022-11-19T13:03:11.888070Z",
  "updated_at": "2023-01-05T21:17:18.675011Z",
  "draft": false,
  "published": true,
  "published_by": 1,
  "rating": "",
  "is_playable": null,
  "steamid": 381850,
  "gogid": null,
  "gogslug": "",
  "humbleid": "",
  "humblestoreid": "",
  "humblestoreid_real": "",
  "script": {
    "game": {
      "appid": 381850
    }
  },
  "content": "game:\n  appid: 381850",
  "discord_id": ""
}