{
  "id": 185595,
  "name": "Seduce Me the Otome: Episode Series",
  "slug": "seduce-me-the-otome-episode-series",
  "year": 2015,
  "banner_url": "",
  "icon_url": "",
  "coverart": null,
  "platforms": [
    {
      "name": "Linux"
    },
    {
      "name": "Mac"
    },
    {
      "name": "Windows"
    }
  ],
  "provider_games": [
    {
      "name": "Seduce Me the Otome: Episode Series",
      "slug": "seduce-me-the-otome-episode-series",
      "service": "igdb"
    }
  ],
  "aliases": [],
  "shaders": [],
  "discord_id": "",
  "change_for": null
}