{
  "id": 155932,
  "name": "Pictionary: The Game of Video Quick Draw",
  "slug": "pictionary-the-game-of-video-quick-draw",
  "year": 1990,
  "banner_url": "",
  "icon_url": "",
  "coverart": "https://lutris.net/media/igdb/cover_big/co3xsa.jpg",
  "platforms": [
    {
      "name": "NES"
    }
  ],
  "provider_games": [
    {
      "name": "Pictionary: The Game of Video Quick Draw",
      "slug": "pictionary-the-game-of-video-quick-draw",
      "service": "igdb"
    }
  ],
  "aliases": [],
  "shaders": [],
  "discord_id": "",
  "change_for": null
}