{
  "id": 78434,
  "name": "Target - Pheromone",
  "slug": "target-pheromone",
  "year": 2001,
  "banner_url": "",
  "icon_url": "",
  "coverart": null,
  "platforms": [
    {
      "name": "Windows"
    }
  ],
  "provider_games": [
    {
      "name": "Target - Pheromone",
      "slug": "target-pheromone",
      "service": "igdb"
    }
  ],
  "aliases": [],
  "shaders": [],
  "discord_id": "",
  "change_for": null
}