{
  "id": 48627,
  "name": "The Legend of Queen Opala",
  "slug": "the-legend-of-queen-opala",
  "year": null,
  "banner_url": "",
  "icon_url": "",
  "coverart": "https://lutris.net/media/igdb/cover_big/itnqsuynccjd08wk4fyz.jpg",
  "platforms": [],
  "provider_games": [
    {
      "name": "The Legend of Queen Opala",
      "slug": "the-legend-of-queen-opala",
      "service": "igdb"
    }
  ],
  "aliases": [],
  "shaders": [],
  "discord_id": "",
  "change_for": null
}