{
  "id": 264299,
  "name": "Slayaway Camp 2: Netflix & Kill",
  "slug": "slayaway-camp-2-netflix-and-kill",
  "year": null,
  "banner_url": "",
  "icon_url": "",
  "coverart": "https://lutris.net/media/igdb/cover_big/co7ahy.jpg",
  "platforms": [
    {
      "name": "Android"
    }
  ],
  "provider_games": [
    {
      "name": "Slayaway Camp 2: Netflix & Kill",
      "slug": "slayaway-camp-2-netflix-and-kill",
      "service": "igdb"
    }
  ],
  "aliases": [],
  "shaders": [],
  "discord_id": "",
  "change_for": null
}