{
  "id": 36017,
  "name": "Super Visual Football: European Sega Cup",
  "slug": "super-visual-football-european-sega-cup",
  "year": 1994,
  "banner_url": "",
  "icon_url": "https://lutris.net/games/icon/super-visual-football-european-sega-cup.png",
  "coverart": "https://lutris.net/media/igdb/cover_big/tf841mztpwhjxalp1yqi.jpg",
  "platforms": [
    {
      "name": "Arcade"
    }
  ],
  "provider_games": [
    {
      "name": "Super Visual Football: European Sega Cup",
      "slug": "svf",
      "service": "mame"
    },
    {
      "name": "Super Visual Football European Sega Cup",
      "slug": "super-visual-football-european-sega-cup",
      "service": "igdb"
    }
  ],
  "aliases": [],
  "shaders": [],
  "discord_id": "",
  "change_for": null
}