{
  "id": 22375,
  "game_id": 12674,
  "game_slug": "glass-masquerade",
  "name": "Glass Masquerade",
  "year": 2016,
  "user": "vanstaveren",
  "runner": "steam",
  "slug": "glass-masquerade-steam",
  "version": "Steam",
  "description": null,
  "notes": "",
  "credits": "",
  "created_at": "2020-07-15T01:49:53.935907Z",
  "updated_at": "2021-12-13T19:10:38.233862Z",
  "draft": false,
  "published": true,
  "published_by": null,
  "rating": "",
  "is_playable": null,
  "steamid": 511470,
  "gogid": null,
  "gogslug": "",
  "humbleid": "",
  "humblestoreid": "",
  "humblestoreid_real": "",
  "script": {
    "game": {
      "appid": 511470
    }
  },
  "content": "game:\n  appid: 511470\n",
  "discord_id": ""
}