{
  "id": 95904,
  "name": "Snowicks: Snow Battle",
  "slug": "snowicks-snow-battle",
  "year": null,
  "banner_url": "",
  "icon_url": "",
  "coverart": null,
  "platforms": [
    {
      "name": "Android"
    }
  ],
  "provider_games": [
    {
      "name": "Snowicks: Snow Battle",
      "slug": "snowicks-snow-battle",
      "service": "igdb"
    }
  ],
  "aliases": [],
  "shaders": [],
  "discord_id": "",
  "change_for": null
}