{
  "id": 11865,
  "game_id": 15650,
  "game_slug": "fantasy-strike",
  "name": "Fantasy Strike",
  "year": 2017,
  "user": "strider",
  "runner": "steam",
  "slug": "fantasy-strike-steam",
  "version": "Steam",
  "description": null,
  "notes": "",
  "credits": "",
  "created_at": "2019-02-05T21:32:14.958648Z",
  "updated_at": "2019-02-05T21:32:21.707671Z",
  "draft": false,
  "published": true,
  "published_by": 1,
  "rating": "",
  "is_playable": null,
  "steamid": 390560,
  "gogid": null,
  "gogslug": "",
  "humbleid": "",
  "humblestoreid": "",
  "humblestoreid_real": "",
  "script": {
    "game": {
      "appid": 390560
    }
  },
  "content": "game:\n  appid: 390560\n",
  "discord_id": ""
}