{
  "id": 225,
  "name": "Atom Zombie Smasher",
  "slug": "atom-zombie-smasher",
  "year": 2011,
  "banner_url": "https://lutris.net/games/banner/atom-zombie-smasher.jpg",
  "icon_url": "https://lutris.net/games/icon/atom-zombie-smasher.png",
  "coverart": "https://lutris.net/media/igdb/cover_big/co3zi0.jpg",
  "platforms": [
    {
      "name": "Linux"
    },
    {
      "name": "Mac"
    },
    {
      "name": "Windows"
    }
  ],
  "provider_games": [
    {
      "name": "Atom Zombie Smasher",
      "slug": "atomzombiesmasher",
      "service": "humblebundle"
    },
    {
      "name": "Atom Zombie Smasher ",
      "slug": "55040",
      "service": "steam"
    },
    {
      "name": "Atom Zombie Smasher",
      "slug": "atom-zombie-smasher",
      "service": "igdb"
    }
  ],
  "aliases": [],
  "shaders": [],
  "discord_id": "",
  "change_for": null
}