{
  "id": 206896,
  "name": "Cheers!",
  "slug": "cheers",
  "year": null,
  "banner_url": "",
  "icon_url": "",
  "coverart": "https://lutris.net/media/igdb/cover_big/co5uaa.jpg",
  "platforms": [],
  "provider_games": [
    {
      "name": "Cheers!",
      "slug": "cheers",
      "service": "igdb"
    }
  ],
  "aliases": [],
  "shaders": [],
  "discord_id": "",
  "change_for": null
}