{
  "id": 195897,
  "name": "Guildmasters",
  "slug": "guildmasters",
  "year": 2019,
  "banner_url": "",
  "icon_url": "",
  "coverart": null,
  "platforms": [],
  "provider_games": [
    {
      "name": "Guildmasters",
      "slug": "guildmasters",
      "service": "igdb"
    }
  ],
  "aliases": [],
  "shaders": [],
  "discord_id": "",
  "change_for": null
}