{
  "id": 88926,
  "name": "Super Golf - Golf Game",
  "slug": "super-golf-golf-game",
  "year": null,
  "banner_url": "",
  "icon_url": "",
  "coverart": null,
  "platforms": [],
  "provider_games": [
    {
      "name": "Super Golf - Golf Game",
      "slug": "super-golf-golf-game",
      "service": "igdb"
    }
  ],
  "aliases": [],
  "shaders": [],
  "discord_id": "",
  "change_for": null
}