{
  "id": 55213,
  "name": "Fairy Tail: Portable Guild",
  "slug": "fairy-tail-portable-guild",
  "year": 2010,
  "banner_url": "",
  "icon_url": "",
  "coverart": "https://lutris.net/media/igdb/cover_big/co1rkt.jpg",
  "platforms": [
    {
      "name": "Sony PSP"
    }
  ],
  "provider_games": [
    {
      "name": "Fairy Tail: Portable Guild",
      "slug": "fairy-tail-portable-guild",
      "service": "igdb"
    }
  ],
  "aliases": [],
  "shaders": [],
  "discord_id": "",
  "change_for": null
}