{
  "id": 123276,
  "name": "Haunted Legends: The Queen of Spades - Collector's Edition",
  "slug": "haunted-legends-the-queen-of-spades-collectors-edition",
  "year": 2016,
  "banner_url": "",
  "icon_url": "",
  "coverart": "https://lutris.net/media/igdb/cover_big/co4gii.jpg",
  "platforms": [
    {
      "name": "Windows"
    }
  ],
  "provider_games": [
    {
      "name": "Haunted Legends: The Queen of Spades - Collector's Edition",
      "slug": "haunted-legends-the-queen-of-spades-collectors-edition",
      "service": "igdb"
    }
  ],
  "aliases": [],
  "shaders": [],
  "discord_id": "",
  "change_for": null
}