{
  "id": 127061,
  "name": "Tomb Raider - Collector's Edition",
  "slug": "tomb-raider-collectors-edition--2",
  "year": 2013,
  "banner_url": "",
  "icon_url": "",
  "coverart": "https://lutris.net/media/igdb/cover_big/co3h5q.jpg",
  "platforms": [
    {
      "name": "Sony Playstation 3"
    },
    {
      "name": "Xbox 360"
    }
  ],
  "provider_games": [
    {
      "name": "Tomb Raider - Collector's Edition",
      "slug": "tomb-raider-collectors-edition--2",
      "service": "igdb"
    }
  ],
  "aliases": [],
  "shaders": [],
  "discord_id": "",
  "change_for": null
}