{
  "id": 103423,
  "name": "Perudo",
  "slug": "perudo",
  "year": null,
  "banner_url": "",
  "icon_url": "",
  "coverart": "https://lutris.net/media/igdb/cover_big/co2qy0.jpg",
  "platforms": [],
  "provider_games": [
    {
      "name": "Perudo",
      "slug": "perudo",
      "service": "igdb"
    }
  ],
  "aliases": [],
  "shaders": [],
  "discord_id": "",
  "change_for": null
}