{
  "id": 304591,
  "name": "So Many Zombies",
  "slug": "so-many-zombies",
  "year": 2025,
  "banner_url": "",
  "icon_url": "",
  "coverart": "https://lutris.net/media/igdb/cover_big/co99yy.jpg",
  "platforms": [
    {
      "name": "SteamVR"
    },
    {
      "name": "Windows"
    }
  ],
  "provider_games": [
    {
      "name": "So Many Zombies",
      "slug": "so-many-zombies",
      "service": "igdb"
    }
  ],
  "aliases": [],
  "shaders": [],
  "discord_id": "",
  "change_for": null
}