{
  "id": 67126,
  "name": "Necrotic Drift",
  "slug": "necrotic-drift",
  "year": null,
  "banner_url": "",
  "icon_url": "",
  "coverart": "https://lutris.net/media/igdb/cover_big/co57rl.jpg",
  "platforms": [],
  "provider_games": [
    {
      "name": "Necrotic Drift",
      "slug": "necrotic-drift",
      "service": "igdb"
    }
  ],
  "aliases": [],
  "shaders": [],
  "discord_id": "",
  "change_for": null
}