{
  "id": 48482,
  "name": "Knighty Night",
  "slug": "knighty-night--1",
  "year": null,
  "banner_url": "",
  "icon_url": "",
  "coverart": null,
  "platforms": [],
  "provider_games": [
    {
      "name": "Knighty Night",
      "slug": "knighty-night--1",
      "service": "igdb"
    }
  ],
  "aliases": [],
  "shaders": [],
  "discord_id": "",
  "change_for": null
}