{
  "id": 238316,
  "name": "Color Invader VR",
  "slug": "color-invader-vr",
  "year": null,
  "banner_url": "",
  "icon_url": "",
  "coverart": "https://lutris.net/media/igdb/cover_big/co64w8.jpg",
  "platforms": [],
  "provider_games": [
    {
      "name": "Color Invader VR",
      "slug": "color-invader-vr",
      "service": "igdb"
    }
  ],
  "aliases": [],
  "shaders": [],
  "discord_id": "",
  "change_for": null
}