{
  "id": 1573,
  "game_id": 2078,
  "game_slug": "ridge-racertm-unbounded",
  "name": "Ridge Racer™ Unbounded",
  "year": 2012,
  "user": "strider",
  "runner": "steam",
  "slug": "ridge-racertm-unbounded-proton",
  "version": "Proton",
  "description": "",
  "notes": "",
  "credits": "",
  "created_at": "2015-08-05T07:56:53.140160Z",
  "updated_at": "2021-05-04T02:43:10.310432Z",
  "draft": false,
  "published": true,
  "published_by": null,
  "rating": "",
  "is_playable": null,
  "steamid": 202310,
  "gogid": null,
  "gogslug": "",
  "humbleid": "",
  "humblestoreid": "",
  "humblestoreid_real": "",
  "script": {
    "game": {
      "appid": 202310
    }
  },
  "content": "game:\n  appid: 202310\n",
  "discord_id": ""
}