{
  "id": 3883,
  "name": "Datswer",
  "slug": "datswer",
  "year": 2015,
  "banner_url": "https://lutris.net/games/banner/datswer.jpg",
  "icon_url": "https://lutris.net/games/icon/datswer.png",
  "coverart": "https://lutris.net/media/igdb/cover_big/mucrjws618e2hrgdqpdh.jpg",
  "platforms": [
    {
      "name": "Windows"
    }
  ],
  "provider_games": [
    {
      "name": "Datswer",
      "slug": "348000",
      "service": "steam"
    },
    {
      "name": "Datswer",
      "slug": "datswer",
      "service": "igdb"
    }
  ],
  "aliases": [],
  "shaders": [],
  "discord_id": "",
  "change_for": null
}