{
  "id": 274361,
  "name": "The Reason for Your Smile",
  "slug": "the-reason-for-your-smile",
  "year": null,
  "banner_url": "",
  "icon_url": "",
  "coverart": "https://lutris.net/media/igdb/cover_big/co7sl3.jpg",
  "platforms": [],
  "provider_games": [
    {
      "name": "The Reason for Your Smile",
      "slug": "the-reason-for-your-smile",
      "service": "igdb"
    }
  ],
  "aliases": [],
  "shaders": [],
  "discord_id": "",
  "change_for": null
}