{
  "id": 272910,
  "name": "Ao to Ao no Sekai",
  "slug": "ao-to-ao-no-sekai",
  "year": 2021,
  "banner_url": "",
  "icon_url": "",
  "coverart": "https://lutris.net/media/igdb/cover_big/co7qj8.jpg",
  "platforms": [
    {
      "name": "Windows"
    }
  ],
  "provider_games": [
    {
      "name": "Ao to Ao no Sekai",
      "slug": "ao-to-ao-no-sekai",
      "service": "igdb"
    }
  ],
  "aliases": [],
  "shaders": [],
  "discord_id": "",
  "change_for": null
}