{
  "id": 131266,
  "name": "Empire of Sin: Deluxe Edition",
  "slug": "empire-of-sin-deluxe-edition",
  "year": 2020,
  "banner_url": "",
  "icon_url": "",
  "coverart": "https://lutris.net/media/igdb/cover_big/co31ji.jpg",
  "platforms": [
    {
      "name": "Xbox One"
    }
  ],
  "provider_games": [
    {
      "name": "Empire of Sin: Deluxe Edition",
      "slug": "empire-of-sin-deluxe-edition",
      "service": "igdb"
    }
  ],
  "aliases": [],
  "shaders": [],
  "discord_id": "",
  "change_for": null
}