{
  "id": 27357,
  "game_id": 28942,
  "game_slug": "bureaucracy",
  "name": "Bureaucracy",
  "year": 1987,
  "user": "appoloin",
  "runner": "scummvm",
  "slug": "bureaucracy-infocom-treasures-ii",
  "version": "Infocom Treasures II CD",
  "description": null,
  "notes": "",
  "credits": "",
  "created_at": "2021-04-09T19:13:35.607688Z",
  "updated_at": "2023-01-11T07:39:32.961301Z",
  "draft": false,
  "published": true,
  "published_by": null,
  "rating": "",
  "is_playable": null,
  "steamid": null,
  "gogid": null,
  "gogslug": "",
  "humbleid": "",
  "humblestoreid": "",
  "humblestoreid_real": "",
  "script": {
    "game": {
      "game_id": "bureaucracy",
      "path": "$GAMEDIR"
    },
    "installer": [
      {
        "write_file": {
          "content": "#!/bin/bash\nsrc=$1\ndst=$2\nsrc_path=$(echo \"$1\" | sed -r \"s/(.+)\\/.+/\\1/\")\nfind \"$src_path\" -type f \\( -iname \"BUREAUCR.DAT\"  \\) -exec cp {} \"$dst\" \\;",
          "file": "$CACHE/selectcopy.sh"
        }
      },
      {
        "chmodx": "$CACHE/selectcopy.sh"
      },
      {
        "insert-disc": {
          "description": "Please insert Lost Treasures of Infocom II CD",
          "requires": "DOS"
        }
      },
      {
        "execute": {
          "args": "$DISC \"$GAMEDIR\"",
          "file": "$CACHE/selectcopy.sh"
        }
      },
      {
        "execute": {
          "args": "-R 775  \"$GAMEDIR\"",
          "file": "/bin/chmod"
        }
      }
    ]
  },
  "content": "game:\n  game_id: bureaucracy\n  path: $GAMEDIR\ninstaller:\n- write_file:\n    content: '#!/bin/bash\n\n      src=$1\n\n      dst=$2\n\n      src_path=$(echo \"$1\" | sed -r \"s/(.+)\\/.+/\\1/\")\n\n      find \"$src_path\" -type f \\( -iname \"BUREAUCR.DAT\"  \\) -exec cp {} \"$dst\" \\;'\n    file: $CACHE/selectcopy.sh\n- chmodx: $CACHE/selectcopy.sh\n- insert-disc:\n    description: Please insert Lost Treasures of Infocom II CD\n    requires: DOS\n- execute:\n    args: $DISC \"$GAMEDIR\"\n    file: $CACHE/selectcopy.sh\n- execute:\n    args: -R 775  \"$GAMEDIR\"\n    file: /bin/chmod\n",
  "discord_id": ""
}