{
  "id": 151770,
  "name": "Scuffle Scoundrels",
  "slug": "scuffle-scoundrels",
  "year": 2017,
  "banner_url": "",
  "icon_url": "",
  "coverart": "https://lutris.net/media/igdb/cover_big/co2r9e.jpg",
  "platforms": [
    {
      "name": "Windows"
    }
  ],
  "provider_games": [
    {
      "name": "Scuffle Scoundrels",
      "slug": "scuffle-scoundrels",
      "service": "igdb"
    }
  ],
  "aliases": [],
  "shaders": [],
  "discord_id": "",
  "change_for": null
}