{
  "id": 14794,
  "name": "Hover - Workshop Tool",
  "slug": "hover-workshop-tool",
  "year": null,
  "banner_url": "https://lutris.net/games/banner/hover-workshop-tool.jpg",
  "icon_url": "https://lutris.net/games/icon/hover-workshop-tool.png",
  "coverart": null,
  "platforms": [],
  "provider_games": [
    {
      "name": "Hover - Workshop Tool",
      "slug": "711030",
      "service": "steam"
    }
  ],
  "aliases": [],
  "shaders": [],
  "discord_id": "",
  "change_for": null
}