{
  "id": 2253,
  "game_id": 5277,
  "game_slug": "hacknet",
  "name": "Hacknet",
  "year": 2015,
  "user": "Lulu",
  "runner": "linux",
  "slug": "hacknet-humble-bundle",
  "version": "Humble Bundle",
  "description": null,
  "notes": "",
  "credits": "",
  "created_at": "2016-07-05T07:07:05.497244Z",
  "updated_at": "2024-04-03T04:44:43.979621Z",
  "draft": false,
  "published": true,
  "published_by": null,
  "rating": "",
  "is_playable": null,
  "steamid": 365450,
  "gogid": 1439474400,
  "gogslug": "hacknet_complete_edition",
  "humbleid": "hacknet",
  "humblestoreid": "hacknet",
  "humblestoreid_real": "hacknet",
  "script": {
    "game": {
      "exe": "Hacknet"
    },
    "files": [
      {
        "hacknet-game": "N/A: Please select the .zip install file downloaded from humblebundle.com"
      }
    ],
    "installer": [
      {
        "extract": {
          "file": "hacknet-game"
        }
      },
      {
        "chmodx": "$GAMEDIR/Hacknet"
      },
      {
        "chmodx": "$GAMEDIR/Hacknet.bin.x86"
      },
      {
        "chmodx": "$GAMEDIR/Hacknet.bin.x86_64"
      },
      {
        "chmodx": "$GAMEDIR/cefprocess.bin.x86"
      },
      {
        "chmodx": "$GAMEDIR/cefprocess.bin.x86_64"
      }
    ]
  },
  "content": "game:\r\n  exe: Hacknet\r\nfiles:\r\n- hacknet-game: 'N/A: Please select the .zip install file downloaded from humblebundle.com'\r\ninstaller:\r\n- extract:\r\n    file: hacknet-game\r\n- chmodx: $GAMEDIR/Hacknet\r\n- chmodx: $GAMEDIR/Hacknet.bin.x86\r\n- chmodx: $GAMEDIR/Hacknet.bin.x86_64\r\n- chmodx: $GAMEDIR/cefprocess.bin.x86\r\n- chmodx: $GAMEDIR/cefprocess.bin.x86_64",
  "discord_id": "449639683740270612"
}