{
  "id": 45708,
  "name": "Trivial Pursuit 2: A New Beginning",
  "slug": "trivial-pursuit-2-a-new-beginning",
  "year": null,
  "banner_url": "",
  "icon_url": "",
  "coverart": "https://lutris.net/media/igdb/cover_big/jalex3tbksffxh2dxp8r.jpg",
  "platforms": [],
  "provider_games": [
    {
      "name": "Trivial Pursuit 2: A New Beginning",
      "slug": "trivial-pursuit-2-a-new-beginning",
      "service": "igdb"
    }
  ],
  "aliases": [],
  "shaders": [],
  "discord_id": "",
  "change_for": null
}