{
  "id": 8691,
  "name": "Unheard Screams - King Leopold II's Rule Over The Congo",
  "slug": "unheard-screams-king-leopold-iis-rule-over-the-con",
  "year": null,
  "banner_url": "https://lutris.net/games/banner/unheard-screams-king-leopold-iis-rule-over-the-con.jpg",
  "icon_url": "https://lutris.net/games/icon/unheard-screams-king-leopold-iis-rule-over-the-con.png",
  "coverart": null,
  "platforms": [],
  "provider_games": [
    {
      "name": "Unheard Screams - King Leopold II's Rule Over The Congo",
      "slug": "365080",
      "service": "steam"
    }
  ],
  "aliases": [],
  "shaders": [],
  "discord_id": "",
  "change_for": null
}