{
  "id": 290335,
  "name": "Anime Girls Basketball League",
  "slug": "anime-girls-basketball-league",
  "year": null,
  "banner_url": "",
  "icon_url": "",
  "coverart": "https://lutris.net/media/igdb/cover_big/co8j5o.jpg",
  "platforms": [],
  "provider_games": [
    {
      "name": "Anime Girls Basketball League",
      "slug": "anime-girls-basketball-league",
      "service": "igdb"
    }
  ],
  "aliases": [],
  "shaders": [],
  "discord_id": "",
  "change_for": null
}