{
  "id": 234006,
  "name": "Lyrical Letters",
  "slug": "lyrical-letters",
  "year": null,
  "banner_url": "",
  "icon_url": "",
  "coverart": "https://lutris.net/media/igdb/cover_big/co97dj.jpg",
  "platforms": [],
  "provider_games": [
    {
      "name": "Lyrical Letters",
      "slug": "lyrical-letters",
      "service": "igdb"
    }
  ],
  "aliases": [],
  "shaders": [],
  "discord_id": "",
  "change_for": null
}