{
  "id": 79528,
  "name": "Steam: Rails to Riches - Golden Train Edition",
  "slug": "steam-rails-to-riches-golden-train-edition",
  "year": null,
  "banner_url": "",
  "icon_url": "",
  "coverart": null,
  "platforms": [],
  "provider_games": [
    {
      "name": "Steam: Rails to Riches - Golden Train Edition",
      "slug": "steam-rails-to-riches-golden-train-edition",
      "service": "igdb"
    }
  ],
  "aliases": [],
  "shaders": [],
  "discord_id": "",
  "change_for": null
}