{
  "id": 47200,
  "name": "Sssnake",
  "slug": "sssnake",
  "year": 1982,
  "banner_url": "",
  "icon_url": "",
  "coverart": "https://lutris.net/media/igdb/cover_big/hrntvvlbqvq0omhuohjt.jpg",
  "platforms": [],
  "provider_games": [
    {
      "name": "Sssnake",
      "slug": "sssnake",
      "service": "igdb"
    }
  ],
  "aliases": [],
  "shaders": [],
  "discord_id": "",
  "change_for": null
}