{
  "id": 231338,
  "name": "Tiny Civilization",
  "slug": "tiny-civilization",
  "year": 2023,
  "banner_url": "https://lutris.net/games/banner/tiny-civilization.jpg",
  "icon_url": "",
  "coverart": "https://lutris.net/media/igdb/cover_big/co5zhw.jpg",
  "platforms": [
    {
      "name": "Windows"
    }
  ],
  "provider_games": [
    {
      "name": "方寸文明",
      "slug": "2230280",
      "service": "steam"
    },
    {
      "name": "Tiny Civilization",
      "slug": "tiny-civilization",
      "service": "igdb"
    }
  ],
  "aliases": [],
  "shaders": [],
  "discord_id": "",
  "change_for": null
}