{
  "id": 204031,
  "name": "Kawaii Girls Puzzle",
  "slug": "kawaii-girls-puzzle",
  "year": 2019,
  "banner_url": "",
  "icon_url": "",
  "coverart": "https://lutris.net/media/igdb/cover_big/co4cko.jpg",
  "platforms": [
    {
      "name": "Windows"
    }
  ],
  "provider_games": [
    {
      "name": "Kawaii Girls Puzzle",
      "slug": "kawaii-girls-puzzle",
      "service": "igdb"
    }
  ],
  "aliases": [],
  "shaders": [],
  "discord_id": "",
  "change_for": null
}