{
  "id": 67813,
  "name": "Junior Mystery Quest",
  "slug": "junior-mystery-quest",
  "year": null,
  "banner_url": "",
  "icon_url": "",
  "coverart": "https://lutris.net/media/igdb/cover_big/xdsarckfrkh3uepb0ekr.jpg",
  "platforms": [],
  "provider_games": [
    {
      "name": "Junior Mystery Quest",
      "slug": "junior-mystery-quest",
      "service": "igdb"
    }
  ],
  "aliases": [],
  "shaders": [],
  "discord_id": "",
  "change_for": null
}