{
  "id": 241777,
  "name": "Block Jumper",
  "slug": "block-jumper",
  "year": null,
  "banner_url": "",
  "icon_url": "",
  "coverart": "https://lutris.net/media/igdb/cover_big/co5zov.jpg",
  "platforms": [],
  "provider_games": [
    {
      "name": "Block Jumper",
      "slug": "block-jumper",
      "service": "igdb"
    }
  ],
  "aliases": [],
  "shaders": [],
  "discord_id": "",
  "change_for": null
}