{
  "id": 36491,
  "name": "Zero Hour",
  "slug": "zero-hour",
  "year": 1980,
  "banner_url": "https://lutris.net/games/banner/zero-hour.jpg",
  "icon_url": "https://lutris.net/games/icon/zero-hour.png",
  "coverart": "https://lutris.net/media/igdb/cover_big/cqfvi1qtvex2urawsotw.jpg",
  "platforms": [
    {
      "name": "Arcade"
    }
  ],
  "provider_games": [
    {
      "name": "Zero Hour",
      "slug": "zerohour",
      "service": "mame"
    },
    {
      "name": "Zero Hour",
      "slug": "1359090",
      "service": "steam"
    },
    {
      "name": "Zero Hour",
      "slug": "zero-hour",
      "service": "igdb"
    }
  ],
  "aliases": [],
  "shaders": [],
  "discord_id": "",
  "change_for": null
}