{
  "id": 249943,
  "name": "Tarot Uranai",
  "slug": "tarot-uranai",
  "year": 1995,
  "banner_url": "",
  "icon_url": "",
  "coverart": "https://lutris.net/media/igdb/cover_big/co6o7q.jpg",
  "platforms": [
    {
      "name": "3DO"
    }
  ],
  "provider_games": [
    {
      "name": "Tarot Uranai",
      "slug": "tarot-uranai",
      "service": "igdb"
    }
  ],
  "aliases": [],
  "shaders": [],
  "discord_id": "",
  "change_for": null
}