{
  "id": 4266,
  "name": "Universal Combat CE",
  "slug": "universal-combat-ce",
  "year": 2015,
  "banner_url": "https://lutris.net/games/banner/universal-combat-ce.jpg",
  "icon_url": "https://lutris.net/games/icon/universal-combat-ce.png",
  "coverart": "https://lutris.net/media/igdb/cover_big/co63nb.jpg",
  "platforms": [
    {
      "name": "Windows"
    }
  ],
  "provider_games": [
    {
      "name": "Universal Combat CE",
      "slug": "345580",
      "service": "steam"
    },
    {
      "name": "Universal Combat CE",
      "slug": "universal-combat-ce",
      "service": "igdb"
    }
  ],
  "aliases": [],
  "shaders": [],
  "discord_id": "",
  "change_for": null
}