{
  "id": 103452,
  "name": "Assassin's Creed IV: Black Flag - Deluxe Edition",
  "slug": "assassins-creed-iv-black-flag-deluxe-edition",
  "year": 2013,
  "banner_url": "",
  "icon_url": "",
  "coverart": "https://lutris.net/media/igdb/cover_big/co2nt1.jpg",
  "platforms": [
    {
      "name": "Windows"
    }
  ],
  "provider_games": [
    {
      "name": "Assassin's Creed IV: Black Flag - Deluxe Edition",
      "slug": "assassins-creed-iv-black-flag-deluxe-edition",
      "service": "igdb"
    }
  ],
  "aliases": [],
  "shaders": [],
  "discord_id": "",
  "change_for": null
}