{
  "id": 137334,
  "name": "Shiren the Wanderer DS2: Magic Castle of the Desert",
  "slug": "shiren-the-wanderer-ds2-magic-castle-of-the-desert",
  "year": 2008,
  "banner_url": "",
  "icon_url": "",
  "coverart": "https://lutris.net/media/igdb/cover_big/hw6yjnpddxzyxmubl9iq.jpg",
  "platforms": [
    {
      "name": "Nintendo DS"
    }
  ],
  "provider_games": [
    {
      "name": "Shiren the Wanderer DS2: Magic Castle of the Desert",
      "slug": "shiren-the-wanderer-ds2-magic-castle-of-the-desert",
      "service": "igdb"
    }
  ],
  "aliases": [],
  "shaders": [],
  "discord_id": "",
  "change_for": null
}