{
  "id": 10749,
  "name": "Monumental",
  "slug": "monumental",
  "year": 2016,
  "banner_url": "https://lutris.net/games/banner/monumental.jpg",
  "icon_url": "https://lutris.net/games/icon/monumental.png",
  "coverart": null,
  "platforms": [
    {
      "name": "Windows"
    }
  ],
  "provider_games": [
    {
      "name": "Monumental",
      "slug": "432610",
      "service": "steam"
    },
    {
      "name": "Monumental",
      "slug": "monumental",
      "service": "igdb"
    }
  ],
  "aliases": [],
  "shaders": [],
  "discord_id": "",
  "change_for": null
}