{
  "id": 288275,
  "name": "Hidden Cat Memories",
  "slug": "hidden-cat-memories",
  "year": null,
  "banner_url": "",
  "icon_url": "",
  "coverart": "https://lutris.net/media/igdb/cover_big/co8cye.jpg",
  "platforms": [],
  "provider_games": [
    {
      "name": "Hidden Cat Memories",
      "slug": "hidden-cat-memories",
      "service": "igdb"
    }
  ],
  "aliases": [],
  "shaders": [],
  "discord_id": "",
  "change_for": null
}