{
  "id": 162103,
  "name": "A Night Walk",
  "slug": "a-night-walk",
  "year": null,
  "banner_url": "",
  "icon_url": "",
  "coverart": null,
  "platforms": [],
  "provider_games": [
    {
      "name": "A Night Walk",
      "slug": "a-night-walk",
      "service": "igdb"
    }
  ],
  "aliases": [],
  "shaders": [],
  "discord_id": "",
  "change_for": null
}