{
  "id": 227017,
  "name": "Armello: Complete Edition",
  "slug": "armello-complete-edition",
  "year": null,
  "banner_url": "",
  "icon_url": "",
  "coverart": null,
  "platforms": [],
  "provider_games": [
    {
      "name": "Armello: Complete Edition",
      "slug": "armello-complete-edition",
      "service": "igdb"
    }
  ],
  "aliases": [],
  "shaders": [],
  "discord_id": "",
  "change_for": null
}