{
  "id": 53708,
  "name": "Faselei!",
  "slug": "faselei",
  "year": 1999,
  "banner_url": "",
  "icon_url": "",
  "coverart": "https://lutris.net/media/igdb/cover_big/k1pn8cvnoxhwbxegdjd4.jpg",
  "platforms": [
    {
      "name": "Neo Geo Pocket Color"
    }
  ],
  "provider_games": [
    {
      "name": "Faselei!",
      "slug": "faselei",
      "service": "igdb"
    }
  ],
  "aliases": [],
  "shaders": [],
  "discord_id": "",
  "change_for": null
}