{
  "id": 8346,
  "name": "Thrillville: Off the Rails",
  "slug": "thrillville-off-the-rails",
  "year": 2007,
  "banner_url": "https://lutris.net/games/banner/thrillville-off-the-rails.jpg",
  "icon_url": "https://lutris.net/games/icon/thrillville-off-the-rails.png",
  "coverart": "https://lutris.net/media/igdb/cover_big/co2cm9.jpg",
  "platforms": [
    {
      "name": "Nintendo DS"
    },
    {
      "name": "Nintendo Wii"
    },
    {
      "name": "Sony PlayStation 2"
    },
    {
      "name": "Sony PSP"
    },
    {
      "name": "Windows"
    },
    {
      "name": "Xbox 360"
    }
  ],
  "provider_games": [
    {
      "name": "Thrillville: Off the Rails",
      "slug": "6080",
      "service": "steam"
    },
    {
      "name": "Thrillville: Off the Rails",
      "slug": "thrillville-off-the-rails",
      "service": "igdb"
    }
  ],
  "aliases": [],
  "shaders": [],
  "discord_id": "",
  "change_for": null
}