{
  "id": 111495,
  "name": "Walking With Beasts: Operation Salvage",
  "slug": "walking-with-beasts-operation-salvage",
  "year": 2001,
  "banner_url": "",
  "icon_url": "",
  "coverart": "https://lutris.net/media/igdb/cover_big/co30ge.jpg",
  "platforms": [
    {
      "name": "Windows"
    }
  ],
  "provider_games": [
    {
      "name": "Walking With Beasts: Operation Salvage",
      "slug": "walking-with-beasts-operation-salvage",
      "service": "igdb"
    }
  ],
  "aliases": [],
  "shaders": [],
  "discord_id": "",
  "change_for": null
}