{
  "id": 248373,
  "name": "Lysfanga: The Time Shift Warrior",
  "slug": "lysfanga-the-time-shift-warrior",
  "year": 2023,
  "banner_url": "",
  "icon_url": "",
  "coverart": "https://lutris.net/media/igdb/cover_big/co6lmg.jpg",
  "platforms": [
    {
      "name": "Windows"
    }
  ],
  "provider_games": [
    {
      "name": "Lysfanga: The Time Shift Warrior",
      "slug": "lysfanga-the-time-shift-warrior",
      "service": "igdb"
    },
    {
      "name": "Lysfanga: The Time Shift Warrior",
      "slug": "1436524406",
      "service": "gog"
    }
  ],
  "aliases": [],
  "shaders": [],
  "discord_id": "",
  "change_for": null
}