{
  "id": 16241,
  "name": "Spiral Splatter",
  "slug": "spiral-splatter",
  "year": 2016,
  "banner_url": "https://lutris.net/games/banner/spiral-splatter.jpg",
  "icon_url": "https://lutris.net/games/icon/spiral-splatter.png",
  "coverart": "https://lutris.net/media/igdb/cover_big/co24tv.jpg",
  "platforms": [
    {
      "name": "Android"
    },
    {
      "name": "Linux"
    },
    {
      "name": "Mac"
    },
    {
      "name": "Nintendo Switch"
    },
    {
      "name": "PlayStation Vita"
    },
    {
      "name": "Sony Playstation 4"
    },
    {
      "name": "Windows"
    },
    {
      "name": "Xbox One"
    }
  ],
  "provider_games": [
    {
      "name": "Spiral Splatter",
      "slug": "684870",
      "service": "steam"
    },
    {
      "name": "Spiral Splatter",
      "slug": "spiral-splatter",
      "service": "igdb"
    }
  ],
  "aliases": [],
  "shaders": [],
  "discord_id": "",
  "change_for": null
}