{
  "id": 73544,
  "name": "Cafe Ehaburu: White Version",
  "slug": "cafe-ehaburu-white-version",
  "year": null,
  "banner_url": "",
  "icon_url": "",
  "coverart": null,
  "platforms": [],
  "provider_games": [
    {
      "name": "Cafe Ehaburu: White Version",
      "slug": "cafe-ehaburu-white-version",
      "service": "igdb"
    }
  ],
  "aliases": [],
  "shaders": [],
  "discord_id": "",
  "change_for": null
}