{
  "id": 294270,
  "name": "Gallop Racer",
  "slug": "gallop-racer--3",
  "year": 2013,
  "banner_url": "",
  "icon_url": "",
  "coverart": null,
  "platforms": [
    {
      "name": "Android"
    }
  ],
  "provider_games": [
    {
      "name": "Gallop Racer",
      "slug": "gallop-racer--3",
      "service": "igdb"
    }
  ],
  "aliases": [],
  "shaders": [],
  "discord_id": "",
  "change_for": null
}