{
  "id": 263820,
  "name": "Umineko no Naku Koro ni: Last Note of the Golden Witch",
  "slug": "umineko-no-naku-koro-ni-last-note-of-the-golden-witch",
  "year": 2021,
  "banner_url": "",
  "icon_url": "",
  "coverart": "https://lutris.net/media/igdb/cover_big/co792e.jpg",
  "platforms": [
    {
      "name": "Nintendo Switch"
    },
    {
      "name": "Sony Playstation 4"
    }
  ],
  "provider_games": [
    {
      "name": "Umineko no Naku Koro ni: Last Note of the Golden Witch",
      "slug": "umineko-no-naku-koro-ni-last-note-of-the-golden-witch",
      "service": "igdb"
    }
  ],
  "aliases": [],
  "shaders": [],
  "discord_id": "",
  "change_for": null
}