{
  "id": 261895,
  "name": "Bomber",
  "slug": "bomber--4",
  "year": null,
  "banner_url": "",
  "icon_url": "",
  "coverart": "https://lutris.net/media/igdb/cover_big/co76vr.jpg",
  "platforms": [],
  "provider_games": [
    {
      "name": "Bomber",
      "slug": "bomber--4",
      "service": "igdb"
    }
  ],
  "aliases": [],
  "shaders": [],
  "discord_id": "",
  "change_for": null
}