{
  "id": 282578,
  "name": "Run Run Bird!",
  "slug": "run-run-bird",
  "year": null,
  "banner_url": "",
  "icon_url": "",
  "coverart": "https://lutris.net/media/igdb/cover_big/co81uq.jpg",
  "platforms": [],
  "provider_games": [
    {
      "name": "Run Run Bird!",
      "slug": "run-run-bird",
      "service": "igdb"
    }
  ],
  "aliases": [],
  "shaders": [],
  "discord_id": "",
  "change_for": null
}