{
  "id": 36343,
  "name": "Vortex",
  "slug": "vortex-1",
  "year": 1980,
  "banner_url": "",
  "icon_url": "https://lutris.net/games/icon/vortex-1.png",
  "coverart": null,
  "platforms": [
    {
      "name": "Arcade"
    }
  ],
  "provider_games": [
    {
      "name": "Vortex",
      "slug": "vortex",
      "service": "mame"
    }
  ],
  "aliases": [],
  "shaders": [],
  "discord_id": "",
  "change_for": null
}