{
  "id": 93281,
  "name": "Jungle Care Taker",
  "slug": "jungle-care-taker",
  "year": null,
  "banner_url": "",
  "icon_url": "",
  "coverart": null,
  "platforms": [],
  "provider_games": [
    {
      "name": "Jungle Care Taker",
      "slug": "jungle-care-taker",
      "service": "igdb"
    }
  ],
  "aliases": [],
  "shaders": [],
  "discord_id": "",
  "change_for": null
}