{
  "id": 2186,
  "name": "Reaper - Tale of a Pale Swordsman",
  "slug": "reaper-tale-of-a-pale-swordsman",
  "year": null,
  "banner_url": "https://lutris.net/games/banner/reaper-tale-of-a-pale-swordsman.jpg",
  "icon_url": "https://lutris.net/games/icon/reaper-tale-of-a-pale-swordsman.png",
  "coverart": null,
  "platforms": [],
  "provider_games": [
    {
      "name": "Reaper - Tale of a Pale Swordsman",
      "slug": "269370",
      "service": "steam"
    }
  ],
  "aliases": [],
  "shaders": [],
  "discord_id": "",
  "change_for": null
}