{
  "id": 140663,
  "name": "Slide Stories: Bonds & Memories",
  "slug": "slide-stories-bonds-and-memories",
  "year": null,
  "banner_url": "",
  "icon_url": "",
  "coverart": "https://lutris.net/media/igdb/cover_big/co3smh.jpg",
  "platforms": [],
  "provider_games": [
    {
      "name": "Slide Stories: Bonds & Memories",
      "slug": "slide-stories-bonds-and-memories",
      "service": "igdb"
    }
  ],
  "aliases": [],
  "shaders": [],
  "discord_id": "",
  "change_for": null
}