{
  "id": 202454,
  "name": "Robozarro 2: Operation Atlantic",
  "slug": "robozarro-2-operation-atlantic",
  "year": null,
  "banner_url": "",
  "icon_url": "",
  "coverart": "https://lutris.net/media/igdb/cover_big/co4h32.jpg",
  "platforms": [],
  "provider_games": [
    {
      "name": "Robozarro 2: Operation Atlantic",
      "slug": "robozarro-2-operation-atlantic",
      "service": "igdb"
    }
  ],
  "aliases": [],
  "shaders": [],
  "discord_id": "",
  "change_for": null
}