{
  "id": 265155,
  "name": "Star Stone Splash",
  "slug": "star-stone-splash",
  "year": null,
  "banner_url": "",
  "icon_url": "",
  "coverart": "https://lutris.net/media/igdb/cover_big/co7az7.jpg",
  "platforms": [],
  "provider_games": [
    {
      "name": "Star Stone Splash",
      "slug": "star-stone-splash",
      "service": "igdb"
    }
  ],
  "aliases": [],
  "shaders": [],
  "discord_id": "",
  "change_for": null
}