{
  "id": 192290,
  "name": "Techwars Global Conflict: Birthday Edition",
  "slug": "techwars-global-conflict-birthday-edition",
  "year": 2021,
  "banner_url": "",
  "icon_url": "",
  "coverart": "https://lutris.net/media/igdb/cover_big/co4e1c.jpg",
  "platforms": [
    {
      "name": "Xbox One"
    }
  ],
  "provider_games": [
    {
      "name": "Techwars Global Conflict: Birthday Edition",
      "slug": "techwars-global-conflict-birthday-edition",
      "service": "igdb"
    }
  ],
  "aliases": [],
  "shaders": [],
  "discord_id": "",
  "change_for": null
}