{
  "id": 51150,
  "name": "Karnaaj Rally",
  "slug": "karnaaj-rally",
  "year": 2002,
  "banner_url": "",
  "icon_url": "",
  "coverart": "https://lutris.net/media/igdb/cover_big/rpx7hayhe7g9o5uvmozo.jpg",
  "platforms": [
    {
      "name": "Nintendo Game Boy Advance"
    }
  ],
  "provider_games": [
    {
      "name": "Karnaaj Rally",
      "slug": "karnaaj-rally",
      "service": "igdb"
    }
  ],
  "aliases": [],
  "shaders": [],
  "discord_id": "",
  "change_for": null
}