{
  "id": 16328,
  "name": "Medal of Honor: Rising Sun",
  "slug": "medal-of-honor-rising-sun",
  "year": 2003,
  "banner_url": "https://lutris.net/games/banner/medal-of-honor-rising-sun.jpg",
  "icon_url": "",
  "coverart": "https://lutris.net/media/igdb/cover_big/co2u6y.jpg",
  "platforms": [
    {
      "name": "GameCube"
    },
    {
      "name": "Nintendo GameCube"
    },
    {
      "name": "Sony PlayStation 2"
    }
  ],
  "provider_games": [
    {
      "name": "Medal of Honor: Rising Sun",
      "slug": "medal-of-honor-rising-sun",
      "service": "igdb"
    }
  ],
  "aliases": [],
  "shaders": [],
  "discord_id": "",
  "change_for": null
}