{
  "id": 75873,
  "name": "Pyramid 2097",
  "slug": "pyramid-2097",
  "year": null,
  "banner_url": "",
  "icon_url": "",
  "coverart": null,
  "platforms": [],
  "provider_games": [
    {
      "name": "Pyramid 2097",
      "slug": "pyramid-2097",
      "service": "igdb"
    }
  ],
  "aliases": [],
  "shaders": [],
  "discord_id": "",
  "change_for": null
}