{
  "id": 152312,
  "name": "The Curse of Illmoore Bay",
  "slug": "the-curse-of-illmoore-bay",
  "year": null,
  "banner_url": "",
  "icon_url": "",
  "coverart": "https://lutris.net/media/igdb/cover_big/co3tlc.jpg",
  "platforms": [],
  "provider_games": [
    {
      "name": "The Curse of Illmoore Bay",
      "slug": "the-curse-of-illmoore-bay",
      "service": "igdb"
    }
  ],
  "aliases": [],
  "shaders": [],
  "discord_id": "",
  "change_for": null
}