{
  "id": 248440,
  "name": "Lueur and the Dim Settlers",
  "slug": "lueur-and-the-dim-settlers",
  "year": null,
  "banner_url": "",
  "icon_url": "",
  "coverart": null,
  "platforms": [
    {
      "name": "Nintendo Switch"
    },
    {
      "name": "Windows"
    }
  ],
  "provider_games": [
    {
      "name": "Lueur and the Dim Settlers",
      "slug": "lueur-and-the-dim-settlers",
      "service": "igdb"
    }
  ],
  "aliases": [],
  "shaders": [],
  "discord_id": "",
  "change_for": null
}