{
  "id": 112024,
  "name": "Purin-chan's Boxing Gym 2",
  "slug": "purin-chans-boxing-gym-2",
  "year": null,
  "banner_url": "",
  "icon_url": "",
  "coverart": "https://lutris.net/media/igdb/cover_big/xjqk9amps7cpyonbopqs.jpg",
  "platforms": [],
  "provider_games": [
    {
      "name": "Purin-chan's Boxing Gym 2",
      "slug": "purin-chans-boxing-gym-2",
      "service": "igdb"
    }
  ],
  "aliases": [],
  "shaders": [],
  "discord_id": "",
  "change_for": null
}