{
  "id": 123543,
  "name": "Ashley: The Emptiness Inside",
  "slug": "ashley-the-emptiness-inside",
  "year": 2020,
  "banner_url": "",
  "icon_url": "",
  "coverart": "https://lutris.net/media/igdb/cover_big/co28me.jpg",
  "platforms": [
    {
      "name": "Windows"
    }
  ],
  "provider_games": [
    {
      "name": "Ashley: The Emptiness Inside",
      "slug": "ashley-the-emptiness-inside",
      "service": "igdb"
    }
  ],
  "aliases": [],
  "shaders": [],
  "discord_id": "",
  "change_for": null
}