{
  "id": 43895,
  "name": "Murasaki Tsurugi",
  "slug": "murasaki-tsurugi",
  "year": 2018,
  "banner_url": "https://lutris.net/games/banner/murasaki-tsurugi.jpg",
  "icon_url": "https://lutris.net/games/icon/murasaki-tsurugi.png",
  "coverart": "https://lutris.net/media/igdb/cover_big/co3pfp.jpg",
  "platforms": [
    {
      "name": "Windows"
    }
  ],
  "provider_games": [
    {
      "name": "Murasaki Tsurugi",
      "slug": "865060",
      "service": "steam"
    },
    {
      "name": "Murasaki Tsurugi",
      "slug": "murasaki-tsurugi",
      "service": "igdb"
    }
  ],
  "aliases": [],
  "shaders": [],
  "discord_id": "",
  "change_for": null
}