{
  "id": 296441,
  "name": "Bus Simulator 21 Next Stop",
  "slug": "bus-simulator-21-next-stop",
  "year": 2021,
  "banner_url": "",
  "icon_url": "",
  "coverart": null,
  "platforms": [],
  "provider_games": [
    {
      "name": "Bus Simulator 21 Next Stop",
      "slug": "1217471463",
      "service": "gog"
    }
  ],
  "aliases": [],
  "shaders": [],
  "discord_id": "",
  "change_for": null
}