{
  "id": 165053,
  "name": "Speed Sweeper",
  "slug": "speed-sweeper",
  "year": null,
  "banner_url": "",
  "icon_url": "",
  "coverart": "https://lutris.net/media/igdb/cover_big/co41xp.jpg",
  "platforms": [],
  "provider_games": [
    {
      "name": "Speed Sweeper",
      "slug": "speed-sweeper",
      "service": "igdb"
    }
  ],
  "aliases": [],
  "shaders": [],
  "discord_id": "",
  "change_for": null
}