{
  "id": 151781,
  "name": "Pro 11",
  "slug": "pro-11",
  "year": 2017,
  "banner_url": "https://lutris.net/games/banner/pro-11.jpg",
  "icon_url": "",
  "coverart": "https://lutris.net/media/igdb/cover_big/co3vl1.jpg",
  "platforms": [
    {
      "name": "Windows"
    }
  ],
  "provider_games": [
    {
      "name": "Pro 11",
      "slug": "844960",
      "service": "steam"
    },
    {
      "name": "Pro 11",
      "slug": "pro-11",
      "service": "igdb"
    }
  ],
  "aliases": [],
  "shaders": [],
  "discord_id": "",
  "change_for": null
}