{
  "id": 17564,
  "name": "Frequent Flier: A Long Distance Love Story",
  "slug": "frequent-flier-a-long-distance-love-story",
  "year": 2018,
  "banner_url": "https://lutris.net/games/banner/frequent-flier-a-long-distance-love-story.jpg",
  "icon_url": "https://lutris.net/games/icon/frequent-flier-a-long-distance-love-story.png",
  "coverart": null,
  "platforms": [
    {
      "name": "Linux"
    }
  ],
  "provider_games": [
    {
      "name": "Frequent Flier: A Long Distance Love Story",
      "slug": "807770",
      "service": "steam"
    }
  ],
  "aliases": [],
  "shaders": [],
  "discord_id": "",
  "change_for": null
}