{
  "id": 10813,
  "game_id": 23238,
  "game_slug": "heroes-of-might-magic-v-gold-edition",
  "name": "Heroes of Might & Magic V Gold Edition",
  "year": 2007,
  "user": "secon",
  "runner": "wine",
  "slug": "heroes-of-might-magic-v-gold-cd",
  "version": "CD",
  "description": "Not Tested Yet",
  "notes": "",
  "credits": "",
  "created_at": "2018-11-09T00:16:29.712911Z",
  "updated_at": "2018-11-09T06:20:29.292410Z",
  "draft": false,
  "published": true,
  "published_by": 20548,
  "rating": "",
  "is_playable": null,
  "steamid": null,
  "gogid": null,
  "gogslug": "",
  "humbleid": "",
  "humblestoreid": "",
  "humblestoreid_real": "",
  "script": {
    "game": {
      "arch": "win64",
      "exe": null,
      "prefix": "$GAMEDIR"
    },
    "installer": [
      {
        "task": {
          "insert-disc": null,
          "name": "Checking first Disc",
          "requires": "$DISC/H5/Setup.exe"
        }
      },
      {
        "task": {
          "executable": "$DISC/H5/Setup.exe",
          "name": "Installing Heroes of Might & Magic V"
        }
      },
      {
        "task": {
          "executable": "$DISC/H5A/Setup.exe",
          "name": "Installing Heroes of Might & Magic V Hammers of Fate"
        }
      },
      {
        "task": {
          "name": "Checking second Disc",
          "requires": "$DISC/ikernel.ex_"
        }
      },
      {
        "task": {
          "executable": "$DISC/Setup.exe",
          "name": "Installing Heroes of Might & Magic V Tribes of the East"
        }
      }
    ]
  },
  "content": "game:\n  arch: win64\n  exe: null\n  prefix: $GAMEDIR\ninstaller:\n- task:\n    insert-disc: null\n    name: Checking first Disc\n    requires: $DISC/H5/Setup.exe\n- task:\n    executable: $DISC/H5/Setup.exe\n    name: Installing Heroes of Might & Magic V\n- task:\n    executable: $DISC/H5A/Setup.exe\n    name: Installing Heroes of Might & Magic V Hammers of Fate\n- task:\n    name: Checking second Disc\n    requires: $DISC/ikernel.ex_\n- task:\n    executable: $DISC/Setup.exe\n    name: Installing Heroes of Might & Magic V Tribes of the East\n",
  "discord_id": ""
}