{
  "id": 258,
  "game_id": 493,
  "game_slug": "postal",
  "name": "POSTAL",
  "year": 1997,
  "user": "strider",
  "runner": "steam",
  "slug": "postal-steam",
  "version": "steam",
  "description": null,
  "notes": "",
  "credits": "",
  "created_at": "2013-12-19T23:56:20.094000Z",
  "updated_at": "2013-12-19T23:56:20.095000Z",
  "draft": false,
  "published": true,
  "published_by": null,
  "rating": "",
  "is_playable": null,
  "steamid": 232770,
  "gogid": null,
  "gogslug": "",
  "humbleid": "",
  "humblestoreid": "",
  "humblestoreid_real": "",
  "script": {
    "game": {
      "appid": 232770
    }
  },
  "content": "game:\n  appid: 232770\n",
  "discord_id": ""
}