{
  "id": 18156,
  "name": "Bubble Bobble Evolution",
  "slug": "bubble-bobble-evolution",
  "year": 2005,
  "banner_url": "https://lutris.net/games/banner/bubble-bobble-evolution.jpg",
  "icon_url": "",
  "coverart": "https://lutris.net/media/igdb/cover_big/co2oft.jpg",
  "platforms": [
    {
      "name": "Sony PSP"
    }
  ],
  "provider_games": [
    {
      "name": "Bubble Bobble Evolution",
      "slug": "bubble-bobble-evolution",
      "service": "igdb"
    }
  ],
  "aliases": [],
  "shaders": [],
  "discord_id": "",
  "change_for": null
}