{
  "id": 27250,
  "name": "Mega Man: Maverick Hunter X",
  "slug": "mega-man-maverick-hunter-x",
  "year": 2006,
  "banner_url": "https://lutris.net/games/banner/mega-man-maverick-hunter-x.jpg",
  "icon_url": "",
  "coverart": "https://lutris.net/media/igdb/cover_big/co2035.jpg",
  "platforms": [
    {
      "name": "Sony PSP"
    }
  ],
  "provider_games": [
    {
      "name": "Mega Man: Maverick Hunter X",
      "slug": "mega-man-maverick-hunter-x",
      "service": "igdb"
    }
  ],
  "aliases": [],
  "shaders": [],
  "discord_id": "",
  "change_for": null
}