{
  "id": 101295,
  "name": "Forward Assault",
  "slug": "forward-assault",
  "year": 2017,
  "banner_url": "",
  "icon_url": "",
  "coverart": "https://lutris.net/media/igdb/cover_big/co2jgp.jpg",
  "platforms": [
    {
      "name": "Legacy Cellphone"
    }
  ],
  "provider_games": [
    {
      "name": "Forward Assault",
      "slug": "forward-assault",
      "service": "igdb"
    }
  ],
  "aliases": [],
  "shaders": [],
  "discord_id": "",
  "change_for": null
}