{
  "id": 115128,
  "name": "BSL Winter Game Challenge",
  "slug": "bsl-winter-game-challenge",
  "year": 2017,
  "banner_url": "",
  "icon_url": "",
  "coverart": "https://lutris.net/media/igdb/cover_big/co26x9.jpg",
  "platforms": [
    {
      "name": "Windows"
    }
  ],
  "provider_games": [
    {
      "name": "BSL Winter Game Challenge",
      "slug": "bsl-winter-game-challenge",
      "service": "igdb"
    }
  ],
  "aliases": [],
  "shaders": [],
  "discord_id": "",
  "change_for": null
}