{
  "id": 164061,
  "name": "Shard of Kronos",
  "slug": "shard-of-kronos",
  "year": null,
  "banner_url": "",
  "icon_url": "",
  "coverart": "https://lutris.net/media/igdb/cover_big/co4107.jpg",
  "platforms": [],
  "provider_games": [
    {
      "name": "Shard of Kronos",
      "slug": "shard-of-kronos",
      "service": "igdb"
    }
  ],
  "aliases": [],
  "shaders": [],
  "discord_id": "",
  "change_for": null
}