{
  "id": 189844,
  "name": "Tetragon",
  "slug": "tetragon",
  "year": 2021,
  "banner_url": "https://lutris.net/games/banner/tetragon.jpg",
  "icon_url": "",
  "coverart": "https://lutris.net/media/igdb/cover_big/co1w7g.jpg",
  "platforms": [
    {
      "name": "Nintendo Switch"
    },
    {
      "name": "Sony Playstation 4"
    },
    {
      "name": "Windows"
    },
    {
      "name": "Xbox One"
    }
  ],
  "provider_games": [
    {
      "name": "Tetragon",
      "slug": "tetragon",
      "service": "igdb"
    },
    {
      "name": "Tetragon",
      "slug": "1545850",
      "service": "steam"
    }
  ],
  "aliases": [],
  "shaders": [],
  "discord_id": "",
  "change_for": null
}