{
  "id": 234299,
  "name": "Lovelorn Sanatorium Ⅲ",
  "slug": "lovelorn-sanatorium-iii",
  "year": null,
  "banner_url": "",
  "icon_url": "",
  "coverart": "https://lutris.net/media/igdb/cover_big/co679h.jpg",
  "platforms": [],
  "provider_games": [
    {
      "name": "Lovelorn Sanatorium Ⅲ",
      "slug": "lovelorn-sanatorium-iii",
      "service": "igdb"
    }
  ],
  "aliases": [],
  "shaders": [],
  "discord_id": "",
  "change_for": null
}