{
  "id": 268423,
  "name": "Doctor Fizzwizzle's Animal Rescue",
  "slug": "doctor-fizzwizzles-animal-rescue",
  "year": 2009,
  "banner_url": "",
  "icon_url": "",
  "coverart": null,
  "platforms": [
    {
      "name": "Nintendo Wii"
    }
  ],
  "provider_games": [
    {
      "name": "Doctor Fizzwizzle's Animal Rescue",
      "slug": "doctor-fizzwizzles-animal-rescue",
      "service": "igdb"
    }
  ],
  "aliases": [],
  "shaders": [],
  "discord_id": "",
  "change_for": null
}