{
  "id": 65724,
  "name": "The Railroad Works",
  "slug": "the-railroad-works",
  "year": null,
  "banner_url": "",
  "icon_url": "",
  "coverart": "https://lutris.net/media/igdb/cover_big/zfvgslpkampp5ocymxfx.jpg",
  "platforms": [],
  "provider_games": [
    {
      "name": "The Railroad Works",
      "slug": "the-railroad-works",
      "service": "igdb"
    }
  ],
  "aliases": [],
  "shaders": [],
  "discord_id": "",
  "change_for": null
}