{
  "id": 230956,
  "name": "Exhibitors",
  "slug": "exhibitors",
  "year": null,
  "banner_url": "",
  "icon_url": "",
  "coverart": "https://lutris.net/media/igdb/cover_big/co6e36.jpg",
  "platforms": [],
  "provider_games": [
    {
      "name": "Exhibitors",
      "slug": "exhibitors",
      "service": "igdb"
    }
  ],
  "aliases": [],
  "shaders": [],
  "discord_id": "",
  "change_for": null
}