{
  "id": 59005,
  "name": "Guardians of the Forest",
  "slug": "guardians-of-the-forest",
  "year": null,
  "banner_url": "",
  "icon_url": "",
  "coverart": "https://lutris.net/media/igdb/cover_big/jfwxw870rwjsfu4tgauj.jpg",
  "platforms": [],
  "provider_games": [
    {
      "name": "Guardians of the Forest",
      "slug": "guardians-of-the-forest",
      "service": "igdb"
    }
  ],
  "aliases": [],
  "shaders": [],
  "discord_id": "",
  "change_for": null
}