{
  "id": 21936,
  "game_id": 32308,
  "game_slug": "one-step-from-eden",
  "name": "One Step From Eden",
  "year": 2020,
  "user": "bonaccolto90",
  "runner": "wine",
  "slug": "one-step-from-eden-gog",
  "version": "GOG",
  "description": null,
  "notes": "",
  "credits": "",
  "created_at": "2020-06-25T13:48:41.266000Z",
  "updated_at": "2021-01-10T08:27:31.239437Z",
  "draft": false,
  "published": true,
  "published_by": 1,
  "rating": "",
  "is_playable": null,
  "steamid": 960690,
  "gogid": 1112715616,
  "gogslug": "one_step_from_eden",
  "humbleid": "",
  "humblestoreid": "",
  "humblestoreid_real": "",
  "script": {
    "files": [
      {
        "installer": "N/A:Select the game's setup file"
      }
    ],
    "game": {
      "arch": "win64",
      "exe": "drive_c/GOG Games/One Step From Eden/OSFE.exe",
      "prefix": "$GAMEDIR"
    },
    "installer": [
      {
        "task": {
          "arch": "win64",
          "args": "/SP- /NOCANCEL /SUPPRESSMSGBOXES /NOGUI",
          "executable": "installer",
          "name": "wineexec",
          "prefix": "$GAMEDIR"
        }
      },
      {
        "task": {
          "app": "mf",
          "name": "winetricks",
          "prefix": "$GAMEDIR"
        }
      }
    ]
  },
  "content": "files:\n- installer: N/A:Select the game's setup file\ngame:\n  arch: win64\n  exe: drive_c/GOG Games/One Step From Eden/OSFE.exe\n  prefix: $GAMEDIR\ninstaller:\n- task:\n    arch: win64\n    args: /SP- /NOCANCEL /SUPPRESSMSGBOXES /NOGUI\n    executable: installer\n    name: wineexec\n    prefix: $GAMEDIR\n- task:\n    app: mf\n    name: winetricks\n    prefix: $GAMEDIR\n",
  "discord_id": ""
}