{
  "id": 253728,
  "name": "Primal Earth",
  "slug": "primal-earth",
  "year": null,
  "banner_url": "",
  "icon_url": "",
  "coverart": "https://lutris.net/media/igdb/cover_big/co6tqg.jpg",
  "platforms": [],
  "provider_games": [
    {
      "name": "Primal Earth",
      "slug": "primal-earth",
      "service": "igdb"
    }
  ],
  "aliases": [],
  "shaders": [],
  "discord_id": "",
  "change_for": null
}