{
  "id": 7879,
  "name": "SWOOOP",
  "slug": "swooop",
  "year": null,
  "banner_url": "https://lutris.net/games/banner/swooop.jpg",
  "icon_url": "",
  "coverart": null,
  "platforms": [
    {
      "name": "Browser"
    }
  ],
  "provider_games": [],
  "aliases": [],
  "shaders": [],
  "discord_id": "",
  "change_for": null
}