{
  "id": 192176,
  "name": "Outpost Defender 2-Beta",
  "slug": "outpost-defender-2-beta",
  "year": 2022,
  "banner_url": "https://lutris.net/games/banner/outpost-defender-2-beta.jpg",
  "icon_url": "",
  "coverart": null,
  "platforms": [
    {
      "name": "Linux"
    },
    {
      "name": "Windows"
    }
  ],
  "provider_games": [],
  "aliases": [],
  "shaders": [],
  "discord_id": "",
  "change_for": null
}