{
  "id": 273449,
  "name": "Durium Hospital Lost Tape 95",
  "slug": "durium-hospital-lost-tape-95",
  "year": 2023,
  "banner_url": "",
  "icon_url": "",
  "coverart": "https://lutris.net/media/igdb/cover_big/co7q18.jpg",
  "platforms": [
    {
      "name": "Windows"
    }
  ],
  "provider_games": [
    {
      "name": "Durium Hospital Lost Tape 95",
      "slug": "durium-hospital-lost-tape-95",
      "service": "igdb"
    }
  ],
  "aliases": [],
  "shaders": [],
  "discord_id": "",
  "change_for": null
}