{
  "id": 161591,
  "name": "Batman Returns",
  "slug": "batman-returns--2",
  "year": 1993,
  "banner_url": "",
  "icon_url": "",
  "coverart": "https://lutris.net/media/igdb/cover_big/co3zci.jpg",
  "platforms": [],
  "provider_games": [
    {
      "name": "Batman Returns",
      "slug": "batman-returns--2",
      "service": "igdb"
    }
  ],
  "aliases": [],
  "shaders": [],
  "discord_id": "",
  "change_for": null
}