{
  "id": 233178,
  "name": "Fly Fishing 3D II",
  "slug": "fly-fishing-3d-ii",
  "year": null,
  "banner_url": "",
  "icon_url": "",
  "coverart": null,
  "platforms": [],
  "provider_games": [
    {
      "name": "Fly Fishing 3D II",
      "slug": "fly-fishing-3d-ii",
      "service": "igdb"
    }
  ],
  "aliases": [],
  "shaders": [],
  "discord_id": "",
  "change_for": null
}