{
  "id": 214316,
  "name": "Merge Dotey",
  "slug": "merge-dotey",
  "year": null,
  "banner_url": "",
  "icon_url": "",
  "coverart": null,
  "platforms": [],
  "provider_games": [
    {
      "name": "Merge Dotey",
      "slug": "merge-dotey",
      "service": "igdb"
    }
  ],
  "aliases": [],
  "shaders": [],
  "discord_id": "",
  "change_for": null
}