{
  "id": 99042,
  "name": "Wi-Fi Taiou Yakuman DS",
  "slug": "wi-fi-taiou-yakuman-ds",
  "year": null,
  "banner_url": "",
  "icon_url": "",
  "coverart": null,
  "platforms": [],
  "provider_games": [
    {
      "name": "Wi-Fi Taiou Yakuman DS",
      "slug": "wi-fi-taiou-yakuman-ds",
      "service": "igdb"
    }
  ],
  "aliases": [],
  "shaders": [],
  "discord_id": "",
  "change_for": null
}