{
  "id": 200264,
  "name": "Bugs From Space",
  "slug": "bugs-from-space",
  "year": null,
  "banner_url": "",
  "icon_url": "",
  "coverart": "https://lutris.net/media/igdb/cover_big/co4ed3.jpg",
  "platforms": [],
  "provider_games": [
    {
      "name": "Bugs From Space",
      "slug": "bugs-from-space",
      "service": "igdb"
    }
  ],
  "aliases": [],
  "shaders": [],
  "discord_id": "",
  "change_for": null
}