{
  "id": 225649,
  "name": "Bookstore Simulator",
  "slug": "bookstore-simulator",
  "year": null,
  "banner_url": "",
  "icon_url": "",
  "coverart": "https://lutris.net/media/igdb/cover_big/co5c35.jpg",
  "platforms": [],
  "provider_games": [
    {
      "name": "Bookstore Simulator",
      "slug": "bookstore-simulator",
      "service": "igdb"
    }
  ],
  "aliases": [],
  "shaders": [],
  "discord_id": "",
  "change_for": null
}