{
  "id": 23492,
  "name": "Shrouded Tales: Revenge of Shadows Collector's Edition",
  "slug": "shrouded-tales-revenge-of-shadows-collectors-editi",
  "year": null,
  "banner_url": "https://lutris.net/games/banner/shrouded-tales-revenge-of-shadows-collectors-editi.jpg",
  "icon_url": "https://lutris.net/games/icon/shrouded-tales-revenge-of-shadows-collectors-editi.png",
  "coverart": null,
  "platforms": [],
  "provider_games": [
    {
      "name": "Shrouded Tales: Revenge of Shadows Collector's Edition",
      "slug": "647940",
      "service": "steam"
    }
  ],
  "aliases": [],
  "shaders": [],
  "discord_id": "",
  "change_for": null
}