{
  "id": 224313,
  "name": "Penguins Can Fly",
  "slug": "penguins-can-fly",
  "year": null,
  "banner_url": "",
  "icon_url": "",
  "coverart": "https://lutris.net/media/igdb/cover_big/co5kd4.jpg",
  "platforms": [],
  "provider_games": [
    {
      "name": "Penguins Can Fly",
      "slug": "penguins-can-fly",
      "service": "igdb"
    }
  ],
  "aliases": [],
  "shaders": [],
  "discord_id": "",
  "change_for": null
}