{
  "id": 243281,
  "name": "Elevator",
  "slug": "elevator--2",
  "year": null,
  "banner_url": "",
  "icon_url": "",
  "coverart": "https://lutris.net/media/igdb/cover_big/co6eyt.jpg",
  "platforms": [],
  "provider_games": [
    {
      "name": "Elevator",
      "slug": "elevator--2",
      "service": "igdb"
    }
  ],
  "aliases": [],
  "shaders": [],
  "discord_id": "",
  "change_for": null
}