{
  "id": 111277,
  "name": "MotoGP 13 Compact",
  "slug": "motogp-13-compact",
  "year": 2013,
  "banner_url": "",
  "icon_url": "",
  "coverart": "https://lutris.net/media/igdb/cover_big/co305w.jpg",
  "platforms": [
    {
      "name": "PlayStation Vita"
    },
    {
      "name": "Sony Playstation 3"
    }
  ],
  "provider_games": [
    {
      "name": "MotoGP 13 Compact",
      "slug": "motogp-13-compact",
      "service": "igdb"
    }
  ],
  "aliases": [],
  "shaders": [],
  "discord_id": "",
  "change_for": null
}