{
  "id": 304929,
  "name": "Cooking Beena: o-Ryouri Dekichatta!",
  "slug": "cooking-beena-o-ryouri-dekichatta",
  "year": 2007,
  "banner_url": "",
  "icon_url": "",
  "coverart": "https://lutris.net/media/igdb/cover_big/co990t.jpg",
  "platforms": [],
  "provider_games": [
    {
      "name": "Cooking Beena: o-Ryouri Dekichatta!",
      "slug": "cooking-beena-o-ryouri-dekichatta",
      "service": "igdb"
    }
  ],
  "aliases": [],
  "shaders": [],
  "discord_id": "",
  "change_for": null
}