{
  "id": 56121,
  "name": "Sea Trader: Rise of Taipan",
  "slug": "sea-trader-rise-of-taipan",
  "year": 2003,
  "banner_url": "",
  "icon_url": "",
  "coverart": "https://lutris.net/media/igdb/cover_big/co1yto.jpg",
  "platforms": [
    {
      "name": "Nintendo Game Boy Advance"
    }
  ],
  "provider_games": [
    {
      "name": "Sea Trader: Rise of Taipan",
      "slug": "sea-trader-rise-of-taipan",
      "service": "igdb"
    }
  ],
  "aliases": [],
  "shaders": [],
  "discord_id": "",
  "change_for": null
}