{
  "id": 42408,
  "name": "Blue Fire",
  "slug": "blue-fire",
  "year": 2021,
  "banner_url": "https://lutris.net/games/banner/blue-fire.jpg",
  "icon_url": "https://lutris.net/games/icon/blue-fire.png",
  "coverart": "https://lutris.net/media/igdb/cover_big/co20ym.jpg",
  "platforms": [
    {
      "name": "Google Stadia"
    },
    {
      "name": "Nintendo Switch"
    },
    {
      "name": "Sony Playstation 4"
    },
    {
      "name": "Windows"
    },
    {
      "name": "Xbox One"
    }
  ],
  "provider_games": [
    {
      "name": "Blue Fire",
      "slug": "1220150",
      "service": "steam"
    },
    {
      "name": "Blue Fire",
      "slug": "1280776741",
      "service": "gog"
    },
    {
      "name": "Blue Fire",
      "slug": "blue-fire",
      "service": "igdb"
    }
  ],
  "aliases": [],
  "shaders": [],
  "discord_id": "",
  "change_for": null
}