{
  "id": 46802,
  "name": "Soda Shaq Basketball",
  "slug": "soda-shaq-basketball",
  "year": null,
  "banner_url": "",
  "icon_url": "",
  "coverart": "https://lutris.net/media/igdb/cover_big/dupkedptrospl8lxke6h.jpg",
  "platforms": [],
  "provider_games": [
    {
      "name": "Soda Shaq Basketball",
      "slug": "soda-shaq-basketball",
      "service": "igdb"
    }
  ],
  "aliases": [],
  "shaders": [],
  "discord_id": "",
  "change_for": null
}