{
  "id": 163018,
  "name": "Doodle Jump",
  "slug": "doodle-jump",
  "year": 2009,
  "banner_url": "",
  "icon_url": "",
  "coverart": "https://lutris.net/media/igdb/cover_big/co228c.jpg",
  "platforms": [
    {
      "name": "Android"
    },
    {
      "name": "Nintendo 3DS"
    },
    {
      "name": "Nintendo DS"
    },
    {
      "name": "Windows Phone"
    },
    {
      "name": "Xbox 360"
    }
  ],
  "provider_games": [
    {
      "name": "Doodle Jump",
      "slug": "doodle-jump",
      "service": "igdb"
    }
  ],
  "aliases": [],
  "shaders": [],
  "discord_id": "",
  "change_for": null
}