{
  "id": 295215,
  "name": "Ecchi Time: Mia Edition",
  "slug": "ecchi-time-mia-edition",
  "year": 2024,
  "banner_url": "",
  "icon_url": "",
  "coverart": null,
  "platforms": [
    {
      "name": "Nintendo Switch"
    }
  ],
  "provider_games": [
    {
      "name": "Ecchi Time: Mia Edition",
      "slug": "ecchi-time-mia-edition",
      "service": "igdb"
    }
  ],
  "aliases": [],
  "shaders": [],
  "discord_id": "",
  "change_for": null
}