{
  "id": 38775,
  "game_id": 291374,
  "game_slug": "the-bridge-to-yesterday",
  "name": "The Bridge to Yesterday",
  "year": null,
  "user": "vanstaveren",
  "runner": "steam",
  "slug": "the-bridge-to-yesterday-steam",
  "version": "steam",
  "description": "",
  "notes": "",
  "credits": "",
  "created_at": "2024-09-08T23:47:42.782173Z",
  "updated_at": "2024-09-08T23:47:42.782207Z",
  "draft": false,
  "published": true,
  "published_by": null,
  "rating": "",
  "is_playable": null,
  "steamid": null,
  "gogid": null,
  "gogslug": "",
  "humbleid": "",
  "humblestoreid": "",
  "humblestoreid_real": "",
  "script": {
    "game": {
      "appid": 2786840
    }
  },
  "content": "game:\n  appid: 2786840\n",
  "discord_id": ""
}