{
  "id": 288792,
  "name": "FIFA Superstars",
  "slug": "fifa-superstars",
  "year": 2010,
  "banner_url": "",
  "icon_url": "",
  "coverart": "https://lutris.net/media/igdb/cover_big/co8aoz.jpg",
  "platforms": [
    {
      "name": "Browser"
    }
  ],
  "provider_games": [
    {
      "name": "FIFA Superstars",
      "slug": "fifa-superstars",
      "service": "igdb"
    }
  ],
  "aliases": [],
  "shaders": [],
  "discord_id": "",
  "change_for": null
}