{
  "id": 59027,
  "name": "Tethernum",
  "slug": "tethernum",
  "year": null,
  "banner_url": "",
  "icon_url": "",
  "coverart": "https://lutris.net/media/igdb/cover_big/a6v9rke9fp3faspbkf27.jpg",
  "platforms": [],
  "provider_games": [
    {
      "name": "Tethernum",
      "slug": "tethernum",
      "service": "igdb"
    }
  ],
  "aliases": [],
  "shaders": [],
  "discord_id": "",
  "change_for": null
}