{
  "id": 94755,
  "name": "Doomed Heretic",
  "slug": "doomed-heretic",
  "year": null,
  "banner_url": "",
  "icon_url": "",
  "coverart": null,
  "platforms": [],
  "provider_games": [
    {
      "name": "Doomed Heretic",
      "slug": "doomed-heretic",
      "service": "igdb"
    }
  ],
  "aliases": [],
  "shaders": [],
  "discord_id": "",
  "change_for": null
}