{
  "id": 29127,
  "name": "Veil of Darkness",
  "slug": "veil-of-darkness",
  "year": 1993,
  "banner_url": "https://lutris.net/games/banner/veil-of-darkness.jpg",
  "icon_url": "",
  "coverart": "https://lutris.net/media/igdb/cover_big/co2uoy.jpg",
  "platforms": [
    {
      "name": "FM Towns"
    },
    {
      "name": "MS-DOS"
    },
    {
      "name": "PC-98"
    }
  ],
  "provider_games": [
    {
      "name": "Veil of Darkness",
      "slug": "veil-of-darkness",
      "service": "igdb"
    },
    {
      "name": "Veil of Darkness",
      "slug": "2105995113",
      "service": "gog"
    }
  ],
  "aliases": [],
  "shaders": [],
  "discord_id": "",
  "change_for": null
}