{
  "id": 3329,
  "game_id": 8797,
  "game_slug": "adam-and-eve-the-game-chapter-1",
  "name": "Adam and Eve: The Game - Chapter 1",
  "year": 2016,
  "user": "uso",
  "runner": "steam",
  "slug": "adam-and-eve-the-game-chapter-steam",
  "version": "Steam",
  "description": "",
  "notes": "",
  "credits": "",
  "created_at": "2017-03-14T08:07:31.832865Z",
  "updated_at": "2017-03-16T22:41:58.884057Z",
  "draft": false,
  "published": true,
  "published_by": null,
  "rating": "",
  "is_playable": null,
  "steamid": 443530,
  "gogid": null,
  "gogslug": "",
  "humbleid": "",
  "humblestoreid": "",
  "humblestoreid_real": "",
  "script": {
    "game": {
      "appid": 443530
    }
  },
  "content": "game:\n  appid: 443530\n",
  "discord_id": ""
}