{
  "id": 289532,
  "name": "Memoreum",
  "slug": "memoreum",
  "year": 2025,
  "banner_url": "",
  "icon_url": "",
  "coverart": "https://lutris.net/media/igdb/cover_big/co8em5.jpg",
  "platforms": [
    {
      "name": "Oculus Quest 2"
    },
    {
      "name": "SteamVR"
    }
  ],
  "provider_games": [
    {
      "name": "Memoreum",
      "slug": "memoreum",
      "service": "igdb"
    }
  ],
  "aliases": [],
  "shaders": [],
  "discord_id": "",
  "change_for": null
}