{
  "id": 36996,
  "game_id": 22108,
  "game_slug": "fatal-velocity-physics-combat",
  "name": "Fatal Velocity: Physics Combat",
  "year": 2018,
  "user": "vanstaveren",
  "runner": "steam",
  "slug": "fatal-velocity-physics-combat-steam",
  "version": "steam",
  "description": "",
  "notes": "",
  "credits": "",
  "created_at": "2023-01-28T21:43:42.466013Z",
  "updated_at": "2023-01-28T21:43:42.466047Z",
  "draft": false,
  "published": true,
  "published_by": null,
  "rating": "",
  "is_playable": null,
  "steamid": 722620,
  "gogid": null,
  "gogslug": "",
  "humbleid": "",
  "humblestoreid": "",
  "humblestoreid_real": "",
  "script": {
    "game": {
      "appid": 722620
    }
  },
  "content": "game:\n  appid: 722620\n",
  "discord_id": ""
}