{
  "id": 188516,
  "name": "Baldi's Fun New School: Remastered",
  "slug": "baldis-fun-new-school-remastered",
  "year": null,
  "banner_url": "",
  "icon_url": "",
  "coverart": null,
  "platforms": [],
  "provider_games": [
    {
      "name": "Baldi's Fun New School: Remastered",
      "slug": "baldis-fun-new-school-remastered",
      "service": "igdb"
    }
  ],
  "aliases": [],
  "shaders": [],
  "discord_id": "",
  "change_for": null
}