{
  "id": 274847,
  "name": "Le Chat Fonce: Gnome Cafe",
  "slug": "le-chat-fonce-gnome-cafe",
  "year": 2022,
  "banner_url": "",
  "icon_url": "",
  "coverart": "https://lutris.net/media/igdb/cover_big/co7sor.jpg",
  "platforms": [
    {
      "name": "Browser"
    }
  ],
  "provider_games": [
    {
      "name": "Le Chat Fonce: Gnome Cafe",
      "slug": "le-chat-fonce-gnome-cafe",
      "service": "igdb"
    }
  ],
  "aliases": [],
  "shaders": [],
  "discord_id": "",
  "change_for": null
}