{
  "id": 282746,
  "name": "Ad Lib Ouji ...to Fuyukai na Nakama-tachi!?",
  "slug": "ad-lib-ouji-dot-dot-dot-to-fuyukai-na-nakama-tachi",
  "year": 2002,
  "banner_url": "",
  "icon_url": "",
  "coverart": "https://lutris.net/media/igdb/cover_big/co844g.jpg",
  "platforms": [
    {
      "name": "Sony PlayStation"
    }
  ],
  "provider_games": [
    {
      "name": "Ad Lib Ouji ...to Fuyukai na Nakama-tachi!?",
      "slug": "ad-lib-ouji-dot-dot-dot-to-fuyukai-na-nakama-tachi",
      "service": "igdb"
    }
  ],
  "aliases": [],
  "shaders": [],
  "discord_id": "",
  "change_for": null
}