{
  "id": 24925,
  "game_id": 40512,
  "game_slug": "naval-armada",
  "name": "Naval Armada",
  "year": 2019,
  "user": "vanstaveren",
  "runner": "steam",
  "slug": "naval-armada-steam",
  "version": "steam",
  "description": null,
  "notes": "",
  "credits": "",
  "created_at": "2020-12-07T02:02:37.051075Z",
  "updated_at": "2021-12-13T19:10:37.017143Z",
  "draft": false,
  "published": true,
  "published_by": null,
  "rating": "",
  "is_playable": null,
  "steamid": null,
  "gogid": null,
  "gogslug": "",
  "humbleid": "",
  "humblestoreid": "",
  "humblestoreid_real": "",
  "script": {
    "game": {
      "appid": 618620
    }
  },
  "content": "game:\n  appid: 618620\n",
  "discord_id": ""
}