{
  "id": 114632,
  "name": "Bust-a-Move '99",
  "slug": "bust-a-move-99",
  "year": 1999,
  "banner_url": "",
  "icon_url": "",
  "coverart": "https://lutris.net/media/igdb/cover_big/co3bc2.jpg",
  "platforms": [
    {
      "name": "Nintendo 64"
    }
  ],
  "provider_games": [
    {
      "name": "Bust-a-Move '99",
      "slug": "bust-a-move-99",
      "service": "igdb"
    }
  ],
  "aliases": [],
  "shaders": [],
  "discord_id": "",
  "change_for": null
}