{
  "id": 36413,
  "name": "Witch Royal",
  "slug": "witch-royal",
  "year": null,
  "banner_url": "",
  "icon_url": "https://lutris.net/games/icon/witch-royal.png",
  "coverart": null,
  "platforms": [
    {
      "name": "Arcade"
    }
  ],
  "provider_games": [
    {
      "name": "Witch Royal",
      "slug": "witchryl",
      "service": "mame"
    }
  ],
  "aliases": [],
  "shaders": [],
  "discord_id": "",
  "change_for": null
}