{
  "id": 97733,
  "name": "CherryBoy",
  "slug": "cherryboy",
  "year": null,
  "banner_url": "",
  "icon_url": "",
  "coverart": "https://lutris.net/media/igdb/cover_big/co9eov.jpg",
  "platforms": [],
  "provider_games": [
    {
      "name": "CherryBoy",
      "slug": "cherryboy",
      "service": "igdb"
    }
  ],
  "aliases": [],
  "shaders": [],
  "discord_id": "",
  "change_for": null
}