{
  "id": 194732,
  "name": "Curro",
  "slug": "curro",
  "year": null,
  "banner_url": "",
  "icon_url": "",
  "coverart": "https://lutris.net/media/igdb/cover_big/co4qcs.jpg",
  "platforms": [],
  "provider_games": [
    {
      "name": "Curro",
      "slug": "curro",
      "service": "igdb"
    }
  ],
  "aliases": [],
  "shaders": [],
  "discord_id": "",
  "change_for": null
}