{
  "id": 263001,
  "name": "HenapoLand",
  "slug": "henapoland",
  "year": null,
  "banner_url": "",
  "icon_url": "",
  "coverart": "https://lutris.net/media/igdb/cover_big/co77k2.jpg",
  "platforms": [],
  "provider_games": [
    {
      "name": "HenapoLand",
      "slug": "henapoland",
      "service": "igdb"
    }
  ],
  "aliases": [],
  "shaders": [],
  "discord_id": "",
  "change_for": null
}