{
  "id": 48447,
  "name": "Hot Champions: Dream Team",
  "slug": "hot-champions-dream-team",
  "year": null,
  "banner_url": "",
  "icon_url": "",
  "coverart": null,
  "platforms": [],
  "provider_games": [
    {
      "name": "Hot Champions: Dream Team",
      "slug": "hot-champions-dream-team",
      "service": "igdb"
    }
  ],
  "aliases": [],
  "shaders": [],
  "discord_id": "",
  "change_for": null
}