{
  "id": 98812,
  "name": "Radirgy GeneriC",
  "slug": "radirgy-generic",
  "year": null,
  "banner_url": "",
  "icon_url": "",
  "coverart": "https://lutris.net/media/igdb/cover_big/co6nwp.jpg",
  "platforms": [],
  "provider_games": [
    {
      "name": "Radirgy GeneriC",
      "slug": "radirgy-generic",
      "service": "igdb"
    }
  ],
  "aliases": [],
  "shaders": [],
  "discord_id": "",
  "change_for": null
}