{
  "id": 6065,
  "game_id": 1349,
  "game_slug": "earth-2140",
  "name": "Earth 2140",
  "year": 1997,
  "user": "FakeShemp",
  "runner": "wine",
  "slug": "earth-2140-gog",
  "version": "GOG",
  "description": "",
  "notes": "",
  "credits": "",
  "created_at": "2017-10-22T19:09:07.137000Z",
  "updated_at": "2017-10-22T19:15:20.571188Z",
  "draft": false,
  "published": true,
  "published_by": null,
  "rating": "",
  "is_playable": null,
  "steamid": 253860,
  "gogid": null,
  "gogslug": "",
  "humbleid": "",
  "humblestoreid": "",
  "humblestoreid_real": "",
  "script": {
    "files": [
      {
        "file1": "N/A:Please select the GOG installer"
      }
    ],
    "game": {
      "exe": "drive_c/GOG Games/Earth 2140/E2140.exe",
      "prefix": "$GAMEDIR"
    },
    "installer": [
      {
        "task": {
          "args": "/sp- /verysilent /norestart /suppressmsgboxes /nogui",
          "executable": "$file1",
          "name": "wineexec",
          "prefix": "$GAMEDIR"
        }
      }
    ]
  },
  "content": "files:\n- file1: N/A:Please select the GOG installer\ngame:\n  exe: drive_c/GOG Games/Earth 2140/E2140.exe\n  prefix: $GAMEDIR\ninstaller:\n- task:\n    args: /sp- /verysilent /norestart /suppressmsgboxes /nogui\n    executable: $file1\n    name: wineexec\n    prefix: $GAMEDIR\n",
  "discord_id": ""
}