{
  "id": 5726,
  "game_id": 1349,
  "game_slug": "earth-2140",
  "name": "Earth 2140",
  "year": 1997,
  "user": "FakeShemp",
  "runner": "wine",
  "slug": "earth-2140-groupees",
  "version": "Groupees",
  "description": "",
  "notes": "",
  "credits": "",
  "created_at": "2017-09-12T19:17:33.153000Z",
  "updated_at": "2018-05-19T03:41:53.610685Z",
  "draft": false,
  "published": true,
  "published_by": null,
  "rating": "",
  "is_playable": null,
  "steamid": 253860,
  "gogid": null,
  "gogslug": "",
  "humbleid": "",
  "humblestoreid": "",
  "humblestoreid_real": "",
  "script": {
    "files": [
      {
        "file1": "N/A:Please select the Groupees installer"
      }
    ],
    "game": {
      "arch": "win32",
      "exe": "drive_c/Program Files/Reality Pump/Earth 2140/E2140.exe",
      "prefix": "$GAMEDIR"
    },
    "installer": [
      {
        "task": {
          "args": "/S",
          "executable": "$file1",
          "name": "wineexec",
          "prefix": "$GAMEDIR"
        }
      }
    ]
  },
  "content": "files:\n- file1: N/A:Please select the Groupees installer\ngame:\n  arch: win32\n  exe: drive_c/Program Files/Reality Pump/Earth 2140/E2140.exe\n  prefix: $GAMEDIR\ninstaller:\n- task:\n    args: /S\n    executable: $file1\n    name: wineexec\n    prefix: $GAMEDIR\n",
  "discord_id": ""
}