{
  "id": 291765,
  "name": "Box Bakery",
  "slug": "box-bakery",
  "year": null,
  "banner_url": "",
  "icon_url": "",
  "coverart": "https://lutris.net/media/igdb/cover_big/co8k95.jpg",
  "platforms": [],
  "provider_games": [
    {
      "name": "Box Bakery",
      "slug": "box-bakery",
      "service": "igdb"
    }
  ],
  "aliases": [],
  "shaders": [],
  "discord_id": "",
  "change_for": null
}