{
  "id": 307646,
  "name": "The Willowmist Emporium of Antiques & Curiosities",
  "slug": "the-willowmist-emporium-of-antiques-and-curiosities",
  "year": null,
  "banner_url": "",
  "icon_url": "",
  "coverart": "https://lutris.net/media/igdb/cover_big/co9f8u.jpg",
  "platforms": [],
  "provider_games": [
    {
      "name": "The Willowmist Emporium of Antiques & Curiosities",
      "slug": "the-willowmist-emporium-of-antiques-and-curiosities",
      "service": "igdb"
    }
  ],
  "aliases": [],
  "shaders": [],
  "discord_id": "",
  "change_for": null
}