{
  "id": 113566,
  "name": "FreeFlight",
  "slug": "freeflight",
  "year": null,
  "banner_url": "https://lutris.net/games/banner/freeflight.jpg",
  "icon_url": "",
  "coverart": null,
  "platforms": [],
  "provider_games": [
    {
      "name": "FreeFlight",
      "slug": "777000",
      "service": "steam"
    },
    {
      "name": "FreeFlight",
      "slug": "freeflight",
      "service": "igdb"
    }
  ],
  "aliases": [],
  "shaders": [],
  "discord_id": "",
  "change_for": null
}