{
  "id": 278882,
  "name": "TLC Game BR",
  "slug": "tlc-game-br",
  "year": null,
  "banner_url": "",
  "icon_url": "",
  "coverart": "https://lutris.net/media/igdb/cover_big/co7xe0.jpg",
  "platforms": [],
  "provider_games": [
    {
      "name": "TLC Game BR",
      "slug": "tlc-game-br",
      "service": "igdb"
    }
  ],
  "aliases": [],
  "shaders": [],
  "discord_id": "",
  "change_for": null
}