{
  "id": 101693,
  "name": "Survive - Wilderness Survival",
  "slug": "survive-wilderness-survival",
  "year": null,
  "banner_url": "",
  "icon_url": "",
  "coverart": "https://lutris.net/media/igdb/cover_big/pnarwjn2nzbix0k7o1ku.jpg",
  "platforms": [],
  "provider_games": [
    {
      "name": "Survive - Wilderness Survival",
      "slug": "survive-wilderness-survival",
      "service": "igdb"
    }
  ],
  "aliases": [],
  "shaders": [],
  "discord_id": "",
  "change_for": null
}