{
  "id": 214919,
  "name": "Caesars Palace: Black Jack",
  "slug": "caesars-palace-black-jack",
  "year": null,
  "banner_url": "",
  "icon_url": "",
  "coverart": "https://lutris.net/media/igdb/cover_big/co5bf7.jpg",
  "platforms": [],
  "provider_games": [
    {
      "name": "Caesars Palace: Black Jack",
      "slug": "caesars-palace-black-jack",
      "service": "igdb"
    }
  ],
  "aliases": [],
  "shaders": [],
  "discord_id": "",
  "change_for": null
}