{
  "id": 191811,
  "name": "Blood West",
  "slug": "blood-west",
  "year": 2022,
  "banner_url": "https://lutris.net/games/banner/blood-west.jpg",
  "icon_url": "https://lutris.net/games/icon/blood-west.png",
  "coverart": "https://lutris.net/media/igdb/cover_big/co4eig.jpg",
  "platforms": [
    {
      "name": "Windows"
    }
  ],
  "provider_games": [
    {
      "name": "Blood West",
      "slug": "blood-west",
      "service": "igdb"
    },
    {
      "name": "Blood West",
      "slug": "1587130",
      "service": "steam"
    },
    {
      "name": "Blood West",
      "slug": "1901494026",
      "service": "gog"
    }
  ],
  "aliases": [],
  "shaders": [],
  "discord_id": "",
  "change_for": null
}