{
  "id": 264099,
  "name": "Red Impact",
  "slug": "red-impact",
  "year": null,
  "banner_url": "",
  "icon_url": "",
  "coverart": "https://lutris.net/media/igdb/cover_big/co7at3.jpg",
  "platforms": [],
  "provider_games": [
    {
      "name": "Red Impact",
      "slug": "red-impact",
      "service": "igdb"
    }
  ],
  "aliases": [],
  "shaders": [],
  "discord_id": "",
  "change_for": null
}