{
  "id": 107441,
  "name": "SeaWorld Adventure Parks Tycoon 2",
  "slug": "seaworld-adventure-parks-tycoon-2",
  "year": 2005,
  "banner_url": "",
  "icon_url": "",
  "coverart": "https://lutris.net/media/igdb/cover_big/co88l5.jpg",
  "platforms": [
    {
      "name": "Windows"
    }
  ],
  "provider_games": [
    {
      "name": "SeaWorld Adventure Parks Tycoon 2",
      "slug": "seaworld-adventure-parks-tycoon-2",
      "service": "igdb"
    }
  ],
  "aliases": [],
  "shaders": [],
  "discord_id": "",
  "change_for": null
}