{
  "id": 89520,
  "name": "Fill one-line puzzle game",
  "slug": "fill-one-line-puzzle-game",
  "year": 2016,
  "banner_url": "",
  "icon_url": "",
  "coverart": "https://lutris.net/media/igdb/cover_big/oxmagouvb8z8gtknxeqd.jpg",
  "platforms": [],
  "provider_games": [
    {
      "name": "Fill one-line puzzle game",
      "slug": "fill-one-line-puzzle-game",
      "service": "igdb"
    }
  ],
  "aliases": [],
  "shaders": [],
  "discord_id": "",
  "change_for": null
}