{
  "id": 302476,
  "name": "Ognisco",
  "slug": "ognisco",
  "year": null,
  "banner_url": "",
  "icon_url": "",
  "coverart": "https://lutris.net/media/igdb/cover_big/co945t.jpg",
  "platforms": [],
  "provider_games": [
    {
      "name": "Ognisco",
      "slug": "ognisco",
      "service": "igdb"
    }
  ],
  "aliases": [],
  "shaders": [],
  "discord_id": "",
  "change_for": null
}