{
  "id": 26418,
  "name": "Classic Adventure",
  "slug": "classic-adventure",
  "year": 1983,
  "banner_url": "https://lutris.net/games/banner/classic-adventure.jpg",
  "icon_url": "",
  "coverart": "https://lutris.net/media/igdb/cover_big/f91rwcbn4k5tcqnh56ea.jpg",
  "platforms": [
    {
      "name": "Amstrad CPC 464"
    },
    {
      "name": "Apple //e"
    },
    {
      "name": "Apple II"
    },
    {
      "name": "Commodore 16/Plus4"
    },
    {
      "name": "Commodore 64"
    },
    {
      "name": "MSX"
    },
    {
      "name": "ZX Spectrum"
    }
  ],
  "provider_games": [
    {
      "name": "Classic Adventure",
      "slug": "classic-adventure",
      "service": "igdb"
    }
  ],
  "aliases": [],
  "shaders": [],
  "discord_id": "",
  "change_for": null
}