{
  "id": 265282,
  "name": "TP: Dungeon Raiders",
  "slug": "tp-dungeon-raiders",
  "year": null,
  "banner_url": "",
  "icon_url": "",
  "coverart": "https://lutris.net/media/igdb/cover_big/co7aw2.jpg",
  "platforms": [],
  "provider_games": [
    {
      "name": "TP: Dungeon Raiders",
      "slug": "tp-dungeon-raiders",
      "service": "igdb"
    }
  ],
  "aliases": [],
  "shaders": [],
  "discord_id": "",
  "change_for": null
}