{
  "id": 206558,
  "name": "Starduino",
  "slug": "starduino",
  "year": 2019,
  "banner_url": "",
  "icon_url": "",
  "coverart": "https://lutris.net/media/igdb/cover_big/co5v03.jpg",
  "platforms": [],
  "provider_games": [
    {
      "name": "Starduino",
      "slug": "starduino",
      "service": "igdb"
    }
  ],
  "aliases": [],
  "shaders": [],
  "discord_id": "",
  "change_for": null
}