{
  "id": 191032,
  "name": "Gate of Doom",
  "slug": "gate-of-doom",
  "year": 1990,
  "banner_url": "",
  "icon_url": "",
  "coverart": "https://lutris.net/media/igdb/cover_big/co3tqq.jpg",
  "platforms": [
    {
      "name": "Zeebo"
    }
  ],
  "provider_games": [
    {
      "name": "Gate of Doom",
      "slug": "gate-of-doom",
      "service": "igdb"
    }
  ],
  "aliases": [],
  "shaders": [],
  "discord_id": "",
  "change_for": null
}