{
  "id": 19633,
  "game_id": 32445,
  "game_slug": "evil-islands-lost-in-astral",
  "name": "Evil Islands - Lost in Astral",
  "year": 2006,
  "user": "axet",
  "runner": "wine",
  "slug": "evil-islands-lost-in-astral-demo",
  "version": "DEMO",
  "description": null,
  "notes": "",
  "credits": "",
  "created_at": "2020-04-11T18:17:34.637000Z",
  "updated_at": "2020-04-12T08:03:15.222291Z",
  "draft": false,
  "published": true,
  "published_by": 20548,
  "rating": "",
  "is_playable": null,
  "steamid": null,
  "gogid": null,
  "gogslug": "",
  "humbleid": "",
  "humblestoreid": "",
  "humblestoreid_real": "",
  "script": {
    "files": [
      {
        "demo": "https://archive.org/download/eiaddondemo/EI_Addon_DEMO.exe"
      }
    ],
    "game": {
      "exe": "$GAMEDIR/drive_c/Program Files/Nival Interactive/Затерянные в Астрале (демоверсия)/Starter.exe",
      "prefix": "$GAMEDIR/"
    },
    "installer": [
      {
        "task": {
          "arch": "win32",
          "env": {
            "LANG": "ru_RU.UTF-8"
          },
          "executable": "demo",
          "name": "wineexec",
          "prefix": "$GAMEDIR/"
        }
      }
    ],
    "system": {
      "env": {
        "LANG": "ru_RU.UTF-8"
      }
    }
  },
  "content": "files:\n- demo: https://archive.org/download/eiaddondemo/EI_Addon_DEMO.exe\ngame:\n  exe: \"$GAMEDIR/drive_c/Program Files/Nival Interactive/\\u0417\\u0430\\u0442\\u0435\\u0440\\\n    \\u044F\\u043D\\u043D\\u044B\\u0435 \\u0432 \\u0410\\u0441\\u0442\\u0440\\u0430\\u043B\\u0435\\\n    \\ (\\u0434\\u0435\\u043C\\u043E\\u0432\\u0435\\u0440\\u0441\\u0438\\u044F)/Starter.exe\"\n  prefix: $GAMEDIR/\ninstaller:\n- task:\n    arch: win32\n    env:\n      LANG: ru_RU.UTF-8\n    executable: demo\n    name: wineexec\n    prefix: $GAMEDIR/\nsystem:\n  env:\n    LANG: ru_RU.UTF-8\n",
  "discord_id": ""
}