{
  "id": 125407,
  "name": "Neon Aileron",
  "slug": "neon-aileron",
  "year": null,
  "banner_url": "",
  "icon_url": "",
  "coverart": "https://lutris.net/media/igdb/cover_big/co2qth.jpg",
  "platforms": [],
  "provider_games": [
    {
      "name": "Neon Aileron",
      "slug": "neon-aileron",
      "service": "igdb"
    }
  ],
  "aliases": [],
  "shaders": [],
  "discord_id": "",
  "change_for": null
}