{
  "id": 291796,
  "name": "Corn",
  "slug": "corn",
  "year": null,
  "banner_url": "",
  "icon_url": "",
  "coverart": "https://lutris.net/media/igdb/cover_big/co8k4n.jpg",
  "platforms": [],
  "provider_games": [
    {
      "name": "Corn",
      "slug": "corn",
      "service": "igdb"
    }
  ],
  "aliases": [],
  "shaders": [],
  "discord_id": "",
  "change_for": null
}