{
  "id": 254476,
  "name": "Scrabble Interactive: 2003 Edition",
  "slug": "scrabble-interactive-2003-edition",
  "year": 2003,
  "banner_url": "",
  "icon_url": "",
  "coverart": null,
  "platforms": [
    {
      "name": "Sony PlayStation 2"
    },
    {
      "name": "Windows"
    }
  ],
  "provider_games": [
    {
      "name": "Scrabble Interactive: 2003 Edition",
      "slug": "scrabble-interactive-2003-edition",
      "service": "igdb"
    }
  ],
  "aliases": [],
  "shaders": [],
  "discord_id": "",
  "change_for": null
}