{
  "id": 55156,
  "name": "Face Racers: Photo Finish",
  "slug": "face-racers-photo-finish",
  "year": 2011,
  "banner_url": "",
  "icon_url": "",
  "coverart": "https://lutris.net/media/igdb/cover_big/bixeavnmtfgqtf3op0sj.jpg",
  "platforms": [
    {
      "name": "Nintendo 3DS"
    }
  ],
  "provider_games": [
    {
      "name": "Face Racers: Photo Finish",
      "slug": "face-racers-photo-finish",
      "service": "igdb"
    }
  ],
  "aliases": [],
  "shaders": [],
  "discord_id": "",
  "change_for": null
}