{
  "id": 41952,
  "name": "Flipon",
  "slug": "flipon",
  "year": 2020,
  "banner_url": "https://lutris.net/games/banner/flipon.jpg",
  "icon_url": "https://lutris.net/games/icon/flipon.png",
  "coverart": "https://lutris.net/media/igdb/cover_big/co2nsy.jpg",
  "platforms": [
    {
      "name": "Nintendo Switch"
    },
    {
      "name": "Windows"
    }
  ],
  "provider_games": [
    {
      "name": "Flipon",
      "slug": "1285020",
      "service": "steam"
    },
    {
      "name": "Flipon",
      "slug": "flipon",
      "service": "igdb"
    },
    {
      "name": "Flipon",
      "slug": "1897057118",
      "service": "gog"
    }
  ],
  "aliases": [],
  "shaders": [],
  "discord_id": "",
  "change_for": null
}