{
  "id": 98139,
  "name": "outertown",
  "slug": "outertown",
  "year": null,
  "banner_url": "",
  "icon_url": "",
  "coverart": "https://lutris.net/media/igdb/cover_big/co1l6z.jpg",
  "platforms": [],
  "provider_games": [
    {
      "name": "Outertown",
      "slug": "outertown",
      "service": "igdb"
    }
  ],
  "aliases": [],
  "shaders": [],
  "discord_id": "",
  "change_for": null
}