{
  "id": 260286,
  "name": "Council of Mages: The Party Game",
  "slug": "council-of-mages-the-party-game",
  "year": null,
  "banner_url": "",
  "icon_url": "",
  "coverart": "https://lutris.net/media/igdb/cover_big/co73lb.jpg",
  "platforms": [],
  "provider_games": [
    {
      "name": "Council of Mages: The Party Game",
      "slug": "council-of-mages-the-party-game",
      "service": "igdb"
    }
  ],
  "aliases": [],
  "shaders": [],
  "discord_id": "",
  "change_for": null
}