{
  "id": 261083,
  "name": "Project Entropy",
  "slug": "project-entropy",
  "year": null,
  "banner_url": "",
  "icon_url": "",
  "coverart": "https://lutris.net/media/igdb/cover_big/co7xgo.jpg",
  "platforms": [],
  "provider_games": [
    {
      "name": "Project Entropy",
      "slug": "project-entropy",
      "service": "igdb"
    }
  ],
  "aliases": [],
  "shaders": [],
  "discord_id": "",
  "change_for": null
}