{
  "id": 55894,
  "name": "Star Trigon",
  "slug": "star-trigon",
  "year": null,
  "banner_url": "",
  "icon_url": "",
  "coverart": "https://lutris.net/media/igdb/cover_big/erkxguapw6onurnatexk.jpg",
  "platforms": [],
  "provider_games": [
    {
      "name": "Star Trigon",
      "slug": "star-trigon",
      "service": "igdb"
    }
  ],
  "aliases": [],
  "shaders": [],
  "discord_id": "",
  "change_for": null
}