{
  "id": 155184,
  "name": "Battlecruiser Generations",
  "slug": "battlecruiser-generations",
  "year": 2021,
  "banner_url": "",
  "icon_url": "",
  "coverart": "https://lutris.net/media/igdb/cover_big/co3xm5.jpg",
  "platforms": [
    {
      "name": "Windows"
    }
  ],
  "provider_games": [
    {
      "name": "Battlecruiser Generations",
      "slug": "battlecruiser-generations",
      "service": "igdb"
    }
  ],
  "aliases": [],
  "shaders": [],
  "discord_id": "",
  "change_for": null
}