{
  "id": 241944,
  "name": "Yaoi Beast Boys",
  "slug": "yaoi-beast-boys",
  "year": 2019,
  "banner_url": "",
  "icon_url": "",
  "coverart": "https://lutris.net/media/igdb/cover_big/co5zdq.jpg",
  "platforms": [
    {
      "name": "Android"
    }
  ],
  "provider_games": [
    {
      "name": "Yaoi Beast Boys",
      "slug": "yaoi-beast-boys",
      "service": "igdb"
    }
  ],
  "aliases": [],
  "shaders": [],
  "discord_id": "",
  "change_for": null
}