{
  "id": 195373,
  "name": "Base Jump: Wing Suit Flying",
  "slug": "base-jump-wing-suit-flying",
  "year": null,
  "banner_url": "",
  "icon_url": "",
  "coverart": "https://lutris.net/media/igdb/cover_big/co4pdq.jpg",
  "platforms": [],
  "provider_games": [
    {
      "name": "Base Jump: Wing Suit Flying",
      "slug": "base-jump-wing-suit-flying",
      "service": "igdb"
    }
  ],
  "aliases": [],
  "shaders": [],
  "discord_id": "",
  "change_for": null
}