{
  "id": 18066,
  "name": "Rig or Skill: PC Brawl",
  "slug": "rig-or-skill-pc-brawl",
  "year": null,
  "banner_url": "https://lutris.net/games/banner/rig-or-skill-pc-brawl.jpg",
  "icon_url": "https://lutris.net/games/icon/rig-or-skill-pc-brawl.png",
  "coverart": "https://lutris.net/media/igdb/cover_big/co3yjo.jpg",
  "platforms": [],
  "provider_games": [
    {
      "name": "Rig or Skill: PC Brawl",
      "slug": "746010",
      "service": "steam"
    },
    {
      "name": "Rig or Skill: PC Brawl",
      "slug": "rig-or-skill-pc-brawl",
      "service": "igdb"
    }
  ],
  "aliases": [],
  "shaders": [],
  "discord_id": "",
  "change_for": null
}