{
  "id": 111233,
  "name": "DanceDanceRevolution",
  "slug": "dancedancerevolution--2",
  "year": 2014,
  "banner_url": "",
  "icon_url": "",
  "coverart": "https://lutris.net/media/igdb/cover_big/co2vu8.jpg",
  "platforms": [],
  "provider_games": [
    {
      "name": "DanceDanceRevolution",
      "slug": "dancedancerevolution--2",
      "service": "igdb"
    }
  ],
  "aliases": [],
  "shaders": [],
  "discord_id": "",
  "change_for": null
}