{
  "id": 158007,
  "name": "Train Conductor",
  "slug": "train-conductor",
  "year": 2009,
  "banner_url": "",
  "icon_url": "",
  "coverart": "https://lutris.net/media/igdb/cover_big/co8v43.jpg",
  "platforms": [],
  "provider_games": [
    {
      "name": "Train Conductor",
      "slug": "train-conductor",
      "service": "igdb"
    }
  ],
  "aliases": [],
  "shaders": [],
  "discord_id": "",
  "change_for": null
}