{
  "id": 251754,
  "name": "Cabezurrio vs Robots",
  "slug": "cabezurrio-vs-robots",
  "year": null,
  "banner_url": "",
  "icon_url": "",
  "coverart": "https://lutris.net/media/igdb/cover_big/co6q8r.jpg",
  "platforms": [],
  "provider_games": [
    {
      "name": "Cabezurrio vs Robots",
      "slug": "cabezurrio-vs-robots",
      "service": "igdb"
    }
  ],
  "aliases": [],
  "shaders": [],
  "discord_id": "",
  "change_for": null
}