{
  "id": 45838,
  "name": "Robin Hood's Quest",
  "slug": "robin-hoods-quest",
  "year": null,
  "banner_url": "",
  "icon_url": "",
  "coverart": "https://lutris.net/media/igdb/cover_big/xhkp0kso07u89jup5yjo.jpg",
  "platforms": [],
  "provider_games": [
    {
      "name": "Robin Hood's Quest",
      "slug": "robin-hoods-quest",
      "service": "igdb"
    }
  ],
  "aliases": [],
  "shaders": [],
  "discord_id": "",
  "change_for": null
}