{
  "id": 83141,
  "name": "Mizbak's Adventure",
  "slug": "mizbaks-adventure",
  "year": 1992,
  "banner_url": "",
  "icon_url": "",
  "coverart": "https://lutris.net/media/igdb/cover_big/co6xht.jpg",
  "platforms": [
    {
      "name": "TurboGrafx-16/PC Engine"
    }
  ],
  "provider_games": [
    {
      "name": "Mizbak's Adventure",
      "slug": "mizbaks-adventure",
      "service": "igdb"
    }
  ],
  "aliases": [],
  "shaders": [],
  "discord_id": "",
  "change_for": null
}