{
  "id": 211182,
  "name": "A Simple Job",
  "slug": "a-simple-job",
  "year": null,
  "banner_url": "",
  "icon_url": "",
  "coverart": null,
  "platforms": [],
  "provider_games": [
    {
      "name": "A Simple Job",
      "slug": "a-simple-job",
      "service": "igdb"
    }
  ],
  "aliases": [],
  "shaders": [],
  "discord_id": "",
  "change_for": null
}