{
  "id": 29051,
  "name": "Cricket 19",
  "slug": "cricket-19",
  "year": 2019,
  "banner_url": "https://lutris.net/games/banner/cricket-19.jpg",
  "icon_url": "https://lutris.net/games/icon/cricket-19.png",
  "coverart": "https://lutris.net/media/igdb/cover_big/co3xru.jpg",
  "platforms": [
    {
      "name": "Nintendo Switch"
    },
    {
      "name": "Sony Playstation 4"
    },
    {
      "name": "Windows"
    },
    {
      "name": "Xbox One"
    }
  ],
  "provider_games": [
    {
      "name": "Cricket 19",
      "slug": "1028630",
      "service": "steam"
    },
    {
      "name": "Cricket 19",
      "slug": "cricket-19",
      "service": "igdb"
    }
  ],
  "aliases": [],
  "shaders": [],
  "discord_id": "",
  "change_for": null
}