{
  "id": 30448,
  "name": "Tom Clancy's Rainbow Six: Covert Ops Essentials",
  "slug": "tom-clancys-rainbow-six-covert-ops-essentials",
  "year": 2000,
  "banner_url": "https://lutris.net/games/banner/tom-clancys-rainbow-six-covert-ops-essentials.jpg",
  "icon_url": "",
  "coverart": null,
  "platforms": [
    {
      "name": "Windows"
    }
  ],
  "provider_games": [],
  "aliases": [],
  "shaders": [],
  "discord_id": "",
  "change_for": null
}