{
  "id": 251104,
  "name": "Vfun-valofe",
  "slug": "vfun-valofe",
  "year": 2019,
  "banner_url": "https://lutris.net/games/banner/vfun-valofe.jpg",
  "icon_url": "",
  "coverart": null,
  "platforms": [
    {
      "name": "Windows"
    }
  ],
  "provider_games": [],
  "aliases": [],
  "shaders": [],
  "discord_id": "",
  "change_for": null
}