{
  "id": 249097,
  "name": "Zombie of the Dot",
  "slug": "zombie-of-the-dot--1",
  "year": null,
  "banner_url": "",
  "icon_url": "",
  "coverart": null,
  "platforms": [],
  "provider_games": [
    {
      "name": "Zombie of the Dot",
      "slug": "zombie-of-the-dot--1",
      "service": "igdb"
    }
  ],
  "aliases": [],
  "shaders": [],
  "discord_id": "",
  "change_for": null
}