{
  "id": 73393,
  "name": "D.A.: Pursuit of Justice",
  "slug": "d-dot-a-pursuit-of-justice",
  "year": null,
  "banner_url": "",
  "icon_url": "",
  "coverart": null,
  "platforms": [],
  "provider_games": [
    {
      "name": "D.A.: Pursuit of Justice",
      "slug": "d-dot-a-pursuit-of-justice",
      "service": "igdb"
    }
  ],
  "aliases": [],
  "shaders": [],
  "discord_id": "",
  "change_for": null
}