{
  "id": 227998,
  "name": "Private Idol Disc Vol. 7: Asou Kaori",
  "slug": "private-idol-disc-vol-7-asou-kaori",
  "year": 1997,
  "banner_url": "",
  "icon_url": "",
  "coverart": "https://lutris.net/media/igdb/cover_big/co53fp.jpg",
  "platforms": [
    {
      "name": "Sega Saturn"
    }
  ],
  "provider_games": [
    {
      "name": "Private Idol Disc Vol. 7: Asou Kaori",
      "slug": "private-idol-disc-vol-7-asou-kaori",
      "service": "igdb"
    }
  ],
  "aliases": [],
  "shaders": [],
  "discord_id": "",
  "change_for": null
}