{
  "id": 56934,
  "name": "Grid Start",
  "slug": "grid-start",
  "year": null,
  "banner_url": "",
  "icon_url": "",
  "coverart": "https://lutris.net/media/igdb/cover_big/li0ojtxsbc04tbknds7q.jpg",
  "platforms": [],
  "provider_games": [
    {
      "name": "Grid Start",
      "slug": "grid-start",
      "service": "igdb"
    }
  ],
  "aliases": [],
  "shaders": [],
  "discord_id": "",
  "change_for": null
}