{
  "id": 137466,
  "name": "Origami Ninja Star",
  "slug": "origami-ninja-star",
  "year": null,
  "banner_url": "",
  "icon_url": "",
  "coverart": "https://lutris.net/media/igdb/cover_big/co3qof.jpg",
  "platforms": [],
  "provider_games": [
    {
      "name": "Origami Ninja Star",
      "slug": "origami-ninja-star",
      "service": "igdb"
    }
  ],
  "aliases": [],
  "shaders": [],
  "discord_id": "",
  "change_for": null
}