{
  "id": 213598,
  "name": "dotAGE",
  "slug": "dotage",
  "year": 2023,
  "banner_url": "https://lutris.net/games/banner/dotage.jpg",
  "icon_url": "",
  "coverart": null,
  "platforms": [
    {
      "name": "Linux"
    },
    {
      "name": "Mac"
    },
    {
      "name": "Windows"
    }
  ],
  "provider_games": [
    {
      "name": "dotAGE",
      "slug": "638510",
      "service": "steam"
    },
    {
      "name": "DotAge",
      "slug": "dotage",
      "service": "igdb"
    },
    {
      "name": "dotAGE",
      "slug": "1964186666",
      "service": "gog"
    }
  ],
  "aliases": [],
  "shaders": [],
  "discord_id": "",
  "change_for": null
}