{
  "id": 38427,
  "name": "Kuro survival",
  "slug": "kuro-survival",
  "year": 2017,
  "banner_url": "https://lutris.net/games/banner/kuro-survival.jpg",
  "icon_url": "https://lutris.net/games/icon/kuro-survival.png",
  "coverart": "https://lutris.net/media/igdb/cover_big/co2btr.jpg",
  "platforms": [
    {
      "name": "Mac"
    },
    {
      "name": "Windows"
    }
  ],
  "provider_games": [
    {
      "name": "Kuro survival",
      "slug": "632200",
      "service": "steam"
    },
    {
      "name": "Kuro survival",
      "slug": "kuro-survival",
      "service": "igdb"
    }
  ],
  "aliases": [],
  "shaders": [],
  "discord_id": "",
  "change_for": null
}