{
  "id": 266014,
  "name": "Hentai Tales: Sex Apartment",
  "slug": "hentai-tales-sex-apartment",
  "year": null,
  "banner_url": "",
  "icon_url": "",
  "coverart": "https://lutris.net/media/igdb/cover_big/co7by7.jpg",
  "platforms": [],
  "provider_games": [
    {
      "name": "Hentai Tales: Sex Apartment",
      "slug": "hentai-tales-sex-apartment",
      "service": "igdb"
    }
  ],
  "aliases": [],
  "shaders": [],
  "discord_id": "",
  "change_for": null
}