{
  "id": 268757,
  "name": "WITCH ON THE HOLY NIGHT",
  "slug": "witch-on-the-holy-night",
  "year": null,
  "banner_url": "https://lutris.net/games/banner/witch-on-the-holy-night.jpg",
  "icon_url": "",
  "coverart": null,
  "platforms": [
    {
      "name": "Nintendo Switch"
    },
    {
      "name": "Sony Playstation 4"
    },
    {
      "name": "Windows"
    }
  ],
  "provider_games": [
    {
      "name": "WITCH ON THE HOLY NIGHT",
      "slug": "2052410",
      "service": "steam"
    }
  ],
  "aliases": [],
  "shaders": [],
  "discord_id": "",
  "change_for": null
}