{
  "id": 137610,
  "name": "Peblito: Rock and Roll",
  "slug": "peblito-rock-and-roll",
  "year": 2021,
  "banner_url": "",
  "icon_url": "",
  "coverart": "https://lutris.net/media/igdb/cover_big/co3qw9.jpg",
  "platforms": [
    {
      "name": "Windows"
    }
  ],
  "provider_games": [
    {
      "name": "Peblito: Rock and Roll",
      "slug": "peblito-rock-and-roll",
      "service": "igdb"
    }
  ],
  "aliases": [],
  "shaders": [],
  "discord_id": "",
  "change_for": null
}