{
  "id": 34799,
  "name": "Magical Odds",
  "slug": "magical-odds",
  "year": 1992,
  "banner_url": "",
  "icon_url": "https://lutris.net/games/icon/magical-odds.png",
  "coverart": null,
  "platforms": [
    {
      "name": "Arcade"
    }
  ],
  "provider_games": [
    {
      "name": "Magical Odds",
      "slug": "magodds",
      "service": "mame"
    }
  ],
  "aliases": [],
  "shaders": [],
  "discord_id": "",
  "change_for": null
}