{
  "id": 221402,
  "name": "Modern Girl's Refined Choices",
  "slug": "modern-girls-refined-choices",
  "year": null,
  "banner_url": "",
  "icon_url": "",
  "coverart": null,
  "platforms": [],
  "provider_games": [
    {
      "name": "Modern Girl's Refined Choices",
      "slug": "modern-girls-refined-choices",
      "service": "igdb"
    }
  ],
  "aliases": [],
  "shaders": [],
  "discord_id": "",
  "change_for": null
}