{
  "id": 97814,
  "name": "Katakoi Contrast",
  "slug": "katakoi-contrast",
  "year": null,
  "banner_url": "",
  "icon_url": "",
  "coverart": "https://lutris.net/media/igdb/cover_big/co683x.jpg",
  "platforms": [],
  "provider_games": [
    {
      "name": "Katakoi Contrast",
      "slug": "katakoi-contrast",
      "service": "igdb"
    }
  ],
  "aliases": [],
  "shaders": [],
  "discord_id": "",
  "change_for": null
}