{
  "id": 137085,
  "name": "Nonestory P1",
  "slug": "nonestory-p1",
  "year": null,
  "banner_url": "",
  "icon_url": "",
  "coverart": "https://lutris.net/media/igdb/cover_big/co3q7a.jpg",
  "platforms": [],
  "provider_games": [
    {
      "name": "Nonestory P1",
      "slug": "nonestory-p1",
      "service": "igdb"
    }
  ],
  "aliases": [],
  "shaders": [],
  "discord_id": "",
  "change_for": null
}