{
  "id": 297874,
  "name": "Sunderfolk",
  "slug": "sunderfolk",
  "year": null,
  "banner_url": "",
  "icon_url": "",
  "coverart": "https://lutris.net/media/igdb/cover_big/co8x6y.jpg",
  "platforms": [],
  "provider_games": [
    {
      "name": "Sunderfolk",
      "slug": "sunderfolk",
      "service": "igdb"
    }
  ],
  "aliases": [],
  "shaders": [],
  "discord_id": "",
  "change_for": null
}