{
  "id": 247822,
  "name": "Future Theater",
  "slug": "future-theater",
  "year": null,
  "banner_url": "",
  "icon_url": "",
  "coverart": "https://lutris.net/media/igdb/cover_big/co6kut.jpg",
  "platforms": [],
  "provider_games": [
    {
      "name": "Future Theater",
      "slug": "future-theater",
      "service": "igdb"
    }
  ],
  "aliases": [],
  "shaders": [],
  "discord_id": "",
  "change_for": null
}