{
  "id": 10057,
  "game_id": 11406,
  "game_slug": "world-of-warships",
  "name": "World of Warships",
  "year": 2015,
  "user": "cxf",
  "runner": "steam",
  "slug": "world-of-warships-steam-proton",
  "version": "Steam Proton",
  "description": null,
  "notes": "",
  "credits": "",
  "created_at": "2018-09-05T22:31:41.114000Z",
  "updated_at": "2020-03-20T10:36:32.340550Z",
  "draft": false,
  "published": true,
  "published_by": 19464,
  "rating": "",
  "is_playable": null,
  "steamid": 552990,
  "gogid": null,
  "gogslug": "",
  "humbleid": "",
  "humblestoreid": "",
  "humblestoreid_real": "",
  "script": {
    "game": {
      "appid": 552990
    },
    "system": {
      "pulse_latency": true
    }
  },
  "content": "game:\r\n  appid: 552990\r\nsystem:\r\n  pulse_latency: true",
  "discord_id": "357607617046249482"
}