{
  "id": 214275,
  "name": "Block Puzzle Sudoku",
  "slug": "block-puzzle-sudoku",
  "year": null,
  "banner_url": "",
  "icon_url": "",
  "coverart": null,
  "platforms": [],
  "provider_games": [
    {
      "name": "Block Puzzle Sudoku",
      "slug": "block-puzzle-sudoku",
      "service": "igdb"
    }
  ],
  "aliases": [],
  "shaders": [],
  "discord_id": "",
  "change_for": null
}