{
  "id": 88324,
  "name": "NonogramZ: 1000+ online pic-a-pix puzzles",
  "slug": "nonogramz-1000-plus-online-pic-a-pix-puzzles",
  "year": null,
  "banner_url": "",
  "icon_url": "",
  "coverart": null,
  "platforms": [],
  "provider_games": [
    {
      "name": "NonogramZ: 1000+ online pic-a-pix puzzles",
      "slug": "nonogramz-1000-plus-online-pic-a-pix-puzzles",
      "service": "igdb"
    }
  ],
  "aliases": [],
  "shaders": [],
  "discord_id": "",
  "change_for": null
}