{
  "id": 275912,
  "name": "Andarin Weppes: Pre-Dementia",
  "slug": "andarin-weppes-pre-dementia",
  "year": 2024,
  "banner_url": "",
  "icon_url": "",
  "coverart": "https://lutris.net/media/igdb/cover_big/co7usi.jpg",
  "platforms": [
    {
      "name": "Windows"
    }
  ],
  "provider_games": [
    {
      "name": "Andarin Weppes: Pre-Dementia",
      "slug": "andarin-weppes-pre-dementia",
      "service": "igdb"
    }
  ],
  "aliases": [],
  "shaders": [],
  "discord_id": "",
  "change_for": null
}