{
  "id": 125846,
  "name": "Here Come the Mystery Teens!",
  "slug": "here-come-the-mystery-teens",
  "year": 2019,
  "banner_url": "",
  "icon_url": "",
  "coverart": "https://lutris.net/media/igdb/cover_big/co1wd3.jpg",
  "platforms": [
    {
      "name": "Windows"
    }
  ],
  "provider_games": [
    {
      "name": "Here Come the Mystery Teens!",
      "slug": "here-come-the-mystery-teens",
      "service": "igdb"
    }
  ],
  "aliases": [],
  "shaders": [],
  "discord_id": "",
  "change_for": null
}