{
  "id": 220906,
  "name": "Windsor",
  "slug": "windsor",
  "year": null,
  "banner_url": "",
  "icon_url": "",
  "coverart": "https://lutris.net/media/igdb/cover_big/co5i6e.jpg",
  "platforms": [],
  "provider_games": [
    {
      "name": "Windsor",
      "slug": "windsor",
      "service": "igdb"
    }
  ],
  "aliases": [],
  "shaders": [],
  "discord_id": "",
  "change_for": null
}