{
  "id": 113313,
  "name": "Gex 64: Enter the Gecko",
  "slug": "gex-64-enter-the-gecko",
  "year": 1998,
  "banner_url": "",
  "icon_url": "",
  "coverart": "https://lutris.net/media/igdb/cover_big/co3966.jpg",
  "platforms": [
    {
      "name": "Nintendo 64"
    }
  ],
  "provider_games": [
    {
      "name": "Gex 64: Enter the Gecko",
      "slug": "gex-64-enter-the-gecko",
      "service": "igdb"
    }
  ],
  "aliases": [],
  "shaders": [],
  "discord_id": "",
  "change_for": null
}