{
  "id": 122917,
  "name": "Apperception",
  "slug": "apperception",
  "year": 2017,
  "banner_url": "",
  "icon_url": "",
  "coverart": "https://lutris.net/media/igdb/cover_big/ptxdwua5zcmmqgqv07hb.jpg",
  "platforms": [
    {
      "name": "Windows"
    }
  ],
  "provider_games": [
    {
      "name": "Apperception",
      "slug": "apperception",
      "service": "igdb"
    }
  ],
  "aliases": [],
  "shaders": [],
  "discord_id": "",
  "change_for": null
}