{
  "id": 247687,
  "name": "Glitter Justice",
  "slug": "glitter-justice",
  "year": null,
  "banner_url": "",
  "icon_url": "",
  "coverart": "https://lutris.net/media/igdb/cover_big/co6ksf.jpg",
  "platforms": [],
  "provider_games": [
    {
      "name": "Glitter Justice",
      "slug": "glitter-justice",
      "service": "igdb"
    }
  ],
  "aliases": [],
  "shaders": [],
  "discord_id": "",
  "change_for": null
}