{
  "id": 64742,
  "name": "Combination Lock",
  "slug": "combination-lock",
  "year": null,
  "banner_url": "",
  "icon_url": "",
  "coverart": null,
  "platforms": [],
  "provider_games": [
    {
      "name": "Combination Lock",
      "slug": "combination-lock",
      "service": "igdb"
    }
  ],
  "aliases": [],
  "shaders": [],
  "discord_id": "",
  "change_for": null
}