{
  "id": 74535,
  "name": "Solitaire Jack Frost: Winter Adventures 3",
  "slug": "solitaire-jack-frost-winter-adventures-3",
  "year": null,
  "banner_url": "https://lutris.net/games/banner/solitaire-jack-frost-winter-adventures-3.jpg",
  "icon_url": "",
  "coverart": "https://lutris.net/media/igdb/cover_big/co4n3x.jpg",
  "platforms": [],
  "provider_games": [
    {
      "name": "Solitaire Jack Frost: Winter Adventures 3",
      "slug": "solitaire-jack-frost-winter-adventures-3",
      "service": "igdb"
    },
    {
      "name": "Solitaire Jack Frost Winter Adventures 3",
      "slug": "1859130",
      "service": "steam"
    }
  ],
  "aliases": [],
  "shaders": [],
  "discord_id": "",
  "change_for": null
}