{
  "id": 26718,
  "game_id": 5476,
  "game_slug": "pink-hour",
  "name": "Pink Hour",
  "year": 2015,
  "user": "vanstaveren",
  "runner": "steam",
  "slug": "pink-hour-proton",
  "version": "proton",
  "description": null,
  "notes": "",
  "credits": "",
  "created_at": "2021-03-03T20:23:24.050594Z",
  "updated_at": "2021-12-13T19:14:45.866597Z",
  "draft": false,
  "published": true,
  "published_by": null,
  "rating": "",
  "is_playable": null,
  "steamid": 409670,
  "gogid": null,
  "gogslug": "",
  "humbleid": "",
  "humblestoreid": "",
  "humblestoreid_real": "",
  "script": {
    "game": {
      "appid": 409670
    }
  },
  "content": "game:\n  appid: 409670\n",
  "discord_id": ""
}