{
  "id": 89286,
  "name": "Archipelago - A Survival Game",
  "slug": "archipelago-a-survival-game",
  "year": null,
  "banner_url": "",
  "icon_url": "",
  "coverart": null,
  "platforms": [],
  "provider_games": [
    {
      "name": "Archipelago: A Survival Game",
      "slug": "archipelago-a-survival-game",
      "service": "igdb"
    }
  ],
  "aliases": [],
  "shaders": [],
  "discord_id": "",
  "change_for": null
}