{
  "id": 212767,
  "name": "Let's Get Happy Ending Project Chapter 1 Yume Nikki Time to Wake Up",
  "slug": "lets-get-happy-ending-project-chapter-1-yume-nikki-time-to-wake-up",
  "year": 2021,
  "banner_url": "",
  "icon_url": "",
  "coverart": "https://lutris.net/media/igdb/cover_big/co5x75.jpg",
  "platforms": [
    {
      "name": "Linux"
    },
    {
      "name": "Mac"
    },
    {
      "name": "Windows"
    }
  ],
  "provider_games": [
    {
      "name": "Let's Get Happy Ending Project Chapter 1 Yume Nikki Time to Wake Up",
      "slug": "lets-get-happy-ending-project-chapter-1-yume-nikki-time-to-wake-up",
      "service": "igdb"
    }
  ],
  "aliases": [],
  "shaders": [],
  "discord_id": "",
  "change_for": null
}