{
  "id": 221707,
  "name": "Code Alkonost: Awakening of Evil",
  "slug": "code-alkonost-awakening-of-evil",
  "year": null,
  "banner_url": "",
  "icon_url": "",
  "coverart": "https://lutris.net/media/igdb/cover_big/co5csq.jpg",
  "platforms": [],
  "provider_games": [
    {
      "name": "Code Alkonost: Awakening of Evil",
      "slug": "code-alkonost-awakening-of-evil",
      "service": "igdb"
    }
  ],
  "aliases": [],
  "shaders": [],
  "discord_id": "",
  "change_for": null
}