{
  "id": 97631,
  "name": "Football (Atari)",
  "slug": "football-atari",
  "year": 1978,
  "banner_url": "",
  "icon_url": "",
  "coverart": "https://lutris.net/media/igdb/cover_big/co1jbi.jpg",
  "platforms": [],
  "provider_games": [
    {
      "name": "Football (Atari)",
      "slug": "football-atari",
      "service": "igdb"
    }
  ],
  "aliases": [],
  "shaders": [],
  "discord_id": "",
  "change_for": null
}