{
  "id": 105332,
  "name": "TalesWeaver",
  "slug": "talesweaver",
  "year": 2003,
  "banner_url": "",
  "icon_url": "",
  "coverart": "https://lutris.net/media/igdb/cover_big/co2se5.jpg",
  "platforms": [
    {
      "name": "Windows"
    }
  ],
  "provider_games": [
    {
      "name": "TalesWeaver",
      "slug": "talesweaver",
      "service": "igdb"
    }
  ],
  "aliases": [],
  "shaders": [],
  "discord_id": "",
  "change_for": null
}