{
  "id": 38813,
  "name": "The Rainsdowne Players",
  "slug": "the-rainsdowne-players",
  "year": 2018,
  "banner_url": "https://lutris.net/games/banner/the-rainsdowne-players.jpg",
  "icon_url": "",
  "coverart": "https://lutris.net/media/igdb/cover_big/co1jb3.jpg",
  "platforms": [
    {
      "name": "Mac"
    },
    {
      "name": "Nintendo Switch"
    },
    {
      "name": "Windows"
    }
  ],
  "provider_games": [
    {
      "name": "The Rainsdowne Players",
      "slug": "the-rainsdowne-players",
      "service": "igdb"
    }
  ],
  "aliases": [],
  "shaders": [],
  "discord_id": "",
  "change_for": null
}