{
  "id": 80670,
  "name": "Dempsey and Makepeace",
  "slug": "dempsey-and-makepeace",
  "year": 1986,
  "banner_url": "",
  "icon_url": "",
  "coverart": "https://lutris.net/media/igdb/cover_big/kyalxzvda99xjeqa9tx7.jpg",
  "platforms": [
    {
      "name": "Amstrad CPC"
    }
  ],
  "provider_games": [
    {
      "name": "Dempsey and Makepeace",
      "slug": "dempsey-and-makepeace",
      "service": "igdb"
    }
  ],
  "aliases": [],
  "shaders": [],
  "discord_id": "",
  "change_for": null
}