{
  "id": 24492,
  "name": "Flame Gunner",
  "slug": "flame-gunner",
  "year": 1999,
  "banner_url": "https://lutris.net/games/banner/flame-gunner.jpg",
  "icon_url": "",
  "coverart": "https://lutris.net/media/igdb/cover_big/co9fjg.jpg",
  "platforms": [
    {
      "name": "Arcade"
    }
  ],
  "provider_games": [
    {
      "name": "Flame Gunner",
      "slug": "flame-gunner",
      "service": "igdb"
    }
  ],
  "aliases": [],
  "shaders": [],
  "discord_id": "",
  "change_for": null
}