{
  "id": 215628,
  "name": "Bourbon Empire",
  "slug": "bourbon-empire",
  "year": null,
  "banner_url": "",
  "icon_url": "",
  "coverart": "https://lutris.net/media/igdb/cover_big/co58u0.jpg",
  "platforms": [],
  "provider_games": [
    {
      "name": "Bourbon Empire",
      "slug": "bourbon-empire",
      "service": "igdb"
    }
  ],
  "aliases": [],
  "shaders": [],
  "discord_id": "",
  "change_for": null
}