{
  "id": 205871,
  "name": "Parapara Leloluv",
  "slug": "parapara-leloluv",
  "year": null,
  "banner_url": "",
  "icon_url": "",
  "coverart": "https://lutris.net/media/igdb/cover_big/co5svx.jpg",
  "platforms": [],
  "provider_games": [
    {
      "name": "Parapara Leloluv",
      "slug": "parapara-leloluv",
      "service": "igdb"
    }
  ],
  "aliases": [],
  "shaders": [],
  "discord_id": "",
  "change_for": null
}