{
  "id": 280429,
  "name": "Scarred Mansion",
  "slug": "scarred-mansion",
  "year": null,
  "banner_url": "",
  "icon_url": "",
  "coverart": "https://lutris.net/media/igdb/cover_big/co80hq.jpg",
  "platforms": [],
  "provider_games": [
    {
      "name": "Scarred Mansion",
      "slug": "scarred-mansion",
      "service": "igdb"
    }
  ],
  "aliases": [],
  "shaders": [],
  "discord_id": "",
  "change_for": null
}