{
  "id": 276180,
  "name": "The Beautiful Island",
  "slug": "the-beautiful-island",
  "year": null,
  "banner_url": "",
  "icon_url": "",
  "coverart": "https://lutris.net/media/igdb/cover_big/co7uxx.jpg",
  "platforms": [],
  "provider_games": [
    {
      "name": "The Beautiful Island",
      "slug": "the-beautiful-island",
      "service": "igdb"
    }
  ],
  "aliases": [],
  "shaders": [],
  "discord_id": "",
  "change_for": null
}