{
  "id": 113929,
  "name": "Overdriven Reloaded: Special Edition",
  "slug": "overdriven-reloaded-special-edition",
  "year": 2018,
  "banner_url": "",
  "icon_url": "",
  "coverart": "https://lutris.net/media/igdb/cover_big/a0kcucwbtg5zxjjmgwut.jpg",
  "platforms": [
    {
      "name": "Nintendo Switch"
    },
    {
      "name": "Xbox One"
    }
  ],
  "provider_games": [
    {
      "name": "Overdriven Reloaded: Special Edition",
      "slug": "overdriven-reloaded-special-edition",
      "service": "igdb"
    }
  ],
  "aliases": [],
  "shaders": [],
  "discord_id": "",
  "change_for": null
}