{
  "id": 238131,
  "name": "Star Surfer",
  "slug": "star-surfer",
  "year": null,
  "banner_url": "",
  "icon_url": "",
  "coverart": "https://lutris.net/media/igdb/cover_big/co64t3.jpg",
  "platforms": [],
  "provider_games": [
    {
      "name": "Star Surfer",
      "slug": "star-surfer",
      "service": "igdb"
    }
  ],
  "aliases": [],
  "shaders": [],
  "discord_id": "",
  "change_for": null
}