{
  "id": 44437,
  "name": "DungeonTop",
  "slug": "dungeontop",
  "year": null,
  "banner_url": "https://lutris.net/games/banner/dungeontop.jpg",
  "icon_url": "https://lutris.net/games/icon/dungeontop.png",
  "coverart": null,
  "platforms": [],
  "provider_games": [
    {
      "name": "DungeonTop",
      "slug": "1146230",
      "service": "steam"
    }
  ],
  "aliases": [],
  "shaders": [],
  "discord_id": "",
  "change_for": null
}