{
  "id": 109390,
  "name": "GAMEJAM GAMEJAM",
  "slug": "gamejam-gamejam",
  "year": 2019,
  "banner_url": "",
  "icon_url": "",
  "coverart": "https://lutris.net/media/igdb/cover_big/co2yqi.jpg",
  "platforms": [
    {
      "name": "Windows"
    }
  ],
  "provider_games": [
    {
      "name": "Gamejam Gamejam",
      "slug": "gamejam-gamejam",
      "service": "igdb"
    }
  ],
  "aliases": [],
  "shaders": [],
  "discord_id": "",
  "change_for": null
}