{
  "id": 44608,
  "name": "Siege Survival: Gloria Victis",
  "slug": "siege-survival-gloria-victis",
  "year": 2021,
  "banner_url": "https://lutris.net/games/banner/siege-survival-gloria-victis.jpg",
  "icon_url": "https://lutris.net/games/icon/siege-survival-gloria-victis.png",
  "coverart": "https://lutris.net/media/igdb/cover_big/co2wt3.jpg",
  "platforms": [
    {
      "name": "Windows"
    }
  ],
  "provider_games": [
    {
      "name": "Siege Survival: Gloria Victis",
      "slug": "1167140",
      "service": "steam"
    },
    {
      "name": "Siege Survival: Gloria Victis",
      "slug": "1991069301",
      "service": "gog"
    },
    {
      "name": "Siege Survival: Gloria Victis",
      "slug": "siege-survival-gloria-victis",
      "service": "igdb"
    }
  ],
  "aliases": [],
  "shaders": [],
  "discord_id": "",
  "change_for": null
}