{
  "id": 45706,
  "name": "Conflict in Vietnam",
  "slug": "conflict-in-vietnam",
  "year": 1986,
  "banner_url": "https://lutris.net/games/banner/conflict-in-vietnam.jpg",
  "icon_url": "",
  "coverart": "https://lutris.net/media/igdb/cover_big/v5mxz7utvaeebgwtnpl3.jpg",
  "platforms": [
    {
      "name": "Apple II"
    },
    {
      "name": "Atari 8-bit"
    },
    {
      "name": "Commodore C64/128"
    }
  ],
  "provider_games": [
    {
      "name": "Conflict in Vietnam",
      "slug": "conflict-in-vietnam",
      "service": "igdb"
    },
    {
      "name": "Conflict in Vietnam",
      "slug": "1703060",
      "service": "steam"
    }
  ],
  "aliases": [],
  "shaders": [],
  "discord_id": "",
  "change_for": null
}