{
  "id": 51487,
  "name": "Manhattan Dealers",
  "slug": "manhattan-dealers",
  "year": 1988,
  "banner_url": "",
  "icon_url": "",
  "coverart": "https://lutris.net/media/igdb/cover_big/ex3gd6d3djqcig6niepu.jpg",
  "platforms": [
    {
      "name": "Amiga"
    },
    {
      "name": "Atari ST"
    }
  ],
  "provider_games": [
    {
      "name": "Manhattan Dealers",
      "slug": "manhattan-dealers",
      "service": "igdb"
    }
  ],
  "aliases": [],
  "shaders": [],
  "discord_id": "",
  "change_for": null
}