{
  "id": 265946,
  "name": "Ichigo 100%: Strawberry Diary",
  "slug": "ichigo-100-percent-strawberry-diary",
  "year": 2005,
  "banner_url": "",
  "icon_url": "",
  "coverart": null,
  "platforms": [
    {
      "name": "Sony PlayStation 2"
    }
  ],
  "provider_games": [
    {
      "name": "Ichigo 100%: Strawberry Diary",
      "slug": "ichigo-100-percent-strawberry-diary",
      "service": "igdb"
    }
  ],
  "aliases": [],
  "shaders": [],
  "discord_id": "",
  "change_for": null
}