{
  "id": 262044,
  "name": "V-Monsters: Digital Farm",
  "slug": "v-monsters-digital-farm",
  "year": null,
  "banner_url": "",
  "icon_url": "",
  "coverart": "https://lutris.net/media/igdb/cover_big/co76hg.jpg",
  "platforms": [],
  "provider_games": [
    {
      "name": "V-Monsters: Digital Farm",
      "slug": "v-monsters-digital-farm",
      "service": "igdb"
    }
  ],
  "aliases": [],
  "shaders": [],
  "discord_id": "",
  "change_for": null
}