{
  "id": 210223,
  "name": "Arc Style: Simple Mahjong 3D",
  "slug": "arc-style-simple-mahjong-3d",
  "year": null,
  "banner_url": "",
  "icon_url": "",
  "coverart": null,
  "platforms": [],
  "provider_games": [
    {
      "name": "Arc Style: Simple Mahjong 3D",
      "slug": "arc-style-simple-mahjong-3d",
      "service": "igdb"
    }
  ],
  "aliases": [],
  "shaders": [],
  "discord_id": "",
  "change_for": null
}