{
  "id": 199835,
  "name": "Touhou Multi Scroll Shooting 2",
  "slug": "touhou-multi-scroll-shooting-2",
  "year": null,
  "banner_url": "",
  "icon_url": "",
  "coverart": "https://lutris.net/media/igdb/cover_big/co4f3k.jpg",
  "platforms": [],
  "provider_games": [
    {
      "name": "Touhou Multi Scroll Shooting 2",
      "slug": "touhou-multi-scroll-shooting-2",
      "service": "igdb"
    }
  ],
  "aliases": [],
  "shaders": [],
  "discord_id": "",
  "change_for": null
}