{
  "id": 13130,
  "game_id": 4715,
  "game_slug": "trove",
  "name": "Trove",
  "year": 2015,
  "user": "openglfreak",
  "runner": "wine",
  "slug": "trove-glyph",
  "version": "Glyph",
  "description": "Installs Glyph and allows to install Trove afterwards.",
  "notes": "The installer requires manual intervention, as there is no known silent install option for Glyph.\r\nChanging window mode in-game is really wonky, you should probably stay with the default.",
  "credits": "",
  "created_at": "2019-04-26T22:50:25.628303Z",
  "updated_at": "2023-08-15T05:12:24.587583Z",
  "draft": false,
  "published": true,
  "published_by": 1,
  "rating": "",
  "is_playable": null,
  "steamid": 304050,
  "gogid": null,
  "gogslug": "",
  "humbleid": "",
  "humblestoreid": "",
  "humblestoreid_real": "",
  "script": {
    "files": [
      {
        "glyphinstall": "https://glyph.dyn.triongames.com/glyph/live/GlyphInstall.exe"
      }
    ],
    "game": {
      "exe": "drive_c/Program Files (x86)/Glyph/GlyphClient.exe",
      "prefix": "$GAMEDIR"
    },
    "installer": [
      {
        "task": {
          "description": "Installing Glyph...\nDo not change the installation path!",
          "exclude_processes": "GlyphClientApp.exe",
          "executable": "glyphinstall",
          "name": "wineexec",
          "prefix": "$GAMEDIR"
        }
      },
      {
        "task": {
          "description": "Installing Glyph...",
          "name": "winekill",
          "prefix": "$GAMEDIR"
        }
      },
      {
        "execute": {
          "args": "-i 's/<MinOS>win.*<\\/MinOS>/<MinOS>winxp<\\/MinOS>/g' '$GAMEDIR/drive_c/Program Files (x86)/Glyph/Library/GlyphLibrary.xml'",
          "description": "Fixing Glyph Library",
          "file": "sed"
        }
      },
      {
        "execute": {
          "args": "a-w '$GAMEDIR/drive_c/Program Files (x86)/Glyph/Library/GlyphLibrary.xml'",
          "description": "Fixing Glyph Library",
          "file": "chmod"
        }
      },
      {
        "write_config": {
          "description": "Configuring Glyph to exit after game launch",
          "file": "$GAMEDIR/drive_c/users/$USER/Local Settings/Application Data/Glyph/GlyphClient.cfg",
          "key": "AfterLaunch",
          "section": "Glyph",
          "value": "Exit"
        }
      },
      {
        "write_config": {
          "description": "Setting renderer for Trove to OpenGL",
          "file": "$GAMEDIR/drive_c/users/$USER/Application Data/Trove/Trove.cfg",
          "key": "Device",
          "section": "Rendering",
          "value": "opengl"
        }
      }
    ],
    "system": {
      "env": {
        "__GL_SHADER_DISK_CACHE": 1,
        "__GL_SHADER_DISK_CACHE_PATH": "$GAMEDIR"
      }
    }
  },
  "content": "files:\n- glyphinstall: https://glyph.dyn.triongames.com/glyph/live/GlyphInstall.exe\ngame:\n  exe: drive_c/Program Files (x86)/Glyph/GlyphClient.exe\n  prefix: $GAMEDIR\ninstaller:\n- task:\n    description: 'Installing Glyph...\n\n      Do not change the installation path!'\n    exclude_processes: GlyphClientApp.exe\n    executable: glyphinstall\n    name: wineexec\n    prefix: $GAMEDIR\n- task:\n    description: Installing Glyph...\n    name: winekill\n    prefix: $GAMEDIR\n- execute:\n    args: -i 's/<MinOS>win.*<\\/MinOS>/<MinOS>winxp<\\/MinOS>/g' '$GAMEDIR/drive_c/Program\n      Files (x86)/Glyph/Library/GlyphLibrary.xml'\n    description: Fixing Glyph Library\n    file: sed\n- execute:\n    args: a-w '$GAMEDIR/drive_c/Program Files (x86)/Glyph/Library/GlyphLibrary.xml'\n    description: Fixing Glyph Library\n    file: chmod\n- write_config:\n    description: Configuring Glyph to exit after game launch\n    file: $GAMEDIR/drive_c/users/$USER/Local Settings/Application Data/Glyph/GlyphClient.cfg\n    key: AfterLaunch\n    section: Glyph\n    value: Exit\n- write_config:\n    description: Setting renderer for Trove to OpenGL\n    file: $GAMEDIR/drive_c/users/$USER/Application Data/Trove/Trove.cfg\n    key: Device\n    section: Rendering\n    value: opengl\nsystem:\n  env:\n    __GL_SHADER_DISK_CACHE: 1\n    __GL_SHADER_DISK_CACHE_PATH: $GAMEDIR\n",
  "discord_id": "363409000399634432"
}