{
  "id": 18042,
  "name": "Lines Infinite by Nestor Yavorskyy",
  "slug": "lines-infinite-by-nestor-yavorskyy",
  "year": null,
  "banner_url": "https://lutris.net/games/banner/lines-infinite-by-nestor-yavorskyy.jpg",
  "icon_url": "https://lutris.net/games/icon/lines-infinite-by-nestor-yavorskyy.png",
  "coverart": null,
  "platforms": [],
  "provider_games": [
    {
      "name": "Lines Infinite",
      "slug": "733050",
      "service": "steam"
    }
  ],
  "aliases": [],
  "shaders": [],
  "discord_id": "",
  "change_for": null
}