{
  "id": 86150,
  "name": "Hadron's Forge",
  "slug": "hadrons-forge",
  "year": null,
  "banner_url": "",
  "icon_url": "",
  "coverart": null,
  "platforms": [],
  "provider_games": [
    {
      "name": "Hadron's Forge",
      "slug": "hadrons-forge",
      "service": "igdb"
    }
  ],
  "aliases": [],
  "shaders": [],
  "discord_id": "",
  "change_for": null
}