{
  "id": 59237,
  "name": "Perman: Enban o Torikaese",
  "slug": "perman-enban-o-torikaese",
  "year": null,
  "banner_url": "",
  "icon_url": "",
  "coverart": "https://lutris.net/media/igdb/cover_big/dleyteeodfdwhjozec6h.jpg",
  "platforms": [],
  "provider_games": [
    {
      "name": "Perman: Enban o Torikaese",
      "slug": "perman-enban-o-torikaese",
      "service": "igdb"
    }
  ],
  "aliases": [],
  "shaders": [],
  "discord_id": "",
  "change_for": null
}