{
  "id": 84717,
  "name": "Jet Set Luis",
  "slug": "jet-set-luis",
  "year": 2015,
  "banner_url": "",
  "icon_url": "",
  "coverart": "https://lutris.net/media/igdb/cover_big/gzg4ks7lijy26knf2uek.jpg",
  "platforms": [
    {
      "name": "ZX Spectrum"
    }
  ],
  "provider_games": [
    {
      "name": "Jet Set Luis",
      "slug": "jet-set-luis",
      "service": "igdb"
    }
  ],
  "aliases": [],
  "shaders": [],
  "discord_id": "",
  "change_for": null
}