{
  "id": 225408,
  "name": "Drunk As I Like: Gensokyo Chugging Contest",
  "slug": "drunk-as-i-like-gensokyo-chugging-contest",
  "year": null,
  "banner_url": "",
  "icon_url": "",
  "coverart": "https://lutris.net/media/igdb/cover_big/co4rxm.jpg",
  "platforms": [],
  "provider_games": [
    {
      "name": "Drunk As I Like: Gensokyo Chugging Contest",
      "slug": "drunk-as-i-like-gensokyo-chugging-contest",
      "service": "igdb"
    }
  ],
  "aliases": [],
  "shaders": [],
  "discord_id": "",
  "change_for": null
}