{
  "id": 81204,
  "name": "Tales of Terror: Estate of the Heart",
  "slug": "tales-of-terror-estate-of-the-heart",
  "year": null,
  "banner_url": "",
  "icon_url": "",
  "coverart": null,
  "platforms": [],
  "provider_games": [
    {
      "name": "Tales of Terror: Estate of the Heart",
      "slug": "tales-of-terror-estate-of-the-heart",
      "service": "igdb"
    }
  ],
  "aliases": [],
  "shaders": [],
  "discord_id": "",
  "change_for": null
}