{
  "id": 8695,
  "name": "Scourge of War: Waterloo",
  "slug": "scourge-of-war-waterloo",
  "year": 2015,
  "banner_url": "https://lutris.net/games/banner/scourge-of-war-waterloo.jpg",
  "icon_url": "https://lutris.net/games/icon/scourge-of-war-waterloo.png",
  "coverart": "https://lutris.net/media/igdb/cover_big/co2r94.jpg",
  "platforms": [
    {
      "name": "Windows"
    }
  ],
  "provider_games": [
    {
      "name": "Scourge of War: Waterloo",
      "slug": "369390",
      "service": "steam"
    },
    {
      "name": "Scourge of War: Waterloo",
      "slug": "scourge-of-war-waterloo",
      "service": "igdb"
    }
  ],
  "aliases": [],
  "shaders": [],
  "discord_id": "",
  "change_for": null
}