{
  "id": 189743,
  "name": "Love, Money, Rock'n'Roll",
  "slug": "love-money-rocknroll",
  "year": 2022,
  "banner_url": "https://lutris.net/games/banner/love-money-rocknroll.jpg",
  "icon_url": "",
  "coverart": "https://lutris.net/media/igdb/cover_big/co2pa1.jpg",
  "platforms": [
    {
      "name": "Android"
    },
    {
      "name": "Browser"
    },
    {
      "name": "Linux"
    },
    {
      "name": "Mac"
    },
    {
      "name": "Windows"
    },
    {
      "name": "Windows Phone"
    }
  ],
  "provider_games": [
    {
      "name": "Love, Money, Rock'n'Roll",
      "slug": "615530",
      "service": "steam"
    },
    {
      "name": "Love, Money, Rock'n'Roll",
      "slug": "love-money-rocknroll",
      "service": "igdb"
    }
  ],
  "aliases": [],
  "shaders": [],
  "discord_id": "",
  "change_for": null
}