{
  "id": 58848,
  "name": "Shoppy Mart",
  "slug": "shoppy-mart",
  "year": null,
  "banner_url": "",
  "icon_url": "",
  "coverart": "https://lutris.net/media/igdb/cover_big/wsm9vgtrj4zasf8p5y4k.jpg",
  "platforms": [],
  "provider_games": [
    {
      "name": "Shoppy Mart",
      "slug": "shoppy-mart",
      "service": "igdb"
    }
  ],
  "aliases": [],
  "shaders": [],
  "discord_id": "",
  "change_for": null
}