{
  "id": 264697,
  "name": "The House zebaxx",
  "slug": "the-house-zebaxx",
  "year": 2023,
  "banner_url": "https://lutris.net/games/banner/the-house-zebaxx.jpg",
  "icon_url": "",
  "coverart": null,
  "platforms": [
    {
      "name": "Linux"
    },
    {
      "name": "Windows"
    }
  ],
  "provider_games": [],
  "aliases": [],
  "shaders": [],
  "discord_id": "",
  "change_for": null
}