{
  "id": 215320,
  "name": "Blue Diamonds Slot Machine",
  "slug": "blue-diamonds-slot-machine",
  "year": 1995,
  "banner_url": "",
  "icon_url": "",
  "coverart": "https://lutris.net/media/igdb/cover_big/co59z6.jpg",
  "platforms": [],
  "provider_games": [
    {
      "name": "Blue Diamonds Slot Machine",
      "slug": "blue-diamonds-slot-machine",
      "service": "igdb"
    }
  ],
  "aliases": [],
  "shaders": [],
  "discord_id": "",
  "change_for": null
}