{
  "id": 35205,
  "name": "Medal Mahjong Pachi-Slot Tengoku [BET]",
  "slug": "medal-mahjong-pachi-slot-tengoku-bet",
  "year": 1993,
  "banner_url": "",
  "icon_url": "https://lutris.net/games/icon/medal-mahjong-pachi-slot-tengoku-bet.png",
  "coverart": null,
  "platforms": [
    {
      "name": "Arcade"
    }
  ],
  "provider_games": [
    {
      "name": "Medal Mahjong Pachi-Slot Tengoku [BET]",
      "slug": "pachiten",
      "service": "mame"
    }
  ],
  "aliases": [],
  "shaders": [],
  "discord_id": "",
  "change_for": null
}