{
  "id": 183143,
  "name": "Crystal Captor: Memory Chronicle Finale",
  "slug": "crystal-captor-memory-chronicle-finale",
  "year": null,
  "banner_url": "",
  "icon_url": "",
  "coverart": "https://lutris.net/media/igdb/cover_big/co5x6s.jpg",
  "platforms": [],
  "provider_games": [
    {
      "name": "Crystal Captor: Memory Chronicle Finale",
      "slug": "crystal-captor-memory-chronicle-finale",
      "service": "igdb"
    }
  ],
  "aliases": [],
  "shaders": [],
  "discord_id": "",
  "change_for": null
}