{
  "id": 37927,
  "name": "RayStorm",
  "slug": "raystorm",
  "year": 1996,
  "banner_url": "https://lutris.net/games/banner/raystorm.jpg",
  "icon_url": "",
  "coverart": "https://lutris.net/media/igdb/cover_big/co2ey6.jpg",
  "platforms": [
    {
      "name": "Arcade"
    },
    {
      "name": "Sega Saturn"
    },
    {
      "name": "Sony PlayStation"
    },
    {
      "name": "Windows"
    }
  ],
  "provider_games": [
    {
      "name": "RayStorm",
      "slug": "raystorm",
      "service": "igdb"
    }
  ],
  "aliases": [],
  "shaders": [],
  "discord_id": "",
  "change_for": null
}