{
  "id": 69846,
  "name": "dbaza's Diabetes Education for Kids",
  "slug": "dbazas-diabetes-education-for-kids",
  "year": null,
  "banner_url": "",
  "icon_url": "",
  "coverart": null,
  "platforms": [],
  "provider_games": [
    {
      "name": "dbaza's Diabetes Education for Kids",
      "slug": "dbazas-diabetes-education-for-kids",
      "service": "igdb"
    }
  ],
  "aliases": [],
  "shaders": [],
  "discord_id": "",
  "change_for": null
}