{
  "id": 3657,
  "name": "This War of Mine",
  "slug": "this-war-of-mine",
  "year": 2014,
  "banner_url": "https://lutris.net/games/banner/this-war-of-mine.jpg",
  "icon_url": "https://lutris.net/games/icon/this-war-of-mine.png",
  "coverart": "https://lutris.net/media/igdb/cover_big/co3ans.jpg",
  "platforms": [
    {
      "name": "Android"
    },
    {
      "name": "Linux"
    },
    {
      "name": "Mac"
    },
    {
      "name": "Sony Playstation 4"
    },
    {
      "name": "Windows"
    },
    {
      "name": "Xbox One"
    }
  ],
  "provider_games": [
    {
      "name": "This War of Mine",
      "slug": "1207666873",
      "service": "gog"
    },
    {
      "name": "This War of Mine",
      "slug": "282070",
      "service": "steam"
    },
    {
      "name": "This War of Mine",
      "slug": "this-war-of-mine",
      "service": "igdb"
    }
  ],
  "aliases": [],
  "shaders": [],
  "discord_id": "406646471098892298",
  "change_for": null
}