{
  "id": 291020,
  "name": "Project Adrenaline",
  "slug": "project-adrenaline",
  "year": null,
  "banner_url": "",
  "icon_url": "",
  "coverart": "https://lutris.net/media/igdb/cover_big/co8la1.jpg",
  "platforms": [],
  "provider_games": [
    {
      "name": "Project Adrenaline",
      "slug": "project-adrenaline",
      "service": "igdb"
    }
  ],
  "aliases": [],
  "shaders": [],
  "discord_id": "",
  "change_for": null
}