{
  "id": 112802,
  "name": "Steel Lords",
  "slug": "steel-lords",
  "year": 2016,
  "banner_url": "",
  "icon_url": "",
  "coverart": "https://lutris.net/media/igdb/cover_big/os8xjjbe0ldrciyhyd3j.jpg",
  "platforms": [
    {
      "name": "Nintendo Wii U"
    }
  ],
  "provider_games": [
    {
      "name": "Steel Lords",
      "slug": "steel-lords",
      "service": "igdb"
    }
  ],
  "aliases": [],
  "shaders": [],
  "discord_id": "",
  "change_for": null
}