{
  "id": 69114,
  "name": "Familiar Spirit of the Demon Lord",
  "slug": "familiar-spirit-of-the-demon-lord",
  "year": null,
  "banner_url": "",
  "icon_url": "",
  "coverart": "https://lutris.net/media/igdb/cover_big/eed1yo5tjxh0mfrenjhv.jpg",
  "platforms": [],
  "provider_games": [
    {
      "name": "Familiar Spirit of the Demon Lord",
      "slug": "familiar-spirit-of-the-demon-lord",
      "service": "igdb"
    }
  ],
  "aliases": [],
  "shaders": [],
  "discord_id": "",
  "change_for": null
}