{
  "id": 210637,
  "name": "Little Knight Wars",
  "slug": "little-knight-wars",
  "year": null,
  "banner_url": "",
  "icon_url": "",
  "coverart": null,
  "platforms": [],
  "provider_games": [
    {
      "name": "Little Knight Wars",
      "slug": "little-knight-wars",
      "service": "igdb"
    }
  ],
  "aliases": [],
  "shaders": [],
  "discord_id": "",
  "change_for": null
}