{
  "id": 79757,
  "name": "The Desolate Room",
  "slug": "the-desolate-room",
  "year": 2007,
  "banner_url": "",
  "icon_url": "",
  "coverart": "https://lutris.net/media/igdb/cover_big/hin6ys0dhfflz6yyurxv.jpg",
  "platforms": [
    {
      "name": "Windows"
    }
  ],
  "provider_games": [
    {
      "name": "The Desolate Room",
      "slug": "the-desolate-room",
      "service": "igdb"
    }
  ],
  "aliases": [],
  "shaders": [],
  "discord_id": "",
  "change_for": null
}