{
  "id": 226745,
  "name": "From TV Animation One Piece: Treasure Battle!",
  "slug": "from-tv-animation-one-piece-treasure-battle",
  "year": 2002,
  "banner_url": "",
  "icon_url": "",
  "coverart": null,
  "platforms": [
    {
      "name": "Nintendo GameCube"
    }
  ],
  "provider_games": [
    {
      "name": "From TV Animation One Piece: Treasure Battle!",
      "slug": "from-tv-animation-one-piece-treasure-battle",
      "service": "igdb"
    }
  ],
  "aliases": [],
  "shaders": [],
  "discord_id": "",
  "change_for": null
}