{
  "id": 255846,
  "name": "World War 2: WW2 Strategy Games",
  "slug": "world-war-2-ww2-strategy-games",
  "year": null,
  "banner_url": "",
  "icon_url": "",
  "coverart": "https://lutris.net/media/igdb/cover_big/co6xuu.jpg",
  "platforms": [],
  "provider_games": [
    {
      "name": "World War 2: WW2 Strategy Games",
      "slug": "world-war-2-ww2-strategy-games",
      "service": "igdb"
    }
  ],
  "aliases": [],
  "shaders": [],
  "discord_id": "",
  "change_for": null
}