{
  "id": 303817,
  "name": "Lucky Pirate: Uncharted Territory",
  "slug": "lucky-pirate-uncharted-territory",
  "year": 2021,
  "banner_url": "",
  "icon_url": "",
  "coverart": "https://lutris.net/media/igdb/cover_big/co96bl.jpg",
  "platforms": [
    {
      "name": "Android"
    }
  ],
  "provider_games": [
    {
      "name": "Lucky Pirate: Uncharted Territory",
      "slug": "lucky-pirate-uncharted-territory",
      "service": "igdb"
    }
  ],
  "aliases": [],
  "shaders": [],
  "discord_id": "",
  "change_for": null
}