{
  "id": 4119,
  "name": "Total War: ATTILA",
  "slug": "total-war-attila",
  "year": 2015,
  "banner_url": "https://lutris.net/games/banner/total-war-attila.jpg",
  "icon_url": "https://lutris.net/games/icon/total-war-attila.png",
  "coverart": "https://lutris.net/media/igdb/cover_big/co2rpx.jpg",
  "platforms": [
    {
      "name": "Linux"
    },
    {
      "name": "Mac"
    },
    {
      "name": "Windows"
    }
  ],
  "provider_games": [
    {
      "name": "Total War: ATTILA",
      "slug": "325610",
      "service": "steam"
    },
    {
      "name": "Total War: Attila",
      "slug": "total-war-attila",
      "service": "igdb"
    }
  ],
  "aliases": [],
  "shaders": [],
  "discord_id": "",
  "change_for": null
}