{
  "id": 51080,
  "name": "Space Slalom",
  "slug": "space-slalom",
  "year": 1983,
  "banner_url": "",
  "icon_url": "",
  "coverart": "https://lutris.net/media/igdb/cover_big/tulf4o2gxhb7dkltbve3.jpg",
  "platforms": [
    {
      "name": "SG-1000"
    }
  ],
  "provider_games": [
    {
      "name": "Space Slalom",
      "slug": "space-slalom",
      "service": "igdb"
    }
  ],
  "aliases": [],
  "shaders": [],
  "discord_id": "",
  "change_for": null
}