{
  "id": 187406,
  "name": "Watch_Dogs 1985",
  "slug": "watch-dogs-1985",
  "year": null,
  "banner_url": "",
  "icon_url": "",
  "coverart": "https://lutris.net/media/igdb/cover_big/co8f4d.jpg",
  "platforms": [],
  "provider_games": [
    {
      "name": "Watch_Dogs 1985",
      "slug": "watch-dogs-1985",
      "service": "igdb"
    }
  ],
  "aliases": [],
  "shaders": [],
  "discord_id": "",
  "change_for": null
}