{
  "id": 133878,
  "name": "Banter Schooldays!!三〇一室无一人",
  "slug": "banter-schooldays-san-0-shi-wu-ren",
  "year": null,
  "banner_url": "",
  "icon_url": "",
  "coverart": "https://lutris.net/media/igdb/cover_big/co3lx0.jpg",
  "platforms": [],
  "provider_games": [
    {
      "name": "Banter Schooldays!!三〇一室无一人",
      "slug": "banter-schooldays-san-0-shi-wu-ren",
      "service": "igdb"
    }
  ],
  "aliases": [],
  "shaders": [],
  "discord_id": "",
  "change_for": null
}