{
  "id": 250673,
  "name": "Re:Gals Panic",
  "slug": "regals-panic",
  "year": null,
  "banner_url": "https://lutris.net/games/banner/regals-panic.jpg",
  "icon_url": "https://lutris.net/games/icon/regals-panic.png",
  "coverart": null,
  "platforms": [],
  "provider_games": [
    {
      "name": "Re:Gals Panic｜幻想天蠶變",
      "slug": "1154720",
      "service": "steam"
    }
  ],
  "aliases": [],
  "shaders": [],
  "discord_id": "",
  "change_for": null
}