{
  "id": 197135,
  "name": "Sonny X'press!",
  "slug": "sonny-xpress",
  "year": null,
  "banner_url": "",
  "icon_url": "",
  "coverart": "https://lutris.net/media/igdb/cover_big/co4lg1.jpg",
  "platforms": [],
  "provider_games": [
    {
      "name": "Sonny X'press!",
      "slug": "sonny-xpress",
      "service": "igdb"
    }
  ],
  "aliases": [],
  "shaders": [],
  "discord_id": "",
  "change_for": null
}