{
  "id": 200169,
  "name": "Maid Master",
  "slug": "maid-master",
  "year": null,
  "banner_url": "",
  "icon_url": "",
  "coverart": "https://lutris.net/media/igdb/cover_big/co9a71.jpg",
  "platforms": [],
  "provider_games": [
    {
      "name": "Maid Master",
      "slug": "maid-master",
      "service": "igdb"
    }
  ],
  "aliases": [],
  "shaders": [],
  "discord_id": "",
  "change_for": null
}