{
  "id": 73881,
  "name": "Package Handler VR",
  "slug": "package-handler-vr",
  "year": null,
  "banner_url": "",
  "icon_url": "",
  "coverart": null,
  "platforms": [],
  "provider_games": [
    {
      "name": "Package Handler VR",
      "slug": "package-handler-vr",
      "service": "igdb"
    }
  ],
  "aliases": [],
  "shaders": [],
  "discord_id": "",
  "change_for": null
}