{
  "id": 276617,
  "name": "Fumo",
  "slug": "fumo--1",
  "year": null,
  "banner_url": "",
  "icon_url": "",
  "coverart": "https://lutris.net/media/igdb/cover_big/co7u8y.jpg",
  "platforms": [],
  "provider_games": [
    {
      "name": "Fumo",
      "slug": "fumo--1",
      "service": "igdb"
    }
  ],
  "aliases": [],
  "shaders": [],
  "discord_id": "",
  "change_for": null
}