{
  "id": 13156,
  "game_id": 26995,
  "game_slug": "mortal-kombat-11",
  "name": "Mortal Kombat 11",
  "year": 2019,
  "user": "OsamaBinlada",
  "runner": "steam",
  "slug": "mortal-kombat-11-steam-proton",
  "version": "Steam Proton",
  "description": null,
  "notes": "",
  "credits": "",
  "created_at": "2019-04-27T16:08:29.641613Z",
  "updated_at": "2021-12-13T19:17:50.275012Z",
  "draft": false,
  "published": true,
  "published_by": null,
  "rating": "",
  "is_playable": null,
  "steamid": 976310,
  "gogid": null,
  "gogslug": "",
  "humbleid": "",
  "humblestoreid": "",
  "humblestoreid_real": "",
  "script": {
    "game": {
      "appid": 976310
    }
  },
  "content": "game:\r\n  appid: 976310",
  "discord_id": ""
}