{
  "id": 123165,
  "name": "局外人 L'Etranger",
  "slug": "ju-wai-ren-letranger",
  "year": 2019,
  "banner_url": "",
  "icon_url": "",
  "coverart": "https://lutris.net/media/igdb/cover_big/co37iw.jpg",
  "platforms": [
    {
      "name": "Mac"
    },
    {
      "name": "Windows"
    }
  ],
  "provider_games": [
    {
      "name": "局外人 L'Etranger",
      "slug": "ju-wai-ren-letranger",
      "service": "igdb"
    }
  ],
  "aliases": [],
  "shaders": [],
  "discord_id": "",
  "change_for": null
}