{
  "id": 99901,
  "name": "Nil Admiral no Tenbin Kuroyuri Enyoutan",
  "slug": "nil-admiral-no-tenbin-kuroyuri-enyoutan",
  "year": 2017,
  "banner_url": "",
  "icon_url": "",
  "coverart": "https://lutris.net/media/igdb/cover_big/co250f.jpg",
  "platforms": [
    {
      "name": "PlayStation Vita"
    }
  ],
  "provider_games": [
    {
      "name": "Nil Admiral no Tenbin Kuroyuri Enyoutan",
      "slug": "nil-admiral-no-tenbin-kuroyuri-enyoutan",
      "service": "igdb"
    }
  ],
  "aliases": [],
  "shaders": [],
  "discord_id": "",
  "change_for": null
}