{
  "id": 285180,
  "name": "Express Courier Pro: Urban Bike Delivery Simulator 2024!",
  "slug": "express-courier-pro-urban-bike-delivery-simulator-2024",
  "year": 2024,
  "banner_url": "",
  "icon_url": "",
  "coverart": "https://lutris.net/media/igdb/cover_big/co87a7.jpg",
  "platforms": [
    {
      "name": "Nintendo Switch"
    }
  ],
  "provider_games": [
    {
      "name": "Express Courier Pro: Urban Bike Delivery Simulator 2024!",
      "slug": "express-courier-pro-urban-bike-delivery-simulator-2024",
      "service": "igdb"
    }
  ],
  "aliases": [],
  "shaders": [],
  "discord_id": "",
  "change_for": null
}