{
  "id": 187026,
  "name": "Stereo Driver",
  "slug": "stereo-driver",
  "year": null,
  "banner_url": "",
  "icon_url": "",
  "coverart": null,
  "platforms": [],
  "provider_games": [
    {
      "name": "Stereo Driver",
      "slug": "stereo-driver",
      "service": "igdb"
    }
  ],
  "aliases": [],
  "shaders": [],
  "discord_id": "",
  "change_for": null
}