{
  "id": 60792,
  "name": "Dragon's Dogma Quest",
  "slug": "dragons-dogma-quest",
  "year": 2013,
  "banner_url": "",
  "icon_url": "",
  "coverart": "https://lutris.net/media/igdb/cover_big/icucnabbm8wqtjxa7oia.jpg",
  "platforms": [
    {
      "name": "PlayStation Vita"
    }
  ],
  "provider_games": [
    {
      "name": "Dragon's Dogma Quest",
      "slug": "dragons-dogma-quest",
      "service": "igdb"
    }
  ],
  "aliases": [],
  "shaders": [],
  "discord_id": "",
  "change_for": null
}