{
  "id": 225047,
  "name": "Simple 1500 Series Vol. 37: The Illustration Puzzle & Slide Puzzle",
  "slug": "simple-1500-series-vol-37-the-illustration-puzzle-and-slide-puzzle",
  "year": 2000,
  "banner_url": "",
  "icon_url": "",
  "coverart": "https://lutris.net/media/igdb/cover_big/co4sv0.jpg",
  "platforms": [
    {
      "name": "Sony PlayStation"
    }
  ],
  "provider_games": [
    {
      "name": "Simple 1500 Series Vol. 37: The Illustration Puzzle & Slide Puzzle",
      "slug": "simple-1500-series-vol-37-the-illustration-puzzle-and-slide-puzzle",
      "service": "igdb"
    }
  ],
  "aliases": [],
  "shaders": [],
  "discord_id": "",
  "change_for": null
}