{
  "id": 25842,
  "name": "Putin takes taxes",
  "slug": "putin-takes-taxes",
  "year": 2018,
  "banner_url": "https://lutris.net/games/banner/putin-takes-taxes.jpg",
  "icon_url": "https://lutris.net/games/icon/putin-takes-taxes.png",
  "coverart": null,
  "platforms": [
    {
      "name": "Windows"
    }
  ],
  "provider_games": [
    {
      "name": "Putin takes taxes",
      "slug": "798960",
      "service": "steam"
    },
    {
      "name": "Putin takes taxes",
      "slug": "putin-takes-taxes",
      "service": "igdb"
    }
  ],
  "aliases": [],
  "shaders": [],
  "discord_id": "",
  "change_for": null
}