{
  "id": 94171,
  "name": "Battle of Luzon 1945",
  "slug": "battle-of-luzon-1945",
  "year": null,
  "banner_url": "",
  "icon_url": "",
  "coverart": null,
  "platforms": [],
  "provider_games": [
    {
      "name": "Battle of Luzon 1945",
      "slug": "battle-of-luzon-1945",
      "service": "igdb"
    }
  ],
  "aliases": [],
  "shaders": [],
  "discord_id": "",
  "change_for": null
}