{
  "id": 17889,
  "name": "Armored Evolution",
  "slug": "armored-evolution",
  "year": 2019,
  "banner_url": "https://lutris.net/games/banner/armored-evolution.jpg",
  "icon_url": "https://lutris.net/games/icon/armored-evolution.png",
  "coverart": "https://lutris.net/media/igdb/cover_big/co2jcn.jpg",
  "platforms": [
    {
      "name": "Mac"
    },
    {
      "name": "Windows"
    }
  ],
  "provider_games": [
    {
      "name": "Armored Evolution",
      "slug": "778840",
      "service": "steam"
    },
    {
      "name": "Armored Evolution",
      "slug": "armored-evolution",
      "service": "igdb"
    }
  ],
  "aliases": [],
  "shaders": [],
  "discord_id": "",
  "change_for": null
}