{
  "id": 282285,
  "name": "Sync",
  "slug": "sync--1",
  "year": null,
  "banner_url": "",
  "icon_url": "",
  "coverart": "https://lutris.net/media/igdb/cover_big/co829k.jpg",
  "platforms": [],
  "provider_games": [
    {
      "name": "Sync",
      "slug": "sync--1",
      "service": "igdb"
    }
  ],
  "aliases": [],
  "shaders": [],
  "discord_id": "",
  "change_for": null
}