{
  "id": 296872,
  "name": "Diluvian Ultra: Awakening",
  "slug": "diluvian-ultra-awakening",
  "year": 2024,
  "banner_url": "",
  "icon_url": "",
  "coverart": null,
  "platforms": [],
  "provider_games": [],
  "aliases": [],
  "shaders": [],
  "discord_id": "",
  "change_for": null
}