{
  "id": 140354,
  "name": "Kandidatos Kart",
  "slug": "kandidatos-kart",
  "year": 2020,
  "banner_url": "https://lutris.net/games/banner/kandidatos-kart.jpg",
  "icon_url": "",
  "coverart": "https://lutris.net/media/igdb/cover_big/co2upi.jpg",
  "platforms": [
    {
      "name": "Windows"
    }
  ],
  "provider_games": [
    {
      "name": "Kandidatos Kart",
      "slug": "1415140",
      "service": "steam"
    },
    {
      "name": "Kandidatos Kart",
      "slug": "kandidatos-kart",
      "service": "igdb"
    }
  ],
  "aliases": [],
  "shaders": [],
  "discord_id": "",
  "change_for": null
}