{
  "id": 78399,
  "name": "Two Worlds: The Game of the Year Edition",
  "slug": "two-worlds-the-game-of-the-year-edition",
  "year": null,
  "banner_url": "",
  "icon_url": "",
  "coverart": null,
  "platforms": [],
  "provider_games": [
    {
      "name": "Two Worlds: The Game of the Year Edition",
      "slug": "two-worlds-the-game-of-the-year-edition",
      "service": "igdb"
    }
  ],
  "aliases": [],
  "shaders": [],
  "discord_id": "",
  "change_for": null
}