{
  "id": 58136,
  "name": "Girlfriend Note",
  "slug": "girlfriend-note",
  "year": null,
  "banner_url": "",
  "icon_url": "",
  "coverart": null,
  "platforms": [],
  "provider_games": [
    {
      "name": "Girlfriend Note",
      "slug": "girlfriend-note",
      "service": "igdb"
    }
  ],
  "aliases": [],
  "shaders": [],
  "discord_id": "",
  "change_for": null
}