{
  "id": 256045,
  "name": "Return to Riddle School",
  "slug": "return-to-riddle-school",
  "year": 2016,
  "banner_url": "",
  "icon_url": "",
  "coverart": "https://lutris.net/media/igdb/cover_big/co6xuk.jpg",
  "platforms": [
    {
      "name": "Windows"
    }
  ],
  "provider_games": [
    {
      "name": "Return to Riddle School",
      "slug": "return-to-riddle-school",
      "service": "igdb"
    }
  ],
  "aliases": [],
  "shaders": [],
  "discord_id": "",
  "change_for": null
}