{
  "id": 202154,
  "name": "Annulus",
  "slug": "annulus--1",
  "year": null,
  "banner_url": "",
  "icon_url": "",
  "coverart": "https://lutris.net/media/igdb/cover_big/co6lou.jpg",
  "platforms": [],
  "provider_games": [
    {
      "name": "Annulus",
      "slug": "annulus--1",
      "service": "igdb"
    }
  ],
  "aliases": [],
  "shaders": [],
  "discord_id": "",
  "change_for": null
}