{
  "id": 34451,
  "name": "Heavy Unit",
  "slug": "heavy-unit",
  "year": 1988,
  "banner_url": "https://lutris.net/games/banner/heavy-unit.jpg",
  "icon_url": "https://lutris.net/games/icon/heavy-unit.png",
  "coverart": "https://lutris.net/media/igdb/cover_big/ccvkns6hzw88ivk4e8vr.jpg",
  "platforms": [
    {
      "name": "Arcade"
    }
  ],
  "provider_games": [
    {
      "name": "Heavy Unit",
      "slug": "hvyunit",
      "service": "mame"
    },
    {
      "name": "Heavy Unit",
      "slug": "heavy-unit",
      "service": "igdb"
    }
  ],
  "aliases": [],
  "shaders": [],
  "discord_id": "",
  "change_for": null
}