{
  "id": 63049,
  "name": "All American",
  "slug": "all-american",
  "year": null,
  "banner_url": "",
  "icon_url": "",
  "coverart": "https://lutris.net/media/igdb/cover_big/gprmyxoifdkmiixro4io.jpg",
  "platforms": [],
  "provider_games": [
    {
      "name": "All American",
      "slug": "all-american",
      "service": "igdb"
    }
  ],
  "aliases": [],
  "shaders": [],
  "discord_id": "",
  "change_for": null
}