{
  "id": 58478,
  "name": "Mahjong Gakuen Touma Soushirou Toujou",
  "slug": "mahjong-gakuen-touma-soushirou-toujou",
  "year": 1989,
  "banner_url": "",
  "icon_url": "",
  "coverart": "https://lutris.net/media/igdb/cover_big/rtxtdqyvsuyyuswov2nw.jpg",
  "platforms": [
    {
      "name": "TurboGrafx-16/PC Engine"
    }
  ],
  "provider_games": [
    {
      "name": "Mahjong Gakuen Touma Soushirou Toujou",
      "slug": "mahjong-gakuen-touma-soushirou-toujou",
      "service": "igdb"
    }
  ],
  "aliases": [],
  "shaders": [],
  "discord_id": "",
  "change_for": null
}