{
  "id": 166136,
  "name": "Tank Royale",
  "slug": "tank-royale",
  "year": null,
  "banner_url": "",
  "icon_url": "",
  "coverart": "https://lutris.net/media/igdb/cover_big/co42xa.jpg",
  "platforms": [],
  "provider_games": [
    {
      "name": "Tank Royale",
      "slug": "tank-royale",
      "service": "igdb"
    }
  ],
  "aliases": [],
  "shaders": [],
  "discord_id": "",
  "change_for": null
}