{
  "id": 269984,
  "name": "Pop'n Taisen Puzzle Dama Online",
  "slug": "popn-taisen-puzzle-dama-online",
  "year": 2004,
  "banner_url": "",
  "icon_url": "",
  "coverart": "https://lutris.net/media/igdb/cover_big/co7knt.jpg",
  "platforms": [
    {
      "name": "Sony PlayStation 2"
    }
  ],
  "provider_games": [
    {
      "name": "Pop'n Taisen Puzzle Dama Online",
      "slug": "popn-taisen-puzzle-dama-online",
      "service": "igdb"
    }
  ],
  "aliases": [],
  "shaders": [],
  "discord_id": "",
  "change_for": null
}