{
  "id": 189169,
  "name": "Critadel",
  "slug": "critadel",
  "year": 2021,
  "banner_url": "https://lutris.net/games/banner/critadel.jpg",
  "icon_url": "",
  "coverart": "https://lutris.net/media/igdb/cover_big/co3nw6.jpg",
  "platforms": [
    {
      "name": "Nintendo Switch"
    },
    {
      "name": "Windows"
    }
  ],
  "provider_games": [
    {
      "name": "Critadel",
      "slug": "critadel",
      "service": "igdb"
    },
    {
      "name": "Critadel",
      "slug": "808010",
      "service": "steam"
    }
  ],
  "aliases": [],
  "shaders": [],
  "discord_id": "",
  "change_for": null
}