{
  "id": 280897,
  "name": "Hive Dive",
  "slug": "hive-dive",
  "year": null,
  "banner_url": "",
  "icon_url": "",
  "coverart": "https://lutris.net/media/igdb/cover_big/co7zui.jpg",
  "platforms": [],
  "provider_games": [
    {
      "name": "Hive Dive",
      "slug": "hive-dive",
      "service": "igdb"
    }
  ],
  "aliases": [],
  "shaders": [],
  "discord_id": "",
  "change_for": null
}