{
  "id": 7522,
  "name": "Zipple World",
  "slug": "zipple-world",
  "year": 2016,
  "banner_url": "https://lutris.net/games/banner/zipple-world.jpg",
  "icon_url": "https://lutris.net/games/icon/zipple-world.png",
  "coverart": "https://lutris.net/media/igdb/cover_big/co2ety.jpg",
  "platforms": [
    {
      "name": "Windows"
    }
  ],
  "provider_games": [
    {
      "name": "Zipple World",
      "slug": "433110",
      "service": "steam"
    },
    {
      "name": "Zipple World",
      "slug": "zipple-world",
      "service": "igdb"
    }
  ],
  "aliases": [],
  "shaders": [],
  "discord_id": "",
  "change_for": null
}