{
  "id": 32360,
  "name": "The Dark Inside Me",
  "slug": "the-dark-inside-me",
  "year": 2018,
  "banner_url": "https://lutris.net/games/banner/the-dark-inside-me.jpg",
  "icon_url": "https://lutris.net/games/icon/the-dark-inside-me.png",
  "coverart": "https://lutris.net/media/igdb/cover_big/co4o8e.jpg",
  "platforms": [
    {
      "name": "Windows"
    }
  ],
  "provider_games": [
    {
      "name": "The Dark Inside Me",
      "slug": "345230",
      "service": "steam"
    },
    {
      "name": "The Dark Inside Me",
      "slug": "the-dark-inside-me",
      "service": "igdb"
    }
  ],
  "aliases": [],
  "shaders": [],
  "discord_id": "",
  "change_for": null
}