{
  "id": 66461,
  "name": "Dork's Dreams",
  "slug": "dorks-dreams",
  "year": null,
  "banner_url": "",
  "icon_url": "",
  "coverart": null,
  "platforms": [],
  "provider_games": [
    {
      "name": "Dork's Dreams",
      "slug": "dorks-dreams",
      "service": "igdb"
    }
  ],
  "aliases": [],
  "shaders": [],
  "discord_id": "",
  "change_for": null
}