{
  "id": 159134,
  "name": "Terra Lander II: Rockslide Rescue",
  "slug": "terra-lander-ii-rockslide-rescue",
  "year": 2020,
  "banner_url": "",
  "icon_url": "",
  "coverart": "https://lutris.net/media/igdb/cover_big/co2m1i.jpg",
  "platforms": [
    {
      "name": "Nintendo Switch"
    },
    {
      "name": "Sony Playstation 4"
    },
    {
      "name": "Windows"
    }
  ],
  "provider_games": [
    {
      "name": "Terra Lander II - Rockslide Rescue",
      "slug": "2012018643",
      "service": "gog"
    },
    {
      "name": "Terra Lander II: Rockslide Rescue",
      "slug": "terra-lander-ii-rockslide-rescue",
      "service": "igdb"
    }
  ],
  "aliases": [],
  "shaders": [],
  "discord_id": "",
  "change_for": null
}