{
  "id": 75411,
  "name": "Our Worlds",
  "slug": "our-worlds",
  "year": null,
  "banner_url": "",
  "icon_url": "",
  "coverart": null,
  "platforms": [],
  "provider_games": [
    {
      "name": "Our Worlds",
      "slug": "our-worlds",
      "service": "igdb"
    }
  ],
  "aliases": [],
  "shaders": [],
  "discord_id": "",
  "change_for": null
}