{
  "id": 282184,
  "name": "I`m Isekai Hero",
  "slug": "im-isekai-hero",
  "year": null,
  "banner_url": "",
  "icon_url": "",
  "coverart": "https://lutris.net/media/igdb/cover_big/co82g0.jpg",
  "platforms": [],
  "provider_games": [
    {
      "name": "I`m Isekai Hero",
      "slug": "im-isekai-hero",
      "service": "igdb"
    }
  ],
  "aliases": [],
  "shaders": [],
  "discord_id": "",
  "change_for": null
}