{
  "id": 284583,
  "name": "Kindergarten 3",
  "slug": "kindergarten-3",
  "year": null,
  "banner_url": "",
  "icon_url": "",
  "coverart": "https://lutris.net/media/igdb/cover_big/co86d5.jpg",
  "platforms": [],
  "provider_games": [
    {
      "name": "Kindergarten 3",
      "slug": "kindergarten-3",
      "service": "igdb"
    }
  ],
  "aliases": [],
  "shaders": [],
  "discord_id": "",
  "change_for": null
}