{
  "id": 156393,
  "name": "Bullet Battle",
  "slug": "bullet-battle",
  "year": null,
  "banner_url": "",
  "icon_url": "",
  "coverart": null,
  "platforms": [],
  "provider_games": [
    {
      "name": "Bullet Battle",
      "slug": "bullet-battle",
      "service": "igdb"
    }
  ],
  "aliases": [],
  "shaders": [],
  "discord_id": "",
  "change_for": null
}