{
  "id": 305439,
  "name": "Soul Survivor",
  "slug": "soul-survivor--2",
  "year": null,
  "banner_url": "",
  "icon_url": "",
  "coverart": "https://lutris.net/media/igdb/cover_big/co9b0u.jpg",
  "platforms": [],
  "provider_games": [
    {
      "name": "Soul Survivor",
      "slug": "soul-survivor--2",
      "service": "igdb"
    }
  ],
  "aliases": [],
  "shaders": [],
  "discord_id": "",
  "change_for": null
}