{
  "id": 296391,
  "name": "A Day to Bring Them Happiness",
  "slug": "a-day-to-bring-them-happiness",
  "year": 2020,
  "banner_url": "",
  "icon_url": "",
  "coverart": "https://lutris.net/media/igdb/cover_big/co8p4r.jpg",
  "platforms": [
    {
      "name": "Windows"
    }
  ],
  "provider_games": [
    {
      "name": "A Day to Bring Them Happiness",
      "slug": "a-day-to-bring-them-happiness",
      "service": "igdb"
    }
  ],
  "aliases": [],
  "shaders": [],
  "discord_id": "",
  "change_for": null
}