{
  "id": 10078,
  "name": "Pocket Gal Deluxe",
  "slug": "pocket-gal-deluxe",
  "year": 1993,
  "banner_url": "https://lutris.net/games/banner/pocket-gal-deluxe.jpg",
  "icon_url": "https://lutris.net/games/icon/pocket-gal-deluxe.png",
  "coverart": "https://lutris.net/media/igdb/cover_big/co3wdn.jpg",
  "platforms": [
    {
      "name": "Arcade"
    }
  ],
  "provider_games": [
    {
      "name": "Pocket Gal Deluxe",
      "slug": "pktgaldx",
      "service": "mame"
    },
    {
      "name": "Pocket Gal Deluxe",
      "slug": "pocket-gal-deluxe",
      "service": "igdb"
    }
  ],
  "aliases": [],
  "shaders": [],
  "discord_id": "",
  "change_for": null
}