{
  "id": 182373,
  "name": "Orbital Paladin Melchior Y",
  "slug": "orbital-paladin-melchior-y",
  "year": null,
  "banner_url": "",
  "icon_url": "",
  "coverart": "https://lutris.net/media/igdb/cover_big/co605m.jpg",
  "platforms": [],
  "provider_games": [
    {
      "name": "Orbital Paladin Melchior Y",
      "slug": "orbital-paladin-melchior-y",
      "service": "igdb"
    }
  ],
  "aliases": [],
  "shaders": [],
  "discord_id": "",
  "change_for": null
}