{
  "id": 26162,
  "game_id": 19147,
  "game_slug": "seek-or-die",
  "name": "Seek Or Die",
  "year": 2018,
  "user": "vanstaveren",
  "runner": "steam",
  "slug": "seek-or-die-steam",
  "version": "Steam",
  "description": null,
  "notes": "",
  "credits": "",
  "created_at": "2021-01-30T23:12:58.115185Z",
  "updated_at": "2021-12-13T19:10:35.942324Z",
  "draft": false,
  "published": true,
  "published_by": null,
  "rating": "",
  "is_playable": null,
  "steamid": 803030,
  "gogid": null,
  "gogslug": "",
  "humbleid": "",
  "humblestoreid": "",
  "humblestoreid_real": "",
  "script": {
    "game": {
      "appid": 803030
    }
  },
  "content": "game:\n  appid: 803030\n",
  "discord_id": ""
}