{
  "id": 66289,
  "name": "Der alte Piratenschatz",
  "slug": "der-alte-piratenschatz",
  "year": null,
  "banner_url": "",
  "icon_url": "",
  "coverart": null,
  "platforms": [],
  "provider_games": [
    {
      "name": "Der alte Piratenschatz",
      "slug": "der-alte-piratenschatz",
      "service": "igdb"
    }
  ],
  "aliases": [],
  "shaders": [],
  "discord_id": "",
  "change_for": null
}