{
  "id": 21713,
  "name": "Christmas Santa Troubles",
  "slug": "christmas-santa-troubles",
  "year": null,
  "banner_url": "https://lutris.net/games/banner/christmas-santa-troubles.jpg",
  "icon_url": "https://lutris.net/games/icon/christmas-santa-troubles.png",
  "coverart": "https://lutris.net/media/igdb/cover_big/ye0kwimvfqupsbsovmof.jpg",
  "platforms": [],
  "provider_games": [
    {
      "name": "Christmas Santa Troubles",
      "slug": "773120",
      "service": "steam"
    },
    {
      "name": "Christmas Santa Troubles",
      "slug": "christmas-santa-troubles",
      "service": "igdb"
    }
  ],
  "aliases": [],
  "shaders": [],
  "discord_id": "",
  "change_for": null
}