{
  "id": 11168,
  "name": "Blueshift",
  "slug": "blueshift",
  "year": 2016,
  "banner_url": "https://lutris.net/games/banner/blueshift.jpg",
  "icon_url": "https://lutris.net/games/icon/blueshift.png",
  "coverart": "https://lutris.net/media/igdb/cover_big/fphmy58usbn9ne7scvqr.jpg",
  "platforms": [
    {
      "name": "Windows"
    }
  ],
  "provider_games": [
    {
      "name": "Blueshift",
      "slug": "565030",
      "service": "steam"
    },
    {
      "name": "Blueshift",
      "slug": "blueshift",
      "service": "igdb"
    }
  ],
  "aliases": [],
  "shaders": [],
  "discord_id": "",
  "change_for": null
}