{
  "id": 67062,
  "name": "Butter & Friends Babysitter Sim",
  "slug": "butter-and-friends-babysitter-sim",
  "year": null,
  "banner_url": "",
  "icon_url": "",
  "coverart": "https://lutris.net/media/igdb/cover_big/ay7tggh1dg91mkywbroy.jpg",
  "platforms": [],
  "provider_games": [
    {
      "name": "Butter & Friends Babysitter Sim",
      "slug": "butter-and-friends-babysitter-sim",
      "service": "igdb"
    }
  ],
  "aliases": [],
  "shaders": [],
  "discord_id": "",
  "change_for": null
}