{
  "id": 161490,
  "name": "Forest Problems",
  "slug": "forest-problems",
  "year": null,
  "banner_url": "",
  "icon_url": "",
  "coverart": "https://lutris.net/media/igdb/cover_big/co3ztp.jpg",
  "platforms": [],
  "provider_games": [
    {
      "name": "Forest Problems",
      "slug": "forest-problems",
      "service": "igdb"
    }
  ],
  "aliases": [],
  "shaders": [],
  "discord_id": "",
  "change_for": null
}