{
  "id": 204155,
  "name": "Euchre",
  "slug": "euchre",
  "year": 2005,
  "banner_url": "",
  "icon_url": "",
  "coverart": "https://lutris.net/media/igdb/cover_big/co5ynb.jpg",
  "platforms": [],
  "provider_games": [
    {
      "name": "Euchre",
      "slug": "euchre",
      "service": "igdb"
    }
  ],
  "aliases": [],
  "shaders": [],
  "discord_id": "",
  "change_for": null
}