{
  "id": 81408,
  "name": "Under Control",
  "slug": "under-control",
  "year": null,
  "banner_url": "",
  "icon_url": "",
  "coverart": "https://lutris.net/media/igdb/cover_big/gpj0lq32zi6js7t2ubfb.jpg",
  "platforms": [],
  "provider_games": [
    {
      "name": "Under Control",
      "slug": "under-control",
      "service": "igdb"
    }
  ],
  "aliases": [],
  "shaders": [],
  "discord_id": "",
  "change_for": null
}