{
  "id": 290337,
  "name": "City Bus Simulator",
  "slug": "city-bus-simulator",
  "year": null,
  "banner_url": "",
  "icon_url": "",
  "coverart": "https://lutris.net/media/igdb/cover_big/co8j5h.jpg",
  "platforms": [],
  "provider_games": [
    {
      "name": "City Bus Simulator",
      "slug": "city-bus-simulator",
      "service": "igdb"
    }
  ],
  "aliases": [],
  "shaders": [],
  "discord_id": "",
  "change_for": null
}