{
  "id": 115543,
  "name": "3D Super Hang-On",
  "slug": "3d-super-hang-on",
  "year": 2013,
  "banner_url": "",
  "icon_url": "",
  "coverart": "https://lutris.net/media/igdb/cover_big/ai4mn4uqlyywpzztn9na.jpg",
  "platforms": [
    {
      "name": "Nintendo 3DS"
    }
  ],
  "provider_games": [
    {
      "name": "3D Super Hang-On",
      "slug": "3d-super-hang-on",
      "service": "igdb"
    }
  ],
  "aliases": [],
  "shaders": [],
  "discord_id": "",
  "change_for": null
}