{
  "id": 48880,
  "name": "Golden Marriage -Jewel Days-",
  "slug": "golden-marriage-jewel-days",
  "year": null,
  "banner_url": "",
  "icon_url": "",
  "coverart": null,
  "platforms": [],
  "provider_games": [
    {
      "name": "Golden Marriage -Jewel Days-",
      "slug": "golden-marriage-jewel-days",
      "service": "igdb"
    }
  ],
  "aliases": [],
  "shaders": [],
  "discord_id": "",
  "change_for": null
}