{
  "id": 218255,
  "name": "Godzilla: Omniverse",
  "slug": "godzilla-omniverse",
  "year": null,
  "banner_url": "",
  "icon_url": "",
  "coverart": "https://lutris.net/media/igdb/cover_big/co5dqs.jpg",
  "platforms": [],
  "provider_games": [
    {
      "name": "Godzilla: Omniverse",
      "slug": "godzilla-omniverse",
      "service": "igdb"
    }
  ],
  "aliases": [],
  "shaders": [],
  "discord_id": "",
  "change_for": null
}