{
  "id": 247220,
  "name": "Real Time Assist Replay Time",
  "slug": "real-time-assist-replay-time",
  "year": 2023,
  "banner_url": "",
  "icon_url": "",
  "coverart": "https://lutris.net/media/igdb/cover_big/co6shd.jpg",
  "platforms": [
    {
      "name": "Windows"
    }
  ],
  "provider_games": [
    {
      "name": "Real Time Assist Replay Time",
      "slug": "real-time-assist-replay-time",
      "service": "igdb"
    }
  ],
  "aliases": [],
  "shaders": [],
  "discord_id": "",
  "change_for": null
}