{
  "id": 25481,
  "game_id": 21604,
  "game_slug": "ev3-drag-racing",
  "name": "EV3 - Drag Racing",
  "year": null,
  "user": "vanstaveren",
  "runner": "steam",
  "slug": "ev3-drag-racing-steam",
  "version": "Steam",
  "description": null,
  "notes": "",
  "credits": "",
  "created_at": "2021-01-02T18:35:33.567821Z",
  "updated_at": "2021-12-13T19:10:36.643836Z",
  "draft": false,
  "published": true,
  "published_by": null,
  "rating": "",
  "is_playable": null,
  "steamid": 791150,
  "gogid": null,
  "gogslug": "",
  "humbleid": "",
  "humblestoreid": "",
  "humblestoreid_real": "",
  "script": {
    "game": {
      "appid": 791150
    }
  },
  "content": "game:\n  appid: 791150\n",
  "discord_id": ""
}