{
  "id": 19700,
  "name": "Red Faction Guerrilla Re-Mars-tered",
  "slug": "red-faction-guerrilla-re-mars-tered",
  "year": 2018,
  "banner_url": "https://lutris.net/games/banner/red-faction-guerrilla-re-mars-tered.jpg",
  "icon_url": "https://lutris.net/games/icon/red-faction-guerrilla-re-mars-tered.png",
  "coverart": "https://lutris.net/media/igdb/cover_big/co1qs4.jpg",
  "platforms": [
    {
      "name": "Nintendo Switch"
    },
    {
      "name": "Sony Playstation 4"
    },
    {
      "name": "Windows"
    },
    {
      "name": "Xbox One"
    }
  ],
  "provider_games": [
    {
      "name": "Red Faction Guerrilla Re-Mars-tered",
      "slug": "2029222893",
      "service": "gog"
    },
    {
      "name": "Red Faction Guerrilla Re-Mars-tered",
      "slug": "667720",
      "service": "steam"
    },
    {
      "name": "Red Faction: Guerrilla Re-Mars-tered",
      "slug": "red-faction-guerrilla-re-mars-tered",
      "service": "igdb"
    }
  ],
  "aliases": [],
  "shaders": [],
  "discord_id": "469429746007015426",
  "change_for": null
}