{
  "id": 85580,
  "name": "Duel Masters 2 - Kirifuda Shoubu Ver.",
  "slug": "duel-masters-2-kirifuda-shoubu-ver",
  "year": 2005,
  "banner_url": "",
  "icon_url": "",
  "coverart": null,
  "platforms": [
    {
      "name": "Nintendo Game Boy Advance"
    }
  ],
  "provider_games": [
    {
      "name": "Duel Masters 2 - Kirifuda Shoubu Ver.",
      "slug": "duel-masters-2-kirifuda-shoubu-ver",
      "service": "igdb"
    }
  ],
  "aliases": [],
  "shaders": [],
  "discord_id": "",
  "change_for": null
}