{
  "id": 61773,
  "name": "Music GunGun!",
  "slug": "music-gungun",
  "year": null,
  "banner_url": "",
  "icon_url": "",
  "coverart": "https://lutris.net/media/igdb/cover_big/hhs3kcwadoaqdldvuuat.jpg",
  "platforms": [],
  "provider_games": [
    {
      "name": "Music GunGun!",
      "slug": "music-gungun",
      "service": "igdb"
    }
  ],
  "aliases": [],
  "shaders": [],
  "discord_id": "",
  "change_for": null
}