{
  "id": 48623,
  "name": "Bejeweled",
  "slug": "bejeweled--1",
  "year": 2002,
  "banner_url": "",
  "icon_url": "",
  "coverart": "https://lutris.net/media/igdb/cover_big/co1op8.jpg",
  "platforms": [
    {
      "name": "Colecovision"
    }
  ],
  "provider_games": [
    {
      "name": "Bejeweled",
      "slug": "bejeweled--1",
      "service": "igdb"
    }
  ],
  "aliases": [],
  "shaders": [],
  "discord_id": "",
  "change_for": null
}