{
  "id": 246793,
  "name": "Pallet",
  "slug": "pallet",
  "year": null,
  "banner_url": "",
  "icon_url": "",
  "coverart": "https://lutris.net/media/igdb/cover_big/co6joa.jpg",
  "platforms": [],
  "provider_games": [
    {
      "name": "Pallet",
      "slug": "pallet",
      "service": "igdb"
    }
  ],
  "aliases": [],
  "shaders": [],
  "discord_id": "",
  "change_for": null
}