{
  "id": 165211,
  "name": "StellaSpella",
  "slug": "stellaspella",
  "year": null,
  "banner_url": "",
  "icon_url": "",
  "coverart": "https://lutris.net/media/igdb/cover_big/co423o.jpg",
  "platforms": [],
  "provider_games": [
    {
      "name": "StellaSpella",
      "slug": "stellaspella",
      "service": "igdb"
    }
  ],
  "aliases": [],
  "shaders": [],
  "discord_id": "",
  "change_for": null
}