{
  "id": 241076,
  "name": "New FreeCell Solitaire HD",
  "slug": "new-freecell-solitaire-hd",
  "year": null,
  "banner_url": "",
  "icon_url": "",
  "coverart": null,
  "platforms": [],
  "provider_games": [
    {
      "name": "New FreeCell Solitaire HD",
      "slug": "new-freecell-solitaire-hd",
      "service": "igdb"
    }
  ],
  "aliases": [],
  "shaders": [],
  "discord_id": "",
  "change_for": null
}