{
  "id": 17454,
  "name": "SONAR X3",
  "slug": "sonar-x3",
  "year": null,
  "banner_url": "https://lutris.net/games/banner/sonar-x3.jpg",
  "icon_url": "https://lutris.net/games/icon/sonar-x3.png",
  "coverart": null,
  "platforms": [],
  "provider_games": [
    {
      "name": "SONAR X3",
      "slug": "241070",
      "service": "steam"
    }
  ],
  "aliases": [],
  "shaders": [],
  "discord_id": "",
  "change_for": null
}