{
  "id": 248807,
  "name": "Just A Walk In The Park",
  "slug": "just-a-walk-in-the-park",
  "year": null,
  "banner_url": "",
  "icon_url": "",
  "coverart": "https://lutris.net/media/igdb/cover_big/co6n5s.jpg",
  "platforms": [],
  "provider_games": [
    {
      "name": "Just A Walk In The Park",
      "slug": "just-a-walk-in-the-park",
      "service": "igdb"
    }
  ],
  "aliases": [],
  "shaders": [],
  "discord_id": "",
  "change_for": null
}