{
  "id": 97120,
  "name": "Fast & Furious Takedown",
  "slug": "fast-and-furious-takedown",
  "year": null,
  "banner_url": "",
  "icon_url": "",
  "coverart": "https://lutris.net/media/igdb/cover_big/co7ykw.jpg",
  "platforms": [],
  "provider_games": [
    {
      "name": "Fast & Furious Takedown",
      "slug": "fast-and-furious-takedown",
      "service": "igdb"
    }
  ],
  "aliases": [],
  "shaders": [],
  "discord_id": "",
  "change_for": null
}