{
  "id": 303231,
  "name": "Slenderman Must Die: Chapter 5",
  "slug": "slenderman-must-die-chapter-5",
  "year": 2015,
  "banner_url": "",
  "icon_url": "",
  "coverart": "https://lutris.net/media/igdb/cover_big/co8zrf.jpg",
  "platforms": [
    {
      "name": "Android"
    },
    {
      "name": "Browser"
    },
    {
      "name": "Windows"
    }
  ],
  "provider_games": [
    {
      "name": "Slenderman Must Die: Chapter 5",
      "slug": "slenderman-must-die-chapter-5",
      "service": "igdb"
    }
  ],
  "aliases": [],
  "shaders": [],
  "discord_id": "",
  "change_for": null
}