{
  "id": 285720,
  "name": "CurseBreaker",
  "slug": "cursebreaker",
  "year": null,
  "banner_url": "",
  "icon_url": "",
  "coverart": "https://lutris.net/media/igdb/cover_big/co899k.jpg",
  "platforms": [],
  "provider_games": [
    {
      "name": "CurseBreaker",
      "slug": "cursebreaker",
      "service": "igdb"
    }
  ],
  "aliases": [],
  "shaders": [],
  "discord_id": "",
  "change_for": null
}