{
  "id": 294478,
  "name": "A Tale in the Zoo",
  "slug": "a-tale-in-the-zoo",
  "year": 2005,
  "banner_url": "",
  "icon_url": "",
  "coverart": "https://lutris.net/media/igdb/cover_big/co8n6w.jpg",
  "platforms": [
    {
      "name": "Windows"
    }
  ],
  "provider_games": [
    {
      "name": "A Tale in the Zoo",
      "slug": "a-tale-in-the-zoo",
      "service": "igdb"
    }
  ],
  "aliases": [],
  "shaders": [],
  "discord_id": "",
  "change_for": null
}