{
  "id": 80309,
  "name": "Driving Simulator 2013",
  "slug": "driving-simulator-2013",
  "year": 2013,
  "banner_url": "",
  "icon_url": "",
  "coverart": "https://lutris.net/media/igdb/cover_big/gjcd6upomj0z4msc2fcv.jpg",
  "platforms": [
    {
      "name": "Windows"
    }
  ],
  "provider_games": [
    {
      "name": "Driving Simulator 2013",
      "slug": "driving-simulator-2013",
      "service": "igdb"
    }
  ],
  "aliases": [],
  "shaders": [],
  "discord_id": "",
  "change_for": null
}