{
  "id": 5419,
  "name": "One Night",
  "slug": "one-night",
  "year": null,
  "banner_url": "https://lutris.net/games/banner/one-night.jpg",
  "icon_url": "https://lutris.net/games/icon/one-night.png",
  "coverart": null,
  "platforms": [],
  "provider_games": [
    {
      "name": "One Night",
      "slug": "339900",
      "service": "steam"
    },
    {
      "name": "One Night",
      "slug": "one-night",
      "service": "igdb"
    }
  ],
  "aliases": [],
  "shaders": [],
  "discord_id": "",
  "change_for": null
}