{
  "id": 137536,
  "name": "Pandora Galaxy",
  "slug": "pandora-galaxy",
  "year": null,
  "banner_url": "",
  "icon_url": "",
  "coverart": "https://lutris.net/media/igdb/cover_big/co3qsq.jpg",
  "platforms": [],
  "provider_games": [
    {
      "name": "Pandora Galaxy",
      "slug": "pandora-galaxy",
      "service": "igdb"
    }
  ],
  "aliases": [],
  "shaders": [],
  "discord_id": "",
  "change_for": null
}