{
  "id": 50391,
  "name": "Xbox Music Mixer",
  "slug": "xbox-music-mixer",
  "year": 2003,
  "banner_url": "",
  "icon_url": "",
  "coverart": "https://lutris.net/media/igdb/cover_big/isr0drcgw05ponpuw5ld.jpg",
  "platforms": [],
  "provider_games": [
    {
      "name": "Xbox Music Mixer",
      "slug": "xbox-music-mixer",
      "service": "igdb"
    }
  ],
  "aliases": [],
  "shaders": [],
  "discord_id": "",
  "change_for": null
}