{
  "id": 253397,
  "name": "Hyouteki",
  "slug": "hyouteki",
  "year": null,
  "banner_url": "",
  "icon_url": "",
  "coverart": "https://lutris.net/media/igdb/cover_big/co6tyz.jpg",
  "platforms": [],
  "provider_games": [
    {
      "name": "Hyouteki",
      "slug": "hyouteki",
      "service": "igdb"
    }
  ],
  "aliases": [],
  "shaders": [],
  "discord_id": "",
  "change_for": null
}