{
  "id": 73274,
  "name": "Special Edition 4 Pack: Volume One",
  "slug": "special-edition-4-pack-volume-one",
  "year": null,
  "banner_url": "",
  "icon_url": "",
  "coverart": null,
  "platforms": [],
  "provider_games": [
    {
      "name": "Special Edition 4 Pack: Volume One",
      "slug": "special-edition-4-pack-volume-one",
      "service": "igdb"
    }
  ],
  "aliases": [],
  "shaders": [],
  "discord_id": "",
  "change_for": null
}