{
  "id": 300435,
  "name": "The Brain's Brain Game",
  "slug": "the-brains-brain-game",
  "year": 2002,
  "banner_url": "",
  "icon_url": "",
  "coverart": null,
  "platforms": [
    {
      "name": "Browser"
    }
  ],
  "provider_games": [
    {
      "name": "The Brain's Brain Game",
      "slug": "the-brains-brain-game",
      "service": "igdb"
    }
  ],
  "aliases": [],
  "shaders": [],
  "discord_id": "",
  "change_for": null
}