{
  "id": 293731,
  "name": "Cube Railway: Puzzle",
  "slug": "cube-railway-puzzle",
  "year": null,
  "banner_url": "",
  "icon_url": "",
  "coverart": "https://lutris.net/media/igdb/cover_big/co8n2i.jpg",
  "platforms": [],
  "provider_games": [
    {
      "name": "Cube Railway: Puzzle",
      "slug": "cube-railway-puzzle",
      "service": "igdb"
    }
  ],
  "aliases": [],
  "shaders": [],
  "discord_id": "",
  "change_for": null
}