{
  "id": 14614,
  "name": "The Wake",
  "slug": "the-wake",
  "year": 2018,
  "banner_url": "https://lutris.net/games/banner/the-wake.jpg",
  "icon_url": "https://lutris.net/games/icon/the-wake.png",
  "coverart": "https://lutris.net/media/igdb/cover_big/co23tz.jpg",
  "platforms": [
    {
      "name": "Windows"
    }
  ],
  "provider_games": [
    {
      "name": "The Wake",
      "slug": "435380",
      "service": "steam"
    },
    {
      "name": "The Wake",
      "slug": "the-wake",
      "service": "igdb"
    }
  ],
  "aliases": [],
  "shaders": [],
  "discord_id": "",
  "change_for": null
}