{
  "id": 134217,
  "name": "NBA LIVE Mobile",
  "slug": "nba-live-mobile",
  "year": 2016,
  "banner_url": "",
  "icon_url": "",
  "coverart": "https://lutris.net/media/igdb/cover_big/in4d9xkcdcbkazyhvnpc.jpg",
  "platforms": [
    {
      "name": "Android"
    }
  ],
  "provider_games": [
    {
      "name": "NBA Live Mobile",
      "slug": "nba-live-mobile",
      "service": "igdb"
    }
  ],
  "aliases": [],
  "shaders": [],
  "discord_id": "",
  "change_for": null
}