{
  "id": 22687,
  "name": "Hub Culture VR",
  "slug": "hub-culture-vr",
  "year": null,
  "banner_url": "https://lutris.net/games/banner/hub-culture-vr.jpg",
  "icon_url": "https://lutris.net/games/icon/hub-culture-vr.png",
  "coverart": null,
  "platforms": [],
  "provider_games": [
    {
      "name": "Hub Culture VR",
      "slug": "785990",
      "service": "steam"
    }
  ],
  "aliases": [],
  "shaders": [],
  "discord_id": "",
  "change_for": null
}