{
  "id": 18106,
  "game_id": 29956,
  "game_slug": "the-outer-worlds",
  "name": "The Outer Worlds",
  "year": 2019,
  "user": "deux",
  "runner": "wine",
  "slug": "the-outer-worlds-no-epic-store",
  "version": "no epic store",
  "description": null,
  "notes": "Installs mfplat dlls which The Outer Worlds requires along with NO epic games store dependencies.",
  "credits": "",
  "created_at": "2020-01-27T18:34:53.220000Z",
  "updated_at": "2023-06-13T01:34:24.374761Z",
  "draft": false,
  "published": true,
  "published_by": 51687,
  "rating": "",
  "is_playable": null,
  "steamid": 578650,
  "gogid": 1242541569,
  "gogslug": "the_outer_worlds_nonmandatory_corporatesponsored_bundle",
  "humbleid": "",
  "humblestoreid": "",
  "humblestoreid_real": "",
  "script": {
    "files": [
      {
        "audio": "https://lutris.net/files/tools/directx-2010.tar.gz"
      },
      {
        "mfplat_dll_64": "https://lutris.net/files/tools/dll/mfplat/x64/mfplat.dll"
      }
    ],
    "game": {
      "arch": "win64",
      "args": "-opengl",
      "exe": "drive_c/Program Files (x86)/TheOuterWorlds/TheOuterWorlds.exe",
      "prefix": "$GAMEDIR"
    },
    "installer": [
      {
        "extract": {
          "dst": "$CACHE/dxsetup",
          "file": "audio"
        }
      },
      {
        "task": {
          "arch": "win64",
          "name": "create_prefix",
          "prefix": "$GAMEDIR"
        }
      },
      {
        "task": {
          "app": "mf",
          "name": "winetricks",
          "prefix": "$GAMEDIR"
        }
      },
      {
        "execute": {
          "command": "python2 installcab.py $HOME/.cache/winetricks/win7sp1/windows6.1-KB976932-X64.exe mediafoundation"
        }
      },
      {
        "execute": {
          "command": "python2 installcab.py $HOME/.cache/winetricks/win7sp1/windows6.1-KB976932-X64.exe mf_"
        }
      },
      {
        "execute": {
          "command": "python2 installcab.py $HOME/.cache/winetricks/win7sp1/windows6.1-KB976932-X64.exe mfreadwrite"
        }
      },
      {
        "execute": {
          "command": "python2 installcab.py $HOME/.cache/winetricks/win7sp1/windows6.1-KB976932-X64.exe wmadmod"
        }
      },
      {
        "execute": {
          "command": "python2 installcab.py $HOME/.cache/winetricks/win7sp1/windows6.1-KB976932-X64.exe wmvdecod"
        }
      },
      {
        "task": {
          "arch": "win64",
          "args": "/silent",
          "executable": "$CACHE/dxsetup/DXSETUP.exe",
          "name": "wineexec",
          "prefix": "$GAMEDIR"
        }
      },
      {
        "task": {
          "arch": "win64",
          "name": "winekill",
          "prefix": "$GAMEDIR"
        }
      },
      {
        "task": {
          "app": "arial dotnet48",
          "arch": "win64",
          "description": "Installing dependencies",
          "name": "winetricks",
          "prefix": "$GAMEDIR"
        }
      },
      {
        "task": {
          "arch": "win64",
          "name": "winekill",
          "prefix": "$GAMEDIR"
        }
      }
    ],
    "system": {
      "env": {
        "DXVK_HUD": "compiler",
        "MESA_GL_VERSION_OVERRIDE": "4.4COMPAT",
        "__GL_SHADER_DISK_CACHE": 1,
        "__GL_SHADER_DISK_CACHE_PATH": "$GAMEDIR"
      },
      "pulse_latency": true
    },
    "wine": {
      "overrides": {
        "mfplat": "native,builtin"
      }
    }
  },
  "content": "files:\n- audio: https://lutris.net/files/tools/directx-2010.tar.gz\n- mfplat_dll_64: https://lutris.net/files/tools/dll/mfplat/x64/mfplat.dll\ngame:\n  arch: win64\n  args: -opengl\n  exe: drive_c/Program Files (x86)/TheOuterWorlds/TheOuterWorlds.exe\n  prefix: $GAMEDIR\ninstaller:\n- extract:\n    dst: $CACHE/dxsetup\n    file: audio\n- task:\n    arch: win64\n    name: create_prefix\n    prefix: $GAMEDIR\n- task:\n    app: mf\n    name: winetricks\n    prefix: $GAMEDIR\n- execute:\n    command: python2 installcab.py $HOME/.cache/winetricks/win7sp1/windows6.1-KB976932-X64.exe\n      mediafoundation\n- execute:\n    command: python2 installcab.py $HOME/.cache/winetricks/win7sp1/windows6.1-KB976932-X64.exe\n      mf_\n- execute:\n    command: python2 installcab.py $HOME/.cache/winetricks/win7sp1/windows6.1-KB976932-X64.exe\n      mfreadwrite\n- execute:\n    command: python2 installcab.py $HOME/.cache/winetricks/win7sp1/windows6.1-KB976932-X64.exe\n      wmadmod\n- execute:\n    command: python2 installcab.py $HOME/.cache/winetricks/win7sp1/windows6.1-KB976932-X64.exe\n      wmvdecod\n- task:\n    arch: win64\n    args: /silent\n    executable: $CACHE/dxsetup/DXSETUP.exe\n    name: wineexec\n    prefix: $GAMEDIR\n- task:\n    arch: win64\n    name: winekill\n    prefix: $GAMEDIR\n- task:\n    app: arial dotnet48\n    arch: win64\n    description: Installing dependencies\n    name: winetricks\n    prefix: $GAMEDIR\n- task:\n    arch: win64\n    name: winekill\n    prefix: $GAMEDIR\nsystem:\n  env:\n    DXVK_HUD: compiler\n    MESA_GL_VERSION_OVERRIDE: 4.4COMPAT\n    __GL_SHADER_DISK_CACHE: 1\n    __GL_SHADER_DISK_CACHE_PATH: $GAMEDIR\n  pulse_latency: true\nwine:\n  overrides:\n    mfplat: native,builtin\n",
  "discord_id": ""
}