{
  "id": 75025,
  "name": "RE: Prince of Nigeria",
  "slug": "re-prince-of-nigeria",
  "year": null,
  "banner_url": "",
  "icon_url": "",
  "coverart": "https://lutris.net/media/igdb/cover_big/co8zxe.jpg",
  "platforms": [],
  "provider_games": [
    {
      "name": "RE: Prince of Nigeria",
      "slug": "re-prince-of-nigeria",
      "service": "igdb"
    }
  ],
  "aliases": [],
  "shaders": [],
  "discord_id": "",
  "change_for": null
}