{
  "id": 5493,
  "name": "Call of Duty: Black Ops III",
  "slug": "call-of-duty-black-ops-iii",
  "year": 2015,
  "banner_url": "https://lutris.net/games/banner/call-of-duty-black-ops-iii.jpg",
  "icon_url": "https://lutris.net/games/icon/call-of-duty-black-ops-iii.png",
  "coverart": "https://lutris.net/media/igdb/cover_big/co20yw.jpg",
  "platforms": [
    {
      "name": "Mac"
    },
    {
      "name": "Sony Playstation 3"
    },
    {
      "name": "Sony Playstation 4"
    },
    {
      "name": "Windows"
    },
    {
      "name": "Xbox One"
    }
  ],
  "provider_games": [
    {
      "name": "Call of Duty: Black Ops III",
      "slug": "311210",
      "service": "steam"
    },
    {
      "name": "Call of Duty: Black Ops III",
      "slug": "call-of-duty-black-ops-iii",
      "service": "igdb"
    }
  ],
  "aliases": [],
  "shaders": [],
  "discord_id": "",
  "change_for": null
}