{
  "id": 245645,
  "name": "MGA's Pocket LCD Games: All-Pro Football",
  "slug": "mgas-pocket-lcd-games-all-pro-football",
  "year": 1993,
  "banner_url": "",
  "icon_url": "",
  "coverart": null,
  "platforms": [],
  "provider_games": [
    {
      "name": "MGA's Pocket LCD Games: All-Pro Football",
      "slug": "mgas-pocket-lcd-games-all-pro-football",
      "service": "igdb"
    }
  ],
  "aliases": [],
  "shaders": [],
  "discord_id": "",
  "change_for": null
}