{
  "id": 48380,
  "name": "Data-Fly",
  "slug": "data-fly",
  "year": null,
  "banner_url": "",
  "icon_url": "",
  "coverart": null,
  "platforms": [],
  "provider_games": [
    {
      "name": "Data-Fly",
      "slug": "data-fly",
      "service": "igdb"
    }
  ],
  "aliases": [],
  "shaders": [],
  "discord_id": "",
  "change_for": null
}