{
  "id": 136423,
  "name": "Dynasty of the Sands",
  "slug": "dynasty-of-the-sands",
  "year": null,
  "banner_url": "",
  "icon_url": "",
  "coverart": "https://lutris.net/media/igdb/cover_big/co3pac.jpg",
  "platforms": [],
  "provider_games": [
    {
      "name": "Dynasty of the Sands",
      "slug": "dynasty-of-the-sands",
      "service": "igdb"
    }
  ],
  "aliases": [],
  "shaders": [],
  "discord_id": "",
  "change_for": null
}