{
  "id": 31611,
  "game_id": 391,
  "game_slug": "grand-theft-auto-iv",
  "name": "Grand Theft Auto IV: The Complete Edition",
  "year": 2008,
  "user": "electrondefuser",
  "runner": "wine",
  "slug": "grand-theft-auto-iv-the-compl-rockstar-games-launc",
  "version": "Rockstar Games Launcher",
  "description": "",
  "notes": "Rockstar Launcher might crash on first launch after logging in. Ignore the crash and relaunch the rockstar launcher",
  "credits": "",
  "created_at": "2022-01-29T16:23:22.893000Z",
  "updated_at": "2023-06-13T01:34:29.322290Z",
  "draft": false,
  "published": true,
  "published_by": 64834,
  "rating": "",
  "is_playable": null,
  "steamid": 12210,
  "gogid": null,
  "gogslug": "",
  "humbleid": "",
  "humblestoreid": "",
  "humblestoreid_real": "grand-theft-auto-iv",
  "script": {
    "files": [
      {
        "launcher": "https://dl-eu.opendataapi.net/lutris/games/GTA/rockstar-games-launcher-1-0-36-344.exe"
      }
    ],
    "game": {
      "arch": "win64",
      "exe": "drive_c/Program Files/Rockstar Games/Launcher/Launcher.exe",
      "prefix": "$GAMEDIR"
    },
    "installer": [
      {
        "task": {
          "arch": "win64",
          "description": "Creating Wine 64-bit Prefix",
          "name": "create_prefix",
          "prefix": "$GAMEDIR"
        }
      },
      {
        "task": {
          "app": "arial vcrun2019 win10",
          "arch": "win64",
          "name": "winetricks",
          "prefix": "$GAMEDIR"
        }
      },
      {
        "task": {
          "app": "win10",
          "arch": "win64",
          "description": "Changes reported to Windows 10",
          "name": "winetricks",
          "prefix": "$GAMEDIR"
        }
      },
      {
        "task": {
          "arch": "win64",
          "description": "Installing the launcher",
          "exclude_processes": "RockstarService.exe Launcher.exe LauncherPatcher.exe",
          "executable": "launcher",
          "name": "wineexec",
          "prefix": "$GAMEDIR"
        }
      },
      {
        "task": {
          "name": "winekill",
          "prefix": "$GAMEDIR"
        }
      }
    ],
    "system": {
      "env": {
        "DXVK_HUD": "compiler",
        "__GL_SHADER_DISK_CACHE": 1,
        "__GL_SHADER_DISK_CACHE_PATH": "$GAMEDIR"
      }
    },
    "wine": {
      "overrides": {
        "winedbg.exe": "d"
      }
    }
  },
  "content": "files:\n- launcher: https://dl-eu.opendataapi.net/lutris/games/GTA/rockstar-games-launcher-1-0-36-344.exe\ngame:\n  arch: win64\n  exe: drive_c/Program Files/Rockstar Games/Launcher/Launcher.exe\n  prefix: $GAMEDIR\ninstaller:\n- task:\n    arch: win64\n    description: Creating Wine 64-bit Prefix\n    name: create_prefix\n    prefix: $GAMEDIR\n- task:\n    app: arial vcrun2019 win10\n    arch: win64\n    name: winetricks\n    prefix: $GAMEDIR\n- task:\n    app: win10\n    arch: win64\n    description: Changes reported to Windows 10\n    name: winetricks\n    prefix: $GAMEDIR\n- task:\n    arch: win64\n    description: Installing the launcher\n    exclude_processes: RockstarService.exe Launcher.exe LauncherPatcher.exe\n    executable: launcher\n    name: wineexec\n    prefix: $GAMEDIR\n- task:\n    name: winekill\n    prefix: $GAMEDIR\nsystem:\n  env:\n    DXVK_HUD: compiler\n    __GL_SHADER_DISK_CACHE: 1\n    __GL_SHADER_DISK_CACHE_PATH: $GAMEDIR\nwine:\n  overrides:\n    winedbg.exe: d\n",
  "discord_id": "450005834672373760"
}