{
  "id": 226233,
  "name": "Beatus Creation Solitaire",
  "slug": "beatus-creation-solitaire",
  "year": null,
  "banner_url": "",
  "icon_url": "",
  "coverart": "https://lutris.net/media/igdb/cover_big/co5bjv.jpg",
  "platforms": [],
  "provider_games": [
    {
      "name": "Beatus Creation Solitaire",
      "slug": "beatus-creation-solitaire",
      "service": "igdb"
    }
  ],
  "aliases": [],
  "shaders": [],
  "discord_id": "",
  "change_for": null
}