{
  "id": 186113,
  "name": "Quest for the Book of Truth",
  "slug": "quest-for-the-book-of-truth",
  "year": null,
  "banner_url": "",
  "icon_url": "",
  "coverart": null,
  "platforms": [],
  "provider_games": [
    {
      "name": "Quest for the Book of Truth",
      "slug": "quest-for-the-book-of-truth",
      "service": "igdb"
    }
  ],
  "aliases": [],
  "shaders": [],
  "discord_id": "",
  "change_for": null
}