{
  "id": 211193,
  "name": "Rhythm Any Music",
  "slug": "rhythm-any-music",
  "year": null,
  "banner_url": "",
  "icon_url": "",
  "coverart": "https://lutris.net/media/igdb/cover_big/co5fq3.jpg",
  "platforms": [],
  "provider_games": [
    {
      "name": "Rhythm Any Music",
      "slug": "rhythm-any-music",
      "service": "igdb"
    }
  ],
  "aliases": [],
  "shaders": [],
  "discord_id": "",
  "change_for": null
}