{
  "id": 61435,
  "name": "Deer Hunter Companion",
  "slug": "deer-hunter-companion",
  "year": 1998,
  "banner_url": "",
  "icon_url": "",
  "coverart": "https://lutris.net/media/igdb/cover_big/pv0ezfhitwzpfxuftcaw.jpg",
  "platforms": [
    {
      "name": "Windows"
    }
  ],
  "provider_games": [
    {
      "name": "Deer Hunter Companion",
      "slug": "deer-hunter-companion",
      "service": "igdb"
    }
  ],
  "aliases": [],
  "shaders": [],
  "discord_id": "",
  "change_for": null
}