{
  "id": 106764,
  "name": "Triple Shot Sports",
  "slug": "triple-shot-sports",
  "year": 2010,
  "banner_url": "",
  "icon_url": "",
  "coverart": "https://lutris.net/media/igdb/cover_big/zmhrpaedxug3oeziutv9.jpg",
  "platforms": [
    {
      "name": "Nintendo Wii"
    }
  ],
  "provider_games": [
    {
      "name": "Triple Shot Sports",
      "slug": "triple-shot-sports",
      "service": "igdb"
    }
  ],
  "aliases": [],
  "shaders": [],
  "discord_id": "",
  "change_for": null
}