{
  "id": 256513,
  "name": "Dragon Wings",
  "slug": "dragon-wings",
  "year": null,
  "banner_url": "",
  "icon_url": "",
  "coverart": "https://lutris.net/media/igdb/cover_big/co6zft.jpg",
  "platforms": [],
  "provider_games": [
    {
      "name": "Dragon Wings",
      "slug": "dragon-wings",
      "service": "igdb"
    }
  ],
  "aliases": [],
  "shaders": [],
  "discord_id": "",
  "change_for": null
}