{
  "id": 160819,
  "name": "Once Upon an Electric Dream",
  "slug": "once-upon-an-electric-dream",
  "year": 2020,
  "banner_url": "",
  "icon_url": "",
  "coverart": "https://lutris.net/media/igdb/cover_big/co3ql6.jpg",
  "platforms": [
    {
      "name": "Mac"
    },
    {
      "name": "Windows"
    }
  ],
  "provider_games": [
    {
      "name": "Once Upon an Electric Dream",
      "slug": "once-upon-an-electric-dream",
      "service": "igdb"
    }
  ],
  "aliases": [],
  "shaders": [],
  "discord_id": "",
  "change_for": null
}