{
  "id": 142839,
  "name": "Altidudes",
  "slug": "altidudes",
  "year": null,
  "banner_url": "",
  "icon_url": "",
  "coverart": "https://lutris.net/media/igdb/cover_big/co3u0v.jpg",
  "platforms": [],
  "provider_games": [
    {
      "name": "Altidudes",
      "slug": "altidudes",
      "service": "igdb"
    }
  ],
  "aliases": [],
  "shaders": [],
  "discord_id": "",
  "change_for": null
}