{
  "id": 95419,
  "name": "Glitter Slime Maker",
  "slug": "glitter-slime-maker",
  "year": null,
  "banner_url": "",
  "icon_url": "",
  "coverart": null,
  "platforms": [],
  "provider_games": [
    {
      "name": "Glitter Slime Maker",
      "slug": "glitter-slime-maker",
      "service": "igdb"
    }
  ],
  "aliases": [],
  "shaders": [],
  "discord_id": "",
  "change_for": null
}