{
  "id": 247395,
  "name": "5-Step Steve",
  "slug": "5-step-steve",
  "year": null,
  "banner_url": "",
  "icon_url": "",
  "coverart": null,
  "platforms": [],
  "provider_games": [
    {
      "name": "5-Step Steve",
      "slug": "5-step-steve",
      "service": "igdb"
    }
  ],
  "aliases": [],
  "shaders": [],
  "discord_id": "",
  "change_for": null
}