{
  "id": 84982,
  "name": "Ninja Gainyk 2",
  "slug": "ninja-gainyk-2",
  "year": 2017,
  "banner_url": "",
  "icon_url": "",
  "coverart": null,
  "platforms": [
    {
      "name": "Windows"
    }
  ],
  "provider_games": [
    {
      "name": "Ninja Gainyk 2",
      "slug": "ninja-gainyk-2",
      "service": "igdb"
    }
  ],
  "aliases": [],
  "shaders": [],
  "discord_id": "",
  "change_for": null
}