{
  "id": 89062,
  "name": "Mystery Mosaics",
  "slug": "mystery-mosaics",
  "year": null,
  "banner_url": "",
  "icon_url": "",
  "coverart": null,
  "platforms": [],
  "provider_games": [
    {
      "name": "Mystery Mosaics",
      "slug": "mystery-mosaics",
      "service": "igdb"
    }
  ],
  "aliases": [],
  "shaders": [],
  "discord_id": "",
  "change_for": null
}