{
  "id": 15322,
  "name": "Circle The Wagen",
  "slug": "circle-the-wagen",
  "year": null,
  "banner_url": "https://lutris.net/games/banner/circle-the-wagen.jpg",
  "icon_url": "https://lutris.net/games/icon/circle-the-wagen.png",
  "coverart": null,
  "platforms": [],
  "provider_games": [
    {
      "name": "Circle The Wagen",
      "slug": "382710",
      "service": "steam"
    }
  ],
  "aliases": [],
  "shaders": [],
  "discord_id": "",
  "change_for": null
}