{
  "id": 297210,
  "name": "Dinosaur RPG: Dino Survival Simulator Survivor",
  "slug": "dinosaur-rpg-dino-survival-simulator-survivor",
  "year": 2024,
  "banner_url": "",
  "icon_url": "",
  "coverart": "https://lutris.net/media/igdb/cover_big/co8ysm.jpg",
  "platforms": [
    {
      "name": "Sony PlayStation 5"
    }
  ],
  "provider_games": [
    {
      "name": "Dinosaur RPG: Dino Survival Simulator Survivor",
      "slug": "dinosaur-rpg-dino-survival-simulator-survivor",
      "service": "igdb"
    }
  ],
  "aliases": [],
  "shaders": [],
  "discord_id": "",
  "change_for": null
}