{
  "id": 206670,
  "name": "Nicely Dicely",
  "slug": "nicely-dicely",
  "year": null,
  "banner_url": "",
  "icon_url": "",
  "coverart": "https://lutris.net/media/igdb/cover_big/co5sck.jpg",
  "platforms": [],
  "provider_games": [
    {
      "name": "Nicely Dicely",
      "slug": "nicely-dicely",
      "service": "igdb"
    }
  ],
  "aliases": [],
  "shaders": [],
  "discord_id": "",
  "change_for": null
}