{
  "id": 10077,
  "name": "Adele: Following the Signs",
  "slug": "adele-following-the-signs",
  "year": 2016,
  "banner_url": "https://lutris.net/games/banner/adele-following-the-signs.jpg",
  "icon_url": "https://lutris.net/games/icon/adele-following-the-signs.png",
  "coverart": "https://lutris.net/media/igdb/cover_big/sz6yzilopnqpb0ag9rr9.jpg",
  "platforms": [
    {
      "name": "Linux"
    },
    {
      "name": "Mac"
    },
    {
      "name": "Windows"
    }
  ],
  "provider_games": [
    {
      "name": "Adele: Following the Signs",
      "slug": "457980",
      "service": "steam"
    },
    {
      "name": "Adele: Following the Signs",
      "slug": "adele-following-the-signs",
      "service": "igdb"
    }
  ],
  "aliases": [],
  "shaders": [],
  "discord_id": "",
  "change_for": null
}