{
  "id": 88837,
  "name": "Around The World in 80 Days - Hidden Object Games",
  "slug": "around-the-world-in-80-days-hidden-object-games",
  "year": null,
  "banner_url": "",
  "icon_url": "",
  "coverart": null,
  "platforms": [],
  "provider_games": [
    {
      "name": "Around the World in 80 Days: Hidden Object Games",
      "slug": "around-the-world-in-80-days-hidden-object-games",
      "service": "igdb"
    }
  ],
  "aliases": [],
  "shaders": [],
  "discord_id": "",
  "change_for": null
}