{
  "id": 87484,
  "name": "Gyakuten Saiban Jiten",
  "slug": "gyakuten-saiban-jiten",
  "year": 2007,
  "banner_url": "",
  "icon_url": "",
  "coverart": "https://lutris.net/media/igdb/cover_big/nbn2ntjpkdh7kim8ukfj.jpg",
  "platforms": [
    {
      "name": "Nintendo DS"
    }
  ],
  "provider_games": [
    {
      "name": "Gyakuten Saiban Jiten",
      "slug": "gyakuten-saiban-jiten",
      "service": "igdb"
    }
  ],
  "aliases": [],
  "shaders": [],
  "discord_id": "",
  "change_for": null
}