{
  "id": 254090,
  "name": "Infantry Assault: War 3D FPS",
  "slug": "infantry-assault-war-3d-fps",
  "year": null,
  "banner_url": "",
  "icon_url": "",
  "coverart": "https://lutris.net/media/igdb/cover_big/co6vzz.jpg",
  "platforms": [],
  "provider_games": [
    {
      "name": "Infantry Assault: War 3D FPS",
      "slug": "infantry-assault-war-3d-fps",
      "service": "igdb"
    }
  ],
  "aliases": [],
  "shaders": [],
  "discord_id": "",
  "change_for": null
}