{
  "id": 15787,
  "game_id": 7088,
  "game_slug": "how-to-survive-2",
  "name": "How to Survive 2",
  "year": 2016,
  "user": "kean83",
  "runner": "steam",
  "slug": "how-to-survive-2-steam-proton",
  "version": "Steam Proton",
  "description": null,
  "notes": "",
  "credits": "",
  "created_at": "2019-09-25T11:57:50.264398Z",
  "updated_at": "2019-10-11T01:36:26.035432Z",
  "draft": false,
  "published": true,
  "published_by": null,
  "rating": "",
  "is_playable": null,
  "steamid": 360170,
  "gogid": null,
  "gogslug": "",
  "humbleid": "",
  "humblestoreid": "",
  "humblestoreid_real": "",
  "script": {
    "game": {
      "appid": 360170
    }
  },
  "content": "game:\n  appid: 360170\n",
  "discord_id": "481505570747318292"
}