{
  "id": 113699,
  "name": "RTL Winter Games 2007",
  "slug": "rtl-winter-games-2007",
  "year": null,
  "banner_url": "",
  "icon_url": "",
  "coverart": "https://lutris.net/media/igdb/cover_big/co39td.jpg",
  "platforms": [],
  "provider_games": [
    {
      "name": "RTL Winter Games 2007",
      "slug": "rtl-winter-games-2007",
      "service": "igdb"
    }
  ],
  "aliases": [],
  "shaders": [],
  "discord_id": "",
  "change_for": null
}