{
  "id": 30416,
  "name": "Happy Empire - A Bouquet for the Princess",
  "slug": "happy-empire-a-bouquet-for-the-princess",
  "year": 2017,
  "banner_url": "https://lutris.net/games/banner/happy-empire-a-bouquet-for-the-princess.jpg",
  "icon_url": "https://lutris.net/games/icon/happy-empire-a-bouquet-for-the-princess.png",
  "coverart": "https://lutris.net/media/igdb/cover_big/co2bk5.jpg",
  "platforms": [
    {
      "name": "Mac"
    },
    {
      "name": "Windows"
    }
  ],
  "provider_games": [
    {
      "name": "Happy Empire - A Bouquet for the Princess",
      "slug": "544790",
      "service": "steam"
    },
    {
      "name": "Happy Empire: A Bouquet for the Princess",
      "slug": "happy-empire-a-bouquet-for-the-princess",
      "service": "igdb"
    }
  ],
  "aliases": [],
  "shaders": [],
  "discord_id": "",
  "change_for": null
}