{
  "id": 448,
  "name": "Depths of Peril",
  "slug": "depths-of-peril",
  "year": 2007,
  "banner_url": "https://lutris.net/games/banner/depths-of-peril.jpg",
  "icon_url": "https://lutris.net/games/icon/depths-of-peril.png",
  "coverart": "https://lutris.net/media/igdb/cover_big/co2e2o.jpg",
  "platforms": [
    {
      "name": "Linux"
    },
    {
      "name": "Mac"
    },
    {
      "name": "Windows"
    }
  ],
  "provider_games": [
    {
      "name": "Depths of Peril",
      "slug": "1207660593",
      "service": "gog"
    },
    {
      "name": "Depths of Peril",
      "slug": "23600",
      "service": "steam"
    },
    {
      "name": "Depths of Peril",
      "slug": "depths-of-peril",
      "service": "igdb"
    }
  ],
  "aliases": [],
  "shaders": [],
  "discord_id": "",
  "change_for": null
}