{
  "id": 116616,
  "name": "World of Darkness",
  "slug": "world-of-darkness",
  "year": null,
  "banner_url": "",
  "icon_url": "",
  "coverart": "https://lutris.net/media/igdb/cover_big/co3dgt.jpg",
  "platforms": [],
  "provider_games": [
    {
      "name": "World of Darkness",
      "slug": "world-of-darkness",
      "service": "igdb"
    }
  ],
  "aliases": [],
  "shaders": [],
  "discord_id": "",
  "change_for": null
}