{
  "id": 277393,
  "name": "Shinseikatsu",
  "slug": "shinseikatsu",
  "year": null,
  "banner_url": "",
  "icon_url": "",
  "coverart": "https://lutris.net/media/igdb/cover_big/co7w28.jpg",
  "platforms": [],
  "provider_games": [
    {
      "name": "Shinseikatsu",
      "slug": "shinseikatsu",
      "service": "igdb"
    }
  ],
  "aliases": [],
  "shaders": [],
  "discord_id": "",
  "change_for": null
}