{
  "id": 64656,
  "name": "God Came to the Cave",
  "slug": "god-came-to-the-cave",
  "year": 2006,
  "banner_url": "",
  "icon_url": "",
  "coverart": null,
  "platforms": [
    {
      "name": "Windows"
    }
  ],
  "provider_games": [
    {
      "name": "God Came to the Cave",
      "slug": "god-came-to-the-cave",
      "service": "igdb"
    }
  ],
  "aliases": [],
  "shaders": [],
  "discord_id": "",
  "change_for": null
}