{
  "id": 123090,
  "name": "3Gun Nation VR",
  "slug": "3gun-nation-vr",
  "year": 2019,
  "banner_url": "",
  "icon_url": "",
  "coverart": "https://lutris.net/media/igdb/cover_big/co2pcr.jpg",
  "platforms": [
    {
      "name": "Oculus VR"
    },
    {
      "name": "SteamVR"
    }
  ],
  "provider_games": [
    {
      "name": "3Gun Nation VR",
      "slug": "3gun-nation-vr",
      "service": "igdb"
    }
  ],
  "aliases": [],
  "shaders": [],
  "discord_id": "",
  "change_for": null
}