{
  "id": 43961,
  "name": "Nova-Life",
  "slug": "nova-life",
  "year": 2019,
  "banner_url": "https://lutris.net/games/banner/nova-life.jpg",
  "icon_url": "https://lutris.net/games/icon/nova-life.png",
  "coverart": "https://lutris.net/media/igdb/cover_big/co3q8g.jpg",
  "platforms": [
    {
      "name": "Windows"
    }
  ],
  "provider_games": [
    {
      "name": "Nova-Life: Amboise",
      "slug": "885570",
      "service": "steam"
    },
    {
      "name": "Nova-Life",
      "slug": "nova-life",
      "service": "igdb"
    }
  ],
  "aliases": [],
  "shaders": [],
  "discord_id": "",
  "change_for": null
}