{
  "id": 152252,
  "name": "Dark Tales: Edgar Allan Poe's The Mystery of Marie Roget - Collector's Edition",
  "slug": "dark-tales-edgar-allan-poes-the-mystery-of-marie-roget-collectors-edition",
  "year": 2018,
  "banner_url": "",
  "icon_url": "",
  "coverart": null,
  "platforms": [
    {
      "name": "Windows"
    }
  ],
  "provider_games": [
    {
      "name": "Dark Tales: Edgar Allan Poe's The Mystery of Marie Roget - Collector's Edition",
      "slug": "dark-tales-edgar-allan-poes-the-mystery-of-marie-roget-collectors-edition",
      "service": "igdb"
    }
  ],
  "aliases": [],
  "shaders": [],
  "discord_id": "",
  "change_for": null
}