{
  "id": 235862,
  "name": "Dark Age Empires",
  "slug": "dark-age-empires",
  "year": null,
  "banner_url": "",
  "icon_url": "",
  "coverart": "https://lutris.net/media/igdb/cover_big/co67ak.jpg",
  "platforms": [],
  "provider_games": [
    {
      "name": "Dark Age Empires",
      "slug": "dark-age-empires",
      "service": "igdb"
    }
  ],
  "aliases": [],
  "shaders": [],
  "discord_id": "",
  "change_for": null
}