{
  "id": 259432,
  "name": "Luntik Knows the World",
  "slug": "luntik-knows-the-world",
  "year": 2009,
  "banner_url": "",
  "icon_url": "",
  "coverart": "https://lutris.net/media/igdb/cover_big/co74tm.jpg",
  "platforms": [
    {
      "name": "Windows"
    }
  ],
  "provider_games": [
    {
      "name": "Luntik Knows the World",
      "slug": "luntik-knows-the-world",
      "service": "igdb"
    }
  ],
  "aliases": [],
  "shaders": [],
  "discord_id": "",
  "change_for": null
}