{
  "id": 117382,
  "name": "Pizza Bar Tycoon",
  "slug": "pizza-bar-tycoon",
  "year": 2019,
  "banner_url": "",
  "icon_url": "",
  "coverart": "https://lutris.net/media/igdb/cover_big/co4dnc.jpg",
  "platforms": [
    {
      "name": "Nintendo Switch"
    }
  ],
  "provider_games": [
    {
      "name": "Pizza Bar Tycoon",
      "slug": "pizza-bar-tycoon",
      "service": "igdb"
    }
  ],
  "aliases": [],
  "shaders": [],
  "discord_id": "",
  "change_for": null
}