{
  "id": 229257,
  "name": "Tanks of Freedom II",
  "slug": "tanks-of-freedom-ii",
  "year": 2022,
  "banner_url": "https://lutris.net/games/banner/tanks-of-freedom-ii.jpg",
  "icon_url": "",
  "coverart": "https://lutris.net/media/igdb/cover_big/co8jqr.jpg",
  "platforms": [
    {
      "name": "Linux"
    },
    {
      "name": "Windows"
    }
  ],
  "provider_games": [
    {
      "name": "Tanks of Freedom II",
      "slug": "tanks-of-freedom-ii",
      "service": "igdb"
    }
  ],
  "aliases": [],
  "shaders": [],
  "discord_id": "",
  "change_for": null
}