{
  "id": 252078,
  "name": "Followars",
  "slug": "followars",
  "year": 2010,
  "banner_url": "",
  "icon_url": "",
  "coverart": "https://lutris.net/media/igdb/cover_big/co6syy.jpg",
  "platforms": [],
  "provider_games": [
    {
      "name": "Followars",
      "slug": "followars",
      "service": "igdb"
    }
  ],
  "aliases": [],
  "shaders": [],
  "discord_id": "",
  "change_for": null
}