{
  "id": 300083,
  "name": "Rhythm Witch: Beat Death",
  "slug": "rhythm-witch-beat-death",
  "year": null,
  "banner_url": "",
  "icon_url": "",
  "coverart": "https://lutris.net/media/igdb/cover_big/co8x9t.jpg",
  "platforms": [
    {
      "name": "Nintendo Switch"
    },
    {
      "name": "Windows"
    }
  ],
  "provider_games": [
    {
      "name": "Rhythm Witch: Beat Death",
      "slug": "rhythm-witch-beat-death",
      "service": "igdb"
    }
  ],
  "aliases": [],
  "shaders": [],
  "discord_id": "",
  "change_for": null
}