{
  "id": 34992,
  "name": "Mogura Desse",
  "slug": "mogura-desse",
  "year": 1991,
  "banner_url": "",
  "icon_url": "https://lutris.net/games/icon/mogura-desse.png",
  "coverart": null,
  "platforms": [
    {
      "name": "Arcade"
    }
  ],
  "provider_games": [
    {
      "name": "Mogura Desse",
      "slug": "mogura",
      "service": "mame"
    }
  ],
  "aliases": [],
  "shaders": [],
  "discord_id": "",
  "change_for": null
}