{
  "id": 261773,
  "name": "Crazy Little Jumper",
  "slug": "crazy-little-jumper",
  "year": null,
  "banner_url": "",
  "icon_url": "",
  "coverart": null,
  "platforms": [],
  "provider_games": [
    {
      "name": "Crazy Little Jumper",
      "slug": "crazy-little-jumper",
      "service": "igdb"
    }
  ],
  "aliases": [],
  "shaders": [],
  "discord_id": "",
  "change_for": null
}