{
  "id": 254954,
  "name": "Savant - Ascent REMIX",
  "slug": "savant-ascent-remix",
  "year": 2023,
  "banner_url": "https://lutris.net/games/banner/savant-ascent-remix.jpg",
  "icon_url": "",
  "coverart": "https://lutris.net/media/igdb/cover_big/co6xky.jpg",
  "platforms": [],
  "provider_games": [
    {
      "name": "Savant - Ascent REMIX",
      "slug": "2279330",
      "service": "steam"
    },
    {
      "name": "Savant - Ascent REMIX",
      "slug": "1743238556",
      "service": "gog"
    },
    {
      "name": "Savant: Ascent Remix",
      "slug": "savant-ascent-remix",
      "service": "igdb"
    }
  ],
  "aliases": [],
  "shaders": [],
  "discord_id": "",
  "change_for": null
}