{
  "id": 163378,
  "name": "Bear With Me: Episode 1",
  "slug": "bear-with-me-episode-1",
  "year": 2016,
  "banner_url": "",
  "icon_url": "",
  "coverart": "https://lutris.net/media/igdb/cover_big/co1vdw.jpg",
  "platforms": [
    {
      "name": "Windows"
    }
  ],
  "provider_games": [
    {
      "name": "Bear With Me: Episode 1",
      "slug": "bear-with-me-episode-1",
      "service": "igdb"
    }
  ],
  "aliases": [],
  "shaders": [],
  "discord_id": "",
  "change_for": null
}