{
  "id": 45031,
  "name": "Snowman from Russia",
  "slug": "snowman-from-russia",
  "year": null,
  "banner_url": "",
  "icon_url": "",
  "coverart": "https://lutris.net/media/igdb/cover_big/kwizifspnwcaglejftvy.jpg",
  "platforms": [],
  "provider_games": [
    {
      "name": "Snowman from Russia",
      "slug": "snowman-from-russia",
      "service": "igdb"
    }
  ],
  "aliases": [],
  "shaders": [],
  "discord_id": "",
  "change_for": null
}