{
  "id": 292904,
  "name": "Eastwind Adventures: Chapter 1",
  "slug": "eastwind-adventures-chapter-1",
  "year": null,
  "banner_url": "",
  "icon_url": "",
  "coverart": "https://lutris.net/media/igdb/cover_big/co8m4m.jpg",
  "platforms": [],
  "provider_games": [
    {
      "name": "Eastwind Adventures: Chapter 1",
      "slug": "eastwind-adventures-chapter-1",
      "service": "igdb"
    }
  ],
  "aliases": [],
  "shaders": [],
  "discord_id": "",
  "change_for": null
}