{
  "id": 18302,
  "name": "Sluggish Morss: Days of the Purple Sun",
  "slug": "sluggish-morss-days-of-the-purple-sun",
  "year": 2015,
  "banner_url": "https://lutris.net/games/banner/sluggish-morss-days-of-the-purple-sun.jpg",
  "icon_url": "https://lutris.net/games/icon/sluggish-morss-days-of-the-purple-sun.png",
  "coverart": "https://lutris.net/media/igdb/cover_big/co2iat.jpg",
  "platforms": [
    {
      "name": "Mac"
    },
    {
      "name": "Windows"
    }
  ],
  "provider_games": [
    {
      "name": "Sluggish Morss: Days of the Purple Sun",
      "slug": "546440",
      "service": "steam"
    },
    {
      "name": "Sluggish Morss: Days of the Purple Sun",
      "slug": "sluggish-morss-days-of-the-purple-sun",
      "service": "igdb"
    }
  ],
  "aliases": [],
  "shaders": [],
  "discord_id": "",
  "change_for": null
}