{
  "id": 97306,
  "name": "Daifugo F.net",
  "slug": "daifugo-fnet",
  "year": null,
  "banner_url": "",
  "icon_url": "",
  "coverart": null,
  "platforms": [],
  "provider_games": [
    {
      "name": "Daifugo F.net",
      "slug": "daifugo-fnet",
      "service": "igdb"
    }
  ],
  "aliases": [],
  "shaders": [],
  "discord_id": "",
  "change_for": null
}