{
  "id": 293942,
  "name": "The Ninja Gaiden as Interpreted by MiniMacro Sound",
  "slug": "the-ninja-gaiden-as-interpreted-by-minimacro-sound",
  "year": 2021,
  "banner_url": "",
  "icon_url": "",
  "coverart": "https://lutris.net/media/igdb/cover_big/co8lzk.jpg",
  "platforms": [
    {
      "name": "Windows"
    }
  ],
  "provider_games": [
    {
      "name": "The Ninja Gaiden as Interpreted by MiniMacro Sound",
      "slug": "the-ninja-gaiden-as-interpreted-by-minimacro-sound",
      "service": "igdb"
    }
  ],
  "aliases": [],
  "shaders": [],
  "discord_id": "",
  "change_for": null
}