{
  "id": 64032,
  "name": "Necronomicon",
  "slug": "necronomicon",
  "year": null,
  "banner_url": "",
  "icon_url": "",
  "coverart": "https://lutris.net/media/igdb/cover_big/egxlazikhesdaqldifki.jpg",
  "platforms": [],
  "provider_games": [
    {
      "name": "Necronomicon",
      "slug": "necronomicon",
      "service": "igdb"
    }
  ],
  "aliases": [],
  "shaders": [],
  "discord_id": "",
  "change_for": null
}