{
  "id": 9142,
  "name": "The Walking Dead: Michonne",
  "slug": "the-walking-dead-michonne",
  "year": 2016,
  "banner_url": "https://lutris.net/games/banner/the-walking-dead-michonne.jpg",
  "icon_url": "https://lutris.net/games/icon/the-walking-dead-michonne.png",
  "coverart": "https://lutris.net/media/igdb/cover_big/co2md0.jpg",
  "platforms": [
    {
      "name": "Android"
    },
    {
      "name": "Sony Playstation 3"
    },
    {
      "name": "Sony Playstation 4"
    },
    {
      "name": "Windows"
    },
    {
      "name": "Xbox 360"
    },
    {
      "name": "Xbox One"
    }
  ],
  "provider_games": [
    {
      "name": "The Walking Dead: Michonne",
      "slug": "429570",
      "service": "steam"
    },
    {
      "name": "The Walking Dead: Michonne",
      "slug": "the-walking-dead-michonne",
      "service": "igdb"
    }
  ],
  "aliases": [],
  "shaders": [],
  "discord_id": "",
  "change_for": null
}