{
  "id": 251737,
  "name": "Pongmatic 2300",
  "slug": "pongmatic-2300",
  "year": null,
  "banner_url": "",
  "icon_url": "",
  "coverart": null,
  "platforms": [],
  "provider_games": [
    {
      "name": "Pongmatic 2300",
      "slug": "pongmatic-2300",
      "service": "igdb"
    }
  ],
  "aliases": [],
  "shaders": [],
  "discord_id": "",
  "change_for": null
}