{
  "id": 27628,
  "game_id": 15359,
  "game_slug": "derpy-dinos",
  "name": "Derpy Dinos",
  "year": 2017,
  "user": "vanstaveren",
  "runner": "steam",
  "slug": "derpy-dinos-steam",
  "version": "Steam",
  "description": null,
  "notes": "",
  "credits": "",
  "created_at": "2021-04-29T20:32:39.624427Z",
  "updated_at": "2021-12-13T19:10:34.758385Z",
  "draft": false,
  "published": true,
  "published_by": null,
  "rating": "",
  "is_playable": null,
  "steamid": 718500,
  "gogid": null,
  "gogslug": "",
  "humbleid": "",
  "humblestoreid": "",
  "humblestoreid_real": "",
  "script": {
    "game": {
      "appid": 718500
    }
  },
  "content": "game:\n  appid: 718500\n",
  "discord_id": ""
}