{
  "id": 52242,
  "name": "Evochron Legends",
  "slug": "evochron-legends",
  "year": null,
  "banner_url": "",
  "icon_url": "",
  "coverart": null,
  "platforms": [],
  "provider_games": [
    {
      "name": "Evochron Legends",
      "slug": "evochron-legends",
      "service": "igdb"
    }
  ],
  "aliases": [],
  "shaders": [],
  "discord_id": "",
  "change_for": null
}