{
  "id": 198192,
  "name": "Beat Invaders",
  "slug": "beat-invaders",
  "year": null,
  "banner_url": "https://lutris.net/games/banner/beat-invaders.jpg",
  "icon_url": "",
  "coverart": "https://lutris.net/media/igdb/cover_big/co4j4l.jpg",
  "platforms": [],
  "provider_games": [
    {
      "name": "Beat Invaders",
      "slug": "beat-invaders",
      "service": "igdb"
    },
    {
      "name": "Beat Invaders",
      "slug": "1863080",
      "service": "steam"
    }
  ],
  "aliases": [],
  "shaders": [],
  "discord_id": "",
  "change_for": null
}