{
  "id": 24837,
  "name": "Athena",
  "slug": "athena",
  "year": 1986,
  "banner_url": "https://lutris.net/games/banner/athena.jpg",
  "icon_url": "https://lutris.net/games/icon/athena.png",
  "coverart": "https://lutris.net/media/igdb/cover_big/co2oiw.jpg",
  "platforms": [
    {
      "name": "Arcade"
    },
    {
      "name": "Commodore 64"
    },
    {
      "name": "Commodore C64/128"
    },
    {
      "name": "NES"
    },
    {
      "name": "ZX Spectrum"
    }
  ],
  "provider_games": [
    {
      "name": "Athena",
      "slug": "athena",
      "service": "mame"
    },
    {
      "name": "Athena",
      "slug": "athena",
      "service": "igdb"
    }
  ],
  "aliases": [],
  "shaders": [],
  "discord_id": "",
  "change_for": null
}