{
  "id": 143821,
  "name": "Squares",
  "slug": "squares--3",
  "year": null,
  "banner_url": "",
  "icon_url": "",
  "coverart": "https://lutris.net/media/igdb/cover_big/co3uko.jpg",
  "platforms": [],
  "provider_games": [
    {
      "name": "Squares",
      "slug": "squares--3",
      "service": "igdb"
    }
  ],
  "aliases": [],
  "shaders": [],
  "discord_id": "",
  "change_for": null
}