{
  "id": 218347,
  "name": "Saber Ship",
  "slug": "saber-ship",
  "year": null,
  "banner_url": "",
  "icon_url": "",
  "coverart": "https://lutris.net/media/igdb/cover_big/co5itf.jpg",
  "platforms": [],
  "provider_games": [
    {
      "name": "Saber Ship",
      "slug": "saber-ship",
      "service": "igdb"
    }
  ],
  "aliases": [],
  "shaders": [],
  "discord_id": "",
  "change_for": null
}