{
  "id": 211748,
  "name": "Eyo: Jump 'n' Run RPG",
  "slug": "eyo-jump-n-run-rpg",
  "year": null,
  "banner_url": "",
  "icon_url": "",
  "coverart": "https://lutris.net/media/igdb/cover_big/co5f6d.jpg",
  "platforms": [],
  "provider_games": [
    {
      "name": "Eyo: Jump 'n' Run RPG",
      "slug": "eyo-jump-n-run-rpg",
      "service": "igdb"
    }
  ],
  "aliases": [],
  "shaders": [],
  "discord_id": "",
  "change_for": null
}