{
  "id": 4075,
  "name": "Bloons TD5",
  "slug": "bloons-td5",
  "year": null,
  "banner_url": "https://lutris.net/games/banner/bloons-td5.jpg",
  "icon_url": "https://lutris.net/games/icon/bloons-td5.png",
  "coverart": null,
  "platforms": [],
  "provider_games": [
    {
      "name": "Bloons TD5",
      "slug": "306020",
      "service": "steam"
    }
  ],
  "aliases": [],
  "shaders": [],
  "discord_id": "426528712348139520",
  "change_for": null
}