{
  "id": 221737,
  "name": "New Super Realistic Mario Bros.",
  "slug": "new-super-realistic-mario-bros",
  "year": 2022,
  "banner_url": "",
  "icon_url": "",
  "coverart": "https://lutris.net/media/igdb/cover_big/co4yow.jpg",
  "platforms": [
    {
      "name": "Windows"
    }
  ],
  "provider_games": [
    {
      "name": "New Super Realistic Mario Bros.",
      "slug": "new-super-realistic-mario-bros",
      "service": "igdb"
    }
  ],
  "aliases": [],
  "shaders": [],
  "discord_id": "",
  "change_for": null
}