{
  "id": 214298,
  "name": "Burning Dead",
  "slug": "burning-dead",
  "year": null,
  "banner_url": "",
  "icon_url": "",
  "coverart": null,
  "platforms": [],
  "provider_games": [
    {
      "name": "Burning Dead",
      "slug": "burning-dead",
      "service": "igdb"
    }
  ],
  "aliases": [],
  "shaders": [],
  "discord_id": "",
  "change_for": null
}