{
  "id": 282950,
  "name": "Unlimited Worlds",
  "slug": "unlimited-worlds",
  "year": null,
  "banner_url": "",
  "icon_url": "",
  "coverart": "https://lutris.net/media/igdb/cover_big/co83zh.jpg",
  "platforms": [],
  "provider_games": [
    {
      "name": "Unlimited Worlds",
      "slug": "unlimited-worlds",
      "service": "igdb"
    }
  ],
  "aliases": [],
  "shaders": [],
  "discord_id": "",
  "change_for": null
}