{
  "id": 134802,
  "name": "Chinese Sudoku",
  "slug": "chinese-sudoku",
  "year": null,
  "banner_url": "",
  "icon_url": "",
  "coverart": "https://lutris.net/media/igdb/cover_big/co3n2d.jpg",
  "platforms": [],
  "provider_games": [
    {
      "name": "Chinese Sudoku",
      "slug": "chinese-sudoku",
      "service": "igdb"
    }
  ],
  "aliases": [],
  "shaders": [],
  "discord_id": "",
  "change_for": null
}