{
  "id": 45382,
  "name": "Treasure Mole: Winter Vacation",
  "slug": "treasure-mole-winter-vacation",
  "year": null,
  "banner_url": "",
  "icon_url": "",
  "coverart": "https://lutris.net/media/igdb/cover_big/p5xikyln1zcogkwlady6.jpg",
  "platforms": [],
  "provider_games": [
    {
      "name": "Treasure Mole: Winter Vacation",
      "slug": "treasure-mole-winter-vacation",
      "service": "igdb"
    }
  ],
  "aliases": [],
  "shaders": [],
  "discord_id": "",
  "change_for": null
}