{
  "id": 10624,
  "name": "Logistics Company",
  "slug": "logistics-company",
  "year": 2014,
  "banner_url": "https://lutris.net/games/banner/logistics-company.jpg",
  "icon_url": "https://lutris.net/games/icon/logistics-company.png",
  "coverart": "https://lutris.net/media/igdb/cover_big/co45dv.jpg",
  "platforms": [
    {
      "name": "Windows"
    }
  ],
  "provider_games": [
    {
      "name": "Logistics Company",
      "slug": "328310",
      "service": "steam"
    },
    {
      "name": "Logistics Company",
      "slug": "logistics-company",
      "service": "igdb"
    }
  ],
  "aliases": [],
  "shaders": [],
  "discord_id": "",
  "change_for": null
}