{
  "id": 16099,
  "name": "Seven boys 2",
  "slug": "seven-boys-2",
  "year": 2017,
  "banner_url": "https://lutris.net/games/banner/seven-boys-2.jpg",
  "icon_url": "https://lutris.net/games/icon/seven-boys-2.png",
  "coverart": "https://lutris.net/media/igdb/cover_big/co7tj0.jpg",
  "platforms": [
    {
      "name": "Windows"
    }
  ],
  "provider_games": [
    {
      "name": "Seven boys 2",
      "slug": "671240",
      "service": "steam"
    },
    {
      "name": "Seven Boys 2",
      "slug": "seven-boys-2",
      "service": "igdb"
    }
  ],
  "aliases": [],
  "shaders": [],
  "discord_id": "",
  "change_for": null
}