{
  "id": 6731,
  "name": "Tormentum - Dark Sorrow",
  "slug": "tormentum-dark-sorrow",
  "year": 2015,
  "banner_url": "https://lutris.net/games/banner/tormentum-dark-sorrow.jpg",
  "icon_url": "https://lutris.net/games/icon/tormentum-dark-sorrow.png",
  "coverart": "https://lutris.net/media/igdb/cover_big/vcxh5hwaxucjo2ilkzoq.jpg",
  "platforms": [
    {
      "name": "Android"
    },
    {
      "name": "Linux"
    },
    {
      "name": "Mac"
    },
    {
      "name": "Windows"
    }
  ],
  "provider_games": [
    {
      "name": "Tormentum: Dark Sorrow",
      "slug": "1995239510",
      "service": "gog"
    },
    {
      "name": "Tormentum - Dark Sorrow",
      "slug": "335000",
      "service": "steam"
    },
    {
      "name": "Tormentum: Dark Sorrow",
      "slug": "tormentum-dark-sorrow",
      "service": "igdb"
    }
  ],
  "aliases": [],
  "shaders": [],
  "discord_id": "",
  "change_for": null
}