{
  "id": 103565,
  "name": "Forgotten Hill: Puppeteer",
  "slug": "forgotten-hill-puppeteer",
  "year": null,
  "banner_url": "",
  "icon_url": "",
  "coverart": "https://lutris.net/media/igdb/cover_big/co2o14.jpg",
  "platforms": [],
  "provider_games": [
    {
      "name": "Forgotten Hill: Puppeteer",
      "slug": "forgotten-hill-puppeteer",
      "service": "igdb"
    }
  ],
  "aliases": [],
  "shaders": [],
  "discord_id": "",
  "change_for": null
}