{
  "id": 167539,
  "name": "The Werewolf Hills",
  "slug": "the-werewolf-hills",
  "year": null,
  "banner_url": "https://lutris.net/games/banner/the-werewolf-hills.jpg",
  "icon_url": "",
  "coverart": "https://lutris.net/media/igdb/cover_big/co446n.jpg",
  "platforms": [],
  "provider_games": [
    {
      "name": "The Werewolf Hills",
      "slug": "1122710",
      "service": "steam"
    },
    {
      "name": "The Werewolf Hills",
      "slug": "the-werewolf-hills",
      "service": "igdb"
    }
  ],
  "aliases": [],
  "shaders": [],
  "discord_id": "",
  "change_for": null
}