{
  "id": 50675,
  "name": "First Expedition",
  "slug": "first-expedition",
  "year": 1987,
  "banner_url": "",
  "icon_url": "",
  "coverart": "https://lutris.net/media/igdb/cover_big/itcrhfqbnexiqfgp54oy.jpg",
  "platforms": [],
  "provider_games": [
    {
      "name": "First Expedition",
      "slug": "first-expedition",
      "service": "igdb"
    }
  ],
  "aliases": [],
  "shaders": [],
  "discord_id": "",
  "change_for": null
}