{
  "id": 271014,
  "name": "Frisco",
  "slug": "frisco",
  "year": null,
  "banner_url": "",
  "icon_url": "",
  "coverart": "https://lutris.net/media/igdb/cover_big/co7mpw.jpg",
  "platforms": [],
  "provider_games": [
    {
      "name": "Frisco",
      "slug": "frisco",
      "service": "igdb"
    }
  ],
  "aliases": [],
  "shaders": [],
  "discord_id": "",
  "change_for": null
}