{
  "id": 108301,
  "name": "Command & Conquer: Rivals",
  "slug": "command-and-conquer-rivals",
  "year": 2018,
  "banner_url": "",
  "icon_url": "",
  "coverart": "https://lutris.net/media/igdb/cover_big/co20kh.jpg",
  "platforms": [
    {
      "name": "Android"
    }
  ],
  "provider_games": [
    {
      "name": "Command & Conquer: Rivals",
      "slug": "command-and-conquer-rivals",
      "service": "igdb"
    }
  ],
  "aliases": [],
  "shaders": [],
  "discord_id": "",
  "change_for": null
}