{
  "id": 166135,
  "name": "Tantal",
  "slug": "tantal",
  "year": null,
  "banner_url": "",
  "icon_url": "",
  "coverart": "https://lutris.net/media/igdb/cover_big/co42xj.jpg",
  "platforms": [],
  "provider_games": [
    {
      "name": "Tantal",
      "slug": "tantal",
      "service": "igdb"
    }
  ],
  "aliases": [],
  "shaders": [],
  "discord_id": "",
  "change_for": null
}