{
  "id": 189594,
  "name": "Destiny 2: Beyond Light - Season of the Chosen",
  "slug": "destiny-2-beyond-light-season-of-the-chosen",
  "year": 2021,
  "banner_url": "",
  "icon_url": "",
  "coverart": "https://lutris.net/media/igdb/cover_big/co2tzj.jpg",
  "platforms": [
    {
      "name": "Sony Playstation 4"
    },
    {
      "name": "Windows"
    },
    {
      "name": "Xbox One"
    }
  ],
  "provider_games": [
    {
      "name": "Destiny 2: Beyond Light - Season of the Chosen",
      "slug": "destiny-2-beyond-light-season-of-the-chosen",
      "service": "igdb"
    }
  ],
  "aliases": [],
  "shaders": [],
  "discord_id": "",
  "change_for": null
}