{
  "id": 151791,
  "name": "Bird Pro Skater",
  "slug": "bird-pro-skater",
  "year": null,
  "banner_url": "",
  "icon_url": "",
  "coverart": "https://lutris.net/media/igdb/cover_big/co3m69.jpg",
  "platforms": [],
  "provider_games": [
    {
      "name": "Bird Pro Skater",
      "slug": "bird-pro-skater",
      "service": "igdb"
    }
  ],
  "aliases": [],
  "shaders": [],
  "discord_id": "",
  "change_for": null
}