{
  "id": 750,
  "game_id": 2505,
  "game_slug": "black-ice",
  "name": "Black Ice",
  "year": 2014,
  "user": "Xodetaetl",
  "runner": "steam",
  "slug": "black-ice-steam",
  "version": "steam",
  "description": "",
  "notes": "",
  "credits": "",
  "created_at": "2014-09-15T13:47:42.569000Z",
  "updated_at": "2014-09-15T16:13:30.863000Z",
  "draft": false,
  "published": true,
  "published_by": null,
  "rating": "",
  "is_playable": null,
  "steamid": 311800,
  "gogid": null,
  "gogslug": "",
  "humbleid": "",
  "humblestoreid": "",
  "humblestoreid_real": "",
  "script": {
    "game": {
      "appid": 311800
    }
  },
  "content": "game:\n  appid: 311800\n",
  "discord_id": ""
}