{
  "id": 72286,
  "name": "Metalizer",
  "slug": "metalizer",
  "year": null,
  "banner_url": "",
  "icon_url": "",
  "coverart": "https://lutris.net/media/igdb/cover_big/co6z53.jpg",
  "platforms": [],
  "provider_games": [
    {
      "name": "Metalizer",
      "slug": "metalizer",
      "service": "igdb"
    }
  ],
  "aliases": [],
  "shaders": [],
  "discord_id": "",
  "change_for": null
}