{
  "id": 21248,
  "game_id": 8919,
  "game_slug": "project-highrise",
  "name": "Project Highrise",
  "year": 2016,
  "user": "Anarch157a",
  "runner": "wine",
  "slug": "project-highrise-gog",
  "version": "GOG",
  "description": "Install GOG version of Project Highrise",
  "notes": "",
  "credits": "",
  "created_at": "2020-06-06T02:14:57.518000Z",
  "updated_at": "2023-06-13T01:34:12.409066Z",
  "draft": false,
  "published": true,
  "published_by": 20548,
  "rating": "",
  "is_playable": null,
  "steamid": 423580,
  "gogid": 2018730457,
  "gogslug": "project_highrise_architects_edition",
  "humbleid": "",
  "humblestoreid": "",
  "humblestoreid_real": "",
  "script": {
    "files": [
      {
        "install": "N/A:Select the Windows setup file downloaded from GOG"
      }
    ],
    "game": {
      "arch": "win64",
      "exe": "drive_c/GOG Games/Project Highrise/Game.exe",
      "prefix": "$GAMEDIR"
    },
    "installer": [
      {
        "task": {
          "name": "create_prefix",
          "prefix": "$GAMEDIR"
        }
      },
      {
        "task": {
          "arch": "win64",
          "args": "/VERYSILENT /SUPPRESSMSGBOXES",
          "description": "Installing the Game",
          "executable": "install",
          "name": "wineexec",
          "prefix": "$GAMEDIR"
        }
      }
    ]
  },
  "content": "files:\n- install: N/A:Select the Windows setup file downloaded from GOG\ngame:\n  arch: win64\n  exe: drive_c/GOG Games/Project Highrise/Game.exe\n  prefix: $GAMEDIR\ninstaller:\n- task:\n    name: create_prefix\n    prefix: $GAMEDIR\n- task:\n    arch: win64\n    args: /VERYSILENT /SUPPRESSMSGBOXES\n    description: Installing the Game\n    executable: install\n    name: wineexec\n    prefix: $GAMEDIR\n",
  "discord_id": "469288321814757402"
}