{
  "id": 87348,
  "name": "Totem Spirits",
  "slug": "totem-spirits",
  "year": 2017,
  "banner_url": "",
  "icon_url": "",
  "coverart": "https://lutris.net/media/igdb/cover_big/yuwbx0gqduxlsan7qmb0.jpg",
  "platforms": [
    {
      "name": "Android"
    }
  ],
  "provider_games": [
    {
      "name": "Totem Spirits",
      "slug": "totem-spirits",
      "service": "igdb"
    }
  ],
  "aliases": [],
  "shaders": [],
  "discord_id": "",
  "change_for": null
}