{
  "id": 92783,
  "name": "Archery Physics Objects Destruction Apple shooter",
  "slug": "archery-physics-objects-destruction-apple-shooter",
  "year": null,
  "banner_url": "",
  "icon_url": "",
  "coverart": null,
  "platforms": [],
  "provider_games": [
    {
      "name": "Archery Physics Objects Destruction Apple shooter",
      "slug": "archery-physics-objects-destruction-apple-shooter",
      "service": "igdb"
    }
  ],
  "aliases": [],
  "shaders": [],
  "discord_id": "",
  "change_for": null
}