{
  "id": 27873,
  "game_id": 42350,
  "game_slug": "the-mine",
  "name": "The Mine",
  "year": 2018,
  "user": "vanstaveren",
  "runner": "steam",
  "slug": "the-mine-steam",
  "version": "steam",
  "description": null,
  "notes": "",
  "credits": "",
  "created_at": "2021-05-15T14:42:19.898148Z",
  "updated_at": "2021-12-13T19:10:34.468441Z",
  "draft": false,
  "published": true,
  "published_by": null,
  "rating": "",
  "is_playable": null,
  "steamid": 569520,
  "gogid": null,
  "gogslug": "",
  "humbleid": "",
  "humblestoreid": "",
  "humblestoreid_real": "",
  "script": {
    "game": {
      "appid": 898980
    }
  },
  "content": "game:\n  appid: 898980\n",
  "discord_id": ""
}