{
  "id": 23546,
  "name": "Crimson Survival",
  "slug": "crimson-survival",
  "year": null,
  "banner_url": "https://lutris.net/games/banner/crimson-survival.jpg",
  "icon_url": "https://lutris.net/games/icon/crimson-survival.png",
  "coverart": null,
  "platforms": [],
  "provider_games": [
    {
      "name": "Crimson Survival",
      "slug": "crimson-survival",
      "service": "igdb"
    }
  ],
  "aliases": [],
  "shaders": [],
  "discord_id": "",
  "change_for": null
}