{
  "id": 300294,
  "name": "Gregory Horror Show: Lost Qualia",
  "slug": "gregory-horror-show-lost-qualia",
  "year": 2018,
  "banner_url": "",
  "icon_url": "",
  "coverart": "https://lutris.net/media/igdb/cover_big/co91le.jpg",
  "platforms": [
    {
      "name": "Android"
    }
  ],
  "provider_games": [
    {
      "name": "Gregory Horror Show: Lost Qualia",
      "slug": "gregory-horror-show-lost-qualia",
      "service": "igdb"
    }
  ],
  "aliases": [],
  "shaders": [],
  "discord_id": "",
  "change_for": null
}