{
  "id": 35375,
  "name": "Psychic 5",
  "slug": "psychic-5",
  "year": 1987,
  "banner_url": "",
  "icon_url": "https://lutris.net/games/icon/psychic-5.png",
  "coverart": "https://lutris.net/media/igdb/cover_big/lbjvrrtbhsuxd22s7zzs.jpg",
  "platforms": [
    {
      "name": "Arcade"
    }
  ],
  "provider_games": [
    {
      "name": "Psychic 5",
      "slug": "psychic5",
      "service": "mame"
    },
    {
      "name": "Psychic 5",
      "slug": "psychic-5",
      "service": "igdb"
    }
  ],
  "aliases": [],
  "shaders": [],
  "discord_id": "",
  "change_for": null
}