{
  "id": 264771,
  "name": "Coin Exchange Craze",
  "slug": "coin-exchange-craze",
  "year": null,
  "banner_url": "",
  "icon_url": "",
  "coverart": null,
  "platforms": [
    {
      "name": "Playdate"
    }
  ],
  "provider_games": [
    {
      "name": "Coin Exchange Craze",
      "slug": "coin-exchange-craze",
      "service": "igdb"
    }
  ],
  "aliases": [],
  "shaders": [],
  "discord_id": "",
  "change_for": null
}