{
  "id": 57453,
  "name": "The Camp - Caravan Edition",
  "slug": "the-camp-caravan-edition",
  "year": null,
  "banner_url": "",
  "icon_url": "",
  "coverart": "https://lutris.net/media/igdb/cover_big/wagxltzsrai53nijehfy.jpg",
  "platforms": [],
  "provider_games": [
    {
      "name": "The Camp - Caravan Edition",
      "slug": "the-camp-caravan-edition",
      "service": "igdb"
    }
  ],
  "aliases": [],
  "shaders": [],
  "discord_id": "",
  "change_for": null
}