{
  "id": 64617,
  "name": "Gutterball 3D",
  "slug": "gutterball-3d",
  "year": null,
  "banner_url": "",
  "icon_url": "",
  "coverart": "https://lutris.net/media/igdb/cover_big/co56ou.jpg",
  "platforms": [],
  "provider_games": [
    {
      "name": "Gutterball 3D",
      "slug": "gutterball-3d",
      "service": "igdb"
    }
  ],
  "aliases": [],
  "shaders": [],
  "discord_id": "",
  "change_for": null
}