{
  "id": 279757,
  "name": "Jewel Match Origins 3: Camelot Castle - Collector's Edition",
  "slug": "jewel-match-origins-3-camelot-castle-collectors-edition",
  "year": null,
  "banner_url": "",
  "icon_url": "",
  "coverart": "https://lutris.net/media/igdb/cover_big/co819n.jpg",
  "platforms": [],
  "provider_games": [
    {
      "name": "Jewel Match Origins 3: Camelot Castle - Collector's Edition",
      "slug": "jewel-match-origins-3-camelot-castle-collectors-edition",
      "service": "igdb"
    }
  ],
  "aliases": [],
  "shaders": [],
  "discord_id": "",
  "change_for": null
}