{
  "id": 284129,
  "name": "Idle Dessert Tycoon",
  "slug": "idle-dessert-tycoon",
  "year": null,
  "banner_url": "",
  "icon_url": "",
  "coverart": null,
  "platforms": [
    {
      "name": "Android"
    }
  ],
  "provider_games": [
    {
      "name": "Idle Dessert Tycoon",
      "slug": "idle-dessert-tycoon",
      "service": "igdb"
    }
  ],
  "aliases": [],
  "shaders": [],
  "discord_id": "",
  "change_for": null
}