{
  "id": 10378,
  "name": "Drakengard",
  "slug": "drakengard",
  "year": 2004,
  "banner_url": "https://lutris.net/games/banner/drakengard.jpg",
  "icon_url": "",
  "coverart": "https://lutris.net/media/igdb/cover_big/co4agx.jpg",
  "platforms": [
    {
      "name": "Legacy Cellphone"
    },
    {
      "name": "Sony PlayStation 2"
    }
  ],
  "provider_games": [
    {
      "name": "Drakengard",
      "slug": "drakengard",
      "service": "igdb"
    }
  ],
  "aliases": [],
  "shaders": [],
  "discord_id": "",
  "change_for": null
}