{
  "id": 235086,
  "name": "Ghost Killers the Revenge of the Sucker-Fun",
  "slug": "ghost-killers-the-revenge-of-the-sucker-fun",
  "year": null,
  "banner_url": "",
  "icon_url": "",
  "coverart": "https://lutris.net/media/igdb/cover_big/co63x1.jpg",
  "platforms": [],
  "provider_games": [
    {
      "name": "Ghost Killers: The Revenge of the Sucker-Fun",
      "slug": "ghost-killers-the-revenge-of-the-sucker-fun",
      "service": "igdb"
    }
  ],
  "aliases": [],
  "shaders": [],
  "discord_id": "",
  "change_for": null
}