{
  "id": 26721,
  "game_id": 41598,
  "game_slug": "agent-of-chaos",
  "name": "Agent of Chaos",
  "year": 2020,
  "user": "vanstaveren",
  "runner": "steam",
  "slug": "agent-of-chaos-steam",
  "version": "steam",
  "description": null,
  "notes": "",
  "credits": "",
  "created_at": "2021-03-03T21:35:09.105864Z",
  "updated_at": "2021-12-13T19:10:35.449208Z",
  "draft": false,
  "published": true,
  "published_by": null,
  "rating": "",
  "is_playable": null,
  "steamid": null,
  "gogid": null,
  "gogslug": "",
  "humbleid": "",
  "humblestoreid": "",
  "humblestoreid_real": "",
  "script": {
    "game": {
      "appid": 1486270
    }
  },
  "content": "game:\n  appid: 1486270\n",
  "discord_id": ""
}