{
  "id": 106191,
  "name": "Fracas",
  "slug": "fracas",
  "year": 1980,
  "banner_url": "",
  "icon_url": "",
  "coverart": "https://lutris.net/media/igdb/cover_big/str4dxodw4rrty9fpjoi.jpg",
  "platforms": [
    {
      "name": "Apple II"
    }
  ],
  "provider_games": [
    {
      "name": "Fracas",
      "slug": "fracas",
      "service": "igdb"
    }
  ],
  "aliases": [],
  "shaders": [],
  "discord_id": "",
  "change_for": null
}