{
  "id": 166129,
  "name": "Tanks Endeavor",
  "slug": "tanks-endeavor",
  "year": null,
  "banner_url": "",
  "icon_url": "",
  "coverart": "https://lutris.net/media/igdb/cover_big/co42xc.jpg",
  "platforms": [],
  "provider_games": [
    {
      "name": "Tanks Endeavor",
      "slug": "tanks-endeavor",
      "service": "igdb"
    }
  ],
  "aliases": [],
  "shaders": [],
  "discord_id": "",
  "change_for": null
}