{
  "id": 249257,
  "name": "Living Cell",
  "slug": "living-cell",
  "year": null,
  "banner_url": "",
  "icon_url": "",
  "coverart": "https://lutris.net/media/igdb/cover_big/co6mjs.jpg",
  "platforms": [],
  "provider_games": [
    {
      "name": "Living Cell",
      "slug": "living-cell",
      "service": "igdb"
    }
  ],
  "aliases": [],
  "shaders": [],
  "discord_id": "",
  "change_for": null
}