{
  "id": 298068,
  "name": "Coloring Pages: Lumberhill Tales",
  "slug": "coloring-pages-lumberhill-tales",
  "year": 2022,
  "banner_url": "",
  "icon_url": "",
  "coverart": "https://lutris.net/media/igdb/cover_big/co8tm3.jpg",
  "platforms": [
    {
      "name": "Nintendo Switch"
    }
  ],
  "provider_games": [
    {
      "name": "Coloring Pages: Lumberhill Tales",
      "slug": "coloring-pages-lumberhill-tales",
      "service": "igdb"
    }
  ],
  "aliases": [],
  "shaders": [],
  "discord_id": "",
  "change_for": null
}