{
  "id": 122790,
  "name": "Zen Chess: Blindfold Masters",
  "slug": "zen-chess-blindfold-masters",
  "year": null,
  "banner_url": "",
  "icon_url": "",
  "coverart": "https://lutris.net/media/igdb/cover_big/co2vld.jpg",
  "platforms": [],
  "provider_games": [
    {
      "name": "Zen Chess: Blindfold Masters",
      "slug": "zen-chess-blindfold-masters",
      "service": "igdb"
    }
  ],
  "aliases": [],
  "shaders": [],
  "discord_id": "",
  "change_for": null
}