{
  "id": 56150,
  "name": "Puppy Luv: Spa and Resort",
  "slug": "puppy-luv-spa-and-resort",
  "year": 2007,
  "banner_url": "",
  "icon_url": "",
  "coverart": "https://lutris.net/media/igdb/cover_big/pox4jvwf52zw6dojhwth.jpg",
  "platforms": [
    {
      "name": "Nintendo Game Boy Advance"
    }
  ],
  "provider_games": [
    {
      "name": "Puppy Luv: Spa and Resort",
      "slug": "puppy-luv-spa-and-resort",
      "service": "igdb"
    }
  ],
  "aliases": [],
  "shaders": [],
  "discord_id": "",
  "change_for": null
}