{
  "id": 350,
  "name": "Metro: Last Light",
  "slug": "metro-last-light",
  "year": 2013,
  "banner_url": "https://lutris.net/games/banner/metro-last-light.jpg",
  "icon_url": "https://lutris.net/games/icon/metro-last-light.png",
  "coverart": "https://lutris.net/media/igdb/cover_big/co2h9d.jpg",
  "platforms": [
    {
      "name": "Linux"
    },
    {
      "name": "Sony Playstation 3"
    },
    {
      "name": "Windows"
    },
    {
      "name": "Xbox 360"
    }
  ],
  "provider_games": [
    {
      "name": "Metro: Last Light Complete Edition",
      "slug": "43160",
      "service": "steam"
    },
    {
      "name": "Metro: Last Light",
      "slug": "metro-last-light",
      "service": "igdb"
    }
  ],
  "aliases": [],
  "shaders": [],
  "discord_id": "",
  "change_for": null
}