{
  "id": 48507,
  "name": "Cosmic Soldier",
  "slug": "cosmic-soldier",
  "year": 1985,
  "banner_url": "",
  "icon_url": "",
  "coverart": "https://lutris.net/media/igdb/cover_big/pwlgeu3ho9lnugyxvjap.jpg",
  "platforms": [
    {
      "name": "MSX"
    },
    {
      "name": "PC-8801"
    },
    {
      "name": "Sharp X1"
    }
  ],
  "provider_games": [
    {
      "name": "Cosmic Soldier",
      "slug": "cosmic-soldier",
      "service": "igdb"
    }
  ],
  "aliases": [],
  "shaders": [],
  "discord_id": "",
  "change_for": null
}