{
  "id": 215966,
  "name": "Reborn: Fate Of Gods",
  "slug": "reborn-fate-of-gods",
  "year": null,
  "banner_url": "",
  "icon_url": "",
  "coverart": "https://lutris.net/media/igdb/cover_big/co58ii.jpg",
  "platforms": [],
  "provider_games": [
    {
      "name": "Reborn: Fate of Gods",
      "slug": "reborn-fate-of-gods",
      "service": "igdb"
    }
  ],
  "aliases": [],
  "shaders": [],
  "discord_id": "",
  "change_for": null
}