{
  "id": 191726,
  "name": "Electrician Simulator - First Shock",
  "slug": "electrician-simulator-first-shock",
  "year": 2022,
  "banner_url": "https://lutris.net/games/banner/electrician-simulator-first-shock.jpg",
  "icon_url": "https://lutris.net/games/icon/electrician-simulator-first-shock.png",
  "coverart": "https://lutris.net/media/igdb/cover_big/co4bpt.jpg",
  "platforms": [
    {
      "name": "Windows"
    }
  ],
  "provider_games": [
    {
      "name": "Electrician Simulator: First Shock",
      "slug": "electrician-simulator-first-shock",
      "service": "igdb"
    },
    {
      "name": "Electrician Simulator - First Shock",
      "slug": "1781160",
      "service": "steam"
    }
  ],
  "aliases": [],
  "shaders": [],
  "discord_id": "",
  "change_for": null
}