{
  "id": 96886,
  "name": "The Last Girl ～ Janna's diary of shame",
  "slug": "the-last-girl-jannas-diary-of-shame",
  "year": null,
  "banner_url": "",
  "icon_url": "",
  "coverart": "https://lutris.net/media/igdb/cover_big/co9f2z.jpg",
  "platforms": [],
  "provider_games": [
    {
      "name": "The Last Girl: Janna's Diary of Shame",
      "slug": "the-last-girl-jannas-diary-of-shame",
      "service": "igdb"
    }
  ],
  "aliases": [],
  "shaders": [],
  "discord_id": "",
  "change_for": null
}