{
  "id": 264973,
  "name": "Pro Yakyuu: Greatest Nine 98",
  "slug": "pro-yakyuu-greatest-nine-98",
  "year": 1998,
  "banner_url": "",
  "icon_url": "",
  "coverart": "https://lutris.net/media/igdb/cover_big/co7bio.jpg",
  "platforms": [
    {
      "name": "Dreamcast"
    },
    {
      "name": "Sega Saturn"
    }
  ],
  "provider_games": [
    {
      "name": "Pro Yakyuu: Greatest Nine 98",
      "slug": "pro-yakyuu-greatest-nine-98",
      "service": "igdb"
    }
  ],
  "aliases": [],
  "shaders": [],
  "discord_id": "",
  "change_for": null
}