{
  "id": 104008,
  "name": "Puzzle Clash Heroes: Neolympia",
  "slug": "puzzle-clash-heroes-neolympia",
  "year": null,
  "banner_url": "",
  "icon_url": "",
  "coverart": "https://lutris.net/media/igdb/cover_big/co2r1b.jpg",
  "platforms": [],
  "provider_games": [
    {
      "name": "Puzzle Clash Heroes: Neolympia",
      "slug": "puzzle-clash-heroes-neolympia",
      "service": "igdb"
    }
  ],
  "aliases": [],
  "shaders": [],
  "discord_id": "",
  "change_for": null
}