{
  "id": 85547,
  "name": "Bouken Yuuki Pluster World: Densetsu no Pluster Gate EX",
  "slug": "bouken-yuuki-pluster-world-densetsu-no-pluster-gate-ex",
  "year": 2004,
  "banner_url": "",
  "icon_url": "",
  "coverart": null,
  "platforms": [
    {
      "name": "Nintendo Game Boy Advance"
    }
  ],
  "provider_games": [
    {
      "name": "Bouken Yuuki Pluster World: Densetsu no Pluster Gate EX",
      "slug": "bouken-yuuki-pluster-world-densetsu-no-pluster-gate-ex",
      "service": "igdb"
    }
  ],
  "aliases": [],
  "shaders": [],
  "discord_id": "",
  "change_for": null
}