{
  "id": 55371,
  "name": "Ninku Gaiden: Hiroyuki Daikatsugeki",
  "slug": "ninku-gaiden-hiroyuki-daikatsugeki",
  "year": 1995,
  "banner_url": "",
  "icon_url": "",
  "coverart": "https://lutris.net/media/igdb/cover_big/s7g9jf0elnqu9khxzvu9.jpg",
  "platforms": [
    {
      "name": "Sega Game Gear"
    }
  ],
  "provider_games": [
    {
      "name": "Ninku Gaiden: Hiroyuki Daikatsugeki",
      "slug": "ninku-gaiden-hiroyuki-daikatsugeki",
      "service": "igdb"
    }
  ],
  "aliases": [],
  "shaders": [],
  "discord_id": "",
  "change_for": null
}