{
  "id": 17762,
  "name": "Duke Caribbean: Life's a Beach",
  "slug": "duke-caribbean-lifes-a-beach",
  "year": 1997,
  "banner_url": "https://lutris.net/games/banner/duke-caribbean-lifes-a-beach.jpg",
  "icon_url": "",
  "coverart": "https://lutris.net/media/igdb/cover_big/co21ke.jpg",
  "platforms": [
    {
      "name": "MS-DOS"
    }
  ],
  "provider_games": [
    {
      "name": "Duke Caribbean: Life's a Beach",
      "slug": "duke-caribbean-lifes-a-beach",
      "service": "igdb"
    }
  ],
  "aliases": [],
  "shaders": [],
  "discord_id": "",
  "change_for": null
}