{
  "id": 185922,
  "name": "A Weekend at Villa Apate",
  "slug": "a-weekend-at-villa-apate",
  "year": null,
  "banner_url": "",
  "icon_url": "",
  "coverart": null,
  "platforms": [],
  "provider_games": [
    {
      "name": "A Weekend at Villa Apate",
      "slug": "a-weekend-at-villa-apate",
      "service": "igdb"
    }
  ],
  "aliases": [],
  "shaders": [],
  "discord_id": "",
  "change_for": null
}