{
  "id": 107379,
  "name": "Marty and the Trouble with Cheese",
  "slug": "marty-and-the-trouble-with-cheese",
  "year": 1995,
  "banner_url": "",
  "icon_url": "",
  "coverart": "https://lutris.net/media/igdb/cover_big/co2v6u.jpg",
  "platforms": [
    {
      "name": "Mac"
    },
    {
      "name": "Windows"
    }
  ],
  "provider_games": [
    {
      "name": "Marty and the Trouble with Cheese",
      "slug": "marty-and-the-trouble-with-cheese",
      "service": "igdb"
    }
  ],
  "aliases": [],
  "shaders": [],
  "discord_id": "",
  "change_for": null
}