{
  "id": 19624,
  "name": "My Little Worms",
  "slug": "my-little-worms",
  "year": 2017,
  "banner_url": "https://lutris.net/games/banner/my-little-worms.jpg",
  "icon_url": "https://lutris.net/games/icon/my-little-worms.png",
  "coverart": "https://lutris.net/media/igdb/cover_big/co6k4d.jpg",
  "platforms": [
    {
      "name": "Linux"
    },
    {
      "name": "Mac"
    },
    {
      "name": "Windows"
    }
  ],
  "provider_games": [
    {
      "name": "My Little Worms",
      "slug": "703210",
      "service": "steam"
    },
    {
      "name": "My Little Worms",
      "slug": "my-little-worms",
      "service": "igdb"
    }
  ],
  "aliases": [],
  "shaders": [],
  "discord_id": "",
  "change_for": null
}