{
  "id": 30181,
  "name": "Arcade Classics Anniversary Collection",
  "slug": "arcade-classics-anniversary-collection",
  "year": 2018,
  "banner_url": "https://lutris.net/games/banner/arcade-classics-anniversary-collection.jpg",
  "icon_url": "https://lutris.net/games/icon/arcade-classics-anniversary-collection.png",
  "coverart": "https://lutris.net/media/igdb/cover_big/co2vaa.jpg",
  "platforms": [
    {
      "name": "Nintendo Switch"
    },
    {
      "name": "Sony Playstation 4"
    },
    {
      "name": "Windows"
    },
    {
      "name": "Xbox One"
    }
  ],
  "provider_games": [
    {
      "name": "Arcade Classics Anniversary Collection",
      "slug": "1018000",
      "service": "steam"
    },
    {
      "name": "Arcade Classics Anniversary Collection",
      "slug": "arcade-classics-anniversary-collection",
      "service": "igdb"
    }
  ],
  "aliases": [],
  "shaders": [],
  "discord_id": "",
  "change_for": null
}