{
  "id": 208433,
  "name": "Mussoumano 3D Run",
  "slug": "mussoumano-3d-run",
  "year": 2017,
  "banner_url": "",
  "icon_url": "",
  "coverart": "https://lutris.net/media/igdb/cover_big/co5pzm.jpg",
  "platforms": [
    {
      "name": "Android"
    }
  ],
  "provider_games": [
    {
      "name": "Mussoumano 3D Run",
      "slug": "mussoumano-3d-run",
      "service": "igdb"
    }
  ],
  "aliases": [],
  "shaders": [],
  "discord_id": "",
  "change_for": null
}