{
  "id": 137736,
  "name": "Floating Farmer: Logic Puzzle",
  "slug": "floating-farmer-logic-puzzle",
  "year": 2021,
  "banner_url": "",
  "icon_url": "",
  "coverart": "https://lutris.net/media/igdb/cover_big/co3r28.jpg",
  "platforms": [
    {
      "name": "Mac"
    },
    {
      "name": "Windows"
    }
  ],
  "provider_games": [
    {
      "name": "Floating Farmer: Logic Puzzle",
      "slug": "floating-farmer-logic-puzzle",
      "service": "igdb"
    }
  ],
  "aliases": [],
  "shaders": [],
  "discord_id": "",
  "change_for": null
}