{
  "id": 181217,
  "name": "Ultimate salmon simulator 2019",
  "slug": "ultimate-salmon-simulator-2019",
  "year": null,
  "banner_url": "",
  "icon_url": "",
  "coverart": null,
  "platforms": [],
  "provider_games": [
    {
      "name": "Ultimate salmon simulator 2019",
      "slug": "ultimate-salmon-simulator-2019",
      "service": "igdb"
    }
  ],
  "aliases": [],
  "shaders": [],
  "discord_id": "",
  "change_for": null
}