{
  "id": 230609,
  "name": "DarkSwarm",
  "slug": "darkswarm",
  "year": null,
  "banner_url": "",
  "icon_url": "",
  "coverart": "https://lutris.net/media/igdb/cover_big/co6cor.jpg",
  "platforms": [],
  "provider_games": [
    {
      "name": "DarkSwarm",
      "slug": "darkswarm",
      "service": "igdb"
    }
  ],
  "aliases": [],
  "shaders": [],
  "discord_id": "",
  "change_for": null
}