{
  "id": 263812,
  "name": "Umineko no Naku Koro ni: Sakutaro, Rengoku-san he",
  "slug": "umineko-no-naku-koro-ni-sakutaro-rengoku-san-he",
  "year": 2021,
  "banner_url": "",
  "icon_url": "",
  "coverart": "https://lutris.net/media/igdb/cover_big/co792p.jpg",
  "platforms": [
    {
      "name": "Nintendo Switch"
    },
    {
      "name": "Sony Playstation 4"
    }
  ],
  "provider_games": [
    {
      "name": "Umineko no Naku Koro ni: Sakutaro, Rengoku-san he",
      "slug": "umineko-no-naku-koro-ni-sakutaro-rengoku-san-he",
      "service": "igdb"
    }
  ],
  "aliases": [],
  "shaders": [],
  "discord_id": "",
  "change_for": null
}