{
  "id": 75976,
  "name": "My Kingdom For the Princess",
  "slug": "my-kingdom-for-the-princess",
  "year": null,
  "banner_url": "",
  "icon_url": "",
  "coverart": "https://lutris.net/media/igdb/cover_big/co69h8.jpg",
  "platforms": [],
  "provider_games": [
    {
      "name": "My Kingdom For the Princess",
      "slug": "my-kingdom-for-the-princess",
      "service": "igdb"
    }
  ],
  "aliases": [],
  "shaders": [],
  "discord_id": "",
  "change_for": null
}