{
  "id": 148184,
  "name": "World of Virtual Reality",
  "slug": "world-of-virtual-reality",
  "year": 2018,
  "banner_url": "",
  "icon_url": "",
  "coverart": "https://lutris.net/media/igdb/cover_big/co3nel.jpg",
  "platforms": [
    {
      "name": "Windows"
    }
  ],
  "provider_games": [
    {
      "name": "World of Virtual Reality",
      "slug": "world-of-virtual-reality",
      "service": "igdb"
    }
  ],
  "aliases": [],
  "shaders": [],
  "discord_id": "",
  "change_for": null
}