{
  "id": 29382,
  "name": "Eye of the Beholder III: Assault on Myth Drannor",
  "slug": "eye-of-the-beholder-iii-assault-on-myth-drannor",
  "year": 1993,
  "banner_url": "https://lutris.net/games/banner/eye-of-the-beholder-iii-assault-on-myth-drannor.jpg",
  "icon_url": "",
  "coverart": "https://lutris.net/media/igdb/cover_big/co28s9.jpg",
  "platforms": [
    {
      "name": "MS-DOS"
    },
    {
      "name": "PC-98"
    }
  ],
  "provider_games": [
    {
      "name": "Eye of the Beholder III: Assault on Myth Drannor",
      "slug": "1432576327",
      "service": "gog"
    },
    {
      "name": "Eye of the Beholder III: Assault on Myth Drannor",
      "slug": "eye-of-the-beholder-iii-assault-on-myth-drannor",
      "service": "igdb"
    }
  ],
  "aliases": [],
  "shaders": [],
  "discord_id": "",
  "change_for": null
}