{
  "id": 99891,
  "name": "Azur & Asmar",
  "slug": "azur-and-asmar",
  "year": 2006,
  "banner_url": "",
  "icon_url": "",
  "coverart": "https://lutris.net/media/igdb/cover_big/co20tg.jpg",
  "platforms": [
    {
      "name": "Sony PlayStation 2"
    },
    {
      "name": "Windows"
    }
  ],
  "provider_games": [
    {
      "name": "Azur & Asmar",
      "slug": "azur-and-asmar",
      "service": "igdb"
    }
  ],
  "aliases": [],
  "shaders": [],
  "discord_id": "",
  "change_for": null
}