{
  "id": 277374,
  "name": "Amnea28: Two Eternities",
  "slug": "amnea28-two-eternities",
  "year": null,
  "banner_url": "",
  "icon_url": "",
  "coverart": "https://lutris.net/media/igdb/cover_big/co7w9g.jpg",
  "platforms": [],
  "provider_games": [
    {
      "name": "Amnea28: Two Eternities",
      "slug": "amnea28-two-eternities",
      "service": "igdb"
    }
  ],
  "aliases": [],
  "shaders": [],
  "discord_id": "",
  "change_for": null
}