{
  "id": 222081,
  "name": "Catch Idle: Dimension Warp Story",
  "slug": "catch-idle-dimension-warp-story",
  "year": null,
  "banner_url": "",
  "icon_url": "",
  "coverart": null,
  "platforms": [],
  "provider_games": [
    {
      "name": "Catch Idle: Dimension Warp Story",
      "slug": "catch-idle-dimension-warp-story",
      "service": "igdb"
    }
  ],
  "aliases": [],
  "shaders": [],
  "discord_id": "",
  "change_for": null
}