{
  "id": 209271,
  "name": "Tamagotchi Connection",
  "slug": "tamagotchi-connection",
  "year": 2004,
  "banner_url": "",
  "icon_url": "",
  "coverart": "https://lutris.net/media/igdb/cover_big/co5xy4.jpg",
  "platforms": [],
  "provider_games": [
    {
      "name": "Tamagotchi Connection",
      "slug": "tamagotchi-connection",
      "service": "igdb"
    }
  ],
  "aliases": [],
  "shaders": [],
  "discord_id": "",
  "change_for": null
}