{
  "id": 134874,
  "name": "Chromatic Fantasy",
  "slug": "chromatic-fantasy",
  "year": null,
  "banner_url": "",
  "icon_url": "",
  "coverart": "https://lutris.net/media/igdb/cover_big/co3n48.jpg",
  "platforms": [],
  "provider_games": [
    {
      "name": "Chromatic Fantasy",
      "slug": "chromatic-fantasy",
      "service": "igdb"
    }
  ],
  "aliases": [],
  "shaders": [],
  "discord_id": "",
  "change_for": null
}