{
  "id": 218381,
  "name": "Colorider",
  "slug": "colorider",
  "year": null,
  "banner_url": "",
  "icon_url": "",
  "coverart": "https://lutris.net/media/igdb/cover_big/co5cu7.jpg",
  "platforms": [],
  "provider_games": [
    {
      "name": "Colorider",
      "slug": "colorider",
      "service": "igdb"
    }
  ],
  "aliases": [],
  "shaders": [],
  "discord_id": "",
  "change_for": null
}