{
  "id": 31741,
  "game_id": 191377,
  "game_slug": "tell-me-why-episode-1",
  "name": "Tell Me Why: Episode 1",
  "year": 2020,
  "user": "vanstaveren",
  "runner": "steam",
  "slug": "tell-me-why-episode-1-steam",
  "version": "steam",
  "description": "",
  "notes": "",
  "credits": "",
  "created_at": "2022-02-06T12:41:16.988340Z",
  "updated_at": "2023-01-11T06:08:00.928544Z",
  "draft": false,
  "published": true,
  "published_by": null,
  "rating": "",
  "is_playable": null,
  "steamid": null,
  "gogid": null,
  "gogslug": "",
  "humbleid": "",
  "humblestoreid": "",
  "humblestoreid_real": "",
  "script": {
    "game": {
      "appid": 1180660
    }
  },
  "content": "game:\n  appid: 1180660\n",
  "discord_id": ""
}