{
  "id": 278241,
  "name": "XStinger",
  "slug": "xstinger",
  "year": 2023,
  "banner_url": "",
  "icon_url": "",
  "coverart": null,
  "platforms": [
    {
      "name": "Amstrad CPC"
    },
    {
      "name": "Apple II"
    },
    {
      "name": "Atari 5200"
    },
    {
      "name": "Atari 8-bit"
    },
    {
      "name": "Atari Lynx"
    },
    {
      "name": "Colecovision"
    },
    {
      "name": "Commodore 16"
    },
    {
      "name": "Commodore C64/128"
    },
    {
      "name": "Commodore PET"
    },
    {
      "name": "Commodore VIC-20"
    },
    {
      "name": "Dragon 32/64"
    },
    {
      "name": "Gamate"
    },
    {
      "name": "Game Boy"
    },
    {
      "name": "MSX"
    },
    {
      "name": "NES"
    },
    {
      "name": "PC-8801"
    },
    {
      "name": "Sega Game Gear"
    },
    {
      "name": "Sega Master System"
    },
    {
      "name": "SG-1000"
    },
    {
      "name": "Sharp MZ-2200"
    },
    {
      "name": "Sinclair ZX81"
    },
    {
      "name": "Thomson MO5"
    },
    {
      "name": "TRS-80 Color Computer"
    },
    {
      "name": "TurboGrafx-16/PC Engine"
    },
    {
      "name": "ZX Spectrum"
    }
  ],
  "provider_games": [
    {
      "name": "XStinger",
      "slug": "xstinger",
      "service": "igdb"
    }
  ],
  "aliases": [],
  "shaders": [],
  "discord_id": "",
  "change_for": null
}