{
  "id": 261757,
  "name": "Sniper Team 2",
  "slug": "sniper-team-2",
  "year": 2014,
  "banner_url": "",
  "icon_url": "",
  "coverart": "https://lutris.net/media/igdb/cover_big/co76zh.jpg",
  "platforms": [
    {
      "name": "Browser"
    }
  ],
  "provider_games": [
    {
      "name": "Sniper Team 2",
      "slug": "sniper-team-2",
      "service": "igdb"
    }
  ],
  "aliases": [],
  "shaders": [],
  "discord_id": "",
  "change_for": null
}