{
  "id": 302742,
  "name": "Slenderman Must Die: Chapter 7",
  "slug": "slenderman-must-die-chapter-7",
  "year": 2017,
  "banner_url": "",
  "icon_url": "",
  "coverart": "https://lutris.net/media/igdb/cover_big/co8zto.jpg",
  "platforms": [
    {
      "name": "Android"
    },
    {
      "name": "Browser"
    },
    {
      "name": "Windows"
    }
  ],
  "provider_games": [
    {
      "name": "Slenderman Must Die: Chapter 7",
      "slug": "slenderman-must-die-chapter-7",
      "service": "igdb"
    }
  ],
  "aliases": [],
  "shaders": [],
  "discord_id": "",
  "change_for": null
}