{
  "id": 287035,
  "name": "Ruby Rose: Ace Attorney",
  "slug": "ruby-rose-ace-attorney",
  "year": 2014,
  "banner_url": "",
  "icon_url": "",
  "coverart": "https://lutris.net/media/igdb/cover_big/co89n3.jpg",
  "platforms": [
    {
      "name": "Browser"
    }
  ],
  "provider_games": [
    {
      "name": "Ruby Rose: Ace Attorney",
      "slug": "ruby-rose-ace-attorney",
      "service": "igdb"
    }
  ],
  "aliases": [],
  "shaders": [],
  "discord_id": "",
  "change_for": null
}