{
  "id": 257110,
  "name": "Sun-Rise.exe",
  "slug": "sun-rise-dot-exe",
  "year": null,
  "banner_url": "",
  "icon_url": "",
  "coverart": "https://lutris.net/media/igdb/cover_big/co70ws.jpg",
  "platforms": [],
  "provider_games": [
    {
      "name": "Sun-Rise.exe",
      "slug": "sun-rise-dot-exe",
      "service": "igdb"
    }
  ],
  "aliases": [],
  "shaders": [],
  "discord_id": "",
  "change_for": null
}