{
  "id": 252877,
  "name": "L for Logic",
  "slug": "l-for-logic",
  "year": null,
  "banner_url": "",
  "icon_url": "",
  "coverart": null,
  "platforms": [],
  "provider_games": [
    {
      "name": "L for Logic",
      "slug": "l-for-logic",
      "service": "igdb"
    }
  ],
  "aliases": [],
  "shaders": [],
  "discord_id": "",
  "change_for": null
}