{
  "id": 212437,
  "name": "Mission: Impossible",
  "slug": "mission-impossible--3",
  "year": 1996,
  "banner_url": "",
  "icon_url": "",
  "coverart": "https://lutris.net/media/igdb/cover_big/co5dzi.jpg",
  "platforms": [],
  "provider_games": [
    {
      "name": "Mission: Impossible",
      "slug": "mission-impossible--3",
      "service": "igdb"
    }
  ],
  "aliases": [],
  "shaders": [],
  "discord_id": "",
  "change_for": null
}