{
  "id": 166800,
  "name": "Hunter Girls",
  "slug": "hunter-girls",
  "year": null,
  "banner_url": "https://lutris.net/games/banner/hunter-girls.jpg",
  "icon_url": "",
  "coverart": "https://lutris.net/media/igdb/cover_big/co43f0.jpg",
  "platforms": [],
  "provider_games": [
    {
      "name": "Hunter Girls",
      "slug": "hunter-girls",
      "service": "igdb"
    },
    {
      "name": "Hunter Girls",
      "slug": "1683900",
      "service": "steam"
    },
    {
      "name": "Hunter Girls",
      "slug": "1366962310",
      "service": "gog"
    }
  ],
  "aliases": [],
  "shaders": [],
  "discord_id": "",
  "change_for": null
}