{
  "id": 280966,
  "name": "CCO Car Crash Online Simulator",
  "slug": "cco-car-crash-online-simulator",
  "year": null,
  "banner_url": "",
  "icon_url": "",
  "coverart": "https://lutris.net/media/igdb/cover_big/co7z77.jpg",
  "platforms": [],
  "provider_games": [
    {
      "name": "CCO Car Crash Online Simulator",
      "slug": "cco-car-crash-online-simulator",
      "service": "igdb"
    }
  ],
  "aliases": [],
  "shaders": [],
  "discord_id": "",
  "change_for": null
}