{
  "id": 233074,
  "name": "Adibou d'chou fête son anniversaire",
  "slug": "adibou-dchou-fete-son-anniversaire",
  "year": 2005,
  "banner_url": "",
  "icon_url": "",
  "coverart": "https://lutris.net/media/igdb/cover_big/co6ag6.jpg",
  "platforms": [
    {
      "name": "Windows"
    }
  ],
  "provider_games": [
    {
      "name": "Adibou d'chou fête son anniversaire",
      "slug": "adibou-dchou-fete-son-anniversaire",
      "service": "igdb"
    }
  ],
  "aliases": [],
  "shaders": [],
  "discord_id": "",
  "change_for": null
}