{
  "id": 209662,
  "name": "Fate/Samurai Remnant",
  "slug": "fate-slash-samurai-remnant",
  "year": null,
  "banner_url": "",
  "icon_url": "",
  "coverart": "https://lutris.net/media/igdb/cover_big/co62rv.jpg",
  "platforms": [],
  "provider_games": [
    {
      "name": "Fate/Samurai Remnant",
      "slug": "fate-slash-samurai-remnant",
      "service": "igdb"
    }
  ],
  "aliases": [],
  "shaders": [],
  "discord_id": "",
  "change_for": null
}