{
  "id": 1926,
  "name": "Europa Universalis: Rome - Vae Victis",
  "slug": "europa-universalis-rome-vae-victis",
  "year": 2008,
  "banner_url": "https://lutris.net/games/banner/europa-universalis-rome-vae-victis.jpg",
  "icon_url": "https://lutris.net/games/icon/europa-universalis-rome-vae-victis.png",
  "coverart": "https://lutris.net/media/igdb/cover_big/wurfzkfhhfv8rbxkraqv.jpg",
  "platforms": [
    {
      "name": "Windows"
    }
  ],
  "provider_games": [
    {
      "name": "Europa Universalis: Rome - Vae Victis",
      "slug": "23440",
      "service": "steam"
    },
    {
      "name": "Europa Universalis: Rome - Vae Victis",
      "slug": "europa-universalis-rome-vae-victis",
      "service": "igdb"
    }
  ],
  "aliases": [],
  "shaders": [],
  "discord_id": "",
  "change_for": null
}