{
  "id": 48941,
  "name": "Enclave: Shadows of Twilight",
  "slug": "enclave-shadows-of-twilight",
  "year": 2012,
  "banner_url": "",
  "icon_url": "",
  "coverart": "https://lutris.net/media/igdb/cover_big/co74kt.jpg",
  "platforms": [
    {
      "name": "Nintendo Wii"
    }
  ],
  "provider_games": [
    {
      "name": "Enclave: Shadows of Twilight",
      "slug": "enclave-shadows-of-twilight",
      "service": "igdb"
    }
  ],
  "aliases": [],
  "shaders": [],
  "discord_id": "",
  "change_for": null
}