{
  "id": 201110,
  "name": "Daniel X: The Ultimate Power",
  "slug": "daniel-x-the-ultimate-power",
  "year": 2010,
  "banner_url": "",
  "icon_url": "",
  "coverart": null,
  "platforms": [
    {
      "name": "Nintendo DS"
    }
  ],
  "provider_games": [
    {
      "name": "Daniel X: The Ultimate Power",
      "slug": "daniel-x-the-ultimate-power",
      "service": "igdb"
    }
  ],
  "aliases": [],
  "shaders": [],
  "discord_id": "",
  "change_for": null
}