{
  "id": 280106,
  "name": "El cuerpo humano con Pipo",
  "slug": "el-cuerpo-humano-con-pipo",
  "year": null,
  "banner_url": "",
  "icon_url": "",
  "coverart": "https://lutris.net/media/igdb/cover_big/co8056.jpg",
  "platforms": [
    {
      "name": "Windows"
    }
  ],
  "provider_games": [
    {
      "name": "El cuerpo humano con Pipo",
      "slug": "el-cuerpo-humano-con-pipo",
      "service": "igdb"
    }
  ],
  "aliases": [],
  "shaders": [],
  "discord_id": "",
  "change_for": null
}