{
  "id": 119572,
  "name": "Beach Head 2000",
  "slug": "beach-head-2000",
  "year": 2000,
  "banner_url": "",
  "icon_url": "",
  "coverart": "https://lutris.net/media/igdb/cover_big/zbpcnqfjpsvo1oxlawib.jpg",
  "platforms": [
    {
      "name": "Windows"
    }
  ],
  "provider_games": [
    {
      "name": "Beach Head 2000",
      "slug": "beach-head-2000",
      "service": "igdb"
    }
  ],
  "aliases": [],
  "shaders": [],
  "discord_id": "",
  "change_for": null
}