{
  "id": 216688,
  "name": "Gem Stack",
  "slug": "gem-stack",
  "year": null,
  "banner_url": "",
  "icon_url": "",
  "coverart": null,
  "platforms": [],
  "provider_games": [
    {
      "name": "Gem Stack",
      "slug": "gem-stack",
      "service": "igdb"
    }
  ],
  "aliases": [],
  "shaders": [],
  "discord_id": "",
  "change_for": null
}