{
  "id": 276953,
  "name": "SCP-9735-Alpha: Arch1tect",
  "slug": "scp-9735-alpha-arch1tect",
  "year": null,
  "banner_url": "",
  "icon_url": "",
  "coverart": "https://lutris.net/media/igdb/cover_big/co7wmc.jpg",
  "platforms": [],
  "provider_games": [
    {
      "name": "SCP-9735-Alpha: Arch1tect",
      "slug": "scp-9735-alpha-arch1tect",
      "service": "igdb"
    }
  ],
  "aliases": [],
  "shaders": [],
  "discord_id": "",
  "change_for": null
}