{
  "id": 248221,
  "name": "Slaps and Beans",
  "slug": "slaps-and-beans",
  "year": null,
  "banner_url": "",
  "icon_url": "",
  "coverart": null,
  "platforms": [],
  "provider_games": [
    {
      "name": "Slaps and Beans",
      "slug": "slaps-and-beans",
      "service": "igdb"
    }
  ],
  "aliases": [],
  "shaders": [],
  "discord_id": "",
  "change_for": null
}