{
  "id": 274886,
  "name": "Sexy Blackjack",
  "slug": "sexy-blackjack",
  "year": null,
  "banner_url": "",
  "icon_url": "",
  "coverart": "https://lutris.net/media/igdb/cover_big/co7ssb.jpg",
  "platforms": [],
  "provider_games": [
    {
      "name": "Sexy Blackjack",
      "slug": "sexy-blackjack",
      "service": "igdb"
    }
  ],
  "aliases": [],
  "shaders": [],
  "discord_id": "",
  "change_for": null
}