{
  "id": 25919,
  "name": "Dragon Ball Z (JAKKS Pacific TV Game)",
  "slug": "dragon-ball-z-jakks-pacific-tv-game",
  "year": 2006,
  "banner_url": "https://lutris.net/games/banner/dragon-ball-z-jakks-pacific-tv-game.jpg",
  "icon_url": "",
  "coverart": null,
  "platforms": [
    {
      "name": "Arcade"
    }
  ],
  "provider_games": [],
  "aliases": [],
  "shaders": [],
  "discord_id": "",
  "change_for": null
}