{
  "id": 184488,
  "name": "Candy Cutter",
  "slug": "candy-cutter",
  "year": null,
  "banner_url": "",
  "icon_url": "",
  "coverart": null,
  "platforms": [],
  "provider_games": [
    {
      "name": "Candy Cutter",
      "slug": "candy-cutter",
      "service": "igdb"
    }
  ],
  "aliases": [],
  "shaders": [],
  "discord_id": "",
  "change_for": null
}