{
  "id": 165090,
  "name": "Spirit Bounce",
  "slug": "spirit-bounce",
  "year": null,
  "banner_url": "",
  "icon_url": "",
  "coverart": "https://lutris.net/media/igdb/cover_big/co41yp.jpg",
  "platforms": [],
  "provider_games": [
    {
      "name": "Spirit Bounce",
      "slug": "spirit-bounce",
      "service": "igdb"
    }
  ],
  "aliases": [],
  "shaders": [],
  "discord_id": "",
  "change_for": null
}