{
  "id": 87972,
  "name": "Canvaleon",
  "slug": "canvaleon",
  "year": 2015,
  "banner_url": "",
  "icon_url": "",
  "coverart": "https://lutris.net/media/igdb/cover_big/raemvjguit00oeu0ipw0.jpg",
  "platforms": [
    {
      "name": "Nintendo Wii U"
    }
  ],
  "provider_games": [
    {
      "name": "Canvaleon",
      "slug": "canvaleon",
      "service": "igdb"
    }
  ],
  "aliases": [],
  "shaders": [],
  "discord_id": "",
  "change_for": null
}