{
  "id": 33506,
  "game_id": 192184,
  "game_slug": "wonder-pot",
  "name": "WONDER POT",
  "year": 2022,
  "user": "vanstaveren",
  "runner": "steam",
  "slug": "wonder-pot-steam",
  "version": "steam",
  "description": "",
  "notes": "",
  "credits": "",
  "created_at": "2022-05-29T13:23:14.373233Z",
  "updated_at": "2023-01-11T06:07:59.940157Z",
  "draft": false,
  "published": true,
  "published_by": null,
  "rating": "",
  "is_playable": null,
  "steamid": null,
  "gogid": null,
  "gogslug": "",
  "humbleid": "",
  "humblestoreid": "",
  "humblestoreid_real": "",
  "script": {
    "game": {
      "appid": 1982750
    }
  },
  "content": "game:\n  appid: 1982750\n",
  "discord_id": ""
}