{
  "id": 116912,
  "name": "Iron Aces 2: Birds of Prey",
  "slug": "iron-aces-2-birds-of-prey",
  "year": 2002,
  "banner_url": "",
  "icon_url": "",
  "coverart": "https://lutris.net/media/igdb/cover_big/h1oaicpodmpg9dtgceli.jpg",
  "platforms": [
    {
      "name": "Sony PlayStation 2"
    }
  ],
  "provider_games": [
    {
      "name": "Iron Aces 2: Birds of Prey",
      "slug": "iron-aces-2-birds-of-prey",
      "service": "igdb"
    }
  ],
  "aliases": [],
  "shaders": [],
  "discord_id": "",
  "change_for": null
}