{
  "id": 211985,
  "name": "Colectricity",
  "slug": "colectricity",
  "year": null,
  "banner_url": "",
  "icon_url": "",
  "coverart": "https://lutris.net/media/igdb/cover_big/co5f2e.jpg",
  "platforms": [],
  "provider_games": [
    {
      "name": "Colectricity",
      "slug": "colectricity",
      "service": "igdb"
    }
  ],
  "aliases": [],
  "shaders": [],
  "discord_id": "",
  "change_for": null
}