{
  "id": 50661,
  "name": "All Star Cheer Squad 2",
  "slug": "all-star-cheer-squad-2",
  "year": 2009,
  "banner_url": "",
  "icon_url": "",
  "coverart": "https://lutris.net/media/igdb/cover_big/iblabn8jbixsjqf0uls7.jpg",
  "platforms": [
    {
      "name": "Nintendo Wii"
    }
  ],
  "provider_games": [
    {
      "name": "All Star Cheer Squad 2",
      "slug": "all-star-cheer-squad-2",
      "service": "igdb"
    }
  ],
  "aliases": [],
  "shaders": [],
  "discord_id": "",
  "change_for": null
}