{
  "id": 207949,
  "name": "Great Pilots",
  "slug": "great-pilots",
  "year": null,
  "banner_url": "",
  "icon_url": "",
  "coverart": "https://lutris.net/media/igdb/cover_big/co5qn2.jpg",
  "platforms": [],
  "provider_games": [
    {
      "name": "Great Pilots",
      "slug": "great-pilots",
      "service": "igdb"
    }
  ],
  "aliases": [],
  "shaders": [],
  "discord_id": "",
  "change_for": null
}