{
  "id": 45551,
  "name": "Bravely Second: End Layer - Collector's Edition",
  "slug": "bravely-second-end-layer-collectors-edition",
  "year": 2016,
  "banner_url": "",
  "icon_url": "",
  "coverart": "https://lutris.net/media/igdb/cover_big/s2y2wbhiuarwcvficy8t.jpg",
  "platforms": [
    {
      "name": "Nintendo 3DS"
    }
  ],
  "provider_games": [
    {
      "name": "Bravely Second: End Layer - Collector's Edition",
      "slug": "bravely-second-end-layer-collectors-edition",
      "service": "igdb"
    }
  ],
  "aliases": [],
  "shaders": [],
  "discord_id": "",
  "change_for": null
}