{
  "id": 305128,
  "name": "Lush Forest",
  "slug": "lush-forest",
  "year": null,
  "banner_url": "",
  "icon_url": "",
  "coverart": "https://lutris.net/media/igdb/cover_big/co9bof.jpg",
  "platforms": [],
  "provider_games": [
    {
      "name": "Lush Forest",
      "slug": "lush-forest",
      "service": "igdb"
    }
  ],
  "aliases": [],
  "shaders": [],
  "discord_id": "",
  "change_for": null
}