{
  "id": 276372,
  "name": "Head Over Heels",
  "slug": "head-over-heels--3",
  "year": null,
  "banner_url": "",
  "icon_url": "",
  "coverart": "https://lutris.net/media/igdb/cover_big/co7umr.jpg",
  "platforms": [],
  "provider_games": [
    {
      "name": "Head Over Heels",
      "slug": "head-over-heels--3",
      "service": "igdb"
    }
  ],
  "aliases": [],
  "shaders": [],
  "discord_id": "",
  "change_for": null
}