{
  "id": 278610,
  "name": "Hexpire",
  "slug": "hexpire",
  "year": null,
  "banner_url": "",
  "icon_url": "",
  "coverart": "https://lutris.net/media/igdb/cover_big/co7y0d.jpg",
  "platforms": [],
  "provider_games": [
    {
      "name": "Hexpire",
      "slug": "hexpire",
      "service": "igdb"
    }
  ],
  "aliases": [],
  "shaders": [],
  "discord_id": "",
  "change_for": null
}