{
  "id": 12179,
  "game_id": 609,
  "game_slug": "fear",
  "name": "F.E.A.R.",
  "year": 2005,
  "user": "gavandor",
  "runner": "wine",
  "slug": "fear-gog",
  "version": "GOG",
  "description": null,
  "notes": "",
  "credits": "",
  "created_at": "2019-02-26T13:19:15.917000Z",
  "updated_at": "2019-10-28T20:58:30.654486Z",
  "draft": false,
  "published": true,
  "published_by": 51687,
  "rating": "",
  "is_playable": null,
  "steamid": 21090,
  "gogid": 1423058413,
  "gogslug": "fear_platinum",
  "humbleid": "",
  "humblestoreid": "",
  "humblestoreid_real": "fear",
  "script": {
    "files": [
      {
        "setup": "N/A:Select the game's setup file"
      }
    ],
    "game": {
      "arch": "win64",
      "exe": "drive_c/GOG Games/F.E.A.R. Platinum Collection/FEAR.exe",
      "prefix": "$GAMEDIR"
    },
    "installer": [
      {
        "task": {
          "arch": "win64",
          "executable": "setup",
          "name": "wineexec",
          "prefix": "$GAMEDIR"
        }
      }
    ],
    "system": {
      "reset_desktop": true
    }
  },
  "content": "files:\n- setup: N/A:Select the game's setup file\ngame:\n  arch: win64\n  exe: drive_c/GOG Games/F.E.A.R. Platinum Collection/FEAR.exe\n  prefix: $GAMEDIR\ninstaller:\n- task:\n    arch: win64\n    executable: setup\n    name: wineexec\n    prefix: $GAMEDIR\nsystem:\n  reset_desktop: true\n",
  "discord_id": ""
}