{
  "id": 74649,
  "name": "Chicken of the Farm",
  "slug": "chicken-of-the-farm",
  "year": null,
  "banner_url": "",
  "icon_url": "",
  "coverart": "https://lutris.net/media/igdb/cover_big/co4wuq.jpg",
  "platforms": [],
  "provider_games": [
    {
      "name": "Chicken of the Farm",
      "slug": "chicken-of-the-farm",
      "service": "igdb"
    }
  ],
  "aliases": [],
  "shaders": [],
  "discord_id": "",
  "change_for": null
}