{
  "id": 9536,
  "name": "UNCORPOREAL - Fluffy!",
  "slug": "uncorporeal-fluffy",
  "year": 2016,
  "banner_url": "https://lutris.net/games/banner/uncorporeal-fluffy.jpg",
  "icon_url": "https://lutris.net/games/icon/uncorporeal-fluffy.png",
  "coverart": null,
  "platforms": [
    {
      "name": "Windows"
    }
  ],
  "provider_games": [
    {
      "name": "UNCORPOREAL - Fluffy!",
      "slug": "500380",
      "service": "steam"
    },
    {
      "name": "Uncorporeal: Fluffy!",
      "slug": "uncorporeal-fluffy",
      "service": "igdb"
    }
  ],
  "aliases": [],
  "shaders": [],
  "discord_id": "",
  "change_for": null
}