{
  "id": 222844,
  "name": "Tic-a-Tac Royale",
  "slug": "tic-a-tac-royale",
  "year": null,
  "banner_url": "",
  "icon_url": "",
  "coverart": null,
  "platforms": [],
  "provider_games": [
    {
      "name": "Tic-a-Tac Royale",
      "slug": "tic-a-tac-royale",
      "service": "igdb"
    }
  ],
  "aliases": [],
  "shaders": [],
  "discord_id": "",
  "change_for": null
}