{
  "id": 63721,
  "name": "Prussia's Glory",
  "slug": "prussias-glory",
  "year": null,
  "banner_url": "",
  "icon_url": "",
  "coverart": null,
  "platforms": [],
  "provider_games": [
    {
      "name": "Prussia's Glory",
      "slug": "prussias-glory",
      "service": "igdb"
    }
  ],
  "aliases": [],
  "shaders": [],
  "discord_id": "",
  "change_for": null
}