{
  "id": 37949,
  "game_id": 232068,
  "game_slug": "red-man-follows",
  "name": "Red Man Follows",
  "year": 2023,
  "user": "vanstaveren",
  "runner": "steam",
  "slug": "red-man-follows-steam",
  "version": "steam",
  "description": "",
  "notes": "",
  "credits": "",
  "created_at": "2023-11-20T23:45:07.781099Z",
  "updated_at": "2023-11-20T23:45:07.781122Z",
  "draft": false,
  "published": true,
  "published_by": null,
  "rating": "",
  "is_playable": null,
  "steamid": null,
  "gogid": null,
  "gogslug": "",
  "humbleid": "",
  "humblestoreid": "",
  "humblestoreid_real": "",
  "script": {
    "game": {
      "appid": 2344590
    }
  },
  "content": "game:\n  appid: 2344590\n",
  "discord_id": ""
}