{
  "id": 116292,
  "name": "Chunithm Paradise Lost",
  "slug": "chunithm-paradise-lost",
  "year": 2021,
  "banner_url": "",
  "icon_url": "",
  "coverart": "https://lutris.net/media/igdb/cover_big/co3d69.jpg",
  "platforms": [],
  "provider_games": [
    {
      "name": "Chunithm Paradise Lost",
      "slug": "chunithm-paradise-lost",
      "service": "igdb"
    }
  ],
  "aliases": [],
  "shaders": [],
  "discord_id": "",
  "change_for": null
}