{
  "id": 277627,
  "name": "Eggconsole Ys II PC-8801mkIISR",
  "slug": "eggconsole-ys-ii-pc-8801mkiisr",
  "year": 2024,
  "banner_url": "",
  "icon_url": "",
  "coverart": "https://lutris.net/media/igdb/cover_big/co7w1b.jpg",
  "platforms": [
    {
      "name": "Nintendo Switch"
    }
  ],
  "provider_games": [
    {
      "name": "Eggconsole Ys II PC-8801mkIISR",
      "slug": "eggconsole-ys-ii-pc-8801mkiisr",
      "service": "igdb"
    }
  ],
  "aliases": [],
  "shaders": [],
  "discord_id": "",
  "change_for": null
}