{
  "id": 1001,
  "name": "Primal Carnage",
  "slug": "primal-carnage",
  "year": 2012,
  "banner_url": "https://lutris.net/games/banner/primal-carnage.jpg",
  "icon_url": "https://lutris.net/games/icon/primal-carnage.png",
  "coverart": "https://lutris.net/media/igdb/cover_big/co2gi7.jpg",
  "platforms": [
    {
      "name": "Windows"
    }
  ],
  "provider_games": [
    {
      "name": "Primal Carnage",
      "slug": "215470",
      "service": "steam"
    },
    {
      "name": "Primal Carnage",
      "slug": "primal-carnage",
      "service": "igdb"
    }
  ],
  "aliases": [],
  "shaders": [],
  "discord_id": "498986661104058378",
  "change_for": null
}