{
  "id": 83279,
  "name": "Agress",
  "slug": "agress",
  "year": 1991,
  "banner_url": "",
  "icon_url": "",
  "coverart": null,
  "platforms": [],
  "provider_games": [
    {
      "name": "Agress",
      "slug": "agress",
      "service": "igdb"
    }
  ],
  "aliases": [],
  "shaders": [],
  "discord_id": "",
  "change_for": null
}