{
  "id": 284899,
  "name": "Mugengikyou: Second Departure",
  "slug": "mugengikyou-second-departure",
  "year": 2017,
  "banner_url": "",
  "icon_url": "",
  "coverart": null,
  "platforms": [
    {
      "name": "Windows"
    }
  ],
  "provider_games": [
    {
      "name": "Mugengikyou: Second Departure",
      "slug": "mugengikyou-second-departure",
      "service": "igdb"
    }
  ],
  "aliases": [],
  "shaders": [],
  "discord_id": "",
  "change_for": null
}