{
  "id": 261005,
  "name": "Meet Me on the Mountain",
  "slug": "meet-me-on-the-mountain",
  "year": null,
  "banner_url": "",
  "icon_url": "",
  "coverart": "https://lutris.net/media/igdb/cover_big/co75d5.jpg",
  "platforms": [],
  "provider_games": [
    {
      "name": "Meet Me on the Mountain",
      "slug": "meet-me-on-the-mountain",
      "service": "igdb"
    }
  ],
  "aliases": [],
  "shaders": [],
  "discord_id": "",
  "change_for": null
}