{
  "id": 42608,
  "name": "Love n War: Warlord by Chance",
  "slug": "love-n-war-warlord-by-chance",
  "year": 2021,
  "banner_url": "https://lutris.net/games/banner/love-n-war-warlord-by-chance.jpg",
  "icon_url": "https://lutris.net/games/icon/love-n-war-warlord-by-chance.png",
  "coverart": "https://lutris.net/media/igdb/cover_big/co45hb.jpg",
  "platforms": [
    {
      "name": "Windows"
    }
  ],
  "provider_games": [
    {
      "name": "Love n War: Warlord by Chance",
      "slug": "love-n-war-warlord-by-chance",
      "service": "igdb"
    },
    {
      "name": "Love n War: Warlord by Chance",
      "slug": "1508680",
      "service": "steam"
    }
  ],
  "aliases": [],
  "shaders": [],
  "discord_id": "",
  "change_for": null
}