{
  "id": 264970,
  "name": "Gay Sex Adventures: Episode 1",
  "slug": "gay-sex-adventures-episode-1",
  "year": null,
  "banner_url": "https://lutris.net/games/banner/gay-sex-adventures-episode-1.jpg",
  "icon_url": "",
  "coverart": "https://lutris.net/media/igdb/cover_big/co7bjg.jpg",
  "platforms": [],
  "provider_games": [
    {
      "name": "Gay Sex Adventures - Episode 1",
      "slug": "2675660",
      "service": "steam"
    },
    {
      "name": "Gay Sex Adventures: Episode 1",
      "slug": "gay-sex-adventures-episode-1",
      "service": "igdb"
    }
  ],
  "aliases": [],
  "shaders": [],
  "discord_id": "",
  "change_for": null
}