{
  "id": 257993,
  "name": "Farewell To Sunshower",
  "slug": "farewell-to-sunshower",
  "year": null,
  "banner_url": "",
  "icon_url": "",
  "coverart": "https://lutris.net/media/igdb/cover_big/co72bc.jpg",
  "platforms": [],
  "provider_games": [
    {
      "name": "Farewell To Sunshower",
      "slug": "farewell-to-sunshower",
      "service": "igdb"
    }
  ],
  "aliases": [],
  "shaders": [],
  "discord_id": "",
  "change_for": null
}