{
  "id": 39180,
  "game_id": 92951,
  "game_slug": "papas-sushiria",
  "name": "Papa's Sushiria",
  "year": null,
  "user": "2001herne",
  "runner": "ruffle",
  "slug": "papas-sushiria-v101",
  "version": "v101",
  "description": "",
  "notes": "",
  "credits": "",
  "created_at": "2025-02-10T02:07:20.628012Z",
  "updated_at": "2025-02-10T02:07:20.628045Z",
  "draft": false,
  "published": true,
  "published_by": null,
  "rating": "",
  "is_playable": null,
  "steamid": null,
  "gogid": null,
  "gogslug": "",
  "humbleid": "",
  "humblestoreid": "",
  "humblestoreid_real": "",
  "script": {
    "files": [
      {
        "swf_file": "https://i.flipline.com/gamefiles/papassushiria/papassushiria_101.swf"
      }
    ],
    "game": {
      "main_file": "$GAMEDIR/papas-sushiria-v101.swf"
    },
    "installer": [
      {
        "move": {
          "dst": "$GAMEDIR/papas-sushiria-v101.swf",
          "src": "swf_file"
        }
      }
    ]
  },
  "content": "files:\n- swf_file: https://i.flipline.com/gamefiles/papassushiria/papassushiria_101.swf\ngame:\n  main_file: $GAMEDIR/papas-sushiria-v101.swf\ninstaller:\n- move:\n    dst: $GAMEDIR/papas-sushiria-v101.swf\n    src: swf_file\n",
  "discord_id": ""
}