{
  "id": 269859,
  "name": "Keibajou he Gyoukou! Wide",
  "slug": "keibajou-he-gyoukou-wide",
  "year": 2000,
  "banner_url": "",
  "icon_url": "",
  "coverart": "https://lutris.net/media/igdb/cover_big/co7kzh.jpg",
  "platforms": [
    {
      "name": "Nintendo Game Boy Color"
    }
  ],
  "provider_games": [
    {
      "name": "Keibajou he Gyoukou! Wide",
      "slug": "keibajou-he-gyoukou-wide",
      "service": "igdb"
    }
  ],
  "aliases": [],
  "shaders": [],
  "discord_id": "",
  "change_for": null
}