{
  "id": 279017,
  "name": "Call of Interview",
  "slug": "call-of-interview",
  "year": null,
  "banner_url": "",
  "icon_url": "",
  "coverart": "https://lutris.net/media/igdb/cover_big/co7xly.jpg",
  "platforms": [],
  "provider_games": [
    {
      "name": "Call of Interview",
      "slug": "call-of-interview",
      "service": "igdb"
    }
  ],
  "aliases": [],
  "shaders": [],
  "discord_id": "",
  "change_for": null
}