{
  "id": 75036,
  "name": "Shōgi Nyūmon",
  "slug": "shogi-nyumon",
  "year": null,
  "banner_url": "",
  "icon_url": "",
  "coverart": "https://lutris.net/media/igdb/cover_big/co7o3x.jpg",
  "platforms": [],
  "provider_games": [
    {
      "name": "Shōgi Nyūmon",
      "slug": "shogi-nyumon",
      "service": "igdb"
    }
  ],
  "aliases": [],
  "shaders": [],
  "discord_id": "",
  "change_for": null
}