{
  "id": 79663,
  "name": "Elemental Ou",
  "slug": "elemental-ou",
  "year": null,
  "banner_url": "",
  "icon_url": "",
  "coverart": "https://lutris.net/media/igdb/cover_big/i5g89qxk9tef6ij3jaj2.jpg",
  "platforms": [],
  "provider_games": [
    {
      "name": "Elemental Ou",
      "slug": "elemental-ou",
      "service": "igdb"
    }
  ],
  "aliases": [],
  "shaders": [],
  "discord_id": "",
  "change_for": null
}