{
  "id": 56513,
  "name": "Casper Scare School: Spooky Sports Day",
  "slug": "casper-scare-school-spooky-sports-day",
  "year": 2010,
  "banner_url": "",
  "icon_url": "",
  "coverart": "https://lutris.net/media/igdb/cover_big/co2dca.jpg",
  "platforms": [
    {
      "name": "Nintendo Wii"
    }
  ],
  "provider_games": [
    {
      "name": "Casper Scare School: Spooky Sports Day",
      "slug": "casper-scare-school-spooky-sports-day",
      "service": "igdb"
    }
  ],
  "aliases": [],
  "shaders": [],
  "discord_id": "",
  "change_for": null
}