{
  "id": 148402,
  "name": "Star'Shoot",
  "slug": "starshoot",
  "year": null,
  "banner_url": "",
  "icon_url": "",
  "coverart": "https://lutris.net/media/igdb/cover_big/co2rf0.jpg",
  "platforms": [],
  "provider_games": [
    {
      "name": "Star'Shoot",
      "slug": "starshoot",
      "service": "igdb"
    }
  ],
  "aliases": [],
  "shaders": [],
  "discord_id": "",
  "change_for": null
}