{
  "id": 24320,
  "name": "Super Power 2",
  "slug": "super-power-2",
  "year": 2004,
  "banner_url": "https://lutris.net/games/banner/super-power-2.jpg",
  "icon_url": "",
  "coverart": null,
  "platforms": [
    {
      "name": "Windows"
    }
  ],
  "provider_games": [
    {
      "name": "Super Power 2",
      "slug": "super-power-2",
      "service": "igdb"
    }
  ],
  "aliases": [],
  "shaders": [],
  "discord_id": "",
  "change_for": null
}