{
  "id": 148770,
  "name": "Speed Car Fighter",
  "slug": "speed-car-fighter",
  "year": null,
  "banner_url": "https://lutris.net/games/banner/speed-car-fighter.jpg",
  "icon_url": "",
  "coverart": null,
  "platforms": [],
  "provider_games": [
    {
      "name": "Speed Car Fighter",
      "slug": "833800",
      "service": "steam"
    },
    {
      "name": "Speed Car Fighter",
      "slug": "speed-car-fighter",
      "service": "igdb"
    }
  ],
  "aliases": [],
  "shaders": [],
  "discord_id": "",
  "change_for": null
}