{
  "id": 139136,
  "name": "Medarot: Perfect Edition - Kuwagata Version",
  "slug": "medarot-perfect-edition-kuwagata-version",
  "year": 1999,
  "banner_url": "",
  "icon_url": "",
  "coverart": "https://lutris.net/media/igdb/cover_big/co2u6i.jpg",
  "platforms": [
    {
      "name": "WonderSwan"
    }
  ],
  "provider_games": [
    {
      "name": "Medarot: Perfect Edition - Kuwagata Version",
      "slug": "medarot-perfect-edition-kuwagata-version",
      "service": "igdb"
    }
  ],
  "aliases": [],
  "shaders": [],
  "discord_id": "",
  "change_for": null
}