{
  "id": 22153,
  "game_id": 23485,
  "game_slug": "lethal-league-blaze",
  "name": "Lethal League Blaze",
  "year": 2018,
  "user": "OniSan",
  "runner": "steam",
  "slug": "lethal-league-blaze-steam",
  "version": "Steam",
  "description": "works fine with steam linux runtime probably also with latest proton",
  "notes": "nothing",
  "credits": "",
  "created_at": "2020-07-05T18:29:22.446820Z",
  "updated_at": "2021-12-13T19:10:38.417955Z",
  "draft": false,
  "published": true,
  "published_by": null,
  "rating": "",
  "is_playable": null,
  "steamid": 553310,
  "gogid": null,
  "gogslug": "",
  "humbleid": "",
  "humblestoreid": "",
  "humblestoreid_real": "",
  "script": {
    "game": {
      "appid": 553310
    }
  },
  "content": "game:\n  appid: 553310\n",
  "discord_id": ""
}