{
  "id": 37680,
  "name": "The Persistence",
  "slug": "the-persistence",
  "year": 2018,
  "banner_url": "https://lutris.net/games/banner/the-persistence.jpg",
  "icon_url": "https://lutris.net/games/icon/the-persistence.png",
  "coverart": "https://lutris.net/media/igdb/cover_big/co25mr.jpg",
  "platforms": [
    {
      "name": "Nintendo Switch"
    },
    {
      "name": "PlayStation VR"
    },
    {
      "name": "Sony Playstation 4"
    },
    {
      "name": "Windows"
    },
    {
      "name": "Xbox One"
    }
  ],
  "provider_games": [
    {
      "name": "The Persistence",
      "slug": "1140100",
      "service": "steam"
    },
    {
      "name": "The Persistence",
      "slug": "the-persistence",
      "service": "igdb"
    }
  ],
  "aliases": [],
  "shaders": [],
  "discord_id": "",
  "change_for": null
}