{
  "id": 23338,
  "name": "Princess of Ruin",
  "slug": "princess-of-ruin",
  "year": 2014,
  "banner_url": "https://lutris.net/games/banner/princess-of-ruin.jpg",
  "icon_url": "",
  "coverart": null,
  "platforms": [
    {
      "name": "Linux"
    }
  ],
  "provider_games": [],
  "aliases": [],
  "shaders": [],
  "discord_id": "",
  "change_for": null
}