{
  "id": 74435,
  "name": "Tokyo Ghoul: Carnaval",
  "slug": "tokyo-ghoul-carnaval",
  "year": null,
  "banner_url": "",
  "icon_url": "",
  "coverart": "https://lutris.net/media/igdb/cover_big/co4p9b.jpg",
  "platforms": [],
  "provider_games": [
    {
      "name": "Tokyo Ghoul: Carnaval",
      "slug": "tokyo-ghoul-carnaval",
      "service": "igdb"
    }
  ],
  "aliases": [],
  "shaders": [],
  "discord_id": "",
  "change_for": null
}