{
  "id": 70061,
  "name": "Detektyw Rutkowski is Back!",
  "slug": "detektyw-rutkowski-is-back",
  "year": null,
  "banner_url": "",
  "icon_url": "",
  "coverart": "https://lutris.net/media/igdb/cover_big/co5dl0.jpg",
  "platforms": [],
  "provider_games": [
    {
      "name": "Detektyw Rutkowski is Back!",
      "slug": "detektyw-rutkowski-is-back",
      "service": "igdb"
    }
  ],
  "aliases": [],
  "shaders": [],
  "discord_id": "",
  "change_for": null
}