{
  "id": 87065,
  "name": "Ikazuse! Koi no Doki Doki Penguin Land MD",
  "slug": "ikazuse-koi-no-doki-doki-penguin-land-md",
  "year": null,
  "banner_url": "",
  "icon_url": "",
  "coverart": null,
  "platforms": [],
  "provider_games": [
    {
      "name": "Ikazuse! Koi no Doki Doki Penguin Land MD",
      "slug": "ikazuse-koi-no-doki-doki-penguin-land-md",
      "service": "igdb"
    }
  ],
  "aliases": [],
  "shaders": [],
  "discord_id": "",
  "change_for": null
}