{
  "id": 258479,
  "name": "Adventurer Farmer: Save my Son!",
  "slug": "adventurer-farmer-save-my-son",
  "year": null,
  "banner_url": "",
  "icon_url": "",
  "coverart": "https://lutris.net/media/igdb/cover_big/co71m2.jpg",
  "platforms": [],
  "provider_games": [
    {
      "name": "Adventurer Farmer: Save my Son!",
      "slug": "adventurer-farmer-save-my-son",
      "service": "igdb"
    }
  ],
  "aliases": [],
  "shaders": [],
  "discord_id": "",
  "change_for": null
}