{
  "id": 294996,
  "name": "Pompeii: The Legacy",
  "slug": "pompeii-the-legacy",
  "year": 2025,
  "banner_url": "",
  "icon_url": "",
  "coverart": "https://lutris.net/media/igdb/cover_big/co8soy.jpg",
  "platforms": [
    {
      "name": "Windows"
    }
  ],
  "provider_games": [
    {
      "name": "Pompeii: The Legacy",
      "slug": "pompeii-the-legacy",
      "service": "igdb"
    }
  ],
  "aliases": [],
  "shaders": [],
  "discord_id": "",
  "change_for": null
}