{
  "id": 1684,
  "game_id": 1711,
  "game_slug": "unity-of-command",
  "name": "Unity of Command",
  "year": 2012,
  "user": "RobLoach",
  "runner": "steam",
  "slug": "unity-of-command-steam",
  "version": "Steam",
  "description": "",
  "notes": "",
  "credits": "",
  "created_at": "2015-11-02T12:27:19.764355Z",
  "updated_at": "2016-01-05T17:46:29.595851Z",
  "draft": false,
  "published": true,
  "published_by": null,
  "rating": "",
  "is_playable": null,
  "steamid": 218090,
  "gogid": null,
  "gogslug": "",
  "humbleid": "",
  "humblestoreid": "",
  "humblestoreid_real": "",
  "script": {
    "game": {
      "appid": 218090
    }
  },
  "content": "game:\r\n  appid: 218090\r\n",
  "discord_id": ""
}