{
  "id": 178973,
  "name": "Fate/Grand Order Waltz in the MOONLIGHT/LOSTROOM",
  "slug": "fate-slash-grand-order-waltz-in-the-moonlight-slash-lostroom",
  "year": 2020,
  "banner_url": "",
  "icon_url": "",
  "coverart": "https://lutris.net/media/igdb/cover_big/co49xn.jpg",
  "platforms": [
    {
      "name": "Legacy Cellphone"
    }
  ],
  "provider_games": [
    {
      "name": "Fate/Grand Order Waltz in the Moonlight/Lostroom",
      "slug": "fate-slash-grand-order-waltz-in-the-moonlight-slash-lostroom",
      "service": "igdb"
    }
  ],
  "aliases": [],
  "shaders": [],
  "discord_id": "",
  "change_for": null
}