{
  "id": 273103,
  "name": "Cogmo",
  "slug": "cogmo",
  "year": null,
  "banner_url": "",
  "icon_url": "",
  "coverart": "https://lutris.net/media/igdb/cover_big/co7qoz.jpg",
  "platforms": [],
  "provider_games": [
    {
      "name": "Cogmo",
      "slug": "cogmo",
      "service": "igdb"
    }
  ],
  "aliases": [],
  "shaders": [],
  "discord_id": "",
  "change_for": null
}