{
  "id": 32731,
  "game_id": 3151,
  "game_slug": "rc-cars",
  "name": "RC Cars",
  "year": 2003,
  "user": "KeenanW",
  "runner": "wine",
  "slug": "rc-cars-zoom-platform",
  "version": "ZOOM Platform",
  "description": "",
  "notes": "",
  "credits": "",
  "created_at": "2022-04-10T18:27:29.700356Z",
  "updated_at": "2023-01-11T07:35:52.534311Z",
  "draft": false,
  "published": true,
  "published_by": null,
  "rating": "",
  "is_playable": null,
  "steamid": 289460,
  "gogid": 1795210166,
  "gogslug": "rc_cars",
  "humbleid": "",
  "humblestoreid": "",
  "humblestoreid_real": "",
  "script": {
    "files": [
      {
        "installer": "N/A:Please select the ZOOM Platform installer"
      }
    ],
    "game": {
      "arch": "win32",
      "exe": "drive_c/ZOOM PLATFORM/1C Entertainment/RC Cars/RCCars.exe",
      "prefix": "$GAMEDIR"
    },
    "installer": [
      {
        "task": {
          "arch": "win32",
          "args": "/VERYSILENT",
          "description": "Installing RC Cars",
          "executable": "installer",
          "name": "wineexec",
          "prefix": "$GAMEDIR"
        }
      }
    ],
    "wine": {
      "overrides": {
        "d3d8": "n,b"
      }
    }
  },
  "content": "files:\n- installer: N/A:Please select the ZOOM Platform installer\ngame:\n  arch: win32\n  exe: drive_c/ZOOM PLATFORM/1C Entertainment/RC Cars/RCCars.exe\n  prefix: $GAMEDIR\ninstaller:\n- task:\n    arch: win32\n    args: /VERYSILENT\n    description: Installing RC Cars\n    executable: installer\n    name: wineexec\n    prefix: $GAMEDIR\nwine:\n  overrides:\n    d3d8: n,b\n",
  "discord_id": ""
}