{
  "id": 45576,
  "name": "Mr. Shifty Collectors Edition",
  "slug": "mr-shifty-collectors-edition",
  "year": null,
  "banner_url": "",
  "icon_url": "",
  "coverart": null,
  "platforms": [],
  "provider_games": [
    {
      "name": "Mr. Shifty: Collector's Edition",
      "slug": "mr-shifty-collectors-edition",
      "service": "igdb"
    }
  ],
  "aliases": [],
  "shaders": [],
  "discord_id": "",
  "change_for": null
}