{
  "id": 13048,
  "name": "Bayou Island - Point and Click Adventure",
  "slug": "bayou-island-point-and-click-adventure",
  "year": 2017,
  "banner_url": "https://lutris.net/games/banner/bayou-island-point-and-click-adventure.jpg",
  "icon_url": "https://lutris.net/games/icon/bayou-island-point-and-click-adventure.png",
  "coverart": "https://lutris.net/media/igdb/cover_big/co29ws.jpg",
  "platforms": [
    {
      "name": "Windows"
    }
  ],
  "provider_games": [
    {
      "name": "Bayou Island - Point and Click Adventure",
      "slug": "597210",
      "service": "steam"
    },
    {
      "name": "Bayou Island: Point and Click Adventure",
      "slug": "bayou-island-point-and-click-adventure",
      "service": "igdb"
    }
  ],
  "aliases": [],
  "shaders": [],
  "discord_id": "",
  "change_for": null
}