{
  "id": 13451,
  "name": "Phantom Trigger",
  "slug": "phantom-trigger",
  "year": 2017,
  "banner_url": "https://lutris.net/games/banner/phantom-trigger.jpg",
  "icon_url": "https://lutris.net/games/icon/phantom-trigger.png",
  "coverart": "https://lutris.net/media/igdb/cover_big/co24qa.jpg",
  "platforms": [
    {
      "name": "Nintendo Switch"
    },
    {
      "name": "Sony Playstation 4"
    },
    {
      "name": "Windows"
    }
  ],
  "provider_games": [
    {
      "name": "Phantom Trigger",
      "slug": "1091958310",
      "service": "gog"
    },
    {
      "name": "Phantom Trigger",
      "slug": "445870",
      "service": "steam"
    },
    {
      "name": "Phantom Trigger",
      "slug": "phantom-trigger",
      "service": "igdb"
    }
  ],
  "aliases": [],
  "shaders": [],
  "discord_id": "",
  "change_for": null
}