{
  "id": 78516,
  "name": "The NeverEnding Story",
  "slug": "the-neverending-story",
  "year": 1985,
  "banner_url": "",
  "icon_url": "",
  "coverart": "https://lutris.net/media/igdb/cover_big/co2gsc.jpg",
  "platforms": [
    {
      "name": "Amstrad CPC"
    },
    {
      "name": "Apple II"
    },
    {
      "name": "Atari 8-bit"
    },
    {
      "name": "Commodore C64/128"
    },
    {
      "name": "ZX Spectrum"
    }
  ],
  "provider_games": [
    {
      "name": "The NeverEnding Story",
      "slug": "the-neverending-story",
      "service": "igdb"
    }
  ],
  "aliases": [],
  "shaders": [],
  "discord_id": "",
  "change_for": null
}