{
  "id": 31071,
  "name": "Need For Speed: The Run",
  "slug": "need-for-speed-the-run",
  "year": 2011,
  "banner_url": "https://lutris.net/games/banner/need-for-speed-the-run.jpg",
  "icon_url": "",
  "coverart": "https://lutris.net/media/igdb/cover_big/co20a4.jpg",
  "platforms": [
    {
      "name": "Nintendo 3DS"
    },
    {
      "name": "Nintendo Wii"
    },
    {
      "name": "Sony Playstation 3"
    },
    {
      "name": "Windows"
    },
    {
      "name": "Xbox 360"
    }
  ],
  "provider_games": [
    {
      "name": "Need for Speed: The Run",
      "slug": "need-for-speed-the-run",
      "service": "igdb"
    }
  ],
  "aliases": [],
  "shaders": [],
  "discord_id": "",
  "change_for": null
}