{
  "id": 160242,
  "name": "Typomancer in the Feather's Way",
  "slug": "typomancer-in-the-feathers-way",
  "year": 2021,
  "banner_url": "",
  "icon_url": "",
  "coverart": "https://lutris.net/media/igdb/cover_big/co3xq9.jpg",
  "platforms": [
    {
      "name": "Linux"
    },
    {
      "name": "Mac"
    },
    {
      "name": "Windows"
    }
  ],
  "provider_games": [
    {
      "name": "Typomancer in the Feather's Way",
      "slug": "typomancer-in-the-feathers-way",
      "service": "igdb"
    }
  ],
  "aliases": [],
  "shaders": [],
  "discord_id": "",
  "change_for": null
}