{
  "id": 240819,
  "name": "Hollow World: Dark Knight",
  "slug": "hollow-world-dark-knight",
  "year": 2023,
  "banner_url": "",
  "icon_url": "",
  "coverart": "https://lutris.net/media/igdb/cover_big/co614c.jpg",
  "platforms": [
    {
      "name": "Nintendo Switch"
    }
  ],
  "provider_games": [
    {
      "name": "Hollow World: Dark Knight",
      "slug": "hollow-world-dark-knight",
      "service": "igdb"
    }
  ],
  "aliases": [],
  "shaders": [],
  "discord_id": "",
  "change_for": null
}