{
  "id": 177974,
  "name": "Mask of the Rose",
  "slug": "mask-of-the-rose",
  "year": 2021,
  "banner_url": "https://lutris.net/games/banner/mask-of-the-rose.jpg",
  "icon_url": "",
  "coverart": "https://lutris.net/media/igdb/cover_big/co415z.jpg",
  "platforms": [
    {
      "name": "Linux"
    },
    {
      "name": "Mac"
    },
    {
      "name": "Nintendo Switch"
    },
    {
      "name": "Sony Playstation 4"
    },
    {
      "name": "Sony PlayStation 5"
    },
    {
      "name": "Windows"
    },
    {
      "name": "Xbox One"
    },
    {
      "name": "Xbox Series X|S"
    }
  ],
  "provider_games": [
    {
      "name": "Mask of the Rose",
      "slug": "mask-of-the-rose",
      "service": "igdb"
    },
    {
      "name": "Mask of the Rose",
      "slug": "1769980",
      "service": "steam"
    },
    {
      "name": "Mask of the Rose",
      "slug": "1314680130",
      "service": "gog"
    }
  ],
  "aliases": [],
  "shaders": [],
  "discord_id": "",
  "change_for": null
}