{
  "id": 4649,
  "name": "The Escapists",
  "slug": "the-escapists",
  "year": 2015,
  "banner_url": "https://lutris.net/games/banner/the-escapists.jpg",
  "icon_url": "https://lutris.net/games/icon/the-escapists.png",
  "coverart": "https://lutris.net/media/igdb/cover_big/co1uvv.jpg",
  "platforms": [
    {
      "name": "Linux"
    },
    {
      "name": "Mac"
    },
    {
      "name": "Sony Playstation 4"
    },
    {
      "name": "Windows"
    },
    {
      "name": "Xbox One"
    }
  ],
  "provider_games": [
    {
      "name": "The Escapists",
      "slug": "1423221839",
      "service": "gog"
    },
    {
      "name": "The Escapists",
      "slug": "298630",
      "service": "steam"
    },
    {
      "name": "The Escapists",
      "slug": "the-escapists",
      "service": "igdb"
    }
  ],
  "aliases": [],
  "shaders": [],
  "discord_id": "451429730416197669",
  "change_for": null
}