{
  "id": 273836,
  "name": "Backrooms: The Phobolore",
  "slug": "backrooms-the-phobolore",
  "year": 2024,
  "banner_url": "",
  "icon_url": "",
  "coverart": null,
  "platforms": [
    {
      "name": "Windows"
    }
  ],
  "provider_games": [
    {
      "name": "Backrooms: The Phobolore",
      "slug": "backrooms-the-phobolore",
      "service": "igdb"
    }
  ],
  "aliases": [],
  "shaders": [],
  "discord_id": "",
  "change_for": null
}