{
  "id": 24563,
  "name": "Tetris Classic",
  "slug": "tetris-classic",
  "year": 1992,
  "banner_url": "https://lutris.net/games/banner/tetris-classic.jpg",
  "icon_url": "",
  "coverart": "https://lutris.net/media/igdb/cover_big/co3a6t.jpg",
  "platforms": [
    {
      "name": "MS-DOS"
    },
    {
      "name": "Windows"
    }
  ],
  "provider_games": [
    {
      "name": "Tetris Classic",
      "slug": "tetris-classic",
      "service": "igdb"
    }
  ],
  "aliases": [],
  "shaders": [],
  "discord_id": "",
  "change_for": null
}