{
  "id": 102619,
  "name": "Ben 10: Up to Speed – Omnitrix Runner Alien Heroes",
  "slug": "ben-10-up-to-speed-omnitrix-runner-alien-heroes",
  "year": 2017,
  "banner_url": "",
  "icon_url": "",
  "coverart": "https://lutris.net/media/igdb/cover_big/rxu9f4opkuko3mbpi2c3.jpg",
  "platforms": [],
  "provider_games": [
    {
      "name": "Ben 10: Up to Speed – Omnitrix Runner Alien Heroes",
      "slug": "ben-10-up-to-speed-omnitrix-runner-alien-heroes",
      "service": "igdb"
    }
  ],
  "aliases": [],
  "shaders": [],
  "discord_id": "",
  "change_for": null
}