{
  "id": 93604,
  "name": "Dedication to the Person who Becomes the Worst Disaster",
  "slug": "dedication-to-the-person-who-becomes-the-worst-disaster",
  "year": 2018,
  "banner_url": "",
  "icon_url": "",
  "coverart": "https://lutris.net/media/igdb/cover_big/co2ggp.jpg",
  "platforms": [
    {
      "name": "Android"
    },
    {
      "name": "Nintendo Switch"
    },
    {
      "name": "Sony Playstation 4"
    }
  ],
  "provider_games": [
    {
      "name": "Dedication to the Person who Becomes the Worst Disaster",
      "slug": "dedication-to-the-person-who-becomes-the-worst-disaster",
      "service": "igdb"
    }
  ],
  "aliases": [],
  "shaders": [],
  "discord_id": "",
  "change_for": null
}