{
  "id": 267846,
  "name": "Sport & Fun: Swimming - Happy Edition",
  "slug": "sport-and-fun-swimming-happy-edition",
  "year": 2023,
  "banner_url": "",
  "icon_url": "",
  "coverart": null,
  "platforms": [
    {
      "name": "Nintendo Switch"
    }
  ],
  "provider_games": [
    {
      "name": "Sport & Fun: Swimming - Happy Edition",
      "slug": "sport-and-fun-swimming-happy-edition",
      "service": "igdb"
    }
  ],
  "aliases": [],
  "shaders": [],
  "discord_id": "",
  "change_for": null
}