{
  "id": 57114,
  "name": "Hot Action Pak",
  "slug": "hot-action-pak",
  "year": 2012,
  "banner_url": "",
  "icon_url": "",
  "coverart": "https://lutris.net/media/igdb/cover_big/yzhofrcyhi93c2gi7qfp.jpg",
  "platforms": [
    {
      "name": "Sony Playstation 3"
    }
  ],
  "provider_games": [
    {
      "name": "Hot Action Pak",
      "slug": "hot-action-pak",
      "service": "igdb"
    }
  ],
  "aliases": [],
  "shaders": [],
  "discord_id": "",
  "change_for": null
}