{
  "id": 49865,
  "name": "Requiem: Memento Mori",
  "slug": "requiem-memento-mori",
  "year": null,
  "banner_url": "",
  "icon_url": "",
  "coverart": "https://lutris.net/media/igdb/cover_big/co28mh.jpg",
  "platforms": [],
  "provider_games": [
    {
      "name": "Requiem: Memento Mori",
      "slug": "requiem-memento-mori",
      "service": "igdb"
    }
  ],
  "aliases": [],
  "shaders": [],
  "discord_id": "",
  "change_for": null
}