{
  "id": 124757,
  "name": "Toy Goblins",
  "slug": "toy-goblins",
  "year": 2017,
  "banner_url": "https://lutris.net/games/banner/toy-goblins.jpg",
  "icon_url": "",
  "coverart": null,
  "platforms": [
    {
      "name": "Windows"
    }
  ],
  "provider_games": [
    {
      "name": "Toy Goblins",
      "slug": "679080",
      "service": "steam"
    },
    {
      "name": "Toy Goblins",
      "slug": "toy-goblins",
      "service": "igdb"
    }
  ],
  "aliases": [],
  "shaders": [],
  "discord_id": "",
  "change_for": null
}