{
  "id": 222537,
  "name": "Girls' Civilization 3",
  "slug": "girls-civilization-3",
  "year": null,
  "banner_url": "",
  "icon_url": "",
  "coverart": "https://lutris.net/media/igdb/cover_big/co5doj.jpg",
  "platforms": [],
  "provider_games": [
    {
      "name": "Girls' Civilization 3",
      "slug": "girls-civilization-3",
      "service": "igdb"
    }
  ],
  "aliases": [],
  "shaders": [],
  "discord_id": "",
  "change_for": null
}