{
  "id": 69433,
  "name": "Sylvanian Families 4: Meguru Kisetsu no Tapestry",
  "slug": "sylvanian-families-4-meguru-kisetsu-no-tapestry",
  "year": null,
  "banner_url": "",
  "icon_url": "",
  "coverart": "https://lutris.net/media/igdb/cover_big/uvs0h4wnlgfdbeitjz4i.jpg",
  "platforms": [],
  "provider_games": [
    {
      "name": "Sylvanian Families 4: Meguru Kisetsu no Tapestry",
      "slug": "sylvanian-families-4-meguru-kisetsu-no-tapestry",
      "service": "igdb"
    }
  ],
  "aliases": [],
  "shaders": [],
  "discord_id": "",
  "change_for": null
}