{
  "id": 212198,
  "name": "Drift Horizon: Racing, Driving & Parking Trial Simulator Games",
  "slug": "drift-horizon-racing-driving-and-parking-trial-simulator-games",
  "year": null,
  "banner_url": "",
  "icon_url": "",
  "coverart": null,
  "platforms": [],
  "provider_games": [
    {
      "name": "Drift Horizon: Racing, Driving & Parking Trial Simulator Games",
      "slug": "drift-horizon-racing-driving-and-parking-trial-simulator-games",
      "service": "igdb"
    }
  ],
  "aliases": [],
  "shaders": [],
  "discord_id": "",
  "change_for": null
}