{
  "id": 232194,
  "name": "Terrordactyl Carnivore",
  "slug": "terrordactyl-carnivore",
  "year": null,
  "banner_url": "",
  "icon_url": "",
  "coverart": "https://lutris.net/media/igdb/cover_big/co6bpg.jpg",
  "platforms": [
    {
      "name": "Browser"
    }
  ],
  "provider_games": [
    {
      "name": "Terrordactyl Carnivore",
      "slug": "terrordactyl-carnivore",
      "service": "igdb"
    }
  ],
  "aliases": [],
  "shaders": [],
  "discord_id": "",
  "change_for": null
}