{
  "id": 113543,
  "name": "Our Church and Halloween: Story Two",
  "slug": "our-church-and-halloween-story-two",
  "year": 2020,
  "banner_url": "",
  "icon_url": "",
  "coverart": "https://lutris.net/media/igdb/cover_big/co39iv.jpg",
  "platforms": [
    {
      "name": "Sony Playstation 4"
    },
    {
      "name": "Windows"
    }
  ],
  "provider_games": [
    {
      "name": "Our Church and Halloween: Story Two",
      "slug": "our-church-and-halloween-story-two",
      "service": "igdb"
    }
  ],
  "aliases": [],
  "shaders": [],
  "discord_id": "",
  "change_for": null
}