{
  "id": 162176,
  "name": "Monster Hunter Freedom 2",
  "slug": "monster-hunter-freedom-2",
  "year": 2007,
  "banner_url": "",
  "icon_url": "",
  "coverart": "https://lutris.net/media/igdb/cover_big/co406l.jpg",
  "platforms": [
    {
      "name": "Sony PSP"
    }
  ],
  "provider_games": [
    {
      "name": "Monster Hunter Freedom 2",
      "slug": "monster-hunter-freedom-2",
      "service": "igdb"
    }
  ],
  "aliases": [],
  "shaders": [],
  "discord_id": "",
  "change_for": null
}