{
  "id": 36675,
  "name": "Disaster Report 4: Summer Memories",
  "slug": "disaster-report-4-summer-memories",
  "year": 2018,
  "banner_url": "https://lutris.net/games/banner/disaster-report-4-summer-memories.jpg",
  "icon_url": "",
  "coverart": "https://lutris.net/media/igdb/cover_big/co1th7.jpg",
  "platforms": [
    {
      "name": "Windows"
    }
  ],
  "provider_games": [
    {
      "name": "Disaster Report 4: Summer Memories",
      "slug": "1167113997",
      "service": "gog"
    },
    {
      "name": "Disaster Report 4: Summer Memories",
      "slug": "1060210",
      "service": "steam"
    },
    {
      "name": "Disaster Report 4: Summer Memories Demo",
      "slug": "1423395465",
      "service": "gog"
    },
    {
      "name": "Disaster Report 4: Summer Memories",
      "slug": "disaster-report-4-summer-memories",
      "service": "igdb"
    }
  ],
  "aliases": [],
  "shaders": [],
  "discord_id": "",
  "change_for": null
}