{
  "id": 246428,
  "name": "Camplandia",
  "slug": "camplandia",
  "year": null,
  "banner_url": "",
  "icon_url": "",
  "coverart": "https://lutris.net/media/igdb/cover_big/co6hw3.jpg",
  "platforms": [],
  "provider_games": [
    {
      "name": "Camplandia",
      "slug": "camplandia",
      "service": "igdb"
    }
  ],
  "aliases": [],
  "shaders": [],
  "discord_id": "",
  "change_for": null
}