{
  "id": 71613,
  "name": "Nanoloop",
  "slug": "nanoloop",
  "year": null,
  "banner_url": "",
  "icon_url": "",
  "coverart": null,
  "platforms": [],
  "provider_games": [
    {
      "name": "Nanoloop",
      "slug": "nanoloop",
      "service": "igdb"
    }
  ],
  "aliases": [],
  "shaders": [],
  "discord_id": "",
  "change_for": null
}