{
  "id": 22051,
  "name": "JQ: dogs & cats",
  "slug": "jq-dogs-cats",
  "year": null,
  "banner_url": "https://lutris.net/games/banner/jq-dogs-cats.jpg",
  "icon_url": "https://lutris.net/games/icon/jq-dogs-cats.png",
  "coverart": null,
  "platforms": [],
  "provider_games": [
    {
      "name": "JQ: dogs & cats",
      "slug": "816250",
      "service": "steam"
    }
  ],
  "aliases": [],
  "shaders": [],
  "discord_id": "",
  "change_for": null
}