{
  "id": 24637,
  "name": "Eddy Violet",
  "slug": "eddy-violet",
  "year": 2017,
  "banner_url": "https://lutris.net/games/banner/eddy-violet.jpg",
  "icon_url": "https://lutris.net/games/icon/eddy-violet.png",
  "coverart": "https://lutris.net/media/igdb/cover_big/co2b0k.jpg",
  "platforms": [
    {
      "name": "Windows"
    }
  ],
  "provider_games": [
    {
      "name": "Eddy Violet",
      "slug": "662990",
      "service": "steam"
    },
    {
      "name": "Eddy Violet",
      "slug": "eddy-violet",
      "service": "igdb"
    }
  ],
  "aliases": [],
  "shaders": [],
  "discord_id": "",
  "change_for": null
}