{
  "id": 29581,
  "name": "Kirby Super Star Ultra",
  "slug": "kirby-super-star-ultra",
  "year": 2008,
  "banner_url": "https://lutris.net/games/banner/kirby-super-star-ultra.jpg",
  "icon_url": "",
  "coverart": "https://lutris.net/media/igdb/cover_big/co3g9j.jpg",
  "platforms": [
    {
      "name": "Nintendo DS"
    }
  ],
  "provider_games": [
    {
      "name": "Kirby Super Star Ultra",
      "slug": "kirby-super-star-ultra",
      "service": "igdb"
    }
  ],
  "aliases": [],
  "shaders": [],
  "discord_id": "",
  "change_for": null
}