{
  "id": 86077,
  "name": "Astro Avenger 2",
  "slug": "astro-avenger-2",
  "year": 2007,
  "banner_url": "",
  "icon_url": "",
  "coverart": "https://lutris.net/media/igdb/cover_big/vmfzrustjjclfqbeoy0x.jpg",
  "platforms": [
    {
      "name": "Windows"
    }
  ],
  "provider_games": [
    {
      "name": "Astro Avenger 2",
      "slug": "astro-avenger-2",
      "service": "igdb"
    }
  ],
  "aliases": [],
  "shaders": [],
  "discord_id": "",
  "change_for": null
}