{
  "id": 101280,
  "name": "Circles by POWGI",
  "slug": "circles-by-powgi",
  "year": null,
  "banner_url": "",
  "icon_url": "",
  "coverart": null,
  "platforms": [
    {
      "name": "Android"
    }
  ],
  "provider_games": [
    {
      "name": "Circles by Powgi",
      "slug": "circles-by-powgi",
      "service": "igdb"
    }
  ],
  "aliases": [],
  "shaders": [],
  "discord_id": "",
  "change_for": null
}