{
  "id": 2143,
  "game_id": 5351,
  "game_slug": "her-story",
  "name": "Her Story",
  "year": 2015,
  "user": "Lulu",
  "runner": "steam",
  "slug": "her-story-proton",
  "version": "Proton",
  "description": "",
  "notes": "https://appdb.winehq.org/objectManager.php?sClass=application&iId=16990",
  "credits": "",
  "created_at": "2016-06-15T06:16:08.974644Z",
  "updated_at": "2021-05-04T02:43:11.567201Z",
  "draft": false,
  "published": true,
  "published_by": null,
  "rating": "",
  "is_playable": null,
  "steamid": 368370,
  "gogid": 1435240365,
  "gogslug": "her_story",
  "humbleid": "",
  "humblestoreid": "",
  "humblestoreid_real": "",
  "script": {
    "game": {
      "appid": 368370
    }
  },
  "content": "game:\n  appid: 368370\n",
  "discord_id": ""
}