{
  "id": 33420,
  "name": "Big Casino",
  "slug": "big-casino",
  "year": 1984,
  "banner_url": "",
  "icon_url": "https://lutris.net/games/icon/big-casino.png",
  "coverart": "https://lutris.net/media/igdb/cover_big/jv4lwmzmljcdtcuabnna.jpg",
  "platforms": [
    {
      "name": "Arcade"
    }
  ],
  "provider_games": [
    {
      "name": "Big Casino",
      "slug": "bigcsino",
      "service": "mame"
    },
    {
      "name": "Big Casino",
      "slug": "big-casino",
      "service": "igdb"
    }
  ],
  "aliases": [],
  "shaders": [],
  "discord_id": "",
  "change_for": null
}