{
  "id": 76916,
  "name": "Ultimate Flight Pack",
  "slug": "ultimate-flight-pack",
  "year": null,
  "banner_url": "",
  "icon_url": "",
  "coverart": null,
  "platforms": [],
  "provider_games": [
    {
      "name": "Ultimate Flight Pack",
      "slug": "ultimate-flight-pack",
      "service": "igdb"
    }
  ],
  "aliases": [],
  "shaders": [],
  "discord_id": "",
  "change_for": null
}