{
  "id": 145106,
  "name": "PP Puncher",
  "slug": "pp-puncher",
  "year": null,
  "banner_url": "",
  "icon_url": "",
  "coverart": "https://lutris.net/media/igdb/cover_big/co3vji.jpg",
  "platforms": [],
  "provider_games": [
    {
      "name": "PP Puncher",
      "slug": "pp-puncher",
      "service": "igdb"
    }
  ],
  "aliases": [],
  "shaders": [],
  "discord_id": "",
  "change_for": null
}