{
  "id": 189520,
  "name": "Tom Clancy's Rainbow Six Siege: Operation Shadow Legacy",
  "slug": "tom-clancys-rainbow-six-siege-operation-shadow-legacy",
  "year": 2020,
  "banner_url": "",
  "icon_url": "",
  "coverart": "https://lutris.net/media/igdb/cover_big/co2f75.jpg",
  "platforms": [
    {
      "name": "Sony Playstation 4"
    },
    {
      "name": "Windows"
    },
    {
      "name": "Xbox One"
    }
  ],
  "provider_games": [
    {
      "name": "Tom Clancy's Rainbow Six Siege: Operation Shadow Legacy",
      "slug": "tom-clancys-rainbow-six-siege-operation-shadow-legacy",
      "service": "igdb"
    }
  ],
  "aliases": [],
  "shaders": [],
  "discord_id": "",
  "change_for": null
}