{
  "id": 4525,
  "game_id": 4605,
  "game_slug": "the-marvellous-miss-take",
  "name": "The Marvellous Miss Take",
  "year": 2014,
  "user": "FakeShemp",
  "runner": "wine",
  "slug": "the-marvellous-miss-take-humble",
  "version": "Humble",
  "description": "",
  "notes": "",
  "credits": "",
  "created_at": "2017-06-20T21:07:55.357000Z",
  "updated_at": "2018-05-19T03:41:49.852648Z",
  "draft": false,
  "published": true,
  "published_by": null,
  "rating": "",
  "is_playable": null,
  "steamid": 327310,
  "gogid": 1207666973,
  "gogslug": "the_marvellous_miss_take",
  "humbleid": "themarvellousmisstake",
  "humblestoreid": "themarvellousmisstake",
  "humblestoreid_real": "themarvellousmisstake",
  "script": {
    "files": [
      {
        "file1": "N/A:Please select the Humble installer"
      }
    ],
    "game": {
      "arch": "win32",
      "exe": "drive_c/Program Files/Wonderstruck Games/The Marvellous Miss Take/misstake.exe",
      "prefix": "$GAMEDIR"
    },
    "installer": [
      {
        "task": {
          "executable": "$file1",
          "name": "wineexec",
          "prefix": "$GAMEDIR"
        }
      },
      {
        "task": {
          "app": "dotnet45",
          "name": "winetricks",
          "prefix": "$GAMEDIR"
        }
      },
      {
        "task": {
          "app": "win7",
          "name": "winetricks",
          "prefix": "$GAMEDIR"
        }
      }
    ]
  },
  "content": "files:\n- file1: N/A:Please select the Humble installer\ngame:\n  arch: win32\n  exe: drive_c/Program Files/Wonderstruck Games/The Marvellous Miss Take/misstake.exe\n  prefix: $GAMEDIR\ninstaller:\n- task:\n    executable: $file1\n    name: wineexec\n    prefix: $GAMEDIR\n- task:\n    app: dotnet45\n    name: winetricks\n    prefix: $GAMEDIR\n- task:\n    app: win7\n    name: winetricks\n    prefix: $GAMEDIR\n",
  "discord_id": "504076592218112047"
}