{
  "id": 14799,
  "name": "Toukiden: Kiwami",
  "slug": "toukiden-kiwami",
  "year": 2014,
  "banner_url": "https://lutris.net/games/banner/toukiden-kiwami.jpg",
  "icon_url": "https://lutris.net/games/icon/toukiden-kiwami.png",
  "coverart": "https://lutris.net/media/igdb/cover_big/co20ku.jpg",
  "platforms": [
    {
      "name": "PlayStation Vita"
    },
    {
      "name": "Sony Playstation 4"
    },
    {
      "name": "Sony PSP"
    },
    {
      "name": "Windows"
    }
  ],
  "provider_games": [
    {
      "name": "Toukiden: Kiwami",
      "slug": "363130",
      "service": "steam"
    },
    {
      "name": "Toukiden: Kiwami",
      "slug": "toukiden-kiwami",
      "service": "igdb"
    }
  ],
  "aliases": [],
  "shaders": [],
  "discord_id": "",
  "change_for": null
}