{
  "id": 85521,
  "name": "bit Generations: Digidrive",
  "slug": "bit-generations-digidrive",
  "year": 2006,
  "banner_url": "",
  "icon_url": "",
  "coverart": "https://lutris.net/media/igdb/cover_big/co5p4a.jpg",
  "platforms": [
    {
      "name": "Nintendo Game Boy Advance"
    }
  ],
  "provider_games": [
    {
      "name": "Bit Generations: Digidrive",
      "slug": "bit-generations-digidrive",
      "service": "igdb"
    }
  ],
  "aliases": [],
  "shaders": [],
  "discord_id": "",
  "change_for": null
}