{
  "id": 31911,
  "name": "Ultimate Desktop Character Engine",
  "slug": "ultimate-desktop-character-engine",
  "year": null,
  "banner_url": "https://lutris.net/games/banner/ultimate-desktop-character-engine.jpg",
  "icon_url": "https://lutris.net/games/icon/ultimate-desktop-character-engine.png",
  "coverart": null,
  "platforms": [],
  "provider_games": [
    {
      "name": "Ultimate Desktop Character Engine",
      "slug": "979010",
      "service": "steam"
    }
  ],
  "aliases": [],
  "shaders": [],
  "discord_id": "",
  "change_for": null
}