{
  "id": 183390,
  "name": "The Spooky Cave",
  "slug": "the-spooky-cave",
  "year": null,
  "banner_url": "",
  "icon_url": "",
  "coverart": null,
  "platforms": [],
  "provider_games": [
    {
      "name": "The Spooky Cave",
      "slug": "the-spooky-cave",
      "service": "igdb"
    }
  ],
  "aliases": [],
  "shaders": [],
  "discord_id": "",
  "change_for": null
}