{
  "id": 27165,
  "name": "EPONYMOUS",
  "slug": "eponymous",
  "year": 2017,
  "banner_url": "https://lutris.net/games/banner/eponymous.jpg",
  "icon_url": "https://lutris.net/games/icon/eponymous.png",
  "coverart": "https://lutris.net/media/igdb/cover_big/co26vf.jpg",
  "platforms": [
    {
      "name": "Linux"
    },
    {
      "name": "Mac"
    },
    {
      "name": "Windows"
    }
  ],
  "provider_games": [
    {
      "name": "EPONYMOUS",
      "slug": "655270",
      "service": "steam"
    },
    {
      "name": "Eponymous",
      "slug": "eponymous",
      "service": "igdb"
    }
  ],
  "aliases": [],
  "shaders": [],
  "discord_id": "",
  "change_for": null
}