{
  "id": 222959,
  "name": "Untold Secrets: Lost in Time",
  "slug": "untold-secrets-lost-in-time",
  "year": null,
  "banner_url": "",
  "icon_url": "",
  "coverart": null,
  "platforms": [],
  "provider_games": [
    {
      "name": "Untold Secrets: Lost in Time",
      "slug": "untold-secrets-lost-in-time",
      "service": "igdb"
    }
  ],
  "aliases": [],
  "shaders": [],
  "discord_id": "",
  "change_for": null
}