{
  "id": 229634,
  "name": "Mr Rabbit's Cambridge: Point and Click Adventure",
  "slug": "mr-rabbits-cambridge-point-and-click-adventure",
  "year": 2023,
  "banner_url": "",
  "icon_url": "",
  "coverart": "https://lutris.net/media/igdb/cover_big/co6dha.jpg",
  "platforms": [
    {
      "name": "Mac"
    },
    {
      "name": "Windows"
    }
  ],
  "provider_games": [
    {
      "name": "Mr Rabbit's Cambridge: Point and Click Adventure",
      "slug": "mr-rabbits-cambridge-point-and-click-adventure",
      "service": "igdb"
    }
  ],
  "aliases": [],
  "shaders": [],
  "discord_id": "",
  "change_for": null
}