{
  "id": 196979,
  "name": "Bloodlines: Tales of brotherhood",
  "slug": "bloodlines-tales-of-brotherhood",
  "year": null,
  "banner_url": "",
  "icon_url": "",
  "coverart": "https://lutris.net/media/igdb/cover_big/co4lno.jpg",
  "platforms": [],
  "provider_games": [
    {
      "name": "Bloodlines: Tales of brotherhood",
      "slug": "bloodlines-tales-of-brotherhood",
      "service": "igdb"
    }
  ],
  "aliases": [],
  "shaders": [],
  "discord_id": "",
  "change_for": null
}