{
  "id": 117839,
  "name": "Super Mario Megamix",
  "slug": "super-mario-megamix",
  "year": 2017,
  "banner_url": "",
  "icon_url": "",
  "coverart": "https://lutris.net/media/igdb/cover_big/gorjnl8lcmg5y6bob4fg.jpg",
  "platforms": [
    {
      "name": "Windows"
    }
  ],
  "provider_games": [
    {
      "name": "Super Mario Megamix",
      "slug": "super-mario-megamix",
      "service": "igdb"
    }
  ],
  "aliases": [],
  "shaders": [],
  "discord_id": "",
  "change_for": null
}