{
  "id": 81428,
  "name": "Matchball Tennis",
  "slug": "matchball-tennis",
  "year": null,
  "banner_url": "",
  "icon_url": "",
  "coverart": "https://lutris.net/media/igdb/cover_big/co6suj.jpg",
  "platforms": [],
  "provider_games": [
    {
      "name": "Matchball Tennis",
      "slug": "matchball-tennis",
      "service": "igdb"
    }
  ],
  "aliases": [],
  "shaders": [],
  "discord_id": "",
  "change_for": null
}