{
  "id": 202199,
  "name": "Forsaken",
  "slug": "forsaken--2",
  "year": null,
  "banner_url": "",
  "icon_url": "",
  "coverart": "https://lutris.net/media/igdb/cover_big/co4mbx.jpg",
  "platforms": [],
  "provider_games": [
    {
      "name": "Forsaken",
      "slug": "forsaken--2",
      "service": "igdb"
    }
  ],
  "aliases": [],
  "shaders": [],
  "discord_id": "",
  "change_for": null
}