{
  "id": 231910,
  "name": "Jack the Knight Adventures 2",
  "slug": "jack-the-knight-adventures-2",
  "year": null,
  "banner_url": "",
  "icon_url": "",
  "coverart": null,
  "platforms": [],
  "provider_games": [
    {
      "name": "Jack the Knight Adventures 2",
      "slug": "jack-the-knight-adventures-2",
      "service": "igdb"
    }
  ],
  "aliases": [],
  "shaders": [],
  "discord_id": "",
  "change_for": null
}