{
  "id": 81587,
  "name": "Skipper & Skeeto - The Shadow of Mr. Shade",
  "slug": "skipper-and-skeeto-the-shadow-of-mr-shade",
  "year": 1998,
  "banner_url": "",
  "icon_url": "",
  "coverart": "https://lutris.net/media/igdb/cover_big/jrzyuuykdljywn3alpgx.jpg",
  "platforms": [
    {
      "name": "Windows"
    }
  ],
  "provider_games": [
    {
      "name": "Skipper & Skeeto: The Shadow of Mr. Shade",
      "slug": "skipper-and-skeeto-the-shadow-of-mr-shade",
      "service": "igdb"
    }
  ],
  "aliases": [],
  "shaders": [],
  "discord_id": "",
  "change_for": null
}