{
  "id": 124593,
  "name": "恋爱总动员",
  "slug": "lian-ai-zong-dong-yuan",
  "year": null,
  "banner_url": "",
  "icon_url": "",
  "coverart": null,
  "platforms": [],
  "provider_games": [
    {
      "name": "恋爱总动员",
      "slug": "lian-ai-zong-dong-yuan",
      "service": "igdb"
    }
  ],
  "aliases": [],
  "shaders": [],
  "discord_id": "",
  "change_for": null
}