{
  "id": 178716,
  "name": "Mafiaens Hevn",
  "slug": "mafiaens-hevn",
  "year": 2007,
  "banner_url": "",
  "icon_url": "",
  "coverart": "https://lutris.net/media/igdb/cover_big/co49vk.jpg",
  "platforms": [
    {
      "name": "Browser"
    }
  ],
  "provider_games": [
    {
      "name": "Mafiaens Hevn",
      "slug": "mafiaens-hevn",
      "service": "igdb"
    }
  ],
  "aliases": [],
  "shaders": [],
  "discord_id": "",
  "change_for": null
}