{
  "id": 196333,
  "name": "Nil Action Metronome",
  "slug": "nil-action-metronome",
  "year": 2020,
  "banner_url": "",
  "icon_url": "",
  "coverart": null,
  "platforms": [],
  "provider_games": [
    {
      "name": "Nil Action Metronome",
      "slug": "nil-action-metronome",
      "service": "igdb"
    }
  ],
  "aliases": [],
  "shaders": [],
  "discord_id": "",
  "change_for": null
}