{
  "id": 237915,
  "name": "Jak 3: The Journey Back Gold Edition",
  "slug": "jak-3-the-journey-back-gold-edition",
  "year": 2005,
  "banner_url": "",
  "icon_url": "",
  "coverart": "https://lutris.net/media/igdb/cover_big/co65g9.jpg",
  "platforms": [
    {
      "name": "Browser"
    }
  ],
  "provider_games": [
    {
      "name": "Jak 3: The Journey Back Gold Edition",
      "slug": "jak-3-the-journey-back-gold-edition",
      "service": "igdb"
    }
  ],
  "aliases": [],
  "shaders": [],
  "discord_id": "",
  "change_for": null
}