{
  "id": 186239,
  "name": "Ikimono High: The Visual Novel",
  "slug": "ikimono-high-the-visual-novel",
  "year": null,
  "banner_url": "",
  "icon_url": "",
  "coverart": null,
  "platforms": [],
  "provider_games": [
    {
      "name": "Ikimono High: The Visual Novel",
      "slug": "ikimono-high-the-visual-novel",
      "service": "igdb"
    }
  ],
  "aliases": [],
  "shaders": [],
  "discord_id": "",
  "change_for": null
}