{
  "id": 136545,
  "name": "Mr.Knight",
  "slug": "mr-dot-knight",
  "year": null,
  "banner_url": "",
  "icon_url": "",
  "coverart": "https://lutris.net/media/igdb/cover_big/co3pf5.jpg",
  "platforms": [],
  "provider_games": [
    {
      "name": "Mr.Knight",
      "slug": "mr-dot-knight",
      "service": "igdb"
    }
  ],
  "aliases": [],
  "shaders": [],
  "discord_id": "",
  "change_for": null
}