{
  "id": 7172,
  "name": "Xonix",
  "slug": "xonix",
  "year": 1984,
  "banner_url": "https://lutris.net/games/banner/xonix.jpg",
  "icon_url": "",
  "coverart": null,
  "platforms": [
    {
      "name": "MS-DOS"
    }
  ],
  "provider_games": [
    {
      "name": "Xonix",
      "slug": "xonix",
      "service": "igdb"
    }
  ],
  "aliases": [],
  "shaders": [],
  "discord_id": "",
  "change_for": null
}