{
  "id": 280122,
  "name": "Spellslinger Towns",
  "slug": "spellslinger-towns",
  "year": null,
  "banner_url": "",
  "icon_url": "",
  "coverart": "https://lutris.net/media/igdb/cover_big/co80x7.jpg",
  "platforms": [],
  "provider_games": [
    {
      "name": "Spellslinger Towns",
      "slug": "spellslinger-towns",
      "service": "igdb"
    }
  ],
  "aliases": [],
  "shaders": [],
  "discord_id": "",
  "change_for": null
}