{
  "id": 190042,
  "name": "Halloween Chronicles: Monsters Among Us Collector's Edition",
  "slug": "halloween-chronicles-monsters-among-us-collectors-edition",
  "year": 2018,
  "banner_url": "",
  "icon_url": "",
  "coverart": "https://lutris.net/media/igdb/cover_big/co4aqa.jpg",
  "platforms": [
    {
      "name": "Mac"
    },
    {
      "name": "Windows"
    }
  ],
  "provider_games": [
    {
      "name": "Halloween Chronicles: Monsters Among Us - Collector's Edition",
      "slug": "halloween-chronicles-monsters-among-us-collectors-edition",
      "service": "igdb"
    }
  ],
  "aliases": [],
  "shaders": [],
  "discord_id": "",
  "change_for": null
}