{
  "id": 107149,
  "name": "Assassin's Creed: Brotherhood Mobile",
  "slug": "assassins-creed-brotherhood-mobile",
  "year": 2010,
  "banner_url": "",
  "icon_url": "",
  "coverart": "https://lutris.net/media/igdb/cover_big/symq1p8ysoerpbr0ox6w.jpg",
  "platforms": [
    {
      "name": "Legacy Cellphone"
    }
  ],
  "provider_games": [
    {
      "name": "Assassin's Creed: Brotherhood Mobile",
      "slug": "assassins-creed-brotherhood-mobile",
      "service": "igdb"
    }
  ],
  "aliases": [],
  "shaders": [],
  "discord_id": "",
  "change_for": null
}