{
  "id": 152351,
  "name": "Crystal Raiders VR",
  "slug": "crystal-raiders-vr",
  "year": 2021,
  "banner_url": "",
  "icon_url": "",
  "coverart": "https://lutris.net/media/igdb/cover_big/co2u8v.jpg",
  "platforms": [
    {
      "name": "Oculus VR"
    },
    {
      "name": "SteamVR"
    },
    {
      "name": "Windows"
    }
  ],
  "provider_games": [
    {
      "name": "Crystal Raiders VR",
      "slug": "crystal-raiders-vr",
      "service": "igdb"
    }
  ],
  "aliases": [],
  "shaders": [],
  "discord_id": "",
  "change_for": null
}