{
  "id": 191351,
  "name": "Stronghold: Kingdom Simulator",
  "slug": "stronghold-kingdom-simulator",
  "year": 1993,
  "banner_url": "https://lutris.net/games/banner/stronghold-kingdom-simulator.jpg",
  "icon_url": "",
  "coverart": null,
  "platforms": [
    {
      "name": "MS-DOS"
    }
  ],
  "provider_games": [],
  "aliases": [],
  "shaders": [],
  "discord_id": "",
  "change_for": null
}