{
  "id": 276487,
  "name": "Gas Gas Rocket!",
  "slug": "gas-gas-rocket",
  "year": null,
  "banner_url": "",
  "icon_url": "",
  "coverart": "https://lutris.net/media/igdb/cover_big/co7uie.jpg",
  "platforms": [],
  "provider_games": [
    {
      "name": "Gas Gas Rocket!",
      "slug": "gas-gas-rocket",
      "service": "igdb"
    }
  ],
  "aliases": [],
  "shaders": [],
  "discord_id": "",
  "change_for": null
}