{
  "id": 89806,
  "name": "Classic Spider HD",
  "slug": "classic-spider-hd",
  "year": null,
  "banner_url": "",
  "icon_url": "",
  "coverart": null,
  "platforms": [],
  "provider_games": [
    {
      "name": "Classic Spider HD",
      "slug": "classic-spider-hd",
      "service": "igdb"
    }
  ],
  "aliases": [],
  "shaders": [],
  "discord_id": "",
  "change_for": null
}