{
  "id": 250170,
  "name": "Wild West Undead",
  "slug": "wild-west-undead",
  "year": null,
  "banner_url": "",
  "icon_url": "",
  "coverart": "https://lutris.net/media/igdb/cover_big/co6pc6.jpg",
  "platforms": [],
  "provider_games": [
    {
      "name": "Wild West Undead",
      "slug": "wild-west-undead",
      "service": "igdb"
    }
  ],
  "aliases": [],
  "shaders": [],
  "discord_id": "",
  "change_for": null
}