{
  "id": 136135,
  "name": "Dragon puzzle",
  "slug": "dragon-puzzle",
  "year": null,
  "banner_url": "",
  "icon_url": "",
  "coverart": "https://lutris.net/media/igdb/cover_big/co3ox2.jpg",
  "platforms": [],
  "provider_games": [
    {
      "name": "Dragon puzzle",
      "slug": "dragon-puzzle",
      "service": "igdb"
    }
  ],
  "aliases": [],
  "shaders": [],
  "discord_id": "",
  "change_for": null
}