{
  "id": 143889,
  "name": "Jelly Monsters",
  "slug": "jelly-monsters",
  "year": 1981,
  "banner_url": "",
  "icon_url": "",
  "coverart": "https://lutris.net/media/igdb/cover_big/qh0wa5lugh1phfjo4v2d.jpg",
  "platforms": [
    {
      "name": "Commodore VIC-20"
    }
  ],
  "provider_games": [
    {
      "name": "Jelly Monsters",
      "slug": "jelly-monsters",
      "service": "igdb"
    }
  ],
  "aliases": [],
  "shaders": [],
  "discord_id": "",
  "change_for": null
}