{
  "id": 261008,
  "name": "Hidden Space Top-Down 3D",
  "slug": "hidden-space-top-down-3d",
  "year": null,
  "banner_url": "",
  "icon_url": "",
  "coverart": "https://lutris.net/media/igdb/cover_big/co75dh.jpg",
  "platforms": [],
  "provider_games": [
    {
      "name": "Hidden Space Top-Down 3D",
      "slug": "hidden-space-top-down-3d",
      "service": "igdb"
    }
  ],
  "aliases": [],
  "shaders": [],
  "discord_id": "",
  "change_for": null
}