{
  "id": 139384,
  "name": "Harukaze Sentai V-Force",
  "slug": "harukaze-sentai-v-force",
  "year": 1996,
  "banner_url": "",
  "icon_url": "",
  "coverart": "https://lutris.net/media/igdb/cover_big/co3rv9.jpg",
  "platforms": [
    {
      "name": "Sony PlayStation"
    }
  ],
  "provider_games": [
    {
      "name": "Harukaze Sentai V-Force",
      "slug": "harukaze-sentai-v-force",
      "service": "igdb"
    }
  ],
  "aliases": [],
  "shaders": [],
  "discord_id": "",
  "change_for": null
}