{
  "id": 6646,
  "name": "Fragmented",
  "slug": "fragmented",
  "year": 2016,
  "banner_url": "https://lutris.net/games/banner/fragmented.jpg",
  "icon_url": "https://lutris.net/games/icon/fragmented.png",
  "coverart": "https://lutris.net/media/igdb/cover_big/co3zx2.jpg",
  "platforms": [
    {
      "name": "Windows"
    }
  ],
  "provider_games": [
    {
      "name": "Fragmented",
      "slug": "441790",
      "service": "steam"
    },
    {
      "name": "Fragmented",
      "slug": "fragmented",
      "service": "igdb"
    }
  ],
  "aliases": [],
  "shaders": [],
  "discord_id": "",
  "change_for": null
}