{
  "id": 268005,
  "name": "Darklands",
  "slug": "darklands--1",
  "year": null,
  "banner_url": "",
  "icon_url": "",
  "coverart": "https://lutris.net/media/igdb/cover_big/co7f8m.jpg",
  "platforms": [],
  "provider_games": [
    {
      "name": "Darklands",
      "slug": "darklands--1",
      "service": "igdb"
    }
  ],
  "aliases": [],
  "shaders": [],
  "discord_id": "",
  "change_for": null
}