{
  "id": 190724,
  "name": "Morbid: The Seven Acolytes",
  "slug": "morbid-the-seven-acolytes",
  "year": 2020,
  "banner_url": "https://lutris.net/games/banner/morbid-the-seven-acolytes.jpg",
  "icon_url": "",
  "coverart": "https://lutris.net/media/igdb/cover_big/co29q0.jpg",
  "platforms": [
    {
      "name": "Nintendo Switch"
    },
    {
      "name": "Sony Playstation 4"
    },
    {
      "name": "Windows"
    },
    {
      "name": "Xbox One"
    }
  ],
  "provider_games": [
    {
      "name": "Morbid: The Seven Acolytes",
      "slug": "1140890",
      "service": "steam"
    },
    {
      "name": "Morbid: The Seven Acolytes",
      "slug": "morbid-the-seven-acolytes",
      "service": "igdb"
    }
  ],
  "aliases": [],
  "shaders": [],
  "discord_id": "",
  "change_for": null
}