{
  "id": 238071,
  "name": "Breakout Force",
  "slug": "breakout-force",
  "year": null,
  "banner_url": "",
  "icon_url": "",
  "coverart": "https://lutris.net/media/igdb/cover_big/co64ja.jpg",
  "platforms": [],
  "provider_games": [
    {
      "name": "Breakout Force",
      "slug": "breakout-force",
      "service": "igdb"
    }
  ],
  "aliases": [],
  "shaders": [],
  "discord_id": "",
  "change_for": null
}