{
  "id": 106134,
  "name": "I MAED A GAM3 W1TH Z0MB1ES 1NIT!!!1",
  "slug": "i-maed-a-gam3-w1th-z0mb1es-1nit-1",
  "year": 2009,
  "banner_url": "",
  "icon_url": "",
  "coverart": "https://lutris.net/media/igdb/cover_big/co2txd.jpg",
  "platforms": [
    {
      "name": "Windows Phone"
    },
    {
      "name": "Xbox 360"
    }
  ],
  "provider_games": [
    {
      "name": "I MAED A GAM3 W1TH Z0MB1ES 1NIT!!!1",
      "slug": "i-maed-a-gam3-w1th-z0mb1es-1nit-1",
      "service": "igdb"
    }
  ],
  "aliases": [],
  "shaders": [],
  "discord_id": "",
  "change_for": null
}