{
  "id": 74526,
  "name": "Butt-Ugly Martians: Martian Boot Camp",
  "slug": "butt-ugly-martians-martian-boot-camp",
  "year": null,
  "banner_url": "",
  "icon_url": "",
  "coverart": null,
  "platforms": [],
  "provider_games": [
    {
      "name": "Butt-Ugly Martians: Martian Boot Camp",
      "slug": "butt-ugly-martians-martian-boot-camp",
      "service": "igdb"
    }
  ],
  "aliases": [],
  "shaders": [],
  "discord_id": "",
  "change_for": null
}