{
  "id": 90063,
  "name": "New Love Plus NEW Nene Deluxe",
  "slug": "new-love-plus-new-nene-deluxe",
  "year": null,
  "banner_url": "",
  "icon_url": "",
  "coverart": "https://lutris.net/media/igdb/cover_big/co8hc2.jpg",
  "platforms": [],
  "provider_games": [
    {
      "name": "New Love Plus NEW Nene Deluxe",
      "slug": "new-love-plus-new-nene-deluxe",
      "service": "igdb"
    }
  ],
  "aliases": [],
  "shaders": [],
  "discord_id": "",
  "change_for": null
}