{
  "id": 20891,
  "name": "News Tycoon",
  "slug": "news-tycoon",
  "year": 2017,
  "banner_url": "https://lutris.net/games/banner/news-tycoon.jpg",
  "icon_url": "https://lutris.net/games/icon/news-tycoon.png",
  "coverart": "https://lutris.net/media/igdb/cover_big/co250p.jpg",
  "platforms": [
    {
      "name": "Windows"
    }
  ],
  "provider_games": [
    {
      "name": "News Tycoon",
      "slug": "581220",
      "service": "steam"
    },
    {
      "name": "News Tycoon",
      "slug": "news-tycoon",
      "service": "igdb"
    }
  ],
  "aliases": [],
  "shaders": [],
  "discord_id": "",
  "change_for": null
}