{
  "id": 230180,
  "name": "Phantom Flail",
  "slug": "phantom-flail",
  "year": null,
  "banner_url": "",
  "icon_url": "",
  "coverart": "https://lutris.net/media/igdb/cover_big/co6d8g.jpg",
  "platforms": [],
  "provider_games": [
    {
      "name": "Phantom Flail",
      "slug": "phantom-flail",
      "service": "igdb"
    }
  ],
  "aliases": [],
  "shaders": [],
  "discord_id": "",
  "change_for": null
}