{
  "id": 14815,
  "name": "Necroball",
  "slug": "necroball",
  "year": 2017,
  "banner_url": "https://lutris.net/games/banner/necroball.jpg",
  "icon_url": "https://lutris.net/games/icon/necroball.png",
  "coverart": "https://lutris.net/media/igdb/cover_big/fvmudr6zvfkssves0ov9.jpg",
  "platforms": [
    {
      "name": "Linux"
    },
    {
      "name": "Mac"
    },
    {
      "name": "Windows"
    }
  ],
  "provider_games": [
    {
      "name": "Necroball",
      "slug": "563410",
      "service": "steam"
    },
    {
      "name": "Necroball",
      "slug": "necroball",
      "service": "igdb"
    }
  ],
  "aliases": [],
  "shaders": [],
  "discord_id": "",
  "change_for": null
}