{
  "id": 191462,
  "name": "Saint Kotar: Supporter Pack",
  "slug": "saint-kotar-supporter-pack",
  "year": null,
  "banner_url": "",
  "icon_url": "",
  "coverart": null,
  "platforms": [],
  "provider_games": [],
  "aliases": [],
  "shaders": [],
  "discord_id": "",
  "change_for": null
}