{
  "id": 146996,
  "name": "Eden's Lair",
  "slug": "edens-lair",
  "year": null,
  "banner_url": "",
  "icon_url": "",
  "coverart": "https://lutris.net/media/igdb/cover_big/co3prw.jpg",
  "platforms": [],
  "provider_games": [
    {
      "name": "Eden's Lair",
      "slug": "edens-lair",
      "service": "igdb"
    }
  ],
  "aliases": [],
  "shaders": [],
  "discord_id": "",
  "change_for": null
}