{
  "id": 13079,
  "name": "Dream Stone",
  "slug": "dream-stone",
  "year": 2017,
  "banner_url": "https://lutris.net/games/banner/dream-stone.jpg",
  "icon_url": "https://lutris.net/games/icon/dream-stone.png",
  "coverart": "https://lutris.net/media/igdb/cover_big/co2ayj.jpg",
  "platforms": [
    {
      "name": "Windows"
    }
  ],
  "provider_games": [
    {
      "name": "Dream Stone",
      "slug": "603090",
      "service": "steam"
    },
    {
      "name": "Dream Stone",
      "slug": "dream-stone",
      "service": "igdb"
    }
  ],
  "aliases": [],
  "shaders": [],
  "discord_id": "",
  "change_for": null
}