{
  "id": 221425,
  "name": "Feeling Arrow",
  "slug": "feeling-arrow",
  "year": null,
  "banner_url": "",
  "icon_url": "",
  "coverart": null,
  "platforms": [],
  "provider_games": [
    {
      "name": "Feeling Arrow",
      "slug": "feeling-arrow",
      "service": "igdb"
    }
  ],
  "aliases": [],
  "shaders": [],
  "discord_id": "",
  "change_for": null
}