{
  "id": 295178,
  "name": "Comic Coloring Book Complete Edition: Draw +",
  "slug": "comic-coloring-book-complete-edition-draw-plus",
  "year": 2022,
  "banner_url": "",
  "icon_url": "",
  "coverart": null,
  "platforms": [
    {
      "name": "Nintendo Switch"
    }
  ],
  "provider_games": [
    {
      "name": "Comic Coloring Book Complete Edition: Draw +",
      "slug": "comic-coloring-book-complete-edition-draw-plus",
      "service": "igdb"
    }
  ],
  "aliases": [],
  "shaders": [],
  "discord_id": "",
  "change_for": null
}