{
  "id": 134010,
  "name": "Battle Bands: Rock & Roll Deckbuilder",
  "slug": "battle-bands-rock-and-roll-deckbuilder",
  "year": null,
  "banner_url": "",
  "icon_url": "",
  "coverart": "https://lutris.net/media/igdb/cover_big/co3lzm.jpg",
  "platforms": [],
  "provider_games": [
    {
      "name": "Battle Bands: Rock & Roll Deckbuilder",
      "slug": "battle-bands-rock-and-roll-deckbuilder",
      "service": "igdb"
    }
  ],
  "aliases": [],
  "shaders": [],
  "discord_id": "",
  "change_for": null
}