{
  "id": 243045,
  "name": "Blocky Highway",
  "slug": "blocky-highway",
  "year": null,
  "banner_url": "",
  "icon_url": "",
  "coverart": null,
  "platforms": [],
  "provider_games": [
    {
      "name": "Blocky Highway",
      "slug": "blocky-highway",
      "service": "igdb"
    }
  ],
  "aliases": [],
  "shaders": [],
  "discord_id": "",
  "change_for": null
}