{
  "id": 145484,
  "name": "Resident Evil 4: Mobile Edition",
  "slug": "resident-evil-4-mobile-edition",
  "year": 2005,
  "banner_url": "",
  "icon_url": "",
  "coverart": "https://lutris.net/media/igdb/cover_big/co2v8q.jpg",
  "platforms": [
    {
      "name": "Android"
    },
    {
      "name": "Zeebo"
    }
  ],
  "provider_games": [
    {
      "name": "Resident Evil 4: Mobile Edition",
      "slug": "resident-evil-4-mobile-edition",
      "service": "igdb"
    }
  ],
  "aliases": [],
  "shaders": [],
  "discord_id": "",
  "change_for": null
}