{
  "id": 263036,
  "name": "Ame ni Utau Tanshikyoku: A Rainbow After the Rain",
  "slug": "ame-ni-utau-tanshikyoku-a-rainbow-after-the-rain",
  "year": 2002,
  "banner_url": "",
  "icon_url": "",
  "coverart": "https://lutris.net/media/igdb/cover_big/co77ni.jpg",
  "platforms": [
    {
      "name": "Windows"
    }
  ],
  "provider_games": [
    {
      "name": "Ame ni Utau Tanshikyoku: A Rainbow After the Rain",
      "slug": "ame-ni-utau-tanshikyoku-a-rainbow-after-the-rain",
      "service": "igdb"
    }
  ],
  "aliases": [],
  "shaders": [],
  "discord_id": "",
  "change_for": null
}