{
  "id": 286462,
  "name": "Hentai Class",
  "slug": "hentai-class",
  "year": null,
  "banner_url": "",
  "icon_url": "",
  "coverart": "https://lutris.net/media/igdb/cover_big/co8833.jpg",
  "platforms": [],
  "provider_games": [
    {
      "name": "Hentai Class",
      "slug": "hentai-class",
      "service": "igdb"
    }
  ],
  "aliases": [],
  "shaders": [],
  "discord_id": "",
  "change_for": null
}