{
  "id": 284985,
  "name": "Plan 9 From Planet Kr1x",
  "slug": "plan-9-from-planet-kr1x",
  "year": 2012,
  "banner_url": "",
  "icon_url": "",
  "coverart": "https://lutris.net/media/igdb/cover_big/co87h7.jpg",
  "platforms": [
    {
      "name": "Browser"
    }
  ],
  "provider_games": [
    {
      "name": "Plan 9 From Planet Kr1x",
      "slug": "plan-9-from-planet-kr1x",
      "service": "igdb"
    }
  ],
  "aliases": [],
  "shaders": [],
  "discord_id": "",
  "change_for": null
}