{
  "id": 10018,
  "name": "Brave Dungeon",
  "slug": "brave-dungeon",
  "year": 2016,
  "banner_url": "https://lutris.net/games/banner/brave-dungeon.jpg",
  "icon_url": "https://lutris.net/games/icon/brave-dungeon.png",
  "coverart": "https://lutris.net/media/igdb/cover_big/cryklwhqg7b8kyu0mehr.jpg",
  "platforms": [
    {
      "name": "Windows"
    }
  ],
  "provider_games": [
    {
      "name": "Brave Dungeon",
      "slug": "brave-dungeon",
      "service": "igdb"
    }
  ],
  "aliases": [],
  "shaders": [],
  "discord_id": "",
  "change_for": null
}