{
  "id": 198110,
  "name": "Inu: A Glimpse of Infinity",
  "slug": "inu-a-glimpse-of-infinity",
  "year": null,
  "banner_url": "",
  "icon_url": "",
  "coverart": "https://lutris.net/media/igdb/cover_big/co4j88.jpg",
  "platforms": [],
  "provider_games": [
    {
      "name": "Inu: A Glimpse of Infinity",
      "slug": "inu-a-glimpse-of-infinity",
      "service": "igdb"
    }
  ],
  "aliases": [],
  "shaders": [],
  "discord_id": "",
  "change_for": null
}