{
  "id": 253134,
  "name": "Racketeers",
  "slug": "racketeers",
  "year": null,
  "banner_url": "",
  "icon_url": "",
  "coverart": "https://lutris.net/media/igdb/cover_big/co6un3.jpg",
  "platforms": [],
  "provider_games": [
    {
      "name": "Racketeers",
      "slug": "racketeers",
      "service": "igdb"
    }
  ],
  "aliases": [],
  "shaders": [],
  "discord_id": "",
  "change_for": null
}