{
  "id": 302400,
  "name": "Hentai World: Complete +",
  "slug": "hentai-world-complete-plus",
  "year": 2024,
  "banner_url": "",
  "icon_url": "",
  "coverart": null,
  "platforms": [
    {
      "name": "Nintendo Switch"
    }
  ],
  "provider_games": [
    {
      "name": "Hentai World: Complete +",
      "slug": "hentai-world-complete-plus",
      "service": "igdb"
    }
  ],
  "aliases": [],
  "shaders": [],
  "discord_id": "",
  "change_for": null
}