{
  "id": 172317,
  "name": "Out on a Liminal",
  "slug": "out-on-a-liminal",
  "year": null,
  "banner_url": "",
  "icon_url": "",
  "coverart": null,
  "platforms": [],
  "provider_games": [
    {
      "name": "Out on a Liminal",
      "slug": "out-on-a-liminal",
      "service": "igdb"
    }
  ],
  "aliases": [],
  "shaders": [],
  "discord_id": "",
  "change_for": null
}