{
  "id": 220950,
  "name": "Galaxy of MahJongg",
  "slug": "galaxy-of-mahjongg",
  "year": null,
  "banner_url": "",
  "icon_url": "",
  "coverart": "https://lutris.net/media/igdb/cover_big/co4zbk.jpg",
  "platforms": [
    {
      "name": "Windows"
    }
  ],
  "provider_games": [
    {
      "name": "Galaxy of MahJongg",
      "slug": "galaxy-of-mahjongg",
      "service": "igdb"
    }
  ],
  "aliases": [],
  "shaders": [],
  "discord_id": "",
  "change_for": null
}