{
  "id": 50973,
  "name": "B-17 Bomber",
  "slug": "b-17-bomber",
  "year": 1982,
  "banner_url": "",
  "icon_url": "",
  "coverart": "https://lutris.net/media/igdb/cover_big/co1pfw.jpg",
  "platforms": [
    {
      "name": "Intellivision"
    }
  ],
  "provider_games": [
    {
      "name": "B-17 Bomber",
      "slug": "b-17-bomber",
      "service": "igdb"
    }
  ],
  "aliases": [],
  "shaders": [],
  "discord_id": "",
  "change_for": null
}