{
  "id": 249646,
  "name": "Fun.Io",
  "slug": "fun-dot-io",
  "year": null,
  "banner_url": "",
  "icon_url": "",
  "coverart": "https://lutris.net/media/igdb/cover_big/co6nl3.jpg",
  "platforms": [],
  "provider_games": [
    {
      "name": "Fun.Io",
      "slug": "fun-dot-io",
      "service": "igdb"
    }
  ],
  "aliases": [],
  "shaders": [],
  "discord_id": "",
  "change_for": null
}