{
  "id": 104301,
  "name": "Contingent",
  "slug": "contingent",
  "year": null,
  "banner_url": "",
  "icon_url": "",
  "coverart": "https://lutris.net/media/igdb/cover_big/co2psf.jpg",
  "platforms": [],
  "provider_games": [
    {
      "name": "Contingent",
      "slug": "contingent",
      "service": "igdb"
    }
  ],
  "aliases": [],
  "shaders": [],
  "discord_id": "",
  "change_for": null
}