{
  "id": 273083,
  "name": "Wifey's Dilemma Revisited",
  "slug": "wifeys-dilemma-revisited",
  "year": null,
  "banner_url": "",
  "icon_url": "",
  "coverart": "https://lutris.net/media/igdb/cover_big/co7qte.jpg",
  "platforms": [],
  "provider_games": [
    {
      "name": "Wifey's Dilemma Revisited",
      "slug": "wifeys-dilemma-revisited",
      "service": "igdb"
    }
  ],
  "aliases": [],
  "shaders": [],
  "discord_id": "",
  "change_for": null
}