{
  "id": 247748,
  "name": "Jetpack Battle",
  "slug": "jetpack-battle",
  "year": null,
  "banner_url": "",
  "icon_url": "",
  "coverart": "https://lutris.net/media/igdb/cover_big/co6kt3.jpg",
  "platforms": [],
  "provider_games": [
    {
      "name": "Jetpack Battle",
      "slug": "jetpack-battle",
      "service": "igdb"
    }
  ],
  "aliases": [],
  "shaders": [],
  "discord_id": "",
  "change_for": null
}