{
  "id": 277487,
  "name": "Find Room 96",
  "slug": "find-room-96",
  "year": null,
  "banner_url": "",
  "icon_url": "",
  "coverart": "https://lutris.net/media/igdb/cover_big/co7w9d.jpg",
  "platforms": [],
  "provider_games": [
    {
      "name": "Find Room 96",
      "slug": "find-room-96",
      "service": "igdb"
    }
  ],
  "aliases": [],
  "shaders": [],
  "discord_id": "",
  "change_for": null
}