{
  "id": 293036,
  "name": "Greengrocer's",
  "slug": "greengrocers",
  "year": null,
  "banner_url": "",
  "icon_url": "",
  "coverart": "https://lutris.net/media/igdb/cover_big/co8lz0.jpg",
  "platforms": [],
  "provider_games": [
    {
      "name": "Greengrocer's",
      "slug": "greengrocers",
      "service": "igdb"
    }
  ],
  "aliases": [],
  "shaders": [],
  "discord_id": "",
  "change_for": null
}