{
  "id": 146594,
  "name": "OzTales Pikeman",
  "slug": "oztales-pikeman",
  "year": null,
  "banner_url": "",
  "icon_url": "",
  "coverart": "https://lutris.net/media/igdb/cover_big/co3qqx.jpg",
  "platforms": [],
  "provider_games": [
    {
      "name": "OzTales Pikeman",
      "slug": "oztales-pikeman",
      "service": "igdb"
    }
  ],
  "aliases": [],
  "shaders": [],
  "discord_id": "",
  "change_for": null
}