{
  "id": 237619,
  "name": "SmartSoules",
  "slug": "smartsoules",
  "year": null,
  "banner_url": "",
  "icon_url": "",
  "coverart": "https://lutris.net/media/igdb/cover_big/co64av.jpg",
  "platforms": [],
  "provider_games": [
    {
      "name": "SmartSoules",
      "slug": "smartsoules",
      "service": "igdb"
    }
  ],
  "aliases": [],
  "shaders": [],
  "discord_id": "",
  "change_for": null
}