{
  "id": 57567,
  "name": "Zabugorie: The Fairy Planet",
  "slug": "zabugorie-the-fairy-planet",
  "year": null,
  "banner_url": "",
  "icon_url": "",
  "coverart": "https://lutris.net/media/igdb/cover_big/huihk0a5tfmlscgi5b0h.jpg",
  "platforms": [],
  "provider_games": [
    {
      "name": "Zabugorie: The Fairy Planet",
      "slug": "zabugorie-the-fairy-planet",
      "service": "igdb"
    }
  ],
  "aliases": [],
  "shaders": [],
  "discord_id": "",
  "change_for": null
}