{
  "id": 8722,
  "name": "Radial Impact",
  "slug": "radial-impact",
  "year": 2015,
  "banner_url": "https://lutris.net/games/banner/radial-impact.jpg",
  "icon_url": "https://lutris.net/games/icon/radial-impact.png",
  "coverart": null,
  "platforms": [
    {
      "name": "Windows"
    }
  ],
  "provider_games": [
    {
      "name": "Radial Impact",
      "slug": "387890",
      "service": "steam"
    },
    {
      "name": "Radial Impact",
      "slug": "radial-impact",
      "service": "igdb"
    }
  ],
  "aliases": [],
  "shaders": [],
  "discord_id": "",
  "change_for": null
}