{
  "id": 269808,
  "name": "Karina Katana",
  "slug": "karina-katana",
  "year": 2024,
  "banner_url": "https://lutris.net/games/banner/karina-katana.jpg",
  "icon_url": "",
  "coverart": "https://lutris.net/media/igdb/cover_big/co7qw7.jpg",
  "platforms": [],
  "provider_games": [
    {
      "name": "Karina Katana",
      "slug": "karina-katana",
      "service": "igdb"
    }
  ],
  "aliases": [],
  "shaders": [],
  "discord_id": "",
  "change_for": null
}