{
  "id": 151232,
  "name": "Task Force 1942: Surface Naval Action in the South Pacific",
  "slug": "task-force-1942-surface-naval-action-in-the-south-pacific",
  "year": 2014,
  "banner_url": "",
  "icon_url": "",
  "coverart": null,
  "platforms": [
    {
      "name": "Linux"
    },
    {
      "name": "Mac"
    },
    {
      "name": "Windows"
    }
  ],
  "provider_games": [
    {
      "name": "Task Force 1942: Surface Naval Action in the South Pacific",
      "slug": "task-force-1942-surface-naval-action-in-the-south-pacific",
      "service": "igdb"
    }
  ],
  "aliases": [],
  "shaders": [],
  "discord_id": "",
  "change_for": null
}