{
  "id": 91855,
  "name": "Super Shuttle Blaster Arcade",
  "slug": "super-shuttle-blaster-arcade",
  "year": null,
  "banner_url": "",
  "icon_url": "",
  "coverart": null,
  "platforms": [],
  "provider_games": [
    {
      "name": "Super Shuttle Blaster Arcade",
      "slug": "super-shuttle-blaster-arcade",
      "service": "igdb"
    }
  ],
  "aliases": [],
  "shaders": [],
  "discord_id": "",
  "change_for": null
}