{
  "id": 137267,
  "name": "Eternity Protectors",
  "slug": "eternity-protectors",
  "year": null,
  "banner_url": "",
  "icon_url": "",
  "coverart": "https://lutris.net/media/igdb/cover_big/co3qeb.jpg",
  "platforms": [],
  "provider_games": [
    {
      "name": "Eternity Protectors",
      "slug": "eternity-protectors",
      "service": "igdb"
    }
  ],
  "aliases": [],
  "shaders": [],
  "discord_id": "",
  "change_for": null
}