{
  "id": 57223,
  "name": "Iza, Shutsujin! Koiikusa",
  "slug": "iza-shutsujin-koiikusa",
  "year": null,
  "banner_url": "",
  "icon_url": "",
  "coverart": "https://lutris.net/media/igdb/cover_big/vxjuug2j46bwd1i7fhgi.jpg",
  "platforms": [],
  "provider_games": [
    {
      "name": "Iza, Shutsujin! Koiikusa",
      "slug": "iza-shutsujin-koiikusa",
      "service": "igdb"
    }
  ],
  "aliases": [],
  "shaders": [],
  "discord_id": "",
  "change_for": null
}