{
  "id": 217252,
  "name": "Mega Man: Shattered Diamond",
  "slug": "mega-man-shattered-diamond",
  "year": null,
  "banner_url": "",
  "icon_url": "",
  "coverart": "https://lutris.net/media/igdb/cover_big/co55m6.jpg",
  "platforms": [
    {
      "name": "Windows"
    }
  ],
  "provider_games": [
    {
      "name": "Mega Man: Shattered Diamond",
      "slug": "mega-man-shattered-diamond",
      "service": "igdb"
    }
  ],
  "aliases": [],
  "shaders": [],
  "discord_id": "",
  "change_for": null
}