{
  "id": 52924,
  "name": "Hunters 2",
  "slug": "hunters-2",
  "year": 2012,
  "banner_url": "",
  "icon_url": "",
  "coverart": "https://lutris.net/media/igdb/cover_big/kyoplneoearupapzhw4l.jpg",
  "platforms": [],
  "provider_games": [
    {
      "name": "Hunters 2",
      "slug": "hunters-2",
      "service": "igdb"
    }
  ],
  "aliases": [],
  "shaders": [],
  "discord_id": "",
  "change_for": null
}