{
  "id": 86187,
  "name": "Zero Escape Trilogy",
  "slug": "zero-escape-trilogy",
  "year": null,
  "banner_url": "",
  "icon_url": "",
  "coverart": "https://lutris.net/media/igdb/cover_big/co86n6.jpg",
  "platforms": [],
  "provider_games": [
    {
      "name": "Zero Escape Trilogy",
      "slug": "zero-escape-trilogy",
      "service": "igdb"
    }
  ],
  "aliases": [],
  "shaders": [],
  "discord_id": "",
  "change_for": null
}