{
  "id": 189766,
  "name": "Star Wars Pinball",
  "slug": "star-wars-pinball",
  "year": 2013,
  "banner_url": "",
  "icon_url": "",
  "coverart": "https://lutris.net/media/igdb/cover_big/co2cfn.jpg",
  "platforms": [
    {
      "name": "Nintendo 3DS"
    },
    {
      "name": "Nintendo Wii U"
    },
    {
      "name": "PlayStation Vita"
    },
    {
      "name": "Sony Playstation 3"
    }
  ],
  "provider_games": [
    {
      "name": "Star Wars Pinball",
      "slug": "star-wars-pinball",
      "service": "igdb"
    }
  ],
  "aliases": [],
  "shaders": [],
  "discord_id": "",
  "change_for": null
}