{
  "id": 208829,
  "name": "Kannagi no Mori: Ryuujin Kitan",
  "slug": "kannagi-no-mori-ryuujin-kitan",
  "year": 2018,
  "banner_url": "",
  "icon_url": "",
  "coverart": "https://lutris.net/media/igdb/cover_big/co5pkb.jpg",
  "platforms": [
    {
      "name": "Windows"
    }
  ],
  "provider_games": [
    {
      "name": "Kannagi no Mori: Ryuujin Kitan",
      "slug": "kannagi-no-mori-ryuujin-kitan",
      "service": "igdb"
    }
  ],
  "aliases": [],
  "shaders": [],
  "discord_id": "",
  "change_for": null
}