{
  "id": 167725,
  "name": "Jumping Platform Minigame",
  "slug": "jumping-platform-minigame",
  "year": null,
  "banner_url": "",
  "icon_url": "",
  "coverart": "https://lutris.net/media/igdb/cover_big/co44ck.jpg",
  "platforms": [],
  "provider_games": [
    {
      "name": "Jumping Platform Minigame",
      "slug": "jumping-platform-minigame",
      "service": "igdb"
    }
  ],
  "aliases": [],
  "shaders": [],
  "discord_id": "",
  "change_for": null
}