{
  "id": 84353,
  "name": "Dashing Nineties: R.M.D.",
  "slug": "dashing-nineties-rmd",
  "year": null,
  "banner_url": "",
  "icon_url": "",
  "coverart": null,
  "platforms": [],
  "provider_games": [
    {
      "name": "Dashing Nineties: R.M.D.",
      "slug": "dashing-nineties-rmd",
      "service": "igdb"
    }
  ],
  "aliases": [],
  "shaders": [],
  "discord_id": "",
  "change_for": null
}