{
  "id": 40622,
  "name": "Mr. Krabs Overdoses on Ketamine",
  "slug": "mr-krabs-overdoses-on-ketamine",
  "year": 2020,
  "banner_url": "https://lutris.net/games/banner/mr-krabs-overdoses-on-ketamine.jpg",
  "icon_url": "",
  "coverart": "https://lutris.net/media/igdb/cover_big/co2oaj.jpg",
  "platforms": [
    {
      "name": "Windows"
    }
  ],
  "provider_games": [
    {
      "name": "Mr. Krabs Overdoses on Ketamine",
      "slug": "mr-krabs-overdoses-on-ketamine",
      "service": "igdb"
    }
  ],
  "aliases": [],
  "shaders": [],
  "discord_id": "",
  "change_for": null
}