{
  "id": 83089,
  "name": "Shogi: Touryuumon",
  "slug": "shogi-touryuumon",
  "year": 1999,
  "banner_url": "",
  "icon_url": "",
  "coverart": "https://lutris.net/media/igdb/cover_big/co73qo.jpg",
  "platforms": [
    {
      "name": "WonderSwan"
    }
  ],
  "provider_games": [
    {
      "name": "Shogi: Touryuumon",
      "slug": "shogi-touryuumon",
      "service": "igdb"
    }
  ],
  "aliases": [],
  "shaders": [],
  "discord_id": "",
  "change_for": null
}