{
  "id": 253249,
  "name": "An English Haunting",
  "slug": "an-english-haunting",
  "year": null,
  "banner_url": "",
  "icon_url": "",
  "coverart": "https://lutris.net/media/igdb/cover_big/co6u9r.jpg",
  "platforms": [],
  "provider_games": [
    {
      "name": "An English Haunting",
      "slug": "an-english-haunting",
      "service": "igdb"
    }
  ],
  "aliases": [],
  "shaders": [],
  "discord_id": "",
  "change_for": null
}