{
  "id": 100660,
  "name": "Shin Megami Tensei: Tokyo Requiem",
  "slug": "shin-megami-tensei-tokyo-requiem",
  "year": 2007,
  "banner_url": "",
  "icon_url": "",
  "coverart": "https://lutris.net/media/igdb/cover_big/co2ewq.jpg",
  "platforms": [
    {
      "name": "Legacy Cellphone"
    }
  ],
  "provider_games": [
    {
      "name": "Shin Megami Tensei: Tokyo Requiem",
      "slug": "shin-megami-tensei-tokyo-requiem",
      "service": "igdb"
    }
  ],
  "aliases": [],
  "shaders": [],
  "discord_id": "",
  "change_for": null
}