{
  "id": 292173,
  "name": "The Back",
  "slug": "the-back",
  "year": null,
  "banner_url": "",
  "icon_url": "",
  "coverart": "https://lutris.net/media/igdb/cover_big/co8jpd.jpg",
  "platforms": [],
  "provider_games": [
    {
      "name": "The Back",
      "slug": "the-back",
      "service": "igdb"
    }
  ],
  "aliases": [],
  "shaders": [],
  "discord_id": "",
  "change_for": null
}