{
  "id": 269012,
  "name": "Who am I: Remedy",
  "slug": "who-am-i-remedy",
  "year": null,
  "banner_url": "",
  "icon_url": "",
  "coverart": "https://lutris.net/media/igdb/cover_big/co7iy8.jpg",
  "platforms": [],
  "provider_games": [
    {
      "name": "Who am I: Remedy",
      "slug": "who-am-i-remedy",
      "service": "igdb"
    }
  ],
  "aliases": [],
  "shaders": [],
  "discord_id": "",
  "change_for": null
}