{
  "id": 39100,
  "game_id": 38245,
  "game_slug": "infected-shelter",
  "name": "Infected Shelter",
  "year": 2019,
  "user": "vanstaveren",
  "runner": "steam",
  "slug": "infected-shelter-steam",
  "version": "steam",
  "description": "",
  "notes": "",
  "credits": "",
  "created_at": "2025-01-02T07:12:00.069011Z",
  "updated_at": "2025-01-02T07:12:00.069042Z",
  "draft": false,
  "published": true,
  "published_by": null,
  "rating": "",
  "is_playable": null,
  "steamid": 926390,
  "gogid": null,
  "gogslug": "",
  "humbleid": "",
  "humblestoreid": "",
  "humblestoreid_real": "",
  "script": {
    "game": {
      "appid": 926390
    }
  },
  "content": "game:\n  appid: 926390\n",
  "discord_id": ""
}