{
  "id": 173449,
  "name": "Senko no Ronde DUO",
  "slug": "senko-no-ronde-duo",
  "year": null,
  "banner_url": "",
  "icon_url": "",
  "coverart": "https://lutris.net/media/igdb/cover_big/co47yz.jpg",
  "platforms": [],
  "provider_games": [
    {
      "name": "Senko no Ronde DUO",
      "slug": "senko-no-ronde-duo",
      "service": "igdb"
    }
  ],
  "aliases": [],
  "shaders": [],
  "discord_id": "",
  "change_for": null
}