{
  "id": 168442,
  "name": "Treasure Hunter Simulator 2",
  "slug": "treasure-hunter-simulator-2",
  "year": null,
  "banner_url": "",
  "icon_url": "",
  "coverart": "https://lutris.net/media/igdb/cover_big/co44we.jpg",
  "platforms": [],
  "provider_games": [
    {
      "name": "Treasure Hunter Simulator 2",
      "slug": "treasure-hunter-simulator-2",
      "service": "igdb"
    }
  ],
  "aliases": [],
  "shaders": [],
  "discord_id": "",
  "change_for": null
}