{
  "id": 32337,
  "game_id": 25594,
  "game_slug": "apex-legends",
  "name": "Apex Legends",
  "year": 2019,
  "user": "Frolleks",
  "runner": "steam",
  "slug": "apex-legends-proton",
  "version": "Proton",
  "description": "Respawn has added EAC support for Linux with Proton, so use this instead.",
  "notes": "Switch Proton version to Proton Experimental, and then set launch options to \"gamemoderun %command%\".",
  "credits": "",
  "created_at": "2022-03-15T07:18:33.152884Z",
  "updated_at": "2023-01-11T06:01:59.832241Z",
  "draft": false,
  "published": true,
  "published_by": null,
  "rating": "",
  "is_playable": null,
  "steamid": 1172470,
  "gogid": null,
  "gogslug": "",
  "humbleid": "",
  "humblestoreid": "",
  "humblestoreid_real": "",
  "script": {
    "game": {
      "appid": 1172470
    }
  },
  "content": "game:\n  appid: 1172470\n",
  "discord_id": "542075586886107149"
}