{
  "id": 170126,
  "name": "Hunter Hearts",
  "slug": "hunter-hearts",
  "year": null,
  "banner_url": "",
  "icon_url": "",
  "coverart": "https://lutris.net/media/igdb/cover_big/co46e3.jpg",
  "platforms": [],
  "provider_games": [
    {
      "name": "Hunter Hearts",
      "slug": "hunter-hearts",
      "service": "igdb"
    }
  ],
  "aliases": [],
  "shaders": [],
  "discord_id": "",
  "change_for": null
}