{
  "id": 304349,
  "name": "Superstore",
  "slug": "superstore",
  "year": null,
  "banner_url": "",
  "icon_url": "",
  "coverart": "https://lutris.net/media/igdb/cover_big/co9aid.jpg",
  "platforms": [],
  "provider_games": [
    {
      "name": "Superstore",
      "slug": "superstore",
      "service": "igdb"
    }
  ],
  "aliases": [],
  "shaders": [],
  "discord_id": "",
  "change_for": null
}