{
  "id": 165722,
  "name": "Submerged: VR Escape the Room",
  "slug": "submerged-vr-escape-the-room",
  "year": null,
  "banner_url": "",
  "icon_url": "",
  "coverart": "https://lutris.net/media/igdb/cover_big/co42k3.jpg",
  "platforms": [],
  "provider_games": [
    {
      "name": "Submerged: VR Escape the Room",
      "slug": "submerged-vr-escape-the-room",
      "service": "igdb"
    }
  ],
  "aliases": [],
  "shaders": [],
  "discord_id": "",
  "change_for": null
}