{
  "id": 45662,
  "name": "Petka 4: Independence Day",
  "slug": "petka-4-independence-day",
  "year": null,
  "banner_url": "",
  "icon_url": "",
  "coverart": null,
  "platforms": [],
  "provider_games": [
    {
      "name": "Petka 4: Independence Day",
      "slug": "petka-4-independence-day",
      "service": "igdb"
    }
  ],
  "aliases": [],
  "shaders": [],
  "discord_id": "",
  "change_for": null
}