{
  "id": 269917,
  "name": "U C U B E",
  "slug": "u-c-u-b-e",
  "year": 2023,
  "banner_url": "",
  "icon_url": "",
  "coverart": null,
  "platforms": [
    {
      "name": "Windows"
    }
  ],
  "provider_games": [
    {
      "name": "U C U B E",
      "slug": "u-c-u-b-e",
      "service": "igdb"
    }
  ],
  "aliases": [],
  "shaders": [],
  "discord_id": "",
  "change_for": null
}