{
  "id": 276366,
  "name": "All You Can Take",
  "slug": "all-you-can-take",
  "year": null,
  "banner_url": "",
  "icon_url": "",
  "coverart": "https://lutris.net/media/igdb/cover_big/co7umi.jpg",
  "platforms": [],
  "provider_games": [
    {
      "name": "All You Can Take",
      "slug": "all-you-can-take",
      "service": "igdb"
    }
  ],
  "aliases": [],
  "shaders": [],
  "discord_id": "",
  "change_for": null
}