{
  "id": 186419,
  "name": "Cappuchino Spoontforce Deluxe VI: Girl of the Boiling Fury",
  "slug": "cappuchino-spoontforce-deluxe-vi-girl-of-the-boiling-fury",
  "year": null,
  "banner_url": "",
  "icon_url": "",
  "coverart": "https://lutris.net/media/igdb/cover_big/co9a78.jpg",
  "platforms": [],
  "provider_games": [
    {
      "name": "Cappuchino Spoontforce Deluxe VI: Girl of the Boiling Fury",
      "slug": "cappuchino-spoontforce-deluxe-vi-girl-of-the-boiling-fury",
      "service": "igdb"
    }
  ],
  "aliases": [],
  "shaders": [],
  "discord_id": "",
  "change_for": null
}