{
  "id": 187851,
  "name": "The Super 1-1 Challenge",
  "slug": "the-super-1-1-challenge",
  "year": 2020,
  "banner_url": "",
  "icon_url": "",
  "coverart": "https://lutris.net/media/igdb/cover_big/co2a7r.jpg",
  "platforms": [
    {
      "name": "Linux"
    },
    {
      "name": "Windows"
    }
  ],
  "provider_games": [
    {
      "name": "The Super 1-1 Challenge",
      "slug": "the-super-1-1-challenge",
      "service": "igdb"
    }
  ],
  "aliases": [],
  "shaders": [],
  "discord_id": "",
  "change_for": null
}