{
  "id": 136814,
  "name": "Underworld Dreams",
  "slug": "underworld-dreams",
  "year": null,
  "banner_url": "",
  "icon_url": "",
  "coverart": "https://lutris.net/media/igdb/cover_big/co3pre.jpg",
  "platforms": [],
  "provider_games": [
    {
      "name": "Underworld Dreams",
      "slug": "underworld-dreams",
      "service": "igdb"
    }
  ],
  "aliases": [],
  "shaders": [],
  "discord_id": "",
  "change_for": null
}