{
  "id": 805,
  "name": "Home",
  "slug": "home",
  "year": 2012,
  "banner_url": "https://lutris.net/games/banner/home.jpg",
  "icon_url": "https://lutris.net/games/icon/home.png",
  "coverart": "https://lutris.net/media/igdb/cover_big/co1mhv.jpg",
  "platforms": [
    {
      "name": "Mac"
    },
    {
      "name": "PlayStation Vita"
    },
    {
      "name": "Sony Playstation 4"
    },
    {
      "name": "Windows"
    }
  ],
  "provider_games": [
    {
      "name": "Home",
      "slug": "215670",
      "service": "steam"
    },
    {
      "name": "Home",
      "slug": "home",
      "service": "igdb"
    }
  ],
  "aliases": [],
  "shaders": [],
  "discord_id": "",
  "change_for": null
}