{
  "id": 285708,
  "name": "ArchWilio",
  "slug": "archwilio",
  "year": null,
  "banner_url": "",
  "icon_url": "",
  "coverart": "https://lutris.net/media/igdb/cover_big/co89b6.jpg",
  "platforms": [],
  "provider_games": [
    {
      "name": "ArchWilio",
      "slug": "archwilio",
      "service": "igdb"
    }
  ],
  "aliases": [],
  "shaders": [],
  "discord_id": "",
  "change_for": null
}