{
  "id": 215553,
  "name": "Keyfall",
  "slug": "keyfall",
  "year": null,
  "banner_url": "",
  "icon_url": "",
  "coverart": "https://lutris.net/media/igdb/cover_big/co58vl.jpg",
  "platforms": [],
  "provider_games": [
    {
      "name": "Keyfall",
      "slug": "keyfall",
      "service": "igdb"
    }
  ],
  "aliases": [],
  "shaders": [],
  "discord_id": "",
  "change_for": null
}