{
  "id": 196838,
  "name": "En-Fem-E No. 9: Reborn",
  "slug": "en-fem-e-no-9-reborn",
  "year": null,
  "banner_url": "",
  "icon_url": "",
  "coverart": "https://lutris.net/media/igdb/cover_big/co4m0x.jpg",
  "platforms": [],
  "provider_games": [
    {
      "name": "En-Fem-E No. 9: Reborn",
      "slug": "en-fem-e-no-9-reborn",
      "service": "igdb"
    }
  ],
  "aliases": [],
  "shaders": [],
  "discord_id": "",
  "change_for": null
}