{
  "id": 265105,
  "name": "Scarlet Rain",
  "slug": "scarlet-rain",
  "year": null,
  "banner_url": "",
  "icon_url": "",
  "coverart": "https://lutris.net/media/igdb/cover_big/co7bcj.jpg",
  "platforms": [],
  "provider_games": [
    {
      "name": "Scarlet Rain",
      "slug": "scarlet-rain",
      "service": "igdb"
    }
  ],
  "aliases": [],
  "shaders": [],
  "discord_id": "",
  "change_for": null
}