{
  "id": 154104,
  "name": "Fallen City Brawl",
  "slug": "fallen-city-brawl",
  "year": 2022,
  "banner_url": "",
  "icon_url": "",
  "coverart": "https://lutris.net/media/igdb/cover_big/co3wyi.jpg",
  "platforms": [
    {
      "name": "Windows"
    }
  ],
  "provider_games": [
    {
      "name": "Fallen City Brawl",
      "slug": "fallen-city-brawl",
      "service": "igdb"
    },
    {
      "name": "Fallen City Brawl",
      "slug": "1359270943",
      "service": "gog"
    }
  ],
  "aliases": [],
  "shaders": [],
  "discord_id": "",
  "change_for": null
}