{
  "id": 286743,
  "name": "Beyond Tenmei",
  "slug": "beyond-tenmei",
  "year": null,
  "banner_url": "",
  "icon_url": "",
  "coverart": "https://lutris.net/media/igdb/cover_big/co8a16.jpg",
  "platforms": [],
  "provider_games": [
    {
      "name": "Beyond Tenmei",
      "slug": "beyond-tenmei",
      "service": "igdb"
    }
  ],
  "aliases": [],
  "shaders": [],
  "discord_id": "",
  "change_for": null
}