{
  "id": 80565,
  "name": "Cartoon Line: Part One",
  "slug": "cartoon-line-part-one",
  "year": null,
  "banner_url": "",
  "icon_url": "",
  "coverart": null,
  "platforms": [
    {
      "name": "Acorn Archimedes"
    }
  ],
  "provider_games": [
    {
      "name": "Cartoon Line: Part One",
      "slug": "cartoon-line-part-one",
      "service": "igdb"
    }
  ],
  "aliases": [],
  "shaders": [],
  "discord_id": "",
  "change_for": null
}