{
  "id": 242606,
  "name": "Hayaku! Island of Darkness",
  "slug": "hayaku-island-of-darkness",
  "year": null,
  "banner_url": "",
  "icon_url": "",
  "coverart": "https://lutris.net/media/igdb/cover_big/co6hmi.jpg",
  "platforms": [
    {
      "name": "Windows"
    }
  ],
  "provider_games": [
    {
      "name": "Hayaku! Island of Darkness",
      "slug": "hayaku-island-of-darkness",
      "service": "igdb"
    }
  ],
  "aliases": [],
  "shaders": [],
  "discord_id": "",
  "change_for": null
}