{
  "id": 212211,
  "name": "Ludde",
  "slug": "ludde",
  "year": null,
  "banner_url": "",
  "icon_url": "",
  "coverart": "https://lutris.net/media/igdb/cover_big/co5es5.jpg",
  "platforms": [],
  "provider_games": [
    {
      "name": "Ludde",
      "slug": "ludde",
      "service": "igdb"
    }
  ],
  "aliases": [],
  "shaders": [],
  "discord_id": "",
  "change_for": null
}