{
  "id": 252059,
  "name": "Syzygy: The Power of the Eclipse",
  "slug": "syzygy-the-power-of-the-eclipse",
  "year": 2023,
  "banner_url": "",
  "icon_url": "",
  "coverart": "https://lutris.net/media/igdb/cover_big/co6t1g.jpg",
  "platforms": [
    {
      "name": "Sony Playstation 4"
    },
    {
      "name": "Sony PlayStation 5"
    }
  ],
  "provider_games": [
    {
      "name": "Syzygy: The Power of the Eclipse",
      "slug": "syzygy-the-power-of-the-eclipse",
      "service": "igdb"
    }
  ],
  "aliases": [],
  "shaders": [],
  "discord_id": "",
  "change_for": null
}