{
  "id": 27372,
  "name": "Quattro Adventure",
  "slug": "quattro-adventure",
  "year": 1993,
  "banner_url": "https://lutris.net/games/banner/quattro-adventure.jpg",
  "icon_url": "",
  "coverart": "https://lutris.net/media/igdb/cover_big/co3mfe.jpg",
  "platforms": [
    {
      "name": "Commodore C64/128"
    },
    {
      "name": "NES"
    }
  ],
  "provider_games": [
    {
      "name": "Quattro Adventure",
      "slug": "quattro-adventure",
      "service": "igdb"
    }
  ],
  "aliases": [],
  "shaders": [],
  "discord_id": "",
  "change_for": null
}