{
  "id": 113794,
  "name": "ACA NEOGEO ART OF FIGHTING 3",
  "slug": "aca-neogeo-art-of-fighting-3",
  "year": 2017,
  "banner_url": "",
  "icon_url": "",
  "coverart": "https://lutris.net/media/igdb/cover_big/co22ko.jpg",
  "platforms": [
    {
      "name": "Nintendo Switch"
    },
    {
      "name": "Sony Playstation 4"
    },
    {
      "name": "Xbox One"
    }
  ],
  "provider_games": [
    {
      "name": "ACA NEOGEO ART OF FIGHTING 3",
      "slug": "aca-neogeo-art-of-fighting-3",
      "service": "igdb"
    }
  ],
  "aliases": [],
  "shaders": [],
  "discord_id": "",
  "change_for": null
}