{
  "id": 77633,
  "name": "Zoids Infinity EX NEO",
  "slug": "zoids-infinity-ex-neo",
  "year": null,
  "banner_url": "",
  "icon_url": "",
  "coverart": "https://lutris.net/media/igdb/cover_big/co759y.jpg",
  "platforms": [],
  "provider_games": [
    {
      "name": "Zoids Infinity EX NEO",
      "slug": "zoids-infinity-ex-neo",
      "service": "igdb"
    }
  ],
  "aliases": [],
  "shaders": [],
  "discord_id": "",
  "change_for": null
}