{
  "id": 47266,
  "name": "Enchanted Scepters",
  "slug": "enchanted-scepters",
  "year": 1984,
  "banner_url": "",
  "icon_url": "",
  "coverart": "https://lutris.net/media/igdb/cover_big/pjqsqy6hx7atfnyztg18.jpg",
  "platforms": [
    {
      "name": "Mac"
    }
  ],
  "provider_games": [
    {
      "name": "Enchanted Scepters",
      "slug": "enchanted-scepters",
      "service": "igdb"
    }
  ],
  "aliases": [],
  "shaders": [],
  "discord_id": "",
  "change_for": null
}