{
  "id": 8800,
  "name": "CosmoLands | Space-Adventure",
  "slug": "cosmolands-space-adventure",
  "year": 2016,
  "banner_url": "https://lutris.net/games/banner/cosmolands-space-adventure.jpg",
  "icon_url": "https://lutris.net/games/icon/cosmolands-space-adventure.png",
  "coverart": null,
  "platforms": [
    {
      "name": "Windows"
    }
  ],
  "provider_games": [
    {
      "name": "CosmoLands | Space-Adventure",
      "slug": "cosmolands-space-adventure",
      "service": "igdb"
    }
  ],
  "aliases": [],
  "shaders": [],
  "discord_id": "",
  "change_for": null
}