{
  "id": 86785,
  "name": "Stronghold 3 Gold",
  "slug": "stronghold-3-gold",
  "year": null,
  "banner_url": "",
  "icon_url": "",
  "coverart": null,
  "platforms": [],
  "provider_games": [
    {
      "name": "Stronghold 3 Gold",
      "slug": "stronghold-3-gold",
      "service": "igdb"
    }
  ],
  "aliases": [],
  "shaders": [],
  "discord_id": "",
  "change_for": null
}