{
  "id": 258024,
  "name": "Cropisle TD",
  "slug": "cropisle-td",
  "year": null,
  "banner_url": "",
  "icon_url": "",
  "coverart": "https://lutris.net/media/igdb/cover_big/co72br.jpg",
  "platforms": [],
  "provider_games": [
    {
      "name": "Cropisle TD",
      "slug": "cropisle-td",
      "service": "igdb"
    }
  ],
  "aliases": [],
  "shaders": [],
  "discord_id": "",
  "change_for": null
}