{
  "id": 18335,
  "name": "Vibrant",
  "slug": "vibrant",
  "year": 2017,
  "banner_url": "https://lutris.net/games/banner/vibrant.jpg",
  "icon_url": "https://lutris.net/games/icon/vibrant.png",
  "coverart": null,
  "platforms": [
    {
      "name": "Mac"
    },
    {
      "name": "Windows"
    }
  ],
  "provider_games": [
    {
      "name": "Vibrant",
      "slug": "712430",
      "service": "steam"
    },
    {
      "name": "Vibrant",
      "slug": "vibrant",
      "service": "igdb"
    }
  ],
  "aliases": [],
  "shaders": [],
  "discord_id": "",
  "change_for": null
}