{
  "id": 31125,
  "name": "SURV1V3",
  "slug": "surv1v3",
  "year": 2019,
  "banner_url": "https://lutris.net/games/banner/surv1v3.jpg",
  "icon_url": "https://lutris.net/games/icon/surv1v3.png",
  "coverart": "https://lutris.net/media/igdb/cover_big/co1tje.jpg",
  "platforms": [
    {
      "name": "Oculus VR"
    },
    {
      "name": "SteamVR"
    },
    {
      "name": "Windows"
    }
  ],
  "provider_games": [
    {
      "name": "SURV1V3",
      "slug": "722180",
      "service": "steam"
    },
    {
      "name": "Surv1v3",
      "slug": "surv1v3",
      "service": "igdb"
    }
  ],
  "aliases": [],
  "shaders": [],
  "discord_id": "504056431176056852",
  "change_for": null
}