{
  "id": 64362,
  "name": "Attack On Altair",
  "slug": "attack-on-altair",
  "year": null,
  "banner_url": "",
  "icon_url": "",
  "coverart": "https://lutris.net/media/igdb/cover_big/dqrmzxxr5mnea7hbpbkd.jpg",
  "platforms": [],
  "provider_games": [
    {
      "name": "Attack on Altair",
      "slug": "attack-on-altair",
      "service": "igdb"
    }
  ],
  "aliases": [],
  "shaders": [],
  "discord_id": "",
  "change_for": null
}