{
  "id": 120260,
  "name": "Paulo's Wing",
  "slug": "paulos-wing",
  "year": 2017,
  "banner_url": "https://lutris.net/games/banner/paulos-wing.jpg",
  "icon_url": "",
  "coverart": null,
  "platforms": [
    {
      "name": "Windows"
    }
  ],
  "provider_games": [
    {
      "name": "Paulo's Wing",
      "slug": "592720",
      "service": "steam"
    },
    {
      "name": "Paulo's Wing",
      "slug": "paulos-wing",
      "service": "igdb"
    }
  ],
  "aliases": [],
  "shaders": [],
  "discord_id": "",
  "change_for": null
}