{
  "id": 60039,
  "name": "Joyful Executions",
  "slug": "joyful-executions",
  "year": null,
  "banner_url": "",
  "icon_url": "",
  "coverart": "https://lutris.net/media/igdb/cover_big/wxurhgxb1gtgqn8huhwq.jpg",
  "platforms": [],
  "provider_games": [
    {
      "name": "Joyful Executions",
      "slug": "joyful-executions",
      "service": "igdb"
    }
  ],
  "aliases": [],
  "shaders": [],
  "discord_id": "",
  "change_for": null
}