{
  "id": 46784,
  "name": "Paranormal Pursuit: The Gifted One",
  "slug": "paranormal-pursuit-the-gifted-one",
  "year": 2014,
  "banner_url": "",
  "icon_url": "",
  "coverart": "https://lutris.net/media/igdb/cover_big/qbhuhn4mxgvzxw6iqamo.jpg",
  "platforms": [
    {
      "name": "Windows"
    }
  ],
  "provider_games": [
    {
      "name": "Paranormal Pursuit: The Gifted One",
      "slug": "paranormal-pursuit-the-gifted-one",
      "service": "igdb"
    }
  ],
  "aliases": [],
  "shaders": [],
  "discord_id": "",
  "change_for": null
}