{
  "id": 148987,
  "name": "MORTEM",
  "slug": "mortem",
  "year": 2017,
  "banner_url": "https://lutris.net/games/banner/mortem.jpg",
  "icon_url": "",
  "coverart": null,
  "platforms": [
    {
      "name": "Windows"
    }
  ],
  "provider_games": [
    {
      "name": "MORTEM",
      "slug": "585740",
      "service": "steam"
    },
    {
      "name": "Mortem",
      "slug": "mortem",
      "service": "igdb"
    }
  ],
  "aliases": [],
  "shaders": [],
  "discord_id": "",
  "change_for": null
}