{
  "id": 133230,
  "name": "Big Nose the Caveman",
  "slug": "big-nose-the-caveman",
  "year": 1991,
  "banner_url": "https://lutris.net/games/banner/big-nose-the-caveman.jpg",
  "icon_url": "",
  "coverart": "https://lutris.net/media/igdb/cover_big/co3kwz.jpg",
  "platforms": [
    {
      "name": "Amiga"
    },
    {
      "name": "Atari ST"
    },
    {
      "name": "NES"
    }
  ],
  "provider_games": [
    {
      "name": "Big Nose the Caveman",
      "slug": "big-nose-the-caveman",
      "service": "igdb"
    }
  ],
  "aliases": [],
  "shaders": [],
  "discord_id": "",
  "change_for": null
}