{
  "id": 85665,
  "name": "Mobile Pro Yakyuu: Kantoku no Saihai",
  "slug": "mobile-pro-yakyuu-kantoku-no-saihai",
  "year": 2001,
  "banner_url": "",
  "icon_url": "",
  "coverart": null,
  "platforms": [
    {
      "name": "Nintendo Game Boy Advance"
    }
  ],
  "provider_games": [
    {
      "name": "Mobile Pro Yakyuu: Kantoku no Saihai",
      "slug": "mobile-pro-yakyuu-kantoku-no-saihai",
      "service": "igdb"
    }
  ],
  "aliases": [],
  "shaders": [],
  "discord_id": "",
  "change_for": null
}