{
  "id": 129466,
  "name": "Gravity Circuit",
  "slug": "gravity-circuit",
  "year": null,
  "banner_url": "https://lutris.net/games/banner/gravity-circuit.jpg",
  "icon_url": "",
  "coverart": "https://lutris.net/media/igdb/cover_big/co2tzm.jpg",
  "platforms": [
    {
      "name": "Linux"
    },
    {
      "name": "Mac"
    },
    {
      "name": "Windows"
    }
  ],
  "provider_games": [
    {
      "name": "Gravity Circuit",
      "slug": "858710",
      "service": "steam"
    },
    {
      "name": "Gravity Circuit",
      "slug": "gravity-circuit",
      "service": "igdb"
    },
    {
      "name": "Gravity Circuit",
      "slug": "1201648069",
      "service": "gog"
    }
  ],
  "aliases": [],
  "shaders": [],
  "discord_id": "",
  "change_for": null
}