{
  "id": 123565,
  "name": "Thinnest Judgment",
  "slug": "thinnest-judgment",
  "year": null,
  "banner_url": "",
  "icon_url": "",
  "coverart": null,
  "platforms": [],
  "provider_games": [
    {
      "name": "Thinnest Judgment",
      "slug": "thinnest-judgment",
      "service": "igdb"
    }
  ],
  "aliases": [],
  "shaders": [],
  "discord_id": "",
  "change_for": null
}