{
  "id": 229280,
  "name": "Bridge to Another World: The Others Collector's Edition",
  "slug": "bridge-to-another-world-the-others-collectors-edit",
  "year": null,
  "banner_url": "https://lutris.net/games/banner/bridge-to-another-world-the-others-collectors-edit.jpg",
  "icon_url": "https://lutris.net/games/icon/bridge-to-another-world-the-others-collectors-edit.png",
  "coverart": null,
  "platforms": [],
  "provider_games": [
    {
      "name": "Bridge to Another World: The Others Collector's Edition",
      "slug": "748580",
      "service": "steam"
    }
  ],
  "aliases": [],
  "shaders": [],
  "discord_id": "",
  "change_for": null
}