{
  "id": 185144,
  "name": "Happy Orchard",
  "slug": "happy-orchard",
  "year": null,
  "banner_url": "",
  "icon_url": "",
  "coverart": null,
  "platforms": [],
  "provider_games": [
    {
      "name": "Happy Orchard",
      "slug": "happy-orchard",
      "service": "igdb"
    }
  ],
  "aliases": [],
  "shaders": [],
  "discord_id": "",
  "change_for": null
}