{
  "id": 254702,
  "name": "Closing Time",
  "slug": "closing-time",
  "year": null,
  "banner_url": "",
  "icon_url": "",
  "coverart": "https://lutris.net/media/igdb/cover_big/co6wjv.jpg",
  "platforms": [],
  "provider_games": [
    {
      "name": "Closing Time",
      "slug": "closing-time",
      "service": "igdb"
    }
  ],
  "aliases": [],
  "shaders": [],
  "discord_id": "",
  "change_for": null
}