{
  "id": 18659,
  "name": "Grav Grav Gravity",
  "slug": "grav-grav-gravity",
  "year": 2017,
  "banner_url": "https://lutris.net/games/banner/grav-grav-gravity.jpg",
  "icon_url": "https://lutris.net/games/icon/grav-grav-gravity.png",
  "coverart": "https://lutris.net/media/igdb/cover_big/co2bin.jpg",
  "platforms": [
    {
      "name": "Windows"
    }
  ],
  "provider_games": [
    {
      "name": "Grav Grav Gravity",
      "slug": "grav-grav-gravity",
      "service": "igdb"
    }
  ],
  "aliases": [],
  "shaders": [],
  "discord_id": "",
  "change_for": null
}