{
  "id": 207042,
  "name": "ToontownRonpa: Citizens of Distrust",
  "slug": "toontownronpa-citizens-of-distrust",
  "year": 2022,
  "banner_url": "",
  "icon_url": "",
  "coverart": "https://lutris.net/media/igdb/cover_big/co5usb.jpg",
  "platforms": [
    {
      "name": "Mac"
    },
    {
      "name": "Windows"
    }
  ],
  "provider_games": [
    {
      "name": "ToontownRonpa: Citizens of Distrust",
      "slug": "toontownronpa-citizens-of-distrust",
      "service": "igdb"
    }
  ],
  "aliases": [],
  "shaders": [],
  "discord_id": "",
  "change_for": null
}