{
  "id": 57411,
  "name": "Tonic Tile",
  "slug": "tonic-tile",
  "year": 1987,
  "banner_url": "",
  "icon_url": "",
  "coverart": "https://lutris.net/media/igdb/cover_big/sjwbvotkg816axhdchcr.jpg",
  "platforms": [
    {
      "name": "Atari ST"
    }
  ],
  "provider_games": [
    {
      "name": "Tonic Tile",
      "slug": "tonic-tile",
      "service": "igdb"
    }
  ],
  "aliases": [],
  "shaders": [],
  "discord_id": "",
  "change_for": null
}