{
  "id": 264054,
  "name": "Island of Mine",
  "slug": "island-of-mine",
  "year": null,
  "banner_url": "",
  "icon_url": "",
  "coverart": "https://lutris.net/media/igdb/cover_big/co7ahb.jpg",
  "platforms": [],
  "provider_games": [
    {
      "name": "Island of Mine",
      "slug": "island-of-mine",
      "service": "igdb"
    }
  ],
  "aliases": [],
  "shaders": [],
  "discord_id": "",
  "change_for": null
}