{
  "id": 165644,
  "name": "Hitchhiker",
  "slug": "hitchhiker--1",
  "year": null,
  "banner_url": "",
  "icon_url": "",
  "coverart": "https://lutris.net/media/igdb/cover_big/co42hk.jpg",
  "platforms": [],
  "provider_games": [
    {
      "name": "Hitchhiker",
      "slug": "hitchhiker--1",
      "service": "igdb"
    }
  ],
  "aliases": [],
  "shaders": [],
  "discord_id": "",
  "change_for": null
}