{
  "id": 158307,
  "name": "Presidents vs. Aliens",
  "slug": "presidents-vs-aliens",
  "year": 2011,
  "banner_url": "",
  "icon_url": "",
  "coverart": null,
  "platforms": [],
  "provider_games": [
    {
      "name": "Presidents vs. Aliens",
      "slug": "presidents-vs-aliens",
      "service": "igdb"
    }
  ],
  "aliases": [],
  "shaders": [],
  "discord_id": "",
  "change_for": null
}