{
  "id": 236365,
  "name": "Sugar Tanks",
  "slug": "sugar-tanks",
  "year": null,
  "banner_url": "",
  "icon_url": "",
  "coverart": "https://lutris.net/media/igdb/cover_big/co63se.jpg",
  "platforms": [],
  "provider_games": [
    {
      "name": "Sugar Tanks",
      "slug": "sugar-tanks",
      "service": "igdb"
    }
  ],
  "aliases": [],
  "shaders": [],
  "discord_id": "",
  "change_for": null
}