{
  "id": 165713,
  "name": "Final Fantasy VI: Brave New World",
  "slug": "final-fantasy-vi-brave-new-world",
  "year": 2020,
  "banner_url": "",
  "icon_url": "",
  "coverart": "https://lutris.net/media/igdb/cover_big/co42jg.jpg",
  "platforms": [
    {
      "name": "Windows"
    }
  ],
  "provider_games": [
    {
      "name": "Final Fantasy VI: Brave New World",
      "slug": "final-fantasy-vi-brave-new-world",
      "service": "igdb"
    }
  ],
  "aliases": [],
  "shaders": [],
  "discord_id": "",
  "change_for": null
}