{
  "id": 9633,
  "name": "Arma 3 Community Guide Series",
  "slug": "arma-3-community-guide-series",
  "year": null,
  "banner_url": "https://lutris.net/games/banner/arma-3-community-guide-series.jpg",
  "icon_url": "https://lutris.net/games/icon/arma-3-community-guide-series.png",
  "coverart": null,
  "platforms": [],
  "provider_games": [
    {
      "name": "Arma 3 Community Guide Series",
      "slug": "544940",
      "service": "steam"
    }
  ],
  "aliases": [],
  "shaders": [],
  "discord_id": "",
  "change_for": null
}