{
  "id": 11896,
  "name": "Snowball!",
  "slug": "snowball",
  "year": 2016,
  "banner_url": "https://lutris.net/games/banner/snowball.jpg",
  "icon_url": "https://lutris.net/games/icon/snowball.png",
  "coverart": "https://lutris.net/media/igdb/cover_big/co26yq.jpg",
  "platforms": [
    {
      "name": "Mac"
    },
    {
      "name": "Nintendo Wii U"
    },
    {
      "name": "Windows"
    }
  ],
  "provider_games": [
    {
      "name": "Snowball!",
      "slug": "546550",
      "service": "steam"
    },
    {
      "name": "Snowball!",
      "slug": "snowball",
      "service": "igdb"
    }
  ],
  "aliases": [],
  "shaders": [],
  "discord_id": "",
  "change_for": null
}