{
  "id": 218399,
  "name": "Bounce your Bullets!",
  "slug": "bounce-your-bullets",
  "year": null,
  "banner_url": "",
  "icon_url": "",
  "coverart": "https://lutris.net/media/igdb/cover_big/co5c4b.jpg",
  "platforms": [],
  "provider_games": [
    {
      "name": "Bounce your Bullets!",
      "slug": "bounce-your-bullets",
      "service": "igdb"
    }
  ],
  "aliases": [],
  "shaders": [],
  "discord_id": "",
  "change_for": null
}