{
  "id": 20812,
  "name": "Blonde Driver",
  "slug": "blonde-driver",
  "year": 2018,
  "banner_url": "https://lutris.net/games/banner/blonde-driver.jpg",
  "icon_url": "https://lutris.net/games/icon/blonde-driver.png",
  "coverart": "https://lutris.net/media/igdb/cover_big/co3me9.jpg",
  "platforms": [
    {
      "name": "Windows"
    }
  ],
  "provider_games": [
    {
      "name": "Blonde Driver",
      "slug": "828960",
      "service": "steam"
    },
    {
      "name": "Blonde Driver",
      "slug": "blonde-driver",
      "service": "igdb"
    }
  ],
  "aliases": [],
  "shaders": [],
  "discord_id": "",
  "change_for": null
}