{
  "id": 162040,
  "name": "a pet shop after dark",
  "slug": "a-pet-shop-after-dark",
  "year": 2020,
  "banner_url": "",
  "icon_url": "",
  "coverart": "https://lutris.net/media/igdb/cover_big/co2fn5.jpg",
  "platforms": [
    {
      "name": "Linux"
    },
    {
      "name": "Mac"
    },
    {
      "name": "Windows"
    }
  ],
  "provider_games": [
    {
      "name": "A pet shop after dark",
      "slug": "a-pet-shop-after-dark",
      "service": "igdb"
    },
    {
      "name": "a pet shop after dark",
      "slug": "1130198416",
      "service": "gog"
    }
  ],
  "aliases": [],
  "shaders": [],
  "discord_id": "",
  "change_for": null
}