{
  "id": 5455,
  "game_id": 872,
  "game_slug": "lego-batman-the-videogame",
  "name": "LEGO Batman: The Videogame",
  "year": 2008,
  "user": "FakeShemp",
  "runner": "wine",
  "slug": "lego-batman-the-videogame-gog",
  "version": "GOG",
  "description": null,
  "notes": "",
  "credits": "",
  "created_at": "2017-08-21T15:30:51.564000Z",
  "updated_at": "2021-02-25T07:03:38.038767Z",
  "draft": false,
  "published": true,
  "published_by": 1,
  "rating": "",
  "is_playable": null,
  "steamid": 21000,
  "gogid": 1423058542,
  "gogslug": "lego_batman_the_videogame",
  "humbleid": "",
  "humblestoreid": "",
  "humblestoreid_real": "",
  "script": {
    "files": [
      {
        "file1": "N/A:Please select the GOG installer"
      }
    ],
    "game": {
      "exe": "drive_c/GOG Games/LEGO Batman/LEGOBatman.exe",
      "prefix": "$GAMEDIR"
    },
    "installer": [
      {
        "task": {
          "args": "/sp- /norestart /nogui",
          "executable": "$file1",
          "name": "wineexec",
          "prefix": "$GAMEDIR"
        }
      },
      {
        "task": {
          "app": "d3dx9",
          "name": "winetricks",
          "prefix": "$GAMEDIR"
        }
      },
      {
        "task": {
          "app": "ole32",
          "name": "winetricks",
          "prefix": "$GAMEDIR"
        }
      }
    ]
  },
  "content": "files:\r\n- file1: N/A:Please select the GOG installer\r\ngame:\r\n  exe: drive_c/GOG Games/LEGO Batman/LEGOBatman.exe\r\n  prefix: $GAMEDIR\r\ninstaller:\r\n- task:\r\n    args: /sp- /norestart /nogui\r\n    executable: $file1\r\n    name: wineexec\r\n    prefix: $GAMEDIR\r\n- task:\r\n    app: d3dx9\r\n    name: winetricks\r\n    prefix: $GAMEDIR\r\n- task:\r\n    app: ole32\r\n    name: winetricks\r\n    prefix: $GAMEDIR",
  "discord_id": ""
}