{
  "id": 273864,
  "name": "Mahou no Kuni no Cake-ya-san Monogatari",
  "slug": "mahou-no-kuni-no-cake-ya-san-monogatari",
  "year": null,
  "banner_url": "",
  "icon_url": "",
  "coverart": null,
  "platforms": [
    {
      "name": "Nintendo Game Boy Advance"
    }
  ],
  "provider_games": [
    {
      "name": "Mahou no Kuni no Cake-ya-san Monogatari",
      "slug": "mahou-no-kuni-no-cake-ya-san-monogatari",
      "service": "igdb"
    }
  ],
  "aliases": [],
  "shaders": [],
  "discord_id": "",
  "change_for": null
}