{
  "id": 245770,
  "name": "20 em 1: Game 7",
  "slug": "20-em-1-game-7",
  "year": 1995,
  "banner_url": "",
  "icon_url": "",
  "coverart": null,
  "platforms": [
    {
      "name": "Sega Master System"
    }
  ],
  "provider_games": [
    {
      "name": "20 em 1: Game 7",
      "slug": "20-em-1-game-7",
      "service": "igdb"
    }
  ],
  "aliases": [],
  "shaders": [],
  "discord_id": "",
  "change_for": null
}