{
  "id": 24281,
  "name": "Ice Hockey",
  "slug": "ice-hockey",
  "year": 1988,
  "banner_url": "https://lutris.net/games/banner/ice-hockey.jpg",
  "icon_url": "",
  "coverart": "https://lutris.net/media/igdb/cover_big/co3wo5.jpg",
  "platforms": [
    {
      "name": "Family Computer Disk System"
    },
    {
      "name": "NES"
    },
    {
      "name": "Nintendo Wii"
    },
    {
      "name": "Nintendo Wii U"
    }
  ],
  "provider_games": [
    {
      "name": "Ice Hockey",
      "slug": "ice-hockey",
      "service": "igdb"
    }
  ],
  "aliases": [],
  "shaders": [],
  "discord_id": "",
  "change_for": null
}