{
  "id": 217285,
  "name": "Mahjong Connect Onet Puzzle",
  "slug": "mahjong-connect-onet-puzzle",
  "year": null,
  "banner_url": "",
  "icon_url": "",
  "coverart": "https://lutris.net/media/igdb/cover_big/co55le.jpg",
  "platforms": [],
  "provider_games": [
    {
      "name": "Mahjong Connect Onet Puzzle",
      "slug": "mahjong-connect-onet-puzzle",
      "service": "igdb"
    }
  ],
  "aliases": [],
  "shaders": [],
  "discord_id": "",
  "change_for": null
}