{
  "id": 263250,
  "name": "Solitary Cat",
  "slug": "solitary-cat",
  "year": null,
  "banner_url": "",
  "icon_url": "",
  "coverart": "https://lutris.net/media/igdb/cover_big/co79wo.jpg",
  "platforms": [],
  "provider_games": [
    {
      "name": "Solitary Cat",
      "slug": "solitary-cat",
      "service": "igdb"
    }
  ],
  "aliases": [],
  "shaders": [],
  "discord_id": "",
  "change_for": null
}