{
  "id": 68303,
  "name": "Akane Iro ni Somaru Saka",
  "slug": "akane-iro-ni-somaru-saka",
  "year": null,
  "banner_url": "",
  "icon_url": "",
  "coverart": "https://lutris.net/media/igdb/cover_big/co75pz.jpg",
  "platforms": [],
  "provider_games": [
    {
      "name": "Akane Iro ni Somaru Saka",
      "slug": "akane-iro-ni-somaru-saka",
      "service": "igdb"
    }
  ],
  "aliases": [],
  "shaders": [],
  "discord_id": "",
  "change_for": null
}