{
  "id": 229490,
  "name": "Magic Bean",
  "slug": "magic-bean",
  "year": 1993,
  "banner_url": "",
  "icon_url": "",
  "coverart": null,
  "platforms": [
    {
      "name": "Sega Genesis / Mega Drive"
    }
  ],
  "provider_games": [
    {
      "name": "Magic Bean",
      "slug": "magic-bean",
      "service": "igdb"
    }
  ],
  "aliases": [],
  "shaders": [],
  "discord_id": "",
  "change_for": null
}