{
  "id": 159403,
  "name": "RuneSage",
  "slug": "runesage",
  "year": 2016,
  "banner_url": "https://lutris.net/games/banner/runesage.jpg",
  "icon_url": "",
  "coverart": "https://lutris.net/media/igdb/cover_big/co3yqz.jpg",
  "platforms": [
    {
      "name": "Windows"
    }
  ],
  "provider_games": [
    {
      "name": "RuneSage",
      "slug": "542030",
      "service": "steam"
    },
    {
      "name": "RuneSage",
      "slug": "runesage",
      "service": "igdb"
    }
  ],
  "aliases": [],
  "shaders": [],
  "discord_id": "",
  "change_for": null
}