{
  "id": 296704,
  "name": "Traveling Union",
  "slug": "traveling-union",
  "year": null,
  "banner_url": "",
  "icon_url": "",
  "coverart": "https://lutris.net/media/igdb/cover_big/co8qe2.jpg",
  "platforms": [],
  "provider_games": [
    {
      "name": "Traveling Union",
      "slug": "traveling-union",
      "service": "igdb"
    }
  ],
  "aliases": [],
  "shaders": [],
  "discord_id": "",
  "change_for": null
}