{
  "id": 78837,
  "name": "Empire Deluxe: Masters Edition",
  "slug": "empire-deluxe-masters-edition",
  "year": null,
  "banner_url": "",
  "icon_url": "",
  "coverart": null,
  "platforms": [],
  "provider_games": [
    {
      "name": "Empire Deluxe: Masters Edition",
      "slug": "empire-deluxe-masters-edition",
      "service": "igdb"
    }
  ],
  "aliases": [],
  "shaders": [],
  "discord_id": "",
  "change_for": null
}