{
  "id": 14260,
  "name": "One Dog Story",
  "slug": "one-dog-story",
  "year": 2017,
  "banner_url": "https://lutris.net/games/banner/one-dog-story.jpg",
  "icon_url": "https://lutris.net/games/icon/one-dog-story.png",
  "coverart": "https://lutris.net/media/igdb/cover_big/co21f3.jpg",
  "platforms": [
    {
      "name": "Linux"
    },
    {
      "name": "Mac"
    },
    {
      "name": "Nintendo Switch"
    },
    {
      "name": "Sony Playstation 4"
    },
    {
      "name": "Windows"
    },
    {
      "name": "Xbox One"
    }
  ],
  "provider_games": [
    {
      "name": "One Dog Story",
      "slug": "588110",
      "service": "steam"
    },
    {
      "name": "One Dog Story",
      "slug": "one-dog-story",
      "service": "igdb"
    }
  ],
  "aliases": [],
  "shaders": [],
  "discord_id": "",
  "change_for": null
}