{
  "id": 35263,
  "game_id": 29977,
  "game_slug": "red-dead-redemption-ii",
  "name": "Red Dead Redemption 2",
  "year": 2019,
  "user": "GloriousEggroll",
  "runner": "wine",
  "slug": "red-dead-redemption-2-standalone",
  "version": "Standalone",
  "description": "Only installs Rockstar Games Launcher. You will need to install Red Dead Redemption 2 inside the launcher.",
  "notes": "",
  "credits": "",
  "created_at": "2022-09-11T10:25:55.635682Z",
  "updated_at": "2023-06-13T01:34:29.924340Z",
  "draft": false,
  "published": true,
  "published_by": 1,
  "rating": "",
  "is_playable": null,
  "steamid": 1174180,
  "gogid": null,
  "gogslug": "",
  "humbleid": "",
  "humblestoreid": "",
  "humblestoreid_real": "",
  "script": {
    "files": [
      {
        "launcher": "https://gamedownloads.rockstargames.com/public/installer/Rockstar-Games-Launcher.exe"
      },
      {
        "rdr2reg": "https://gist.githubusercontent.com/GloriousEggroll/5d78c5b801039546d5787d53f5654c23/raw/7ec926ac6c084c7d4563aa2488c9363480ec69d6/rdr2-wine-overrides.reg"
      }
    ],
    "game": {
      "arch": "win64",
      "exe": "drive_c/Program Files/Rockstar Games/Launcher/Launcher.exe",
      "prefix": "$GAMEDIR"
    },
    "installer": [
      {
        "task": {
          "arch": "win64",
          "description": "Creating Wine 64-bit Prefix",
          "name": "create_prefix",
          "prefix": "$GAMEDIR"
        }
      },
      {
        "task": {
          "app": "corefonts arial vcrun2019 win10",
          "arch": "win64",
          "name": "winetricks",
          "prefix": "$GAMEDIR"
        }
      },
      {
        "task": {
          "filename": "rdr2reg",
          "name": "set_regedit_file"
        }
      },
      {
        "task": {
          "arch": "win64",
          "description": "Installing the launcher (Don't login, close the window)",
          "exclude_processes": "RockstarService.exe Launcher.exe LauncherPatcher.exe",
          "executable": "launcher",
          "name": "wineexec",
          "prefix": "$GAMEDIR"
        }
      },
      {
        "task": {
          "name": "winekill",
          "prefix": "$GAMEDIR"
        }
      }
    ],
    "system": {
      "env": {
        "DXVK_HUD": "compiler",
        "SteamGameId": 1174180,
        "__GL_SHADER_DISK_CACHE": 1,
        "__GL_SHADER_DISK_CACHE_PATH": "$GAMEDIR"
      }
    }
  },
  "content": "files:\n- launcher: https://gamedownloads.rockstargames.com/public/installer/Rockstar-Games-Launcher.exe\n- rdr2reg: https://gist.githubusercontent.com/GloriousEggroll/5d78c5b801039546d5787d53f5654c23/raw/7ec926ac6c084c7d4563aa2488c9363480ec69d6/rdr2-wine-overrides.reg\ngame:\n  arch: win64\n  exe: drive_c/Program Files/Rockstar Games/Launcher/Launcher.exe\n  prefix: $GAMEDIR\ninstaller:\n- task:\n    arch: win64\n    description: Creating Wine 64-bit Prefix\n    name: create_prefix\n    prefix: $GAMEDIR\n- task:\n    app: corefonts arial vcrun2019 win10\n    arch: win64\n    name: winetricks\n    prefix: $GAMEDIR\n- task:\n    filename: rdr2reg\n    name: set_regedit_file\n- task:\n    arch: win64\n    description: Installing the launcher (Don't login, close the window)\n    exclude_processes: RockstarService.exe Launcher.exe LauncherPatcher.exe\n    executable: launcher\n    name: wineexec\n    prefix: $GAMEDIR\n- task:\n    name: winekill\n    prefix: $GAMEDIR\nsystem:\n  env:\n    DXVK_HUD: compiler\n    SteamGameId: 1174180\n    __GL_SHADER_DISK_CACHE: 1\n    __GL_SHADER_DISK_CACHE_PATH: $GAMEDIR\n",
  "discord_id": ""
}