{
  "id": 278780,
  "name": "Bokkie",
  "slug": "bokkie",
  "year": null,
  "banner_url": "",
  "icon_url": "",
  "coverart": "https://lutris.net/media/igdb/cover_big/co7xbc.jpg",
  "platforms": [],
  "provider_games": [
    {
      "name": "Bokkie",
      "slug": "bokkie",
      "service": "igdb"
    }
  ],
  "aliases": [],
  "shaders": [],
  "discord_id": "",
  "change_for": null
}