{
  "id": 235630,
  "name": "Dora the Explorer",
  "slug": "dora-the-explorer--1",
  "year": 2005,
  "banner_url": "",
  "icon_url": "",
  "coverart": null,
  "platforms": [
    {
      "name": "Plug & Play"
    }
  ],
  "provider_games": [
    {
      "name": "Dora the Explorer",
      "slug": "dora-the-explorer--1",
      "service": "igdb"
    }
  ],
  "aliases": [],
  "shaders": [],
  "discord_id": "",
  "change_for": null
}