{
  "id": 35184,
  "name": "Ordyne",
  "slug": "ordyne",
  "year": 1988,
  "banner_url": "",
  "icon_url": "https://lutris.net/games/icon/ordyne.png",
  "coverart": "https://lutris.net/media/igdb/cover_big/co2ynb.jpg",
  "platforms": [
    {
      "name": "Arcade"
    },
    {
      "name": "Nintendo Wii"
    },
    {
      "name": "TurboGrafx-16/PC Engine"
    }
  ],
  "provider_games": [
    {
      "name": "Ordyne",
      "slug": "ordyne",
      "service": "mame"
    },
    {
      "name": "Ordyne",
      "slug": "ordyne",
      "service": "igdb"
    }
  ],
  "aliases": [],
  "shaders": [],
  "discord_id": "",
  "change_for": null
}