{
  "id": 121103,
  "name": "Light in the dark",
  "slug": "light-in-the-dark--1",
  "year": null,
  "banner_url": "",
  "icon_url": "",
  "coverart": null,
  "platforms": [],
  "provider_games": [
    {
      "name": "Light in the Dark",
      "slug": "light-in-the-dark--1",
      "service": "igdb"
    }
  ],
  "aliases": [],
  "shaders": [],
  "discord_id": "",
  "change_for": null
}