{
  "id": 283952,
  "name": "Train Simulator + Densha de Go!: Tokyo Kyuukou-hen",
  "slug": "train-simulator-plus-densha-de-go-tokyo-kyuukou-hen",
  "year": 2003,
  "banner_url": "",
  "icon_url": "",
  "coverart": null,
  "platforms": [
    {
      "name": "Sony PlayStation 2"
    }
  ],
  "provider_games": [
    {
      "name": "Train Simulator ＋ Densha de Go!: Tokyo Kyuukou-hen",
      "slug": "train-simulator-plus-densha-de-go-tokyo-kyuukou-hen",
      "service": "igdb"
    }
  ],
  "aliases": [],
  "shaders": [],
  "discord_id": "",
  "change_for": null
}