{
  "id": 45313,
  "name": "Alien",
  "slug": "alien--1",
  "year": null,
  "banner_url": "",
  "icon_url": "",
  "coverart": "https://lutris.net/media/igdb/cover_big/wfj7ontp2x1xcli9hqmk.jpg",
  "platforms": [
    {
      "name": "Amstrad CPC"
    }
  ],
  "provider_games": [
    {
      "name": "Alien",
      "slug": "alien--1",
      "service": "igdb"
    }
  ],
  "aliases": [],
  "shaders": [],
  "discord_id": "",
  "change_for": null
}