{
  "id": 268576,
  "name": "Broken Fifth",
  "slug": "broken-fifth",
  "year": null,
  "banner_url": "",
  "icon_url": "",
  "coverart": "https://lutris.net/media/igdb/cover_big/co7gff.jpg",
  "platforms": [],
  "provider_games": [
    {
      "name": "Broken Fifth",
      "slug": "broken-fifth",
      "service": "igdb"
    }
  ],
  "aliases": [],
  "shaders": [],
  "discord_id": "",
  "change_for": null
}