{
  "id": 64657,
  "name": "XZR",
  "slug": "xzr",
  "year": null,
  "banner_url": "",
  "icon_url": "",
  "coverart": "https://lutris.net/media/igdb/cover_big/k0opamgtxuvzzjgejnl9.jpg",
  "platforms": [],
  "provider_games": [
    {
      "name": "XZR",
      "slug": "xzr",
      "service": "igdb"
    }
  ],
  "aliases": [],
  "shaders": [],
  "discord_id": "",
  "change_for": null
}