{
  "id": 282921,
  "name": "Little Fire Girl Fights Final Boss",
  "slug": "little-fire-girl-fights-final-boss",
  "year": null,
  "banner_url": "",
  "icon_url": "",
  "coverart": "https://lutris.net/media/igdb/cover_big/co8417.jpg",
  "platforms": [],
  "provider_games": [
    {
      "name": "Little Fire Girl Fights Final Boss",
      "slug": "little-fire-girl-fights-final-boss",
      "service": "igdb"
    }
  ],
  "aliases": [],
  "shaders": [],
  "discord_id": "",
  "change_for": null
}