{
  "id": 30726,
  "name": "Heretic Operative",
  "slug": "heretic-operative",
  "year": null,
  "banner_url": "https://lutris.net/games/banner/heretic-operative.jpg",
  "icon_url": "https://lutris.net/games/icon/heretic-operative.png",
  "coverart": "https://lutris.net/media/igdb/cover_big/co2qc2.jpg",
  "platforms": [],
  "provider_games": [
    {
      "name": "Heretic Operative",
      "slug": "958740",
      "service": "steam"
    },
    {
      "name": "Heretic Operative",
      "slug": "heretic-operative",
      "service": "igdb"
    }
  ],
  "aliases": [],
  "shaders": [],
  "discord_id": "",
  "change_for": null
}