{
  "id": 276177,
  "name": "The Enchanted Worlds",
  "slug": "the-enchanted-worlds",
  "year": null,
  "banner_url": "",
  "icon_url": "",
  "coverart": "https://lutris.net/media/igdb/cover_big/co7ux2.jpg",
  "platforms": [],
  "provider_games": [
    {
      "name": "The Enchanted Worlds",
      "slug": "the-enchanted-worlds",
      "service": "igdb"
    }
  ],
  "aliases": [],
  "shaders": [],
  "discord_id": "",
  "change_for": null
}