{
  "id": 277209,
  "name": "Hidden in my Paradise",
  "slug": "hidden-in-my-paradise",
  "year": null,
  "banner_url": "",
  "icon_url": "",
  "coverart": "https://lutris.net/media/igdb/cover_big/co7w3f.jpg",
  "platforms": [],
  "provider_games": [
    {
      "name": "Hidden in my Paradise",
      "slug": "hidden-in-my-paradise",
      "service": "igdb"
    }
  ],
  "aliases": [],
  "shaders": [],
  "discord_id": "",
  "change_for": null
}