{
  "id": 290287,
  "name": "Fakutori",
  "slug": "fakutori",
  "year": null,
  "banner_url": "",
  "icon_url": "",
  "coverart": "https://lutris.net/media/igdb/cover_big/co8jiq.jpg",
  "platforms": [],
  "provider_games": [
    {
      "name": "Fakutori",
      "slug": "fakutori",
      "service": "igdb"
    }
  ],
  "aliases": [],
  "shaders": [],
  "discord_id": "",
  "change_for": null
}