{
  "id": 186395,
  "name": "The Dust of the Violet Crystals",
  "slug": "the-dust-of-the-violet-crystals",
  "year": null,
  "banner_url": "",
  "icon_url": "",
  "coverart": "https://lutris.net/media/igdb/cover_big/co829j.jpg",
  "platforms": [],
  "provider_games": [
    {
      "name": "The Dust of the Violet Crystals",
      "slug": "the-dust-of-the-violet-crystals",
      "service": "igdb"
    }
  ],
  "aliases": [],
  "shaders": [],
  "discord_id": "",
  "change_for": null
}