{
  "id": 61763,
  "name": "BUSTin-Out: Volume #1",
  "slug": "bustin-out-volume-number-1",
  "year": null,
  "banner_url": "",
  "icon_url": "",
  "coverart": "https://lutris.net/media/igdb/cover_big/i4ngpwvkci5vmgtxf9ji.jpg",
  "platforms": [],
  "provider_games": [
    {
      "name": "BUSTin-Out: Volume #1",
      "slug": "bustin-out-volume-number-1",
      "service": "igdb"
    }
  ],
  "aliases": [],
  "shaders": [],
  "discord_id": "",
  "change_for": null
}