{
  "id": 30770,
  "name": "Ronaldinho Soccer 97",
  "slug": "ronaldinho-soccer-97",
  "year": 1995,
  "banner_url": "https://lutris.net/games/banner/ronaldinho-soccer-97.jpg",
  "icon_url": "",
  "coverart": "https://lutris.net/media/igdb/cover_big/co4amz.jpg",
  "platforms": [
    {
      "name": "Super Nintendo"
    }
  ],
  "provider_games": [
    {
      "name": "Ronaldinho Soccer 97",
      "slug": "ronaldinho-soccer-97",
      "service": "igdb"
    }
  ],
  "aliases": [],
  "shaders": [],
  "discord_id": "",
  "change_for": null
}