{
  "id": 13634,
  "game_id": 23513,
  "game_slug": "dark-parables-the-little-mermaid-and-the-purple-ti",
  "name": "Dark Parables: The Little Mermaid and the Purple Tide Collector's Edition",
  "year": 2014,
  "user": "kimchitea",
  "runner": "steam",
  "slug": "dark-parables-the-little-merm-steam-proton",
  "version": "Steam Proton",
  "description": null,
  "notes": "",
  "credits": "",
  "created_at": "2019-05-19T23:04:00.859000Z",
  "updated_at": "2019-05-21T23:54:48.965766Z",
  "draft": false,
  "published": true,
  "published_by": 19464,
  "rating": "",
  "is_playable": null,
  "steamid": 453390,
  "gogid": null,
  "gogslug": "",
  "humbleid": "",
  "humblestoreid": "",
  "humblestoreid_real": "",
  "script": {
    "game": {
      "appid": 453390
    }
  },
  "content": "game:\n  appid: 453390\n",
  "discord_id": ""
}