{
  "id": 61293,
  "name": "Gegege no Kitarou: Youkai Daigekisen",
  "slug": "gegege-no-kitarou-youkai-daigekisen",
  "year": null,
  "banner_url": "",
  "icon_url": "",
  "coverart": "https://lutris.net/media/igdb/cover_big/co5y5q.jpg",
  "platforms": [],
  "provider_games": [
    {
      "name": "Gegege no Kitarou: Youkai Daigekisen",
      "slug": "gegege-no-kitarou-youkai-daigekisen",
      "service": "igdb"
    }
  ],
  "aliases": [],
  "shaders": [],
  "discord_id": "",
  "change_for": null
}