{
  "id": 142871,
  "name": "Pluvia: Episode I",
  "slug": "pluvia-episode-i",
  "year": null,
  "banner_url": "",
  "icon_url": "",
  "coverart": "https://lutris.net/media/igdb/cover_big/co3u1f.jpg",
  "platforms": [],
  "provider_games": [
    {
      "name": "Pluvia: Episode I",
      "slug": "pluvia-episode-i",
      "service": "igdb"
    }
  ],
  "aliases": [],
  "shaders": [],
  "discord_id": "",
  "change_for": null
}