{
  "id": 174664,
  "name": "Jabroni Brawl: Episode 3",
  "slug": "jabroni-brawl-episode-3",
  "year": null,
  "banner_url": "",
  "icon_url": "",
  "coverart": "https://lutris.net/media/igdb/cover_big/co2gyt.jpg",
  "platforms": [
    {
      "name": "Linux"
    },
    {
      "name": "Windows"
    }
  ],
  "provider_games": [
    {
      "name": "Jabroni Brawl: Episode 3",
      "slug": "jabroni-brawl-episode-3",
      "service": "igdb"
    }
  ],
  "aliases": [],
  "shaders": [],
  "discord_id": "",
  "change_for": null
}