{
  "id": 220736,
  "name": "Kaichu: The Kaiju Dating Sim",
  "slug": "kaichu-the-kaiju-dating-sim",
  "year": 2022,
  "banner_url": "",
  "icon_url": "",
  "coverart": "https://lutris.net/media/igdb/cover_big/co4uyu.jpg",
  "platforms": [
    {
      "name": "Mac"
    },
    {
      "name": "Sony Playstation 4"
    },
    {
      "name": "Sony PlayStation 5"
    },
    {
      "name": "Windows"
    },
    {
      "name": "Xbox One"
    },
    {
      "name": "Xbox Series X|S"
    }
  ],
  "provider_games": [
    {
      "name": "Kaichu: The Kaiju Dating Sim",
      "slug": "kaichu-the-kaiju-dating-sim",
      "service": "igdb"
    }
  ],
  "aliases": [],
  "shaders": [],
  "discord_id": "",
  "change_for": null
}