{
  "id": 217854,
  "name": "Xyz Crossing",
  "slug": "xyz-crossing",
  "year": null,
  "banner_url": "",
  "icon_url": "",
  "coverart": "https://lutris.net/media/igdb/cover_big/co53xn.jpg",
  "platforms": [],
  "provider_games": [
    {
      "name": "Xyz Crossing",
      "slug": "xyz-crossing",
      "service": "igdb"
    }
  ],
  "aliases": [],
  "shaders": [],
  "discord_id": "",
  "change_for": null
}