{
  "id": 115300,
  "name": "Football: The Hardest Job",
  "slug": "football-the-hardest-job",
  "year": null,
  "banner_url": "",
  "icon_url": "",
  "coverart": "https://lutris.net/media/igdb/cover_big/co3c50.jpg",
  "platforms": [],
  "provider_games": [
    {
      "name": "Football: The Hardest Job",
      "slug": "football-the-hardest-job",
      "service": "igdb"
    }
  ],
  "aliases": [],
  "shaders": [],
  "discord_id": "",
  "change_for": null
}