{
  "id": 172681,
  "name": "Stick RPG 2: Director's Cut",
  "slug": "stick-rpg-2-directors-cut--1",
  "year": null,
  "banner_url": "",
  "icon_url": "",
  "coverart": "https://lutris.net/media/igdb/cover_big/co8ud6.jpg",
  "platforms": [],
  "provider_games": [
    {
      "name": "Stick RPG 2: Director's Cut",
      "slug": "stick-rpg-2-directors-cut--1",
      "service": "igdb"
    }
  ],
  "aliases": [],
  "shaders": [],
  "discord_id": "",
  "change_for": null
}