{
  "id": 85374,
  "name": "Panda Prince",
  "slug": "panda-prince",
  "year": null,
  "banner_url": "",
  "icon_url": "",
  "coverart": null,
  "platforms": [],
  "provider_games": [
    {
      "name": "Panda Prince",
      "slug": "panda-prince",
      "service": "igdb"
    }
  ],
  "aliases": [],
  "shaders": [],
  "discord_id": "",
  "change_for": null
}