{
  "id": 116185,
  "name": "Gleamlight",
  "slug": "gleamlight",
  "year": 2020,
  "banner_url": "https://lutris.net/games/banner/gleamlight.jpg",
  "icon_url": "",
  "coverart": "https://lutris.net/media/igdb/cover_big/co1xml.jpg",
  "platforms": [
    {
      "name": "Nintendo Switch"
    },
    {
      "name": "Sony Playstation 4"
    },
    {
      "name": "Windows"
    },
    {
      "name": "Xbox One"
    }
  ],
  "provider_games": [
    {
      "name": "Gleamlight",
      "slug": "1199370",
      "service": "steam"
    },
    {
      "name": "Gleamlight",
      "slug": "gleamlight",
      "service": "igdb"
    }
  ],
  "aliases": [],
  "shaders": [],
  "discord_id": "",
  "change_for": null
}