{
  "id": 114495,
  "name": "Driver 2 Advance",
  "slug": "driver-2-advance",
  "year": 2002,
  "banner_url": "",
  "icon_url": "",
  "coverart": "https://lutris.net/media/igdb/cover_big/co3b3r.jpg",
  "platforms": [
    {
      "name": "Nintendo Game Boy Advance"
    }
  ],
  "provider_games": [
    {
      "name": "Driver 2 Advance",
      "slug": "driver-2-advance",
      "service": "igdb"
    }
  ],
  "aliases": [],
  "shaders": [],
  "discord_id": "",
  "change_for": null
}