{
  "id": 178021,
  "name": "Pretty Girls Mahjong Solitaire: Blue",
  "slug": "pretty-girls-mahjong-solitaire-blue",
  "year": 2021,
  "banner_url": "",
  "icon_url": "",
  "coverart": "https://lutris.net/media/igdb/cover_big/co3tx2.jpg",
  "platforms": [
    {
      "name": "Sony Playstation 4"
    },
    {
      "name": "Sony PlayStation 5"
    }
  ],
  "provider_games": [
    {
      "name": "Pretty Girls Mahjong Solitaire: Blue",
      "slug": "pretty-girls-mahjong-solitaire-blue",
      "service": "igdb"
    }
  ],
  "aliases": [],
  "shaders": [],
  "discord_id": "",
  "change_for": null
}