{
  "id": 226201,
  "name": "Monstopia: Chronicle Of Jade's",
  "slug": "monstopia-chronicle-of-jades",
  "year": null,
  "banner_url": "",
  "icon_url": "",
  "coverart": "https://lutris.net/media/igdb/cover_big/co5ljh.jpg",
  "platforms": [],
  "provider_games": [
    {
      "name": "Monstopia: Chronicle of Jade's",
      "slug": "monstopia-chronicle-of-jades",
      "service": "igdb"
    }
  ],
  "aliases": [],
  "shaders": [],
  "discord_id": "",
  "change_for": null
}