{
  "id": 107520,
  "name": "Doraemon: Nobita's Resident Evil",
  "slug": "doraemon-nobitas-resident-evil",
  "year": 2007,
  "banner_url": "",
  "icon_url": "",
  "coverart": "https://lutris.net/media/igdb/cover_big/co2va1.jpg",
  "platforms": [
    {
      "name": "Windows"
    }
  ],
  "provider_games": [
    {
      "name": "Doraemon: Nobita's Resident Evil",
      "slug": "doraemon-nobitas-resident-evil",
      "service": "igdb"
    }
  ],
  "aliases": [],
  "shaders": [],
  "discord_id": "",
  "change_for": null
}