{
  "id": 75497,
  "name": "The King of Fighters-I",
  "slug": "the-king-of-fighters-i",
  "year": null,
  "banner_url": "",
  "icon_url": "",
  "coverart": "https://lutris.net/media/igdb/cover_big/co5wwg.jpg",
  "platforms": [],
  "provider_games": [
    {
      "name": "The King of Fighters-I",
      "slug": "the-king-of-fighters-i",
      "service": "igdb"
    }
  ],
  "aliases": [],
  "shaders": [],
  "discord_id": "",
  "change_for": null
}