{
  "id": 256781,
  "name": "Laruaville 2",
  "slug": "laruaville-2",
  "year": null,
  "banner_url": "",
  "icon_url": "",
  "coverart": "https://lutris.net/media/igdb/cover_big/co6yuk.jpg",
  "platforms": [],
  "provider_games": [
    {
      "name": "Laruaville 2",
      "slug": "laruaville-2",
      "service": "igdb"
    }
  ],
  "aliases": [],
  "shaders": [],
  "discord_id": "",
  "change_for": null
}