{
  "id": 66914,
  "name": "Entaku no Seito 2",
  "slug": "entaku-no-seito-2",
  "year": 2018,
  "banner_url": "",
  "icon_url": "",
  "coverart": "https://lutris.net/media/igdb/cover_big/enjcwwawa74ahneixmi7.jpg",
  "platforms": [
    {
      "name": "Xbox One"
    }
  ],
  "provider_games": [
    {
      "name": "Entaku no Seito 2",
      "slug": "entaku-no-seito-2",
      "service": "igdb"
    }
  ],
  "aliases": [],
  "shaders": [],
  "discord_id": "",
  "change_for": null
}