{
  "id": 28197,
  "name": "UWT - 3. 3DS Max Unwrap - Chapter 4.2",
  "slug": "uwt-3-3ds-max-unwrap-chapter-42",
  "year": null,
  "banner_url": "https://lutris.net/games/banner/uwt-3-3ds-max-unwrap-chapter-42.jpg",
  "icon_url": "https://lutris.net/games/icon/uwt-3-3ds-max-unwrap-chapter-42.png",
  "coverart": null,
  "platforms": [],
  "provider_games": [
    {
      "name": "UWT - 3. 3DS Max Unwrap - Chapter 4.2",
      "slug": "423055",
      "service": "steam"
    }
  ],
  "aliases": [],
  "shaders": [],
  "discord_id": "",
  "change_for": null
}