{
  "id": 261989,
  "name": "Portal Puzzle",
  "slug": "portal-puzzle",
  "year": null,
  "banner_url": "",
  "icon_url": "",
  "coverart": "https://lutris.net/media/igdb/cover_big/co76lg.jpg",
  "platforms": [],
  "provider_games": [
    {
      "name": "Portal Puzzle",
      "slug": "portal-puzzle",
      "service": "igdb"
    }
  ],
  "aliases": [],
  "shaders": [],
  "discord_id": "",
  "change_for": null
}