{
  "id": 66097,
  "name": "World League Soccer 2000",
  "slug": "world-league-soccer-2000",
  "year": null,
  "banner_url": "",
  "icon_url": "",
  "coverart": "https://lutris.net/media/igdb/cover_big/yodjmjksh6jdenzynghu.jpg",
  "platforms": [],
  "provider_games": [
    {
      "name": "World League Soccer 2000",
      "slug": "world-league-soccer-2000",
      "service": "igdb"
    }
  ],
  "aliases": [],
  "shaders": [],
  "discord_id": "",
  "change_for": null
}