{
  "id": 74641,
  "name": "X-Noir",
  "slug": "x-noir",
  "year": null,
  "banner_url": "",
  "icon_url": "",
  "coverart": "https://lutris.net/media/igdb/cover_big/co6sru.jpg",
  "platforms": [],
  "provider_games": [
    {
      "name": "X-Noir",
      "slug": "x-noir",
      "service": "igdb"
    }
  ],
  "aliases": [],
  "shaders": [],
  "discord_id": "",
  "change_for": null
}