{
  "id": 230536,
  "name": "DinoDash",
  "slug": "dinodash",
  "year": null,
  "banner_url": "",
  "icon_url": "",
  "coverart": "https://lutris.net/media/igdb/cover_big/co6d2l.jpg",
  "platforms": [],
  "provider_games": [
    {
      "name": "DinoDash",
      "slug": "dinodash",
      "service": "igdb"
    }
  ],
  "aliases": [],
  "shaders": [],
  "discord_id": "",
  "change_for": null
}