{
  "id": 10818,
  "name": "Angel Express [Tokkyu Tenshi]",
  "slug": "angel-express-tokkyu-tenshi",
  "year": 2016,
  "banner_url": "https://lutris.net/games/banner/angel-express-tokkyu-tenshi.jpg",
  "icon_url": "https://lutris.net/games/icon/angel-express-tokkyu-tenshi.png",
  "coverart": "https://lutris.net/media/igdb/cover_big/co4zy3.jpg",
  "platforms": [
    {
      "name": "Windows"
    }
  ],
  "provider_games": [
    {
      "name": "Angel Express [Tokkyu Tenshi]",
      "slug": "470480",
      "service": "steam"
    },
    {
      "name": "Angel Express: Tokkyu Tenshi",
      "slug": "angel-express-tokkyu-tenshi",
      "service": "igdb"
    }
  ],
  "aliases": [],
  "shaders": [],
  "discord_id": "",
  "change_for": null
}