{
  "id": 52276,
  "name": "Outzone",
  "slug": "outzone",
  "year": 1991,
  "banner_url": "",
  "icon_url": "",
  "coverart": "https://lutris.net/media/igdb/cover_big/xcrrcuazo7hrmoku1imc.jpg",
  "platforms": [
    {
      "name": "Atari ST"
    }
  ],
  "provider_games": [
    {
      "name": "Outzone",
      "slug": "outzone",
      "service": "igdb"
    }
  ],
  "aliases": [],
  "shaders": [],
  "discord_id": "",
  "change_for": null
}