{
  "id": 261655,
  "name": "Perfect Bird Pitch",
  "slug": "perfect-bird-pitch",
  "year": null,
  "banner_url": "",
  "icon_url": "",
  "coverart": "https://lutris.net/media/igdb/cover_big/co777j.jpg",
  "platforms": [],
  "provider_games": [
    {
      "name": "Perfect Bird Pitch",
      "slug": "perfect-bird-pitch",
      "service": "igdb"
    }
  ],
  "aliases": [],
  "shaders": [],
  "discord_id": "",
  "change_for": null
}