{
  "id": 279978,
  "name": "The Beast in the Shadows",
  "slug": "the-beast-in-the-shadows",
  "year": null,
  "banner_url": "",
  "icon_url": "",
  "coverart": "https://lutris.net/media/igdb/cover_big/co8113.jpg",
  "platforms": [],
  "provider_games": [
    {
      "name": "The Beast in the Shadows",
      "slug": "the-beast-in-the-shadows",
      "service": "igdb"
    }
  ],
  "aliases": [],
  "shaders": [],
  "discord_id": "",
  "change_for": null
}