{
  "id": 106048,
  "name": "@Simple V Series Vol. 2: The Tousou Highway Full Boost - Nagoya-Tokyo Gekisou 4-Jikan",
  "slug": "at-simple-v-series-vol-2-the-tousou-highway-full-boost-nagoya-tokyo-gekisou-4-jikan",
  "year": 2014,
  "banner_url": "",
  "icon_url": "",
  "coverart": "https://lutris.net/media/igdb/cover_big/co2tsu.jpg",
  "platforms": [
    {
      "name": "PlayStation Vita"
    }
  ],
  "provider_games": [
    {
      "name": "@Simple V Series Vol. 2: The Tousou Highway Full Boost - Nagoya-Tokyo Gekisou 4-Jikan",
      "slug": "at-simple-v-series-vol-2-the-tousou-highway-full-boost-nagoya-tokyo-gekisou-4-jikan",
      "service": "igdb"
    }
  ],
  "aliases": [],
  "shaders": [],
  "discord_id": "",
  "change_for": null
}