{
  "id": 118835,
  "name": "Fire And Thunder",
  "slug": "fire-and-thunder",
  "year": null,
  "banner_url": "",
  "icon_url": "",
  "coverart": null,
  "platforms": [],
  "provider_games": [
    {
      "name": "Fire and Thunder",
      "slug": "fire-and-thunder",
      "service": "igdb"
    }
  ],
  "aliases": [],
  "shaders": [],
  "discord_id": "",
  "change_for": null
}