{
  "id": 263055,
  "name": "Poly Survivor",
  "slug": "poly-survivor",
  "year": null,
  "banner_url": "",
  "icon_url": "",
  "coverart": "https://lutris.net/media/igdb/cover_big/co77ht.jpg",
  "platforms": [],
  "provider_games": [
    {
      "name": "Poly Survivor",
      "slug": "poly-survivor",
      "service": "igdb"
    }
  ],
  "aliases": [],
  "shaders": [],
  "discord_id": "",
  "change_for": null
}