{
  "id": 118080,
  "name": "Thexder 95",
  "slug": "thexder-95",
  "year": null,
  "banner_url": "",
  "icon_url": "",
  "coverart": "https://lutris.net/media/igdb/cover_big/co3gsy.jpg",
  "platforms": [],
  "provider_games": [
    {
      "name": "Thexder 95",
      "slug": "thexder-95",
      "service": "igdb"
    }
  ],
  "aliases": [],
  "shaders": [],
  "discord_id": "",
  "change_for": null
}