{
  "id": 161210,
  "name": "Love of Dragons",
  "slug": "love-of-dragons",
  "year": null,
  "banner_url": "",
  "icon_url": "",
  "coverart": "https://lutris.net/media/igdb/cover_big/co45hc.jpg",
  "platforms": [],
  "provider_games": [
    {
      "name": "Love of Dragons",
      "slug": "love-of-dragons",
      "service": "igdb"
    }
  ],
  "aliases": [],
  "shaders": [],
  "discord_id": "",
  "change_for": null
}