{
  "id": 72366,
  "name": "KC Returns!",
  "slug": "kc-returns",
  "year": null,
  "banner_url": "",
  "icon_url": "",
  "coverart": "https://lutris.net/media/igdb/cover_big/co4yjc.jpg",
  "platforms": [],
  "provider_games": [
    {
      "name": "KC Returns!",
      "slug": "kc-returns",
      "service": "igdb"
    }
  ],
  "aliases": [],
  "shaders": [],
  "discord_id": "",
  "change_for": null
}