{
  "id": 149752,
  "name": "Dead Wishes",
  "slug": "dead-wishes",
  "year": null,
  "banner_url": "https://lutris.net/games/banner/dead-wishes.jpg",
  "icon_url": "",
  "coverart": "https://lutris.net/media/igdb/cover_big/co6k40.jpg",
  "platforms": [],
  "provider_games": [
    {
      "name": "Dead Wishes",
      "slug": "1010970",
      "service": "steam"
    },
    {
      "name": "Dead Wishes",
      "slug": "dead-wishes",
      "service": "igdb"
    }
  ],
  "aliases": [],
  "shaders": [],
  "discord_id": "",
  "change_for": null
}