{
  "id": 18223,
  "name": "Syrinscape BoardGame Player",
  "slug": "syrinscape-boardgame-player",
  "year": null,
  "banner_url": "https://lutris.net/games/banner/syrinscape-boardgame-player.jpg",
  "icon_url": "",
  "coverart": null,
  "platforms": [
    {
      "name": "Windows"
    }
  ],
  "provider_games": [],
  "aliases": [],
  "shaders": [],
  "discord_id": "",
  "change_for": null
}