{
  "id": 131122,
  "name": "DMC4SE Demon Hunter Bundle",
  "slug": "dmc4se-demon-hunter-bundle",
  "year": 2016,
  "banner_url": "",
  "icon_url": "",
  "coverart": "https://lutris.net/media/igdb/cover_big/ze8huqkmh8g3jchqk83l.jpg",
  "platforms": [
    {
      "name": "Xbox One"
    }
  ],
  "provider_games": [
    {
      "name": "DMC4SE Demon Hunter Bundle",
      "slug": "dmc4se-demon-hunter-bundle",
      "service": "igdb"
    }
  ],
  "aliases": [],
  "shaders": [],
  "discord_id": "",
  "change_for": null
}