{
  "id": 24782,
  "name": "Digit Daze",
  "slug": "digit-daze",
  "year": null,
  "banner_url": "https://lutris.net/games/banner/digit-daze.jpg",
  "icon_url": "https://lutris.net/games/icon/digit-daze.png",
  "coverart": null,
  "platforms": [],
  "provider_games": [
    {
      "name": "Digit Daze",
      "slug": "digit-daze",
      "service": "igdb"
    }
  ],
  "aliases": [],
  "shaders": [],
  "discord_id": "",
  "change_for": null
}