{
  "id": 275859,
  "name": "The Murder of Dale Decker",
  "slug": "the-murder-of-dale-decker",
  "year": 2024,
  "banner_url": "",
  "icon_url": "",
  "coverart": "https://lutris.net/media/igdb/cover_big/co7v02.jpg",
  "platforms": [
    {
      "name": "Windows"
    }
  ],
  "provider_games": [
    {
      "name": "The Murder of Dale Decker",
      "slug": "the-murder-of-dale-decker",
      "service": "igdb"
    }
  ],
  "aliases": [],
  "shaders": [],
  "discord_id": "",
  "change_for": null
}