{
  "id": 3011,
  "game_id": 5003,
  "game_slug": "endless-sky",
  "name": "Endless Sky",
  "year": 2015,
  "user": "strider",
  "runner": "linux",
  "slug": "endless-sky-094",
  "version": "0.9.4",
  "description": "",
  "notes": "",
  "credits": "",
  "created_at": "2016-11-14T21:26:38.845123Z",
  "updated_at": "2024-04-03T05:34:04.305034Z",
  "draft": false,
  "published": true,
  "published_by": null,
  "rating": "",
  "is_playable": null,
  "steamid": 404410,
  "gogid": 1829678475,
  "gogslug": "endless_sky",
  "humbleid": "",
  "humblestoreid": "",
  "humblestoreid_real": "",
  "script": {
    "files": [
      {
        "endless_sky_094": "https://lutris.net/files/games/endless-sky/endless-sky-0.9.4-x86_64.tar.gz"
      }
    ],
    "game": {
      "exe": "endless-sky"
    },
    "installer": [
      {
        "extract": {
          "file": "endless_sky_094"
        }
      }
    ]
  },
  "content": "files:\n- endless_sky_094: https://lutris.net/files/games/endless-sky/endless-sky-0.9.4-x86_64.tar.gz\ngame:\n  exe: endless-sky\ninstaller:\n- extract:\n    file: endless_sky_094\n",
  "discord_id": ""
}