{
  "id": 111270,
  "name": "UFO Kamen Yakisoban: Kettler no Kuroi Inbou",
  "slug": "ufo-kamen-yakisoban-kettler-no-kuroi-inbou",
  "year": 1994,
  "banner_url": "",
  "icon_url": "",
  "coverart": "https://lutris.net/media/igdb/cover_big/co3051.jpg",
  "platforms": [
    {
      "name": "Super Nintendo"
    }
  ],
  "provider_games": [
    {
      "name": "U.F.O. Kamen Yakisoban: Kettler no Kuroi Inbou",
      "slug": "ufo-kamen-yakisoban-kettler-no-kuroi-inbou",
      "service": "igdb"
    }
  ],
  "aliases": [],
  "shaders": [],
  "discord_id": "",
  "change_for": null
}