{
  "id": 153126,
  "name": "Defending Frontiers",
  "slug": "defending-frontiers",
  "year": null,
  "banner_url": "",
  "icon_url": "",
  "coverart": "https://lutris.net/media/igdb/cover_big/co3ob8.jpg",
  "platforms": [],
  "provider_games": [
    {
      "name": "Defending Frontiers",
      "slug": "defending-frontiers",
      "service": "igdb"
    }
  ],
  "aliases": [],
  "shaders": [],
  "discord_id": "",
  "change_for": null
}