{
  "id": 305311,
  "name": "Angry Video Game Nerd 8-bit",
  "slug": "angry-video-game-nerd-8-bit",
  "year": null,
  "banner_url": "",
  "icon_url": "",
  "coverart": "https://lutris.net/media/igdb/cover_big/co9b5b.jpg",
  "platforms": [
    {
      "name": "Windows"
    }
  ],
  "provider_games": [
    {
      "name": "Angry Video Game Nerd 8-bit",
      "slug": "angry-video-game-nerd-8-bit",
      "service": "igdb"
    }
  ],
  "aliases": [],
  "shaders": [],
  "discord_id": "",
  "change_for": null
}