{
  "id": 68649,
  "name": "Bram Stoker's Dracula Pinball",
  "slug": "bram-stokers-dracula-pinball",
  "year": null,
  "banner_url": "",
  "icon_url": "",
  "coverart": "https://lutris.net/media/igdb/cover_big/o9vaqaaovcgbbntepfij.jpg",
  "platforms": [],
  "provider_games": [
    {
      "name": "Bram Stoker's Dracula Pinball",
      "slug": "bram-stokers-dracula-pinball",
      "service": "igdb"
    }
  ],
  "aliases": [],
  "shaders": [],
  "discord_id": "",
  "change_for": null
}