{
  "id": 189918,
  "name": "Jack Axe",
  "slug": "jack-axe",
  "year": 2020,
  "banner_url": "https://lutris.net/games/banner/jack-axe.jpg",
  "icon_url": "",
  "coverart": "https://lutris.net/media/igdb/cover_big/co3wlu.jpg",
  "platforms": [
    {
      "name": "Nintendo Switch"
    },
    {
      "name": "Windows"
    }
  ],
  "provider_games": [
    {
      "name": "Jack Axe",
      "slug": "985780",
      "service": "steam"
    },
    {
      "name": "Jack Axe",
      "slug": "jack-axe",
      "service": "igdb"
    }
  ],
  "aliases": [],
  "shaders": [],
  "discord_id": "",
  "change_for": null
}