{
  "id": 189777,
  "name": "Memories Off: Innocent Fille - Noelle Fullbloom",
  "slug": "memories-off-innocent-fille-noelle-fullbloom",
  "year": 2021,
  "banner_url": "",
  "icon_url": "",
  "coverart": "https://lutris.net/media/igdb/cover_big/co2wm7.jpg",
  "platforms": [
    {
      "name": "Nintendo Switch"
    },
    {
      "name": "Sony Playstation 4"
    }
  ],
  "provider_games": [
    {
      "name": "Memories Off: Innocent Fille - Noelle Fullbloom",
      "slug": "memories-off-innocent-fille-noelle-fullbloom",
      "service": "igdb"
    }
  ],
  "aliases": [],
  "shaders": [],
  "discord_id": "",
  "change_for": null
}