{
  "id": 117851,
  "name": "Mario & Luigi: Kola Kingdom Quest",
  "slug": "mario-and-luigi-kola-kingdom-quest",
  "year": 2015,
  "banner_url": "",
  "icon_url": "",
  "coverart": "https://lutris.net/media/igdb/cover_big/co298u.jpg",
  "platforms": [
    {
      "name": "Super Nintendo"
    }
  ],
  "provider_games": [
    {
      "name": "Mario & Luigi: Kola Kingdom Quest",
      "slug": "mario-and-luigi-kola-kingdom-quest",
      "service": "igdb"
    }
  ],
  "aliases": [],
  "shaders": [],
  "discord_id": "",
  "change_for": null
}