{
  "id": 1316,
  "name": "Command & Conquer 3: Tiberium Wars",
  "slug": "command-and-conquer-3-tiberium-wars",
  "year": 2007,
  "banner_url": "https://lutris.net/games/banner/command-and-conquer-3-tiberium-wars.jpg",
  "icon_url": "https://lutris.net/games/icon/command-and-conquer-3-tiberium-wars.png",
  "coverart": null,
  "platforms": [
    {
      "name": "Windows"
    }
  ],
  "provider_games": [
    {
      "name": "Command & Conquer 3: Tiberium Wars™",
      "slug": "24790",
      "service": "steam"
    }
  ],
  "aliases": [],
  "shaders": [],
  "discord_id": "",
  "change_for": null
}