{
  "id": 236069,
  "name": "Rhapsody III: Memories of Marl Kingdom",
  "slug": "rhapsody-iii-memories-of-marl-kingdom",
  "year": null,
  "banner_url": "",
  "icon_url": "",
  "coverart": "https://lutris.net/media/igdb/cover_big/co665f.jpg",
  "platforms": [],
  "provider_games": [
    {
      "name": "Rhapsody III: Memories of Marl Kingdom",
      "slug": "rhapsody-iii-memories-of-marl-kingdom",
      "service": "igdb"
    }
  ],
  "aliases": [],
  "shaders": [],
  "discord_id": "",
  "change_for": null
}