{
  "id": 281863,
  "name": "Starxia",
  "slug": "starxia",
  "year": null,
  "banner_url": "",
  "icon_url": "",
  "coverart": "https://lutris.net/media/igdb/cover_big/co82ro.jpg",
  "platforms": [],
  "provider_games": [
    {
      "name": "Starxia",
      "slug": "starxia",
      "service": "igdb"
    }
  ],
  "aliases": [],
  "shaders": [],
  "discord_id": "",
  "change_for": null
}