{
  "id": 124827,
  "name": "Aurum Kings",
  "slug": "aurum-kings",
  "year": null,
  "banner_url": "",
  "icon_url": "",
  "coverart": null,
  "platforms": [],
  "provider_games": [
    {
      "name": "Aurum Kings",
      "slug": "aurum-kings",
      "service": "igdb"
    }
  ],
  "aliases": [],
  "shaders": [],
  "discord_id": "",
  "change_for": null
}