{
  "id": 265254,
  "name": "Pamali: The Vengeful Mother",
  "slug": "pamali-the-vengeful-mother",
  "year": null,
  "banner_url": "",
  "icon_url": "",
  "coverart": "https://lutris.net/media/igdb/cover_big/co7b67.jpg",
  "platforms": [],
  "provider_games": [
    {
      "name": "Pamali: The Vengeful Mother",
      "slug": "pamali-the-vengeful-mother",
      "service": "igdb"
    }
  ],
  "aliases": [],
  "shaders": [],
  "discord_id": "",
  "change_for": null
}