{
  "id": 47129,
  "name": "Grim Tales: The Legacy",
  "slug": "grim-tales-the-legacy",
  "year": null,
  "banner_url": "",
  "icon_url": "",
  "coverart": "https://lutris.net/media/igdb/cover_big/kis3uyakz23k2gfazfpk.jpg",
  "platforms": [],
  "provider_games": [
    {
      "name": "Grim Tales: The Legacy",
      "slug": "grim-tales-the-legacy",
      "service": "igdb"
    }
  ],
  "aliases": [],
  "shaders": [],
  "discord_id": "",
  "change_for": null
}