{
  "id": 241899,
  "name": "ImageStriker2",
  "slug": "imagestriker2",
  "year": null,
  "banner_url": "",
  "icon_url": "",
  "coverart": null,
  "platforms": [],
  "provider_games": [
    {
      "name": "ImageStriker2",
      "slug": "imagestriker2",
      "service": "igdb"
    }
  ],
  "aliases": [],
  "shaders": [],
  "discord_id": "",
  "change_for": null
}