{
  "id": 37983,
  "name": "Our Lovely Escape",
  "slug": "our-lovely-escape",
  "year": 2019,
  "banner_url": "https://lutris.net/games/banner/our-lovely-escape.jpg",
  "icon_url": "https://lutris.net/games/icon/our-lovely-escape.png",
  "coverart": "https://lutris.net/media/igdb/cover_big/co3qpg.jpg",
  "platforms": [
    {
      "name": "Linux"
    },
    {
      "name": "Mac"
    },
    {
      "name": "Windows"
    }
  ],
  "provider_games": [
    {
      "name": "Our Lovely Escape",
      "slug": "970400",
      "service": "steam"
    },
    {
      "name": "Our Lovely Escape",
      "slug": "our-lovely-escape",
      "service": "igdb"
    }
  ],
  "aliases": [],
  "shaders": [],
  "discord_id": "",
  "change_for": null
}