{
  "id": 170663,
  "name": "Kidou Senshi Gundam: Cross Dimension 0079",
  "slug": "kidou-senshi-gundam-cross-dimension-0079",
  "year": 1995,
  "banner_url": "",
  "icon_url": "",
  "coverart": "https://lutris.net/media/igdb/cover_big/co39pa.jpg",
  "platforms": [
    {
      "name": "Super Nintendo"
    }
  ],
  "provider_games": [
    {
      "name": "Kidou Senshi Gundam: Cross Dimension 0079",
      "slug": "kidou-senshi-gundam-cross-dimension-0079",
      "service": "igdb"
    }
  ],
  "aliases": [],
  "shaders": [],
  "discord_id": "",
  "change_for": null
}