{
  "id": 108838,
  "name": "Three Goblets",
  "slug": "three-goblets",
  "year": null,
  "banner_url": "",
  "icon_url": "",
  "coverart": "https://lutris.net/media/igdb/cover_big/co2xb4.jpg",
  "platforms": [],
  "provider_games": [
    {
      "name": "Three Goblets",
      "slug": "three-goblets",
      "service": "igdb"
    }
  ],
  "aliases": [],
  "shaders": [],
  "discord_id": "",
  "change_for": null
}