{
  "id": 194256,
  "name": "Hero of the day",
  "slug": "hero-of-the-day",
  "year": null,
  "banner_url": "",
  "icon_url": "",
  "coverart": "https://lutris.net/media/igdb/cover_big/co4g4o.jpg",
  "platforms": [],
  "provider_games": [
    {
      "name": "Hero of the Day",
      "slug": "hero-of-the-day",
      "service": "igdb"
    }
  ],
  "aliases": [],
  "shaders": [],
  "discord_id": "",
  "change_for": null
}