{
  "id": 52173,
  "name": "Stellar 7",
  "slug": "stellar-7",
  "year": 1990,
  "banner_url": "",
  "icon_url": "",
  "coverart": "https://lutris.net/media/igdb/cover_big/vzzz4cktjra9wsimgmrr.jpg",
  "platforms": [
    {
      "name": "Amiga"
    },
    {
      "name": "Mac"
    }
  ],
  "provider_games": [
    {
      "name": "Stellar 7",
      "slug": "stellar-7",
      "service": "igdb"
    }
  ],
  "aliases": [],
  "shaders": [],
  "discord_id": "",
  "change_for": null
}