{
  "id": 257445,
  "name": "Guilty Gear: Strive - Daredevil Edition",
  "slug": "guilty-gear-strive-daredevil-edition",
  "year": 2023,
  "banner_url": "",
  "icon_url": "",
  "coverart": "https://lutris.net/media/igdb/cover_big/co6zri.jpg",
  "platforms": [
    {
      "name": "Xbox One"
    },
    {
      "name": "Xbox Series X|S"
    }
  ],
  "provider_games": [
    {
      "name": "Guilty Gear: Strive - Daredevil Edition",
      "slug": "guilty-gear-strive-daredevil-edition",
      "service": "igdb"
    }
  ],
  "aliases": [],
  "shaders": [],
  "discord_id": "",
  "change_for": null
}