{
  "id": 3701,
  "name": "Salammbo: Battle for Carthage",
  "slug": "salammbo-battle-for-carthage",
  "year": 2003,
  "banner_url": "https://lutris.net/games/banner/salammbo-battle-for-carthage.jpg",
  "icon_url": "https://lutris.net/games/icon/salammbo-battle-for-carthage.png",
  "coverart": "https://lutris.net/media/igdb/cover_big/co1pk6.jpg",
  "platforms": [
    {
      "name": "Windows"
    }
  ],
  "provider_games": [
    {
      "name": "Salammbo: Battle for Carthage",
      "slug": "301670",
      "service": "steam"
    },
    {
      "name": "Salammbô: Battle for Carthage",
      "slug": "salammbo-battle-for-carthage",
      "service": "igdb"
    }
  ],
  "aliases": [],
  "shaders": [],
  "discord_id": "",
  "change_for": null
}