{
  "id": 106375,
  "name": "Fire Pro Wrestling",
  "slug": "fire-pro-wrestling--1",
  "year": 2012,
  "banner_url": "",
  "icon_url": "",
  "coverart": "https://lutris.net/media/igdb/cover_big/co2lha.jpg",
  "platforms": [
    {
      "name": "Xbox 360"
    }
  ],
  "provider_games": [
    {
      "name": "Fire Pro Wrestling",
      "slug": "fire-pro-wrestling--1",
      "service": "igdb"
    }
  ],
  "aliases": [],
  "shaders": [],
  "discord_id": "",
  "change_for": null
}