{
  "id": 17990,
  "name": "Nine Parchments",
  "slug": "nine-parchments",
  "year": 2017,
  "banner_url": "https://lutris.net/games/banner/nine-parchments.jpg",
  "icon_url": "https://lutris.net/games/icon/nine-parchments.png",
  "coverart": "https://lutris.net/media/igdb/cover_big/co1jg3.jpg",
  "platforms": [
    {
      "name": "Nintendo Switch"
    },
    {
      "name": "Sony Playstation 4"
    },
    {
      "name": "Windows"
    },
    {
      "name": "Xbox One"
    }
  ],
  "provider_games": [
    {
      "name": "Nine Parchments",
      "slug": "1941108493",
      "service": "gog"
    },
    {
      "name": "Nine Parchments",
      "slug": "471550",
      "service": "steam"
    },
    {
      "name": "Nine Parchments",
      "slug": "nine-parchments",
      "service": "igdb"
    }
  ],
  "aliases": [],
  "shaders": [],
  "discord_id": "",
  "change_for": null
}