{
  "id": 178149,
  "name": "The story of the revolutionary watermelon that wanted to live free as a bird and learned how to escape",
  "slug": "the-story-of-the-revolutionary-watermelon-that-wanted-to-live-free-as-a-bird-and-learned-how-to-escape",
  "year": 2017,
  "banner_url": "",
  "icon_url": "",
  "coverart": "https://lutris.net/media/igdb/cover_big/co2ude.jpg",
  "platforms": [
    {
      "name": "Mac"
    },
    {
      "name": "Windows"
    }
  ],
  "provider_games": [
    {
      "name": "The story of the revolutionary watermelon that wanted to live free as a bird and learned how to escape",
      "slug": "the-story-of-the-revolutionary-watermelon-that-wanted-to-live-free-as-a-bird-and-learned-how-to-escape",
      "service": "igdb"
    }
  ],
  "aliases": [],
  "shaders": [],
  "discord_id": "",
  "change_for": null
}