{
  "id": 128327,
  "name": "Narcissu Side 2nd",
  "slug": "narcissu-side-2nd",
  "year": 2007,
  "banner_url": "",
  "icon_url": "",
  "coverart": "https://lutris.net/media/igdb/cover_big/xtzmplnchml8dn4mihfl.jpg",
  "platforms": [
    {
      "name": "Windows"
    }
  ],
  "provider_games": [
    {
      "name": "Narcissu Side 2nd",
      "slug": "narcissu-side-2nd",
      "service": "igdb"
    }
  ],
  "aliases": [],
  "shaders": [],
  "discord_id": "",
  "change_for": null
}