{
  "id": 259119,
  "name": "Game Store Simulator",
  "slug": "game-store-simulator",
  "year": null,
  "banner_url": "",
  "icon_url": "",
  "coverart": "https://lutris.net/media/igdb/cover_big/co73cw.jpg",
  "platforms": [],
  "provider_games": [
    {
      "name": "Game Store Simulator",
      "slug": "game-store-simulator",
      "service": "igdb"
    }
  ],
  "aliases": [],
  "shaders": [],
  "discord_id": "",
  "change_for": null
}