{
  "id": 916,
  "name": "Eets",
  "slug": "eets",
  "year": null,
  "banner_url": "https://lutris.net/games/banner/eets.jpg",
  "icon_url": "https://lutris.net/games/icon/eets.png",
  "coverart": null,
  "platforms": [],
  "provider_games": [
    {
      "name": "Eets",
      "slug": "6100",
      "service": "steam"
    }
  ],
  "aliases": [],
  "shaders": [],
  "discord_id": "",
  "change_for": null
}