{
  "id": 279709,
  "name": "Kebab Bar Tycoon: Extended Edition",
  "slug": "kebab-bar-tycoon-extended-edition",
  "year": 2024,
  "banner_url": "",
  "icon_url": "",
  "coverart": null,
  "platforms": [
    {
      "name": "Nintendo Switch"
    }
  ],
  "provider_games": [
    {
      "name": "Kebab Bar Tycoon: Extended Edition",
      "slug": "kebab-bar-tycoon-extended-edition",
      "service": "igdb"
    }
  ],
  "aliases": [],
  "shaders": [],
  "discord_id": "",
  "change_for": null
}