{
  "id": 189935,
  "name": "Puzzle Cafe VR",
  "slug": "puzzle-cafe-vr",
  "year": 2021,
  "banner_url": "",
  "icon_url": "",
  "coverart": "https://lutris.net/media/igdb/cover_big/co3y4q.jpg",
  "platforms": [
    {
      "name": "Windows"
    }
  ],
  "provider_games": [
    {
      "name": "Puzzle Cafe VR",
      "slug": "puzzle-cafe-vr",
      "service": "igdb"
    }
  ],
  "aliases": [],
  "shaders": [],
  "discord_id": "",
  "change_for": null
}