{
  "id": 58243,
  "name": "Skate Out!",
  "slug": "skate-out",
  "year": null,
  "banner_url": "",
  "icon_url": "",
  "coverart": "https://lutris.net/media/igdb/cover_big/ldy9i6oibkb1wafirmxh.jpg",
  "platforms": [],
  "provider_games": [
    {
      "name": "Skate Out!",
      "slug": "skate-out",
      "service": "igdb"
    }
  ],
  "aliases": [],
  "shaders": [],
  "discord_id": "",
  "change_for": null
}