{
  "id": 187606,
  "name": "All Men Are Pigs",
  "slug": "all-men-are-pigs",
  "year": null,
  "banner_url": "",
  "icon_url": "",
  "coverart": "https://lutris.net/media/igdb/cover_big/co9ckr.jpg",
  "platforms": [],
  "provider_games": [
    {
      "name": "All Men Are Pigs",
      "slug": "all-men-are-pigs",
      "service": "igdb"
    }
  ],
  "aliases": [],
  "shaders": [],
  "discord_id": "",
  "change_for": null
}