{
  "id": 73195,
  "name": "Sword Art Online's Legend",
  "slug": "sword-art-onlines-legend",
  "year": null,
  "banner_url": "",
  "icon_url": "",
  "coverart": null,
  "platforms": [],
  "provider_games": [
    {
      "name": "Sword Art Online's Legend",
      "slug": "sword-art-onlines-legend",
      "service": "igdb"
    }
  ],
  "aliases": [],
  "shaders": [],
  "discord_id": "",
  "change_for": null
}