{
  "id": 144944,
  "name": "Pilko",
  "slug": "pilko",
  "year": null,
  "banner_url": "",
  "icon_url": "",
  "coverart": "https://lutris.net/media/igdb/cover_big/co3vb5.jpg",
  "platforms": [],
  "provider_games": [
    {
      "name": "Pilko",
      "slug": "pilko",
      "service": "igdb"
    }
  ],
  "aliases": [],
  "shaders": [],
  "discord_id": "",
  "change_for": null
}