{
  "id": 6641,
  "name": "Contract",
  "slug": "contract",
  "year": 2016,
  "banner_url": "https://lutris.net/games/banner/contract.jpg",
  "icon_url": "https://lutris.net/games/icon/contract.png",
  "coverart": "https://lutris.net/media/igdb/cover_big/gvzav9jjsmumjmltd8p8.jpg",
  "platforms": [
    {
      "name": "Windows"
    }
  ],
  "provider_games": [
    {
      "name": "Contract",
      "slug": "409170",
      "service": "steam"
    },
    {
      "name": "Contract",
      "slug": "contract",
      "service": "igdb"
    }
  ],
  "aliases": [],
  "shaders": [],
  "discord_id": "",
  "change_for": null
}