{
  "id": 141796,
  "name": "Happy Bones",
  "slug": "happy-bones",
  "year": null,
  "banner_url": "",
  "icon_url": "",
  "coverart": "https://lutris.net/media/igdb/cover_big/co3t85.jpg",
  "platforms": [],
  "provider_games": [
    {
      "name": "Happy Bones",
      "slug": "happy-bones",
      "service": "igdb"
    }
  ],
  "aliases": [],
  "shaders": [],
  "discord_id": "",
  "change_for": null
}