{
  "id": 78367,
  "name": "Aporia: Beyond The Valley - Deluxe Edition",
  "slug": "aporia-beyond-the-valley-deluxe-edition",
  "year": null,
  "banner_url": "",
  "icon_url": "",
  "coverart": null,
  "platforms": [],
  "provider_games": [
    {
      "name": "Aporia: Beyond the Valley - Deluxe Edition",
      "slug": "aporia-beyond-the-valley-deluxe-edition",
      "service": "igdb"
    }
  ],
  "aliases": [],
  "shaders": [],
  "discord_id": "",
  "change_for": null
}