{
  "id": 53975,
  "name": "Bakushou Yoshimoto ShinkiGeki",
  "slug": "bakushou-yoshimoto-shinkigeki",
  "year": null,
  "banner_url": "",
  "icon_url": "",
  "coverart": "https://lutris.net/media/igdb/cover_big/njckcoegprbrs6dtr0zo.jpg",
  "platforms": [],
  "provider_games": [
    {
      "name": "Bakushou Yoshimoto ShinkiGeki",
      "slug": "bakushou-yoshimoto-shinkigeki",
      "service": "igdb"
    }
  ],
  "aliases": [],
  "shaders": [],
  "discord_id": "",
  "change_for": null
}