{
  "id": 38079,
  "name": "AENTITY",
  "slug": "aentity",
  "year": 2018,
  "banner_url": "https://lutris.net/games/banner/aentity.jpg",
  "icon_url": "https://lutris.net/games/icon/aentity.png",
  "coverart": "https://lutris.net/media/igdb/cover_big/co1tis.jpg",
  "platforms": [
    {
      "name": "Windows"
    }
  ],
  "provider_games": [
    {
      "name": "AENTITY",
      "slug": "536690",
      "service": "steam"
    },
    {
      "name": "Aentity",
      "slug": "aentity",
      "service": "igdb"
    }
  ],
  "aliases": [],
  "shaders": [],
  "discord_id": "",
  "change_for": null
}