{
  "id": 3913,
  "name": "Yousei",
  "slug": "yousei",
  "year": 2013,
  "banner_url": "https://lutris.net/games/banner/yousei.jpg",
  "icon_url": "",
  "coverart": "https://lutris.net/media/igdb/cover_big/jyp04sz4ibghpnjuwicx.jpg",
  "platforms": [
    {
      "name": "Linux"
    },
    {
      "name": "Mac"
    },
    {
      "name": "Windows"
    }
  ],
  "provider_games": [
    {
      "name": "Yousei",
      "slug": "771380",
      "service": "steam"
    },
    {
      "name": "Yousei",
      "slug": "yousei",
      "service": "igdb"
    }
  ],
  "aliases": [],
  "shaders": [],
  "discord_id": "",
  "change_for": null
}