{
  "id": 301206,
  "name": "Who Wants to Be a Millionaire: Flash Edition",
  "slug": "who-wants-to-be-a-millionaire-flash-edition",
  "year": 2009,
  "banner_url": "",
  "icon_url": "",
  "coverart": "https://lutris.net/media/igdb/cover_big/co8y3o.jpg",
  "platforms": [
    {
      "name": "Browser"
    }
  ],
  "provider_games": [
    {
      "name": "Who Wants to Be a Millionaire: Flash Edition",
      "slug": "who-wants-to-be-a-millionaire-flash-edition",
      "service": "igdb"
    }
  ],
  "aliases": [],
  "shaders": [],
  "discord_id": "",
  "change_for": null
}