{
  "id": 210018,
  "name": "Raishi",
  "slug": "raishi",
  "year": null,
  "banner_url": "",
  "icon_url": "",
  "coverart": "https://lutris.net/media/igdb/cover_big/co7nmj.jpg",
  "platforms": [],
  "provider_games": [
    {
      "name": "Raishi",
      "slug": "raishi",
      "service": "igdb"
    }
  ],
  "aliases": [],
  "shaders": [],
  "discord_id": "",
  "change_for": null
}