{
  "id": 8086,
  "game_id": 9720,
  "game_slug": "resident-evil-7-biohazard-7-teaser-beginning-hour",
  "name": "Resident Evil 7 / Biohazard 7 Teaser: Beginning Hour",
  "year": 2016,
  "user": "cxf",
  "runner": "winesteam",
  "slug": "resident-evil-7-biohazard-7-t-steam",
  "version": "Steam",
  "description": "For graphics cards and drivers (NVIDIA cards with 415.25 and newer driver or AMD cards with AMDGPU driver and latest Mesa) that SUPPORT Vulkan (needed by DXVK). Vulkan dependencies are REQUIRED, both 64-bit AND 32-bit.",
  "notes": "**CONFIGURE AND INSTALL THE DEPENDENCIES FIRST**\r\nInstructions for DXVK support: <a href=\"https://github.com/lutris/lutris/wiki/How-to:-DXVK\">https://github.com/lutris/lutris/wiki/How-to:-DXVK</a>",
  "credits": "",
  "created_at": "2018-05-07T08:05:53.623000Z",
  "updated_at": "2023-06-13T01:34:37.676949Z",
  "draft": false,
  "published": true,
  "published_by": 19464,
  "rating": "",
  "is_playable": null,
  "steamid": 530620,
  "gogid": null,
  "gogslug": "",
  "humbleid": "",
  "humblestoreid": "",
  "humblestoreid_real": "",
  "script": {
    "files": [
      {
        "mfplat_dll_64": "https://lutris.net/files/tools/dll/mfplat/x64/mfplat.dll"
      }
    ],
    "game": {
      "appid": 530620,
      "arch": "win64",
      "prefix": "$GAMEDIR/prefix"
    },
    "installer": [
      {
        "task": {
          "arch": "win64",
          "name": "create_prefix",
          "prefix": "$GAMEDIR/prefix"
        }
      },
      {
        "task": {
          "app": "cjkfonts",
          "name": "winetricks",
          "prefix": "$GAMEDIR/prefix"
        }
      },
      {
        "merge": {
          "dst": "$GAMEDIR/prefix/drive_c/windows/system32",
          "src": "mfplat_dll_64"
        }
      },
      {
        "task": {
          "app": "mf",
          "name": "winetricks",
          "prefix": "$GAMEDIR/prefix"
        }
      },
      {
        "task": {
          "cabfile": "$HOME/.cache/winetricks/win7sp1/windows6.1-KB976932-X64.exe",
          "component": "mediafoundation",
          "name": "install_cab_component",
          "prefix": "$GAMEDIR/prefix"
        }
      },
      {
        "task": {
          "cabfile": "$HOME/.cache/winetricks/win7sp1/windows6.1-KB976932-X64.exe",
          "component": "mf_",
          "name": "install_cab_component",
          "prefix": "$GAMEDIR/prefix"
        }
      },
      {
        "task": {
          "cabfile": "$HOME/.cache/winetricks/win7sp1/windows6.1-KB976932-X64.exe",
          "component": "mfreadwrite",
          "name": "install_cab_component",
          "prefix": "$GAMEDIR/prefix"
        }
      },
      {
        "task": {
          "cabfile": "$HOME/.cache/winetricks/win7sp1/windows6.1-KB976932-X64.exe",
          "component": "wmadmod",
          "name": "install_cab_component",
          "prefix": "$GAMEDIR/prefix"
        }
      },
      {
        "task": {
          "cabfile": "$HOME/.cache/winetricks/win7sp1/windows6.1-KB976932-X64.exe",
          "component": "wmvdecod",
          "name": "install_cab_component",
          "prefix": "$GAMEDIR/prefix"
        }
      }
    ],
    "system": {
      "env": {
        "DXVK_HUD": 0
      }
    },
    "winesteam": {
      "overrides": {
        "mfplat": "native,builtin"
      }
    }
  },
  "content": "files:\n- mfplat_dll_64: https://lutris.net/files/tools/dll/mfplat/x64/mfplat.dll\ngame:\n  appid: 530620\n  arch: win64\n  prefix: $GAMEDIR/prefix\ninstaller:\n- task:\n    arch: win64\n    name: create_prefix\n    prefix: $GAMEDIR/prefix\n- task:\n    app: cjkfonts\n    name: winetricks\n    prefix: $GAMEDIR/prefix\n- merge:\n    dst: $GAMEDIR/prefix/drive_c/windows/system32\n    src: mfplat_dll_64\n- task:\n    app: mf\n    name: winetricks\n    prefix: $GAMEDIR/prefix\n- task:\n    cabfile: $HOME/.cache/winetricks/win7sp1/windows6.1-KB976932-X64.exe\n    component: mediafoundation\n    name: install_cab_component\n    prefix: $GAMEDIR/prefix\n- task:\n    cabfile: $HOME/.cache/winetricks/win7sp1/windows6.1-KB976932-X64.exe\n    component: mf_\n    name: install_cab_component\n    prefix: $GAMEDIR/prefix\n- task:\n    cabfile: $HOME/.cache/winetricks/win7sp1/windows6.1-KB976932-X64.exe\n    component: mfreadwrite\n    name: install_cab_component\n    prefix: $GAMEDIR/prefix\n- task:\n    cabfile: $HOME/.cache/winetricks/win7sp1/windows6.1-KB976932-X64.exe\n    component: wmadmod\n    name: install_cab_component\n    prefix: $GAMEDIR/prefix\n- task:\n    cabfile: $HOME/.cache/winetricks/win7sp1/windows6.1-KB976932-X64.exe\n    component: wmvdecod\n    name: install_cab_component\n    prefix: $GAMEDIR/prefix\nsystem:\n  env:\n    DXVK_HUD: 0\nwinesteam:\n  overrides:\n    mfplat: native,builtin\n",
  "discord_id": ""
}