{
  "id": 90699,
  "name": "Runventure",
  "slug": "runventure",
  "year": 2018,
  "banner_url": "",
  "icon_url": "",
  "coverart": "https://lutris.net/media/igdb/cover_big/hwolbuiogmu9exjwbufy.jpg",
  "platforms": [],
  "provider_games": [
    {
      "name": "Runventure",
      "slug": "runventure",
      "service": "igdb"
    }
  ],
  "aliases": [],
  "shaders": [],
  "discord_id": "",
  "change_for": null
}