{
  "id": 53674,
  "name": "UK Truck Simulator",
  "slug": "uk-truck-simulator",
  "year": 2010,
  "banner_url": "",
  "icon_url": "",
  "coverart": "https://lutris.net/media/igdb/cover_big/ywds2khlnwtqnxnluwib.jpg",
  "platforms": [
    {
      "name": "Windows"
    }
  ],
  "provider_games": [
    {
      "name": "UK Truck Simulator",
      "slug": "uk-truck-simulator",
      "service": "igdb"
    }
  ],
  "aliases": [],
  "shaders": [],
  "discord_id": "",
  "change_for": null
}