{
  "id": 21812,
  "game_id": 37416,
  "game_slug": "madrun",
  "name": "Madrun",
  "year": 2020,
  "user": "vanstaveren",
  "runner": "steam",
  "slug": "madrun-steam",
  "version": "steam",
  "description": null,
  "notes": "",
  "credits": "",
  "created_at": "2020-06-22T07:49:43.369055Z",
  "updated_at": "2021-12-13T19:10:38.615373Z",
  "draft": false,
  "published": true,
  "published_by": null,
  "rating": "",
  "is_playable": null,
  "steamid": null,
  "gogid": null,
  "gogslug": "",
  "humbleid": "",
  "humblestoreid": "",
  "humblestoreid_real": "",
  "script": {
    "game": {
      "appid": 1266980
    }
  },
  "content": "game:\n  appid: 1266980\n",
  "discord_id": ""
}