{
  "id": 201875,
  "name": "Gabriel's Auditory Playground",
  "slug": "gabriels-auditory-playground",
  "year": null,
  "banner_url": "",
  "icon_url": "",
  "coverart": "https://lutris.net/media/igdb/cover_big/co4noh.jpg",
  "platforms": [],
  "provider_games": [
    {
      "name": "Gabriel's Auditory Playground",
      "slug": "gabriels-auditory-playground",
      "service": "igdb"
    }
  ],
  "aliases": [],
  "shaders": [],
  "discord_id": "",
  "change_for": null
}