{
  "id": 1,
  "name": "Quake",
  "slug": "quake",
  "year": 1996,
  "banner_url": "https://lutris.net/games/banner/quake.jpg",
  "icon_url": "https://lutris.net/games/icon/quake.png",
  "coverart": "https://lutris.net/media/igdb/cover_big/co1ybm.jpg",
  "platforms": [
    {
      "name": "Amiga"
    },
    {
      "name": "Legacy Cellphone"
    },
    {
      "name": "Linux"
    },
    {
      "name": "Mac"
    },
    {
      "name": "Nintendo 64"
    },
    {
      "name": "Sega Saturn"
    },
    {
      "name": "Windows"
    },
    {
      "name": "Zeebo"
    }
  ],
  "provider_games": [
    {
      "name": "Quake",
      "slug": "2310",
      "service": "steam"
    },
    {
      "name": "Quake",
      "slug": "1435828198",
      "service": "gog"
    },
    {
      "name": "Quake",
      "slug": "quake",
      "service": "igdb"
    },
    {
      "name": "Quake: The Offering",
      "slug": "quake-the-offering",
      "service": "igdb"
    }
  ],
  "aliases": [
    {
      "slug": "quake-the-offering",
      "name": "Quake: The Offering"
    }
  ],
  "shaders": [],
  "discord_id": null,
  "change_for": null
}