{
  "id": 74174,
  "name": "Feeding Kimunakji 2",
  "slug": "feeding-kimunakji-2",
  "year": null,
  "banner_url": "",
  "icon_url": "",
  "coverart": null,
  "platforms": [],
  "provider_games": [
    {
      "name": "Feeding Kimunakji 2",
      "slug": "feeding-kimunakji-2",
      "service": "igdb"
    }
  ],
  "aliases": [],
  "shaders": [],
  "discord_id": "",
  "change_for": null
}