{
  "id": 290622,
  "name": "10:59",
  "slug": "10-59",
  "year": null,
  "banner_url": "",
  "icon_url": "",
  "coverart": "https://lutris.net/media/igdb/cover_big/co8j2m.jpg",
  "platforms": [],
  "provider_games": [
    {
      "name": "10:59",
      "slug": "10-59",
      "service": "igdb"
    }
  ],
  "aliases": [],
  "shaders": [],
  "discord_id": "",
  "change_for": null
}