{
  "id": 112099,
  "name": "Parkalien",
  "slug": "parkalien",
  "year": null,
  "banner_url": "",
  "icon_url": "",
  "coverart": "https://lutris.net/media/igdb/cover_big/co30vv.jpg",
  "platforms": [],
  "provider_games": [
    {
      "name": "Parkalien",
      "slug": "parkalien",
      "service": "igdb"
    }
  ],
  "aliases": [],
  "shaders": [],
  "discord_id": "",
  "change_for": null
}