{
  "id": 38097,
  "name": "SimIsle: Missions in the Rainforest",
  "slug": "simisle-missions-in-the-rainforest",
  "year": 1995,
  "banner_url": "https://lutris.net/games/banner/simisle-missions-in-the-rainforest.jpg",
  "icon_url": "",
  "coverart": "https://lutris.net/media/igdb/cover_big/y3nzfs1aqsl413obobpi.jpg",
  "platforms": [
    {
      "name": "Mac"
    },
    {
      "name": "MS-DOS"
    },
    {
      "name": "Windows"
    }
  ],
  "provider_games": [
    {
      "name": "SimIsle: Missions in the Rainforest",
      "slug": "simisle-missions-in-the-rainforest",
      "service": "igdb"
    }
  ],
  "aliases": [],
  "shaders": [],
  "discord_id": "",
  "change_for": null
}