{
  "id": 298807,
  "name": "Pawelek the Game.",
  "slug": "pawelek-the-game",
  "year": null,
  "banner_url": "",
  "icon_url": "",
  "coverart": "https://lutris.net/media/igdb/cover_big/co8y8x.jpg",
  "platforms": [],
  "provider_games": [
    {
      "name": "Pawelek the Game.",
      "slug": "pawelek-the-game",
      "service": "igdb"
    }
  ],
  "aliases": [],
  "shaders": [],
  "discord_id": "",
  "change_for": null
}