{
  "id": 83524,
  "name": "Youda Legend Amsterdam",
  "slug": "youda-legend-amsterdam",
  "year": null,
  "banner_url": "",
  "icon_url": "",
  "coverart": null,
  "platforms": [],
  "provider_games": [
    {
      "name": "Youda Legend Amsterdam",
      "slug": "youda-legend-amsterdam",
      "service": "igdb"
    }
  ],
  "aliases": [],
  "shaders": [],
  "discord_id": "",
  "change_for": null
}