{
  "id": 260187,
  "name": "Five Nights on the Toilet: Number 2",
  "slug": "five-nights-on-the-toilet-number-2",
  "year": 2023,
  "banner_url": "",
  "icon_url": "",
  "coverart": "https://lutris.net/media/igdb/cover_big/co73o1.jpg",
  "platforms": [
    {
      "name": "Windows"
    }
  ],
  "provider_games": [
    {
      "name": "Five Nights on the Toilet: Number 2",
      "slug": "five-nights-on-the-toilet-number-2",
      "service": "igdb"
    }
  ],
  "aliases": [],
  "shaders": [],
  "discord_id": "",
  "change_for": null
}