{
  "id": 243548,
  "name": "Demonheart: The Cursed Trial",
  "slug": "demonheart-the-cursed-trial",
  "year": null,
  "banner_url": "",
  "icon_url": "",
  "coverart": "https://lutris.net/media/igdb/cover_big/co6fnd.jpg",
  "platforms": [],
  "provider_games": [
    {
      "name": "Demonheart: The Cursed Trial",
      "slug": "demonheart-the-cursed-trial",
      "service": "igdb"
    }
  ],
  "aliases": [],
  "shaders": [],
  "discord_id": "",
  "change_for": null
}