{
  "id": 39088,
  "game_id": 303876,
  "game_slug": "ikas-odyssey",
  "name": "Ika's Odyssey",
  "year": 2024,
  "user": "vanstaveren",
  "runner": "steam",
  "slug": "ikas-odyssey-steam",
  "version": "steam",
  "description": "",
  "notes": "",
  "credits": "",
  "created_at": "2024-12-27T07:12:00.098561Z",
  "updated_at": "2024-12-27T07:12:00.098584Z",
  "draft": false,
  "published": true,
  "published_by": null,
  "rating": "",
  "is_playable": null,
  "steamid": null,
  "gogid": null,
  "gogslug": "",
  "humbleid": "",
  "humblestoreid": "",
  "humblestoreid_real": "",
  "script": {
    "game": {
      "appid": 3304030
    }
  },
  "content": "game:\n  appid: 3304030\n",
  "discord_id": ""
}