{
  "id": 22257,
  "game_id": 4697,
  "game_slug": "interstellaria",
  "name": "Interstellaria",
  "year": 2015,
  "user": "Feneric",
  "runner": "linux",
  "slug": "interstellaria-itchio",
  "version": "itch.io",
  "description": "This is for \"Interstellaria\", available from itch.io (and part of the wildly popular \"Bundle for Racial Justice and Equality\" as well as other bundles and direct purchase).",
  "notes": "The downloaded installer will probably look something like 'lnx.zip' unfortunately and not mention \"Interstellaria\" at all.",
  "credits": "",
  "created_at": "2020-07-10T02:38:07.496642Z",
  "updated_at": "2020-08-30T20:31:27.312354Z",
  "draft": false,
  "published": true,
  "published_by": null,
  "rating": "",
  "is_playable": null,
  "steamid": 280360,
  "gogid": 1436951929,
  "gogslug": "interstellaria",
  "humbleid": "",
  "humblestoreid": "",
  "humblestoreid_real": "",
  "script": {
    "files": [
      {
        "itchio_archive": "N/A:Please select the installer downloaded from 'https://itch.io/'."
      }
    ],
    "game": {
      "appid": 280360,
      "exe": "Interstellaria.x86_64",
      "working_dir": "$GAMEDIR"
    },
    "installer": [
      {
        "extract": {
          "dst": "$GAMEDIR",
          "file": "itchio_archive"
        }
      },
      {
        "chmodx": "$GAMEDIR/Interstellaria.x86_64"
      }
    ]
  },
  "content": "files:\r\n- itchio_archive: N/A:Please select the installer downloaded from 'https://itch.io/'.\r\ngame:\r\n  appid: 280360\r\n  exe: Interstellaria.x86_64\r\n  working_dir: $GAMEDIR\r\ninstaller:\r\n- extract:\r\n    dst: $GAMEDIR\r\n    file: itchio_archive\r\n- chmodx: $GAMEDIR/Interstellaria.x86_64",
  "discord_id": ""
}