{
  "id": 242481,
  "name": "Die in the Dungeon PROLOGUE",
  "slug": "die-in-the-dungeon-prologue",
  "year": null,
  "banner_url": "https://lutris.net/games/banner/die-in-the-dungeon-prologue.jpg",
  "icon_url": "https://lutris.net/games/icon/die-in-the-dungeon-prologue.png",
  "coverart": null,
  "platforms": [],
  "provider_games": [
    {
      "name": "Die in the Dungeon PROLOGUE",
      "slug": "2214080",
      "service": "steam"
    }
  ],
  "aliases": [],
  "shaders": [],
  "discord_id": "",
  "change_for": null
}