{
  "id": 31881,
  "name": "Grimm's Hollow",
  "slug": "grimms-hollow",
  "year": 2019,
  "banner_url": "https://lutris.net/games/banner/grimms-hollow.jpg",
  "icon_url": "",
  "coverart": "https://lutris.net/media/igdb/cover_big/co2j8j.jpg",
  "platforms": [
    {
      "name": "Windows"
    }
  ],
  "provider_games": [
    {
      "name": "Grimm's Hollow",
      "slug": "grimms-hollow",
      "service": "igdb"
    }
  ],
  "aliases": [],
  "shaders": [],
  "discord_id": "",
  "change_for": null
}