{
  "id": 222846,
  "name": "TJ's Reel Extreme CD Room",
  "slug": "tjs-reel-extreme-cd-room",
  "year": null,
  "banner_url": "",
  "icon_url": "",
  "coverart": null,
  "platforms": [],
  "provider_games": [
    {
      "name": "TJ's Reel Extreme CD Room",
      "slug": "tjs-reel-extreme-cd-room",
      "service": "igdb"
    }
  ],
  "aliases": [],
  "shaders": [],
  "discord_id": "",
  "change_for": null
}