{
  "id": 207039,
  "name": "Nasu Plus",
  "slug": "nasu-plus",
  "year": 2016,
  "banner_url": "",
  "icon_url": "",
  "coverart": "https://lutris.net/media/igdb/cover_big/co5ti1.jpg",
  "platforms": [
    {
      "name": "Browser"
    },
    {
      "name": "Windows"
    }
  ],
  "provider_games": [
    {
      "name": "Nasu Plus",
      "slug": "nasu-plus",
      "service": "igdb"
    }
  ],
  "aliases": [],
  "shaders": [],
  "discord_id": "",
  "change_for": null
}