{
  "id": 42958,
  "name": "Extreme Escape",
  "slug": "extreme-escape",
  "year": 2020,
  "banner_url": "https://lutris.net/games/banner/extreme-escape.jpg",
  "icon_url": "https://lutris.net/games/icon/extreme-escape.png",
  "coverart": "https://lutris.net/media/igdb/cover_big/co2ce5.jpg",
  "platforms": [
    {
      "name": "Oculus VR"
    }
  ],
  "provider_games": [
    {
      "name": "Extreme Escape",
      "slug": "1316740",
      "service": "steam"
    },
    {
      "name": "Extreme Escape",
      "slug": "extreme-escape",
      "service": "igdb"
    }
  ],
  "aliases": [],
  "shaders": [],
  "discord_id": "",
  "change_for": null
}