{
  "id": 75244,
  "name": "Minna no Mona Mona 2",
  "slug": "minna-no-mona-mona-2",
  "year": null,
  "banner_url": "",
  "icon_url": "",
  "coverart": "https://lutris.net/media/igdb/cover_big/co5ms6.jpg",
  "platforms": [],
  "provider_games": [
    {
      "name": "Minna no Mona Mona 2",
      "slug": "minna-no-mona-mona-2",
      "service": "igdb"
    }
  ],
  "aliases": [],
  "shaders": [],
  "discord_id": "",
  "change_for": null
}