{
  "id": 115106,
  "name": "Starpoint Gemini 2: Secrets of Aethera",
  "slug": "starpoint-gemini-2-secrets-of-aethera",
  "year": null,
  "banner_url": "",
  "icon_url": "",
  "coverart": null,
  "platforms": [],
  "provider_games": [
    {
      "name": "Starpoint Gemini 2: Secrets of Aethera",
      "slug": "starpoint-gemini-2-secrets-of-aethera",
      "service": "igdb"
    }
  ],
  "aliases": [],
  "shaders": [],
  "discord_id": "",
  "change_for": null
}