{
  "id": 6173,
  "name": "samurai_jazz",
  "slug": "samurai_jazz",
  "year": null,
  "banner_url": "https://lutris.net/games/banner/samurai_jazz.jpg",
  "icon_url": "https://lutris.net/games/icon/samurai_jazz.png",
  "coverart": null,
  "platforms": [],
  "provider_games": [
    {
      "name": "samurai_jazz",
      "slug": "346450",
      "service": "steam"
    }
  ],
  "aliases": [],
  "shaders": [],
  "discord_id": "",
  "change_for": null
}