{
  "id": 236237,
  "name": "Out Here Alone",
  "slug": "out-here-alone",
  "year": null,
  "banner_url": "",
  "icon_url": "",
  "coverart": "https://lutris.net/media/igdb/cover_big/co6419.jpg",
  "platforms": [],
  "provider_games": [
    {
      "name": "Out Here Alone",
      "slug": "out-here-alone",
      "service": "igdb"
    }
  ],
  "aliases": [],
  "shaders": [],
  "discord_id": "",
  "change_for": null
}