{
  "id": 249014,
  "name": "UMBA",
  "slug": "umba",
  "year": null,
  "banner_url": "",
  "icon_url": "",
  "coverart": "https://lutris.net/media/igdb/cover_big/co6n2y.jpg",
  "platforms": [],
  "provider_games": [
    {
      "name": "UMBA",
      "slug": "umba",
      "service": "igdb"
    }
  ],
  "aliases": [],
  "shaders": [],
  "discord_id": "",
  "change_for": null
}