{
  "id": 40305,
  "name": "Will You Snail - Winter Demo 2019",
  "slug": "will-you-snail-winter-demo-2019",
  "year": 2019,
  "banner_url": "https://lutris.net/games/banner/will-you-snail-winter-demo-2019.jpg",
  "icon_url": "",
  "coverart": null,
  "platforms": [
    {
      "name": "Windows"
    }
  ],
  "provider_games": [],
  "aliases": [],
  "shaders": [],
  "discord_id": "",
  "change_for": null
}