{
  "id": 11477,
  "name": "Out of Ammo",
  "slug": "out-of-ammo",
  "year": 2016,
  "banner_url": "https://lutris.net/games/banner/out-of-ammo.jpg",
  "icon_url": "https://lutris.net/games/icon/out-of-ammo.png",
  "coverart": "https://lutris.net/media/igdb/cover_big/co3qpz.jpg",
  "platforms": [
    {
      "name": "Sony Playstation 4"
    },
    {
      "name": "Windows"
    }
  ],
  "provider_games": [
    {
      "name": "Out of Ammo",
      "slug": "451840",
      "service": "steam"
    },
    {
      "name": "Out of Ammo",
      "slug": "out-of-ammo",
      "service": "igdb"
    }
  ],
  "aliases": [],
  "shaders": [],
  "discord_id": "",
  "change_for": null
}