{
  "id": 87555,
  "name": "Mystery Case Files: Ravenhearst Unlocked",
  "slug": "mystery-case-files-ravenhearst-unlocked",
  "year": null,
  "banner_url": "",
  "icon_url": "",
  "coverart": "https://lutris.net/media/igdb/cover_big/co4zpy.jpg",
  "platforms": [],
  "provider_games": [
    {
      "name": "Mystery Case Files: Ravenhearst Unlocked",
      "slug": "mystery-case-files-ravenhearst-unlocked",
      "service": "igdb"
    }
  ],
  "aliases": [],
  "shaders": [],
  "discord_id": "",
  "change_for": null
}