{
  "id": 230758,
  "name": "Demon Tormentor",
  "slug": "demon-tormentor",
  "year": null,
  "banner_url": "",
  "icon_url": "",
  "coverart": "https://lutris.net/media/igdb/cover_big/co6cna.jpg",
  "platforms": [],
  "provider_games": [
    {
      "name": "Demon Tormentor",
      "slug": "demon-tormentor",
      "service": "igdb"
    }
  ],
  "aliases": [],
  "shaders": [],
  "discord_id": "",
  "change_for": null
}