{
  "id": 192426,
  "name": "Roll-o-Rama",
  "slug": "roll-o-rama",
  "year": null,
  "banner_url": "",
  "icon_url": "",
  "coverart": null,
  "platforms": [
    {
      "name": "Nintendo GameCube"
    }
  ],
  "provider_games": [
    {
      "name": "Roll-o-Rama",
      "slug": "roll-o-rama",
      "service": "igdb"
    }
  ],
  "aliases": [],
  "shaders": [],
  "discord_id": "",
  "change_for": null
}