{
  "id": 253725,
  "name": "Simil",
  "slug": "simil",
  "year": null,
  "banner_url": "",
  "icon_url": "",
  "coverart": "https://lutris.net/media/igdb/cover_big/co6tqi.jpg",
  "platforms": [],
  "provider_games": [
    {
      "name": "Simil",
      "slug": "simil",
      "service": "igdb"
    }
  ],
  "aliases": [],
  "shaders": [],
  "discord_id": "",
  "change_for": null
}