{
  "id": 239847,
  "name": "A Date with Yesterday",
  "slug": "a-date-with-yesterday",
  "year": 2011,
  "banner_url": "",
  "icon_url": "",
  "coverart": "https://lutris.net/media/igdb/cover_big/co61lz.jpg",
  "platforms": [
    {
      "name": "Android"
    },
    {
      "name": "Legacy Cellphone"
    }
  ],
  "provider_games": [
    {
      "name": "A Date with Yesterday",
      "slug": "a-date-with-yesterday",
      "service": "igdb"
    }
  ],
  "aliases": [],
  "shaders": [],
  "discord_id": "",
  "change_for": null
}