{
  "id": 167612,
  "name": "Island of the Ancients",
  "slug": "island-of-the-ancients",
  "year": null,
  "banner_url": "",
  "icon_url": "",
  "coverart": "https://lutris.net/media/igdb/cover_big/co448t.jpg",
  "platforms": [],
  "provider_games": [
    {
      "name": "Island of the Ancients",
      "slug": "island-of-the-ancients",
      "service": "igdb"
    }
  ],
  "aliases": [],
  "shaders": [],
  "discord_id": "",
  "change_for": null
}