{
  "id": 105425,
  "name": "Dushlan",
  "slug": "dushlan",
  "year": 2016,
  "banner_url": "",
  "icon_url": "",
  "coverart": "https://lutris.net/media/igdb/cover_big/co2ko9.jpg",
  "platforms": [
    {
      "name": "NES"
    }
  ],
  "provider_games": [
    {
      "name": "Dúshlán",
      "slug": "dushlan",
      "service": "igdb"
    }
  ],
  "aliases": [],
  "shaders": [],
  "discord_id": "",
  "change_for": null
}