{
  "id": 198778,
  "name": "Reading Blaster: Ages 9-12",
  "slug": "reading-blaster-ages-9-12",
  "year": 1997,
  "banner_url": "",
  "icon_url": "",
  "coverart": "https://lutris.net/media/igdb/cover_big/co4hkr.jpg",
  "platforms": [],
  "provider_games": [
    {
      "name": "Reading Blaster: Ages 9-12",
      "slug": "reading-blaster-ages-9-12",
      "service": "igdb"
    }
  ],
  "aliases": [],
  "shaders": [],
  "discord_id": "",
  "change_for": null
}