{
  "id": 91756,
  "name": "Water Park: Fun Water Slides",
  "slug": "water-park-fun-water-slides",
  "year": 2020,
  "banner_url": "",
  "icon_url": "",
  "coverart": "https://lutris.net/media/igdb/cover_big/co2ikd.jpg",
  "platforms": [
    {
      "name": "Android"
    }
  ],
  "provider_games": [
    {
      "name": "Water Park: Fun Water Slides",
      "slug": "water-park-fun-water-slides",
      "service": "igdb"
    }
  ],
  "aliases": [],
  "shaders": [],
  "discord_id": "",
  "change_for": null
}