{
  "id": 144756,
  "name": "Beautiful Girls",
  "slug": "beautiful-girls",
  "year": null,
  "banner_url": "",
  "icon_url": "",
  "coverart": "https://lutris.net/media/igdb/cover_big/co3v72.jpg",
  "platforms": [],
  "provider_games": [
    {
      "name": "Beautiful Girls",
      "slug": "beautiful-girls",
      "service": "igdb"
    }
  ],
  "aliases": [],
  "shaders": [],
  "discord_id": "",
  "change_for": null
}