{
  "id": 205923,
  "name": "RaLo",
  "slug": "ralo",
  "year": null,
  "banner_url": "",
  "icon_url": "",
  "coverart": "https://lutris.net/media/igdb/cover_big/co5sph.jpg",
  "platforms": [],
  "provider_games": [
    {
      "name": "RaLo",
      "slug": "ralo",
      "service": "igdb"
    }
  ],
  "aliases": [],
  "shaders": [],
  "discord_id": "",
  "change_for": null
}