{
  "id": 135908,
  "name": "Venandi In Silva",
  "slug": "venandi-in-silva",
  "year": null,
  "banner_url": "",
  "icon_url": "",
  "coverart": "https://lutris.net/media/igdb/cover_big/co3okv.jpg",
  "platforms": [],
  "provider_games": [
    {
      "name": "Venandi In Silva",
      "slug": "venandi-in-silva",
      "service": "igdb"
    }
  ],
  "aliases": [],
  "shaders": [],
  "discord_id": "",
  "change_for": null
}