{
  "id": 70711,
  "name": "Heads Up Texas Hold 'Em",
  "slug": "heads-up-texas-hold-em",
  "year": null,
  "banner_url": "",
  "icon_url": "",
  "coverart": null,
  "platforms": [],
  "provider_games": [
    {
      "name": "Heads Up Texas Hold 'Em",
      "slug": "heads-up-texas-hold-em",
      "service": "igdb"
    }
  ],
  "aliases": [],
  "shaders": [],
  "discord_id": "",
  "change_for": null
}