{
  "id": 43287,
  "name": "Surf World Series",
  "slug": "surf-world-series",
  "year": 2017,
  "banner_url": "https://lutris.net/games/banner/surf-world-series.jpg",
  "icon_url": "https://lutris.net/games/icon/surf-world-series.png",
  "coverart": "https://lutris.net/media/igdb/cover_big/co3wvl.jpg",
  "platforms": [
    {
      "name": "Sony Playstation 4"
    },
    {
      "name": "Windows"
    },
    {
      "name": "Xbox One"
    }
  ],
  "provider_games": [
    {
      "name": "Surf World Series",
      "slug": "462640",
      "service": "steam"
    },
    {
      "name": "Surf World Series",
      "slug": "surf-world-series",
      "service": "igdb"
    }
  ],
  "aliases": [],
  "shaders": [],
  "discord_id": "",
  "change_for": null
}