{
  "id": 9523,
  "name": "GE Neuro",
  "slug": "ge-neuro",
  "year": 2016,
  "banner_url": "https://lutris.net/games/banner/ge-neuro.jpg",
  "icon_url": "https://lutris.net/games/icon/ge-neuro.png",
  "coverart": null,
  "platforms": [
    {
      "name": "Windows"
    }
  ],
  "provider_games": [
    {
      "name": "GE Neuro",
      "slug": "496180",
      "service": "steam"
    },
    {
      "name": "GE Neuro",
      "slug": "ge-neuro",
      "service": "igdb"
    }
  ],
  "aliases": [],
  "shaders": [],
  "discord_id": "",
  "change_for": null
}