{
  "id": 285572,
  "name": "Ame ni Negaeba: Wishin' in the Rain",
  "slug": "ame-ni-negaeba-wishin-in-the-rain",
  "year": null,
  "banner_url": "",
  "icon_url": "",
  "coverart": "https://lutris.net/media/igdb/cover_big/co8815.jpg",
  "platforms": [],
  "provider_games": [
    {
      "name": "Ame ni Negaeba: Wishin' in the Rain",
      "slug": "ame-ni-negaeba-wishin-in-the-rain",
      "service": "igdb"
    }
  ],
  "aliases": [],
  "shaders": [],
  "discord_id": "",
  "change_for": null
}