{
  "id": 30452,
  "name": "RPG Maker MV Tools - Database ConVerter MV",
  "slug": "rpg-maker-mv-tools-database-converter-mv",
  "year": null,
  "banner_url": "https://lutris.net/games/banner/rpg-maker-mv-tools-database-converter-mv.jpg",
  "icon_url": "https://lutris.net/games/icon/rpg-maker-mv-tools-database-converter-mv.png",
  "coverart": null,
  "platforms": [],
  "provider_games": [
    {
      "name": "RPG Maker MV Tools - Database ConVerter MV",
      "slug": "1171220",
      "service": "steam"
    }
  ],
  "aliases": [],
  "shaders": [],
  "discord_id": "",
  "change_for": null
}