{
  "id": 9113,
  "name": "Curve Fever Pro",
  "slug": "curve-fever-pro",
  "year": 2019,
  "banner_url": "https://lutris.net/games/banner/curve-fever-pro.jpg",
  "icon_url": "https://lutris.net/games/icon/curve-fever-pro.png",
  "coverart": "https://lutris.net/media/igdb/cover_big/co2pu7.jpg",
  "platforms": [
    {
      "name": "Browser"
    }
  ],
  "provider_games": [
    {
      "name": "Curve Fever Pro",
      "slug": "curve-fever-pro",
      "service": "igdb"
    }
  ],
  "aliases": [
    {
      "slug": "curve-fever-3",
      "name": "Curve Fever 3"
    }
  ],
  "shaders": [],
  "discord_id": "",
  "change_for": null
}