{
  "id": 40223,
  "name": "The Wilting Amaranth",
  "slug": "the-wilting-amaranth",
  "year": null,
  "banner_url": "https://lutris.net/games/banner/the-wilting-amaranth.jpg",
  "icon_url": "https://lutris.net/games/icon/the-wilting-amaranth.png",
  "coverart": "https://lutris.net/media/igdb/cover_big/co446t.jpg",
  "platforms": [],
  "provider_games": [
    {
      "name": "The Wilting Amaranth",
      "slug": "867700",
      "service": "steam"
    },
    {
      "name": "The Wilting Amaranth",
      "slug": "the-wilting-amaranth",
      "service": "igdb"
    }
  ],
  "aliases": [],
  "shaders": [],
  "discord_id": "",
  "change_for": null
}