{
  "id": 207182,
  "name": "VillageRhapsody",
  "slug": "villagerhapsody",
  "year": 2022,
  "banner_url": "https://lutris.net/games/banner/villagerhapsody.jpg",
  "icon_url": "",
  "coverart": "https://lutris.net/media/igdb/cover_big/co5s59.jpg",
  "platforms": [
    {
      "name": "Windows"
    }
  ],
  "provider_games": [
    {
      "name": "VillageRhapsody",
      "slug": "villagerhapsody",
      "service": "igdb"
    },
    {
      "name": "乡村狂想曲",
      "slug": "2109460",
      "service": "steam"
    }
  ],
  "aliases": [],
  "shaders": [],
  "discord_id": "",
  "change_for": null
}