{
  "id": 46926,
  "name": "Tribal Trouble",
  "slug": "tribal-trouble",
  "year": null,
  "banner_url": "",
  "icon_url": "",
  "coverart": "https://lutris.net/media/igdb/cover_big/zq8pd8oliicen6xemrmi.jpg",
  "platforms": [],
  "provider_games": [
    {
      "name": "Tribal Trouble",
      "slug": "tribal-trouble",
      "service": "igdb"
    }
  ],
  "aliases": [],
  "shaders": [],
  "discord_id": "",
  "change_for": null
}