{
  "id": 1902,
  "game_id": 3322,
  "game_slug": "frederic-evil-strikes-back",
  "name": "Frederic: Evil Strikes Back",
  "year": 2014,
  "user": "WildCoder",
  "runner": "steam",
  "slug": "frederic-evil-strikes-back-steam",
  "version": "Steam",
  "description": "",
  "notes": "",
  "credits": "",
  "created_at": "2016-01-17T17:47:15.411350Z",
  "updated_at": "2016-01-17T17:49:16.938329Z",
  "draft": false,
  "published": true,
  "published_by": null,
  "rating": "",
  "is_playable": null,
  "steamid": 301200,
  "gogid": null,
  "gogslug": "",
  "humbleid": "",
  "humblestoreid": "",
  "humblestoreid_real": "",
  "script": {
    "game": {
      "appid": 301200
    }
  },
  "content": "game:\n  appid: 301200\n",
  "discord_id": ""
}