{
  "id": 52629,
  "name": "NBA ShootOut 2004",
  "slug": "nba-shootout-2004",
  "year": 2003,
  "banner_url": "",
  "icon_url": "",
  "coverart": "https://lutris.net/media/igdb/cover_big/ojmwt0skuqq5xnez0dyh.jpg",
  "platforms": [
    {
      "name": "Sony PlayStation"
    }
  ],
  "provider_games": [
    {
      "name": "NBA ShootOut 2004",
      "slug": "nba-shootout-2004",
      "service": "igdb"
    }
  ],
  "aliases": [],
  "shaders": [],
  "discord_id": "",
  "change_for": null
}