{
  "id": 82197,
  "name": "Rainbow Web",
  "slug": "rainbow-web",
  "year": null,
  "banner_url": "",
  "icon_url": "",
  "coverart": "https://lutris.net/media/igdb/cover_big/co6okl.jpg",
  "platforms": [],
  "provider_games": [
    {
      "name": "Rainbow Web",
      "slug": "rainbow-web",
      "service": "igdb"
    }
  ],
  "aliases": [],
  "shaders": [],
  "discord_id": "",
  "change_for": null
}