{
  "id": 15467,
  "name": "FPV Drone Simulator",
  "slug": "fpv-drone-simulator",
  "year": 2017,
  "banner_url": "https://lutris.net/games/banner/fpv-drone-simulator.jpg",
  "icon_url": "https://lutris.net/games/icon/fpv-drone-simulator.png",
  "coverart": "https://lutris.net/media/igdb/cover_big/co2bfy.jpg",
  "platforms": [
    {
      "name": "Windows"
    }
  ],
  "provider_games": [
    {
      "name": "FPV Drone Simulator",
      "slug": "691730",
      "service": "steam"
    },
    {
      "name": "FPV Drone Simulator",
      "slug": "fpv-drone-simulator",
      "service": "igdb"
    }
  ],
  "aliases": [],
  "shaders": [],
  "discord_id": "",
  "change_for": null
}