{
  "id": 31949,
  "name": "Escape Legacy : Ancient Scrolls",
  "slug": "escape-legacy-ancient-scrolls",
  "year": null,
  "banner_url": "https://lutris.net/games/banner/escape-legacy-ancient-scrolls.jpg",
  "icon_url": "https://lutris.net/games/icon/escape-legacy-ancient-scrolls.png",
  "coverart": null,
  "platforms": [],
  "provider_games": [
    {
      "name": "Escape Legacy : Ancient Scrolls",
      "slug": "940300",
      "service": "steam"
    }
  ],
  "aliases": [],
  "shaders": [],
  "discord_id": "",
  "change_for": null
}