{
  "id": 73701,
  "name": "Dark Chaser",
  "slug": "dark-chaser",
  "year": null,
  "banner_url": "",
  "icon_url": "",
  "coverart": "https://lutris.net/media/igdb/cover_big/co6djq.jpg",
  "platforms": [],
  "provider_games": [
    {
      "name": "Dark Chaser",
      "slug": "dark-chaser",
      "service": "igdb"
    }
  ],
  "aliases": [],
  "shaders": [],
  "discord_id": "",
  "change_for": null
}