{
  "id": 23306,
  "game_id": 3219,
  "game_slug": "dcs-world",
  "name": "DCS World",
  "year": 2008,
  "user": "enrogue",
  "runner": "wine",
  "slug": "dcs-world-dcs-world-15",
  "version": "DCS World 1.5",
  "description": "Install the non-Steam older version of DCS World 1.5 directly from the Eagle Dynamics website. This installer will allow you to play without any other configuration.",
  "notes": "To be able to use your Joystick/Hotas  you must configure your game in Lutris. Into \"Runner options\", check \"Show advanced options\", scroll down and disable \"Autoconfigure joypads\".",
  "credits": "",
  "created_at": "2020-09-10T21:17:56.553000Z",
  "updated_at": "2023-06-13T01:34:04.059240Z",
  "draft": false,
  "published": true,
  "published_by": 1,
  "rating": "",
  "is_playable": null,
  "steamid": 223750,
  "gogid": null,
  "gogslug": "",
  "humbleid": "",
  "humblestoreid": "",
  "humblestoreid_real": "",
  "script": {
    "files": [
      {
        "client": "https://www.digitalcombatsimulator.com/upload/iblock/063/DCS_World_1.5.8_web.exe"
      }
    ],
    "game": {
      "arch": "win64",
      "exe": "drive_c/Program Files/Eagle Dynamics/DCS World 1.5/bin/DCS_updater.exe",
      "prefix": "$GAMEDIR"
    },
    "installer": [
      {
        "task": {
          "arch": "win64",
          "description": "Creating Wine prefix",
          "name": "create_prefix",
          "prefix": "$GAMEDIR"
        }
      },
      {
        "task": {
          "app": "corefonts vcrun2017 d3dcompiler_43 win10",
          "arch": "win64",
          "name": "winetricks",
          "prefix": "$GAMEDIR"
        }
      },
      {
        "task": {
          "arch": "win64",
          "args": "/S",
          "description": "Installing client",
          "executable": "client",
          "name": "wineexec",
          "prefix": "$GAMEDIR"
        }
      }
    ]
  },
  "content": "files:\n- client: https://www.digitalcombatsimulator.com/upload/iblock/063/DCS_World_1.5.8_web.exe\ngame:\n  arch: win64\n  exe: drive_c/Program Files/Eagle Dynamics/DCS World 1.5/bin/DCS_updater.exe\n  prefix: $GAMEDIR\ninstaller:\n- task:\n    arch: win64\n    description: Creating Wine prefix\n    name: create_prefix\n    prefix: $GAMEDIR\n- task:\n    app: corefonts vcrun2017 d3dcompiler_43 win10\n    arch: win64\n    name: winetricks\n    prefix: $GAMEDIR\n- task:\n    arch: win64\n    args: /S\n    description: Installing client\n    executable: client\n    name: wineexec\n    prefix: $GAMEDIR\n",
  "discord_id": "496568071713062928"
}