{
  "id": 286327,
  "name": "MX vs. ATV: Legends - Deluxe Edition",
  "slug": "mx-vs-atv-legends-deluxe-edition",
  "year": 2024,
  "banner_url": "",
  "icon_url": "",
  "coverart": "https://lutris.net/media/igdb/cover_big/co886v.jpg",
  "platforms": [
    {
      "name": "Xbox One"
    },
    {
      "name": "Xbox Series X|S"
    }
  ],
  "provider_games": [
    {
      "name": "MX vs. ATV: Legends - Deluxe Edition",
      "slug": "mx-vs-atv-legends-deluxe-edition",
      "service": "igdb"
    }
  ],
  "aliases": [],
  "shaders": [],
  "discord_id": "",
  "change_for": null
}