{
  "id": 100905,
  "name": "Chuck's Challenge 3D 2020",
  "slug": "chucks-challenge-3d-2020",
  "year": 2020,
  "banner_url": "",
  "icon_url": "",
  "coverart": "https://lutris.net/media/igdb/cover_big/co2gw9.jpg",
  "platforms": [
    {
      "name": "Linux"
    },
    {
      "name": "Mac"
    },
    {
      "name": "Windows"
    }
  ],
  "provider_games": [
    {
      "name": "Chuck's Challenge 3D 2020",
      "slug": "chucks-challenge-3d-2020",
      "service": "igdb"
    }
  ],
  "aliases": [],
  "shaders": [],
  "discord_id": "",
  "change_for": null
}