{
  "id": 297466,
  "name": "Sonic The Hedgehog",
  "slug": "sonic-the-hedgehog--23",
  "year": null,
  "banner_url": "",
  "icon_url": "",
  "coverart": "https://lutris.net/media/igdb/cover_big/co8ubt.jpg",
  "platforms": [
    {
      "name": "Windows"
    }
  ],
  "provider_games": [
    {
      "name": "Sonic The Hedgehog",
      "slug": "sonic-the-hedgehog--23",
      "service": "igdb"
    }
  ],
  "aliases": [],
  "shaders": [],
  "discord_id": "",
  "change_for": null
}