{
  "id": 228471,
  "name": "NFL Football",
  "slug": "nfl-football--4",
  "year": 1989,
  "banner_url": "",
  "icon_url": "",
  "coverart": "https://lutris.net/media/igdb/cover_big/co5dhv.jpg",
  "platforms": [],
  "provider_games": [
    {
      "name": "NFL Football",
      "slug": "nfl-football--4",
      "service": "igdb"
    }
  ],
  "aliases": [],
  "shaders": [],
  "discord_id": "",
  "change_for": null
}