{
  "id": 268239,
  "name": "Sweet Skullvivors",
  "slug": "sweet-skullvivors",
  "year": null,
  "banner_url": "",
  "icon_url": "",
  "coverart": "https://lutris.net/media/igdb/cover_big/co7hn5.jpg",
  "platforms": [],
  "provider_games": [
    {
      "name": "Sweet Skullvivors",
      "slug": "sweet-skullvivors",
      "service": "igdb"
    }
  ],
  "aliases": [],
  "shaders": [],
  "discord_id": "",
  "change_for": null
}