{
  "id": 214755,
  "name": "The Jumping Lasagne: Turbo",
  "slug": "the-jumping-lasagne-turbo",
  "year": 2022,
  "banner_url": "",
  "icon_url": "",
  "coverart": "https://lutris.net/media/igdb/cover_big/co56ms.jpg",
  "platforms": [
    {
      "name": "Sony Playstation 4"
    },
    {
      "name": "Sony PlayStation 5"
    }
  ],
  "provider_games": [
    {
      "name": "The Jumping Lasagne: Turbo",
      "slug": "the-jumping-lasagne-turbo",
      "service": "igdb"
    }
  ],
  "aliases": [],
  "shaders": [],
  "discord_id": "",
  "change_for": null
}