{
  "id": 248970,
  "name": "Dragon's Doom: A Skyhopper Tale",
  "slug": "dragons-doom-a-skyhopper-tale",
  "year": null,
  "banner_url": "",
  "icon_url": "",
  "coverart": "https://lutris.net/media/igdb/cover_big/co6mms.jpg",
  "platforms": [],
  "provider_games": [
    {
      "name": "Dragon's Doom: A Skyhopper Tale",
      "slug": "dragons-doom-a-skyhopper-tale",
      "service": "igdb"
    }
  ],
  "aliases": [],
  "shaders": [],
  "discord_id": "",
  "change_for": null
}