{
  "id": 65537,
  "name": "Rocky Mountain Trophy Hunter 3",
  "slug": "rocky-mountain-trophy-hunter-3",
  "year": 2000,
  "banner_url": "",
  "icon_url": "",
  "coverart": "https://lutris.net/media/igdb/cover_big/gh161p6hkt9n06kfjcl3.jpg",
  "platforms": [
    {
      "name": "Windows"
    }
  ],
  "provider_games": [
    {
      "name": "Rocky Mountain Trophy Hunter 3",
      "slug": "rocky-mountain-trophy-hunter-3",
      "service": "igdb"
    }
  ],
  "aliases": [],
  "shaders": [],
  "discord_id": "",
  "change_for": null
}