{
  "id": 14505,
  "name": "The Afterglow of Grisaia",
  "slug": "the-afterglow-of-grisaia",
  "year": 2015,
  "banner_url": "https://lutris.net/games/banner/the-afterglow-of-grisaia.jpg",
  "icon_url": "https://lutris.net/games/icon/the-afterglow-of-grisaia.png",
  "coverart": "https://lutris.net/media/igdb/cover_big/co27v6.jpg",
  "platforms": [
    {
      "name": "PlayStation Vita"
    },
    {
      "name": "Windows"
    }
  ],
  "provider_games": [
    {
      "name": "The Afterglow of Grisaia",
      "slug": "464490",
      "service": "steam"
    },
    {
      "name": "The Afterglow of Grisaia",
      "slug": "the-afterglow-of-grisaia",
      "service": "igdb"
    }
  ],
  "aliases": [],
  "shaders": [],
  "discord_id": "",
  "change_for": null
}