{
  "id": 279950,
  "name": "Search All: Candles",
  "slug": "search-all-candles",
  "year": null,
  "banner_url": "",
  "icon_url": "",
  "coverart": "https://lutris.net/media/igdb/cover_big/co7zc4.jpg",
  "platforms": [],
  "provider_games": [
    {
      "name": "Search All: Candles",
      "slug": "search-all-candles",
      "service": "igdb"
    }
  ],
  "aliases": [],
  "shaders": [],
  "discord_id": "",
  "change_for": null
}