{
  "id": 173970,
  "name": "Space Postman Story",
  "slug": "space-postman-story",
  "year": null,
  "banner_url": "",
  "icon_url": "",
  "coverart": null,
  "platforms": [
    {
      "name": "Browser"
    }
  ],
  "provider_games": [
    {
      "name": "Space Postman Story",
      "slug": "space-postman-story",
      "service": "igdb"
    }
  ],
  "aliases": [],
  "shaders": [],
  "discord_id": "",
  "change_for": null
}