{
  "id": 171126,
  "name": "RANCID",
  "slug": "rancid",
  "year": null,
  "banner_url": "",
  "icon_url": "",
  "coverart": "https://lutris.net/media/igdb/cover_big/co4785.jpg",
  "platforms": [],
  "provider_games": [
    {
      "name": "Rancid",
      "slug": "rancid",
      "service": "igdb"
    }
  ],
  "aliases": [],
  "shaders": [],
  "discord_id": "",
  "change_for": null
}