{
  "id": 200319,
  "name": "The Pirates Kill",
  "slug": "the-pirates-kill",
  "year": null,
  "banner_url": "",
  "icon_url": "",
  "coverart": "https://lutris.net/media/igdb/cover_big/co4e0s.jpg",
  "platforms": [],
  "provider_games": [
    {
      "name": "The Pirates Kill",
      "slug": "the-pirates-kill",
      "service": "igdb"
    }
  ],
  "aliases": [],
  "shaders": [],
  "discord_id": "",
  "change_for": null
}