{
  "id": 162201,
  "name": "The Patashnik Parable",
  "slug": "the-patashnik-parable",
  "year": null,
  "banner_url": "",
  "icon_url": "",
  "coverart": null,
  "platforms": [],
  "provider_games": [
    {
      "name": "The Patashnik Parable",
      "slug": "the-patashnik-parable",
      "service": "igdb"
    }
  ],
  "aliases": [],
  "shaders": [],
  "discord_id": "",
  "change_for": null
}