{
  "id": 269630,
  "name": "Asteroids",
  "slug": "asteroids--10",
  "year": null,
  "banner_url": "",
  "icon_url": "",
  "coverart": "https://lutris.net/media/igdb/cover_big/co7kd5.jpg",
  "platforms": [],
  "provider_games": [
    {
      "name": "Asteroids",
      "slug": "asteroids--10",
      "service": "igdb"
    }
  ],
  "aliases": [],
  "shaders": [],
  "discord_id": "",
  "change_for": null
}