{
  "id": 5134,
  "name": "Subspace Continuum",
  "slug": "subspace-continuum",
  "year": 1997,
  "banner_url": "https://lutris.net/games/banner/subspace-continuum.jpg",
  "icon_url": "https://lutris.net/games/icon/subspace-continuum.png",
  "coverart": "https://lutris.net/media/igdb/cover_big/co1uu2.jpg",
  "platforms": [
    {
      "name": "Windows"
    }
  ],
  "provider_games": [
    {
      "name": "Subspace Continuum",
      "slug": "352700",
      "service": "steam"
    },
    {
      "name": "Subspace Continuum",
      "slug": "subspace-continuum",
      "service": "igdb"
    }
  ],
  "aliases": [],
  "shaders": [],
  "discord_id": "",
  "change_for": null
}