{
  "id": 58554,
  "name": "EndlessMobstar",
  "slug": "endlessmobstar",
  "year": null,
  "banner_url": "",
  "icon_url": "",
  "coverart": "https://lutris.net/media/igdb/cover_big/lab5heolicurihrchxmb.jpg",
  "platforms": [],
  "provider_games": [
    {
      "name": "EndlessMobstar",
      "slug": "endlessmobstar",
      "service": "igdb"
    }
  ],
  "aliases": [],
  "shaders": [],
  "discord_id": "",
  "change_for": null
}