{
  "id": 58818,
  "name": "Not Just An Ordinary Ballerina",
  "slug": "not-just-an-ordinary-ballerina",
  "year": null,
  "banner_url": "",
  "icon_url": "",
  "coverart": "https://lutris.net/media/igdb/cover_big/m1lgbehcvwefqthewfgl.jpg",
  "platforms": [],
  "provider_games": [
    {
      "name": "Not Just An Ordinary Ballerina",
      "slug": "not-just-an-ordinary-ballerina",
      "service": "igdb"
    }
  ],
  "aliases": [],
  "shaders": [],
  "discord_id": "",
  "change_for": null
}