{
  "id": 58444,
  "name": "CR Persona 4 the PACHINKO",
  "slug": "cr-persona-4-the-pachinko",
  "year": 2016,
  "banner_url": "",
  "icon_url": "",
  "coverart": "https://lutris.net/media/igdb/cover_big/vuyohjuhjztxmo5vkoat.jpg",
  "platforms": [
    {
      "name": "Android"
    },
    {
      "name": "Windows"
    }
  ],
  "provider_games": [
    {
      "name": "CR Persona 4 the Pachinko",
      "slug": "cr-persona-4-the-pachinko",
      "service": "igdb"
    }
  ],
  "aliases": [],
  "shaders": [],
  "discord_id": "",
  "change_for": null
}