{
  "id": 163008,
  "name": "Harry Potter: Magic Awakened",
  "slug": "harry-potter-magic-awakened",
  "year": 2021,
  "banner_url": "",
  "icon_url": "",
  "coverart": "https://lutris.net/media/igdb/cover_big/co3upd.jpg",
  "platforms": [
    {
      "name": "Android"
    },
    {
      "name": "Windows"
    }
  ],
  "provider_games": [
    {
      "name": "Harry Potter: Magic Awakened",
      "slug": "harry-potter-magic-awakened",
      "service": "igdb"
    }
  ],
  "aliases": [],
  "shaders": [],
  "discord_id": "",
  "change_for": null
}