{
  "id": 23240,
  "name": "Osy Osmosis",
  "slug": "osy-osmosis",
  "year": 2017,
  "banner_url": "https://lutris.net/games/banner/osy-osmosis.jpg",
  "icon_url": "https://lutris.net/games/icon/osy-osmosis.png",
  "coverart": null,
  "platforms": [
    {
      "name": "Linux"
    },
    {
      "name": "Mac"
    },
    {
      "name": "Windows"
    }
  ],
  "provider_games": [
    {
      "name": "Osy Osmosis",
      "slug": "502730",
      "service": "steam"
    },
    {
      "name": "Osy Osmosis",
      "slug": "osy-osmosis",
      "service": "igdb"
    }
  ],
  "aliases": [],
  "shaders": [],
  "discord_id": "",
  "change_for": null
}