{
  "id": 241366,
  "name": "Tower of God: Great Journey",
  "slug": "tower-of-god-great-journey",
  "year": null,
  "banner_url": "",
  "icon_url": "",
  "coverart": "https://lutris.net/media/igdb/cover_big/co6dpo.jpg",
  "platforms": [],
  "provider_games": [
    {
      "name": "Tower of God: Great Journey",
      "slug": "tower-of-god-great-journey",
      "service": "igdb"
    }
  ],
  "aliases": [],
  "shaders": [],
  "discord_id": "",
  "change_for": null
}