{
  "id": 274440,
  "name": "Slime, Fire and Soul",
  "slug": "slime-fire-and-soul",
  "year": null,
  "banner_url": "",
  "icon_url": "",
  "coverart": "https://lutris.net/media/igdb/cover_big/co7sfu.jpg",
  "platforms": [],
  "provider_games": [
    {
      "name": "Slime, Fire and Soul",
      "slug": "slime-fire-and-soul",
      "service": "igdb"
    }
  ],
  "aliases": [],
  "shaders": [],
  "discord_id": "",
  "change_for": null
}