{
  "id": 18258,
  "name": "Mini-Dead",
  "slug": "mini-dead",
  "year": 2018,
  "banner_url": "https://lutris.net/games/banner/mini-dead.jpg",
  "icon_url": "https://lutris.net/games/icon/mini-dead.png",
  "coverart": "https://lutris.net/media/igdb/cover_big/co3oeh.jpg",
  "platforms": [
    {
      "name": "Windows"
    }
  ],
  "provider_games": [
    {
      "name": "Mini-Dead",
      "slug": "851530",
      "service": "steam"
    },
    {
      "name": "Mini-Dead",
      "slug": "mini-dead",
      "service": "igdb"
    }
  ],
  "aliases": [],
  "shaders": [],
  "discord_id": "",
  "change_for": null
}