{
  "id": 56025,
  "name": "Shin Nippon Pro Wrestling: Toukon Sanjushi",
  "slug": "shin-nippon-pro-wrestling-toukon-sanjushi",
  "year": 1991,
  "banner_url": "",
  "icon_url": "",
  "coverart": "https://lutris.net/media/igdb/cover_big/x8mmibqi0n0tfhmo5yph.jpg",
  "platforms": [
    {
      "name": "Game Boy"
    }
  ],
  "provider_games": [
    {
      "name": "Shin Nippon Pro Wrestling: Toukon Sanjushi",
      "slug": "shin-nippon-pro-wrestling-toukon-sanjushi",
      "service": "igdb"
    }
  ],
  "aliases": [],
  "shaders": [],
  "discord_id": "",
  "change_for": null
}