{
  "id": 215994,
  "name": "Super Vecter Elite Turbo",
  "slug": "super-vecter-elite-turbo",
  "year": null,
  "banner_url": "",
  "icon_url": "",
  "coverart": "https://lutris.net/media/igdb/cover_big/co58h2.jpg",
  "platforms": [],
  "provider_games": [
    {
      "name": "Super Vecter Elite Turbo",
      "slug": "super-vecter-elite-turbo",
      "service": "igdb"
    }
  ],
  "aliases": [],
  "shaders": [],
  "discord_id": "",
  "change_for": null
}