{
  "id": 12802,
  "name": "Gem Forge",
  "slug": "gem-forge",
  "year": 2016,
  "banner_url": "https://lutris.net/games/banner/gem-forge.jpg",
  "icon_url": "https://lutris.net/games/icon/gem-forge.png",
  "coverart": "https://lutris.net/media/igdb/cover_big/co4180.jpg",
  "platforms": [
    {
      "name": "Mac"
    },
    {
      "name": "Windows"
    }
  ],
  "provider_games": [
    {
      "name": "Gem Forge",
      "slug": "546170",
      "service": "steam"
    },
    {
      "name": "Gem Forge",
      "slug": "gem-forge",
      "service": "igdb"
    }
  ],
  "aliases": [],
  "shaders": [],
  "discord_id": "",
  "change_for": null
}