{
  "id": 59847,
  "name": "DrawRace",
  "slug": "drawrace",
  "year": null,
  "banner_url": "",
  "icon_url": "",
  "coverart": "https://lutris.net/media/igdb/cover_big/k7rbkfwiaoikhxomumms.jpg",
  "platforms": [],
  "provider_games": [
    {
      "name": "DrawRace",
      "slug": "drawrace",
      "service": "igdb"
    }
  ],
  "aliases": [],
  "shaders": [],
  "discord_id": "",
  "change_for": null
}