{
  "id": 265095,
  "name": "Gemaboy Zero X",
  "slug": "gemaboy-zero-x",
  "year": null,
  "banner_url": "",
  "icon_url": "",
  "coverart": "https://lutris.net/media/igdb/cover_big/co7bcu.jpg",
  "platforms": [],
  "provider_games": [
    {
      "name": "Gemaboy Zero X",
      "slug": "gemaboy-zero-x",
      "service": "igdb"
    }
  ],
  "aliases": [],
  "shaders": [],
  "discord_id": "",
  "change_for": null
}