{
  "id": 204267,
  "name": "[TDA02] Muv-Luv Unlimited: THE DAY AFTER - Episode 02 REMASTERED",
  "slug": "tda02-muv-luv-unlimited-the-day-after-episode-02-r",
  "year": null,
  "banner_url": "https://lutris.net/games/banner/tda02-muv-luv-unlimited-the-day-after-episode-02-r.jpg",
  "icon_url": "https://lutris.net/games/icon/tda02-muv-luv-unlimited-the-day-after-episode-02-r.png",
  "coverart": null,
  "platforms": [],
  "provider_games": [
    {
      "name": "[TDA02] Muv-Luv Unlimited: THE DAY AFTER - Episode 02 REMASTERED",
      "slug": "1342410",
      "service": "steam"
    }
  ],
  "aliases": [],
  "shaders": [],
  "discord_id": "",
  "change_for": null
}