{
  "id": 212453,
  "name": "Nikakudori",
  "slug": "nikakudori",
  "year": null,
  "banner_url": "",
  "icon_url": "",
  "coverart": null,
  "platforms": [],
  "provider_games": [
    {
      "name": "Nikakudori",
      "slug": "nikakudori",
      "service": "igdb"
    }
  ],
  "aliases": [],
  "shaders": [],
  "discord_id": "",
  "change_for": null
}