{
  "id": 224545,
  "name": "Starry Sky: After Winter",
  "slug": "starry-sky-after-winter",
  "year": 2012,
  "banner_url": "",
  "icon_url": "",
  "coverart": "https://lutris.net/media/igdb/cover_big/co4u0z.jpg",
  "platforms": [
    {
      "name": "Windows"
    }
  ],
  "provider_games": [
    {
      "name": "Starry Sky: After Winter",
      "slug": "starry-sky-after-winter",
      "service": "igdb"
    }
  ],
  "aliases": [],
  "shaders": [],
  "discord_id": "",
  "change_for": null
}