{
  "id": 93514,
  "name": "Speed Hero VS Mega Ramp – Vertical Ramp Extreme",
  "slug": "speed-hero-vs-mega-ramp-vertical-ramp-extreme",
  "year": null,
  "banner_url": "",
  "icon_url": "",
  "coverart": null,
  "platforms": [],
  "provider_games": [
    {
      "name": "Speed Hero VS Mega Ramp – Vertical Ramp Extreme",
      "slug": "speed-hero-vs-mega-ramp-vertical-ramp-extreme",
      "service": "igdb"
    }
  ],
  "aliases": [],
  "shaders": [],
  "discord_id": "",
  "change_for": null
}