{
  "id": 88145,
  "name": "Scrabble Classic",
  "slug": "scrabble-classic",
  "year": 2010,
  "banner_url": "",
  "icon_url": "",
  "coverart": "https://lutris.net/media/igdb/cover_big/sdajp9arrvxkel7lirkj.jpg",
  "platforms": [
    {
      "name": "Nintendo DSi"
    }
  ],
  "provider_games": [
    {
      "name": "Scrabble Classic",
      "slug": "scrabble-classic",
      "service": "igdb"
    }
  ],
  "aliases": [],
  "shaders": [],
  "discord_id": "",
  "change_for": null
}