{
  "id": 33613,
  "name": "Carrier Air Wing",
  "slug": "carrier-air-wing",
  "year": 1990,
  "banner_url": "",
  "icon_url": "https://lutris.net/games/icon/carrier-air-wing.png",
  "coverart": "https://lutris.net/media/igdb/cover_big/co31fd.jpg",
  "platforms": [
    {
      "name": "Arcade"
    }
  ],
  "provider_games": [
    {
      "name": "Carrier Air Wing",
      "slug": "cawing",
      "service": "mame"
    },
    {
      "name": "Carrier Air Wing",
      "slug": "carrier-air-wing",
      "service": "igdb"
    }
  ],
  "aliases": [],
  "shaders": [],
  "discord_id": "",
  "change_for": null
}