{
  "id": 192135,
  "name": "Aquarist - first job",
  "slug": "aquarist-first-job",
  "year": null,
  "banner_url": "https://lutris.net/games/banner/aquarist-first-job.jpg",
  "icon_url": "https://lutris.net/games/icon/aquarist-first-job.png",
  "coverart": null,
  "platforms": [],
  "provider_games": [
    {
      "name": "Aquarist - first job",
      "slug": "1584660",
      "service": "steam"
    }
  ],
  "aliases": [],
  "shaders": [],
  "discord_id": "",
  "change_for": null
}