{
  "id": 177534,
  "name": "World Heroes Anthology",
  "slug": "world-heroes-anthology",
  "year": 2008,
  "banner_url": "",
  "icon_url": "",
  "coverart": "https://lutris.net/media/igdb/cover_big/kektdqwbv6az2qjujiqv.jpg",
  "platforms": [
    {
      "name": "Sony PlayStation 2"
    }
  ],
  "provider_games": [
    {
      "name": "World Heroes Anthology",
      "slug": "world-heroes-anthology",
      "service": "igdb"
    }
  ],
  "aliases": [],
  "shaders": [],
  "discord_id": "",
  "change_for": null
}