{
  "id": 24131,
  "name": "Dying Light: The Following – Enhanced Edition",
  "slug": "dying-light-the-following-enhanced-edition",
  "year": 2016,
  "banner_url": "https://lutris.net/games/banner/dying-light-the-following-enhanced-edition.jpg",
  "icon_url": "",
  "coverart": "https://lutris.net/media/igdb/cover_big/z5hhf66543uuud3l6eoe.jpg",
  "platforms": [
    {
      "name": "Sony Playstation 4"
    },
    {
      "name": "Windows"
    },
    {
      "name": "Xbox One"
    }
  ],
  "provider_games": [
    {
      "name": "Dying Light: The Following – Enhanced Edition",
      "slug": "1448452156",
      "service": "gog"
    },
    {
      "name": "Dying Light: The Following - Enhanced Edition",
      "slug": "dying-light-the-following-enhanced-edition",
      "service": "igdb"
    }
  ],
  "aliases": [],
  "shaders": [],
  "discord_id": "",
  "change_for": null
}