{
  "id": 10471,
  "name": "King Lucas",
  "slug": "king-lucas",
  "year": 2016,
  "banner_url": "https://lutris.net/games/banner/king-lucas.jpg",
  "icon_url": "https://lutris.net/games/icon/king-lucas.png",
  "coverart": "https://lutris.net/media/igdb/cover_big/co1zud.jpg",
  "platforms": [
    {
      "name": "Linux"
    },
    {
      "name": "Mac"
    },
    {
      "name": "Nintendo Switch"
    },
    {
      "name": "Windows"
    }
  ],
  "provider_games": [
    {
      "name": "King Lucas",
      "slug": "391600",
      "service": "steam"
    },
    {
      "name": "King Lucas",
      "slug": "king-lucas",
      "service": "igdb"
    }
  ],
  "aliases": [],
  "shaders": [],
  "discord_id": "",
  "change_for": null
}