{
  "id": 194890,
  "name": "Electronic Disney's Aladdin",
  "slug": "electronic-disneys-aladdin",
  "year": null,
  "banner_url": "",
  "icon_url": "",
  "coverart": "https://lutris.net/media/igdb/cover_big/co4q3x.jpg",
  "platforms": [],
  "provider_games": [
    {
      "name": "Electronic Disney's Aladdin",
      "slug": "electronic-disneys-aladdin",
      "service": "igdb"
    }
  ],
  "aliases": [],
  "shaders": [],
  "discord_id": "",
  "change_for": null
}