{
  "id": 66666,
  "name": "Scott Adams' Graphic Adventure #4: Voodoo Castle",
  "slug": "scott-adams-graphic-adventure-number-4-voodoo-castle",
  "year": null,
  "banner_url": "",
  "icon_url": "",
  "coverart": "https://lutris.net/media/igdb/cover_big/lv3c3b2pzweuxzfr18gy.jpg",
  "platforms": [],
  "provider_games": [
    {
      "name": "Scott Adams' Graphic Adventure #4: Voodoo Castle",
      "slug": "scott-adams-graphic-adventure-number-4-voodoo-castle",
      "service": "igdb"
    }
  ],
  "aliases": [],
  "shaders": [],
  "discord_id": "",
  "change_for": null
}