{
  "id": 13452,
  "name": "Silver Bullet: Prometheus",
  "slug": "silver-bullet-prometheus",
  "year": 2016,
  "banner_url": "https://lutris.net/games/banner/silver-bullet-prometheus.jpg",
  "icon_url": "https://lutris.net/games/icon/silver-bullet-prometheus.png",
  "coverart": "https://lutris.net/media/igdb/cover_big/co3a2g.jpg",
  "platforms": [
    {
      "name": "Windows"
    }
  ],
  "provider_games": [
    {
      "name": "Silver Bullet: Prometheus",
      "slug": "446250",
      "service": "steam"
    },
    {
      "name": "Silver Bullet: Prometheus",
      "slug": "silver-bullet-prometheus",
      "service": "igdb"
    }
  ],
  "aliases": [],
  "shaders": [],
  "discord_id": "",
  "change_for": null
}