{
  "id": 114829,
  "name": "Summer: Life in the Countryside",
  "slug": "summer-life-in-the-countryside",
  "year": 2021,
  "banner_url": "",
  "icon_url": "",
  "coverart": "https://lutris.net/media/igdb/cover_big/co2x93.jpg",
  "platforms": [
    {
      "name": "Windows"
    }
  ],
  "provider_games": [
    {
      "name": "Summer: Life in the Countryside",
      "slug": "summer-life-in-the-countryside",
      "service": "igdb"
    }
  ],
  "aliases": [],
  "shaders": [],
  "discord_id": "",
  "change_for": null
}