{
  "id": 74240,
  "name": "Bakuretsu Hunters: Mahjong Special",
  "slug": "bakuretsu-hunters-mahjong-special",
  "year": null,
  "banner_url": "",
  "icon_url": "",
  "coverart": "https://lutris.net/media/igdb/cover_big/co8v79.jpg",
  "platforms": [],
  "provider_games": [
    {
      "name": "Bakuretsu Hunters: Mahjong Special",
      "slug": "bakuretsu-hunters-mahjong-special",
      "service": "igdb"
    }
  ],
  "aliases": [],
  "shaders": [],
  "discord_id": "",
  "change_for": null
}