{
  "id": 164963,
  "name": "Space Duels",
  "slug": "space-duels",
  "year": null,
  "banner_url": "",
  "icon_url": "",
  "coverart": "https://lutris.net/media/igdb/cover_big/co41ul.jpg",
  "platforms": [],
  "provider_games": [
    {
      "name": "Space Duels",
      "slug": "space-duels",
      "service": "igdb"
    }
  ],
  "aliases": [],
  "shaders": [],
  "discord_id": "",
  "change_for": null
}