{
  "id": 250094,
  "name": "Gangster Coin Pusher",
  "slug": "gangster-coin-pusher",
  "year": null,
  "banner_url": "",
  "icon_url": "",
  "coverart": "https://lutris.net/media/igdb/cover_big/co6p26.jpg",
  "platforms": [],
  "provider_games": [
    {
      "name": "Gangster Coin Pusher",
      "slug": "gangster-coin-pusher",
      "service": "igdb"
    }
  ],
  "aliases": [],
  "shaders": [],
  "discord_id": "",
  "change_for": null
}