{
  "id": 137795,
  "name": "Border Break",
  "slug": "border-break",
  "year": 2018,
  "banner_url": "",
  "icon_url": "",
  "coverart": "https://lutris.net/media/igdb/cover_big/co1tyj.jpg",
  "platforms": [
    {
      "name": "Sony Playstation 4"
    }
  ],
  "provider_games": [
    {
      "name": "Border Break",
      "slug": "border-break",
      "service": "igdb"
    }
  ],
  "aliases": [],
  "shaders": [],
  "discord_id": "",
  "change_for": null
}