{
  "id": 285174,
  "name": "Crab Digger: Tropical Island",
  "slug": "crab-digger-tropical-island",
  "year": 2024,
  "banner_url": "",
  "icon_url": "",
  "coverart": "https://lutris.net/media/igdb/cover_big/co87a4.jpg",
  "platforms": [
    {
      "name": "Nintendo Switch"
    }
  ],
  "provider_games": [
    {
      "name": "Crab Digger: Tropical Island",
      "slug": "crab-digger-tropical-island",
      "service": "igdb"
    }
  ],
  "aliases": [],
  "shaders": [],
  "discord_id": "",
  "change_for": null
}