{
  "id": 76161,
  "name": "Snare",
  "slug": "snare",
  "year": 1989,
  "banner_url": "",
  "icon_url": "",
  "coverart": "https://lutris.net/media/igdb/cover_big/co7yvm.jpg",
  "platforms": [
    {
      "name": "Commodore C64/128"
    }
  ],
  "provider_games": [
    {
      "name": "Snare",
      "slug": "snare",
      "service": "igdb"
    }
  ],
  "aliases": [],
  "shaders": [],
  "discord_id": "",
  "change_for": null
}