{
  "id": 124077,
  "name": "Tesla: The Weather Man",
  "slug": "tesla-the-weather-man",
  "year": null,
  "banner_url": "",
  "icon_url": "",
  "coverart": "https://lutris.net/media/igdb/cover_big/spsysccglrj10n55v8fv.jpg",
  "platforms": [],
  "provider_games": [
    {
      "name": "Tesla: The Weather Man",
      "slug": "tesla-the-weather-man",
      "service": "igdb"
    }
  ],
  "aliases": [],
  "shaders": [],
  "discord_id": "",
  "change_for": null
}