{
  "id": 5384,
  "name": "LA Cops",
  "slug": "la-cops",
  "year": 2015,
  "banner_url": "https://lutris.net/games/banner/la-cops.jpg",
  "icon_url": "https://lutris.net/games/icon/la-cops.png",
  "coverart": "https://lutris.net/media/igdb/cover_big/co454c.jpg",
  "platforms": [
    {
      "name": "Mac"
    },
    {
      "name": "Sony Playstation 4"
    },
    {
      "name": "Windows"
    },
    {
      "name": "Xbox One"
    }
  ],
  "provider_games": [
    {
      "name": "LA Cops",
      "slug": "278810",
      "service": "steam"
    },
    {
      "name": "LA Cops",
      "slug": "la-cops",
      "service": "igdb"
    }
  ],
  "aliases": [],
  "shaders": [],
  "discord_id": "",
  "change_for": null
}