{
  "id": 74345,
  "name": "Mahjong Haoh: Jansō Battle",
  "slug": "mahjong-haoh-janso-battle",
  "year": null,
  "banner_url": "",
  "icon_url": "",
  "coverart": "https://lutris.net/media/igdb/cover_big/co4ujq.jpg",
  "platforms": [],
  "provider_games": [
    {
      "name": "Mahjong Haoh: Jansō Battle",
      "slug": "mahjong-haoh-janso-battle",
      "service": "igdb"
    }
  ],
  "aliases": [],
  "shaders": [],
  "discord_id": "",
  "change_for": null
}