{
  "id": 126976,
  "name": "Ronaldinho Campeonato Brasileiro 98",
  "slug": "ronaldinho-campeonato-brasileiro-98",
  "year": 1998,
  "banner_url": "",
  "icon_url": "",
  "coverart": "https://lutris.net/media/igdb/cover_big/co2mr8.jpg",
  "platforms": [
    {
      "name": "Super Nintendo"
    }
  ],
  "provider_games": [
    {
      "name": "Ronaldinho Campeonato Brasileiro 98",
      "slug": "ronaldinho-campeonato-brasileiro-98",
      "service": "igdb"
    }
  ],
  "aliases": [],
  "shaders": [],
  "discord_id": "",
  "change_for": null
}