{
  "id": 89503,
  "name": "Classic snake final",
  "slug": "classic-snake-final",
  "year": null,
  "banner_url": "",
  "icon_url": "",
  "coverart": null,
  "platforms": [],
  "provider_games": [
    {
      "name": "Classic snake final",
      "slug": "classic-snake-final",
      "service": "igdb"
    }
  ],
  "aliases": [],
  "shaders": [],
  "discord_id": "",
  "change_for": null
}