{
  "id": 277398,
  "name": "Stellar Legacy",
  "slug": "stellar-legacy",
  "year": null,
  "banner_url": "",
  "icon_url": "",
  "coverart": "https://lutris.net/media/igdb/cover_big/co7w2h.jpg",
  "platforms": [],
  "provider_games": [
    {
      "name": "Stellar Legacy",
      "slug": "stellar-legacy",
      "service": "igdb"
    }
  ],
  "aliases": [],
  "shaders": [],
  "discord_id": "",
  "change_for": null
}