{
  "id": 211720,
  "name": "Solitaire Fish Klondike",
  "slug": "solitaire-fish-klondike",
  "year": null,
  "banner_url": "",
  "icon_url": "",
  "coverart": null,
  "platforms": [],
  "provider_games": [
    {
      "name": "Solitaire Fish Klondike",
      "slug": "solitaire-fish-klondike",
      "service": "igdb"
    }
  ],
  "aliases": [],
  "shaders": [],
  "discord_id": "",
  "change_for": null
}