{
  "id": 34340,
  "name": "Galactic Warriors",
  "slug": "galactic-warriors",
  "year": 1985,
  "banner_url": "",
  "icon_url": "https://lutris.net/games/icon/galactic-warriors.png",
  "coverart": "https://lutris.net/media/igdb/cover_big/j6etkqnsr5xolxr06ctj.jpg",
  "platforms": [
    {
      "name": "Arcade"
    }
  ],
  "provider_games": [
    {
      "name": "Galactic Warriors",
      "slug": "gwarrior",
      "service": "mame"
    },
    {
      "name": "Galactic Warriors",
      "slug": "galactic-warriors",
      "service": "igdb"
    }
  ],
  "aliases": [],
  "shaders": [],
  "discord_id": "",
  "change_for": null
}