{
  "id": 271353,
  "name": "Family Trainer: Totsugeki! Fuuun Takeshi-jou",
  "slug": "family-trainer-totsugeki-fuuun-takeshi-jou",
  "year": 1987,
  "banner_url": "",
  "icon_url": "",
  "coverart": null,
  "platforms": [
    {
      "name": "Family Computer"
    }
  ],
  "provider_games": [
    {
      "name": "Family Trainer: Totsugeki! Fuuun Takeshi-jou",
      "slug": "family-trainer-totsugeki-fuuun-takeshi-jou",
      "service": "igdb"
    }
  ],
  "aliases": [],
  "shaders": [],
  "discord_id": "",
  "change_for": null
}