{
  "id": 112318,
  "name": "Pool Paradise: International Edition",
  "slug": "pool-paradise-international-edition",
  "year": 2006,
  "banner_url": "",
  "icon_url": "",
  "coverart": "https://lutris.net/media/igdb/cover_big/co3171.jpg",
  "platforms": [
    {
      "name": "Sony PlayStation 2"
    }
  ],
  "provider_games": [
    {
      "name": "Pool Paradise: International Edition",
      "slug": "pool-paradise-international-edition",
      "service": "igdb"
    }
  ],
  "aliases": [],
  "shaders": [],
  "discord_id": "",
  "change_for": null
}