{
  "id": 22739,
  "name": "Mahjong Classic",
  "slug": "mahjong-classic",
  "year": null,
  "banner_url": "https://lutris.net/games/banner/mahjong-classic.jpg",
  "icon_url": "https://lutris.net/games/icon/mahjong-classic.png",
  "coverart": null,
  "platforms": [],
  "provider_games": [
    {
      "name": "Mahjong Classic",
      "slug": "807780",
      "service": "steam"
    }
  ],
  "aliases": [],
  "shaders": [],
  "discord_id": "",
  "change_for": null
}