{
  "id": 216071,
  "name": "Wheeled Warriors: Ultimate Destruction",
  "slug": "wheeled-warriors-ultimate-destruction",
  "year": null,
  "banner_url": "",
  "icon_url": "",
  "coverart": "https://lutris.net/media/igdb/cover_big/co58f7.jpg",
  "platforms": [],
  "provider_games": [
    {
      "name": "Wheeled Warriors: Ultimate Destruction",
      "slug": "wheeled-warriors-ultimate-destruction",
      "service": "igdb"
    }
  ],
  "aliases": [],
  "shaders": [],
  "discord_id": "",
  "change_for": null
}