{
  "id": 134091,
  "name": "Beer!",
  "slug": "beer--1",
  "year": null,
  "banner_url": "",
  "icon_url": "",
  "coverart": "https://lutris.net/media/igdb/cover_big/co3m2p.jpg",
  "platforms": [],
  "provider_games": [
    {
      "name": "Beer!",
      "slug": "beer--1",
      "service": "igdb"
    },
    {
      "name": "Beer!",
      "slug": "2127870128",
      "service": "gog"
    }
  ],
  "aliases": [],
  "shaders": [],
  "discord_id": "",
  "change_for": null
}