{
  "id": 159559,
  "name": "Soul Land Reloaded",
  "slug": "soul-land-reloaded",
  "year": null,
  "banner_url": "",
  "icon_url": "",
  "coverart": null,
  "platforms": [],
  "provider_games": [
    {
      "name": "Soul Land Reloaded",
      "slug": "soul-land-reloaded",
      "service": "igdb"
    }
  ],
  "aliases": [],
  "shaders": [],
  "discord_id": "",
  "change_for": null
}