{
  "id": 181084,
  "name": "Let's Sing 2022 with German Hits: Platinum Edition",
  "slug": "lets-sing-2022-with-german-hits-platinum-edition",
  "year": 2021,
  "banner_url": "",
  "icon_url": "",
  "coverart": "https://lutris.net/media/igdb/cover_big/co4ah3.jpg",
  "platforms": [
    {
      "name": "Xbox One"
    },
    {
      "name": "Xbox Series X|S"
    }
  ],
  "provider_games": [
    {
      "name": "Let's Sing 2022 with German Hits: Platinum Edition",
      "slug": "lets-sing-2022-with-german-hits-platinum-edition",
      "service": "igdb"
    }
  ],
  "aliases": [],
  "shaders": [],
  "discord_id": "",
  "change_for": null
}