{
  "id": 283061,
  "name": "The Baba Yaga",
  "slug": "the-baba-yaga",
  "year": null,
  "banner_url": "",
  "icon_url": "",
  "coverart": "https://lutris.net/media/igdb/cover_big/co83ew.jpg",
  "platforms": [],
  "provider_games": [
    {
      "name": "The Baba Yaga",
      "slug": "the-baba-yaga",
      "service": "igdb"
    }
  ],
  "aliases": [],
  "shaders": [],
  "discord_id": "",
  "change_for": null
}