{
  "id": 231729,
  "name": "4 Seasons Runner",
  "slug": "4-seasons-runner",
  "year": null,
  "banner_url": "",
  "icon_url": "",
  "coverart": "https://lutris.net/media/igdb/cover_big/co6c3i.jpg",
  "platforms": [],
  "provider_games": [
    {
      "name": "4 Seasons Runner",
      "slug": "4-seasons-runner",
      "service": "igdb"
    }
  ],
  "aliases": [],
  "shaders": [],
  "discord_id": "",
  "change_for": null
}