{
  "id": 75731,
  "name": "Ripped/Apart",
  "slug": "ripped-slash-apart",
  "year": null,
  "banner_url": "",
  "icon_url": "",
  "coverart": null,
  "platforms": [],
  "provider_games": [
    {
      "name": "Ripped/Apart",
      "slug": "ripped-slash-apart",
      "service": "igdb"
    }
  ],
  "aliases": [],
  "shaders": [],
  "discord_id": "",
  "change_for": null
}