{
  "id": 92359,
  "name": "EVA",
  "slug": "eva",
  "year": null,
  "banner_url": "",
  "icon_url": "",
  "coverart": "https://lutris.net/media/igdb/cover_big/co7e5m.jpg",
  "platforms": [],
  "provider_games": [
    {
      "name": "Eva",
      "slug": "eva",
      "service": "igdb"
    }
  ],
  "aliases": [],
  "shaders": [],
  "discord_id": "",
  "change_for": null
}