{
  "id": 34036,
  "name": "Exerion",
  "slug": "exerion",
  "year": 1983,
  "banner_url": "https://lutris.net/games/banner/exerion.jpg",
  "icon_url": "https://lutris.net/games/icon/exerion.png",
  "coverart": "https://lutris.net/media/igdb/cover_big/vly0fy1lerpqv2jyuys1.jpg",
  "platforms": [
    {
      "name": "Arcade"
    },
    {
      "name": "MSX"
    },
    {
      "name": "NES"
    },
    {
      "name": "Nintendo Wii"
    },
    {
      "name": "SG-1000"
    }
  ],
  "provider_games": [
    {
      "name": "Exerion",
      "slug": "exerion",
      "service": "mame"
    },
    {
      "name": "Exerion",
      "slug": "exerion",
      "service": "igdb"
    }
  ],
  "aliases": [],
  "shaders": [],
  "discord_id": "",
  "change_for": null
}