{
  "id": 236575,
  "name": "Apoth",
  "slug": "apoth",
  "year": null,
  "banner_url": "",
  "icon_url": "",
  "coverart": "https://lutris.net/media/igdb/cover_big/co664e.jpg",
  "platforms": [],
  "provider_games": [
    {
      "name": "Apoth",
      "slug": "apoth",
      "service": "igdb"
    }
  ],
  "aliases": [],
  "shaders": [],
  "discord_id": "",
  "change_for": null
}