{
  "id": 143567,
  "name": "Shin Megami Tensei: Devil Children - Red Book",
  "slug": "shin-megami-tensei-devil-children-red-book",
  "year": 2000,
  "banner_url": "",
  "icon_url": "",
  "coverart": "https://lutris.net/media/igdb/cover_big/co2e50.jpg",
  "platforms": [
    {
      "name": "Nintendo 3DS"
    },
    {
      "name": "Nintendo Game Boy Color"
    }
  ],
  "provider_games": [
    {
      "name": "Shin Megami Tensei: Devil Children - Red Book",
      "slug": "shin-megami-tensei-devil-children-red-book",
      "service": "igdb"
    }
  ],
  "aliases": [],
  "shaders": [],
  "discord_id": "",
  "change_for": null
}