{
  "id": 99337,
  "name": "Silvern Castle: The Lost Crystal Orb",
  "slug": "silvern-castle-the-lost-crystal-orb",
  "year": 1999,
  "banner_url": "",
  "icon_url": "",
  "coverart": "https://lutris.net/media/igdb/cover_big/co1v7d.jpg",
  "platforms": [
    {
      "name": "Apple II"
    }
  ],
  "provider_games": [
    {
      "name": "Silvern Castle: The Lost Crystal Orb",
      "slug": "silvern-castle-the-lost-crystal-orb",
      "service": "igdb"
    }
  ],
  "aliases": [],
  "shaders": [],
  "discord_id": "",
  "change_for": null
}