{
  "id": 134101,
  "name": "Beyond Enemy Lines: Operation Arctic Hawk",
  "slug": "beyond-enemy-lines-operation-arctic-hawk",
  "year": null,
  "banner_url": "",
  "icon_url": "",
  "coverart": "https://lutris.net/media/igdb/cover_big/co3m3t.jpg",
  "platforms": [],
  "provider_games": [
    {
      "name": "Beyond Enemy Lines: Operation Arctic Hawk",
      "slug": "beyond-enemy-lines-operation-arctic-hawk",
      "service": "igdb"
    }
  ],
  "aliases": [],
  "shaders": [],
  "discord_id": "",
  "change_for": null
}