{
  "id": 3942,
  "name": "REVOLVER360 RE:ACTOR",
  "slug": "revolver360-reactor",
  "year": 2014,
  "banner_url": "https://lutris.net/games/banner/revolver360-reactor.jpg",
  "icon_url": "https://lutris.net/games/icon/revolver360-reactor.png",
  "coverart": null,
  "platforms": [
    {
      "name": "Windows"
    }
  ],
  "provider_games": [
    {
      "name": "REVOLVER360 RE:ACTOR",
      "slug": "1427964976",
      "service": "gog"
    },
    {
      "name": "REVOLVER360 RE:ACTOR",
      "slug": "313400",
      "service": "steam"
    }
  ],
  "aliases": [],
  "shaders": [],
  "discord_id": "",
  "change_for": null
}