{
  "id": 78909,
  "name": "Clarence: Thirty Days & Seven Seas",
  "slug": "clarence-thirty-days-and-seven-seas",
  "year": 2015,
  "banner_url": "",
  "icon_url": "",
  "coverart": "https://lutris.net/media/igdb/cover_big/wbtkmfq1rsnuoh2fituv.jpg",
  "platforms": [
    {
      "name": "Android"
    }
  ],
  "provider_games": [
    {
      "name": "Clarence: Thirty Days & Seven Seas",
      "slug": "clarence-thirty-days-and-seven-seas",
      "service": "igdb"
    }
  ],
  "aliases": [],
  "shaders": [],
  "discord_id": "",
  "change_for": null
}