{
  "id": 280365,
  "name": "Toadette's Sweets Gallery",
  "slug": "toadettes-sweets-gallery",
  "year": 2019,
  "banner_url": "",
  "icon_url": "",
  "coverart": "https://lutris.net/media/igdb/cover_big/co8pgm.jpg",
  "platforms": [
    {
      "name": "Windows"
    }
  ],
  "provider_games": [
    {
      "name": "Toadette's Sweets Gallery",
      "slug": "toadettes-sweets-gallery",
      "service": "igdb"
    }
  ],
  "aliases": [],
  "shaders": [],
  "discord_id": "",
  "change_for": null
}