{
  "id": 77241,
  "name": "Toy Hunter",
  "slug": "toy-hunter",
  "year": null,
  "banner_url": "",
  "icon_url": "",
  "coverart": null,
  "platforms": [],
  "provider_games": [
    {
      "name": "Toy Hunter",
      "slug": "toy-hunter",
      "service": "igdb"
    }
  ],
  "aliases": [],
  "shaders": [],
  "discord_id": "",
  "change_for": null
}