{
  "id": 245696,
  "name": "Tomb of Maze Escape: ASMR",
  "slug": "tomb-of-maze-escape-asmr",
  "year": 2023,
  "banner_url": "",
  "icon_url": "",
  "coverart": "https://lutris.net/media/igdb/cover_big/co7mkd.jpg",
  "platforms": [
    {
      "name": "Android"
    }
  ],
  "provider_games": [
    {
      "name": "Tomb of Maze Escape: ASMR",
      "slug": "tomb-of-maze-escape-asmr",
      "service": "igdb"
    }
  ],
  "aliases": [],
  "shaders": [],
  "discord_id": "",
  "change_for": null
}