{
  "id": 8835,
  "name": "Physic Monster",
  "slug": "physic-monster",
  "year": 2016,
  "banner_url": "https://lutris.net/games/banner/physic-monster.jpg",
  "icon_url": "https://lutris.net/games/icon/physic-monster.png",
  "coverart": "https://lutris.net/media/igdb/cover_big/xehqyx2blzsbs14refrl.jpg",
  "platforms": [
    {
      "name": "Windows"
    }
  ],
  "provider_games": [
    {
      "name": "Physic Monster",
      "slug": "physic-monster",
      "service": "igdb"
    }
  ],
  "aliases": [],
  "shaders": [],
  "discord_id": "",
  "change_for": null
}