{
  "id": 143872,
  "name": "Sokoban (Boxman) Classic",
  "slug": "sokoban-boxman-classic",
  "year": null,
  "banner_url": "",
  "icon_url": "",
  "coverart": "https://lutris.net/media/igdb/cover_big/co3ul4.jpg",
  "platforms": [],
  "provider_games": [
    {
      "name": "Sokoban (Boxman) Classic",
      "slug": "sokoban-boxman-classic",
      "service": "igdb"
    }
  ],
  "aliases": [],
  "shaders": [],
  "discord_id": "",
  "change_for": null
}