{
  "id": 59064,
  "name": "Tokyo Necro",
  "slug": "tokyo-necro",
  "year": 2016,
  "banner_url": "",
  "icon_url": "",
  "coverart": "https://lutris.net/media/igdb/cover_big/co2fdq.jpg",
  "platforms": [
    {
      "name": "Windows"
    }
  ],
  "provider_games": [
    {
      "name": "Tokyo Necro",
      "slug": "tokyo-necro",
      "service": "igdb"
    },
    {
      "name": "Tokyo Necro",
      "slug": "1357005807",
      "service": "gog"
    },
    {
      "name": "Tokyo Necro",
      "slug": "2183070",
      "service": "steam"
    }
  ],
  "aliases": [],
  "shaders": [],
  "discord_id": "",
  "change_for": null
}