{
  "id": 108832,
  "name": "Trainz Simulator 2009: World Builder Edition",
  "slug": "trainz-simulator-2009-world-builder-edition",
  "year": null,
  "banner_url": "",
  "icon_url": "",
  "coverart": "https://lutris.net/media/igdb/cover_big/twcrlvtormm9c3rdyx0k.jpg",
  "platforms": [],
  "provider_games": [
    {
      "name": "Trainz Simulator 2009: World Builder Edition",
      "slug": "trainz-simulator-2009-world-builder-edition",
      "service": "igdb"
    }
  ],
  "aliases": [],
  "shaders": [],
  "discord_id": "",
  "change_for": null
}