{
  "id": 24927,
  "name": "Astrohazard Solutions Ltd.",
  "slug": "astrohazard-solutions-ltd",
  "year": 2017,
  "banner_url": "https://lutris.net/games/banner/astrohazard-solutions-ltd.jpg",
  "icon_url": "https://lutris.net/games/icon/astrohazard-solutions-ltd.png",
  "coverart": "https://lutris.net/media/igdb/cover_big/co259v.jpg",
  "platforms": [
    {
      "name": "Windows"
    }
  ],
  "provider_games": [
    {
      "name": "Astrohazard Solutions Ltd.",
      "slug": "751260",
      "service": "steam"
    },
    {
      "name": "Astrohazard Solutions Ltd.",
      "slug": "astrohazard-solutions-ltd",
      "service": "igdb"
    }
  ],
  "aliases": [],
  "shaders": [],
  "discord_id": "",
  "change_for": null
}