{
  "id": 190892,
  "name": "Persona 5 Royal",
  "slug": "persona-5-royal",
  "year": 2019,
  "banner_url": "https://lutris.net/games/banner/persona-5-royal.jpg",
  "icon_url": "",
  "coverart": "https://lutris.net/media/igdb/cover_big/co1nic.jpg",
  "platforms": [
    {
      "name": "Sony Playstation 4"
    }
  ],
  "provider_games": [
    {
      "name": "Persona 5 Royal",
      "slug": "persona-5-royal",
      "service": "igdb"
    },
    {
      "name": "Persona 5 Royal",
      "slug": "1687950",
      "service": "steam"
    }
  ],
  "aliases": [],
  "shaders": [],
  "discord_id": "",
  "change_for": null
}