{
  "id": 3272,
  "name": "Claire",
  "slug": "claire",
  "year": 2014,
  "banner_url": "https://lutris.net/games/banner/claire.jpg",
  "icon_url": "https://lutris.net/games/icon/claire.png",
  "coverart": "https://lutris.net/media/igdb/cover_big/co3wf9.jpg",
  "platforms": [
    {
      "name": "Mac"
    },
    {
      "name": "Windows"
    }
  ],
  "provider_games": [
    {
      "name": "Claire",
      "slug": "252830",
      "service": "steam"
    },
    {
      "name": "Claire",
      "slug": "claire",
      "service": "igdb"
    }
  ],
  "aliases": [],
  "shaders": [],
  "discord_id": "",
  "change_for": null
}