{
  "id": 13403,
  "name": "Vickinachi",
  "slug": "vickinachi",
  "year": 2017,
  "banner_url": "https://lutris.net/games/banner/vickinachi.jpg",
  "icon_url": "https://lutris.net/games/icon/vickinachi.png",
  "coverart": null,
  "platforms": [
    {
      "name": "Windows"
    }
  ],
  "provider_games": [
    {
      "name": "Vickinachi",
      "slug": "652550",
      "service": "steam"
    },
    {
      "name": "Vickinachi",
      "slug": "vickinachi",
      "service": "igdb"
    }
  ],
  "aliases": [],
  "shaders": [],
  "discord_id": "",
  "change_for": null
}