{
  "id": 188563,
  "name": "The British Library Simulator",
  "slug": "the-british-library-simulator",
  "year": null,
  "banner_url": "",
  "icon_url": "",
  "coverart": "https://lutris.net/media/igdb/cover_big/co4tbm.jpg",
  "platforms": [],
  "provider_games": [
    {
      "name": "The British Library Simulator",
      "slug": "the-british-library-simulator",
      "service": "igdb"
    }
  ],
  "aliases": [],
  "shaders": [],
  "discord_id": "",
  "change_for": null
}