{
  "id": 239902,
  "name": "Nya Nya Nya Girls",
  "slug": "nya-nya-nya-girls",
  "year": 2018,
  "banner_url": "",
  "icon_url": "",
  "coverart": null,
  "platforms": [
    {
      "name": "Windows"
    }
  ],
  "provider_games": [
    {
      "name": "Nya Nya Nya Girls",
      "slug": "nya-nya-nya-girls",
      "service": "igdb"
    }
  ],
  "aliases": [],
  "shaders": [],
  "discord_id": "",
  "change_for": null
}