{
  "id": 84745,
  "name": "3D Lemmings",
  "slug": "3d-lemmings",
  "year": 1995,
  "banner_url": "",
  "icon_url": "",
  "coverart": "https://lutris.net/media/igdb/cover_big/co1rar.jpg",
  "platforms": [
    {
      "name": "Sega Saturn"
    },
    {
      "name": "Sony PlayStation"
    }
  ],
  "provider_games": [
    {
      "name": "3D Lemmings",
      "slug": "3d-lemmings",
      "service": "igdb"
    }
  ],
  "aliases": [],
  "shaders": [],
  "discord_id": "",
  "change_for": null
}