{
  "id": 141164,
  "name": "Jikkyou J-League Perfect Striker 4",
  "slug": "jikkyou-j-league-perfect-striker-4",
  "year": 2001,
  "banner_url": "",
  "icon_url": "",
  "coverart": "https://lutris.net/media/igdb/cover_big/co3sns.jpg",
  "platforms": [
    {
      "name": "Sony PlayStation 2"
    }
  ],
  "provider_games": [
    {
      "name": "Jikkyou J-League Perfect Striker 4",
      "slug": "jikkyou-j-league-perfect-striker-4",
      "service": "igdb"
    }
  ],
  "aliases": [],
  "shaders": [],
  "discord_id": "",
  "change_for": null
}