{
  "id": 190885,
  "name": "Spider-Man",
  "slug": "spider-man--4",
  "year": 1994,
  "banner_url": "",
  "icon_url": "",
  "coverart": "https://lutris.net/media/igdb/cover_big/co2ja2.jpg",
  "platforms": [
    {
      "name": "Sega Genesis / Mega Drive"
    },
    {
      "name": "Super Nintendo"
    }
  ],
  "provider_games": [
    {
      "name": "Spider-Man",
      "slug": "spider-man--4",
      "service": "igdb"
    }
  ],
  "aliases": [],
  "shaders": [],
  "discord_id": "",
  "change_for": null
}