{
  "id": 152394,
  "name": "What's Left",
  "slug": "whats-left",
  "year": null,
  "banner_url": "",
  "icon_url": "",
  "coverart": "https://lutris.net/media/igdb/cover_big/co3n52.jpg",
  "platforms": [],
  "provider_games": [
    {
      "name": "What's Left",
      "slug": "whats-left",
      "service": "igdb"
    }
  ],
  "aliases": [],
  "shaders": [],
  "discord_id": "",
  "change_for": null
}