{
  "id": 271327,
  "name": "Canyon Racer",
  "slug": "canyon-racer",
  "year": 2023,
  "banner_url": "",
  "icon_url": "",
  "coverart": "https://lutris.net/media/igdb/cover_big/co7ogl.jpg",
  "platforms": [],
  "provider_games": [
    {
      "name": "Canyon Racer",
      "slug": "canyon-racer",
      "service": "igdb"
    }
  ],
  "aliases": [],
  "shaders": [],
  "discord_id": "",
  "change_for": null
}