{
  "id": 182040,
  "name": "Retro Classix: Gate of Doom",
  "slug": "retro-classix-gate-of-doom",
  "year": 2021,
  "banner_url": "https://lutris.net/games/banner/retro-classix-gate-of-doom.jpg",
  "icon_url": "",
  "coverart": "https://lutris.net/media/igdb/cover_big/co3tqs.jpg",
  "platforms": [
    {
      "name": "Windows"
    }
  ],
  "provider_games": [
    {
      "name": "Retro Classix: Gate of Doom",
      "slug": "retro-classix-gate-of-doom",
      "service": "igdb"
    },
    {
      "name": "Retro Classix: Gate of Doom",
      "slug": "1540430",
      "service": "steam"
    },
    {
      "name": "Retro Classix: Gate of Doom",
      "slug": "1658292736",
      "service": "gog"
    }
  ],
  "aliases": [],
  "shaders": [],
  "discord_id": "",
  "change_for": null
}