{
  "id": 265363,
  "name": "Easy Godding",
  "slug": "easy-godding",
  "year": null,
  "banner_url": "",
  "icon_url": "",
  "coverart": "https://lutris.net/media/igdb/cover_big/co9arz.jpg",
  "platforms": [],
  "provider_games": [
    {
      "name": "Easy Godding",
      "slug": "easy-godding",
      "service": "igdb"
    }
  ],
  "aliases": [],
  "shaders": [],
  "discord_id": "",
  "change_for": null
}