{
  "id": 277085,
  "name": "Prime",
  "slug": "prime--1",
  "year": null,
  "banner_url": "",
  "icon_url": "",
  "coverart": "https://lutris.net/media/igdb/cover_big/co7wjj.jpg",
  "platforms": [],
  "provider_games": [
    {
      "name": "Prime",
      "slug": "prime--1",
      "service": "igdb"
    }
  ],
  "aliases": [],
  "shaders": [],
  "discord_id": "",
  "change_for": null
}