{
  "id": 2158,
  "game_id": 6312,
  "game_slug": "zelda-navis-quest",
  "name": "Zelda: Navi's Quest",
  "year": 2014,
  "user": "ssf",
  "runner": "linux",
  "slug": "zelda-navis-quest-18-x86-64",
  "version": "1.8 - x86-64",
  "description": null,
  "notes": "Install on Ubuntu 18.04:\r\n``` bash\r\nsudo apt install libsdl-gfx1.2-5\r\nsudo ln -sf /usr/lib/x86_64-linux-gnu/libSDL_gfx.so.15.9.1 /usr/lib/x86_64-linux-gnu/libSDL_gfx.so.13",
  "credits": "",
  "created_at": "2016-06-19T16:29:40.812000Z",
  "updated_at": "2024-04-03T05:34:06.390599Z",
  "draft": false,
  "published": true,
  "published_by": 20548,
  "rating": "",
  "is_playable": null,
  "steamid": null,
  "gogid": null,
  "gogslug": "",
  "humbleid": "",
  "humblestoreid": "",
  "humblestoreid_real": "",
  "script": {
    "files": [
      {
        "game": "http://www.zeldaroth.fr/compteur.php?id=43"
      },
      {
        "fixlib": "https://raw.githubusercontent.com/AccountOneOff/lutris_files/master/fixlibs.sh"
      }
    ],
    "game": {
      "exe": "start.sh"
    },
    "installer": [
      {
        "extract": {
          "file": "game",
          "format": "tgz"
        }
      },
      {
        "move": {
          "dst": "$GAMEDIR/start.sh",
          "src": "$CACHE/fixlib/fixlibs.sh"
        }
      },
      {
        "chmodx": "$GAMEDIR/start.sh"
      },
      {
        "execute": {
          "args": "-i 's/<GAMEBIN>/ZeldaNSQ/' $GAMEDIR/start.sh",
          "file": "/bin/sed"
        }
      }
    ]
  },
  "content": "files:\n- game: http://www.zeldaroth.fr/compteur.php?id=43\n- fixlib: https://raw.githubusercontent.com/AccountOneOff/lutris_files/master/fixlibs.sh\ngame:\n  exe: start.sh\ninstaller:\n- extract:\n    file: game\n    format: tgz\n- move:\n    dst: $GAMEDIR/start.sh\n    src: $CACHE/fixlib/fixlibs.sh\n- chmodx: $GAMEDIR/start.sh\n- execute:\n    args: -i 's/<GAMEBIN>/ZeldaNSQ/' $GAMEDIR/start.sh\n    file: /bin/sed\n",
  "discord_id": ""
}