{
  "id": 1546,
  "name": "Syder Arcade",
  "slug": "syder-arcade",
  "year": 2013,
  "banner_url": "https://lutris.net/games/banner/syder-arcade.jpg",
  "icon_url": "https://lutris.net/games/icon/syder-arcade.png",
  "coverart": "https://lutris.net/media/igdb/cover_big/rpk0zspilrrpxr7urmbu.jpg",
  "platforms": [
    {
      "name": "Windows"
    }
  ],
  "provider_games": [
    {
      "name": "Syder Arcade",
      "slug": "syderarcade_bundle",
      "service": "humblebundle"
    },
    {
      "name": "Syder Arcade",
      "slug": "252310",
      "service": "steam"
    },
    {
      "name": "Syder Arcade",
      "slug": "syder-arcade",
      "service": "igdb"
    }
  ],
  "aliases": [],
  "shaders": [],
  "discord_id": "",
  "change_for": null
}