{
  "id": 60294,
  "name": "Honto for Nintendo 3DS",
  "slug": "honto-for-nintendo-3ds",
  "year": null,
  "banner_url": "",
  "icon_url": "",
  "coverart": "https://lutris.net/media/igdb/cover_big/ruhygugcfbbhiuntqobq.jpg",
  "platforms": [],
  "provider_games": [
    {
      "name": "Honto for Nintendo 3DS",
      "slug": "honto-for-nintendo-3ds",
      "service": "igdb"
    }
  ],
  "aliases": [],
  "shaders": [],
  "discord_id": "",
  "change_for": null
}