{
  "id": 179877,
  "name": "Battle Trivia Knockout",
  "slug": "battle-trivia-knockout",
  "year": 2015,
  "banner_url": "",
  "icon_url": "",
  "coverart": "https://lutris.net/media/igdb/cover_big/ortdbsa7vhtuccivtbgx.jpg",
  "platforms": [
    {
      "name": "Sony Playstation 3"
    },
    {
      "name": "Sony Playstation 4"
    }
  ],
  "provider_games": [
    {
      "name": "Battle Trivia Knockout",
      "slug": "battle-trivia-knockout",
      "service": "igdb"
    }
  ],
  "aliases": [],
  "shaders": [],
  "discord_id": "",
  "change_for": null
}