{
  "id": 258618,
  "name": "Blood, Fuel, Ammo & Speed",
  "slug": "blood-fuel-ammo-and-speed",
  "year": null,
  "banner_url": "",
  "icon_url": "",
  "coverart": "https://lutris.net/media/igdb/cover_big/co71kv.jpg",
  "platforms": [],
  "provider_games": [
    {
      "name": "Blood, Fuel, Ammo & Speed",
      "slug": "blood-fuel-ammo-and-speed",
      "service": "igdb"
    }
  ],
  "aliases": [],
  "shaders": [],
  "discord_id": "",
  "change_for": null
}