{
  "id": 193730,
  "name": "Everburning",
  "slug": "everburning",
  "year": null,
  "banner_url": "",
  "icon_url": "",
  "coverart": "https://lutris.net/media/igdb/cover_big/co4npt.jpg",
  "platforms": [],
  "provider_games": [
    {
      "name": "Everburning",
      "slug": "everburning",
      "service": "igdb"
    }
  ],
  "aliases": [],
  "shaders": [],
  "discord_id": "",
  "change_for": null
}