{
  "id": 200659,
  "name": "Classroom Battle!",
  "slug": "classroom-battle",
  "year": 2020,
  "banner_url": "",
  "icon_url": "",
  "coverart": "https://lutris.net/media/igdb/cover_big/co4bms.jpg",
  "platforms": [
    {
      "name": "Android"
    },
    {
      "name": "Mac"
    }
  ],
  "provider_games": [
    {
      "name": "Classroom Battle!",
      "slug": "classroom-battle",
      "service": "igdb"
    }
  ],
  "aliases": [],
  "shaders": [],
  "discord_id": "",
  "change_for": null
}