{
  "id": 228931,
  "name": "Sokpop S07: deer hunter II",
  "slug": "sokpop-s07-deer-hunter-ii",
  "year": null,
  "banner_url": "https://lutris.net/games/banner/sokpop-s07-deer-hunter-ii.jpg",
  "icon_url": "https://lutris.net/games/icon/sokpop-s07-deer-hunter-ii.png",
  "coverart": null,
  "platforms": [],
  "provider_games": [
    {
      "name": "Sokpop S07: deer hunter II",
      "slug": "1212190",
      "service": "steam"
    }
  ],
  "aliases": [],
  "shaders": [],
  "discord_id": "",
  "change_for": null
}