{
  "id": 82832,
  "name": "Alimardan's Mischiefs",
  "slug": "alimardans-mischiefs",
  "year": null,
  "banner_url": "",
  "icon_url": "",
  "coverart": null,
  "platforms": [],
  "provider_games": [
    {
      "name": "Alimardan's Mischiefs",
      "slug": "alimardans-mischiefs",
      "service": "igdb"
    }
  ],
  "aliases": [],
  "shaders": [],
  "discord_id": "",
  "change_for": null
}