{
  "id": 62957,
  "name": "Rope 'n' Fly",
  "slug": "rope-n-fly",
  "year": null,
  "banner_url": "",
  "icon_url": "",
  "coverart": "https://lutris.net/media/igdb/cover_big/e0o9bwyonfcoqthtxiiv.jpg",
  "platforms": [],
  "provider_games": [
    {
      "name": "Rope 'n' Fly",
      "slug": "rope-n-fly",
      "service": "igdb"
    }
  ],
  "aliases": [],
  "shaders": [],
  "discord_id": "",
  "change_for": null
}