{
  "id": 257074,
  "name": "Kairai Inn",
  "slug": "kairai-inn",
  "year": null,
  "banner_url": "",
  "icon_url": "",
  "coverart": "https://lutris.net/media/igdb/cover_big/co70fi.jpg",
  "platforms": [],
  "provider_games": [
    {
      "name": "Kairai Inn",
      "slug": "kairai-inn",
      "service": "igdb"
    }
  ],
  "aliases": [],
  "shaders": [],
  "discord_id": "",
  "change_for": null
}