{
  "id": 291695,
  "name": "War of the Western Deep",
  "slug": "war-of-the-western-deep",
  "year": null,
  "banner_url": "",
  "icon_url": "",
  "coverart": "https://lutris.net/media/igdb/cover_big/co8kas.jpg",
  "platforms": [],
  "provider_games": [
    {
      "name": "War of the Western Deep",
      "slug": "war-of-the-western-deep",
      "service": "igdb"
    }
  ],
  "aliases": [],
  "shaders": [],
  "discord_id": "",
  "change_for": null
}