{
  "id": 307674,
  "name": "The LEGO Movie 2 Videogame",
  "slug": "the-lego-movie-2-videogame-1",
  "year": 2019,
  "banner_url": "",
  "icon_url": "",
  "coverart": null,
  "platforms": [],
  "provider_games": [
    {
      "name": "The LEGO Movie 2 Videogame",
      "slug": "1637297034",
      "service": "gog"
    }
  ],
  "aliases": [],
  "shaders": [],
  "discord_id": "",
  "change_for": null
}