{
  "id": 13607,
  "name": "Halcyon 6: Lightspeed Edition",
  "slug": "halcyon-6-lightspeed-edition",
  "year": 2017,
  "banner_url": "https://lutris.net/games/banner/halcyon-6-lightspeed-edition.jpg",
  "icon_url": "https://lutris.net/games/icon/halcyon-6-lightspeed-edition.png",
  "coverart": "https://lutris.net/media/igdb/cover_big/co1xnw.jpg",
  "platforms": [
    {
      "name": "Linux"
    },
    {
      "name": "Nintendo Switch"
    },
    {
      "name": "Windows"
    }
  ],
  "provider_games": [
    {
      "name": "Halcyon 6: Lightspeed Edition",
      "slug": "1161151493",
      "service": "gog"
    },
    {
      "name": "Halcyon 6: LIGHTSPEED EDITION",
      "slug": "halcyon6_lightspeededition",
      "service": "humblebundle"
    },
    {
      "name": "Halcyon 6: Lightspeed Edition",
      "slug": "651660",
      "service": "steam"
    },
    {
      "name": "Halcyon 6: Starbase Commander Lightspeed Edition",
      "slug": "halcyon-6-starbase-commander-lightspeed-edition",
      "service": "igdb"
    }
  ],
  "aliases": [
    {
      "slug": "halcyon-6-starbase-commander-lightspeed-edition",
      "name": "Halcyon 6: Starbase Commander Lightspeed Edition"
    }
  ],
  "shaders": [],
  "discord_id": "",
  "change_for": null
}