{
  "id": 298537,
  "name": "Aldo: Memory of the Kingdom",
  "slug": "aldo-memory-of-the-kingdom",
  "year": null,
  "banner_url": "",
  "icon_url": "",
  "coverart": "https://lutris.net/media/igdb/cover_big/co8vet.jpg",
  "platforms": [
    {
      "name": "Mac"
    },
    {
      "name": "Windows"
    }
  ],
  "provider_games": [
    {
      "name": "Aldo: Memory of the Kingdom",
      "slug": "aldo-memory-of-the-kingdom",
      "service": "igdb"
    }
  ],
  "aliases": [],
  "shaders": [],
  "discord_id": "",
  "change_for": null
}