{
  "id": 161235,
  "name": "Fated Era",
  "slug": "fated-era",
  "year": null,
  "banner_url": "",
  "icon_url": "",
  "coverart": "https://lutris.net/media/igdb/cover_big/co3zlw.jpg",
  "platforms": [],
  "provider_games": [
    {
      "name": "Fated Era",
      "slug": "fated-era",
      "service": "igdb"
    }
  ],
  "aliases": [],
  "shaders": [],
  "discord_id": "",
  "change_for": null
}