{
  "id": 37215,
  "game_id": 15378,
  "game_slug": "it-lurks-in-the-woods",
  "name": "It Lurks in the Woods",
  "year": 2017,
  "user": "vanstaveren",
  "runner": "steam",
  "slug": "it-lurks-in-the-woods-steam",
  "version": "steam",
  "description": "",
  "notes": "",
  "credits": "",
  "created_at": "2023-03-14T21:44:33.185940Z",
  "updated_at": "2023-03-14T21:44:33.185986Z",
  "draft": false,
  "published": true,
  "published_by": null,
  "rating": "",
  "is_playable": null,
  "steamid": 589620,
  "gogid": null,
  "gogslug": "",
  "humbleid": "",
  "humblestoreid": "",
  "humblestoreid_real": "",
  "script": {
    "game": {
      "appid": 589620
    }
  },
  "content": "game:\n  appid: 589620\n",
  "discord_id": ""
}