{
  "id": 76311,
  "name": "Crash Arena Turbo Stars",
  "slug": "crash-arena-turbo-stars",
  "year": null,
  "banner_url": "",
  "icon_url": "",
  "coverart": "https://lutris.net/media/igdb/cover_big/og6bdz6fgyribw9ldurh.jpg",
  "platforms": [],
  "provider_games": [
    {
      "name": "Crash Arena Turbo Stars",
      "slug": "crash-arena-turbo-stars",
      "service": "igdb"
    }
  ],
  "aliases": [],
  "shaders": [],
  "discord_id": "",
  "change_for": null
}