{
  "id": 104207,
  "name": "Backyard",
  "slug": "backyard",
  "year": null,
  "banner_url": "",
  "icon_url": "",
  "coverart": "https://lutris.net/media/igdb/cover_big/co2phx.jpg",
  "platforms": [],
  "provider_games": [
    {
      "name": "Backyard",
      "slug": "backyard",
      "service": "igdb"
    }
  ],
  "aliases": [],
  "shaders": [],
  "discord_id": "",
  "change_for": null
}