{
  "id": 47467,
  "name": "Ie Naki Ko - Suzu no Sentaku",
  "slug": "ie-naki-ko-suzu-no-sentaku",
  "year": null,
  "banner_url": "",
  "icon_url": "",
  "coverart": "https://lutris.net/media/igdb/cover_big/co76n2.jpg",
  "platforms": [],
  "provider_games": [
    {
      "name": "Ie Naki Ko - Suzu no Sentaku",
      "slug": "ie-naki-ko-suzu-no-sentaku",
      "service": "igdb"
    }
  ],
  "aliases": [],
  "shaders": [],
  "discord_id": "",
  "change_for": null
}