{
  "id": 75135,
  "name": "Creepypasta Land 2: SCP Force",
  "slug": "creepypasta-land-2-scp-force",
  "year": null,
  "banner_url": "",
  "icon_url": "",
  "coverart": "https://lutris.net/media/igdb/cover_big/co86wg.jpg",
  "platforms": [],
  "provider_games": [
    {
      "name": "Creepypasta Land 2: SCP Force",
      "slug": "creepypasta-land-2-scp-force",
      "service": "igdb"
    }
  ],
  "aliases": [],
  "shaders": [],
  "discord_id": "",
  "change_for": null
}