{
  "id": 156874,
  "name": "Ni no Kuni: Wrath of the White Witch for Nintendo Switch",
  "slug": "ni-no-kuni-wrath-of-the-white-witch-for-nintendo-switch",
  "year": 2019,
  "banner_url": "",
  "icon_url": "",
  "coverart": "https://lutris.net/media/igdb/cover_big/co1lz5.jpg",
  "platforms": [
    {
      "name": "Nintendo Switch"
    }
  ],
  "provider_games": [
    {
      "name": "Ni no Kuni: Wrath of the White Witch for Nintendo Switch",
      "slug": "ni-no-kuni-wrath-of-the-white-witch-for-nintendo-switch",
      "service": "igdb"
    }
  ],
  "aliases": [],
  "shaders": [],
  "discord_id": "",
  "change_for": null
}