{
  "id": 265172,
  "name": "Busty Bunny the Bounty Babe",
  "slug": "busty-bunny-the-bounty-babe",
  "year": 2022,
  "banner_url": "",
  "icon_url": "",
  "coverart": "https://lutris.net/media/igdb/cover_big/co7ba6.jpg",
  "platforms": [
    {
      "name": "Game Boy"
    }
  ],
  "provider_games": [
    {
      "name": "Busty Bunny the Bounty Babe",
      "slug": "busty-bunny-the-bounty-babe",
      "service": "igdb"
    }
  ],
  "aliases": [],
  "shaders": [],
  "discord_id": "",
  "change_for": null
}