{
  "id": 246670,
  "name": "Rance 5D: The Lonely Girl",
  "slug": "rance-5d-the-lonely-girl",
  "year": 2002,
  "banner_url": "",
  "icon_url": "",
  "coverart": null,
  "platforms": [
    {
      "name": "OOParts"
    },
    {
      "name": "Windows"
    }
  ],
  "provider_games": [
    {
      "name": "Rance 5D: The Lonely Girl",
      "slug": "rance-5d-the-lonely-girl",
      "service": "igdb"
    }
  ],
  "aliases": [],
  "shaders": [],
  "discord_id": "",
  "change_for": null
}