{
  "id": 90111,
  "name": "Crosswords With Friends",
  "slug": "crosswords-with-friends",
  "year": null,
  "banner_url": "",
  "icon_url": "",
  "coverart": null,
  "platforms": [],
  "provider_games": [
    {
      "name": "Crosswords With Friends",
      "slug": "crosswords-with-friends",
      "service": "igdb"
    }
  ],
  "aliases": [],
  "shaders": [],
  "discord_id": "",
  "change_for": null
}