{
  "id": 240519,
  "name": "Endless Dungeon: Launch Edition",
  "slug": "endless-dungeon-launch-edition",
  "year": 2023,
  "banner_url": "",
  "icon_url": "",
  "coverart": null,
  "platforms": [
    {
      "name": "Sony PlayStation 5"
    },
    {
      "name": "Xbox Series X|S"
    }
  ],
  "provider_games": [
    {
      "name": "Endless Dungeon: Launch Edition",
      "slug": "endless-dungeon-launch-edition",
      "service": "igdb"
    }
  ],
  "aliases": [],
  "shaders": [],
  "discord_id": "",
  "change_for": null
}