{
  "id": 251236,
  "name": "More Holiday Dinner!",
  "slug": "more-holiday-dinner",
  "year": null,
  "banner_url": "",
  "icon_url": "",
  "coverart": "https://lutris.net/media/igdb/cover_big/co6rcu.jpg",
  "platforms": [],
  "provider_games": [
    {
      "name": "More Holiday Dinner!",
      "slug": "more-holiday-dinner",
      "service": "igdb"
    }
  ],
  "aliases": [],
  "shaders": [],
  "discord_id": "",
  "change_for": null
}