{
  "id": 215261,
  "name": "Spider Solitaire 2022",
  "slug": "spider-solitaire-2022--1",
  "year": null,
  "banner_url": "",
  "icon_url": "",
  "coverart": null,
  "platforms": [],
  "provider_games": [
    {
      "name": "Spider Solitaire 2022",
      "slug": "spider-solitaire-2022--1",
      "service": "igdb"
    }
  ],
  "aliases": [],
  "shaders": [],
  "discord_id": "",
  "change_for": null
}