{
  "id": 267425,
  "name": "Weaponmancer",
  "slug": "weaponmancer",
  "year": null,
  "banner_url": "",
  "icon_url": "",
  "coverart": "https://lutris.net/media/igdb/cover_big/co7dz3.jpg",
  "platforms": [],
  "provider_games": [
    {
      "name": "Weaponmancer",
      "slug": "weaponmancer",
      "service": "igdb"
    }
  ],
  "aliases": [],
  "shaders": [],
  "discord_id": "",
  "change_for": null
}