{
  "id": 24348,
  "game_id": 29291,
  "game_slug": "battlefield-hardline",
  "name": "Battlefield: Hardline",
  "year": 2015,
  "user": "genocidestomper",
  "runner": "wine",
  "slug": "battlefield-hardline-dxvk",
  "version": "DXVK",
  "description": "This is a copy of the Battlefield 1 DXVK installer. It only sets up Origin and DXVK, you'll need to download Battlefield Hardline manually. If this stops working in the future, please try the Battlefield 3, 4 or 1 installer, if they got updated.\r\n\r\nSingle and multi-player work pretty much out of the box, only thing required is to get the browser to work with Battlelog. For this please see below in the technical notes.",
  "notes": "To be able to launch the game (From the Battlefield 3 DXVK, ReShade version):\r\nIn order to launch the game with your Linux browser, a browser User Agent switcher has to be installed. For firefox this add-on is ideal:\r\nhttps://addons.mozilla.org/en-US/firefox/addon/ua-switcher\r\n\r\nWith your Linux browser go to:\r\nhttps://battlelog.battlefield.com/bfh/\r\nand set your User Agent to IE11 for that domain.\r\n\r\n\r\nIf there are graphical issues in game, turn of 'Antialiasing Deferred' in the graphics settings. That fixed weird texture flickering in single-player for me. Everything else can be set as high as Ultra, and HBAO works too.\r\n\r\nI've disabled \"Origin in Game for Battlefield Hardline\". Not sure if there are compatibility issues if this is left on.",
  "credits": "",
  "created_at": "2020-11-06T15:22:32.591000Z",
  "updated_at": "2023-06-13T01:34:05.878159Z",
  "draft": false,
  "published": true,
  "published_by": 1,
  "rating": "",
  "is_playable": null,
  "steamid": null,
  "gogid": null,
  "gogslug": "",
  "humbleid": "",
  "humblestoreid": "",
  "humblestoreid_real": "",
  "script": {
    "files": [
      {
        "client": "https://origin-a.akamaihd.net/Origin-Client-Download/origin/live/OriginThinSetup.exe"
      },
      {
        "updater": "https://raw.githubusercontent.com/DrDoctor13/wine-origin-updater/master/updateorigin.sh"
      }
    ],
    "game": {
      "arch": "win64",
      "exe": "drive_c/Program Files (x86)/Origin/Origin.exe",
      "prefix": "$GAMEDIR"
    },
    "installer": [
      {
        "task": {
          "arch": "win64",
          "description": "Creating Wine prefix",
          "name": "create_prefix",
          "prefix": "$GAMEDIR"
        }
      },
      {
        "input_menu": {
          "description": "Setting DXVK workarounds please choose your GPU:",
          "id": "GPU",
          "options": [
            {
              "Not needed for AMD. Ignore this.": "AMD"
            },
            {
              "dxgi.customVendorId = 10de\ndxgi.nvapiHack = False": "Nvidia"
            }
          ],
          "preselect": "Not needed for AMD. Ignore this."
        }
      },
      {
        "write_file": {
          "content": "$INPUT_GPU",
          "file": "$GAMEDIR/dxvk.conf"
        }
      },
      {
        "task": {
          "app": "nocrashdialog vcrun2017 win7",
          "arch": "win64",
          "name": "winetricks",
          "prefix": "$GAMEDIR"
        }
      },
      {
        "task": {
          "arch": "win64",
          "args": "/silent",
          "description": "Installing Origin... Login window will pop-up and close.",
          "exclude_processes": "Origin.exe OriginClientService.exe OriginWebHelperService.exe QtWebEngineProcess.exe",
          "executable": "client",
          "name": "wineexec",
          "prefix": "$GAMEDIR"
        }
      },
      {
        "task": {
          "arch": "win64",
          "name": "winekill",
          "prefix": "$GAMEDIR"
        }
      },
      {
        "chmodx": "updater"
      },
      {
        "merge": {
          "dst": "$GAMEDIR/drive_c/Program Files (x86)/Origin",
          "src": "updater"
        }
      }
    ],
    "system": {
      "disable_runtime": false,
      "env": {
        "DXVK_CONFIG_FILE": "$GAMEDIR/dxvk.conf",
        "DXVK_HUD": 0
      }
    },
    "wine": {
      "overrides": {
        "nvapi,nvapi64": "disabled",
        "xaudio2_7": "native,builtin"
      }
    }
  },
  "content": "files:\n- client: https://origin-a.akamaihd.net/Origin-Client-Download/origin/live/OriginThinSetup.exe\n- updater: https://raw.githubusercontent.com/DrDoctor13/wine-origin-updater/master/updateorigin.sh\ngame:\n  arch: win64\n  exe: drive_c/Program Files (x86)/Origin/Origin.exe\n  prefix: $GAMEDIR\ninstaller:\n- task:\n    arch: win64\n    description: Creating Wine prefix\n    name: create_prefix\n    prefix: $GAMEDIR\n- input_menu:\n    description: 'Setting DXVK workarounds please choose your GPU:'\n    id: GPU\n    options:\n    - Not needed for AMD. Ignore this.: AMD\n    - ? 'dxgi.customVendorId = 10de\n\n        dxgi.nvapiHack = False'\n      : Nvidia\n    preselect: Not needed for AMD. Ignore this.\n- write_file:\n    content: $INPUT_GPU\n    file: $GAMEDIR/dxvk.conf\n- task:\n    app: nocrashdialog vcrun2017 win7\n    arch: win64\n    name: winetricks\n    prefix: $GAMEDIR\n- task:\n    arch: win64\n    args: /silent\n    description: Installing Origin... Login window will pop-up and close.\n    exclude_processes: Origin.exe OriginClientService.exe OriginWebHelperService.exe\n      QtWebEngineProcess.exe\n    executable: client\n    name: wineexec\n    prefix: $GAMEDIR\n- task:\n    arch: win64\n    name: winekill\n    prefix: $GAMEDIR\n- chmodx: updater\n- merge:\n    dst: $GAMEDIR/drive_c/Program Files (x86)/Origin\n    src: updater\nsystem:\n  disable_runtime: false\n  env:\n    DXVK_CONFIG_FILE: $GAMEDIR/dxvk.conf\n    DXVK_HUD: 0\nwine:\n  overrides:\n    nvapi,nvapi64: disabled\n    xaudio2_7: native,builtin\n",
  "discord_id": ""
}