{
  "id": 121574,
  "name": "Fairly Certain Doom",
  "slug": "fairly-certain-doom",
  "year": 2018,
  "banner_url": "https://lutris.net/games/banner/fairly-certain-doom.jpg",
  "icon_url": "",
  "coverart": null,
  "platforms": [
    {
      "name": "Windows"
    }
  ],
  "provider_games": [
    {
      "name": "Fairly Certain Doom",
      "slug": "790170",
      "service": "steam"
    },
    {
      "name": "Fairly Certain Doom",
      "slug": "fairly-certain-doom",
      "service": "igdb"
    }
  ],
  "aliases": [],
  "shaders": [],
  "discord_id": "",
  "change_for": null
}