{
  "id": 159602,
  "name": "Safari Grounds - The Wilpattu Leopard",
  "slug": "safari-grounds-the-wilpattu-leopard",
  "year": null,
  "banner_url": "",
  "icon_url": "",
  "coverart": "https://lutris.net/media/igdb/cover_big/co3yss.jpg",
  "platforms": [],
  "provider_games": [
    {
      "name": "Safari Grounds - The Wilpattu Leopard",
      "slug": "safari-grounds-the-wilpattu-leopard",
      "service": "igdb"
    }
  ],
  "aliases": [],
  "shaders": [],
  "discord_id": "",
  "change_for": null
}