{
  "id": 3245,
  "name": "Showtime!",
  "slug": "showtime",
  "year": 2014,
  "banner_url": "https://lutris.net/games/banner/showtime.jpg",
  "icon_url": "https://lutris.net/games/icon/showtime.png",
  "coverart": "https://lutris.net/media/igdb/cover_big/co2w0t.jpg",
  "platforms": [
    {
      "name": "Windows"
    }
  ],
  "provider_games": [
    {
      "name": "Showtime!",
      "slug": "285050",
      "service": "steam"
    },
    {
      "name": "Showtime!",
      "slug": "showtime",
      "service": "igdb"
    }
  ],
  "aliases": [],
  "shaders": [],
  "discord_id": "",
  "change_for": null
}