{
  "id": 126067,
  "name": "Book of Demons: HELLCARD",
  "slug": "book-of-demons-hellcard",
  "year": 2021,
  "banner_url": "",
  "icon_url": "",
  "coverart": "https://lutris.net/media/igdb/cover_big/co1xua.jpg",
  "platforms": [
    {
      "name": "Mac"
    },
    {
      "name": "Windows"
    }
  ],
  "provider_games": [
    {
      "name": "Book of Demons: Hellcard",
      "slug": "book-of-demons-hellcard",
      "service": "igdb"
    }
  ],
  "aliases": [],
  "shaders": [],
  "discord_id": "",
  "change_for": null
}