{
  "id": 216035,
  "name": "Spaceport Crew",
  "slug": "spaceport-crew",
  "year": null,
  "banner_url": "",
  "icon_url": "",
  "coverart": "https://lutris.net/media/igdb/cover_big/co58gl.jpg",
  "platforms": [],
  "provider_games": [
    {
      "name": "Spaceport Crew",
      "slug": "spaceport-crew",
      "service": "igdb"
    }
  ],
  "aliases": [],
  "shaders": [],
  "discord_id": "",
  "change_for": null
}