{
  "id": 260727,
  "name": "Heroes of Eroticism: Opportunities of Love",
  "slug": "heroes-of-eroticism-opportunities-of-love",
  "year": null,
  "banner_url": "",
  "icon_url": "",
  "coverart": "https://lutris.net/media/igdb/cover_big/co72k2.jpg",
  "platforms": [],
  "provider_games": [
    {
      "name": "Heroes of Eroticism: Opportunities of Love",
      "slug": "heroes-of-eroticism-opportunities-of-love",
      "service": "igdb"
    }
  ],
  "aliases": [],
  "shaders": [],
  "discord_id": "",
  "change_for": null
}