{
  "id": 216885,
  "name": "Perfect Tides: Station to Station",
  "slug": "perfect-tides-station-to-station",
  "year": null,
  "banner_url": "",
  "icon_url": "",
  "coverart": "https://lutris.net/media/igdb/cover_big/co5676.jpg",
  "platforms": [],
  "provider_games": [
    {
      "name": "Perfect Tides: Station to Station",
      "slug": "perfect-tides-station-to-station",
      "service": "igdb"
    }
  ],
  "aliases": [],
  "shaders": [],
  "discord_id": "",
  "change_for": null
}