{
  "id": 214809,
  "name": "Kitchen",
  "slug": "kitchen",
  "year": null,
  "banner_url": "",
  "icon_url": "",
  "coverart": "https://lutris.net/media/igdb/cover_big/co92l7.jpg",
  "platforms": [],
  "provider_games": [
    {
      "name": "Kitchen",
      "slug": "kitchen",
      "service": "igdb"
    }
  ],
  "aliases": [],
  "shaders": [],
  "discord_id": "",
  "change_for": null
}