{
  "id": 85518,
  "name": "Disney High School Musical: Livin' the Dream",
  "slug": "disney-high-school-musical-livin-the-dream",
  "year": 2007,
  "banner_url": "",
  "icon_url": "",
  "coverart": "https://lutris.net/media/igdb/cover_big/co1vyh.jpg",
  "platforms": [
    {
      "name": "Nintendo Game Boy Advance"
    }
  ],
  "provider_games": [
    {
      "name": "Disney High School Musical: Livin' the Dream",
      "slug": "disney-high-school-musical-livin-the-dream",
      "service": "igdb"
    }
  ],
  "aliases": [],
  "shaders": [],
  "discord_id": "",
  "change_for": null
}