{
  "id": 92764,
  "name": "Forte Craft: Pixel Builder",
  "slug": "forte-craft-pixel-builder",
  "year": null,
  "banner_url": "",
  "icon_url": "",
  "coverart": null,
  "platforms": [],
  "provider_games": [
    {
      "name": "Forte Craft: Pixel Builder",
      "slug": "forte-craft-pixel-builder",
      "service": "igdb"
    }
  ],
  "aliases": [],
  "shaders": [],
  "discord_id": "",
  "change_for": null
}