{
  "id": 8408,
  "name": "Blood & Gold: Caribbean!",
  "slug": "blood-gold-caribbean",
  "year": null,
  "banner_url": "https://lutris.net/games/banner/blood-gold-caribbean.jpg",
  "icon_url": "https://lutris.net/games/icon/blood-gold-caribbean.png",
  "coverart": null,
  "platforms": [],
  "provider_games": [
    {
      "name": "Blood & Gold: Caribbean!",
      "slug": "1448275717",
      "service": "gog"
    },
    {
      "name": "Blood and Gold: Caribbean!",
      "slug": "413710",
      "service": "steam"
    }
  ],
  "aliases": [],
  "shaders": [],
  "discord_id": "",
  "change_for": null
}