{
  "id": 188843,
  "name": "Blake Strongflank",
  "slug": "blake-strongflank",
  "year": null,
  "banner_url": "",
  "icon_url": "",
  "coverart": "https://lutris.net/media/igdb/cover_big/co4csy.jpg",
  "platforms": [],
  "provider_games": [
    {
      "name": "Blake Strongflank",
      "slug": "blake-strongflank",
      "service": "igdb"
    }
  ],
  "aliases": [],
  "shaders": [],
  "discord_id": "",
  "change_for": null
}