{
  "id": 74153,
  "name": "Counter Spell Reforged",
  "slug": "counter-spell-reforged",
  "year": null,
  "banner_url": "",
  "icon_url": "",
  "coverart": null,
  "platforms": [],
  "provider_games": [
    {
      "name": "Counter Spell Reforged",
      "slug": "counter-spell-reforged",
      "service": "igdb"
    }
  ],
  "aliases": [],
  "shaders": [],
  "discord_id": "",
  "change_for": null
}