{
  "id": 178520,
  "name": "Aliens Need Redhead",
  "slug": "aliens-need-redhead",
  "year": null,
  "banner_url": "",
  "icon_url": "",
  "coverart": null,
  "platforms": [],
  "provider_games": [
    {
      "name": "Aliens Need Redhead",
      "slug": "aliens-need-redhead",
      "service": "igdb"
    }
  ],
  "aliases": [],
  "shaders": [],
  "discord_id": "",
  "change_for": null
}