{
  "id": 86434,
  "name": "Magnum Bullets: Case Closed",
  "slug": "magnum-bullets-case-closed",
  "year": null,
  "banner_url": "",
  "icon_url": "",
  "coverart": null,
  "platforms": [],
  "provider_games": [
    {
      "name": "Magnum Bullets: Case Closed",
      "slug": "magnum-bullets-case-closed",
      "service": "igdb"
    }
  ],
  "aliases": [],
  "shaders": [],
  "discord_id": "",
  "change_for": null
}