{
  "id": 262175,
  "name": "Les Incollables CE1-CE2",
  "slug": "les-incollables-ce1-ce2",
  "year": 2008,
  "banner_url": "",
  "icon_url": "",
  "coverart": "https://lutris.net/media/igdb/cover_big/co76bj.jpg",
  "platforms": [
    {
      "name": "Nintendo DS"
    }
  ],
  "provider_games": [
    {
      "name": "Les Incollables CE1-CE2",
      "slug": "les-incollables-ce1-ce2",
      "service": "igdb"
    }
  ],
  "aliases": [],
  "shaders": [],
  "discord_id": "",
  "change_for": null
}