{
  "id": 49935,
  "name": "Breach",
  "slug": "breach--2",
  "year": 2011,
  "banner_url": "",
  "icon_url": "",
  "coverart": "https://lutris.net/media/igdb/cover_big/co2a9l.jpg",
  "platforms": [
    {
      "name": "Windows"
    },
    {
      "name": "Xbox 360"
    }
  ],
  "provider_games": [
    {
      "name": "Breach",
      "slug": "breach--2",
      "service": "igdb"
    },
    {
      "name": "Breach",
      "slug": "1323966768",
      "service": "gog"
    }
  ],
  "aliases": [],
  "shaders": [],
  "discord_id": "",
  "change_for": null
}