{
  "id": 17259,
  "name": "Ehrgeiz",
  "slug": "ehrgeiz",
  "year": 1998,
  "banner_url": "https://lutris.net/games/banner/ehrgeiz.jpg",
  "icon_url": "https://lutris.net/games/icon/ehrgeiz.png",
  "coverart": "https://lutris.net/media/igdb/cover_big/co25g3.jpg",
  "platforms": [
    {
      "name": "Arcade"
    },
    {
      "name": "Sony PlayStation"
    },
    {
      "name": "Sony Playstation 3"
    }
  ],
  "provider_games": [
    {
      "name": "Ehrgeiz",
      "slug": "ehrgeiz",
      "service": "mame"
    },
    {
      "name": "Ehrgeiz",
      "slug": "ehrgeiz",
      "service": "igdb"
    }
  ],
  "aliases": [],
  "shaders": [],
  "discord_id": "",
  "change_for": null
}