{
  "id": 137126,
  "name": "Night Rogue",
  "slug": "night-rogue",
  "year": null,
  "banner_url": "",
  "icon_url": "",
  "coverart": "https://lutris.net/media/igdb/cover_big/co3q5d.jpg",
  "platforms": [],
  "provider_games": [
    {
      "name": "Night Rogue",
      "slug": "night-rogue",
      "service": "igdb"
    }
  ],
  "aliases": [],
  "shaders": [],
  "discord_id": "",
  "change_for": null
}