{
  "id": 300629,
  "name": "Amazing Sonic Scene Creator 2",
  "slug": "amazing-sonic-scene-creator-2",
  "year": 2007,
  "banner_url": "",
  "icon_url": "",
  "coverart": "https://lutris.net/media/igdb/cover_big/co8z47.jpg",
  "platforms": [
    {
      "name": "Browser"
    }
  ],
  "provider_games": [
    {
      "name": "Amazing Sonic Scene Creator 2",
      "slug": "amazing-sonic-scene-creator-2",
      "service": "igdb"
    }
  ],
  "aliases": [],
  "shaders": [],
  "discord_id": "",
  "change_for": null
}