{
  "id": 133007,
  "name": "Fighter Within",
  "slug": "fighter-within",
  "year": 2013,
  "banner_url": "",
  "icon_url": "",
  "coverart": "https://lutris.net/media/igdb/cover_big/co228w.jpg",
  "platforms": [
    {
      "name": "Xbox One"
    }
  ],
  "provider_games": [
    {
      "name": "Fighter Within",
      "slug": "fighter-within",
      "service": "igdb"
    }
  ],
  "aliases": [],
  "shaders": [],
  "discord_id": "",
  "change_for": null
}