{
  "id": 1793,
  "name": "Blue Toad Murder Files: The Mysteries of Little Riddle",
  "slug": "blue-toad-murder-files-the-mysteries-of-little-rid",
  "year": 2009,
  "banner_url": "https://lutris.net/games/banner/blue-toad-murder-files-the-mysteries-of-little-rid.jpg",
  "icon_url": "https://lutris.net/games/icon/blue-toad-murder-files-the-mysteries-of-little-rid.png",
  "coverart": null,
  "platforms": [
    {
      "name": "Windows"
    }
  ],
  "provider_games": [
    {
      "name": "Blue Toad Murder Files - The Mysteries of Little Riddle",
      "slug": "90400",
      "service": "steam"
    }
  ],
  "aliases": [],
  "shaders": [],
  "discord_id": "",
  "change_for": null
}