{
  "id": 15251,
  "name": "Wandering in space",
  "slug": "wandering-in-space",
  "year": 2017,
  "banner_url": "https://lutris.net/games/banner/wandering-in-space.jpg",
  "icon_url": "https://lutris.net/games/icon/wandering-in-space.png",
  "coverart": null,
  "platforms": [
    {
      "name": "Windows"
    }
  ],
  "provider_games": [
    {
      "name": "Wandering in space",
      "slug": "731730",
      "service": "steam"
    },
    {
      "name": "Wandering in space",
      "slug": "wandering-in-space",
      "service": "igdb"
    }
  ],
  "aliases": [],
  "shaders": [],
  "discord_id": "",
  "change_for": null
}