{
  "id": 116989,
  "name": "九天封神",
  "slug": "jiu-tian-feng-shen",
  "year": 2021,
  "banner_url": "",
  "icon_url": "",
  "coverart": "https://lutris.net/media/igdb/cover_big/co3eju.jpg",
  "platforms": [
    {
      "name": "Windows"
    }
  ],
  "provider_games": [
    {
      "name": "Jiu Tian Feng Shen",
      "slug": "jiu-tian-feng-shen",
      "service": "igdb"
    }
  ],
  "aliases": [],
  "shaders": [],
  "discord_id": "",
  "change_for": null
}