{
  "id": 249022,
  "name": "Silver the Hedgehog: World's Collide",
  "slug": "silver-the-hedgehog-worlds-collide",
  "year": 2008,
  "banner_url": "",
  "icon_url": "",
  "coverart": "https://lutris.net/media/igdb/cover_big/co6n06.jpg",
  "platforms": [
    {
      "name": "Windows"
    }
  ],
  "provider_games": [
    {
      "name": "Silver the Hedgehog: World's Collide",
      "slug": "silver-the-hedgehog-worlds-collide",
      "service": "igdb"
    }
  ],
  "aliases": [],
  "shaders": [],
  "discord_id": "",
  "change_for": null
}