{
  "id": 303132,
  "name": "Blackjack Tavern",
  "slug": "blackjack-tavern",
  "year": null,
  "banner_url": "",
  "icon_url": "",
  "coverart": "https://lutris.net/media/igdb/cover_big/co94vy.jpg",
  "platforms": [],
  "provider_games": [
    {
      "name": "Blackjack Tavern",
      "slug": "blackjack-tavern",
      "service": "igdb"
    }
  ],
  "aliases": [],
  "shaders": [],
  "discord_id": "",
  "change_for": null
}