{
  "id": 31154,
  "name": "Visual Studio 2019",
  "slug": "visual-studio-2019",
  "year": 2019,
  "banner_url": "https://lutris.net/games/banner/visual-studio-2019.jpg",
  "icon_url": "",
  "coverart": null,
  "platforms": [
    {
      "name": "Windows"
    }
  ],
  "provider_games": [],
  "aliases": [],
  "shaders": [],
  "discord_id": "",
  "change_for": null
}