{
  "id": 586,
  "name": "Deus Ex: Invisible War",
  "slug": "deus-ex-invisible-war",
  "year": 2003,
  "banner_url": "https://lutris.net/games/banner/deus-ex-invisible-war.jpg",
  "icon_url": "https://lutris.net/games/icon/deus-ex-invisible-war.png",
  "coverart": "https://lutris.net/media/igdb/cover_big/co1v3e.jpg",
  "platforms": [
    {
      "name": "Windows"
    }
  ],
  "provider_games": [
    {
      "name": "Deus Ex 2: Invisible War",
      "slug": "1207659068",
      "service": "gog"
    },
    {
      "name": "Deus Ex: Invisible War",
      "slug": "6920",
      "service": "steam"
    },
    {
      "name": "Deus Ex: Invisible War",
      "slug": "deus-ex-invisible-war",
      "service": "igdb"
    }
  ],
  "aliases": [
    {
      "slug": "deus-ex-2-invisible-war",
      "name": "Deus Ex 2: Invisible War"
    },
    {
      "slug": "deus-ex-2",
      "name": "Deus Ex 2"
    }
  ],
  "shaders": [],
  "discord_id": "",
  "change_for": null
}