{
  "id": 1797,
  "game_id": 5258,
  "game_slug": "might-magic-heroes-online",
  "name": "Might & Magic Heroes Online",
  "year": null,
  "user": "RobLoach",
  "runner": "steam",
  "slug": "might-magic-heroes-online-steam",
  "version": "Steam",
  "description": "",
  "notes": "",
  "credits": "",
  "created_at": "2015-12-29T08:38:20.695578Z",
  "updated_at": "2016-02-02T16:51:06.583150Z",
  "draft": false,
  "published": true,
  "published_by": null,
  "rating": "",
  "is_playable": null,
  "steamid": 336520,
  "gogid": null,
  "gogslug": "",
  "humbleid": "",
  "humblestoreid": "",
  "humblestoreid_real": "",
  "script": {
    "game": {
      "appid": 336520
    }
  },
  "content": "game:\r\n  appid: 336520\r\n",
  "discord_id": ""
}