{
  "id": 59806,
  "name": "Wings of Power: WWII Heavy Bombers and Jets",
  "slug": "wings-of-power-wwii-heavy-bombers-and-jets",
  "year": null,
  "banner_url": "",
  "icon_url": "",
  "coverart": "https://lutris.net/media/igdb/cover_big/reuca4hsqtvcdfudcyxh.jpg",
  "platforms": [],
  "provider_games": [
    {
      "name": "Wings of Power: WWII Heavy Bombers and Jets",
      "slug": "wings-of-power-wwii-heavy-bombers-and-jets",
      "service": "igdb"
    }
  ],
  "aliases": [],
  "shaders": [],
  "discord_id": "",
  "change_for": null
}