{
  "id": 50639,
  "name": "The Fates of Twinion",
  "slug": "the-fates-of-twinion",
  "year": 1993,
  "banner_url": "",
  "icon_url": "",
  "coverart": "https://lutris.net/media/igdb/cover_big/uoy7nhakpdylnvhclbxj.jpg",
  "platforms": [],
  "provider_games": [
    {
      "name": "The Fates of Twinion",
      "slug": "the-fates-of-twinion",
      "service": "igdb"
    }
  ],
  "aliases": [],
  "shaders": [],
  "discord_id": "",
  "change_for": null
}