{
  "id": 10195,
  "game_id": 21752,
  "game_slug": "blameless-a-god-game",
  "name": "Blameless - A God Game",
  "year": 2015,
  "user": "ProgrammerPanda",
  "runner": "wine",
  "slug": "blameless-a-god-game-033",
  "version": "0.3.3",
  "description": "This is the windows version, which i prefer.",
  "notes": "Before proceeding make you sure you've already downloaded the game's zip file. Download here: https://gamejolt.com/games/blameless-a-god-game/82896/download/build/262322",
  "credits": "",
  "created_at": "2018-09-15T10:43:52.896000Z",
  "updated_at": "2020-01-23T02:56:51.417844Z",
  "draft": false,
  "published": true,
  "published_by": null,
  "rating": "",
  "is_playable": null,
  "steamid": null,
  "gogid": null,
  "gogslug": "",
  "humbleid": "",
  "humblestoreid": "",
  "humblestoreid_real": "",
  "script": {
    "files": [
      {
        "GameZip": "N/A:Please select the zip archive."
      }
    ],
    "game": {
      "args": "-arg",
      "exe": "$GAMEDIR/BlamelessFiles/Blameless0.3.3_x86.exe",
      "prefix": "$GAMEDIR"
    },
    "installer": [
      {
        "extract": {
          "dst": "$GAMEDIR/BlamelessFiles/",
          "file": "GameZip"
        }
      }
    ]
  },
  "content": "files:\n- GameZip: N/A:Please select the zip archive.\ngame:\n  args: -arg\n  exe: $GAMEDIR/BlamelessFiles/Blameless0.3.3_x86.exe\n  prefix: $GAMEDIR\ninstaller:\n- extract:\n    dst: $GAMEDIR/BlamelessFiles/\n    file: GameZip\n",
  "discord_id": ""
}