{
  "id": 105477,
  "name": "Pro Yakyuu Spirits 2010",
  "slug": "pro-yakyuu-spirits-2010",
  "year": 2010,
  "banner_url": "",
  "icon_url": "",
  "coverart": "https://lutris.net/media/igdb/cover_big/co2sos.jpg",
  "platforms": [
    {
      "name": "Sony PlayStation 2"
    },
    {
      "name": "Sony Playstation 3"
    },
    {
      "name": "Sony PSP"
    }
  ],
  "provider_games": [
    {
      "name": "Pro Yakyuu Spirits 2010",
      "slug": "pro-yakyuu-spirits-2010",
      "service": "igdb"
    }
  ],
  "aliases": [],
  "shaders": [],
  "discord_id": "",
  "change_for": null
}