{
  "id": 100261,
  "name": "BlueBoi Remastered",
  "slug": "blueboi-remastered",
  "year": null,
  "banner_url": "",
  "icon_url": "",
  "coverart": "https://lutris.net/media/igdb/cover_big/co29ru.jpg",
  "platforms": [],
  "provider_games": [
    {
      "name": "BlueBoi Remastered",
      "slug": "blueboi-remastered",
      "service": "igdb"
    }
  ],
  "aliases": [],
  "shaders": [],
  "discord_id": "",
  "change_for": null
}