{
  "id": 210942,
  "name": "Jump'n'Brawl",
  "slug": "jumpnbrawl",
  "year": null,
  "banner_url": "",
  "icon_url": "",
  "coverart": "https://lutris.net/media/igdb/cover_big/co5gdq.jpg",
  "platforms": [],
  "provider_games": [
    {
      "name": "Jump'n'Brawl",
      "slug": "jumpnbrawl",
      "service": "igdb"
    }
  ],
  "aliases": [],
  "shaders": [],
  "discord_id": "",
  "change_for": null
}