{
  "id": 256519,
  "name": "Creatures by Candlelight",
  "slug": "creatures-by-candlelight",
  "year": null,
  "banner_url": "",
  "icon_url": "",
  "coverart": "https://lutris.net/media/igdb/cover_big/co6zbq.jpg",
  "platforms": [],
  "provider_games": [
    {
      "name": "Creatures by Candlelight",
      "slug": "creatures-by-candlelight",
      "service": "igdb"
    }
  ],
  "aliases": [],
  "shaders": [],
  "discord_id": "",
  "change_for": null
}