{
  "id": 123644,
  "name": "ARMORED HEAD",
  "slug": "armored-head",
  "year": 2020,
  "banner_url": "https://lutris.net/games/banner/armored-head.jpg",
  "icon_url": "",
  "coverart": "https://lutris.net/media/igdb/cover_big/co2gwy.jpg",
  "platforms": [
    {
      "name": "Windows"
    }
  ],
  "provider_games": [
    {
      "name": "ARMORED HEAD",
      "slug": "805590",
      "service": "steam"
    },
    {
      "name": "Armored Head",
      "slug": "armored-head",
      "service": "igdb"
    }
  ],
  "aliases": [],
  "shaders": [],
  "discord_id": "",
  "change_for": null
}