{
  "id": 80162,
  "name": "Tiny Defense",
  "slug": "tiny-defense",
  "year": 2011,
  "banner_url": "",
  "icon_url": "",
  "coverart": "https://lutris.net/media/igdb/cover_big/jcucgb868xcw9rpyifho.jpg",
  "platforms": [],
  "provider_games": [
    {
      "name": "Tiny Defense",
      "slug": "tiny-defense",
      "service": "igdb"
    }
  ],
  "aliases": [],
  "shaders": [],
  "discord_id": "",
  "change_for": null
}