{
  "id": 242196,
  "name": "Shrek 2: Castle Run",
  "slug": "shrek-2-castle-run",
  "year": 2004,
  "banner_url": "",
  "icon_url": "",
  "coverart": "https://lutris.net/media/igdb/cover_big/co5yj5.jpg",
  "platforms": [],
  "provider_games": [
    {
      "name": "Shrek 2: Castle Run",
      "slug": "shrek-2-castle-run",
      "service": "igdb"
    }
  ],
  "aliases": [],
  "shaders": [],
  "discord_id": "",
  "change_for": null
}