{
  "id": 28325,
  "name": "Quantum League",
  "slug": "quantum-league",
  "year": 2020,
  "banner_url": "https://lutris.net/games/banner/quantum-league.jpg",
  "icon_url": "https://lutris.net/games/icon/quantum-league.png",
  "coverart": "https://lutris.net/media/igdb/cover_big/co200y.jpg",
  "platforms": [
    {
      "name": "Nintendo Switch"
    },
    {
      "name": "Windows"
    }
  ],
  "provider_games": [
    {
      "name": "Quantum League",
      "slug": "651150",
      "service": "steam"
    },
    {
      "name": "Quantum League",
      "slug": "quantum-league",
      "service": "igdb"
    }
  ],
  "aliases": [],
  "shaders": [],
  "discord_id": "",
  "change_for": null
}