{
  "id": 185900,
  "name": "Code Romantic",
  "slug": "code-romantic",
  "year": null,
  "banner_url": "https://lutris.net/games/banner/code-romantic.jpg",
  "icon_url": "",
  "coverart": "https://lutris.net/media/igdb/cover_big/co25av.jpg",
  "platforms": [],
  "provider_games": [
    {
      "name": "Code Romantic",
      "slug": "884980",
      "service": "steam"
    },
    {
      "name": "Code Romantic",
      "slug": "code-romantic",
      "service": "igdb"
    }
  ],
  "aliases": [],
  "shaders": [],
  "discord_id": "",
  "change_for": null
}