{
  "id": 157755,
  "name": "Eloh",
  "slug": "eloh",
  "year": 2018,
  "banner_url": "",
  "icon_url": "",
  "coverart": "https://lutris.net/media/igdb/cover_big/co2gg2.jpg",
  "platforms": [],
  "provider_games": [
    {
      "name": "Eloh",
      "slug": "eloh",
      "service": "igdb"
    }
  ],
  "aliases": [],
  "shaders": [],
  "discord_id": "",
  "change_for": null
}