{
  "id": 172906,
  "name": "Ao no Kanata no Four Rhythm EXTRA2",
  "slug": "ao-no-kanata-no-four-rhythm-extra2",
  "year": 2022,
  "banner_url": "",
  "icon_url": "",
  "coverart": "https://lutris.net/media/igdb/cover_big/co47rq.jpg",
  "platforms": [
    {
      "name": "Windows"
    }
  ],
  "provider_games": [
    {
      "name": "Ao no Kanata no Four Rhythm EXTRA2",
      "slug": "ao-no-kanata-no-four-rhythm-extra2",
      "service": "igdb"
    }
  ],
  "aliases": [],
  "shaders": [],
  "discord_id": "",
  "change_for": null
}