{
  "id": 253232,
  "name": "Only Ban!",
  "slug": "only-ban",
  "year": null,
  "banner_url": "",
  "icon_url": "",
  "coverart": "https://lutris.net/media/igdb/cover_big/co6u8j.jpg",
  "platforms": [],
  "provider_games": [
    {
      "name": "Only Ban!",
      "slug": "only-ban",
      "service": "igdb"
    }
  ],
  "aliases": [],
  "shaders": [],
  "discord_id": "",
  "change_for": null
}