{
  "id": 305828,
  "name": "DotSec",
  "slug": "dotsec",
  "year": null,
  "banner_url": "",
  "icon_url": "",
  "coverart": "https://lutris.net/media/igdb/cover_big/co9bum.jpg",
  "platforms": [],
  "provider_games": [
    {
      "name": "DotSec",
      "slug": "dotsec",
      "service": "igdb"
    }
  ],
  "aliases": [],
  "shaders": [],
  "discord_id": "",
  "change_for": null
}