{
  "id": 249163,
  "name": "Stars, Stripes, and Subgames",
  "slug": "stars-stripes-and-subgames",
  "year": null,
  "banner_url": "",
  "icon_url": "",
  "coverart": "https://lutris.net/media/igdb/cover_big/co6mnn.jpg",
  "platforms": [],
  "provider_games": [
    {
      "name": "Stars, Stripes, and Subgames",
      "slug": "stars-stripes-and-subgames",
      "service": "igdb"
    }
  ],
  "aliases": [],
  "shaders": [],
  "discord_id": "",
  "change_for": null
}