{
  "id": 10850,
  "name": "VR Disc Golf",
  "slug": "vr-disc-golf",
  "year": 2016,
  "banner_url": "https://lutris.net/games/banner/vr-disc-golf.jpg",
  "icon_url": "https://lutris.net/games/icon/vr-disc-golf.png",
  "coverart": null,
  "platforms": [
    {
      "name": "Windows"
    }
  ],
  "provider_games": [
    {
      "name": "VR Disc Golf",
      "slug": "493620",
      "service": "steam"
    },
    {
      "name": "VR Disc Golf",
      "slug": "vr-disc-golf",
      "service": "igdb"
    }
  ],
  "aliases": [],
  "shaders": [],
  "discord_id": "",
  "change_for": null
}