{
  "id": 208146,
  "name": "My Clone Army: Me, Myself & I",
  "slug": "my-clone-army-me-myself-and-i",
  "year": null,
  "banner_url": "",
  "icon_url": "",
  "coverart": null,
  "platforms": [],
  "provider_games": [
    {
      "name": "My Clone Army: Me, Myself & I",
      "slug": "my-clone-army-me-myself-and-i",
      "service": "igdb"
    }
  ],
  "aliases": [],
  "shaders": [],
  "discord_id": "",
  "change_for": null
}