{
  "id": 156749,
  "name": "Wuppo: Definitive Edition",
  "slug": "wuppo-definitive-edition",
  "year": 2019,
  "banner_url": "",
  "icon_url": "",
  "coverart": "https://lutris.net/media/igdb/cover_big/co1uy0.jpg",
  "platforms": [
    {
      "name": "Nintendo Switch"
    }
  ],
  "provider_games": [
    {
      "name": "Wuppo: Definitive Edition",
      "slug": "wuppo-definitive-edition",
      "service": "igdb"
    }
  ],
  "aliases": [],
  "shaders": [],
  "discord_id": "",
  "change_for": null
}