{
  "id": 109550,
  "name": "Journey to the Savage Planet: Employee of the Month Edition",
  "slug": "journey-to-the-savage-planet-employee-of-the-month-edition",
  "year": 2021,
  "banner_url": "",
  "icon_url": "",
  "coverart": "https://lutris.net/media/igdb/cover_big/co65z6.jpg",
  "platforms": [
    {
      "name": "Google Stadia"
    }
  ],
  "provider_games": [
    {
      "name": "Journey to the Savage Planet: Employee of the Month Edition",
      "slug": "journey-to-the-savage-planet-employee-of-the-month-edition",
      "service": "igdb"
    }
  ],
  "aliases": [],
  "shaders": [],
  "discord_id": "",
  "change_for": null
}