{
  "id": 140099,
  "name": "Dragon Scroll: Yomigaerishi Maryuu",
  "slug": "dragon-scroll-yomigaerishi-maryuu",
  "year": 1988,
  "banner_url": "",
  "icon_url": "",
  "coverart": "https://lutris.net/media/igdb/cover_big/wbpt8obnvqfxb8xatggv.jpg",
  "platforms": [
    {
      "name": "Family Computer"
    }
  ],
  "provider_games": [
    {
      "name": "Dragon Scroll: Yomigaerishi Maryuu",
      "slug": "dragon-scroll-yomigaerishi-maryuu",
      "service": "igdb"
    }
  ],
  "aliases": [],
  "shaders": [],
  "discord_id": "",
  "change_for": null
}