{
  "id": 64324,
  "name": "Blind Wars",
  "slug": "blind-wars",
  "year": 1992,
  "banner_url": "",
  "icon_url": "",
  "coverart": null,
  "platforms": [],
  "provider_games": [
    {
      "name": "Blind Wars",
      "slug": "blind-wars",
      "service": "igdb"
    }
  ],
  "aliases": [],
  "shaders": [],
  "discord_id": "",
  "change_for": null
}