{
  "id": 37811,
  "game_id": 161,
  "game_slug": "metro-2033",
  "name": "Metro 2033",
  "year": 2010,
  "user": "Augier",
  "runner": "wine",
  "slug": "metro-2033-gog",
  "version": "GOG",
  "description": "",
  "notes": "",
  "credits": "",
  "created_at": "2023-09-19T03:16:12.980478Z",
  "updated_at": "2023-09-19T04:10:15.235922Z",
  "draft": false,
  "published": true,
  "published_by": null,
  "rating": "",
  "is_playable": null,
  "steamid": 43110,
  "gogid": null,
  "gogslug": "",
  "humbleid": "",
  "humblestoreid": "",
  "humblestoreid_real": "",
  "script": {
    "files": [
      {
        "setup": "N/A:Please select the GOG.com Windows installer."
      }
    ],
    "game": {
      "arch": "win64",
      "exe": "drive_c/GOG Games/Metro 2033/metro.exe",
      "prefix": "$GAMEDIR"
    },
    "installer": [
      {
        "task": {
          "args": "/SP- /NOCANCEL /SILENT /SUPPRESSMSGBOXES /DIR=\"C:/GOG Games/Metro 2033\"",
          "executable": "setup",
          "name": "wineexec",
          "prefix": "$GAMEDIR"
        }
      }
    ],
    "system": {
      "env": {
        "VKD3D_CONFIG": "dxr11"
      }
    }
  },
  "content": "files:\n- setup: N/A:Please select the GOG.com Windows installer.\ngame:\n  arch: win64\n  exe: drive_c/GOG Games/Metro 2033/metro.exe\n  prefix: $GAMEDIR\ninstaller:\n- task:\n    args: /SP- /NOCANCEL /SILENT /SUPPRESSMSGBOXES /DIR=\"C:/GOG Games/Metro 2033\"\n    executable: setup\n    name: wineexec\n    prefix: $GAMEDIR\nsystem:\n  env:\n    VKD3D_CONFIG: dxr11\n",
  "discord_id": ""
}