{
  "id": 115112,
  "name": "Mini Hockey Champ!",
  "slug": "mini-hockey-champ--1",
  "year": 2017,
  "banner_url": "",
  "icon_url": "",
  "coverart": "https://lutris.net/media/igdb/cover_big/co2777.jpg",
  "platforms": [
    {
      "name": "Windows"
    }
  ],
  "provider_games": [
    {
      "name": "Mini Hockey Champ!",
      "slug": "mini-hockey-champ--1",
      "service": "igdb"
    }
  ],
  "aliases": [],
  "shaders": [],
  "discord_id": "",
  "change_for": null
}