{
  "id": 33450,
  "name": "Birdie King 3",
  "slug": "birdie-king-3",
  "year": 1984,
  "banner_url": "https://lutris.net/games/banner/birdie-king-3.jpg",
  "icon_url": "https://lutris.net/games/icon/birdie-king-3.png",
  "coverart": "https://lutris.net/media/igdb/cover_big/a1wiwbbmuthbg4n0wexf.jpg",
  "platforms": [
    {
      "name": "Arcade"
    }
  ],
  "provider_games": [
    {
      "name": "Birdie King 3",
      "slug": "bking3",
      "service": "mame"
    },
    {
      "name": "Birdie King 3",
      "slug": "birdie-king-3",
      "service": "igdb"
    }
  ],
  "aliases": [],
  "shaders": [],
  "discord_id": "",
  "change_for": null
}