{
  "id": 174012,
  "name": "Sword Fishing",
  "slug": "sword-fishing",
  "year": null,
  "banner_url": "",
  "icon_url": "",
  "coverart": null,
  "platforms": [],
  "provider_games": [
    {
      "name": "Sword Fishing",
      "slug": "sword-fishing",
      "service": "igdb"
    }
  ],
  "aliases": [],
  "shaders": [],
  "discord_id": "",
  "change_for": null
}