{
  "id": 253041,
  "name": "Last Wish",
  "slug": "last-wish--1",
  "year": null,
  "banner_url": "",
  "icon_url": "",
  "coverart": "https://lutris.net/media/igdb/cover_big/co6uuk.jpg",
  "platforms": [],
  "provider_games": [
    {
      "name": "Last Wish",
      "slug": "last-wish--1",
      "service": "igdb"
    }
  ],
  "aliases": [],
  "shaders": [],
  "discord_id": "",
  "change_for": null
}