{
  "id": 29822,
  "name": "VR Hybrid War 2117 - VR混合战争2117",
  "slug": "vr-hybrid-war-2117-vr2117",
  "year": null,
  "banner_url": "https://lutris.net/games/banner/vr-hybrid-war-2117-vr2117.jpg",
  "icon_url": "https://lutris.net/games/icon/vr-hybrid-war-2117-vr2117.png",
  "coverart": null,
  "platforms": [],
  "provider_games": [
    {
      "name": "VR Hybrid War 2117 - VR混合战争2117",
      "slug": "741360",
      "service": "steam"
    }
  ],
  "aliases": [],
  "shaders": [],
  "discord_id": "",
  "change_for": null
}