{
  "id": 84479,
  "name": "CT Special Forces 3: BioTerror",
  "slug": "ct-special-forces-3-bioterror",
  "year": 2004,
  "banner_url": "",
  "icon_url": "",
  "coverart": "https://lutris.net/media/igdb/cover_big/co4epq.jpg",
  "platforms": [
    {
      "name": "Sony PlayStation"
    }
  ],
  "provider_games": [
    {
      "name": "CT Special Forces 3: BioTerror",
      "slug": "ct-special-forces-3-bioterror",
      "service": "igdb"
    }
  ],
  "aliases": [],
  "shaders": [],
  "discord_id": "",
  "change_for": null
}