{
  "id": 239764,
  "name": "Knights Beasts & Magic",
  "slug": "knights-beasts-and-magic",
  "year": 2009,
  "banner_url": "",
  "icon_url": "",
  "coverart": null,
  "platforms": [
    {
      "name": "Browser"
    }
  ],
  "provider_games": [
    {
      "name": "Knights Beasts & Magic",
      "slug": "knights-beasts-and-magic",
      "service": "igdb"
    }
  ],
  "aliases": [],
  "shaders": [],
  "discord_id": "",
  "change_for": null
}