{
  "id": 59503,
  "name": "Team Notion",
  "slug": "team-notion",
  "year": null,
  "banner_url": "",
  "icon_url": "",
  "coverart": "https://lutris.net/media/igdb/cover_big/hs683ajixwv2lawapfw0.jpg",
  "platforms": [],
  "provider_games": [
    {
      "name": "Team Notion",
      "slug": "team-notion",
      "service": "igdb"
    }
  ],
  "aliases": [],
  "shaders": [],
  "discord_id": "",
  "change_for": null
}