{
  "id": 55102,
  "name": "Goiken Muyou II",
  "slug": "goiken-muyou-ii",
  "year": 1998,
  "banner_url": "",
  "icon_url": "",
  "coverart": "https://lutris.net/media/igdb/cover_big/oq4hy8cdmr2vehj2bung.jpg",
  "platforms": [
    {
      "name": "Sony PlayStation"
    }
  ],
  "provider_games": [
    {
      "name": "Goiken Muyou II",
      "slug": "goiken-muyou-ii",
      "service": "igdb"
    }
  ],
  "aliases": [],
  "shaders": [],
  "discord_id": "",
  "change_for": null
}