{
  "id": 44222,
  "name": "Driver4VR",
  "slug": "driver4vr",
  "year": 2021,
  "banner_url": "https://lutris.net/games/banner/driver4vr.jpg",
  "icon_url": "https://lutris.net/games/icon/driver4vr.png",
  "coverart": "https://lutris.net/media/igdb/cover_big/co461n.jpg",
  "platforms": [
    {
      "name": "Windows"
    }
  ],
  "provider_games": [
    {
      "name": "Driver4VR",
      "slug": "driver4vr",
      "service": "igdb"
    },
    {
      "name": "Driver4VR",
      "slug": "1366950",
      "service": "steam"
    }
  ],
  "aliases": [],
  "shaders": [],
  "discord_id": "",
  "change_for": null
}