{
  "id": 195131,
  "name": "Hayami-Chan 2",
  "slug": "hayami-chan-2",
  "year": 2020,
  "banner_url": "",
  "icon_url": "",
  "coverart": "https://lutris.net/media/igdb/cover_big/co4pye.jpg",
  "platforms": [
    {
      "name": "Windows"
    }
  ],
  "provider_games": [
    {
      "name": "Hayami-Chan 2",
      "slug": "hayami-chan-2",
      "service": "igdb"
    }
  ],
  "aliases": [],
  "shaders": [],
  "discord_id": "",
  "change_for": null
}