{
  "id": 37380,
  "game_id": 198951,
  "game_slug": "jane-the-reaper",
  "name": "Jane the Reaper",
  "year": null,
  "user": "vanstaveren",
  "runner": "steam",
  "slug": "jane-the-reaper-steam",
  "version": "steam",
  "description": "",
  "notes": "",
  "credits": "",
  "created_at": "2023-05-11T21:31:29.225130Z",
  "updated_at": "2023-05-11T21:31:29.225159Z",
  "draft": false,
  "published": true,
  "published_by": null,
  "rating": "",
  "is_playable": null,
  "steamid": null,
  "gogid": null,
  "gogslug": "",
  "humbleid": "",
  "humblestoreid": "",
  "humblestoreid_real": "",
  "script": {
    "game": {
      "appid": 1823590
    }
  },
  "content": "game:\n  appid: 1823590\n",
  "discord_id": ""
}