{
  "id": 183298,
  "name": "Nathan Powell's Wild Araz",
  "slug": "nathan-powells-wild-araz",
  "year": null,
  "banner_url": "",
  "icon_url": "",
  "coverart": null,
  "platforms": [],
  "provider_games": [
    {
      "name": "Nathan Powell's Wild Araz",
      "slug": "nathan-powells-wild-araz",
      "service": "igdb"
    }
  ],
  "aliases": [],
  "shaders": [],
  "discord_id": "",
  "change_for": null
}