{
  "id": 70750,
  "name": "Sudoku: We All Play",
  "slug": "sudoku-we-all-play",
  "year": null,
  "banner_url": "",
  "icon_url": "",
  "coverart": null,
  "platforms": [],
  "provider_games": [
    {
      "name": "Sudoku: We All Play",
      "slug": "sudoku-we-all-play",
      "service": "igdb"
    }
  ],
  "aliases": [],
  "shaders": [],
  "discord_id": "",
  "change_for": null
}