{
  "id": 282310,
  "name": "Heroes of Fortune",
  "slug": "heroes-of-fortune",
  "year": null,
  "banner_url": "",
  "icon_url": "",
  "coverart": null,
  "platforms": [
    {
      "name": "Android"
    }
  ],
  "provider_games": [
    {
      "name": "Heroes of Fortune",
      "slug": "heroes-of-fortune",
      "service": "igdb"
    }
  ],
  "aliases": [],
  "shaders": [],
  "discord_id": "",
  "change_for": null
}