{
  "id": 240051,
  "name": "Digimon Chronicles: The Alpha Chosen",
  "slug": "digimon-chronicles-the-alpha-chosen",
  "year": 2019,
  "banner_url": "",
  "icon_url": "",
  "coverart": "https://lutris.net/media/igdb/cover_big/co62cb.jpg",
  "platforms": [
    {
      "name": "Windows"
    }
  ],
  "provider_games": [
    {
      "name": "Digimon Chronicles: The Alpha Chosen",
      "slug": "digimon-chronicles-the-alpha-chosen",
      "service": "igdb"
    }
  ],
  "aliases": [],
  "shaders": [],
  "discord_id": "",
  "change_for": null
}