{
  "id": 4289,
  "name": "Fork Parker's Holiday Profit Hike",
  "slug": "fork-parkers-holiday-profit-hike",
  "year": 2014,
  "banner_url": "https://lutris.net/games/banner/fork-parkers-holiday-profit-hike.jpg",
  "icon_url": "https://lutris.net/games/icon/fork-parkers-holiday-profit-hike.png",
  "coverart": "https://lutris.net/media/igdb/cover_big/co3zud.jpg",
  "platforms": [
    {
      "name": "Mac"
    },
    {
      "name": "Windows"
    }
  ],
  "provider_games": [
    {
      "name": "Fork Parker's Holiday Profit Hike",
      "slug": "339120",
      "service": "steam"
    },
    {
      "name": "Fork Parker's Holiday Profit Hike",
      "slug": "fork-parkers-holiday-profit-hike",
      "service": "igdb"
    }
  ],
  "aliases": [],
  "shaders": [],
  "discord_id": "",
  "change_for": null
}