{
  "id": 82143,
  "name": "Puzzler - Arrowwords , Crosswords & Wordsearch Volume One",
  "slug": "puzzler-arrowwords-crosswords-and-wordsearch-volume-one",
  "year": null,
  "banner_url": "",
  "icon_url": "",
  "coverart": null,
  "platforms": [],
  "provider_games": [
    {
      "name": "Puzzler - Arrowwords , Crosswords & Wordsearch Volume One",
      "slug": "puzzler-arrowwords-crosswords-and-wordsearch-volume-one",
      "service": "igdb"
    }
  ],
  "aliases": [],
  "shaders": [],
  "discord_id": "",
  "change_for": null
}