{
  "id": 10490,
  "name": "Story of a Cube",
  "slug": "story-of-a-cube",
  "year": 2016,
  "banner_url": "https://lutris.net/games/banner/story-of-a-cube.jpg",
  "icon_url": "https://lutris.net/games/icon/story-of-a-cube.png",
  "coverart": "https://lutris.net/media/igdb/cover_big/co2264.jpg",
  "platforms": [
    {
      "name": "Windows"
    }
  ],
  "provider_games": [
    {
      "name": "Story of a Cube",
      "slug": "440750",
      "service": "steam"
    },
    {
      "name": "Story of a Cube",
      "slug": "story-of-a-cube",
      "service": "igdb"
    }
  ],
  "aliases": [],
  "shaders": [],
  "discord_id": "",
  "change_for": null
}