{
  "id": 74295,
  "name": "Cosmos Chaos!",
  "slug": "cosmos-chaos",
  "year": null,
  "banner_url": "",
  "icon_url": "",
  "coverart": "https://lutris.net/media/igdb/cover_big/co74d7.jpg",
  "platforms": [],
  "provider_games": [
    {
      "name": "Cosmos Chaos!",
      "slug": "cosmos-chaos",
      "service": "igdb"
    }
  ],
  "aliases": [],
  "shaders": [],
  "discord_id": "",
  "change_for": null
}