{
  "id": 5684,
  "game_id": 793,
  "game_slug": "commandos-behind-enemy-lines",
  "name": "Commandos: Behind Enemy Lines",
  "year": 1998,
  "user": "FakeShemp",
  "runner": "wine",
  "slug": "commandos-behind-enemy-lines-groupees",
  "version": "Groupees",
  "description": "",
  "notes": "",
  "credits": "",
  "created_at": "2017-09-11T11:32:15.047000Z",
  "updated_at": "2018-05-19T03:41:53.595627Z",
  "draft": false,
  "published": true,
  "published_by": null,
  "rating": "",
  "is_playable": null,
  "steamid": 6800,
  "gogid": 1207662193,
  "gogslug": "commandos_ammo_pack",
  "humbleid": "",
  "humblestoreid": "",
  "humblestoreid_real": "",
  "script": {
    "files": [
      {
        "file1": "N/A:Please select the Groupees archive"
      }
    ],
    "game": {
      "arch": "win32",
      "exe": "drive_c/Program Files/Pyro Studios/Commandos/comandos.exe",
      "prefix": "$GAMEDIR"
    },
    "installer": [
      {
        "extract": {
          "dst": "$CACHE",
          "file": "$file1"
        }
      },
      {
        "task": {
          "args": "/sp- /verysilent /norestart /suppressmsgboxes /nogui",
          "executable": "$CACHE/setup.exe",
          "name": "wineexec",
          "prefix": "$GAMEDIR"
        }
      }
    ]
  },
  "content": "files:\n- file1: N/A:Please select the Groupees archive\ngame:\n  arch: win32\n  exe: drive_c/Program Files/Pyro Studios/Commandos/comandos.exe\n  prefix: $GAMEDIR\ninstaller:\n- extract:\n    dst: $CACHE\n    file: $file1\n- task:\n    args: /sp- /verysilent /norestart /suppressmsgboxes /nogui\n    executable: $CACHE/setup.exe\n    name: wineexec\n    prefix: $GAMEDIR\n",
  "discord_id": ""
}