{
  "id": 23535,
  "name": "RetroMaze",
  "slug": "retromaze",
  "year": 2018,
  "banner_url": "https://lutris.net/games/banner/retromaze.jpg",
  "icon_url": "https://lutris.net/games/icon/retromaze.png",
  "coverart": "https://lutris.net/media/igdb/cover_big/co3yhd.jpg",
  "platforms": [
    {
      "name": "Windows"
    }
  ],
  "provider_games": [
    {
      "name": "RetroMaze",
      "slug": "852110",
      "service": "steam"
    },
    {
      "name": "RetroMaze",
      "slug": "retromaze",
      "service": "igdb"
    }
  ],
  "aliases": [],
  "shaders": [],
  "discord_id": "",
  "change_for": null
}