{
  "id": 297875,
  "name": "Reader Rabbit Preschool",
  "slug": "reader-rabbit-preschool--1",
  "year": 1997,
  "banner_url": "",
  "icon_url": "",
  "coverart": "https://lutris.net/media/igdb/cover_big/co8tze.jpg",
  "platforms": [
    {
      "name": "Mac"
    },
    {
      "name": "Windows"
    }
  ],
  "provider_games": [
    {
      "name": "Reader Rabbit Preschool",
      "slug": "reader-rabbit-preschool--1",
      "service": "igdb"
    }
  ],
  "aliases": [],
  "shaders": [],
  "discord_id": "",
  "change_for": null
}