{
  "id": 1070,
  "name": "War Inc. Battlezone",
  "slug": "war-inc-battlezone",
  "year": 2011,
  "banner_url": "https://lutris.net/games/banner/war-inc-battlezone.jpg",
  "icon_url": "https://lutris.net/games/icon/war-inc-battlezone.png",
  "coverart": "https://lutris.net/media/igdb/cover_big/tbij1anbiqqwrgoj0vek.jpg",
  "platforms": [
    {
      "name": "Windows"
    }
  ],
  "provider_games": [
    {
      "name": "War Inc. Battlezone",
      "slug": "107900",
      "service": "steam"
    },
    {
      "name": "War Inc. Battlezone",
      "slug": "war-inc-battlezone",
      "service": "igdb"
    }
  ],
  "aliases": [],
  "shaders": [],
  "discord_id": "",
  "change_for": null
}