{
  "id": 160079,
  "name": "Cheating Fate",
  "slug": "cheating-fate",
  "year": null,
  "banner_url": "",
  "icon_url": "",
  "coverart": null,
  "platforms": [],
  "provider_games": [
    {
      "name": "Cheating Fate",
      "slug": "cheating-fate",
      "service": "igdb"
    }
  ],
  "aliases": [],
  "shaders": [],
  "discord_id": "",
  "change_for": null
}