{
  "id": 119259,
  "name": "New Cities",
  "slug": "new-cities",
  "year": 2020,
  "banner_url": "",
  "icon_url": "",
  "coverart": "https://lutris.net/media/igdb/cover_big/co1ucv.jpg",
  "platforms": [
    {
      "name": "Linux"
    },
    {
      "name": "Windows"
    }
  ],
  "provider_games": [
    {
      "name": "New Cities",
      "slug": "new-cities",
      "service": "igdb"
    }
  ],
  "aliases": [],
  "shaders": [],
  "discord_id": "",
  "change_for": null
}