{
  "id": 156599,
  "name": "Saint Seiya: Ougon Densetsu Kanketsu Hen",
  "slug": "saint-seiya-ougon-densetsu-kanketsu-hen",
  "year": 1988,
  "banner_url": "",
  "icon_url": "",
  "coverart": "https://lutris.net/media/igdb/cover_big/co3w51.jpg",
  "platforms": [
    {
      "name": "Family Computer"
    }
  ],
  "provider_games": [
    {
      "name": "Saint Seiya: Ougon Densetsu - Kanketsu-hen",
      "slug": "saint-seiya-ougon-densetsu-kanketsu-hen",
      "service": "igdb"
    }
  ],
  "aliases": [],
  "shaders": [],
  "discord_id": "",
  "change_for": null
}