{
  "id": 295110,
  "name": "Pilot Flight Simulation",
  "slug": "pilot-flight-simulation",
  "year": null,
  "banner_url": "",
  "icon_url": "",
  "coverart": "https://lutris.net/media/igdb/cover_big/co8s7b.jpg",
  "platforms": [],
  "provider_games": [
    {
      "name": "Pilot Flight Simulation",
      "slug": "pilot-flight-simulation",
      "service": "igdb"
    }
  ],
  "aliases": [],
  "shaders": [],
  "discord_id": "",
  "change_for": null
}