{
  "id": 142861,
  "name": "Cradle of Links",
  "slug": "cradle-of-links",
  "year": null,
  "banner_url": "",
  "icon_url": "",
  "coverart": "https://lutris.net/media/igdb/cover_big/co3u1m.jpg",
  "platforms": [],
  "provider_games": [
    {
      "name": "Cradle of Links",
      "slug": "cradle-of-links",
      "service": "igdb"
    }
  ],
  "aliases": [],
  "shaders": [],
  "discord_id": "",
  "change_for": null
}