{
  "id": 213184,
  "name": "Ys X: Nordics",
  "slug": "ys-x-nordics",
  "year": null,
  "banner_url": "",
  "icon_url": "",
  "coverart": "https://lutris.net/media/igdb/cover_big/co5wqs.jpg",
  "platforms": [
    {
      "name": "Nintendo Switch"
    },
    {
      "name": "Sony Playstation 4"
    },
    {
      "name": "Sony PlayStation 5"
    }
  ],
  "provider_games": [
    {
      "name": "Ys X: Nordics",
      "slug": "ys-x-nordics",
      "service": "igdb"
    },
    {
      "name": "Ys X: Nordics",
      "slug": "1381277388",
      "service": "gog"
    }
  ],
  "aliases": [],
  "shaders": [],
  "discord_id": "",
  "change_for": null
}