{
  "id": 10853,
  "name": "Random Journey",
  "slug": "random-journey",
  "year": 2016,
  "banner_url": "https://lutris.net/games/banner/random-journey.jpg",
  "icon_url": "https://lutris.net/games/icon/random-journey.png",
  "coverart": null,
  "platforms": [
    {
      "name": "Linux"
    },
    {
      "name": "Windows"
    }
  ],
  "provider_games": [
    {
      "name": "Random Journey",
      "slug": "random-journey",
      "service": "igdb"
    }
  ],
  "aliases": [],
  "shaders": [],
  "discord_id": "",
  "change_for": null
}