{
  "id": 267918,
  "name": "Cosmic Horizons: Path of the Wanderer",
  "slug": "cosmic-horizons-path-of-the-wanderer",
  "year": null,
  "banner_url": "",
  "icon_url": "",
  "coverart": "https://lutris.net/media/igdb/cover_big/co7ff6.jpg",
  "platforms": [],
  "provider_games": [
    {
      "name": "Cosmic Horizons: Path of the Wanderer",
      "slug": "cosmic-horizons-path-of-the-wanderer",
      "service": "igdb"
    }
  ],
  "aliases": [],
  "shaders": [],
  "discord_id": "",
  "change_for": null
}