{
  "id": 297323,
  "name": "Caila Raven And The Temple of The Order",
  "slug": "caila-raven-and-the-temple-of-the-order",
  "year": 2012,
  "banner_url": "",
  "icon_url": "",
  "coverart": "https://lutris.net/media/igdb/cover_big/co8rpx.jpg",
  "platforms": [
    {
      "name": "Browser"
    }
  ],
  "provider_games": [
    {
      "name": "Caila Raven And The Temple of The Order",
      "slug": "caila-raven-and-the-temple-of-the-order",
      "service": "igdb"
    }
  ],
  "aliases": [],
  "shaders": [],
  "discord_id": "",
  "change_for": null
}