{
  "id": 124950,
  "name": "鸿源战纪 - Tales of Hongyuan",
  "slug": "hong-yuan-zhan-ji-tales-of-hongyuan",
  "year": 2017,
  "banner_url": "",
  "icon_url": "",
  "coverart": "https://lutris.net/media/igdb/cover_big/co22nf.jpg",
  "platforms": [
    {
      "name": "Windows"
    }
  ],
  "provider_games": [
    {
      "name": "鸿源战纪 - Tales of Hongyuan",
      "slug": "hong-yuan-zhan-ji-tales-of-hongyuan",
      "service": "igdb"
    }
  ],
  "aliases": [],
  "shaders": [],
  "discord_id": "",
  "change_for": null
}