{
  "id": 272617,
  "name": "Fruit Girls 2: Hentai Jigsaw Photo Studio",
  "slug": "fruit-girls-2-hentai-jigsaw-photo-studio",
  "year": 2022,
  "banner_url": "",
  "icon_url": "",
  "coverart": "https://lutris.net/media/igdb/cover_big/co7rc5.jpg",
  "platforms": [
    {
      "name": "Windows"
    }
  ],
  "provider_games": [
    {
      "name": "Fruit Girls 2: Hentai Jigsaw Photo Studio",
      "slug": "fruit-girls-2-hentai-jigsaw-photo-studio",
      "service": "igdb"
    }
  ],
  "aliases": [],
  "shaders": [],
  "discord_id": "",
  "change_for": null
}