{
  "id": 124852,
  "name": "Twilight on Yulestead",
  "slug": "twilight-on-yulestead",
  "year": null,
  "banner_url": "https://lutris.net/games/banner/twilight-on-yulestead.jpg",
  "icon_url": "",
  "coverart": null,
  "platforms": [],
  "provider_games": [
    {
      "name": "Twilight on Yulestead",
      "slug": "789980",
      "service": "steam"
    },
    {
      "name": "Twilight on Yulestead",
      "slug": "twilight-on-yulestead",
      "service": "igdb"
    }
  ],
  "aliases": [],
  "shaders": [],
  "discord_id": "",
  "change_for": null
}