{
  "id": 209540,
  "name": "Barrage Musical: Basic Danmaku Tutorial",
  "slug": "barrage-musical-basic-danmaku-tutorial",
  "year": 2019,
  "banner_url": "",
  "icon_url": "",
  "coverart": null,
  "platforms": [
    {
      "name": "Windows"
    }
  ],
  "provider_games": [
    {
      "name": "Barrage Musical: Basic Danmaku Tutorial",
      "slug": "barrage-musical-basic-danmaku-tutorial",
      "service": "igdb"
    }
  ],
  "aliases": [],
  "shaders": [],
  "discord_id": "",
  "change_for": null
}