{
  "id": 178751,
  "name": "Golfie",
  "slug": "golfie",
  "year": null,
  "banner_url": "https://lutris.net/games/banner/golfie.jpg",
  "icon_url": "",
  "coverart": "https://lutris.net/media/igdb/cover_big/co3kd3.jpg",
  "platforms": [
    {
      "name": "Windows"
    }
  ],
  "provider_games": [
    {
      "name": "Golfie",
      "slug": "golfie",
      "service": "igdb"
    },
    {
      "name": "Golfie",
      "slug": "1579020",
      "service": "steam"
    }
  ],
  "aliases": [],
  "shaders": [],
  "discord_id": "",
  "change_for": null
}