{
  "id": 261973,
  "name": "Days Of My Life",
  "slug": "days-of-my-life",
  "year": null,
  "banner_url": "",
  "icon_url": "",
  "coverart": "https://lutris.net/media/igdb/cover_big/co76oa.jpg",
  "platforms": [],
  "provider_games": [
    {
      "name": "Days Of My Life",
      "slug": "days-of-my-life",
      "service": "igdb"
    }
  ],
  "aliases": [],
  "shaders": [],
  "discord_id": "",
  "change_for": null
}