{
  "id": 117529,
  "name": "NUTS",
  "slug": "nuts",
  "year": 2021,
  "banner_url": "https://lutris.net/games/banner/nuts.jpg",
  "icon_url": "",
  "coverart": "https://lutris.net/media/igdb/cover_big/co29rl.jpg",
  "platforms": [
    {
      "name": "Mac"
    },
    {
      "name": "Nintendo Switch"
    },
    {
      "name": "Windows"
    }
  ],
  "provider_games": [
    {
      "name": "NUTS",
      "slug": "768450",
      "service": "steam"
    },
    {
      "name": "Nuts",
      "slug": "nuts",
      "service": "igdb"
    }
  ],
  "aliases": [],
  "shaders": [],
  "discord_id": "",
  "change_for": null
}