{
  "id": 306876,
  "name": "Undertale: Hard Mode - Wonderful Idea [Genocide Ending]",
  "slug": "undertale-hard-mode-wonderful-idea-genocide-ending",
  "year": null,
  "banner_url": "",
  "icon_url": "",
  "coverart": "https://lutris.net/media/igdb/cover_big/co9erj.jpg",
  "platforms": [
    {
      "name": "Windows"
    }
  ],
  "provider_games": [
    {
      "name": "Undertale: Hard Mode - Wonderful Idea [Genocide Ending]",
      "slug": "undertale-hard-mode-wonderful-idea-genocide-ending",
      "service": "igdb"
    }
  ],
  "aliases": [],
  "shaders": [],
  "discord_id": "",
  "change_for": null
}