{
  "id": 252744,
  "name": "Achievement Display Cabinet",
  "slug": "achievement-display-cabinet",
  "year": null,
  "banner_url": "",
  "icon_url": "",
  "coverart": "https://lutris.net/media/igdb/cover_big/co6tt1.jpg",
  "platforms": [],
  "provider_games": [
    {
      "name": "Achievement Display Cabinet",
      "slug": "achievement-display-cabinet",
      "service": "igdb"
    }
  ],
  "aliases": [],
  "shaders": [],
  "discord_id": "",
  "change_for": null
}