{
  "id": 68102,
  "name": "Depth: Aquatic Stealth",
  "slug": "depth-aquatic-stealth",
  "year": null,
  "banner_url": "",
  "icon_url": "",
  "coverart": null,
  "platforms": [],
  "provider_games": [
    {
      "name": "Depth: Aquatic Stealth",
      "slug": "depth-aquatic-stealth",
      "service": "igdb"
    }
  ],
  "aliases": [],
  "shaders": [],
  "discord_id": "",
  "change_for": null
}