{
  "id": 204916,
  "name": "Minion Raid Epic Monsters",
  "slug": "minion-raid-epic-monsters",
  "year": 2022,
  "banner_url": "https://lutris.net/games/banner/minion-raid-epic-monsters.jpg",
  "icon_url": "https://lutris.net/games/icon/minion-raid-epic-monsters.png",
  "coverart": "https://lutris.net/media/igdb/cover_big/co5lec.jpg",
  "platforms": [
    {
      "name": "Windows"
    }
  ],
  "provider_games": [
    {
      "name": "Minion Raid: Epic Monsters",
      "slug": "minion-raid-epic-monsters",
      "service": "igdb"
    },
    {
      "name": "Minion Raid Epic Monsters",
      "slug": "1945990",
      "service": "steam"
    }
  ],
  "aliases": [],
  "shaders": [],
  "discord_id": "",
  "change_for": null
}