{
  "id": 251452,
  "name": "Bubble Shooter: Jungle Pop",
  "slug": "bubble-shooter-jungle-pop",
  "year": 2020,
  "banner_url": "",
  "icon_url": "",
  "coverart": null,
  "platforms": [
    {
      "name": "Android"
    }
  ],
  "provider_games": [
    {
      "name": "Bubble Shooter: Jungle Pop",
      "slug": "bubble-shooter-jungle-pop",
      "service": "igdb"
    }
  ],
  "aliases": [],
  "shaders": [],
  "discord_id": "",
  "change_for": null
}