{
  "id": 297405,
  "name": "Street Racers: Hot Asphalt",
  "slug": "street-racers-hot-asphalt",
  "year": 2007,
  "banner_url": "",
  "icon_url": "",
  "coverart": "https://lutris.net/media/igdb/cover_big/co8tog.jpg",
  "platforms": [
    {
      "name": "Windows"
    }
  ],
  "provider_games": [
    {
      "name": "Street Racers: Hot Asphalt",
      "slug": "street-racers-hot-asphalt",
      "service": "igdb"
    }
  ],
  "aliases": [],
  "shaders": [],
  "discord_id": "",
  "change_for": null
}