{
  "id": 83297,
  "name": "Desert Assault",
  "slug": "desert-assault",
  "year": 1992,
  "banner_url": "",
  "icon_url": "",
  "coverart": "https://lutris.net/media/igdb/cover_big/co7jv0.jpg",
  "platforms": [],
  "provider_games": [
    {
      "name": "Desert Assault",
      "slug": "desert-assault",
      "service": "igdb"
    }
  ],
  "aliases": [],
  "shaders": [],
  "discord_id": "",
  "change_for": null
}