{
  "id": 133112,
  "name": "99 Fails",
  "slug": "99-fails",
  "year": null,
  "banner_url": "",
  "icon_url": "",
  "coverart": "https://lutris.net/media/igdb/cover_big/co3ktm.jpg",
  "platforms": [],
  "provider_games": [
    {
      "name": "99 Fails",
      "slug": "99-fails",
      "service": "igdb"
    }
  ],
  "aliases": [],
  "shaders": [],
  "discord_id": "",
  "change_for": null
}