{
  "id": 22931,
  "game_id": 5514,
  "game_slug": "just-cause-3",
  "name": "Just Cause 3",
  "year": 2015,
  "user": "foul-fortune-feline",
  "runner": "steam",
  "slug": "just-cause-3-steam-proton",
  "version": "Steam Proton",
  "description": null,
  "notes": "",
  "credits": "",
  "created_at": "2020-08-18T02:05:45.336652Z",
  "updated_at": "2021-12-13T19:17:49.998614Z",
  "draft": false,
  "published": true,
  "published_by": null,
  "rating": "",
  "is_playable": null,
  "steamid": 225540,
  "gogid": null,
  "gogslug": "",
  "humbleid": "",
  "humblestoreid": "",
  "humblestoreid_real": "",
  "script": {
    "game": {
      "appid": 225540
    }
  },
  "content": "game:\n  appid: 225540\n",
  "discord_id": "363414140502671360"
}