{
  "id": 38038,
  "game_id": 37792,
  "game_slug": "sonic-3-air",
  "name": "Sonic 3 A.I.R",
  "year": 1994,
  "user": "exotic_II",
  "runner": "linux",
  "slug": "sonic-3-air-git",
  "version": "Git",
  "description": "Compiles and installs the git (unstable) version of Sonic 3 A.I.R",
  "notes": "Please ensure that you have the .bin file to run Sonic 3 A.I.R (Sonic Origins DOES NOT WORK)",
  "credits": "Eukaryot, for making the game itself!",
  "created_at": "2023-11-21T03:32:39.055231Z",
  "updated_at": "2023-11-21T03:32:39.055264Z",
  "draft": false,
  "published": true,
  "published_by": null,
  "rating": "",
  "is_playable": null,
  "steamid": null,
  "gogid": null,
  "gogslug": "",
  "humbleid": "",
  "humblestoreid": "",
  "humblestoreid_real": "",
  "script": {
    "files": [
      {
        "data": "https://github.com/Eukaryot/sonic3air/archive/refs/heads/main.zip"
      },
      {
        "bin": "N/A:Please select the .bin file from Steam"
      }
    ],
    "game": {
      "exe": "$GAMEDIR/Oxygen/sonic3air/sonic3air_linux"
    },
    "installer": [
      {
        "extract": {
          "file": "data"
        }
      },
      {
        "execute": {
          "command": "cd $GAMEDIR/Oxygen/sonic3air/build/_cmake && cmake -DCMAKE_BUILD_TYPE=Release ./ && cmake --build ./",
          "description": "Compiling the game... This will take some time."
        }
      },
      {
        "move": {
          "dst": "$GAMEDIR/Oxygen/sonic3air",
          "src": "$GAMEDIR/sonic3air/sonic3air_linux"
        }
      },
      {
        "copy": {
          "dst": "$GAMEDIR/Oxygen/sonic3air",
          "src": "bin"
        }
      }
    ]
  },
  "content": "files:\n- data: https://github.com/Eukaryot/sonic3air/archive/refs/heads/main.zip\n- bin: N/A:Please select the .bin file from Steam\ngame:\n  exe: $GAMEDIR/Oxygen/sonic3air/sonic3air_linux\ninstaller:\n- extract:\n    file: data\n- execute:\n    command: cd $GAMEDIR/Oxygen/sonic3air/build/_cmake && cmake -DCMAKE_BUILD_TYPE=Release\n      ./ && cmake --build ./\n    description: Compiling the game... This will take some time.\n- move:\n    dst: $GAMEDIR/Oxygen/sonic3air\n    src: $GAMEDIR/sonic3air/sonic3air_linux\n- copy:\n    dst: $GAMEDIR/Oxygen/sonic3air\n    src: bin\n",
  "discord_id": ""
}