{
  "id": 142819,
  "name": "Poop On 2020 Simulator",
  "slug": "poop-on-2020-simulator",
  "year": null,
  "banner_url": "",
  "icon_url": "",
  "coverart": "https://lutris.net/media/igdb/cover_big/co3tzu.jpg",
  "platforms": [],
  "provider_games": [
    {
      "name": "Poop on 2020 Simulator",
      "slug": "poop-on-2020-simulator",
      "service": "igdb"
    }
  ],
  "aliases": [],
  "shaders": [],
  "discord_id": "",
  "change_for": null
}