{
  "id": 170293,
  "name": "La Dimensione Interna",
  "slug": "la-dimensione-interna",
  "year": null,
  "banner_url": "",
  "icon_url": "",
  "coverart": "https://lutris.net/media/igdb/cover_big/co46ks.jpg",
  "platforms": [],
  "provider_games": [
    {
      "name": "La Dimensione Interna",
      "slug": "la-dimensione-interna",
      "service": "igdb"
    }
  ],
  "aliases": [],
  "shaders": [],
  "discord_id": "",
  "change_for": null
}