{
  "id": 88851,
  "name": "Jewel Legends: Atlantis",
  "slug": "jewel-legends-atlantis",
  "year": null,
  "banner_url": "",
  "icon_url": "",
  "coverart": "https://lutris.net/media/igdb/cover_big/co7bbg.jpg",
  "platforms": [],
  "provider_games": [
    {
      "name": "Jewel Legends: Atlantis",
      "slug": "jewel-legends-atlantis",
      "service": "igdb"
    }
  ],
  "aliases": [],
  "shaders": [],
  "discord_id": "",
  "change_for": null
}