{
  "id": 28928,
  "name": "Attack on Titan 2 - A.O.T.2 - 進撃の巨人２ Demo",
  "slug": "attack-on-titan-2-aot2-2-demo",
  "year": null,
  "banner_url": "https://lutris.net/games/banner/attack-on-titan-2-aot2-2-demo.jpg",
  "icon_url": "https://lutris.net/games/icon/attack-on-titan-2-aot2-2-demo.png",
  "coverart": null,
  "platforms": [],
  "provider_games": [
    {
      "name": "Attack on Titan 2 - A.O.T.2 - Demo",
      "slug": "1019100",
      "service": "steam"
    }
  ],
  "aliases": [],
  "shaders": [],
  "discord_id": "",
  "change_for": null
}