{
  "id": 280716,
  "name": "Yeti Legend: Mystery of the Forest",
  "slug": "yeti-legend-mystery-of-the-forest",
  "year": 2017,
  "banner_url": "",
  "icon_url": "",
  "coverart": "https://lutris.net/media/igdb/cover_big/co800n.jpg",
  "platforms": [
    {
      "name": "Windows"
    }
  ],
  "provider_games": [
    {
      "name": "Yeti Legend: Mystery of the Forest",
      "slug": "yeti-legend-mystery-of-the-forest",
      "service": "igdb"
    }
  ],
  "aliases": [],
  "shaders": [],
  "discord_id": "",
  "change_for": null
}