{
  "id": 22672,
  "name": "Kamikazo VR",
  "slug": "kamikazo-vr",
  "year": null,
  "banner_url": "https://lutris.net/games/banner/kamikazo-vr.jpg",
  "icon_url": "https://lutris.net/games/icon/kamikazo-vr.png",
  "coverart": null,
  "platforms": [],
  "provider_games": [
    {
      "name": "Kamikazo VR",
      "slug": "776290",
      "service": "steam"
    },
    {
      "name": "Kamikazo VR",
      "slug": "kamikazo-vr",
      "service": "igdb"
    }
  ],
  "aliases": [],
  "shaders": [],
  "discord_id": "",
  "change_for": null
}