{
  "id": 69378,
  "name": "Locodriver 7",
  "slug": "locodriver-7",
  "year": null,
  "banner_url": "",
  "icon_url": "",
  "coverart": "https://lutris.net/media/igdb/cover_big/elgbao8ro8xlyyizwxg5.jpg",
  "platforms": [],
  "provider_games": [
    {
      "name": "Locodriver 7",
      "slug": "locodriver-7",
      "service": "igdb"
    }
  ],
  "aliases": [],
  "shaders": [],
  "discord_id": "",
  "change_for": null
}