{
  "id": 11162,
  "name": "Tom Clancy's Ghost Recon® Wildlands",
  "slug": "tom-clancys-ghost-recon-wildlands",
  "year": 2017,
  "banner_url": "https://lutris.net/games/banner/tom-clancys-ghost-recon-wildlands.jpg",
  "icon_url": "https://lutris.net/games/icon/tom-clancys-ghost-recon-wildlands.png",
  "coverart": "https://lutris.net/media/igdb/cover_big/co1ku7.jpg",
  "platforms": [
    {
      "name": "Google Stadia"
    },
    {
      "name": "Sony Playstation 4"
    },
    {
      "name": "Windows"
    },
    {
      "name": "Xbox One"
    }
  ],
  "provider_games": [
    {
      "name": "Tom Clancy's Ghost Recon® Wildlands",
      "slug": "460930",
      "service": "steam"
    },
    {
      "name": "Tom Clancy's Ghost Recon: Wildlands",
      "slug": "tom-clancys-ghost-recon-wildlands",
      "service": "igdb"
    }
  ],
  "aliases": [],
  "shaders": [],
  "discord_id": "",
  "change_for": null
}