{
  "id": 236197,
  "name": "The Day Before You Gone",
  "slug": "the-day-before-you-gone",
  "year": null,
  "banner_url": "",
  "icon_url": "",
  "coverart": "https://lutris.net/media/igdb/cover_big/co63vt.jpg",
  "platforms": [],
  "provider_games": [
    {
      "name": "The Day Before You Gone",
      "slug": "the-day-before-you-gone",
      "service": "igdb"
    }
  ],
  "aliases": [],
  "shaders": [],
  "discord_id": "",
  "change_for": null
}