{
  "id": 2220,
  "name": "World of Guns: Gun Disassembly",
  "slug": "world-of-guns-gun-disassembly",
  "year": 2014,
  "banner_url": "https://lutris.net/games/banner/world-of-guns-gun-disassembly.jpg",
  "icon_url": "https://lutris.net/games/icon/world-of-guns-gun-disassembly.png",
  "coverart": "https://lutris.net/media/igdb/cover_big/co1xe0.jpg",
  "platforms": [
    {
      "name": "Android"
    },
    {
      "name": "Browser"
    },
    {
      "name": "Linux"
    },
    {
      "name": "Mac"
    },
    {
      "name": "Windows"
    }
  ],
  "provider_games": [
    {
      "name": "World of Guns: Gun Disassembly",
      "slug": "262410",
      "service": "steam"
    },
    {
      "name": "World of Guns: Gun Disassembly",
      "slug": "world-of-guns-gun-disassembly",
      "service": "igdb"
    }
  ],
  "aliases": [],
  "shaders": [],
  "discord_id": "",
  "change_for": null
}