{
  "id": 144773,
  "name": "Dragon's Tower",
  "slug": "dragons-tower",
  "year": null,
  "banner_url": "",
  "icon_url": "",
  "coverart": "https://lutris.net/media/igdb/cover_big/co3v31.jpg",
  "platforms": [],
  "provider_games": [
    {
      "name": "Dragon's Tower",
      "slug": "dragons-tower",
      "service": "igdb"
    }
  ],
  "aliases": [],
  "shaders": [],
  "discord_id": "",
  "change_for": null
}