{
  "id": 272053,
  "name": "Cloudburst",
  "slug": "cloudburst--1",
  "year": 1982,
  "banner_url": "",
  "icon_url": "",
  "coverart": "https://lutris.net/media/igdb/cover_big/co7piw.jpg",
  "platforms": [
    {
      "name": "Atari 8-bit"
    },
    {
      "name": "Commodore VIC-20"
    }
  ],
  "provider_games": [
    {
      "name": "Cloudburst",
      "slug": "cloudburst--1",
      "service": "igdb"
    }
  ],
  "aliases": [],
  "shaders": [],
  "discord_id": "",
  "change_for": null
}