{
  "id": 255336,
  "name": "Cosmik Battle",
  "slug": "cosmik-battle",
  "year": null,
  "banner_url": "",
  "icon_url": "",
  "coverart": "https://lutris.net/media/igdb/cover_big/co6wwj.jpg",
  "platforms": [],
  "provider_games": [
    {
      "name": "Cosmik Battle",
      "slug": "cosmik-battle",
      "service": "igdb"
    }
  ],
  "aliases": [],
  "shaders": [],
  "discord_id": "",
  "change_for": null
}