{
  "id": 286061,
  "name": "Touch Maze",
  "slug": "touch-maze",
  "year": null,
  "banner_url": "",
  "icon_url": "",
  "coverart": "https://lutris.net/media/igdb/cover_big/co88h1.jpg",
  "platforms": [],
  "provider_games": [
    {
      "name": "Touch Maze",
      "slug": "touch-maze",
      "service": "igdb"
    }
  ],
  "aliases": [],
  "shaders": [],
  "discord_id": "",
  "change_for": null
}