{
  "id": 29629,
  "name": "FIVE NIGHTS AT FREDDY'S VR: HELP WANTED",
  "slug": "five-nights-at-freddys-vr-help-wanted",
  "year": null,
  "banner_url": "https://lutris.net/games/banner/five-nights-at-freddys-vr-help-wanted.jpg",
  "icon_url": "https://lutris.net/games/icon/five-nights-at-freddys-vr-help-wanted.png",
  "coverart": null,
  "platforms": [],
  "provider_games": [
    {
      "name": "FIVE NIGHTS AT FREDDY'S: HELP WANTED",
      "slug": "732690",
      "service": "steam"
    }
  ],
  "aliases": [],
  "shaders": [],
  "discord_id": "",
  "change_for": null
}