{
  "id": 147778,
  "name": "Pit of Evil",
  "slug": "pit-of-evil",
  "year": null,
  "banner_url": "",
  "icon_url": "",
  "coverart": "https://lutris.net/media/igdb/cover_big/co3vd8.jpg",
  "platforms": [],
  "provider_games": [
    {
      "name": "Pit of Evil",
      "slug": "pit-of-evil",
      "service": "igdb"
    }
  ],
  "aliases": [],
  "shaders": [],
  "discord_id": "",
  "change_for": null
}