{
  "id": 252466,
  "name": "Meteor Crusher",
  "slug": "meteor-crusher",
  "year": null,
  "banner_url": "",
  "icon_url": "",
  "coverart": "https://lutris.net/media/igdb/cover_big/co6tvd.jpg",
  "platforms": [],
  "provider_games": [
    {
      "name": "Meteor Crusher",
      "slug": "meteor-crusher",
      "service": "igdb"
    }
  ],
  "aliases": [],
  "shaders": [],
  "discord_id": "",
  "change_for": null
}