{
  "id": 19198,
  "name": "Battle Carnival",
  "slug": "battle-carnival",
  "year": null,
  "banner_url": "https://lutris.net/games/banner/battle-carnival.jpg",
  "icon_url": "https://lutris.net/games/icon/battle-carnival.png",
  "coverart": null,
  "platforms": [],
  "provider_games": [
    {
      "name": "Battle Carnival",
      "slug": "803140",
      "service": "steam"
    }
  ],
  "aliases": [],
  "shaders": [],
  "discord_id": "454759028187463700",
  "change_for": null
}