{
  "id": 67338,
  "name": "Reco Love: Blue Ocean/Gold Beach",
  "slug": "reco-love-blue-ocean-slash-gold-beach",
  "year": null,
  "banner_url": "",
  "icon_url": "",
  "coverart": null,
  "platforms": [],
  "provider_games": [
    {
      "name": "Reco Love: Blue Ocean/Gold Beach",
      "slug": "reco-love-blue-ocean-slash-gold-beach",
      "service": "igdb"
    }
  ],
  "aliases": [],
  "shaders": [],
  "discord_id": "",
  "change_for": null
}