{
  "id": 148674,
  "name": "Wolf or Boy",
  "slug": "wolf-or-boy",
  "year": null,
  "banner_url": "",
  "icon_url": "",
  "coverart": null,
  "platforms": [],
  "provider_games": [
    {
      "name": "Wolf or Boy",
      "slug": "wolf-or-boy",
      "service": "igdb"
    }
  ],
  "aliases": [],
  "shaders": [],
  "discord_id": "",
  "change_for": null
}