{
  "id": 29274,
  "name": "Tigers on the Hunt",
  "slug": "tigers-on-the-hunt",
  "year": 2016,
  "banner_url": "https://lutris.net/games/banner/tigers-on-the-hunt.jpg",
  "icon_url": "",
  "coverart": "https://lutris.net/media/igdb/cover_big/oeootmptigknzeoywenu.jpg",
  "platforms": [
    {
      "name": "Windows"
    }
  ],
  "provider_games": [
    {
      "name": "Tigers on the Hunt",
      "slug": "tigers-on-the-hunt",
      "service": "igdb"
    }
  ],
  "aliases": [],
  "shaders": [],
  "discord_id": "",
  "change_for": null
}