{
  "id": 245617,
  "name": "Funtronics: Red Light Green Light",
  "slug": "funtronics-red-light-green-light",
  "year": 1979,
  "banner_url": "",
  "icon_url": "",
  "coverart": null,
  "platforms": [],
  "provider_games": [
    {
      "name": "Funtronics: Red Light Green Light",
      "slug": "funtronics-red-light-green-light",
      "service": "igdb"
    }
  ],
  "aliases": [],
  "shaders": [],
  "discord_id": "",
  "change_for": null
}