{
  "id": 93242,
  "name": "Laugh & Learn: Animal Sounds",
  "slug": "laugh-and-learn-animal-sounds",
  "year": null,
  "banner_url": "",
  "icon_url": "",
  "coverart": null,
  "platforms": [],
  "provider_games": [
    {
      "name": "Laugh & Learn: Animal Sounds",
      "slug": "laugh-and-learn-animal-sounds",
      "service": "igdb"
    }
  ],
  "aliases": [],
  "shaders": [],
  "discord_id": "",
  "change_for": null
}