{
  "id": 38433,
  "game_id": 4369,
  "game_slug": "tera",
  "name": "Tera",
  "year": 2015,
  "user": "aparthy",
  "runner": "wine",
  "slug": "tera-mt-the-dream",
  "version": "MT: The Dream",
  "description": "Download and install Menma's Tera",
  "notes": "Click Cancel on the DirectX setup dialog.\r\nRun the game to complete the installation",
  "credits": "",
  "created_at": "2024-04-22T17:41:43.678992Z",
  "updated_at": "2024-06-29T22:26:10.011806Z",
  "draft": false,
  "published": true,
  "published_by": 1,
  "rating": "",
  "is_playable": null,
  "steamid": 323370,
  "gogid": null,
  "gogslug": "",
  "humbleid": "",
  "humblestoreid": "",
  "humblestoreid_real": "",
  "script": {
    "discord_id": 809082900527579100,
    "files": [
      {
        "setup": {
          "filename": "MTDreamSetup.exe",
          "url": "https://downloads.mtdream.net/launcher/MTDreamSetup.exe"
        }
      }
    ],
    "game": {
      "arch": "win64",
      "exe": "drive_c/Program Files/MT - The Dream/MT - The Dream.exe",
      "prefix": "$GAMEDIR"
    },
    "installer": [
      {
        "task": {
          "arch": "win64",
          "description": "Create Wine 64bit prefix.",
          "name": "create_prefix",
          "prefix": "$GAMEDIR"
        }
      },
      {
        "task": {
          "app": "win10",
          "arch": "win64",
          "description": "Setting Wine to Windows 10 64-Bit",
          "name": "winetricks",
          "prefix": "$GAMEDIR"
        }
      },
      {
        "task": {
          "arch": "win64",
          "description": "Wine Staging: Enabling DXVA2",
          "key": "backend",
          "name": "set_regedit",
          "path": "HKEY_CURRENT_USER\\Software\\Wine\\DXVA2",
          "prefix": "$GAMEDIR",
          "value": "va"
        }
      },
      {
        "task": {
          "name": "winekill",
          "prefix": "$GAMEDIR"
        }
      },
      {
        "task": {
          "arch": "win64",
          "description": "Download and install Menmas Tera",
          "exclude_processes": "\"MT - The Dream.exe\" \"MT - The Dream\" wineconsole explorer.exe conhost.exe svchost.exe",
          "executable": "setup",
          "name": "wineexec"
        }
      },
      {
        "task": {
          "name": "winekill",
          "prefix": "$GAMEDIR"
        }
      }
    ],
    "system": {
      "env": {
        "DXVK_STATE_CACHE_PATH": "$GAMEDIR",
        "STAGING_SHARED_MEMORY": 1,
        "__GL_DXVK_OPTIMIZATIONS": 1,
        "__GL_SHADER_DISK_CACHE": 1,
        "__GL_SHADER_DISK_CACHE_PATH": "$GAMEDIR"
      },
      "exclude_processes": ""
    },
    "wine": {
      "overrides": {
        "nvapi": "disabled",
        "nvapi64": "disabled"
      }
    }
  },
  "content": "discord_id: 809082900527579199\nfiles:\n- setup:\n    filename: MTDreamSetup.exe\n    url: https://downloads.mtdream.net/launcher/MTDreamSetup.exe\ngame:\n  arch: win64\n  exe: drive_c/Program Files/MT - The Dream/MT - The Dream.exe\n  prefix: $GAMEDIR\ninstaller:\n- task:\n    arch: win64\n    description: Create Wine 64bit prefix.\n    name: create_prefix\n    prefix: $GAMEDIR\n- task:\n    app: win10\n    arch: win64\n    description: Setting Wine to Windows 10 64-Bit\n    name: winetricks\n    prefix: $GAMEDIR\n- task:\n    arch: win64\n    description: 'Wine Staging: Enabling DXVA2'\n    key: backend\n    name: set_regedit\n    path: HKEY_CURRENT_USER\\Software\\Wine\\DXVA2\n    prefix: $GAMEDIR\n    value: va\n- task:\n    name: winekill\n    prefix: $GAMEDIR\n- task:\n    arch: win64\n    description: Download and install Menmas Tera\n    exclude_processes: '\"MT - The Dream.exe\" \"MT - The Dream\" wineconsole explorer.exe\n      conhost.exe svchost.exe'\n    executable: setup\n    name: wineexec\n- task:\n    name: winekill\n    prefix: $GAMEDIR\nsystem:\n  env:\n    DXVK_STATE_CACHE_PATH: $GAMEDIR\n    STAGING_SHARED_MEMORY: 1\n    __GL_DXVK_OPTIMIZATIONS: 1\n    __GL_SHADER_DISK_CACHE: 1\n    __GL_SHADER_DISK_CACHE_PATH: $GAMEDIR\n  exclude_processes: ''\nwine:\n  overrides:\n    nvapi: disabled\n    nvapi64: disabled\n",
  "discord_id": "363430088521547786"
}