{
  "id": 35156,
  "name": "New York! New York!",
  "slug": "new-york-new-york",
  "year": 1980,
  "banner_url": "https://lutris.net/games/banner/new-york-new-york.jpg",
  "icon_url": "https://lutris.net/games/icon/new-york-new-york.png",
  "coverart": "https://lutris.net/media/igdb/cover_big/dkbe9rqq9rhc7rlotkcf.jpg",
  "platforms": [
    {
      "name": "Arcade"
    }
  ],
  "provider_games": [
    {
      "name": "New York! New York!",
      "slug": "nyny",
      "service": "mame"
    },
    {
      "name": "New York! New York!",
      "slug": "new-york-new-york",
      "service": "igdb"
    }
  ],
  "aliases": [],
  "shaders": [],
  "discord_id": "",
  "change_for": null
}