{
  "id": 183616,
  "name": "Minesweeper Online",
  "slug": "minesweeper-online",
  "year": null,
  "banner_url": "",
  "icon_url": "",
  "coverart": "https://lutris.net/media/igdb/cover_big/co77wc.jpg",
  "platforms": [],
  "provider_games": [
    {
      "name": "Minesweeper Online",
      "slug": "minesweeper-online",
      "service": "igdb"
    }
  ],
  "aliases": [],
  "shaders": [],
  "discord_id": "",
  "change_for": null
}