{
  "id": 17497,
  "name": "Carpe Diem: Reboot",
  "slug": "carpe-diem-reboot",
  "year": 2017,
  "banner_url": "https://lutris.net/games/banner/carpe-diem-reboot.jpg",
  "icon_url": "https://lutris.net/games/icon/carpe-diem-reboot.png",
  "coverart": "https://lutris.net/media/igdb/cover_big/co22v5.jpg",
  "platforms": [
    {
      "name": "Linux"
    },
    {
      "name": "Mac"
    },
    {
      "name": "Windows"
    }
  ],
  "provider_games": [
    {
      "name": "Carpe Diem: Reboot",
      "slug": "686760",
      "service": "steam"
    },
    {
      "name": "Carpe Diem: Reboot",
      "slug": "carpe-diem-reboot",
      "service": "igdb"
    }
  ],
  "aliases": [],
  "shaders": [],
  "discord_id": "",
  "change_for": null
}