{
  "id": 173884,
  "name": "Bus Driver Simulator",
  "slug": "bus-driver-simulator",
  "year": 2020,
  "banner_url": "",
  "icon_url": "",
  "coverart": "https://lutris.net/media/igdb/cover_big/co2t5v.jpg",
  "platforms": [
    {
      "name": "Sony Playstation 4"
    },
    {
      "name": "Windows"
    }
  ],
  "provider_games": [
    {
      "name": "Bus Driver Simulator",
      "slug": "bus-driver-simulator",
      "service": "igdb"
    },
    {
      "name": "Bus Driver Simulator",
      "slug": "1633843667",
      "service": "gog"
    }
  ],
  "aliases": [],
  "shaders": [],
  "discord_id": "",
  "change_for": null
}