{
  "id": 157354,
  "name": "The House in Fata Morgana: Dreams of the Revenants Edition",
  "slug": "the-house-in-fata-morgana-dreams-of-the-revenants-edition",
  "year": 2019,
  "banner_url": "",
  "icon_url": "",
  "coverart": "https://lutris.net/media/igdb/cover_big/co2gnl.jpg",
  "platforms": [
    {
      "name": "Nintendo Switch"
    },
    {
      "name": "PlayStation Vita"
    },
    {
      "name": "Sony Playstation 4"
    }
  ],
  "provider_games": [
    {
      "name": "The House in Fata Morgana: Dreams of the Revenants Edition",
      "slug": "the-house-in-fata-morgana-dreams-of-the-revenants-edition",
      "service": "igdb"
    }
  ],
  "aliases": [],
  "shaders": [],
  "discord_id": "",
  "change_for": null
}