{
  "id": 36349,
  "name": "VS Gong Fight",
  "slug": "vs-gong-fight",
  "year": 1984,
  "banner_url": "",
  "icon_url": "https://lutris.net/games/icon/vs-gong-fight.png",
  "coverart": null,
  "platforms": [
    {
      "name": "Arcade"
    }
  ],
  "provider_games": [
    {
      "name": "VS Gong Fight",
      "slug": "vsgongf",
      "service": "mame"
    },
    {
      "name": "Vs. Gong Fight",
      "slug": "vs-gong-fight",
      "service": "igdb"
    }
  ],
  "aliases": [],
  "shaders": [],
  "discord_id": "",
  "change_for": null
}