{
  "id": 24441,
  "game_id": 30350,
  "game_slug": "super-jigsaw-puzzle-generations",
  "name": "Super Jigsaw Puzzle: Generations",
  "year": 2019,
  "user": "vanstaveren",
  "runner": "steam",
  "slug": "super-jigsaw-puzzle-generatio-steam",
  "version": "Steam",
  "description": null,
  "notes": "",
  "credits": "",
  "created_at": "2020-11-10T01:58:10.824090Z",
  "updated_at": "2021-12-13T19:10:37.304391Z",
  "draft": false,
  "published": true,
  "published_by": null,
  "rating": "",
  "is_playable": null,
  "steamid": 1036950,
  "gogid": null,
  "gogslug": "",
  "humbleid": "",
  "humblestoreid": "",
  "humblestoreid_real": "",
  "script": {
    "game": {
      "appid": 1036950
    }
  },
  "content": "game:\n  appid: 1036950\n",
  "discord_id": ""
}