{
  "id": 232136,
  "name": "OrbRider",
  "slug": "orbrider",
  "year": null,
  "banner_url": "",
  "icon_url": "",
  "coverart": "https://lutris.net/media/igdb/cover_big/co6bsf.jpg",
  "platforms": [],
  "provider_games": [
    {
      "name": "OrbRider",
      "slug": "orbrider",
      "service": "igdb"
    }
  ],
  "aliases": [],
  "shaders": [],
  "discord_id": "",
  "change_for": null
}