{
  "id": 223548,
  "name": "Disney's Classic Games",
  "slug": "disneys-classic-games",
  "year": null,
  "banner_url": "",
  "icon_url": "",
  "coverart": "https://lutris.net/media/igdb/cover_big/co4vtx.jpg",
  "platforms": [],
  "provider_games": [
    {
      "name": "Disney's Classic Games",
      "slug": "disneys-classic-games",
      "service": "igdb"
    }
  ],
  "aliases": [],
  "shaders": [],
  "discord_id": "",
  "change_for": null
}