{
  "id": 282346,
  "name": "TowerDefenceDesigner",
  "slug": "towerdefencedesigner",
  "year": null,
  "banner_url": "",
  "icon_url": "",
  "coverart": "https://lutris.net/media/igdb/cover_big/co824d.jpg",
  "platforms": [],
  "provider_games": [
    {
      "name": "TowerDefenceDesigner",
      "slug": "towerdefencedesigner",
      "service": "igdb"
    }
  ],
  "aliases": [],
  "shaders": [],
  "discord_id": "",
  "change_for": null
}