{
  "id": 202917,
  "name": "Block Dropper",
  "slug": "block-dropper",
  "year": null,
  "banner_url": "",
  "icon_url": "",
  "coverart": "https://lutris.net/media/igdb/cover_big/co4ims.jpg",
  "platforms": [],
  "provider_games": [
    {
      "name": "Block Dropper",
      "slug": "block-dropper",
      "service": "igdb"
    }
  ],
  "aliases": [],
  "shaders": [],
  "discord_id": "",
  "change_for": null
}