{
  "id": 134993,
  "name": "Wordle 4",
  "slug": "wordle-4",
  "year": null,
  "banner_url": "",
  "icon_url": "",
  "coverart": "https://lutris.net/media/igdb/cover_big/co3ndo.jpg",
  "platforms": [],
  "provider_games": [
    {
      "name": "Wordle 4",
      "slug": "wordle-4",
      "service": "igdb"
    }
  ],
  "aliases": [],
  "shaders": [],
  "discord_id": "",
  "change_for": null
}