{
  "id": 102884,
  "name": "TIME LOCKER",
  "slug": "time-locker",
  "year": null,
  "banner_url": "",
  "icon_url": "",
  "coverart": "https://lutris.net/media/igdb/cover_big/wemg0o8ds5uen1cmy06q.jpg",
  "platforms": [],
  "provider_games": [
    {
      "name": "Time Locker",
      "slug": "time-locker",
      "service": "igdb"
    }
  ],
  "aliases": [],
  "shaders": [],
  "discord_id": "",
  "change_for": null
}