{
  "id": 13059,
  "name": "LASER STRIKERS",
  "slug": "laser-strikers",
  "year": 2017,
  "banner_url": "https://lutris.net/games/banner/laser-strikers.jpg",
  "icon_url": "https://lutris.net/games/icon/laser-strikers.png",
  "coverart": "https://lutris.net/media/igdb/cover_big/co2bv1.jpg",
  "platforms": [
    {
      "name": "Windows"
    }
  ],
  "provider_games": [
    {
      "name": "LASER STRIKERS",
      "slug": "600500",
      "service": "steam"
    },
    {
      "name": "Laser Strikers",
      "slug": "laser-strikers",
      "service": "igdb"
    }
  ],
  "aliases": [],
  "shaders": [],
  "discord_id": "",
  "change_for": null
}