{
  "id": 94997,
  "name": "Baby Tiger Care",
  "slug": "baby-tiger-care",
  "year": null,
  "banner_url": "",
  "icon_url": "",
  "coverart": null,
  "platforms": [],
  "provider_games": [
    {
      "name": "Baby Tiger Care",
      "slug": "baby-tiger-care",
      "service": "igdb"
    }
  ],
  "aliases": [],
  "shaders": [],
  "discord_id": "",
  "change_for": null
}