{
  "id": 17207,
  "game_id": 30089,
  "game_slug": "halo-the-master-chief-collection",
  "name": "Halo: The Master Chief Collection",
  "year": 2019,
  "user": "moars42",
  "runner": "steam",
  "slug": "halo-the-master-chief-collect-proton",
  "version": "Proton",
  "description": null,
  "notes": "",
  "credits": "",
  "created_at": "2019-12-06T23:20:08.232000Z",
  "updated_at": "2020-02-22T19:38:06.023470Z",
  "draft": false,
  "published": true,
  "published_by": 20548,
  "rating": "",
  "is_playable": null,
  "steamid": 976730,
  "gogid": null,
  "gogslug": "",
  "humbleid": "",
  "humblestoreid": "",
  "humblestoreid_real": "",
  "script": {
    "game": {
      "appid": 976730
    }
  },
  "content": "game:\r\n  appid: 976730",
  "discord_id": ""
}