{
  "id": 257023,
  "name": "Dragon Nexus",
  "slug": "dragon-nexus",
  "year": null,
  "banner_url": "",
  "icon_url": "",
  "coverart": "https://lutris.net/media/igdb/cover_big/co710y.jpg",
  "platforms": [],
  "provider_games": [
    {
      "name": "Dragon Nexus",
      "slug": "dragon-nexus",
      "service": "igdb"
    }
  ],
  "aliases": [],
  "shaders": [],
  "discord_id": "",
  "change_for": null
}