{
  "id": 252,
  "game_id": 481,
  "game_slug": "puddle",
  "name": "Puddle",
  "year": 2012,
  "user": "strider",
  "runner": "steam",
  "slug": "puddle-steam",
  "version": "steam",
  "description": null,
  "notes": "",
  "credits": "",
  "created_at": "2013-12-19T23:56:19.904000Z",
  "updated_at": "2013-12-19T23:56:19.904000Z",
  "draft": false,
  "published": true,
  "published_by": null,
  "rating": "",
  "is_playable": null,
  "steamid": 222140,
  "gogid": 1207659122,
  "gogslug": "puddle",
  "humbleid": "",
  "humblestoreid": "",
  "humblestoreid_real": "",
  "script": {
    "game": {
      "appid": 222140
    }
  },
  "content": "game:\n  appid: 222140\n",
  "discord_id": ""
}