{
  "id": 69186,
  "name": "The Adventure of a Blue-haired Girl",
  "slug": "the-adventure-of-a-blue-haired-girl",
  "year": null,
  "banner_url": "",
  "icon_url": "",
  "coverart": "https://lutris.net/media/igdb/cover_big/jaddmotrumn5bfewmvjy.jpg",
  "platforms": [],
  "provider_games": [
    {
      "name": "The Adventure of a Blue-haired Girl",
      "slug": "the-adventure-of-a-blue-haired-girl",
      "service": "igdb"
    }
  ],
  "aliases": [],
  "shaders": [],
  "discord_id": "",
  "change_for": null
}