{
  "id": 1743,
  "name": "Total War Battles: SHOGUN",
  "slug": "total-war-battles-shogun",
  "year": null,
  "banner_url": "https://lutris.net/games/banner/total-war-battles-shogun.jpg",
  "icon_url": "https://lutris.net/games/icon/total-war-battles-shogun.png",
  "coverart": null,
  "platforms": [],
  "provider_games": [
    {
      "name": "Total War Battles: SHOGUN",
      "slug": "217060",
      "service": "steam"
    }
  ],
  "aliases": [],
  "shaders": [],
  "discord_id": "",
  "change_for": null
}