{
  "id": 9261,
  "name": "Ludo Supremo",
  "slug": "ludo-supremo",
  "year": 2016,
  "banner_url": "https://lutris.net/games/banner/ludo-supremo.jpg",
  "icon_url": "https://lutris.net/games/icon/ludo-supremo.png",
  "coverart": "https://lutris.net/media/igdb/cover_big/co2w1v.jpg",
  "platforms": [
    {
      "name": "Windows"
    }
  ],
  "provider_games": [
    {
      "name": "Ludo Supremo",
      "slug": "487580",
      "service": "steam"
    },
    {
      "name": "Ludo Supremo",
      "slug": "ludo-supremo",
      "service": "igdb"
    }
  ],
  "aliases": [],
  "shaders": [],
  "discord_id": "",
  "change_for": null
}