{
  "id": 256689,
  "name": "TD Tactics",
  "slug": "td-tactics",
  "year": null,
  "banner_url": "",
  "icon_url": "",
  "coverart": "https://lutris.net/media/igdb/cover_big/co6z5g.jpg",
  "platforms": [],
  "provider_games": [
    {
      "name": "TD Tactics",
      "slug": "td-tactics",
      "service": "igdb"
    }
  ],
  "aliases": [],
  "shaders": [],
  "discord_id": "",
  "change_for": null
}