{
  "id": 171251,
  "name": "Simple Machines",
  "slug": "simple-machines",
  "year": null,
  "banner_url": "",
  "icon_url": "",
  "coverart": "https://lutris.net/media/igdb/cover_big/co47cd.jpg",
  "platforms": [],
  "provider_games": [
    {
      "name": "Simple Machines",
      "slug": "simple-machines",
      "service": "igdb"
    }
  ],
  "aliases": [],
  "shaders": [],
  "discord_id": "",
  "change_for": null
}