{
  "id": 169850,
  "name": "Fourzy",
  "slug": "fourzy",
  "year": null,
  "banner_url": "",
  "icon_url": "",
  "coverart": "https://lutris.net/media/igdb/cover_big/co465o.jpg",
  "platforms": [],
  "provider_games": [
    {
      "name": "Fourzy",
      "slug": "fourzy",
      "service": "igdb"
    }
  ],
  "aliases": [],
  "shaders": [],
  "discord_id": "",
  "change_for": null
}