{
  "id": 78349,
  "name": "GACHIMUCHI Arcade: Lustful Boys",
  "slug": "gachimuchi-arcade-lustful-boys",
  "year": 2018,
  "banner_url": "",
  "icon_url": "",
  "coverart": "https://lutris.net/media/igdb/cover_big/co1ifb.jpg",
  "platforms": [
    {
      "name": "Linux"
    },
    {
      "name": "Mac"
    },
    {
      "name": "Windows"
    }
  ],
  "provider_games": [
    {
      "name": "Gachimuchi Arcade: Lustful Boys",
      "slug": "gachimuchi-arcade-lustful-boys",
      "service": "igdb"
    }
  ],
  "aliases": [],
  "shaders": [],
  "discord_id": "",
  "change_for": null
}