{
  "id": 277459,
  "name": "Time Turned",
  "slug": "time-turned",
  "year": null,
  "banner_url": "",
  "icon_url": "",
  "coverart": "https://lutris.net/media/igdb/cover_big/co7w9n.jpg",
  "platforms": [],
  "provider_games": [
    {
      "name": "Time Turned",
      "slug": "time-turned",
      "service": "igdb"
    }
  ],
  "aliases": [],
  "shaders": [],
  "discord_id": "",
  "change_for": null
}