{
  "id": 68056,
  "name": "Cloak of Darkness",
  "slug": "cloak-of-darkness",
  "year": null,
  "banner_url": "",
  "icon_url": "",
  "coverart": null,
  "platforms": [],
  "provider_games": [
    {
      "name": "Cloak of Darkness",
      "slug": "cloak-of-darkness",
      "service": "igdb"
    }
  ],
  "aliases": [],
  "shaders": [],
  "discord_id": "",
  "change_for": null
}