{
  "id": 42335,
  "name": "Unbound",
  "slug": "unbound",
  "year": null,
  "banner_url": "https://lutris.net/games/banner/unbound.jpg",
  "icon_url": "https://lutris.net/games/icon/unbound.png",
  "coverart": null,
  "platforms": [],
  "provider_games": [
    {
      "name": "Unbound",
      "slug": "502340",
      "service": "steam"
    },
    {
      "name": "Unbound",
      "slug": "unbound",
      "service": "igdb"
    }
  ],
  "aliases": [],
  "shaders": [],
  "discord_id": "",
  "change_for": null
}