{
  "id": 208498,
  "name": "Vacoo: The Adventure in Garbage City",
  "slug": "vacoo-the-adventure-in-garbage-city",
  "year": 2023,
  "banner_url": "",
  "icon_url": "",
  "coverart": "https://lutris.net/media/igdb/cover_big/co5vng.jpg",
  "platforms": [
    {
      "name": "Mac"
    },
    {
      "name": "Windows"
    }
  ],
  "provider_games": [
    {
      "name": "Vacoo: The Adventure in Garbage City",
      "slug": "vacoo-the-adventure-in-garbage-city",
      "service": "igdb"
    }
  ],
  "aliases": [],
  "shaders": [],
  "discord_id": "",
  "change_for": null
}