{
  "id": 202308,
  "name": "100 Doors: Escape from Prison",
  "slug": "100-doors-escape-from-prison",
  "year": null,
  "banner_url": "",
  "icon_url": "",
  "coverart": "https://lutris.net/media/igdb/cover_big/co4lxc.jpg",
  "platforms": [],
  "provider_games": [
    {
      "name": "100 Doors: Escape from Prison",
      "slug": "100-doors-escape-from-prison",
      "service": "igdb"
    }
  ],
  "aliases": [],
  "shaders": [],
  "discord_id": "",
  "change_for": null
}