{
  "id": 166220,
  "name": "The Airship Designer",
  "slug": "the-airship-designer",
  "year": null,
  "banner_url": "",
  "icon_url": "",
  "coverart": "https://lutris.net/media/igdb/cover_big/co4315.jpg",
  "platforms": [],
  "provider_games": [
    {
      "name": "The Airship Designer",
      "slug": "the-airship-designer",
      "service": "igdb"
    }
  ],
  "aliases": [],
  "shaders": [],
  "discord_id": "",
  "change_for": null
}