{
  "id": 157204,
  "name": "Calculation Castle : Greco's Ghostly Challenge \"Subtraction\"",
  "slug": "calculation-castle-grecos-ghostly-challenge-subtraction",
  "year": 2018,
  "banner_url": "",
  "icon_url": "",
  "coverart": "https://lutris.net/media/igdb/cover_big/co4k1i.jpg",
  "platforms": [
    {
      "name": "Nintendo Switch"
    }
  ],
  "provider_games": [
    {
      "name": "Calculation Castle: Greco's Ghostly Challenge \"Subtraction\"",
      "slug": "calculation-castle-grecos-ghostly-challenge-subtraction",
      "service": "igdb"
    }
  ],
  "aliases": [],
  "shaders": [],
  "discord_id": "",
  "change_for": null
}