{
  "id": 306844,
  "name": "Ambulance Life: Deluxe Edition",
  "slug": "ambulance-life-deluxe-edition",
  "year": 2025,
  "banner_url": "",
  "icon_url": "",
  "coverart": "https://lutris.net/media/igdb/cover_big/co9e3t.jpg",
  "platforms": [
    {
      "name": "Xbox Series X|S"
    }
  ],
  "provider_games": [
    {
      "name": "Ambulance Life: Deluxe Edition",
      "slug": "ambulance-life-deluxe-edition",
      "service": "igdb"
    }
  ],
  "aliases": [],
  "shaders": [],
  "discord_id": "",
  "change_for": null
}