{
  "id": 216358,
  "name": "Stories from the Outbreak",
  "slug": "stories-from-the-outbreak",
  "year": null,
  "banner_url": "",
  "icon_url": "",
  "coverart": "https://lutris.net/media/igdb/cover_big/co581h.jpg",
  "platforms": [],
  "provider_games": [
    {
      "name": "Stories from the Outbreak",
      "slug": "stories-from-the-outbreak",
      "service": "igdb"
    },
    {
      "name": "Stories from the Outbreak",
      "slug": "1991369360",
      "service": "gog"
    }
  ],
  "aliases": [],
  "shaders": [],
  "discord_id": "",
  "change_for": null
}