{
  "id": 178169,
  "name": "Start with no dice",
  "slug": "start-with-no-dice",
  "year": null,
  "banner_url": "",
  "icon_url": "",
  "coverart": null,
  "platforms": [],
  "provider_games": [
    {
      "name": "Start with no dice",
      "slug": "start-with-no-dice",
      "service": "igdb"
    }
  ],
  "aliases": [],
  "shaders": [],
  "discord_id": "",
  "change_for": null
}