{
  "id": 244664,
  "name": "Tears Fall Low",
  "slug": "tears-fall-low",
  "year": null,
  "banner_url": "",
  "icon_url": "",
  "coverart": "https://lutris.net/media/igdb/cover_big/co6e0s.jpg",
  "platforms": [],
  "provider_games": [
    {
      "name": "Tears Fall Low",
      "slug": "tears-fall-low",
      "service": "igdb"
    }
  ],
  "aliases": [],
  "shaders": [],
  "discord_id": "",
  "change_for": null
}