{
  "id": 117105,
  "name": "VR Jurassic Escape",
  "slug": "vr-jurassic-escape",
  "year": 2020,
  "banner_url": "",
  "icon_url": "",
  "coverart": "https://lutris.net/media/igdb/cover_big/co2zpd.jpg",
  "platforms": [
    {
      "name": "Oculus VR"
    },
    {
      "name": "Windows"
    }
  ],
  "provider_games": [
    {
      "name": "VR Jurassic Escape",
      "slug": "vr-jurassic-escape",
      "service": "igdb"
    }
  ],
  "aliases": [],
  "shaders": [],
  "discord_id": "",
  "change_for": null
}