{
  "id": 44302,
  "name": "Inscryption",
  "slug": "inscryption",
  "year": 2021,
  "banner_url": "https://lutris.net/games/banner/inscryption.jpg",
  "icon_url": "https://lutris.net/games/icon/inscryption.png",
  "coverart": "https://lutris.net/media/igdb/cover_big/co401c.jpg",
  "platforms": [
    {
      "name": "Windows"
    }
  ],
  "provider_games": [
    {
      "name": "Inscryption",
      "slug": "1092790",
      "service": "steam"
    },
    {
      "name": "Inscryption",
      "slug": "1224800338",
      "service": "gog"
    },
    {
      "name": "Inscryption Demo",
      "slug": "1166314684",
      "service": "gog"
    },
    {
      "name": "Inscryption",
      "slug": "inscryption",
      "service": "igdb"
    }
  ],
  "aliases": [],
  "shaders": [],
  "discord_id": "",
  "change_for": null
}