{
  "id": 300000,
  "name": "Fulfillment Center Simulator",
  "slug": "fulfillment-center-simulator",
  "year": null,
  "banner_url": "",
  "icon_url": "",
  "coverart": "https://lutris.net/media/igdb/cover_big/co8zjo.jpg",
  "platforms": [],
  "provider_games": [
    {
      "name": "Fulfillment Center Simulator",
      "slug": "fulfillment-center-simulator",
      "service": "igdb"
    }
  ],
  "aliases": [],
  "shaders": [],
  "discord_id": "",
  "change_for": null
}