{
  "id": 116334,
  "name": "Star Trek: The Next Generation - The Transinium Challenge",
  "slug": "star-trek-the-next-generation-the-transinium-challenge",
  "year": 1989,
  "banner_url": "",
  "icon_url": "",
  "coverart": "https://lutris.net/media/igdb/cover_big/kwdafxbofciiqsxc4dif.jpg",
  "platforms": [
    {
      "name": "Mac"
    }
  ],
  "provider_games": [
    {
      "name": "Star Trek: The Next Generation - The Transinium Challenge",
      "slug": "star-trek-the-next-generation-the-transinium-challenge",
      "service": "igdb"
    }
  ],
  "aliases": [],
  "shaders": [],
  "discord_id": "",
  "change_for": null
}