{
  "id": 301461,
  "name": "ConsTance",
  "slug": "constance--2",
  "year": null,
  "banner_url": "",
  "icon_url": "",
  "coverart": "https://lutris.net/media/igdb/cover_big/co937a.jpg",
  "platforms": [],
  "provider_games": [
    {
      "name": "ConsTance",
      "slug": "constance--2",
      "service": "igdb"
    }
  ],
  "aliases": [],
  "shaders": [],
  "discord_id": "",
  "change_for": null
}