{
  "id": 20231,
  "name": "Supposedly Wonderful Future",
  "slug": "supposedly-wonderful-future",
  "year": 2018,
  "banner_url": "https://lutris.net/games/banner/supposedly-wonderful-future.jpg",
  "icon_url": "https://lutris.net/games/icon/supposedly-wonderful-future.png",
  "coverart": "https://lutris.net/media/igdb/cover_big/co276u.jpg",
  "platforms": [
    {
      "name": "Windows"
    }
  ],
  "provider_games": [
    {
      "name": "Supposedly Wonderful Future",
      "slug": "719210",
      "service": "steam"
    },
    {
      "name": "Supposedly Wonderful Future",
      "slug": "supposedly-wonderful-future",
      "service": "igdb"
    }
  ],
  "aliases": [],
  "shaders": [],
  "discord_id": "",
  "change_for": null
}