{
  "id": 175014,
  "name": "Trade Island",
  "slug": "trade-island",
  "year": null,
  "banner_url": "",
  "icon_url": "",
  "coverart": "https://lutris.net/media/igdb/cover_big/co48mm.jpg",
  "platforms": [],
  "provider_games": [
    {
      "name": "Trade Island",
      "slug": "trade-island",
      "service": "igdb"
    }
  ],
  "aliases": [],
  "shaders": [],
  "discord_id": "",
  "change_for": null
}