{
  "id": 201813,
  "name": "Geopoesis: Eos",
  "slug": "geopoesis-eos",
  "year": 2022,
  "banner_url": "",
  "icon_url": "",
  "coverart": null,
  "platforms": [],
  "provider_games": [
    {
      "name": "Geopoesis: Eos",
      "slug": "geopoesis-eos",
      "service": "igdb"
    }
  ],
  "aliases": [],
  "shaders": [],
  "discord_id": "",
  "change_for": null
}