{
  "id": 206261,
  "name": "Nintama Rantarou GB",
  "slug": "nintama-rantarou-gb",
  "year": null,
  "banner_url": "",
  "icon_url": "",
  "coverart": null,
  "platforms": [
    {
      "name": "Game Boy"
    }
  ],
  "provider_games": [
    {
      "name": "Nintama Rantarou GB",
      "slug": "nintama-rantarou-gb",
      "service": "igdb"
    }
  ],
  "aliases": [],
  "shaders": [],
  "discord_id": "",
  "change_for": null
}