{
  "id": 123310,
  "name": "Devil Girl Needs Massages",
  "slug": "devil-girl-needs-massages",
  "year": null,
  "banner_url": "",
  "icon_url": "",
  "coverart": null,
  "platforms": [],
  "provider_games": [
    {
      "name": "Devil Girl Needs Massages",
      "slug": "devil-girl-needs-massages",
      "service": "igdb"
    }
  ],
  "aliases": [],
  "shaders": [],
  "discord_id": "",
  "change_for": null
}