{
  "id": 29,
  "name": "Quake II: Ground Zero",
  "slug": "quake-ii-ground-zero",
  "year": 1998,
  "banner_url": "https://lutris.net/games/banner/quake-ii-ground-zero.jpg",
  "icon_url": "https://lutris.net/games/icon/quake-ii-ground-zero.png",
  "coverart": null,
  "platforms": [
    {
      "name": "Linux"
    }
  ],
  "provider_games": [
    {
      "name": "Quake II: Ground Zero",
      "slug": "2340",
      "service": "steam"
    }
  ],
  "aliases": [
    {
      "slug": "quake-ii-ground-zero-1",
      "name": "Quake II: Ground Zero"
    },
    {
      "slug": "quake-2-ground-zero",
      "name": "Quake 2: Ground Zero"
    }
  ],
  "shaders": [],
  "discord_id": null,
  "change_for": null
}