{
  "id": 29788,
  "game_id": 44087,
  "game_slug": "go-home-mr-fisk",
  "name": "Go Home, Mr. Fisk!",
  "year": 2021,
  "user": "vanstaveren",
  "runner": "steam",
  "slug": "go-home-mr-fisk-steam",
  "version": "steam",
  "description": "",
  "notes": "",
  "credits": "",
  "created_at": "2021-10-09T09:11:17.774996Z",
  "updated_at": "2021-12-13T19:10:33.775648Z",
  "draft": false,
  "published": true,
  "published_by": null,
  "rating": "",
  "is_playable": null,
  "steamid": null,
  "gogid": null,
  "gogslug": "",
  "humbleid": "",
  "humblestoreid": "",
  "humblestoreid_real": "",
  "script": {
    "game": {
      "appid": 1711080
    }
  },
  "content": "game:\n  appid: 1711080\n",
  "discord_id": ""
}