{
  "id": 252714,
  "name": "Rainbow Rockets!",
  "slug": "rainbow-rockets",
  "year": null,
  "banner_url": "",
  "icon_url": "",
  "coverart": null,
  "platforms": [],
  "provider_games": [
    {
      "name": "Rainbow Rockets!",
      "slug": "rainbow-rockets",
      "service": "igdb"
    }
  ],
  "aliases": [],
  "shaders": [],
  "discord_id": "",
  "change_for": null
}