{
  "id": 8899,
  "name": "Robo's World: The Zarnok Fortress",
  "slug": "robos-world-the-zarnok-fortress",
  "year": 2016,
  "banner_url": "https://lutris.net/games/banner/robos-world-the-zarnok-fortress.jpg",
  "icon_url": "https://lutris.net/games/icon/robos-world-the-zarnok-fortress.png",
  "coverart": "https://lutris.net/media/igdb/cover_big/co3ym5.jpg",
  "platforms": [
    {
      "name": "Linux"
    },
    {
      "name": "Mac"
    },
    {
      "name": "Windows"
    }
  ],
  "provider_games": [
    {
      "name": "Robo's World: The Zarnok Fortress",
      "slug": "436360",
      "service": "steam"
    },
    {
      "name": "Robo's World: The Zarnok Fortress",
      "slug": "robos-world-the-zarnok-fortress",
      "service": "igdb"
    }
  ],
  "aliases": [],
  "shaders": [],
  "discord_id": "",
  "change_for": null
}