{
  "id": 152863,
  "name": "Demian: The Ritual",
  "slug": "demian-the-ritual",
  "year": null,
  "banner_url": "",
  "icon_url": "",
  "coverart": "https://lutris.net/media/igdb/cover_big/co3oc8.jpg",
  "platforms": [],
  "provider_games": [
    {
      "name": "Demian: The Ritual",
      "slug": "demian-the-ritual",
      "service": "igdb"
    }
  ],
  "aliases": [],
  "shaders": [],
  "discord_id": "",
  "change_for": null
}