{
  "id": 180646,
  "name": "Another Super Mario Bros. Wii",
  "slug": "another-super-mario-bros-wii",
  "year": 2010,
  "banner_url": "",
  "icon_url": "",
  "coverart": "https://lutris.net/media/igdb/cover_big/co27lj.jpg",
  "platforms": [
    {
      "name": "Nintendo Wii"
    }
  ],
  "provider_games": [
    {
      "name": "Another Super Mario Bros. Wii",
      "slug": "another-super-mario-bros-wii",
      "service": "igdb"
    }
  ],
  "aliases": [],
  "shaders": [],
  "discord_id": "",
  "change_for": null
}