{
  "id": 233926,
  "name": "Bubble Bobble 2 classic",
  "slug": "bubble-bobble-2-classic",
  "year": null,
  "banner_url": "",
  "icon_url": "",
  "coverart": null,
  "platforms": [],
  "provider_games": [
    {
      "name": "Bubble Bobble 2 classic",
      "slug": "bubble-bobble-2-classic",
      "service": "igdb"
    }
  ],
  "aliases": [],
  "shaders": [],
  "discord_id": "",
  "change_for": null
}