{
  "id": 102834,
  "name": "Maximum Racing: Drag & Stock Racer",
  "slug": "maximum-racing-drag-and-stock-racer",
  "year": 2011,
  "banner_url": "",
  "icon_url": "",
  "coverart": "https://lutris.net/media/igdb/cover_big/co2n9l.jpg",
  "platforms": [
    {
      "name": "Nintendo Wii"
    },
    {
      "name": "Windows"
    }
  ],
  "provider_games": [
    {
      "name": "Maximum Racing: Drag & Stock Racer",
      "slug": "maximum-racing-drag-and-stock-racer",
      "service": "igdb"
    }
  ],
  "aliases": [],
  "shaders": [],
  "discord_id": "",
  "change_for": null
}