{
  "id": 243589,
  "name": "Novus Conquest",
  "slug": "novus-conquest",
  "year": null,
  "banner_url": "",
  "icon_url": "",
  "coverart": "https://lutris.net/media/igdb/cover_big/co6gkg.jpg",
  "platforms": [],
  "provider_games": [
    {
      "name": "Novus Conquest",
      "slug": "novus-conquest",
      "service": "igdb"
    }
  ],
  "aliases": [],
  "shaders": [],
  "discord_id": "",
  "change_for": null
}