{
  "id": 212844,
  "name": "Toree 3D: Jumbled Jam",
  "slug": "toree-3d-jumbled-jam",
  "year": 2021,
  "banner_url": "",
  "icon_url": "",
  "coverart": null,
  "platforms": [
    {
      "name": "Nintendo Switch"
    },
    {
      "name": "Windows"
    }
  ],
  "provider_games": [
    {
      "name": "Toree 3D: Jumbled Jam",
      "slug": "toree-3d-jumbled-jam",
      "service": "igdb"
    }
  ],
  "aliases": [],
  "shaders": [],
  "discord_id": "",
  "change_for": null
}