{
  "id": 265601,
  "name": "Hidden World 7 Top-Down 3D",
  "slug": "hidden-world-7-top-down-3d",
  "year": null,
  "banner_url": "",
  "icon_url": "",
  "coverart": "https://lutris.net/media/igdb/cover_big/co7cgf.jpg",
  "platforms": [],
  "provider_games": [
    {
      "name": "Hidden World 7 Top-Down 3D",
      "slug": "hidden-world-7-top-down-3d",
      "service": "igdb"
    }
  ],
  "aliases": [],
  "shaders": [],
  "discord_id": "",
  "change_for": null
}