{
  "id": 1792,
  "name": "The UnderGarden",
  "slug": "the-undergarden",
  "year": 2010,
  "banner_url": "https://lutris.net/games/banner/the-undergarden.jpg",
  "icon_url": "https://lutris.net/games/icon/the-undergarden.png",
  "coverart": "https://lutris.net/media/igdb/cover_big/xaqygzlsfzyz6pyobq1j.jpg",
  "platforms": [
    {
      "name": "Linux"
    },
    {
      "name": "Sony Playstation 3"
    },
    {
      "name": "Windows"
    }
  ],
  "provider_games": [
    {
      "name": "The UnderGarden",
      "slug": "9980",
      "service": "steam"
    },
    {
      "name": "The UnderGarden",
      "slug": "the-undergarden",
      "service": "igdb"
    }
  ],
  "aliases": [],
  "shaders": [],
  "discord_id": "",
  "change_for": null
}