{
  "id": 74250,
  "name": "Symmetrain",
  "slug": "symmetrain",
  "year": null,
  "banner_url": "",
  "icon_url": "",
  "coverart": "https://lutris.net/media/igdb/cover_big/co7xmn.jpg",
  "platforms": [],
  "provider_games": [
    {
      "name": "Symmetrain",
      "slug": "symmetrain",
      "service": "igdb"
    }
  ],
  "aliases": [],
  "shaders": [],
  "discord_id": "",
  "change_for": null
}