{
  "id": 166877,
  "name": "I'm Hungry",
  "slug": "im-hungry",
  "year": 2019,
  "banner_url": "",
  "icon_url": "",
  "coverart": "https://lutris.net/media/igdb/cover_big/co43ic.jpg",
  "platforms": [
    {
      "name": "PlayStation VR"
    }
  ],
  "provider_games": [
    {
      "name": "I'm Hungry",
      "slug": "im-hungry",
      "service": "igdb"
    }
  ],
  "aliases": [],
  "shaders": [],
  "discord_id": "",
  "change_for": null
}