{
  "id": 239894,
  "name": "Collision Hero",
  "slug": "collision-hero",
  "year": 2021,
  "banner_url": "",
  "icon_url": "",
  "coverart": null,
  "platforms": [
    {
      "name": "Windows"
    }
  ],
  "provider_games": [
    {
      "name": "Collision Hero",
      "slug": "collision-hero",
      "service": "igdb"
    }
  ],
  "aliases": [],
  "shaders": [],
  "discord_id": "",
  "change_for": null
}