{
  "id": 245840,
  "name": "Die drei ??? - Geheimnis der Schattenhelden",
  "slug": "die-drei-geheimnis-der-schattenhelden",
  "year": 2017,
  "banner_url": "https://lutris.net/games/banner/die-drei-geheimnis-der-schattenhelden.jpg",
  "icon_url": "",
  "coverart": null,
  "platforms": [
    {
      "name": "macOS"
    },
    {
      "name": "Windows"
    }
  ],
  "provider_games": [
    {
      "name": "Die drei ??? - Geheimnis der Schattenhelden",
      "slug": "735620",
      "service": "steam"
    }
  ],
  "aliases": [],
  "shaders": [],
  "discord_id": "",
  "change_for": null
}