{
  "id": 225053,
  "name": "Simple 1500 Series Vol. 43: The Hanafuda 2",
  "slug": "simple-1500-series-vol-43-the-hanafuda-2",
  "year": 2000,
  "banner_url": "",
  "icon_url": "",
  "coverart": "https://lutris.net/media/igdb/cover_big/co4sv8.jpg",
  "platforms": [
    {
      "name": "Sony PlayStation"
    }
  ],
  "provider_games": [
    {
      "name": "Simple 1500 Series Vol. 43: The Hanafuda 2",
      "slug": "simple-1500-series-vol-43-the-hanafuda-2",
      "service": "igdb"
    }
  ],
  "aliases": [],
  "shaders": [],
  "discord_id": "",
  "change_for": null
}