{
  "id": 220782,
  "name": "Junior Brain Trainer: Math Edition",
  "slug": "junior-brain-trainer-math-edition",
  "year": null,
  "banner_url": "",
  "icon_url": "",
  "coverart": "https://lutris.net/media/igdb/cover_big/co95xg.jpg",
  "platforms": [],
  "provider_games": [
    {
      "name": "Junior Brain Trainer: Math Edition",
      "slug": "junior-brain-trainer-math-edition",
      "service": "igdb"
    }
  ],
  "aliases": [],
  "shaders": [],
  "discord_id": "",
  "change_for": null
}