{
  "id": 88828,
  "name": "Clay Hunt PRO",
  "slug": "clay-hunt-pro",
  "year": null,
  "banner_url": "",
  "icon_url": "",
  "coverart": null,
  "platforms": [],
  "provider_games": [
    {
      "name": "Clay Hunt PRO",
      "slug": "clay-hunt-pro",
      "service": "igdb"
    }
  ],
  "aliases": [],
  "shaders": [],
  "discord_id": "",
  "change_for": null
}