{
  "id": 62419,
  "name": "Mobile Suit Gundam Side Story II: Aoi o Uketsugu Mono",
  "slug": "mobile-suit-gundam-side-story-ii-aoi-o-uketsugu-mono",
  "year": null,
  "banner_url": "",
  "icon_url": "",
  "coverart": "https://lutris.net/media/igdb/cover_big/bw86tygtbtq7xh9ywhe2.jpg",
  "platforms": [],
  "provider_games": [
    {
      "name": "Mobile Suit Gundam Side Story II: Aoi o Uketsugu Mono",
      "slug": "mobile-suit-gundam-side-story-ii-aoi-o-uketsugu-mono",
      "service": "igdb"
    }
  ],
  "aliases": [],
  "shaders": [],
  "discord_id": "",
  "change_for": null
}