{
  "id": 271850,
  "name": "Bobs Track Builder Pro",
  "slug": "bobs-track-builder-pro",
  "year": null,
  "banner_url": "https://lutris.net/games/banner/bobs-track-builder-pro.jpg",
  "icon_url": "https://lutris.net/games/icon/bobs-track-builder-pro.png",
  "coverart": null,
  "platforms": [],
  "provider_games": [
    {
      "name": "Bobs Track Builder Pro",
      "slug": "993270",
      "service": "steam"
    }
  ],
  "aliases": [],
  "shaders": [],
  "discord_id": "",
  "change_for": null
}