{
  "id": 98054,
  "name": "Matches Puzzle Game",
  "slug": "matches-puzzle-game",
  "year": null,
  "banner_url": "",
  "icon_url": "",
  "coverart": "https://lutris.net/media/igdb/cover_big/co1l0k.jpg",
  "platforms": [],
  "provider_games": [
    {
      "name": "Matches Puzzle Game",
      "slug": "matches-puzzle-game",
      "service": "igdb"
    }
  ],
  "aliases": [],
  "shaders": [],
  "discord_id": "",
  "change_for": null
}