{
  "id": 33545,
  "name": "Break Thru",
  "slug": "break-thru",
  "year": 1986,
  "banner_url": "https://lutris.net/games/banner/break-thru.jpg",
  "icon_url": "https://lutris.net/games/icon/break-thru.png",
  "coverart": null,
  "platforms": [
    {
      "name": "Arcade"
    }
  ],
  "provider_games": [
    {
      "name": "Break Thru",
      "slug": "brkthru",
      "service": "mame"
    }
  ],
  "aliases": [],
  "shaders": [],
  "discord_id": "",
  "change_for": null
}