{
  "id": 102405,
  "name": "BioShock Vita",
  "slug": "bioshock-vita",
  "year": null,
  "banner_url": "",
  "icon_url": "",
  "coverart": "https://lutris.net/media/igdb/cover_big/co2mlg.jpg",
  "platforms": [],
  "provider_games": [
    {
      "name": "BioShock Vita",
      "slug": "bioshock-vita",
      "service": "igdb"
    }
  ],
  "aliases": [],
  "shaders": [],
  "discord_id": "",
  "change_for": null
}