{
  "id": 193961,
  "name": "NeonHat",
  "slug": "neonhat",
  "year": 2021,
  "banner_url": "",
  "icon_url": "",
  "coverart": "https://lutris.net/media/igdb/cover_big/co4d6h.jpg",
  "platforms": [
    {
      "name": "PlayStation VR"
    }
  ],
  "provider_games": [
    {
      "name": "NeonHat",
      "slug": "neonhat",
      "service": "igdb"
    }
  ],
  "aliases": [],
  "shaders": [],
  "discord_id": "",
  "change_for": null
}