{
  "id": 135858,
  "name": "Detective Solitaire. Butler Story",
  "slug": "detective-solitaire-butler-story",
  "year": null,
  "banner_url": "https://lutris.net/games/banner/detective-solitaire-butler-story.jpg",
  "icon_url": "",
  "coverart": "https://lutris.net/media/igdb/cover_big/co3ojl.jpg",
  "platforms": [],
  "provider_games": [
    {
      "name": "Detective Solitaire. Butler Story",
      "slug": "1165420",
      "service": "steam"
    },
    {
      "name": "Detective Solitaire: Butler Story",
      "slug": "detective-solitaire-butler-story",
      "service": "igdb"
    }
  ],
  "aliases": [],
  "shaders": [],
  "discord_id": "",
  "change_for": null
}