{
  "id": 159776,
  "name": "The Fifth Ark",
  "slug": "the-fifth-ark",
  "year": null,
  "banner_url": "",
  "icon_url": "",
  "coverart": null,
  "platforms": [],
  "provider_games": [
    {
      "name": "The Fifth Ark",
      "slug": "the-fifth-ark",
      "service": "igdb"
    }
  ],
  "aliases": [],
  "shaders": [],
  "discord_id": "",
  "change_for": null
}