{
  "id": 106823,
  "name": "Final Fantasy: Record Keeper",
  "slug": "final-fantasy-record-keeper",
  "year": 2014,
  "banner_url": "",
  "icon_url": "",
  "coverart": "https://lutris.net/media/igdb/cover_big/co1vl5.jpg",
  "platforms": [
    {
      "name": "Android"
    }
  ],
  "provider_games": [
    {
      "name": "Final Fantasy: Record Keeper",
      "slug": "final-fantasy-record-keeper",
      "service": "igdb"
    }
  ],
  "aliases": [],
  "shaders": [],
  "discord_id": "",
  "change_for": null
}