{
  "id": 223,
  "game_id": 324,
  "game_slug": "shadow-warrior-classic-redux",
  "name": "Shadow Warrior Classic Redux",
  "year": 1997,
  "user": "strider",
  "runner": "steam",
  "slug": "shadow-warrior-classic-redux-steam",
  "version": "steam",
  "description": null,
  "notes": "",
  "credits": "",
  "created_at": "2013-12-19T23:56:18.535000Z",
  "updated_at": "2013-12-19T23:56:18.535000Z",
  "draft": false,
  "published": true,
  "published_by": null,
  "rating": "",
  "is_playable": null,
  "steamid": 225160,
  "gogid": 1618073558,
  "gogslug": "shadow_warrior_classic_redux",
  "humbleid": "",
  "humblestoreid": "",
  "humblestoreid_real": "",
  "script": {
    "game": {
      "appid": 225160
    }
  },
  "content": "game:\n  appid: 225160\n",
  "discord_id": ""
}