{
  "id": 88067,
  "name": "House M.D.: Episode 2 - Blue Meanie",
  "slug": "house-m-dot-d-episode-2-blue-meanie",
  "year": 2011,
  "banner_url": "",
  "icon_url": "",
  "coverart": "https://lutris.net/media/igdb/cover_big/mk5325cvfeuohdk4rch9.jpg",
  "platforms": [
    {
      "name": "Nintendo DSi"
    }
  ],
  "provider_games": [
    {
      "name": "House M.D.: Episode 2 - Blue Meanie",
      "slug": "house-m-dot-d-episode-2-blue-meanie",
      "service": "igdb"
    }
  ],
  "aliases": [],
  "shaders": [],
  "discord_id": "",
  "change_for": null
}