{
  "id": 11646,
  "name": "The Legend of Zelda: The Wind Waker",
  "slug": "the-legend-of-zelda-the-wind-waker",
  "year": 2002,
  "banner_url": "https://lutris.net/games/banner/the-legend-of-zelda-the-wind-waker.jpg",
  "icon_url": "",
  "coverart": "https://lutris.net/media/igdb/cover_big/co3ohz.jpg",
  "platforms": [
    {
      "name": "GameCube"
    },
    {
      "name": "Nintendo GameCube"
    }
  ],
  "provider_games": [
    {
      "name": "The Legend of Zelda: The Wind Waker",
      "slug": "the-legend-of-zelda-the-wind-waker",
      "service": "igdb"
    }
  ],
  "aliases": [],
  "shaders": [],
  "discord_id": "",
  "change_for": null
}