{
  "id": 287466,
  "name": "Lorn Vale",
  "slug": "lorn-vale",
  "year": 2025,
  "banner_url": "",
  "icon_url": "",
  "coverart": "https://lutris.net/media/igdb/cover_big/co8bue.jpg",
  "platforms": [
    {
      "name": "Windows"
    }
  ],
  "provider_games": [
    {
      "name": "Lorn Vale",
      "slug": "lorn-vale",
      "service": "igdb"
    }
  ],
  "aliases": [],
  "shaders": [],
  "discord_id": "",
  "change_for": null
}