{
  "id": 254703,
  "name": "Roll & Ball",
  "slug": "roll-and-ball",
  "year": null,
  "banner_url": "",
  "icon_url": "",
  "coverart": "https://lutris.net/media/igdb/cover_big/co6wif.jpg",
  "platforms": [],
  "provider_games": [
    {
      "name": "Roll & Ball",
      "slug": "roll-and-ball",
      "service": "igdb"
    }
  ],
  "aliases": [],
  "shaders": [],
  "discord_id": "",
  "change_for": null
}