{
  "id": 241514,
  "name": "Diddy Kong Racing DS: Timber's Balloon Pop",
  "slug": "diddy-kong-racing-ds-timbers-balloon-pop",
  "year": 2007,
  "banner_url": "",
  "icon_url": "",
  "coverart": "https://lutris.net/media/igdb/cover_big/co60gg.jpg",
  "platforms": [
    {
      "name": "Browser"
    }
  ],
  "provider_games": [
    {
      "name": "Diddy Kong Racing DS: Timber's Balloon Pop",
      "slug": "diddy-kong-racing-ds-timbers-balloon-pop",
      "service": "igdb"
    }
  ],
  "aliases": [],
  "shaders": [],
  "discord_id": "",
  "change_for": null
}