{
  "id": 30399,
  "name": "Willow",
  "slug": "willow",
  "year": 1989,
  "banner_url": "https://lutris.net/games/banner/willow.jpg",
  "icon_url": "https://lutris.net/games/icon/willow.png",
  "coverart": "https://lutris.net/media/igdb/cover_big/pqqo1sh0rnwllabwidlz.jpg",
  "platforms": [
    {
      "name": "Arcade"
    },
    {
      "name": "NES"
    }
  ],
  "provider_games": [
    {
      "name": "Willow",
      "slug": "willow",
      "service": "mame"
    },
    {
      "name": "Willow",
      "slug": "willow",
      "service": "igdb"
    }
  ],
  "aliases": [],
  "shaders": [],
  "discord_id": "",
  "change_for": null
}