{
  "id": 189780,
  "name": "Memories Off #5: Togireta Film",
  "slug": "memories-off-number-5-togireta-film",
  "year": 2005,
  "banner_url": "",
  "icon_url": "",
  "coverart": "https://lutris.net/media/igdb/cover_big/co2wlj.jpg",
  "platforms": [
    {
      "name": "Nintendo Switch"
    },
    {
      "name": "Sony PlayStation 2"
    },
    {
      "name": "Sony Playstation 4"
    },
    {
      "name": "Sony PSP"
    }
  ],
  "provider_games": [
    {
      "name": "Memories Off #5: Togireta Film",
      "slug": "memories-off-number-5-togireta-film",
      "service": "igdb"
    }
  ],
  "aliases": [],
  "shaders": [],
  "discord_id": "",
  "change_for": null
}