{
  "id": 251160,
  "name": "Urban Flow: Summer Edition",
  "slug": "urban-flow-summer-edition",
  "year": 2023,
  "banner_url": "",
  "icon_url": "",
  "coverart": "https://lutris.net/media/igdb/cover_big/co6rtn.jpg",
  "platforms": [
    {
      "name": "Nintendo Switch"
    }
  ],
  "provider_games": [
    {
      "name": "Urban Flow: Summer Edition",
      "slug": "urban-flow-summer-edition",
      "service": "igdb"
    }
  ],
  "aliases": [],
  "shaders": [],
  "discord_id": "",
  "change_for": null
}