{
  "id": 25680,
  "name": "The Hero Project: Open Season",
  "slug": "the-hero-project-open-season",
  "year": 2018,
  "banner_url": "https://lutris.net/games/banner/the-hero-project-open-season.jpg",
  "icon_url": "https://lutris.net/games/icon/the-hero-project-open-season.png",
  "coverart": "https://lutris.net/media/igdb/cover_big/co6cf8.jpg",
  "platforms": [
    {
      "name": "Linux"
    },
    {
      "name": "Mac"
    },
    {
      "name": "Windows"
    }
  ],
  "provider_games": [
    {
      "name": "The Hero Project: Open Season",
      "slug": "838050",
      "service": "steam"
    },
    {
      "name": "The Hero Project: Open Season",
      "slug": "the-hero-project-open-season",
      "service": "igdb"
    }
  ],
  "aliases": [],
  "shaders": [],
  "discord_id": "",
  "change_for": null
}