{
  "id": 34912,
  "name": "Minefield",
  "slug": "minefield",
  "year": 1983,
  "banner_url": "https://lutris.net/games/banner/minefield.jpg",
  "icon_url": "https://lutris.net/games/icon/minefield.png",
  "coverart": "https://lutris.net/media/igdb/cover_big/da9qb9mrzyw2olj7vfzb.jpg",
  "platforms": [
    {
      "name": "Arcade"
    },
    {
      "name": "Nintendo Switch"
    },
    {
      "name": "Sony Playstation 4"
    }
  ],
  "provider_games": [
    {
      "name": "Minefield",
      "slug": "minefld",
      "service": "mame"
    },
    {
      "name": "Minefield",
      "slug": "minefield",
      "service": "igdb"
    }
  ],
  "aliases": [],
  "shaders": [],
  "discord_id": "",
  "change_for": null
}