{
  "id": 236471,
  "name": "Earl's Minecart Adventures",
  "slug": "earls-minecart-adventures",
  "year": null,
  "banner_url": "",
  "icon_url": "",
  "coverart": "https://lutris.net/media/igdb/cover_big/co654s.jpg",
  "platforms": [],
  "provider_games": [
    {
      "name": "Earl's Minecart Adventures",
      "slug": "earls-minecart-adventures",
      "service": "igdb"
    }
  ],
  "aliases": [],
  "shaders": [],
  "discord_id": "",
  "change_for": null
}