{
  "id": 143903,
  "name": "Solicitude Wake-up",
  "slug": "solicitude-wake-up",
  "year": null,
  "banner_url": "",
  "icon_url": "",
  "coverart": "https://lutris.net/media/igdb/cover_big/co3um7.jpg",
  "platforms": [],
  "provider_games": [
    {
      "name": "Solicitude Wake-up",
      "slug": "solicitude-wake-up",
      "service": "igdb"
    }
  ],
  "aliases": [],
  "shaders": [],
  "discord_id": "",
  "change_for": null
}