{
  "id": 188297,
  "name": "The Mech is on Fire",
  "slug": "the-mech-is-on-fire",
  "year": null,
  "banner_url": "",
  "icon_url": "",
  "coverart": null,
  "platforms": [],
  "provider_games": [
    {
      "name": "The Mech is on Fire",
      "slug": "the-mech-is-on-fire",
      "service": "igdb"
    }
  ],
  "aliases": [],
  "shaders": [],
  "discord_id": "",
  "change_for": null
}