{
  "id": 76639,
  "name": "Lexy Lightspeed – Secret Agent Showdown",
  "slug": "lexy-lightspeed-secret-agent-showdown",
  "year": null,
  "banner_url": "",
  "icon_url": "",
  "coverart": null,
  "platforms": [],
  "provider_games": [
    {
      "name": "Lexy Lightspeed: Secret Agent Showdown",
      "slug": "lexy-lightspeed-secret-agent-showdown",
      "service": "igdb"
    }
  ],
  "aliases": [],
  "shaders": [],
  "discord_id": "",
  "change_for": null
}