{
  "id": 16091,
  "name": "Sorcerer's Dream",
  "slug": "sorcerers-dream",
  "year": 2017,
  "banner_url": "https://lutris.net/games/banner/sorcerers-dream.jpg",
  "icon_url": "https://lutris.net/games/icon/sorcerers-dream.png",
  "coverart": "https://lutris.net/media/igdb/cover_big/co24tf.jpg",
  "platforms": [
    {
      "name": "Windows"
    }
  ],
  "provider_games": [
    {
      "name": "Sorcerer's Dream",
      "slug": "656220",
      "service": "steam"
    },
    {
      "name": "Sorcerer's Dream",
      "slug": "sorcerers-dream",
      "service": "igdb"
    }
  ],
  "aliases": [],
  "shaders": [],
  "discord_id": "",
  "change_for": null
}