{
  "id": 141901,
  "name": "Fasmo 2: Fasmo Goes West",
  "slug": "fasmo-2-fasmo-goes-west",
  "year": 2009,
  "banner_url": "",
  "icon_url": "",
  "coverart": "https://lutris.net/media/igdb/cover_big/co3tbl.jpg",
  "platforms": [
    {
      "name": "Windows"
    }
  ],
  "provider_games": [
    {
      "name": "Fasmo 2: Fasmo Goes West",
      "slug": "fasmo-2-fasmo-goes-west",
      "service": "igdb"
    }
  ],
  "aliases": [],
  "shaders": [],
  "discord_id": "",
  "change_for": null
}