{
  "id": 300847,
  "name": "Sky High",
  "slug": "sky-high",
  "year": 2011,
  "banner_url": "",
  "icon_url": "",
  "coverart": null,
  "platforms": [
    {
      "name": "Windows"
    }
  ],
  "provider_games": [
    {
      "name": "Sky High",
      "slug": "sky-high",
      "service": "igdb"
    }
  ],
  "aliases": [],
  "shaders": [],
  "discord_id": "",
  "change_for": null
}