{
  "id": 159267,
  "name": "Heyawake by Nikoli",
  "slug": "heyawake-by-nikoli",
  "year": 2012,
  "banner_url": "",
  "icon_url": "",
  "coverart": "https://lutris.net/media/igdb/cover_big/mxohp4jbuclls8hzxqn1.jpg",
  "platforms": [
    {
      "name": "Nintendo 3DS"
    }
  ],
  "provider_games": [
    {
      "name": "Heyawake by Nikoli",
      "slug": "heyawake-by-nikoli",
      "service": "igdb"
    }
  ],
  "aliases": [],
  "shaders": [],
  "discord_id": "",
  "change_for": null
}