{
  "id": 222075,
  "name": "Ninja Relo",
  "slug": "ninja-relo",
  "year": null,
  "banner_url": "",
  "icon_url": "",
  "coverart": null,
  "platforms": [],
  "provider_games": [
    {
      "name": "Ninja Relo",
      "slug": "ninja-relo",
      "service": "igdb"
    }
  ],
  "aliases": [],
  "shaders": [],
  "discord_id": "",
  "change_for": null
}