{
  "id": 280747,
  "name": "Duplicate Dissolution",
  "slug": "duplicate-dissolution",
  "year": null,
  "banner_url": "",
  "icon_url": "",
  "coverart": "https://lutris.net/media/igdb/cover_big/co7zl4.jpg",
  "platforms": [],
  "provider_games": [
    {
      "name": "Duplicate Dissolution",
      "slug": "duplicate-dissolution",
      "service": "igdb"
    }
  ],
  "aliases": [],
  "shaders": [],
  "discord_id": "",
  "change_for": null
}