{
  "id": 53937,
  "name": "Shin Nippon Pro Wrestling: Toukon Retsuden",
  "slug": "shin-nippon-pro-wrestling-toukon-retsuden",
  "year": 1995,
  "banner_url": "",
  "icon_url": "",
  "coverart": "https://lutris.net/media/igdb/cover_big/wfzbskekxhoijkddcmy2.jpg",
  "platforms": [
    {
      "name": "Sony PlayStation"
    },
    {
      "name": "WonderSwan"
    }
  ],
  "provider_games": [
    {
      "name": "Shin Nippon Pro Wrestling: Toukon Retsuden",
      "slug": "shin-nippon-pro-wrestling-toukon-retsuden",
      "service": "igdb"
    }
  ],
  "aliases": [],
  "shaders": [],
  "discord_id": "",
  "change_for": null
}