{
  "id": 161644,
  "name": "Fuck The Police",
  "slug": "fuck-the-police",
  "year": null,
  "banner_url": "",
  "icon_url": "",
  "coverart": "https://lutris.net/media/igdb/cover_big/co3zzz.jpg",
  "platforms": [],
  "provider_games": [
    {
      "name": "Fuck the Police",
      "slug": "fuck-the-police",
      "service": "igdb"
    }
  ],
  "aliases": [],
  "shaders": [],
  "discord_id": "",
  "change_for": null
}