{
  "id": 26871,
  "name": "Double Cross",
  "slug": "double-cross",
  "year": 2019,
  "banner_url": "https://lutris.net/games/banner/double-cross.jpg",
  "icon_url": "",
  "coverart": "https://lutris.net/media/igdb/cover_big/co24ah.jpg",
  "platforms": [
    {
      "name": "Nintendo Switch"
    },
    {
      "name": "Windows"
    },
    {
      "name": "Xbox One"
    }
  ],
  "provider_games": [
    {
      "name": "Double Cross",
      "slug": "838010",
      "service": "steam"
    },
    {
      "name": "Double Cross",
      "slug": "double-cross",
      "service": "igdb"
    }
  ],
  "aliases": [],
  "shaders": [],
  "discord_id": "",
  "change_for": null
}