{
  "id": 80792,
  "name": "Claws of Despair",
  "slug": "claws-of-despair",
  "year": 1986,
  "banner_url": "",
  "icon_url": "",
  "coverart": "https://lutris.net/media/igdb/cover_big/jrcqwqegwglloatsofxs.jpg",
  "platforms": [
    {
      "name": "Commodore C64/128"
    },
    {
      "name": "ZX Spectrum"
    }
  ],
  "provider_games": [
    {
      "name": "Claws of Despair",
      "slug": "claws-of-despair",
      "service": "igdb"
    }
  ],
  "aliases": [],
  "shaders": [],
  "discord_id": "",
  "change_for": null
}