{
  "id": 276495,
  "name": "Greed Series",
  "slug": "greed-series",
  "year": null,
  "banner_url": "",
  "icon_url": "",
  "coverart": "https://lutris.net/media/igdb/cover_big/co7u8p.jpg",
  "platforms": [],
  "provider_games": [
    {
      "name": "Greed Series",
      "slug": "greed-series",
      "service": "igdb"
    }
  ],
  "aliases": [],
  "shaders": [],
  "discord_id": "",
  "change_for": null
}