{
  "id": 94000,
  "name": "Lost Space: Ascend",
  "slug": "lost-space-ascend",
  "year": null,
  "banner_url": "",
  "icon_url": "",
  "coverart": null,
  "platforms": [],
  "provider_games": [
    {
      "name": "Lost Space: Ascend",
      "slug": "lost-space-ascend",
      "service": "igdb"
    }
  ],
  "aliases": [],
  "shaders": [],
  "discord_id": "",
  "change_for": null
}