{
  "id": 102419,
  "name": "Taishou Mebiusline Teito Bibouroku Hare",
  "slug": "taishou-mebiusline-teito-bibouroku-hare",
  "year": 2017,
  "banner_url": "",
  "icon_url": "",
  "coverart": "https://lutris.net/media/igdb/cover_big/co2n0o.jpg",
  "platforms": [
    {
      "name": "PlayStation Vita"
    }
  ],
  "provider_games": [
    {
      "name": "Taishou Mebiusline Teito Bibouroku Hare",
      "slug": "taishou-mebiusline-teito-bibouroku-hare",
      "service": "igdb"
    }
  ],
  "aliases": [],
  "shaders": [],
  "discord_id": "",
  "change_for": null
}