{
  "id": 163629,
  "name": "Vapor Trails",
  "slug": "vapor-trails",
  "year": null,
  "banner_url": "",
  "icon_url": "",
  "coverart": "https://lutris.net/media/igdb/cover_big/co7se7.jpg",
  "platforms": [],
  "provider_games": [
    {
      "name": "Vapor Trails",
      "slug": "vapor-trails",
      "service": "igdb"
    }
  ],
  "aliases": [],
  "shaders": [],
  "discord_id": "",
  "change_for": null
}