{
  "id": 175738,
  "name": "BS Shin Onigashima: Dai-4-wa",
  "slug": "bs-shin-onigashima-dai-4-wa",
  "year": null,
  "banner_url": "",
  "icon_url": "",
  "coverart": "https://lutris.net/media/igdb/cover_big/co487d.jpg",
  "platforms": [],
  "provider_games": [
    {
      "name": "BS Shin Onigashima: Dai-4-wa",
      "slug": "bs-shin-onigashima-dai-4-wa",
      "service": "igdb"
    }
  ],
  "aliases": [],
  "shaders": [],
  "discord_id": "",
  "change_for": null
}