{
  "id": 10151,
  "game_id": 21706,
  "game_slug": "feverdream-saga",
  "name": "Fever☆Dream Saga",
  "year": 2016,
  "user": "kimchitea",
  "runner": "linux",
  "slug": "feverdream-saga-itchio",
  "version": "itch.io",
  "description": null,
  "notes": "",
  "credits": "",
  "created_at": "2018-09-11T05:36:15.477000Z",
  "updated_at": "2024-04-03T05:34:37.705095Z",
  "draft": false,
  "published": true,
  "published_by": null,
  "rating": "",
  "is_playable": null,
  "steamid": null,
  "gogid": null,
  "gogslug": "",
  "humbleid": "",
  "humblestoreid": "",
  "humblestoreid_real": "",
  "script": {
    "files": [
      {
        "file1": "N/A:Please select the itch.io archive"
      }
    ],
    "game": {
      "exe": "Fever_Dream_Saga.sh"
    },
    "installer": [
      {
        "extract": {
          "file": "$file1"
        }
      },
      {
        "chmodx": "$GAMEDIR/Fever_Dream_Saga.sh"
      },
      {
        "chmodx": "$GAMEDIR/lib/linux-i686/Fever_Dream_Saga"
      },
      {
        "chmodx": "$GAMEDIR/lib/linux-x86_64/Fever_Dream_Saga"
      }
    ]
  },
  "content": "files:\n- file1: N/A:Please select the itch.io archive\ngame:\n  exe: Fever_Dream_Saga.sh\ninstaller:\n- extract:\n    file: $file1\n- chmodx: $GAMEDIR/Fever_Dream_Saga.sh\n- chmodx: $GAMEDIR/lib/linux-i686/Fever_Dream_Saga\n- chmodx: $GAMEDIR/lib/linux-x86_64/Fever_Dream_Saga\n",
  "discord_id": ""
}