{
  "id": 145564,
  "name": "Tokyo Afterschool Summoners",
  "slug": "tokyo-afterschool-summoners",
  "year": 2016,
  "banner_url": "",
  "icon_url": "",
  "coverart": "https://lutris.net/media/igdb/cover_big/co3vy6.jpg",
  "platforms": [
    {
      "name": "Legacy Cellphone"
    }
  ],
  "provider_games": [
    {
      "name": "Tokyo Afterschool Summoners",
      "slug": "tokyo-afterschool-summoners",
      "service": "igdb"
    }
  ],
  "aliases": [],
  "shaders": [],
  "discord_id": "",
  "change_for": null
}