{
  "id": 146947,
  "name": "Hustomten",
  "slug": "hustomten",
  "year": null,
  "banner_url": "",
  "icon_url": "",
  "coverart": "https://lutris.net/media/igdb/cover_big/co3sfd.jpg",
  "platforms": [],
  "provider_games": [
    {
      "name": "Hustomten",
      "slug": "hustomten",
      "service": "igdb"
    }
  ],
  "aliases": [],
  "shaders": [],
  "discord_id": "",
  "change_for": null
}