{
  "id": 198235,
  "name": "Trials of Proelium",
  "slug": "trials-of-proelium",
  "year": null,
  "banner_url": "",
  "icon_url": "",
  "coverart": "https://lutris.net/media/igdb/cover_big/co4j2o.jpg",
  "platforms": [],
  "provider_games": [
    {
      "name": "Trials of Proelium",
      "slug": "trials-of-proelium",
      "service": "igdb"
    }
  ],
  "aliases": [],
  "shaders": [],
  "discord_id": "",
  "change_for": null
}