{
  "id": 209519,
  "name": "GamePigeon",
  "slug": "gamepigeon",
  "year": 2016,
  "banner_url": "",
  "icon_url": "",
  "coverart": "https://lutris.net/media/igdb/cover_big/co5xlk.jpg",
  "platforms": [],
  "provider_games": [
    {
      "name": "GamePigeon",
      "slug": "gamepigeon",
      "service": "igdb"
    }
  ],
  "aliases": [],
  "shaders": [],
  "discord_id": "",
  "change_for": null
}