{
  "id": 173324,
  "name": "WWE Survivor Series",
  "slug": "wwe-survivor-series",
  "year": 2004,
  "banner_url": "",
  "icon_url": "",
  "coverart": "https://lutris.net/media/igdb/cover_big/huh4kuvj9cjcnue3qdtd.jpg",
  "platforms": [
    {
      "name": "Nintendo Game Boy Advance"
    }
  ],
  "provider_games": [
    {
      "name": "WWE Survivor Series",
      "slug": "wwe-survivor-series",
      "service": "igdb"
    }
  ],
  "aliases": [],
  "shaders": [],
  "discord_id": "",
  "change_for": null
}