{
  "id": 14356,
  "name": "Marmoset Toolbag 3 - Portfolio ready renders",
  "slug": "marmoset-toolbag-3-portfolio-ready-renders",
  "year": null,
  "banner_url": "https://lutris.net/games/banner/marmoset-toolbag-3-portfolio-ready-renders.jpg",
  "icon_url": "https://lutris.net/games/icon/marmoset-toolbag-3-portfolio-ready-renders.png",
  "coverart": null,
  "platforms": [],
  "provider_games": [
    {
      "name": "Marmoset Toolbag 3 - Portfolio ready renders",
      "slug": "688340",
      "service": "steam"
    }
  ],
  "aliases": [],
  "shaders": [],
  "discord_id": "",
  "change_for": null
}