{
  "id": 292111,
  "name": "Dwelling",
  "slug": "dwelling--1",
  "year": null,
  "banner_url": "",
  "icon_url": "",
  "coverart": "https://lutris.net/media/igdb/cover_big/co8jla.jpg",
  "platforms": [],
  "provider_games": [
    {
      "name": "Dwelling",
      "slug": "dwelling--1",
      "service": "igdb"
    }
  ],
  "aliases": [],
  "shaders": [],
  "discord_id": "",
  "change_for": null
}