{
  "id": 37806,
  "game_id": 98550,
  "game_slug": "mahjongg-artifacts",
  "name": "Mahjongg Artifacts",
  "year": 2006,
  "user": "darkfly",
  "runner": "wine",
  "slug": "mahjongg-artifacts-purple-hills-cd",
  "version": "Purple Hills CD",
  "description": "",
  "notes": "",
  "credits": "",
  "created_at": "2023-09-15T22:26:14.927040Z",
  "updated_at": "2023-09-15T22:26:14.927058Z",
  "draft": false,
  "published": true,
  "published_by": null,
  "rating": "",
  "is_playable": null,
  "steamid": null,
  "gogid": null,
  "gogslug": "",
  "humbleid": "",
  "humblestoreid": "",
  "humblestoreid_real": "",
  "script": {
    "game": {
      "arch": "win32",
      "exe": "drive_c/Program Files/Purplehills/Mahjongg Artifacts/mahjong_artifacts.exe",
      "prefix": "$GAMEDIR"
    },
    "installer": [
      {
        "insert-disc": {
          "requires": "Vollversionen/MahjonggArtifacts.exe"
        }
      },
      {
        "task": {
          "args": "/S",
          "executable": "MahjonggArtifacts.exe",
          "name": "wineexec",
          "overrides": {
            "winemenubuilder.exe": "disabled"
          },
          "working_dir": "$DISC/Vollversionen"
        }
      }
    ]
  },
  "content": "game:\n  arch: win32\n  exe: drive_c/Program Files/Purplehills/Mahjongg Artifacts/mahjong_artifacts.exe\n  prefix: $GAMEDIR\ninstaller:\n- insert-disc:\n    requires: Vollversionen/MahjonggArtifacts.exe\n- task:\n    args: /S\n    executable: MahjonggArtifacts.exe\n    name: wineexec\n    overrides:\n      winemenubuilder.exe: disabled\n    working_dir: $DISC/Vollversionen\n",
  "discord_id": ""
}