{
  "id": 69481,
  "name": "Thunder Run: Firestrike",
  "slug": "thunder-run-firestrike",
  "year": null,
  "banner_url": "",
  "icon_url": "",
  "coverart": "https://lutris.net/media/igdb/cover_big/hr5xvqki6txjcaorsc0w.jpg",
  "platforms": [],
  "provider_games": [
    {
      "name": "Thunder Run: Firestrike",
      "slug": "thunder-run-firestrike",
      "service": "igdb"
    }
  ],
  "aliases": [],
  "shaders": [],
  "discord_id": "",
  "change_for": null
}