{
  "id": 53598,
  "name": "Rebel Planet",
  "slug": "rebel-planet",
  "year": 1986,
  "banner_url": "",
  "icon_url": "",
  "coverart": "https://lutris.net/media/igdb/cover_big/sxajfxdkhg3tnhbsd9wt.jpg",
  "platforms": [
    {
      "name": "Acorn Electron"
    },
    {
      "name": "Amstrad CPC"
    },
    {
      "name": "BBC Microcomputer System"
    },
    {
      "name": "Commodore C64/128"
    },
    {
      "name": "ZX Spectrum"
    }
  ],
  "provider_games": [
    {
      "name": "Rebel Planet",
      "slug": "rebel-planet",
      "service": "igdb"
    }
  ],
  "aliases": [],
  "shaders": [],
  "discord_id": "",
  "change_for": null
}