{
  "id": 284689,
  "name": "Bell's Avenue Vol. 2",
  "slug": "bells-avenue-vol-2",
  "year": 1994,
  "banner_url": "",
  "icon_url": "",
  "coverart": null,
  "platforms": [
    {
      "name": "FM Towns"
    }
  ],
  "provider_games": [
    {
      "name": "Bell's Avenue Vol. 2",
      "slug": "bells-avenue-vol-2",
      "service": "igdb"
    }
  ],
  "aliases": [],
  "shaders": [],
  "discord_id": "",
  "change_for": null
}