{
  "id": 8435,
  "name": "Perfect Angle VR - Zen edition",
  "slug": "perfect-angle-vr-zen-edition",
  "year": 2016,
  "banner_url": "https://lutris.net/games/banner/perfect-angle-vr-zen-edition.jpg",
  "icon_url": "https://lutris.net/games/icon/perfect-angle-vr-zen-edition.png",
  "coverart": null,
  "platforms": [
    {
      "name": "Windows"
    }
  ],
  "provider_games": [
    {
      "name": "Perfect Angle VR - Zen edition",
      "slug": "perfect-angle-vr-zen-edition",
      "service": "igdb"
    }
  ],
  "aliases": [],
  "shaders": [],
  "discord_id": "",
  "change_for": null
}