{
  "id": 170710,
  "name": "Strike The Striker Z",
  "slug": "strike-the-striker-z",
  "year": null,
  "banner_url": "",
  "icon_url": "",
  "coverart": "https://lutris.net/media/igdb/cover_big/co46ug.jpg",
  "platforms": [],
  "provider_games": [
    {
      "name": "Strike the Striker Z",
      "slug": "strike-the-striker-z",
      "service": "igdb"
    }
  ],
  "aliases": [],
  "shaders": [],
  "discord_id": "",
  "change_for": null
}