{
  "id": 5360,
  "game_id": 6827,
  "game_slug": "redshift-blueshift",
  "name": "Redshift Blueshift",
  "year": 2015,
  "user": "FakeShemp",
  "runner": "wine",
  "slug": "redshift-blueshift-itchio",
  "version": "itch.io",
  "description": "",
  "notes": "",
  "credits": "",
  "created_at": "2017-08-12T17:01:25.288401Z",
  "updated_at": "2018-05-19T03:41:58.372206Z",
  "draft": false,
  "published": true,
  "published_by": null,
  "rating": "",
  "is_playable": null,
  "steamid": 367430,
  "gogid": null,
  "gogslug": "",
  "humbleid": "",
  "humblestoreid": "",
  "humblestoreid_real": "",
  "script": {
    "files": [
      {
        "file1": "N/A:Please select the itch.io archive"
      }
    ],
    "game": {
      "arch": "win32",
      "exe": "drive_c/Program Files/Redshift Blueshift/redshiftblueshift.exe",
      "prefix": "$GAMEDIR"
    },
    "installer": [
      {
        "extract": {
          "dst": "$GAMEDIR/drive_c/Program Files/Redshift Blueshift",
          "file": "$file1"
        }
      }
    ]
  },
  "content": "files:\n- file1: N/A:Please select the itch.io archive\ngame:\n  arch: win32\n  exe: drive_c/Program Files/Redshift Blueshift/redshiftblueshift.exe\n  prefix: $GAMEDIR\ninstaller:\n- extract:\n    dst: $GAMEDIR/drive_c/Program Files/Redshift Blueshift\n    file: $file1\n",
  "discord_id": ""
}