{
  "id": 40698,
  "name": "Nympho Trainer VR",
  "slug": "nympho-trainer-vr",
  "year": null,
  "banner_url": "https://lutris.net/games/banner/nympho-trainer-vr.jpg",
  "icon_url": "https://lutris.net/games/icon/nympho-trainer-vr.png",
  "coverart": null,
  "platforms": [],
  "provider_games": [
    {
      "name": "Nympho Trainer VR",
      "slug": "978720",
      "service": "steam"
    }
  ],
  "aliases": [],
  "shaders": [],
  "discord_id": "",
  "change_for": null
}