{
  "id": 239582,
  "name": "Fuzzy Flip",
  "slug": "fuzzy-flip",
  "year": null,
  "banner_url": "",
  "icon_url": "",
  "coverart": "https://lutris.net/media/igdb/cover_big/co6xxl.jpg",
  "platforms": [],
  "provider_games": [
    {
      "name": "Fuzzy Flip",
      "slug": "fuzzy-flip",
      "service": "igdb"
    }
  ],
  "aliases": [],
  "shaders": [],
  "discord_id": "",
  "change_for": null
}