{
  "id": 72845,
  "name": "Line Pangya",
  "slug": "line-pangya",
  "year": null,
  "banner_url": "",
  "icon_url": "",
  "coverart": "https://lutris.net/media/igdb/cover_big/co69sr.jpg",
  "platforms": [],
  "provider_games": [
    {
      "name": "Line Pangya",
      "slug": "line-pangya",
      "service": "igdb"
    }
  ],
  "aliases": [],
  "shaders": [],
  "discord_id": "",
  "change_for": null
}