{
  "id": 25343,
  "name": "POSTAL The Movie",
  "slug": "postal-the-movie",
  "year": null,
  "banner_url": "https://lutris.net/games/banner/postal-the-movie.jpg",
  "icon_url": "https://lutris.net/games/icon/postal-the-movie.png",
  "coverart": null,
  "platforms": [],
  "provider_games": [
    {
      "name": "POSTAL The Movie",
      "slug": "697440",
      "service": "steam"
    }
  ],
  "aliases": [],
  "shaders": [],
  "discord_id": "",
  "change_for": null
}