{
  "id": 106794,
  "name": "Tuff E Nuff",
  "slug": "tuff-e-nuff",
  "year": 1993,
  "banner_url": "",
  "icon_url": "",
  "coverart": "https://lutris.net/media/igdb/cover_big/co2uj2.jpg",
  "platforms": [
    {
      "name": "Super Famicom"
    },
    {
      "name": "Super Nintendo"
    }
  ],
  "provider_games": [
    {
      "name": "Tuff E Nuff",
      "slug": "tuff-e-nuff",
      "service": "igdb"
    }
  ],
  "aliases": [],
  "shaders": [],
  "discord_id": "",
  "change_for": null
}