{
  "id": 86830,
  "name": "Lunar: Silver Star Story Touch",
  "slug": "lunar-silver-star-story-touch",
  "year": null,
  "banner_url": "",
  "icon_url": "",
  "coverart": null,
  "platforms": [],
  "provider_games": [
    {
      "name": "Lunar: Silver Star Story Touch",
      "slug": "lunar-silver-star-story-touch",
      "service": "igdb"
    }
  ],
  "aliases": [],
  "shaders": [],
  "discord_id": "",
  "change_for": null
}