{
  "id": 194400,
  "name": "Lost On Jupiter",
  "slug": "lost-on-jupiter",
  "year": null,
  "banner_url": "",
  "icon_url": "",
  "coverart": "https://lutris.net/media/igdb/cover_big/co4ay4.jpg",
  "platforms": [
    {
      "name": "Windows"
    }
  ],
  "provider_games": [
    {
      "name": "Lost on Jupiter",
      "slug": "lost-on-jupiter",
      "service": "igdb"
    }
  ],
  "aliases": [],
  "shaders": [],
  "discord_id": "",
  "change_for": null
}