{
  "id": 211891,
  "name": "Galaxy Bowling 3D Free",
  "slug": "galaxy-bowling-3d-free",
  "year": null,
  "banner_url": "",
  "icon_url": "",
  "coverart": null,
  "platforms": [],
  "provider_games": [
    {
      "name": "Galaxy Bowling 3D Free",
      "slug": "galaxy-bowling-3d-free",
      "service": "igdb"
    }
  ],
  "aliases": [],
  "shaders": [],
  "discord_id": "",
  "change_for": null
}