{
  "id": 56390,
  "name": "Legends of Yore",
  "slug": "legends-of-yore",
  "year": null,
  "banner_url": "",
  "icon_url": "",
  "coverart": "https://lutris.net/media/igdb/cover_big/c0xtc6g2sjevyudbur8o.jpg",
  "platforms": [],
  "provider_games": [
    {
      "name": "Legends of Yore",
      "slug": "legends-of-yore",
      "service": "igdb"
    }
  ],
  "aliases": [],
  "shaders": [],
  "discord_id": "",
  "change_for": null
}