{
  "id": 206645,
  "name": "Ferromon Together",
  "slug": "ferromon-together",
  "year": null,
  "banner_url": "",
  "icon_url": "",
  "coverart": "https://lutris.net/media/igdb/cover_big/co5sde.jpg",
  "platforms": [],
  "provider_games": [
    {
      "name": "Ferromon Together",
      "slug": "ferromon-together",
      "service": "igdb"
    }
  ],
  "aliases": [],
  "shaders": [],
  "discord_id": "",
  "change_for": null
}