{
  "id": 778,
  "game_id": 2462,
  "game_slug": "hive",
  "name": "Hive",
  "year": 2013,
  "user": "Xodetaetl",
  "runner": "steam",
  "slug": "hive-steam",
  "version": "steam",
  "description": "",
  "notes": "",
  "credits": "",
  "created_at": "2014-09-15T16:04:00.885000Z",
  "updated_at": "2014-09-15T16:13:28.615000Z",
  "draft": false,
  "published": true,
  "published_by": null,
  "rating": "",
  "is_playable": null,
  "steamid": 251210,
  "gogid": null,
  "gogslug": "",
  "humbleid": "",
  "humblestoreid": "",
  "humblestoreid_real": "",
  "script": {
    "game": {
      "appid": 251210
    }
  },
  "content": "game:\n  appid: 251210\n",
  "discord_id": ""
}