{
  "id": 209183,
  "name": "Chou Jinsei Enjoi Tamagotchi Plus CYOI Change",
  "slug": "chou-jinsei-enjoi-tamagotchi-plus-cyoi-change",
  "year": 2006,
  "banner_url": "",
  "icon_url": "",
  "coverart": "https://lutris.net/media/igdb/cover_big/co5y4c.jpg",
  "platforms": [],
  "provider_games": [
    {
      "name": "Chou Jinsei Enjoi! Tamagotchi Plus Cyoi Change",
      "slug": "chou-jinsei-enjoi-tamagotchi-plus-cyoi-change",
      "service": "igdb"
    }
  ],
  "aliases": [],
  "shaders": [],
  "discord_id": "",
  "change_for": null
}