{
  "id": 5091,
  "name": "Cosmo's Cosmic Adventure",
  "slug": "cosmos-cosmic-adventure",
  "year": 1992,
  "banner_url": "https://lutris.net/games/banner/cosmos-cosmic-adventure.jpg",
  "icon_url": "https://lutris.net/games/icon/cosmos-cosmic-adventure.png",
  "coverart": "https://lutris.net/media/igdb/cover_big/co3nko.jpg",
  "platforms": [
    {
      "name": "Linux"
    },
    {
      "name": "Mac"
    },
    {
      "name": "Windows"
    }
  ],
  "provider_games": [
    {
      "name": "Cosmo's Cosmic Adventure",
      "slug": "1207665563",
      "service": "gog"
    },
    {
      "name": "Cosmo's Cosmic Adventure",
      "slug": "358250",
      "service": "steam"
    },
    {
      "name": "Cosmo's Cosmic Adventure",
      "slug": "cosmos-cosmic-adventure",
      "service": "igdb"
    }
  ],
  "aliases": [],
  "shaders": [],
  "discord_id": "",
  "change_for": null
}