{
  "id": 188703,
  "name": "Escape Room",
  "slug": "escape-room--2",
  "year": null,
  "banner_url": "",
  "icon_url": "",
  "coverart": "https://lutris.net/media/igdb/cover_big/co870v.jpg",
  "platforms": [],
  "provider_games": [
    {
      "name": "Escape Room",
      "slug": "escape-room--2",
      "service": "igdb"
    }
  ],
  "aliases": [],
  "shaders": [],
  "discord_id": "",
  "change_for": null
}