{
  "id": 80348,
  "name": "Mega Math Blaster",
  "slug": "mega-math-blaster",
  "year": 1996,
  "banner_url": "",
  "icon_url": "",
  "coverart": "https://lutris.net/media/igdb/cover_big/ai0s9eyagdqntuuevoc0.jpg",
  "platforms": [
    {
      "name": "Mac"
    },
    {
      "name": "Windows"
    }
  ],
  "provider_games": [
    {
      "name": "Mega Math Blaster",
      "slug": "mega-math-blaster",
      "service": "igdb"
    }
  ],
  "aliases": [],
  "shaders": [],
  "discord_id": "",
  "change_for": null
}