{
  "id": 246225,
  "name": "Station to Station",
  "slug": "station-to-station",
  "year": null,
  "banner_url": "https://lutris.net/games/banner/station-to-station.jpg",
  "icon_url": "",
  "coverart": "https://lutris.net/media/igdb/cover_big/co6i5f.jpg",
  "platforms": [
    {
      "name": "Windows"
    }
  ],
  "provider_games": [
    {
      "name": "Station to Station",
      "slug": "2272400",
      "service": "steam"
    },
    {
      "name": "Station to Station",
      "slug": "station-to-station",
      "service": "igdb"
    }
  ],
  "aliases": [],
  "shaders": [],
  "discord_id": "",
  "change_for": null
}