{
  "id": 134255,
  "name": "Football",
  "slug": "football--1",
  "year": 1972,
  "banner_url": "",
  "icon_url": "",
  "coverart": "https://lutris.net/media/igdb/cover_big/co3m9k.jpg",
  "platforms": [
    {
      "name": "Odyssey"
    }
  ],
  "provider_games": [
    {
      "name": "Football",
      "slug": "football--1",
      "service": "igdb"
    }
  ],
  "aliases": [],
  "shaders": [],
  "discord_id": "",
  "change_for": null
}