{
  "id": 15602,
  "name": "The Tone Rebellion",
  "slug": "the-tone-rebellion",
  "year": 1997,
  "banner_url": "https://lutris.net/games/banner/the-tone-rebellion.jpg",
  "icon_url": "",
  "coverart": "https://lutris.net/media/igdb/cover_big/co1k5z.jpg",
  "platforms": [
    {
      "name": "Windows"
    }
  ],
  "provider_games": [
    {
      "name": "The Tone Rebellion",
      "slug": "the-tone-rebellion",
      "service": "igdb"
    }
  ],
  "aliases": [],
  "shaders": [],
  "discord_id": "",
  "change_for": null
}