{
  "id": 11056,
  "name": "McOsu",
  "slug": "mcosu",
  "year": 2017,
  "banner_url": "https://lutris.net/games/banner/mcosu.jpg",
  "icon_url": "https://lutris.net/games/icon/mcosu.png",
  "coverart": "https://lutris.net/media/igdb/cover_big/co1xdq.jpg",
  "platforms": [
    {
      "name": "Linux"
    },
    {
      "name": "Mac"
    },
    {
      "name": "Windows"
    }
  ],
  "provider_games": [
    {
      "name": "McOsu",
      "slug": "607260",
      "service": "steam"
    },
    {
      "name": "McOsu",
      "slug": "mcosu",
      "service": "igdb"
    }
  ],
  "aliases": [],
  "shaders": [],
  "discord_id": "451541958268157952",
  "change_for": null
}