{
  "id": 269078,
  "name": "Nova hearts",
  "slug": "nova-hearts",
  "year": null,
  "banner_url": "",
  "icon_url": "",
  "coverart": "https://lutris.net/media/igdb/cover_big/co7iym.jpg",
  "platforms": [],
  "provider_games": [
    {
      "name": "Nova Hearts",
      "slug": "nova-hearts",
      "service": "igdb"
    }
  ],
  "aliases": [],
  "shaders": [],
  "discord_id": "",
  "change_for": null
}