{
  "id": 139505,
  "name": "Goddess Of War Ashley",
  "slug": "goddess-of-war-ashley",
  "year": 2021,
  "banner_url": "",
  "icon_url": "",
  "coverart": "https://lutris.net/media/igdb/cover_big/co2ucd.jpg",
  "platforms": [
    {
      "name": "Windows"
    }
  ],
  "provider_games": [
    {
      "name": "Goddess of War Ashley",
      "slug": "goddess-of-war-ashley",
      "service": "igdb"
    }
  ],
  "aliases": [],
  "shaders": [],
  "discord_id": "",
  "change_for": null
}