{
  "id": 2900,
  "name": "Making History II: The War of the World",
  "slug": "making-history-ii-the-war-of-the-world",
  "year": 2010,
  "banner_url": "https://lutris.net/games/banner/making-history-ii-the-war-of-the-world.jpg",
  "icon_url": "https://lutris.net/games/icon/making-history-ii-the-war-of-the-world.png",
  "coverart": "https://lutris.net/media/igdb/cover_big/co3mu2.jpg",
  "platforms": [
    {
      "name": "Linux"
    },
    {
      "name": "Mac"
    },
    {
      "name": "Windows"
    }
  ],
  "provider_games": [
    {
      "name": "Making History II: The War of the World",
      "slug": "46770",
      "service": "steam"
    },
    {
      "name": "Making History II: The War of the World",
      "slug": "making-history-ii-the-war-of-the-world",
      "service": "igdb"
    }
  ],
  "aliases": [],
  "shaders": [],
  "discord_id": "",
  "change_for": null
}