{
  "id": 224260,
  "name": "Flooded",
  "slug": "flooded",
  "year": null,
  "banner_url": "https://lutris.net/games/banner/flooded.jpg",
  "icon_url": "",
  "coverart": "https://lutris.net/media/igdb/cover_big/co4u98.jpg",
  "platforms": [
    {
      "name": "Windows"
    }
  ],
  "provider_games": [
    {
      "name": "Flooded",
      "slug": "1795470",
      "service": "steam"
    },
    {
      "name": "Flooded",
      "slug": "flooded",
      "service": "igdb"
    },
    {
      "name": "Flooded",
      "slug": "1734211869",
      "service": "gog"
    }
  ],
  "aliases": [],
  "shaders": [],
  "discord_id": "",
  "change_for": null
}