{
  "id": 299883,
  "name": "Cursed Fables: Before the Clock Strikes",
  "slug": "cursed-fables-before-the-clock-strikes",
  "year": 2024,
  "banner_url": "",
  "icon_url": "",
  "coverart": null,
  "platforms": [
    {
      "name": "Mac"
    },
    {
      "name": "Windows"
    }
  ],
  "provider_games": [
    {
      "name": "Cursed Fables: Before the Clock Strikes",
      "slug": "cursed-fables-before-the-clock-strikes",
      "service": "igdb"
    }
  ],
  "aliases": [],
  "shaders": [],
  "discord_id": "",
  "change_for": null
}