{
  "id": 60776,
  "name": "Gold Monkey",
  "slug": "gold-monkey",
  "year": null,
  "banner_url": "",
  "icon_url": "",
  "coverart": "https://lutris.net/media/igdb/cover_big/cku8bpgi15egmmbluors.jpg",
  "platforms": [],
  "provider_games": [
    {
      "name": "Gold Monkey",
      "slug": "gold-monkey",
      "service": "igdb"
    }
  ],
  "aliases": [],
  "shaders": [],
  "discord_id": "",
  "change_for": null
}