{
  "id": 296240,
  "name": "Bertha Butt's Boogie",
  "slug": "bertha-butts-boogie",
  "year": 2013,
  "banner_url": "",
  "icon_url": "",
  "coverart": null,
  "platforms": [
    {
      "name": "Windows"
    }
  ],
  "provider_games": [
    {
      "name": "Bertha Butt's Boogie",
      "slug": "bertha-butts-boogie",
      "service": "igdb"
    }
  ],
  "aliases": [],
  "shaders": [],
  "discord_id": "",
  "change_for": null
}