{
  "id": 165308,
  "name": "Songs for a Hero: Definitive Edition",
  "slug": "songs-for-a-hero-definitive-edition",
  "year": 2021,
  "banner_url": "",
  "icon_url": "",
  "coverart": "https://lutris.net/media/igdb/cover_big/co4b92.jpg",
  "platforms": [
    {
      "name": "Nintendo Switch"
    }
  ],
  "provider_games": [
    {
      "name": "Songs for a Hero: Definitive Edition",
      "slug": "songs-for-a-hero-definitive-edition",
      "service": "igdb"
    }
  ],
  "aliases": [],
  "shaders": [],
  "discord_id": "",
  "change_for": null
}