{
  "id": 259400,
  "name": "Titeuf: Le Film",
  "slug": "titeuf-le-film",
  "year": 2011,
  "banner_url": "",
  "icon_url": "",
  "coverart": "https://lutris.net/media/igdb/cover_big/co74wu.jpg",
  "platforms": [
    {
      "name": "Nintendo DS"
    },
    {
      "name": "Nintendo Wii"
    }
  ],
  "provider_games": [
    {
      "name": "Titeuf: Le Film",
      "slug": "titeuf-le-film",
      "service": "igdb"
    }
  ],
  "aliases": [],
  "shaders": [],
  "discord_id": "",
  "change_for": null
}