{
  "id": 9375,
  "game_id": 17669,
  "game_slug": "sword-art-online-fatal-bullet",
  "name": "Sword Art Online: Fatal Bullet",
  "year": 2018,
  "user": "Jozua",
  "runner": "winesteam",
  "slug": "sword-art-online-fatal-bullet-steam",
  "version": "Steam",
  "description": "Might work, might not work",
  "notes": "",
  "credits": "",
  "created_at": "2018-07-25T12:04:31.772254Z",
  "updated_at": "2018-10-25T12:11:55.122616Z",
  "draft": false,
  "published": true,
  "published_by": null,
  "rating": "",
  "is_playable": null,
  "steamid": 626690,
  "gogid": null,
  "gogslug": "",
  "humbleid": "",
  "humblestoreid": "",
  "humblestoreid_real": "",
  "script": {
    "game": {
      "appid": 626690
    },
    "system": {
      "disable_monitoring": true,
      "disable_runtime": true,
      "pulse_latency": true
    }
  },
  "content": "game:\r\n  appid: 626690\r\nsystem:\r\n  disable_monitoring: true\r\n  disable_runtime: true\r\n  pulse_latency: true",
  "discord_id": ""
}