{
  "id": 129008,
  "name": "马戏团之夜",
  "slug": "ma-xi-tuan-zhi-ye",
  "year": null,
  "banner_url": "",
  "icon_url": "",
  "coverart": "https://lutris.net/media/igdb/cover_big/co3cuy.jpg",
  "platforms": [],
  "provider_games": [
    {
      "name": "马戏团之夜",
      "slug": "ma-xi-tuan-zhi-ye",
      "service": "igdb"
    }
  ],
  "aliases": [],
  "shaders": [],
  "discord_id": "",
  "change_for": null
}