{
  "id": 68461,
  "name": "Nitto 1320 Legends",
  "slug": "nitto-1320-legends",
  "year": null,
  "banner_url": "",
  "icon_url": "",
  "coverart": "https://lutris.net/media/igdb/cover_big/lxce9jcwq2jugml3bxjj.jpg",
  "platforms": [],
  "provider_games": [
    {
      "name": "Nitto 1320 Legends",
      "slug": "nitto-1320-legends",
      "service": "igdb"
    }
  ],
  "aliases": [],
  "shaders": [],
  "discord_id": "",
  "change_for": null
}