{
  "id": 23238,
  "name": "Heroes of Might & Magic V Gold Edition",
  "slug": "heroes-of-might-magic-v-gold-edition",
  "year": 2007,
  "banner_url": "https://lutris.net/games/banner/heroes-of-might-magic-v-gold-edition.jpg",
  "icon_url": "",
  "coverart": null,
  "platforms": [
    {
      "name": "Windows"
    }
  ],
  "provider_games": [],
  "aliases": [],
  "shaders": [],
  "discord_id": "",
  "change_for": null
}