{
  "id": 186936,
  "name": "I hate it here",
  "slug": "i-hate-it-here",
  "year": null,
  "banner_url": "",
  "icon_url": "",
  "coverart": null,
  "platforms": [],
  "provider_games": [
    {
      "name": "I hate it here",
      "slug": "i-hate-it-here",
      "service": "igdb"
    }
  ],
  "aliases": [],
  "shaders": [],
  "discord_id": "",
  "change_for": null
}