{
  "id": 80102,
  "name": "EverGirl",
  "slug": "evergirl",
  "year": 2004,
  "banner_url": "",
  "icon_url": "",
  "coverart": "https://lutris.net/media/igdb/cover_big/f9qfu5enxz86usng3r7h.jpg",
  "platforms": [
    {
      "name": "Nintendo Game Boy Advance"
    },
    {
      "name": "Windows"
    }
  ],
  "provider_games": [
    {
      "name": "EverGirl",
      "slug": "evergirl",
      "service": "igdb"
    }
  ],
  "aliases": [],
  "shaders": [],
  "discord_id": "",
  "change_for": null
}