{
  "id": 228617,
  "name": "The Witcher 3: Wild Hunt - Blood and Wine [review copy]",
  "slug": "the-witcher-3-wild-hunt-blood-and-wine-review-copy",
  "year": null,
  "banner_url": "",
  "icon_url": "",
  "coverart": null,
  "platforms": [],
  "provider_games": [
    {
      "name": "The Witcher 3: Wild Hunt - Blood and Wine [review copy]",
      "slug": "1477872865",
      "service": "gog"
    }
  ],
  "aliases": [],
  "shaders": [],
  "discord_id": "",
  "change_for": null
}