{
  "id": 173177,
  "name": "Tecmo World Cup Soccer",
  "slug": "tecmo-world-cup-soccer",
  "year": 1991,
  "banner_url": "",
  "icon_url": "",
  "coverart": "https://lutris.net/media/igdb/cover_big/js2ldjaxvwvvblwuvyep.jpg",
  "platforms": [
    {
      "name": "NES"
    }
  ],
  "provider_games": [
    {
      "name": "Tecmo World Cup Soccer",
      "slug": "tecmo-world-cup-soccer",
      "service": "igdb"
    }
  ],
  "aliases": [],
  "shaders": [],
  "discord_id": "",
  "change_for": null
}