{
  "id": 306907,
  "name": "Kusarihime: Jamais Vu",
  "slug": "kusarihime-jamais-vu",
  "year": 2004,
  "banner_url": "",
  "icon_url": "",
  "coverart": "https://lutris.net/media/igdb/cover_big/co9emv.jpg",
  "platforms": [
    {
      "name": "Windows"
    }
  ],
  "provider_games": [
    {
      "name": "Kusarihime: Jamais Vu",
      "slug": "kusarihime-jamais-vu",
      "service": "igdb"
    }
  ],
  "aliases": [],
  "shaders": [],
  "discord_id": "",
  "change_for": null
}