{
  "id": 293095,
  "name": "Kitchen Trials: Rush",
  "slug": "kitchen-trials-rush",
  "year": null,
  "banner_url": "",
  "icon_url": "",
  "coverart": "https://lutris.net/media/igdb/cover_big/co8lvw.jpg",
  "platforms": [],
  "provider_games": [
    {
      "name": "Kitchen Trials: Rush",
      "slug": "kitchen-trials-rush",
      "service": "igdb"
    }
  ],
  "aliases": [],
  "shaders": [],
  "discord_id": "",
  "change_for": null
}