{
  "id": 88955,
  "name": "DeckEleven's Railroads",
  "slug": "deckelevens-railroads",
  "year": null,
  "banner_url": "",
  "icon_url": "",
  "coverart": "https://lutris.net/media/igdb/cover_big/co8vqz.jpg",
  "platforms": [],
  "provider_games": [
    {
      "name": "DeckEleven's Railroads",
      "slug": "deckelevens-railroads",
      "service": "igdb"
    }
  ],
  "aliases": [],
  "shaders": [],
  "discord_id": "",
  "change_for": null
}