{
  "id": 16721,
  "name": "Starship Titanic",
  "slug": "starship-titanic",
  "year": 1998,
  "banner_url": "https://lutris.net/games/banner/starship-titanic.jpg",
  "icon_url": "https://lutris.net/games/icon/starship-titanic.png",
  "coverart": "https://lutris.net/media/igdb/cover_big/co4222.jpg",
  "platforms": [
    {
      "name": "Mac"
    },
    {
      "name": "Windows"
    }
  ],
  "provider_games": [
    {
      "name": "Starship Titanic",
      "slug": "1441102382",
      "service": "gog"
    },
    {
      "name": "Starship Titanic",
      "slug": "467290",
      "service": "steam"
    },
    {
      "name": "Starship Titanic",
      "slug": "starship-titanic",
      "service": "igdb"
    }
  ],
  "aliases": [],
  "shaders": [],
  "discord_id": "",
  "change_for": null
}