{
  "id": 275059,
  "name": "Where The Crows Roam",
  "slug": "where-the-crows-roam",
  "year": null,
  "banner_url": "",
  "icon_url": "",
  "coverart": "https://lutris.net/media/igdb/cover_big/co7tdh.jpg",
  "platforms": [],
  "provider_games": [
    {
      "name": "Where The Crows Roam",
      "slug": "where-the-crows-roam",
      "service": "igdb"
    }
  ],
  "aliases": [],
  "shaders": [],
  "discord_id": "",
  "change_for": null
}