{
  "id": 45952,
  "name": "Play! The Ultimate Casual Game Collection",
  "slug": "play-the-ultimate-casual-game-collection",
  "year": null,
  "banner_url": "",
  "icon_url": "",
  "coverart": "https://lutris.net/media/igdb/cover_big/hm18jcwyjdsv9whjfz8m.jpg",
  "platforms": [],
  "provider_games": [
    {
      "name": "Play! The Ultimate Casual Game Collection",
      "slug": "play-the-ultimate-casual-game-collection",
      "service": "igdb"
    }
  ],
  "aliases": [],
  "shaders": [],
  "discord_id": "",
  "change_for": null
}