{
  "id": 249726,
  "name": "Warbirds P-51 Mustang ACE",
  "slug": "warbirds-p-51-mustang-ace",
  "year": null,
  "banner_url": "",
  "icon_url": "",
  "coverart": null,
  "platforms": [],
  "provider_games": [
    {
      "name": "Warbirds P-51 Mustang ACE",
      "slug": "warbirds-p-51-mustang-ace",
      "service": "igdb"
    }
  ],
  "aliases": [],
  "shaders": [],
  "discord_id": "",
  "change_for": null
}