{
  "id": 178079,
  "name": "Museum of the Saved Image",
  "slug": "museum-of-the-saved-image",
  "year": null,
  "banner_url": "",
  "icon_url": "",
  "coverart": "https://lutris.net/media/igdb/cover_big/co4dci.jpg",
  "platforms": [],
  "provider_games": [
    {
      "name": "Museum of the Saved Image",
      "slug": "museum-of-the-saved-image",
      "service": "igdb"
    }
  ],
  "aliases": [],
  "shaders": [],
  "discord_id": "",
  "change_for": null
}