{
  "id": 146934,
  "name": "Yellow Ballman",
  "slug": "yellow-ballman",
  "year": null,
  "banner_url": "",
  "icon_url": "",
  "coverart": "https://lutris.net/media/igdb/cover_big/co3l5c.jpg",
  "platforms": [],
  "provider_games": [
    {
      "name": "Yellow Ballman",
      "slug": "yellow-ballman",
      "service": "igdb"
    }
  ],
  "aliases": [],
  "shaders": [],
  "discord_id": "",
  "change_for": null
}