{
  "id": 219223,
  "name": "Verses of Enchantment",
  "slug": "verses-of-enchantment",
  "year": null,
  "banner_url": "",
  "icon_url": "",
  "coverart": "https://lutris.net/media/igdb/cover_big/co5hzs.jpg",
  "platforms": [],
  "provider_games": [
    {
      "name": "Verses of Enchantment",
      "slug": "verses-of-enchantment",
      "service": "igdb"
    }
  ],
  "aliases": [],
  "shaders": [],
  "discord_id": "",
  "change_for": null
}