{
  "id": 6501,
  "game_id": 5737,
  "game_slug": "simpleplanes",
  "name": "SimplePlanes",
  "year": 2014,
  "user": "FakeShemp",
  "runner": "wine",
  "slug": "simpleplanes-humble",
  "version": "Humble",
  "description": null,
  "notes": "",
  "credits": "",
  "created_at": "2017-11-30T22:47:04.343586Z",
  "updated_at": "2018-05-19T03:41:49.180609Z",
  "draft": false,
  "published": true,
  "published_by": null,
  "rating": "",
  "is_playable": null,
  "steamid": 397340,
  "gogid": 1338132110,
  "gogslug": "simpleplanes",
  "humbleid": "",
  "humblestoreid": "",
  "humblestoreid_real": "",
  "script": {
    "files": [
      {
        "file1": "N/A:Please select the Humble archive"
      }
    ],
    "game": {
      "arch": "win32",
      "exe": "drive_c/Program Files/SimplePlanes/SimplePlanes.exe",
      "prefix": "$GAMEDIR"
    },
    "installer": [
      {
        "extract": {
          "dst": "$GAMEDIR/drive_c/Program Files/SimplePlanes",
          "file": "$file1"
        }
      }
    ]
  },
  "content": "files:\n- file1: N/A:Please select the Humble archive\ngame:\n  arch: win32\n  exe: drive_c/Program Files/SimplePlanes/SimplePlanes.exe\n  prefix: $GAMEDIR\ninstaller:\n- extract:\n    dst: $GAMEDIR/drive_c/Program Files/SimplePlanes\n    file: $file1\n",
  "discord_id": "451549534993252362"
}