{
  "id": 234866,
  "name": "Dead Unending",
  "slug": "dead-unending",
  "year": 2023,
  "banner_url": "https://lutris.net/games/banner/dead-unending.jpg",
  "icon_url": "",
  "coverart": "https://lutris.net/media/igdb/cover_big/co62q7.jpg",
  "platforms": [
    {
      "name": "Windows"
    }
  ],
  "provider_games": [
    {
      "name": "Dead Unending",
      "slug": "2236240",
      "service": "steam"
    },
    {
      "name": "Dead Unending",
      "slug": "dead-unending",
      "service": "igdb"
    }
  ],
  "aliases": [],
  "shaders": [],
  "discord_id": "",
  "change_for": null
}