{
  "id": 64903,
  "name": "Dora the Explorer: Dora's Fix-it Adventure",
  "slug": "dora-the-explorer-doras-fix-it-adventure",
  "year": null,
  "banner_url": "",
  "icon_url": "",
  "coverart": "https://lutris.net/media/igdb/cover_big/fi5ic0dnlfyocaju5hlz.jpg",
  "platforms": [],
  "provider_games": [
    {
      "name": "Dora the Explorer: Dora's Fix-it Adventure",
      "slug": "dora-the-explorer-doras-fix-it-adventure",
      "service": "igdb"
    }
  ],
  "aliases": [],
  "shaders": [],
  "discord_id": "",
  "change_for": null
}