{
  "id": 300567,
  "name": "Royal Montgomery Raceways",
  "slug": "royal-montgomery-raceways",
  "year": 2025,
  "banner_url": "",
  "icon_url": "",
  "coverart": null,
  "platforms": [
    {
      "name": "Windows"
    }
  ],
  "provider_games": [
    {
      "name": "Royal Montgomery Raceways",
      "slug": "royal-montgomery-raceways",
      "service": "igdb"
    }
  ],
  "aliases": [],
  "shaders": [],
  "discord_id": "",
  "change_for": null
}