{
  "id": 246796,
  "name": "Liberta: Rise of Freedom",
  "slug": "liberta-rise-of-freedom",
  "year": null,
  "banner_url": "",
  "icon_url": "",
  "coverart": "https://lutris.net/media/igdb/cover_big/co6jo1.jpg",
  "platforms": [],
  "provider_games": [
    {
      "name": "Liberta: Rise of Freedom",
      "slug": "liberta-rise-of-freedom",
      "service": "igdb"
    }
  ],
  "aliases": [],
  "shaders": [],
  "discord_id": "",
  "change_for": null
}