{
  "id": 222908,
  "name": "Caillou: Ready to Read",
  "slug": "caillou-ready-to-read",
  "year": null,
  "banner_url": "",
  "icon_url": "",
  "coverart": "https://lutris.net/media/igdb/cover_big/co4x2h.jpg",
  "platforms": [],
  "provider_games": [
    {
      "name": "Caillou: Ready to Read",
      "slug": "caillou-ready-to-read",
      "service": "igdb"
    }
  ],
  "aliases": [],
  "shaders": [],
  "discord_id": "",
  "change_for": null
}