{
  "id": 293441,
  "name": "Kidou Senshi Gundam: Sokuou Sensen",
  "slug": "kidou-senshi-gundam-sokuou-sensen",
  "year": null,
  "banner_url": "",
  "icon_url": "",
  "coverart": null,
  "platforms": [
    {
      "name": "Android"
    }
  ],
  "provider_games": [
    {
      "name": "Kidou Senshi Gundam: Sokuou Sensen",
      "slug": "kidou-senshi-gundam-sokuou-sensen",
      "service": "igdb"
    }
  ],
  "aliases": [],
  "shaders": [],
  "discord_id": "",
  "change_for": null
}