{
  "id": 62809,
  "name": "Glyder",
  "slug": "glyder",
  "year": null,
  "banner_url": "",
  "icon_url": "",
  "coverart": "https://lutris.net/media/igdb/cover_big/kjrpvthyqvbekuohtdav.jpg",
  "platforms": [],
  "provider_games": [
    {
      "name": "Glyder",
      "slug": "glyder",
      "service": "igdb"
    }
  ],
  "aliases": [],
  "shaders": [],
  "discord_id": "",
  "change_for": null
}