{
  "id": 208060,
  "name": "Sunshine Shuffle",
  "slug": "sunshine-shuffle",
  "year": 2023,
  "banner_url": "https://lutris.net/games/banner/sunshine-shuffle.jpg",
  "icon_url": "",
  "coverart": "https://lutris.net/media/igdb/cover_big/co5qdq.jpg",
  "platforms": [
    {
      "name": "Windows"
    }
  ],
  "provider_games": [
    {
      "name": "Sunshine Shuffle",
      "slug": "sunshine-shuffle",
      "service": "igdb"
    },
    {
      "name": "Sunshine Shuffle",
      "slug": "1912420",
      "service": "steam"
    },
    {
      "name": "Sunshine Shuffle",
      "slug": "1077147745",
      "service": "gog"
    }
  ],
  "aliases": [],
  "shaders": [],
  "discord_id": "",
  "change_for": null
}