{
  "id": 58115,
  "name": "Crazy-Spy",
  "slug": "crazy-spy",
  "year": null,
  "banner_url": "",
  "icon_url": "",
  "coverart": "https://lutris.net/media/igdb/cover_big/okc8bhdtuzdbtotbvltm.jpg",
  "platforms": [],
  "provider_games": [
    {
      "name": "Crazy-Spy",
      "slug": "crazy-spy",
      "service": "igdb"
    }
  ],
  "aliases": [],
  "shaders": [],
  "discord_id": "",
  "change_for": null
}