{
  "id": 21201,
  "name": "Atomic Heist",
  "slug": "atomic-heist",
  "year": 2017,
  "banner_url": "https://lutris.net/games/banner/atomic-heist.jpg",
  "icon_url": "https://lutris.net/games/icon/atomic-heist.png",
  "coverart": "https://lutris.net/media/igdb/cover_big/co2agd.jpg",
  "platforms": [
    {
      "name": "Nintendo Switch"
    },
    {
      "name": "Windows"
    },
    {
      "name": "Xbox One"
    }
  ],
  "provider_games": [
    {
      "name": "Atomic Heist",
      "slug": "791000",
      "service": "steam"
    },
    {
      "name": "Atomic Heist",
      "slug": "atomic-heist",
      "service": "igdb"
    }
  ],
  "aliases": [],
  "shaders": [],
  "discord_id": "",
  "change_for": null
}