{
  "id": 167268,
  "name": "The Legend of Tobimaru",
  "slug": "the-legend-of-tobimaru",
  "year": null,
  "banner_url": "",
  "icon_url": "",
  "coverart": "https://lutris.net/media/igdb/cover_big/co43xc.jpg",
  "platforms": [],
  "provider_games": [
    {
      "name": "The Legend of Tobimaru",
      "slug": "the-legend-of-tobimaru",
      "service": "igdb"
    }
  ],
  "aliases": [],
  "shaders": [],
  "discord_id": "",
  "change_for": null
}