{
  "id": 135051,
  "name": "Clutter 1000",
  "slug": "clutter-1000",
  "year": null,
  "banner_url": "",
  "icon_url": "",
  "coverart": "https://lutris.net/media/igdb/cover_big/co3nc0.jpg",
  "platforms": [],
  "provider_games": [
    {
      "name": "Clutter 1000",
      "slug": "clutter-1000",
      "service": "igdb"
    }
  ],
  "aliases": [],
  "shaders": [],
  "discord_id": "",
  "change_for": null
}