{
  "id": 289912,
  "name": "Nobunaga no Yabou Internet",
  "slug": "nobunaga-no-yabou-internet",
  "year": 1998,
  "banner_url": "",
  "icon_url": "",
  "coverart": null,
  "platforms": [
    {
      "name": "Windows"
    }
  ],
  "provider_games": [
    {
      "name": "Nobunaga no Yabou Internet",
      "slug": "nobunaga-no-yabou-internet",
      "service": "igdb"
    }
  ],
  "aliases": [],
  "shaders": [],
  "discord_id": "",
  "change_for": null
}