{
  "id": 109165,
  "name": "Protector",
  "slug": "protector--2",
  "year": null,
  "banner_url": "",
  "icon_url": "",
  "coverart": "https://lutris.net/media/igdb/cover_big/co6fjk.jpg",
  "platforms": [],
  "provider_games": [
    {
      "name": "Protector",
      "slug": "protector--2",
      "service": "igdb"
    }
  ],
  "aliases": [],
  "shaders": [],
  "discord_id": "",
  "change_for": null
}