{
  "id": 115206,
  "name": "Zenra Toukou Training",
  "slug": "zenra-toukou-training",
  "year": 2021,
  "banner_url": "",
  "icon_url": "",
  "coverart": null,
  "platforms": [
    {
      "name": "Windows"
    }
  ],
  "provider_games": [
    {
      "name": "Zenra Toukou Training",
      "slug": "zenra-toukou-training",
      "service": "igdb"
    }
  ],
  "aliases": [],
  "shaders": [],
  "discord_id": "",
  "change_for": null
}