{
  "id": 52877,
  "name": "Mean Girls: The Game",
  "slug": "mean-girls-the-game",
  "year": null,
  "banner_url": "",
  "icon_url": "",
  "coverart": null,
  "platforms": [],
  "provider_games": [
    {
      "name": "Mean Girls: The Game",
      "slug": "mean-girls-the-game",
      "service": "igdb"
    }
  ],
  "aliases": [],
  "shaders": [],
  "discord_id": "",
  "change_for": null
}