{
  "id": 169899,
  "name": "Ganbare Goemon Kira-kira Douchuu: Boku ga Dancer ni Natta Wake",
  "slug": "ganbare-goemon-kira-kira-douchuu-boku-ga-dancer-ni-natta-wake",
  "year": 1995,
  "banner_url": "",
  "icon_url": "",
  "coverart": "https://lutris.net/media/igdb/cover_big/co2axv.jpg",
  "platforms": [
    {
      "name": "Super Nintendo"
    }
  ],
  "provider_games": [
    {
      "name": "Ganbare Goemon: Kira-kira Douchuu - Boku ga Dancer ni Natta Wake",
      "slug": "ganbare-goemon-kira-kira-douchuu-boku-ga-dancer-ni-natta-wake",
      "service": "igdb"
    }
  ],
  "aliases": [],
  "shaders": [],
  "discord_id": "",
  "change_for": null
}