{
  "id": 11909,
  "name": "New York Mysteries: Secrets of the Mafia",
  "slug": "new-york-mysteries-secrets-of-the-mafia",
  "year": 2014,
  "banner_url": "https://lutris.net/games/banner/new-york-mysteries-secrets-of-the-mafia.jpg",
  "icon_url": "https://lutris.net/games/icon/new-york-mysteries-secrets-of-the-mafia.png",
  "coverart": "https://lutris.net/media/igdb/cover_big/co3tr2.jpg",
  "platforms": [
    {
      "name": "Mac"
    },
    {
      "name": "Nintendo Switch"
    },
    {
      "name": "Windows"
    }
  ],
  "provider_games": [
    {
      "name": "New York Mysteries: Secrets of the Mafia",
      "slug": "372930",
      "service": "steam"
    },
    {
      "name": "New York Mysteries: Secrets of the Mafia",
      "slug": "new-york-mysteries-secrets-of-the-mafia",
      "service": "igdb"
    }
  ],
  "aliases": [],
  "shaders": [],
  "discord_id": "",
  "change_for": null
}