{
  "id": 254428,
  "name": "Cheesy Munch",
  "slug": "cheesy-munch",
  "year": null,
  "banner_url": "",
  "icon_url": "",
  "coverart": null,
  "platforms": [],
  "provider_games": [
    {
      "name": "Cheesy Munch",
      "slug": "cheesy-munch",
      "service": "igdb"
    }
  ],
  "aliases": [],
  "shaders": [],
  "discord_id": "",
  "change_for": null
}