{
  "id": 262299,
  "name": "Crash vs. Spyro Racing",
  "slug": "crash-vs-spyro-racing",
  "year": null,
  "banner_url": "",
  "icon_url": "",
  "coverart": "https://lutris.net/media/igdb/cover_big/co7654.jpg",
  "platforms": [],
  "provider_games": [
    {
      "name": "Crash vs. Spyro Racing",
      "slug": "crash-vs-spyro-racing",
      "service": "igdb"
    }
  ],
  "aliases": [],
  "shaders": [],
  "discord_id": "",
  "change_for": null
}