{
  "id": 105940,
  "name": "Doki-Doki Universe",
  "slug": "doki-doki-universe",
  "year": 2013,
  "banner_url": "",
  "icon_url": "",
  "coverart": "https://lutris.net/media/igdb/cover_big/co2pxs.jpg",
  "platforms": [
    {
      "name": "PlayStation Vita"
    },
    {
      "name": "Sony Playstation 3"
    },
    {
      "name": "Sony Playstation 4"
    }
  ],
  "provider_games": [
    {
      "name": "Doki-Doki Universe",
      "slug": "doki-doki-universe",
      "service": "igdb"
    }
  ],
  "aliases": [],
  "shaders": [],
  "discord_id": "",
  "change_for": null
}