{
  "id": 234158,
  "name": "Sherlock Holmes The Awakened: Deluxe Edition",
  "slug": "sherlock-holmes-the-awakened-deluxe-edition",
  "year": null,
  "banner_url": "",
  "icon_url": "",
  "coverart": "https://lutris.net/media/igdb/cover_big/co68nx.jpg",
  "platforms": [],
  "provider_games": [
    {
      "name": "Sherlock Holmes The Awakened: Deluxe Edition",
      "slug": "sherlock-holmes-the-awakened-deluxe-edition",
      "service": "igdb"
    }
  ],
  "aliases": [],
  "shaders": [],
  "discord_id": "",
  "change_for": null
}