{
  "id": 1412,
  "name": "Sonic Adventure 2",
  "slug": "sonic-adventure-2",
  "year": 2001,
  "banner_url": "https://lutris.net/games/banner/sonic-adventure-2.jpg",
  "icon_url": "https://lutris.net/games/icon/sonic-adventure-2.png",
  "coverart": "https://lutris.net/media/igdb/cover_big/co1te4.jpg",
  "platforms": [
    {
      "name": "Dreamcast"
    },
    {
      "name": "GameCube"
    },
    {
      "name": "Sega Dreamcast"
    },
    {
      "name": "Sony Playstation 3"
    },
    {
      "name": "Windows"
    },
    {
      "name": "Xbox 360"
    }
  ],
  "provider_games": [
    {
      "name": "Sonic Adventure™ 2 ",
      "slug": "213610",
      "service": "steam"
    },
    {
      "name": "Sonic Adventure 2",
      "slug": "sonic-adventure-2",
      "service": "igdb"
    }
  ],
  "aliases": [],
  "shaders": [],
  "discord_id": "363427419249442816",
  "change_for": null
}