{
  "id": 246200,
  "name": "Slam Jump",
  "slug": "slam-jump",
  "year": null,
  "banner_url": "",
  "icon_url": "",
  "coverart": null,
  "platforms": [],
  "provider_games": [
    {
      "name": "Slam Jump",
      "slug": "slam-jump",
      "service": "igdb"
    }
  ],
  "aliases": [],
  "shaders": [],
  "discord_id": "",
  "change_for": null
}