{
  "id": 228672,
  "name": "Trap Shrine",
  "slug": "trap-shrine-1",
  "year": 2019,
  "banner_url": "",
  "icon_url": "",
  "coverart": null,
  "platforms": [],
  "provider_games": [
    {
      "name": "Trap Shrine",
      "slug": "1832698625",
      "service": "gog"
    }
  ],
  "aliases": [],
  "shaders": [],
  "discord_id": "",
  "change_for": null
}