{
  "id": 60306,
  "name": "National Lampoon's University Tycoon",
  "slug": "national-lampoons-university-tycoon",
  "year": null,
  "banner_url": "",
  "icon_url": "",
  "coverart": "https://lutris.net/media/igdb/cover_big/azatvnbk5dfwbnmldaec.jpg",
  "platforms": [],
  "provider_games": [
    {
      "name": "National Lampoon's University Tycoon",
      "slug": "national-lampoons-university-tycoon",
      "service": "igdb"
    }
  ],
  "aliases": [],
  "shaders": [],
  "discord_id": "",
  "change_for": null
}