{
  "id": 210888,
  "name": "Garbage Pail Kids: Mad Mike and the Quest for Stale Gum",
  "slug": "garbage-pail-kids-mad-mike-and-the-quest-for-stale-gum",
  "year": 2022,
  "banner_url": "",
  "icon_url": "",
  "coverart": "https://lutris.net/media/igdb/cover_big/co5q68.jpg",
  "platforms": [
    {
      "name": "Sony Playstation 4"
    },
    {
      "name": "Windows"
    },
    {
      "name": "Xbox One"
    }
  ],
  "provider_games": [
    {
      "name": "Garbage Pail Kids: Mad Mike and the Quest for Stale Gum",
      "slug": "garbage-pail-kids-mad-mike-and-the-quest-for-stale-gum",
      "service": "igdb"
    }
  ],
  "aliases": [],
  "shaders": [],
  "discord_id": "",
  "change_for": null
}