{
  "id": 3072,
  "name": "Dex",
  "slug": "dex",
  "year": 2015,
  "banner_url": "https://lutris.net/games/banner/dex.jpg",
  "icon_url": "https://lutris.net/games/icon/dex.png",
  "coverart": "https://lutris.net/media/igdb/cover_big/co2gdn.jpg",
  "platforms": [
    {
      "name": "Linux"
    },
    {
      "name": "Mac"
    },
    {
      "name": "Nintendo Switch"
    },
    {
      "name": "PlayStation Vita"
    },
    {
      "name": "Sony Playstation 4"
    },
    {
      "name": "Windows"
    },
    {
      "name": "Xbox One"
    }
  ],
  "provider_games": [
    {
      "name": "Dex",
      "slug": "1929434313",
      "service": "gog"
    },
    {
      "name": "Dex",
      "slug": "269650",
      "service": "steam"
    },
    {
      "name": "Dex Demo",
      "slug": "1470859539",
      "service": "gog"
    },
    {
      "name": "Dex",
      "slug": "dex",
      "service": "igdb"
    }
  ],
  "aliases": [],
  "shaders": [],
  "discord_id": "",
  "change_for": null
}