{
  "id": 172768,
  "name": "Franchise Hockey Manager 8",
  "slug": "franchise-hockey-manager-8",
  "year": null,
  "banner_url": "https://lutris.net/games/banner/franchise-hockey-manager-8.jpg",
  "icon_url": "",
  "coverart": "https://lutris.net/media/igdb/cover_big/co40cc.jpg",
  "platforms": [],
  "provider_games": [
    {
      "name": "Franchise Hockey Manager 8",
      "slug": "franchise-hockey-manager-8",
      "service": "igdb"
    },
    {
      "name": "Franchise Hockey Manager 8",
      "slug": "1739000",
      "service": "steam"
    }
  ],
  "aliases": [],
  "shaders": [],
  "discord_id": "",
  "change_for": null
}