{
  "id": 155762,
  "name": "Faily Brakes Classic",
  "slug": "faily-brakes-classic",
  "year": 2021,
  "banner_url": "",
  "icon_url": "",
  "coverart": null,
  "platforms": [],
  "provider_games": [
    {
      "name": "Faily Brakes Classic",
      "slug": "faily-brakes-classic",
      "service": "igdb"
    }
  ],
  "aliases": [],
  "shaders": [],
  "discord_id": "",
  "change_for": null
}