{
  "id": 28690,
  "game_id": 7830,
  "game_slug": "battlefield-2142",
  "name": "Battlefield 2142",
  "year": 2006,
  "user": "djedosi",
  "runner": "wine",
  "slug": "battlefield-2142-northen-strike",
  "version": "Northen Strike",
  "description": "",
  "notes": "",
  "credits": "",
  "created_at": "2021-07-23T12:52:11.984000Z",
  "updated_at": "2022-11-30T04:03:27.292548Z",
  "draft": false,
  "published": true,
  "published_by": 1,
  "rating": "",
  "is_playable": null,
  "steamid": null,
  "gogid": null,
  "gogslug": "",
  "humbleid": "",
  "humblestoreid": "",
  "humblestoreid_real": "",
  "script": {
    "files": [
      {
        "game": "https://disk.yandex.ru/d/a_n6BGHruFHqL"
      }
    ],
    "game": {
      "arch": "win64",
      "exe": "$GAMEDIR/drive_c/Program Files (x86)/Battlefield 2142 Novgames AE/BF2142.exe",
      "prefix": "$GAMEDIR"
    },
    "installer": [
      {
        "task": {
          "arch": "win64",
          "description": "Creating Wine prefix",
          "name": "create_prefix",
          "prefix": "$GAMEDIR"
        }
      },
      {
        "extract": {
          "dst": "$GAMEDIR/bf2",
          "file": "game"
        }
      },
      {
        "task": {
          "arch": "win64",
          "description": "Running the setup",
          "executable": "$GAMEDIR/Battlefield 2142 Novgames AE/Setup.exe",
          "name": "wineexec",
          "prefix": "$GAMEDIR"
        }
      },
      {
        "task": {
          "arch": "win64",
          "description": "Running BF2142",
          "executable": "bfhub",
          "name": "wineexec",
          "prefix": "$GAMEDIR"
        }
      }
    ]
  },
  "content": "files:\n- game: https://disk.yandex.ru/d/a_n6BGHruFHqL\ngame:\n  arch: win64\n  exe: $GAMEDIR/drive_c/Program Files (x86)/Battlefield 2142 Novgames AE/BF2142.exe\n  prefix: $GAMEDIR\ninstaller:\n- task:\n    arch: win64\n    description: Creating Wine prefix\n    name: create_prefix\n    prefix: $GAMEDIR\n- extract:\n    dst: $GAMEDIR/bf2\n    file: game\n- task:\n    arch: win64\n    description: Running the setup\n    executable: $GAMEDIR/Battlefield 2142 Novgames AE/Setup.exe\n    name: wineexec\n    prefix: $GAMEDIR\n- task:\n    arch: win64\n    description: Running BF2142\n    executable: bfhub\n    name: wineexec\n    prefix: $GAMEDIR\n",
  "discord_id": "496535501465976835"
}