{
  "id": 10287,
  "game_id": 811,
  "game_slug": "stalker-shadow-of-chernobyl",
  "name": "S.T.A.L.K.E.R.: Shadow of Chernobyl",
  "year": 2007,
  "user": "therealfarfetchd",
  "runner": "wine",
  "slug": "stalker-shadow-of-chernobyl-cd",
  "version": "CD",
  "description": null,
  "notes": "No-CD patch recommended",
  "credits": "",
  "created_at": "2018-09-22T11:36:43.941000Z",
  "updated_at": "2019-05-17T04:34:08.840971Z",
  "draft": false,
  "published": true,
  "published_by": 19464,
  "rating": "",
  "is_playable": null,
  "steamid": 4500,
  "gogid": 1207660573,
  "gogslug": "stalker_shadow_of_chernobyl",
  "humbleid": "",
  "humblestoreid": "",
  "humblestoreid_real": "",
  "script": {
    "game": {
      "arch": "win33",
      "exe": "drive_c/Program Files/THQ/S.T.A.L.K.E.R. - Shadow of Chernobyl/bin/XR_3DA.exe",
      "prefix": "$GAMEDIR"
    },
    "installer": [
      {
        "insert-disc": {
          "requires": "setup.exe"
        }
      },
      {
        "task": {
          "arch": "win32",
          "name": "create_prefix",
          "prefix": "$GAMEDIR"
        }
      },
      {
        "task": {
          "arch": "win32",
          "args": "/SILENT",
          "description": "Running Installer",
          "executable": "$DISC/setup.exe",
          "name": "wineexec",
          "prefix": "$GAMEDIR"
        }
      }
    ]
  },
  "content": "game:\n  arch: win33\n  exe: drive_c/Program Files/THQ/S.T.A.L.K.E.R. - Shadow of Chernobyl/bin/XR_3DA.exe\n  prefix: $GAMEDIR\ninstaller:\n- insert-disc:\n    requires: setup.exe\n- task:\n    arch: win32\n    name: create_prefix\n    prefix: $GAMEDIR\n- task:\n    arch: win32\n    args: /SILENT\n    description: Running Installer\n    executable: $DISC/setup.exe\n    name: wineexec\n    prefix: $GAMEDIR\n",
  "discord_id": ""
}