{
  "id": 246131,
  "name": "Milky Bear: Lunch Frenzy",
  "slug": "milky-bear-lunch-frenzy",
  "year": 2012,
  "banner_url": "",
  "icon_url": "",
  "coverart": "https://lutris.net/media/igdb/cover_big/co6ido.jpg",
  "platforms": [
    {
      "name": "Windows"
    }
  ],
  "provider_games": [
    {
      "name": "Milky Bear: Lunch Frenzy",
      "slug": "milky-bear-lunch-frenzy",
      "service": "igdb"
    }
  ],
  "aliases": [],
  "shaders": [],
  "discord_id": "",
  "change_for": null
}