{
  "id": 108578,
  "name": "I've Got to Run!",
  "slug": "ive-got-to-run",
  "year": 2014,
  "banner_url": "",
  "icon_url": "",
  "coverart": "https://lutris.net/media/igdb/cover_big/px65enejakrzidteww4i.jpg",
  "platforms": [
    {
      "name": "Nintendo Wii U"
    }
  ],
  "provider_games": [
    {
      "name": "I've Got to Run!",
      "slug": "ive-got-to-run",
      "service": "igdb"
    }
  ],
  "aliases": [],
  "shaders": [],
  "discord_id": "",
  "change_for": null
}