{
  "id": 22511,
  "name": "New Game: Documentary Movie",
  "slug": "new-game-documentary-movie",
  "year": null,
  "banner_url": "https://lutris.net/games/banner/new-game-documentary-movie.jpg",
  "icon_url": "https://lutris.net/games/icon/new-game-documentary-movie.png",
  "coverart": null,
  "platforms": [],
  "provider_games": [
    {
      "name": "New Game: Documentary Movie",
      "slug": "681040",
      "service": "steam"
    }
  ],
  "aliases": [],
  "shaders": [],
  "discord_id": "",
  "change_for": null
}