{
  "id": 52467,
  "name": "Sneak 'n Peek",
  "slug": "sneak-n-peek",
  "year": 1982,
  "banner_url": "",
  "icon_url": "",
  "coverart": "https://lutris.net/media/igdb/cover_big/xgfoj8l3ayvv9jzd1smv.jpg",
  "platforms": [],
  "provider_games": [
    {
      "name": "Sneak 'n Peek",
      "slug": "sneak-n-peek",
      "service": "igdb"
    }
  ],
  "aliases": [],
  "shaders": [],
  "discord_id": "",
  "change_for": null
}