{
  "id": 257892,
  "name": "Creep Shock",
  "slug": "creep-shock",
  "year": null,
  "banner_url": "",
  "icon_url": "",
  "coverart": null,
  "platforms": [],
  "provider_games": [
    {
      "name": "Creep Shock",
      "slug": "creep-shock",
      "service": "igdb"
    }
  ],
  "aliases": [],
  "shaders": [],
  "discord_id": "",
  "change_for": null
}