{
  "id": 175476,
  "name": "Absolute Tactics: Daughters of Mercy",
  "slug": "absolute-tactics-daughters-of-mercy",
  "year": null,
  "banner_url": "",
  "icon_url": "",
  "coverart": "https://lutris.net/media/igdb/cover_big/co31ug.jpg",
  "platforms": [
    {
      "name": "Windows"
    }
  ],
  "provider_games": [
    {
      "name": "Absolute Tactics: Daughters of Mercy",
      "slug": "1186536188",
      "service": "gog"
    },
    {
      "name": "Absolute Tactics: Daughters of Mercy",
      "slug": "absolute-tactics-daughters-of-mercy",
      "service": "igdb"
    },
    {
      "name": "Absolute Tactics: Daughters of Mercy",
      "slug": "1636660",
      "service": "steam"
    }
  ],
  "aliases": [],
  "shaders": [],
  "discord_id": "",
  "change_for": null
}