{
  "id": 304973,
  "name": "Waking up in LS",
  "slug": "waking-up-in-ls",
  "year": null,
  "banner_url": "",
  "icon_url": "",
  "coverart": "https://lutris.net/media/igdb/cover_big/co991f.jpg",
  "platforms": [
    {
      "name": "Browser"
    },
    {
      "name": "Game Boy"
    }
  ],
  "provider_games": [
    {
      "name": "Waking up in LS",
      "slug": "waking-up-in-ls",
      "service": "igdb"
    }
  ],
  "aliases": [],
  "shaders": [],
  "discord_id": "",
  "change_for": null
}