{
  "id": 14526,
  "name": "DYSTORIA",
  "slug": "dystoria",
  "year": 2017,
  "banner_url": "https://lutris.net/games/banner/dystoria.jpg",
  "icon_url": "https://lutris.net/games/icon/dystoria.png",
  "coverart": "https://lutris.net/media/igdb/cover_big/co2b0a.jpg",
  "platforms": [
    {
      "name": "Windows"
    }
  ],
  "provider_games": [
    {
      "name": "DYSTORIA",
      "slug": "516580",
      "service": "steam"
    },
    {
      "name": "Dystoria",
      "slug": "dystoria",
      "service": "igdb"
    }
  ],
  "aliases": [],
  "shaders": [],
  "discord_id": "",
  "change_for": null
}