{
  "id": 5703,
  "name": "in Space",
  "slug": "in-space",
  "year": 2015,
  "banner_url": "https://lutris.net/games/banner/in-space.jpg",
  "icon_url": "https://lutris.net/games/icon/in-space.png",
  "coverart": "https://lutris.net/media/igdb/cover_big/lmgnr9nmlzwe8ozymkfp.jpg",
  "platforms": [
    {
      "name": "Windows"
    }
  ],
  "provider_games": [
    {
      "name": "in Space",
      "slug": "361830",
      "service": "steam"
    },
    {
      "name": "in Space",
      "slug": "in-space",
      "service": "igdb"
    }
  ],
  "aliases": [],
  "shaders": [],
  "discord_id": "",
  "change_for": null
}