{
  "id": 268533,
  "name": "Maze!",
  "slug": "maze--8",
  "year": null,
  "banner_url": "",
  "icon_url": "",
  "coverart": "https://lutris.net/media/igdb/cover_big/co7h28.jpg",
  "platforms": [],
  "provider_games": [
    {
      "name": "Maze!",
      "slug": "maze--8",
      "service": "igdb"
    }
  ],
  "aliases": [],
  "shaders": [],
  "discord_id": "",
  "change_for": null
}