{
  "id": 37648,
  "game_id": 252430,
  "game_slug": "south-scrimshaw-part-one",
  "name": "South Scrimshaw, Part One",
  "year": 2023,
  "user": "vanstaveren",
  "runner": "steam",
  "slug": "south-scrimshaw-part-one-steam",
  "version": "steam",
  "description": "",
  "notes": "",
  "credits": "",
  "created_at": "2023-07-31T16:46:10.016795Z",
  "updated_at": "2023-07-31T16:46:10.016812Z",
  "draft": false,
  "published": true,
  "published_by": null,
  "rating": "",
  "is_playable": null,
  "steamid": null,
  "gogid": 1501803768,
  "gogslug": "south_scrimshaw_part_one",
  "humbleid": "",
  "humblestoreid": "",
  "humblestoreid_real": "",
  "script": {
    "game": {
      "appid": 2443110
    }
  },
  "content": "game:\n  appid: 2443110\n",
  "discord_id": ""
}