{
  "id": 12969,
  "name": "Armored Gear",
  "slug": "armored-gear",
  "year": 2017,
  "banner_url": "https://lutris.net/games/banner/armored-gear.jpg",
  "icon_url": "https://lutris.net/games/icon/armored-gear.png",
  "coverart": "https://lutris.net/media/igdb/cover_big/co29it.jpg",
  "platforms": [
    {
      "name": "Windows"
    }
  ],
  "provider_games": [
    {
      "name": "Armored Gear",
      "slug": "armored-gear",
      "service": "igdb"
    }
  ],
  "aliases": [],
  "shaders": [],
  "discord_id": "",
  "change_for": null
}