{
  "id": 68647,
  "name": "Nocturne",
  "slug": "nocturne--1",
  "year": 1986,
  "banner_url": "",
  "icon_url": "",
  "coverart": "https://lutris.net/media/igdb/cover_big/bvfxbfnptit7c0jpzkut.jpg",
  "platforms": [
    {
      "name": "Amstrad CPC"
    }
  ],
  "provider_games": [
    {
      "name": "Nocturne",
      "slug": "nocturne--1",
      "service": "igdb"
    }
  ],
  "aliases": [],
  "shaders": [],
  "discord_id": "",
  "change_for": null
}