{
  "id": 303777,
  "name": "Summons Sword: Pot Guardian",
  "slug": "summons-sword-pot-guardian",
  "year": null,
  "banner_url": "",
  "icon_url": "",
  "coverart": "https://lutris.net/media/igdb/cover_big/co96ij.jpg",
  "platforms": [],
  "provider_games": [
    {
      "name": "Summons Sword: Pot Guardian",
      "slug": "summons-sword-pot-guardian",
      "service": "igdb"
    }
  ],
  "aliases": [],
  "shaders": [],
  "discord_id": "",
  "change_for": null
}