{
  "id": 82998,
  "name": "Unblock Hex",
  "slug": "unblock-hex",
  "year": 2017,
  "banner_url": "",
  "icon_url": "",
  "coverart": "https://lutris.net/media/igdb/cover_big/rfrlfcihnos1f6gttpgq.jpg",
  "platforms": [
    {
      "name": "Android"
    }
  ],
  "provider_games": [
    {
      "name": "Unblock Hex",
      "slug": "unblock-hex",
      "service": "igdb"
    }
  ],
  "aliases": [],
  "shaders": [],
  "discord_id": "",
  "change_for": null
}