{
  "id": 38067,
  "game_id": 204998,
  "game_slug": "gdlauncher",
  "name": "GDLauncher",
  "year": 2014,
  "user": "LabsZero",
  "runner": "linux",
  "slug": "gdlauncher-v1130-appimage",
  "version": "v1.1.30 (AppImage)",
  "description": "",
  "notes": "",
  "credits": "gorilla-devs",
  "created_at": "2023-11-28T01:17:17.173077Z",
  "updated_at": "2023-11-28T01:17:17.173099Z",
  "draft": false,
  "published": true,
  "published_by": null,
  "rating": "",
  "is_playable": null,
  "steamid": null,
  "gogid": null,
  "gogslug": "",
  "humbleid": "",
  "humblestoreid": "",
  "humblestoreid_real": "",
  "script": {
    "files": [
      {
        "appimg": "https://github.com/gorilla-devs/GDLauncher/releases/download/v1.1.30/GDLauncher-linux-setup.AppImage"
      }
    ],
    "game": {
      "exe": "$GAMEDIR/GDLauncher-linux-setup.AppImage"
    },
    "installer": [
      {
        "chmodx": "appimg"
      },
      {
        "move": {
          "dst": "$GAMEDIR",
          "src": "appimg"
        }
      }
    ],
    "system": {
      "disable_runtime": true,
      "env": {
        "APPIMAGELAUNCHER_DISABLE": 1
      }
    }
  },
  "content": "files:\n- appimg: https://github.com/gorilla-devs/GDLauncher/releases/download/v1.1.30/GDLauncher-linux-setup.AppImage\ngame:\n  exe: $GAMEDIR/GDLauncher-linux-setup.AppImage\ninstaller:\n- chmodx: appimg\n- move:\n    dst: $GAMEDIR\n    src: appimg\nsystem:\n  disable_runtime: true\n  env:\n    APPIMAGELAUNCHER_DISABLE: 1\n",
  "discord_id": ""
}