{
  "id": 75140,
  "name": "Party Saboteurs: After Party",
  "slug": "party-saboteurs-after-party",
  "year": null,
  "banner_url": "",
  "icon_url": "",
  "coverart": null,
  "platforms": [],
  "provider_games": [
    {
      "name": "Party Saboteurs: After Party",
      "slug": "party-saboteurs-after-party",
      "service": "igdb"
    }
  ],
  "aliases": [],
  "shaders": [],
  "discord_id": "",
  "change_for": null
}