{
  "id": 50586,
  "name": "Tom Clancy's ruthless.com",
  "slug": "tom-clancy-s-ruthless-com",
  "year": 1998,
  "banner_url": "",
  "icon_url": "",
  "coverart": "https://lutris.net/media/igdb/cover_big/co1yp3.jpg",
  "platforms": [
    {
      "name": "Windows"
    }
  ],
  "provider_games": [
    {
      "name": "Tom Clancy's ruthless.com",
      "slug": "tom-clancy-s-ruthless-com",
      "service": "igdb"
    }
  ],
  "aliases": [],
  "shaders": [],
  "discord_id": "",
  "change_for": null
}