{
  "id": 54019,
  "name": "Yokoyama Mitsuteru San Goku Shi Bangi: Sugoroku Eiyuuki",
  "slug": "yokoyama-mitsuteru-san-goku-shi-bangi-sugoroku-eiyuuki",
  "year": 1994,
  "banner_url": "",
  "icon_url": "",
  "coverart": "https://lutris.net/media/igdb/cover_big/npl6yo7mmxamcc1vnc5r.jpg",
  "platforms": [
    {
      "name": "Super Nintendo"
    }
  ],
  "provider_games": [
    {
      "name": "Yokoyama Mitsuteru San Goku Shi Bangi: Sugoroku Eiyuuki",
      "slug": "yokoyama-mitsuteru-san-goku-shi-bangi-sugoroku-eiyuuki",
      "service": "igdb"
    }
  ],
  "aliases": [],
  "shaders": [],
  "discord_id": "",
  "change_for": null
}