{
  "id": 201672,
  "name": "Western Guns: Episode 01 - Redemption",
  "slug": "western-guns-episode-01-redemption",
  "year": 2017,
  "banner_url": "",
  "icon_url": "",
  "coverart": null,
  "platforms": [
    {
      "name": "Android"
    }
  ],
  "provider_games": [
    {
      "name": "Western Guns: Episode 01 - Redemption",
      "slug": "western-guns-episode-01-redemption",
      "service": "igdb"
    }
  ],
  "aliases": [],
  "shaders": [],
  "discord_id": "",
  "change_for": null
}