{
  "id": 148224,
  "name": "Uncle Nook's Monster Emporium",
  "slug": "uncle-nooks-monster-emporium",
  "year": null,
  "banner_url": "",
  "icon_url": "",
  "coverart": "https://lutris.net/media/igdb/cover_big/co3tdv.jpg",
  "platforms": [],
  "provider_games": [
    {
      "name": "Uncle Nook's Monster Emporium",
      "slug": "uncle-nooks-monster-emporium",
      "service": "igdb"
    }
  ],
  "aliases": [],
  "shaders": [],
  "discord_id": "",
  "change_for": null
}