{
  "id": 67181,
  "name": "xWUNG",
  "slug": "xwung",
  "year": null,
  "banner_url": "",
  "icon_url": "",
  "coverart": "https://lutris.net/media/igdb/cover_big/knfrvyhvflgqvaqtjnpx.jpg",
  "platforms": [],
  "provider_games": [
    {
      "name": "Xwung",
      "slug": "xwung",
      "service": "igdb"
    }
  ],
  "aliases": [],
  "shaders": [],
  "discord_id": "",
  "change_for": null
}