{
  "id": 236473,
  "name": "Knocking Up My Nympho Neighbors",
  "slug": "knocking-up-my-nympho-neighbors",
  "year": null,
  "banner_url": "",
  "icon_url": "",
  "coverart": "https://lutris.net/media/igdb/cover_big/co6437.jpg",
  "platforms": [],
  "provider_games": [
    {
      "name": "Knocking Up My Nympho Neighbors",
      "slug": "knocking-up-my-nympho-neighbors",
      "service": "igdb"
    }
  ],
  "aliases": [],
  "shaders": [],
  "discord_id": "",
  "change_for": null
}