{
  "id": 32140,
  "game_id": 43185,
  "game_slug": "scarlet-nexus",
  "name": "SCARLET NEXUS",
  "year": 2021,
  "user": "sr98vn",
  "runner": "steam",
  "slug": "scarlet-nexus-steam-proton",
  "version": "Steam Proton",
  "description": "",
  "notes": "",
  "credits": "",
  "created_at": "2022-03-03T00:31:16.709345Z",
  "updated_at": "2023-01-11T06:01:59.903344Z",
  "draft": false,
  "published": true,
  "published_by": null,
  "rating": "",
  "is_playable": null,
  "steamid": 775500,
  "gogid": null,
  "gogslug": "",
  "humbleid": "",
  "humblestoreid": "",
  "humblestoreid_real": "",
  "script": {
    "game": {
      "appid": 775500
    }
  },
  "content": "game:\n  appid: 775500\n",
  "discord_id": ""
}