{
  "id": 172296,
  "name": "Ys V: Lost Kefin, Kingdom of Sand",
  "slug": "ys-v-lost-kefin-kingdom-of-sand",
  "year": 1995,
  "banner_url": "",
  "icon_url": "",
  "coverart": "https://lutris.net/media/igdb/cover_big/co2yqp.jpg",
  "platforms": [
    {
      "name": "Satellaview"
    },
    {
      "name": "Super Nintendo"
    },
    {
      "name": "Windows"
    }
  ],
  "provider_games": [
    {
      "name": "Ys V: Lost Kefin, Kingdom of Sand",
      "slug": "ys-v-lost-kefin-kingdom-of-sand",
      "service": "igdb"
    }
  ],
  "aliases": [],
  "shaders": [],
  "discord_id": "",
  "change_for": null
}