{
  "id": 269779,
  "name": "Air Fight: Sky Fighters",
  "slug": "air-fight-sky-fighters",
  "year": 2023,
  "banner_url": "",
  "icon_url": "",
  "coverart": null,
  "platforms": [
    {
      "name": "Sony Playstation 4"
    },
    {
      "name": "Sony PlayStation 5"
    }
  ],
  "provider_games": [
    {
      "name": "Air Fight: Sky Fighters",
      "slug": "air-fight-sky-fighters",
      "service": "igdb"
    }
  ],
  "aliases": [],
  "shaders": [],
  "discord_id": "",
  "change_for": null
}