{
  "id": 112253,
  "name": "★★★★★ 1000 Top Rated",
  "slug": "1000-top-rated",
  "year": null,
  "banner_url": "",
  "icon_url": "",
  "coverart": "https://lutris.net/media/igdb/cover_big/cuin0eg8js3bs1dl9wpd.jpg",
  "platforms": [],
  "provider_games": [
    {
      "name": "★★★★★ 1000 Top Rated",
      "slug": "1000-top-rated",
      "service": "igdb"
    }
  ],
  "aliases": [],
  "shaders": [],
  "discord_id": "",
  "change_for": null
}