{
  "id": 10510,
  "game_id": 5402,
  "game_slug": "the-labyrinth-of-time",
  "name": "The Labyrinth of Time",
  "year": 1993,
  "user": "batman",
  "runner": "steam",
  "slug": "the-labyrinth-of-time-steam",
  "version": "Steam",
  "description": null,
  "notes": "",
  "credits": "",
  "created_at": "2018-10-15T12:49:29.481000Z",
  "updated_at": "2018-10-16T06:51:51.921190Z",
  "draft": false,
  "published": true,
  "published_by": null,
  "rating": "",
  "is_playable": null,
  "steamid": 266980,
  "gogid": 1207664313,
  "gogslug": "labyrinth_of_time_the",
  "humbleid": "",
  "humblestoreid": "",
  "humblestoreid_real": "",
  "script": {
    "game": {
      "appid": 266980
    }
  },
  "content": "game:\n  appid: 266980\n",
  "discord_id": ""
}