{
  "id": 214907,
  "name": "Reksio i Kretes: Tajemnica Trzeciego Wymiaru",
  "slug": "reksio-i-kretes-tajemnica-trzeciego-wymiaru",
  "year": 2007,
  "banner_url": "",
  "icon_url": "",
  "coverart": "https://lutris.net/media/igdb/cover_big/co5bg7.jpg",
  "platforms": [
    {
      "name": "Windows"
    }
  ],
  "provider_games": [
    {
      "name": "Reksio i Kretes: Tajemnica Trzeciego Wymiaru",
      "slug": "reksio-i-kretes-tajemnica-trzeciego-wymiaru",
      "service": "igdb"
    }
  ],
  "aliases": [],
  "shaders": [],
  "discord_id": "",
  "change_for": null
}