{
  "id": 268484,
  "name": "Dark Forest",
  "slug": "dark-forest--2",
  "year": null,
  "banner_url": "",
  "icon_url": "",
  "coverart": "https://lutris.net/media/igdb/cover_big/co7h3a.jpg",
  "platforms": [],
  "provider_games": [
    {
      "name": "Dark Forest",
      "slug": "dark-forest--2",
      "service": "igdb"
    }
  ],
  "aliases": [],
  "shaders": [],
  "discord_id": "",
  "change_for": null
}