{
  "id": 202890,
  "name": "Bewildered",
  "slug": "bewildered",
  "year": null,
  "banner_url": "",
  "icon_url": "",
  "coverart": "https://lutris.net/media/igdb/cover_big/co4j22.jpg",
  "platforms": [],
  "provider_games": [
    {
      "name": "Bewildered",
      "slug": "bewildered",
      "service": "igdb"
    }
  ],
  "aliases": [],
  "shaders": [],
  "discord_id": "",
  "change_for": null
}