{
  "id": 290575,
  "name": "Kitsune no Kaerimichi",
  "slug": "kitsune-no-kaerimichi",
  "year": null,
  "banner_url": "",
  "icon_url": "",
  "coverart": "https://lutris.net/media/igdb/cover_big/co8j13.jpg",
  "platforms": [],
  "provider_games": [
    {
      "name": "Kitsune no Kaerimichi",
      "slug": "kitsune-no-kaerimichi",
      "service": "igdb"
    }
  ],
  "aliases": [],
  "shaders": [],
  "discord_id": "",
  "change_for": null
}