{
  "id": 90830,
  "name": "Denshikantai Knack",
  "slug": "denshikantai-knack",
  "year": 2015,
  "banner_url": "",
  "icon_url": "",
  "coverart": "https://lutris.net/media/igdb/cover_big/iyb2wh3bfpybbygyaql5.jpg",
  "platforms": [
    {
      "name": "Legacy Cellphone"
    }
  ],
  "provider_games": [
    {
      "name": "Denshikantai Knack",
      "slug": "denshikantai-knack",
      "service": "igdb"
    }
  ],
  "aliases": [],
  "shaders": [],
  "discord_id": "",
  "change_for": null
}