{
  "id": 273322,
  "name": "Pixeline: og Drømmespejlet",
  "slug": "pixeline-og-drommespejlet",
  "year": 2008,
  "banner_url": "",
  "icon_url": "",
  "coverart": "https://lutris.net/media/igdb/cover_big/co7qg1.jpg",
  "platforms": [
    {
      "name": "Nintendo DS"
    }
  ],
  "provider_games": [
    {
      "name": "Pixeline: og Drømmespejlet",
      "slug": "pixeline-og-drommespejlet",
      "service": "igdb"
    }
  ],
  "aliases": [],
  "shaders": [],
  "discord_id": "",
  "change_for": null
}