{
  "id": 229491,
  "name": "Armor Battle",
  "slug": "armor-battle--1",
  "year": 1993,
  "banner_url": "",
  "icon_url": "",
  "coverart": null,
  "platforms": [
    {
      "name": "Sega Genesis / Mega Drive"
    }
  ],
  "provider_games": [
    {
      "name": "Armor Battle",
      "slug": "armor-battle--1",
      "service": "igdb"
    }
  ],
  "aliases": [],
  "shaders": [],
  "discord_id": "",
  "change_for": null
}