{
  "id": 71015,
  "name": "Mu-Cade",
  "slug": "mu-cade",
  "year": null,
  "banner_url": "",
  "icon_url": "",
  "coverart": null,
  "platforms": [],
  "provider_games": [
    {
      "name": "Mu-Cade",
      "slug": "mu-cade",
      "service": "igdb"
    }
  ],
  "aliases": [],
  "shaders": [],
  "discord_id": "",
  "change_for": null
}