{
  "id": 1546,
  "game_id": 4304,
  "game_slug": "woah-dave",
  "name": "Woah Dave!",
  "year": 2014,
  "user": "Xodetaetl",
  "runner": "steam",
  "slug": "woah-dave-steam",
  "version": "Steam",
  "description": "",
  "notes": "",
  "credits": "",
  "created_at": "2015-05-19T16:07:00.082000Z",
  "updated_at": "2015-06-01T17:41:29.116000Z",
  "draft": false,
  "published": true,
  "published_by": null,
  "rating": "",
  "is_playable": null,
  "steamid": 315110,
  "gogid": null,
  "gogslug": "",
  "humbleid": "",
  "humblestoreid": "",
  "humblestoreid_real": "",
  "script": {
    "game": {
      "appid": 315110
    }
  },
  "content": "game:\n  appid: 315110\n",
  "discord_id": ""
}