{
  "id": 286906,
  "name": "Daily Bread",
  "slug": "daily-bread",
  "year": null,
  "banner_url": "",
  "icon_url": "",
  "coverart": "https://lutris.net/media/igdb/cover_big/co89u6.jpg",
  "platforms": [],
  "provider_games": [
    {
      "name": "Daily Bread",
      "slug": "daily-bread",
      "service": "igdb"
    }
  ],
  "aliases": [],
  "shaders": [],
  "discord_id": "",
  "change_for": null
}