{
  "id": 110979,
  "name": "Worms: Revolution Extreme",
  "slug": "worms-revolution-extreme",
  "year": 2013,
  "banner_url": "",
  "icon_url": "",
  "coverart": "https://lutris.net/media/igdb/cover_big/pdxmsssslpzjmozgijzh.jpg",
  "platforms": [
    {
      "name": "PlayStation Vita"
    }
  ],
  "provider_games": [
    {
      "name": "Worms: Revolution Extreme",
      "slug": "worms-revolution-extreme",
      "service": "igdb"
    }
  ],
  "aliases": [],
  "shaders": [],
  "discord_id": "",
  "change_for": null
}