{
  "id": 18581,
  "name": "Virush",
  "slug": "virush",
  "year": 2017,
  "banner_url": "https://lutris.net/games/banner/virush.jpg",
  "icon_url": "https://lutris.net/games/icon/virush.png",
  "coverart": "https://lutris.net/media/igdb/cover_big/co2ik0.jpg",
  "platforms": [
    {
      "name": "Windows"
    }
  ],
  "provider_games": [
    {
      "name": "Virush",
      "slug": "617060",
      "service": "steam"
    },
    {
      "name": "Virush",
      "slug": "virush",
      "service": "igdb"
    }
  ],
  "aliases": [],
  "shaders": [],
  "discord_id": "",
  "change_for": null
}