{
  "id": 171272,
  "name": "//Todo: today",
  "slug": "slash-slash-todo-today",
  "year": null,
  "banner_url": "",
  "icon_url": "",
  "coverart": "https://lutris.net/media/igdb/cover_big/co47co.jpg",
  "platforms": [],
  "provider_games": [
    {
      "name": "//Todo: today",
      "slug": "slash-slash-todo-today",
      "service": "igdb"
    }
  ],
  "aliases": [],
  "shaders": [],
  "discord_id": "",
  "change_for": null
}