{
  "id": 34119,
  "game_id": 8212,
  "game_slug": "need-for-speed-underground-2",
  "name": "Need for Speed: Underground 2",
  "year": 2004,
  "user": "MaximumP",
  "runner": "wine",
  "slug": "need-for-speed-underground-2-nfsu2-2cd-ws-fix-gam",
  "version": "NFSU2 2CD WS-Fix GamePad",
  "description": "Installer which requires 2 CDs for the game installation. Incl NoCD Patch and Widescreen Fix with working controller",
  "notes": "On line 45, changed \"SPEED2.EXE\" to \"speed2.exe\".",
  "credits": "",
  "created_at": "2022-06-29T08:43:23.340000Z",
  "updated_at": "2024-03-25T19:48:34.493820Z",
  "draft": false,
  "published": true,
  "published_by": 494,
  "rating": "",
  "is_playable": null,
  "steamid": null,
  "gogid": null,
  "gogslug": "",
  "humbleid": "",
  "humblestoreid": "",
  "humblestoreid_real": "",
  "script": {
    "files": [
      {
        "wspatch": "https://github.com/ThirteenAG/WidescreenFixesPack/releases/download/nfsu2/NFSUnderground2.WidescreenFix.zip"
      },
      {
        "nocdpatch": "N/A: Please select zip file for nocd patch. .exe needs to be in the root of the archive"
      }
    ],
    "game": {
      "arch": "win32",
      "exe": "drive_c/Program Files/EA GAMES/Need for Speed Underground 2/speed2.exe",
      "prefix": "$GAMEDIR"
    },
    "installer": [
      {
        "task": {
          "arch": "win32",
          "description": "Creating Wine Bottle, please stand by...",
          "install_mono": false,
          "name": "create_prefix",
          "prefix": "$GAMEDIR"
        }
      },
      {
        "task": {
          "app": "d3dx9",
          "description": "Installing Direct3D 9 by...",
          "name": "winetricks",
          "prefix": "$GAMEDIR"
        }
      },
      {
        "insert-disc": {
          "description": "Insert disc 1",
          "requires": "setup.exe"
        }
      },
      {
        "merge": {
          "description": "Extracting installation data from disc, please stand by ...",
          "dst": "$GAMEDIR/drive_c/nfsusetup",
          "src": "$DISC"
        }
      },
      {
        "execute": {
          "args": "744 -R $GAMEDIR/drive_c/nfsusetup",
          "descritpion": "Set proper file permissions for extracted data, please stand by...",
          "file": "chmod"
        }
      },
      {
        "task": {
          "executable": "$GAMEDIR/drive_c/nfsusetup/setup.exe",
          "name": "wineexec",
          "prefix": "$GAMEDIR"
        }
      },
      {
        "extract": {
          "dst": "$CACHE/nocdpatch",
          "file": "nocdpatch",
          "type": "zip"
        }
      },
      {
        "move": {
          "dst": "$CACHE/oldexec",
          "src": "$GAMEDIR/drive_c/Program Files/EA GAMES/Need for Speed Underground 2/speed2.exe"
        }
      },
      {
        "move": {
          "dst": "$GAMEDIR/drive_c/Program Files/EA GAMES/Need for Speed Underground 2/speed2.exe",
          "src": "$CACHE/nocdpatch/speed2.exe"
        }
      },
      {
        "extract": {
          "dst": "$CACHE/wspatch",
          "file": "wspatch"
        }
      },
      {
        "move": {
          "dst": "$GAMEDIR/drive_c/Program Files/EA GAMES/Need for Speed Underground 2/d3d9.dll",
          "src": "$CACHE/wspatch/dinput8.dll"
        }
      },
      {
        "move": {
          "dst": "$GAMEDIR/drive_c/Program Files/EA GAMES/Need for Speed Underground 2/scripts/",
          "src": "$CACHE/wspatch/scripts"
        }
      },
      {
        "input_menu": {
          "description": "Please choose your main desktop width for the widescreen patch",
          "id": "RESX",
          "options": [
            {
              "256": "256"
            },
            {
              "426": "426"
            },
            {
              "640": "640"
            },
            {
              "768": "768"
            },
            {
              "800": "800"
            },
            {
              "848": "848"
            },
            {
              "854": "854"
            },
            {
              "960": "960"
            },
            {
              "1024": "1024"
            },
            {
              "1280": "1280"
            },
            {
              "1366": "1366"
            },
            {
              "1600": "1600"
            },
            {
              "1920": "1920"
            },
            {
              "2048": "2048"
            },
            {
              "2560": "2560"
            },
            {
              "2880": "2880"
            },
            {
              "3200": "3200"
            },
            {
              "3840": "3840"
            },
            {
              "4096": "4096"
            },
            {
              "5120": "5120"
            },
            {
              "7680": "7680"
            },
            {
              "15360": "15360"
            }
          ],
          "preselect": "1920"
        }
      },
      {
        "input_menu": {
          "description": "Please choose your main desktop height for the widescreen patch",
          "id": "RESY",
          "options": [
            {
              "144": "144"
            },
            {
              "240": "240"
            },
            {
              "360": "360"
            },
            {
              "432": "432"
            },
            {
              "450": "450"
            },
            {
              "480": "480"
            },
            {
              "540": "540"
            },
            {
              "576": "576"
            },
            {
              "720": "720"
            },
            {
              "768": "768"
            },
            {
              "900": "900"
            },
            {
              "1080": "1080"
            },
            {
              "1152": "1152"
            },
            {
              "1440": "1440"
            },
            {
              "1620": "1620"
            },
            {
              "1800": "1800"
            },
            {
              "2160": "2160"
            },
            {
              "2304": "2304"
            },
            {
              "2880": "2880"
            },
            {
              "4320": "4320"
            },
            {
              "8640": "8640"
            }
          ],
          "preselect": "1080"
        }
      },
      {
        "input_menu": {
          "description": "Do you want to disable the intro",
          "id": "SKIP_INTRO",
          "options": [
            {
              "1": "Yes"
            },
            {
              "0": "No"
            }
          ],
          "preselect": "1"
        }
      },
      {
        "input_menu": {
          "description": "Improve gamepad support by adding text to labels (widescreen patch setting)",
          "id": "GAMEPAD",
          "options": [
            {
              "0": "None"
            },
            {
              "1": "XBox"
            },
            {
              "2": "PlayStation"
            }
          ],
          "preselect": "0"
        }
      },
      {
        "write_config": {
          "data": {
            "MAIN": {
              "ResX": "$INPUT_RESX",
              "ResY": "$INPUT_RESY"
            },
            "MISC": {
              "ImproveGamepadSupport": "$INPUT_GAMEPAD",
              "SkipIntro": "$INPUT_SKIP_INTRO"
            }
          },
          "file": "$GAMEDIR/drive_c/Program Files/EA GAMES/Need for Speed Underground 2/scripts/NFSUnderground2.WidescreenFix.ini"
        }
      }
    ],
    "system": {
      "prefix_command": "taskset --cpu-list 0-3"
    },
    "wine": {
      "Desktop": true,
      "overrides": [
        {
          "dinput8": "b"
        },
        {
          "d3d9": "n,b"
        }
      ]
    }
  },
  "content": "files:\n- wspatch: https://github.com/ThirteenAG/WidescreenFixesPack/releases/download/nfsu2/NFSUnderground2.WidescreenFix.zip\n- nocdpatch: 'N/A: Please select zip file for nocd patch. .exe needs to be in the\n    root of the archive'\ngame:\n  arch: win32\n  exe: drive_c/Program Files/EA GAMES/Need for Speed Underground 2/speed2.exe\n  prefix: $GAMEDIR\ninstaller:\n- task:\n    arch: win32\n    description: Creating Wine Bottle, please stand by...\n    install_mono: false\n    name: create_prefix\n    prefix: $GAMEDIR\n- task:\n    app: d3dx9\n    description: Installing Direct3D 9 by...\n    name: winetricks\n    prefix: $GAMEDIR\n- insert-disc:\n    description: Insert disc 1\n    requires: setup.exe\n- merge:\n    description: Extracting installation data from disc, please stand by ...\n    dst: $GAMEDIR/drive_c/nfsusetup\n    src: $DISC\n- execute:\n    args: 744 -R $GAMEDIR/drive_c/nfsusetup\n    descritpion: Set proper file permissions for extracted data, please stand by...\n    file: chmod\n- task:\n    executable: $GAMEDIR/drive_c/nfsusetup/setup.exe\n    name: wineexec\n    prefix: $GAMEDIR\n- extract:\n    dst: $CACHE/nocdpatch\n    file: nocdpatch\n    type: zip\n- move:\n    dst: $CACHE/oldexec\n    src: $GAMEDIR/drive_c/Program Files/EA GAMES/Need for Speed Underground 2/speed2.exe\n- move:\n    dst: $GAMEDIR/drive_c/Program Files/EA GAMES/Need for Speed Underground 2/speed2.exe\n    src: $CACHE/nocdpatch/speed2.exe\n- extract:\n    dst: $CACHE/wspatch\n    file: wspatch\n- move:\n    dst: $GAMEDIR/drive_c/Program Files/EA GAMES/Need for Speed Underground 2/d3d9.dll\n    src: $CACHE/wspatch/dinput8.dll\n- move:\n    dst: $GAMEDIR/drive_c/Program Files/EA GAMES/Need for Speed Underground 2/scripts/\n    src: $CACHE/wspatch/scripts\n- input_menu:\n    description: Please choose your main desktop width for the widescreen patch\n    id: RESX\n    options:\n    - '256': '256'\n    - '426': '426'\n    - '640': '640'\n    - '768': '768'\n    - '800': '800'\n    - '848': '848'\n    - '854': '854'\n    - '960': '960'\n    - '1024': '1024'\n    - '1280': '1280'\n    - '1366': '1366'\n    - '1600': '1600'\n    - '1920': '1920'\n    - '2048': '2048'\n    - '2560': '2560'\n    - '2880': '2880'\n    - '3200': '3200'\n    - '3840': '3840'\n    - '4096': '4096'\n    - '5120': '5120'\n    - '7680': '7680'\n    - '15360': '15360'\n    preselect: '1920'\n- input_menu:\n    description: Please choose your main desktop height for the widescreen patch\n    id: RESY\n    options:\n    - '144': '144'\n    - '240': '240'\n    - '360': '360'\n    - '432': '432'\n    - '450': '450'\n    - '480': '480'\n    - '540': '540'\n    - '576': '576'\n    - '720': '720'\n    - '768': '768'\n    - '900': '900'\n    - '1080': '1080'\n    - '1152': '1152'\n    - '1440': '1440'\n    - '1620': '1620'\n    - '1800': '1800'\n    - '2160': '2160'\n    - '2304': '2304'\n    - '2880': '2880'\n    - '4320': '4320'\n    - '8640': '8640'\n    preselect: '1080'\n- input_menu:\n    description: Do you want to disable the intro\n    id: SKIP_INTRO\n    options:\n    - '1': 'Yes'\n    - '0': 'No'\n    preselect: '1'\n- input_menu:\n    description: Improve gamepad support by adding text to labels (widescreen patch\n      setting)\n    id: GAMEPAD\n    options:\n    - '0': None\n    - '1': XBox\n    - '2': PlayStation\n    preselect: '0'\n- write_config:\n    data:\n      MAIN:\n        ResX: $INPUT_RESX\n        ResY: $INPUT_RESY\n      MISC:\n        ImproveGamepadSupport: $INPUT_GAMEPAD\n        SkipIntro: $INPUT_SKIP_INTRO\n    file: $GAMEDIR/drive_c/Program Files/EA GAMES/Need for Speed Underground 2/scripts/NFSUnderground2.WidescreenFix.ini\nsystem:\n  prefix_command: taskset --cpu-list 0-3\nwine:\n  Desktop: true\n  overrides:\n  - dinput8: b\n  - d3d9: n,b\n",
  "discord_id": ""
}