{
  "id": 264770,
  "name": "Traversion",
  "slug": "traversion",
  "year": null,
  "banner_url": "",
  "icon_url": "",
  "coverart": "https://lutris.net/media/igdb/cover_big/co7b0g.jpg",
  "platforms": [],
  "provider_games": [
    {
      "name": "Traversion",
      "slug": "traversion",
      "service": "igdb"
    }
  ],
  "aliases": [],
  "shaders": [],
  "discord_id": "",
  "change_for": null
}