{
  "id": 21072,
  "name": "The Eerie Adventures Of Kally",
  "slug": "the-eerie-adventures-of-kally",
  "year": 2017,
  "banner_url": "https://lutris.net/games/banner/the-eerie-adventures-of-kally.jpg",
  "icon_url": "https://lutris.net/games/icon/the-eerie-adventures-of-kally.png",
  "coverart": "https://lutris.net/media/igdb/cover_big/co23c6.jpg",
  "platforms": [
    {
      "name": "Windows"
    }
  ],
  "provider_games": [
    {
      "name": "The Eerie Adventures Of Kally",
      "slug": "753390",
      "service": "steam"
    },
    {
      "name": "The Eerie Adventures of Kally",
      "slug": "the-eerie-adventures-of-kally",
      "service": "igdb"
    }
  ],
  "aliases": [],
  "shaders": [],
  "discord_id": "",
  "change_for": null
}