{
  "id": 64433,
  "name": "Virtual Skipper",
  "slug": "virtual-skipper",
  "year": null,
  "banner_url": "",
  "icon_url": "",
  "coverart": "https://lutris.net/media/igdb/cover_big/thvqumyho9iosj2exus8.jpg",
  "platforms": [],
  "provider_games": [
    {
      "name": "Virtual Skipper",
      "slug": "virtual-skipper",
      "service": "igdb"
    }
  ],
  "aliases": [],
  "shaders": [],
  "discord_id": "",
  "change_for": null
}