{
  "id": 23374,
  "game_id": 1766,
  "game_slug": "sonic-cd",
  "name": "Sonic CD",
  "year": 1993,
  "user": "ShironCat",
  "runner": "steam",
  "slug": "sonic-cd-proton",
  "version": "Proton",
  "description": null,
  "notes": "Start and stop the game for the first time so that steam installs the Proton prefix, then:\r\n\r\n- add PROTON_USE_WINED3D=1 to the launch options;\r\n- run \"protontricks 200940 d3dcompiler_43 d3dx9_43\";\r\n\r\nwith that, the game should run perfectly except for the video options (which means you'll only be able to play on fullscreen).",
  "credits": "",
  "created_at": "2020-09-15T17:07:39.268000Z",
  "updated_at": "2021-01-10T07:38:10.991857Z",
  "draft": false,
  "published": true,
  "published_by": 1,
  "rating": "",
  "is_playable": null,
  "steamid": 200940,
  "gogid": null,
  "gogslug": "",
  "humbleid": "",
  "humblestoreid": "",
  "humblestoreid_real": "sonic-cd",
  "script": {
    "game": {
      "appid": 200940
    }
  },
  "content": "game:\n  appid: 200940\n",
  "discord_id": ""
}