{
  "id": 261015,
  "name": "Purple Place",
  "slug": "purple-place",
  "year": null,
  "banner_url": "",
  "icon_url": "",
  "coverart": "https://lutris.net/media/igdb/cover_big/co75cu.jpg",
  "platforms": [],
  "provider_games": [
    {
      "name": "Purple Place",
      "slug": "purple-place",
      "service": "igdb"
    }
  ],
  "aliases": [],
  "shaders": [],
  "discord_id": "",
  "change_for": null
}