{
  "id": 282408,
  "name": "Bunniiies",
  "slug": "bunniiies",
  "year": null,
  "banner_url": "",
  "icon_url": "",
  "coverart": "https://lutris.net/media/igdb/cover_big/co825s.jpg",
  "platforms": [],
  "provider_games": [
    {
      "name": "Bunniiies",
      "slug": "bunniiies",
      "service": "igdb"
    }
  ],
  "aliases": [],
  "shaders": [],
  "discord_id": "",
  "change_for": null
}