{
  "id": 232230,
  "name": "Catchy Cheese",
  "slug": "catchy-cheese",
  "year": null,
  "banner_url": "",
  "icon_url": "",
  "coverart": null,
  "platforms": [],
  "provider_games": [
    {
      "name": "Catchy Cheese",
      "slug": "catchy-cheese",
      "service": "igdb"
    }
  ],
  "aliases": [],
  "shaders": [],
  "discord_id": "",
  "change_for": null
}