{
  "id": 259616,
  "name": "Megalothymia: Mokusei Zettai Bouei-ken - Heaven's Fall",
  "slug": "megalothymia-mokusei-zettai-bouei-ken-heavens-fall",
  "year": null,
  "banner_url": "",
  "icon_url": "",
  "coverart": "https://lutris.net/media/igdb/cover_big/co742b.jpg",
  "platforms": [],
  "provider_games": [
    {
      "name": "Megalothymia: Mokusei Zettai Bouei-ken - Heaven's Fall",
      "slug": "megalothymia-mokusei-zettai-bouei-ken-heavens-fall",
      "service": "igdb"
    }
  ],
  "aliases": [],
  "shaders": [],
  "discord_id": "",
  "change_for": null
}