{
  "id": 170815,
  "name": "Metal Fury 3000",
  "slug": "metal-fury-3000",
  "year": null,
  "banner_url": "",
  "icon_url": "",
  "coverart": "https://lutris.net/media/igdb/cover_big/co46y8.jpg",
  "platforms": [],
  "provider_games": [
    {
      "name": "Metal Fury 3000",
      "slug": "metal-fury-3000",
      "service": "igdb"
    }
  ],
  "aliases": [],
  "shaders": [],
  "discord_id": "",
  "change_for": null
}