{
  "id": 247198,
  "name": "Cassette Beasts: Deluxe Edition",
  "slug": "cassette-beasts-deluxe-edition",
  "year": 2023,
  "banner_url": "",
  "icon_url": "",
  "coverart": "https://lutris.net/media/igdb/cover_big/co6jwd.jpg",
  "platforms": [
    {
      "name": "Xbox One"
    },
    {
      "name": "Xbox Series X|S"
    }
  ],
  "provider_games": [
    {
      "name": "Cassette Beasts: Deluxe Edition",
      "slug": "cassette-beasts-deluxe-edition",
      "service": "igdb"
    }
  ],
  "aliases": [],
  "shaders": [],
  "discord_id": "",
  "change_for": null
}