{
  "id": 219368,
  "name": "Voidborn",
  "slug": "voidborn",
  "year": 2023,
  "banner_url": "https://lutris.net/games/banner/voidborn.jpg",
  "icon_url": "",
  "coverart": "https://lutris.net/media/igdb/cover_big/co5eie.jpg",
  "platforms": [
    {
      "name": "Windows"
    }
  ],
  "provider_games": [
    {
      "name": "Voidborn",
      "slug": "voidborn",
      "service": "igdb"
    },
    {
      "name": "Voidborn",
      "slug": "2072660",
      "service": "steam"
    }
  ],
  "aliases": [],
  "shaders": [],
  "discord_id": "",
  "change_for": null
}