{
  "id": 128986,
  "name": "Flight Simulator 2004: A Century Of Flight",
  "slug": "flight-simulator-2004-a-century-of-flight",
  "year": 2003,
  "banner_url": "",
  "icon_url": "",
  "coverart": "https://lutris.net/media/igdb/cover_big/n2nmwegnm6up7l8q1eg8.jpg",
  "platforms": [
    {
      "name": "Windows"
    }
  ],
  "provider_games": [
    {
      "name": "Flight Simulator 2004: A Century Of Flight",
      "slug": "flight-simulator-2004-a-century-of-flight",
      "service": "igdb"
    }
  ],
  "aliases": [],
  "shaders": [],
  "discord_id": "",
  "change_for": null
}