{
  "id": 84189,
  "name": "All-American Championship Football",
  "slug": "all-american-championship-football",
  "year": null,
  "banner_url": "",
  "icon_url": "",
  "coverart": null,
  "platforms": [],
  "provider_games": [
    {
      "name": "All-American Championship Football",
      "slug": "all-american-championship-football",
      "service": "igdb"
    }
  ],
  "aliases": [],
  "shaders": [],
  "discord_id": "",
  "change_for": null
}