{
  "id": 175504,
  "name": "Berserk Boy",
  "slug": "berserk-boy",
  "year": null,
  "banner_url": "",
  "icon_url": "",
  "coverart": "https://lutris.net/media/igdb/cover_big/co3p6p.jpg",
  "platforms": [
    {
      "name": "Windows"
    }
  ],
  "provider_games": [
    {
      "name": "Berserk Boy",
      "slug": "berserk-boy",
      "service": "igdb"
    },
    {
      "name": "Berserk Boy",
      "slug": "1372090895",
      "service": "gog"
    }
  ],
  "aliases": [],
  "shaders": [],
  "discord_id": "",
  "change_for": null
}