{
  "id": 30974,
  "name": "Shadow The Hedgehog",
  "slug": "shadow-the-hedgehog",
  "year": 2005,
  "banner_url": "https://lutris.net/games/banner/shadow-the-hedgehog.jpg",
  "icon_url": "",
  "coverart": "https://lutris.net/media/igdb/cover_big/co1up3.jpg",
  "platforms": [
    {
      "name": "Nintendo GameCube"
    },
    {
      "name": "Sony PlayStation 2"
    },
    {
      "name": "Sony Playstation 3"
    }
  ],
  "provider_games": [
    {
      "name": "Shadow the Hedgehog",
      "slug": "shadow-the-hedgehog",
      "service": "igdb"
    }
  ],
  "aliases": [],
  "shaders": [],
  "discord_id": "",
  "change_for": null
}