{
  "id": 195254,
  "name": "Surface Rush",
  "slug": "surface-rush",
  "year": null,
  "banner_url": "",
  "icon_url": "",
  "coverart": "https://lutris.net/media/igdb/cover_big/co4pja.jpg",
  "platforms": [],
  "provider_games": [
    {
      "name": "Surface Rush",
      "slug": "surface-rush",
      "service": "igdb"
    }
  ],
  "aliases": [],
  "shaders": [],
  "discord_id": "",
  "change_for": null
}