{
  "id": 220759,
  "name": "Professor Fuji's Sudoku",
  "slug": "professor-fujis-sudoku",
  "year": null,
  "banner_url": "",
  "icon_url": "",
  "coverart": null,
  "platforms": [],
  "provider_games": [
    {
      "name": "Professor Fuji's Sudoku",
      "slug": "professor-fujis-sudoku",
      "service": "igdb"
    }
  ],
  "aliases": [],
  "shaders": [],
  "discord_id": "",
  "change_for": null
}