{
  "id": 164331,
  "name": "Gizmos: Interstellar Voyage",
  "slug": "gizmos-interstellar-voyage",
  "year": null,
  "banner_url": "",
  "icon_url": "",
  "coverart": "https://lutris.net/media/igdb/cover_big/co41ak.jpg",
  "platforms": [],
  "provider_games": [
    {
      "name": "Gizmos: Interstellar Voyage",
      "slug": "gizmos-interstellar-voyage",
      "service": "igdb"
    }
  ],
  "aliases": [],
  "shaders": [],
  "discord_id": "",
  "change_for": null
}