{
  "id": 265044,
  "name": "Paper io 2: Animals Edition",
  "slug": "paper-io-2-animals-edition",
  "year": 2023,
  "banner_url": "",
  "icon_url": "",
  "coverart": null,
  "platforms": [
    {
      "name": "Nintendo Switch"
    }
  ],
  "provider_games": [
    {
      "name": "Paper io 2: Animals Edition",
      "slug": "paper-io-2-animals-edition",
      "service": "igdb"
    }
  ],
  "aliases": [],
  "shaders": [],
  "discord_id": "",
  "change_for": null
}