{
  "id": 66399,
  "name": "Spin & Play: Carnival Madness",
  "slug": "spin-and-play-carnival-madness",
  "year": null,
  "banner_url": "",
  "icon_url": "",
  "coverart": "https://lutris.net/media/igdb/cover_big/ndnrbbwgaxvjw9b4trhw.jpg",
  "platforms": [],
  "provider_games": [
    {
      "name": "Spin & Play: Carnival Madness",
      "slug": "spin-and-play-carnival-madness",
      "service": "igdb"
    }
  ],
  "aliases": [],
  "shaders": [],
  "discord_id": "",
  "change_for": null
}