{
  "id": 287005,
  "name": "EOL: End Of Line",
  "slug": "eol-end-of-line",
  "year": null,
  "banner_url": "",
  "icon_url": "",
  "coverart": "https://lutris.net/media/igdb/cover_big/co89w4.jpg",
  "platforms": [],
  "provider_games": [
    {
      "name": "EOL: End Of Line",
      "slug": "eol-end-of-line",
      "service": "igdb"
    }
  ],
  "aliases": [],
  "shaders": [],
  "discord_id": "",
  "change_for": null
}