{
  "id": 602,
  "game_id": 1202,
  "game_slug": "beatbuddy-tale-of-the-guardians",
  "name": "Beatbuddy: Tale of the Guardians",
  "year": 2013,
  "user": "Xodetaetl",
  "runner": "steam",
  "slug": "beatbuddy-tale-of-the-guardian-demo-steam",
  "version": "Demo steam",
  "description": "",
  "notes": "",
  "credits": "",
  "created_at": "2014-09-14T21:20:05.004000Z",
  "updated_at": "2014-09-14T21:20:10.329000Z",
  "draft": false,
  "published": true,
  "published_by": null,
  "rating": "",
  "is_playable": null,
  "steamid": 231040,
  "gogid": 1207662533,
  "gogslug": "beatbuddy_tale_of_the_guardians",
  "humbleid": "beatbuddy",
  "humblestoreid": "beatbuddy",
  "humblestoreid_real": "beatbuddy",
  "script": {
    "game": {
      "appid": 249150
    }
  },
  "content": "game:\n  appid: 249150\n",
  "discord_id": ""
}