{
  "id": 299304,
  "name": "Teeny Tiny Harbors",
  "slug": "teeny-tiny-harbors",
  "year": 2025,
  "banner_url": "",
  "icon_url": "",
  "coverart": "https://lutris.net/media/igdb/cover_big/co8wzq.jpg",
  "platforms": [
    {
      "name": "Android"
    },
    {
      "name": "Windows"
    }
  ],
  "provider_games": [
    {
      "name": "Teeny Tiny Harbors",
      "slug": "teeny-tiny-harbors",
      "service": "igdb"
    }
  ],
  "aliases": [],
  "shaders": [],
  "discord_id": "",
  "change_for": null
}