{
  "id": 109413,
  "name": "Heaven's Dawn",
  "slug": "heavens-dawn",
  "year": 1995,
  "banner_url": "",
  "icon_url": "",
  "coverart": "https://lutris.net/media/igdb/cover_big/co2y50.jpg",
  "platforms": [],
  "provider_games": [
    {
      "name": "Heaven's Dawn",
      "slug": "heavens-dawn",
      "service": "igdb"
    }
  ],
  "aliases": [],
  "shaders": [],
  "discord_id": "",
  "change_for": null
}