{
  "id": 263242,
  "name": "Escape From San Angelos 2",
  "slug": "escape-from-san-angelos-2",
  "year": 1997,
  "banner_url": "",
  "icon_url": "",
  "coverart": null,
  "platforms": [
    {
      "name": "Windows"
    }
  ],
  "provider_games": [
    {
      "name": "Escape From San Angelos 2",
      "slug": "escape-from-san-angelos-2",
      "service": "igdb"
    }
  ],
  "aliases": [],
  "shaders": [],
  "discord_id": "",
  "change_for": null
}