{
  "id": 25776,
  "game_id": 41003,
  "game_slug": "retro-online",
  "name": "retRO Online",
  "year": 2021,
  "user": "tekky",
  "runner": "wine",
  "slug": "retro-online-standard",
  "version": "standard",
  "description": "Standard retRO Online version",
  "notes": "Open \"opensetup.exe\" using \"Run EXE inside of Wine prefix\" for client configuration.",
  "credits": "",
  "created_at": "2021-01-16T13:54:19.808000Z",
  "updated_at": "2021-09-19T14:56:16.086559Z",
  "draft": false,
  "published": true,
  "published_by": 55808,
  "rating": "",
  "is_playable": null,
  "steamid": null,
  "gogid": null,
  "gogslug": "",
  "humbleid": "",
  "humblestoreid": "",
  "humblestoreid_real": "",
  "script": {
    "files": [
      {
        "installer": "https://cdn.retro-online.eu/download/retRO_installer.exe"
      }
    ],
    "game": {
      "arch": "win32",
      "exe": "$GAMEDIR/drive_c/retro/retRO Patcher.exe",
      "prefix": "$GAMEDIR",
      "working_dir": "$GAMEDIR/drive_c/retro"
    },
    "installer": [
      {
        "task": {
          "arch": "win32",
          "install_mono": false,
          "name": "create_prefix",
          "prefix": "$GAMEDIR"
        }
      },
      {
        "task": {
          "args": "/SILENT /SP- /NOCANCEL /NORESTART /DIR=\"C:\\retro\"",
          "description": "Running installer",
          "executable": "installer",
          "name": "wineexec"
        }
      },
      {
        "execute": {
          "command": "sed -i 's/^WindowLock *= *0/WindowLock =1/g' $GAMEDIR/drive_c/retro/dinput.ini",
          "description": "Configuring WindowLock"
        }
      },
      {
        "execute": {
          "command": "sed -i 's/^MouseFreedom *= *0/MouseFreedom =1/g' $GAMEDIR/drive_c/retro/dinput.ini",
          "description": "Configuring MouseFreedom"
        }
      },
      {
        "task": {
          "description": "Running opensetup",
          "executable": "$GAMEDIR/drive_c/retro/opensetup.exe",
          "name": "wineexec",
          "prefix": "$GAMEDIR"
        }
      }
    ],
    "require-binaries": "sed",
    "wine": {
      "dxvk": false,
      "overrides": {
        "dinput": "n,b"
      }
    }
  },
  "content": "files:\n- installer: https://cdn.retro-online.eu/download/retRO_installer.exe\ngame:\n  arch: win32\n  exe: $GAMEDIR/drive_c/retro/retRO Patcher.exe\n  prefix: $GAMEDIR\n  working_dir: $GAMEDIR/drive_c/retro\ninstaller:\n- task:\n    arch: win32\n    install_mono: false\n    name: create_prefix\n    prefix: $GAMEDIR\n- task:\n    args: /SILENT /SP- /NOCANCEL /NORESTART /DIR=\"C:\\retro\"\n    description: Running installer\n    executable: installer\n    name: wineexec\n- execute:\n    command: sed -i 's/^WindowLock *= *0/WindowLock =1/g' $GAMEDIR/drive_c/retro/dinput.ini\n    description: Configuring WindowLock\n- execute:\n    command: sed -i 's/^MouseFreedom *= *0/MouseFreedom =1/g' $GAMEDIR/drive_c/retro/dinput.ini\n    description: Configuring MouseFreedom\n- task:\n    description: Running opensetup\n    executable: $GAMEDIR/drive_c/retro/opensetup.exe\n    name: wineexec\n    prefix: $GAMEDIR\nrequire-binaries: sed\nwine:\n  dxvk: false\n  overrides:\n    dinput: n,b\n",
  "discord_id": ""
}