{
  "id": 115447,
  "name": "The Hunt for the Lost Treasure",
  "slug": "the-hunt-for-the-lost-treasure--1",
  "year": 2015,
  "banner_url": "",
  "icon_url": "",
  "coverart": "https://lutris.net/media/igdb/cover_big/co3cda.jpg",
  "platforms": [
    {
      "name": "Android"
    },
    {
      "name": "Mac"
    }
  ],
  "provider_games": [
    {
      "name": "The Hunt for the Lost Treasure",
      "slug": "the-hunt-for-the-lost-treasure--1",
      "service": "igdb"
    }
  ],
  "aliases": [],
  "shaders": [],
  "discord_id": "",
  "change_for": null
}