{
  "id": 8905,
  "game_id": 16009,
  "game_slug": "requiescence",
  "name": "Requiescence",
  "year": 2016,
  "user": "kimchitea",
  "runner": "steam",
  "slug": "requiescence-steam",
  "version": "Steam",
  "description": null,
  "notes": "",
  "credits": "",
  "created_at": "2018-06-25T15:36:04.347000Z",
  "updated_at": "2018-06-26T03:41:04.397565Z",
  "draft": false,
  "published": true,
  "published_by": null,
  "rating": "",
  "is_playable": null,
  "steamid": 530360,
  "gogid": null,
  "gogslug": "",
  "humbleid": "",
  "humblestoreid": "",
  "humblestoreid_real": "",
  "script": {
    "game": {
      "appid": 530360
    }
  },
  "content": "game:\n  appid: 530360\n",
  "discord_id": ""
}