{
  "id": 218130,
  "name": "Urban Trial Pocket",
  "slug": "urban-trial-pocket",
  "year": null,
  "banner_url": "",
  "icon_url": "",
  "coverart": null,
  "platforms": [],
  "provider_games": [
    {
      "name": "Urban Trial Pocket",
      "slug": "urban-trial-pocket",
      "service": "igdb"
    }
  ],
  "aliases": [],
  "shaders": [],
  "discord_id": "",
  "change_for": null
}