{
  "id": 3523,
  "name": "Icewind Dale: Enhanced Edition",
  "slug": "icewind-dale-enhanced-edition",
  "year": 2014,
  "banner_url": "https://lutris.net/games/banner/icewind-dale-enhanced-edition.jpg",
  "icon_url": "https://lutris.net/games/icon/icewind-dale-enhanced-edition.png",
  "coverart": "https://lutris.net/media/igdb/cover_big/co1t8i.jpg",
  "platforms": [
    {
      "name": "Linux"
    },
    {
      "name": "Mac"
    },
    {
      "name": "Nintendo Switch"
    },
    {
      "name": "Sony Playstation 4"
    },
    {
      "name": "Windows"
    },
    {
      "name": "Xbox One"
    }
  ],
  "provider_games": [
    {
      "name": "Icewind Dale: Enhanced Edition",
      "slug": "1207666683",
      "service": "gog"
    },
    {
      "name": "Icewind Dale: Enhanced Edition",
      "slug": "321800",
      "service": "steam"
    },
    {
      "name": "Icewind Dale: Enhanced Edition",
      "slug": "icewind-dale-enhanced-edition",
      "service": "igdb"
    }
  ],
  "aliases": [],
  "shaders": [],
  "discord_id": "",
  "change_for": null
}