{
  "id": 238767,
  "name": "Stories Want to Be Told Storyone: Prophecy",
  "slug": "stories-want-to-be-told-storyone-prophecy",
  "year": null,
  "banner_url": "",
  "icon_url": "",
  "coverart": "https://lutris.net/media/igdb/cover_big/co63vv.jpg",
  "platforms": [],
  "provider_games": [
    {
      "name": "Stories Want to Be Told Storyone: Prophecy",
      "slug": "stories-want-to-be-told-storyone-prophecy",
      "service": "igdb"
    }
  ],
  "aliases": [],
  "shaders": [],
  "discord_id": "",
  "change_for": null
}