{
  "id": 6014,
  "name": "The Ables: Freepoint High",
  "slug": "the-ables-freepoint-high",
  "year": 2016,
  "banner_url": "https://lutris.net/games/banner/the-ables-freepoint-high.jpg",
  "icon_url": "https://lutris.net/games/icon/the-ables-freepoint-high.png",
  "coverart": null,
  "platforms": [
    {
      "name": "Mac"
    },
    {
      "name": "Windows"
    }
  ],
  "provider_games": [
    {
      "name": "The Ables: Freepoint High",
      "slug": "427640",
      "service": "steam"
    },
    {
      "name": "The Ables: Freepoint High",
      "slug": "the-ables-freepoint-high",
      "service": "igdb"
    }
  ],
  "aliases": [],
  "shaders": [],
  "discord_id": "",
  "change_for": null
}