{
  "id": 207211,
  "name": "Omni Magic!",
  "slug": "omni-magic",
  "year": null,
  "banner_url": "",
  "icon_url": "",
  "coverart": "https://lutris.net/media/igdb/cover_big/co5j1g.jpg",
  "platforms": [],
  "provider_games": [
    {
      "name": "Omni Magic!",
      "slug": "omni-magic",
      "service": "igdb"
    }
  ],
  "aliases": [],
  "shaders": [],
  "discord_id": "",
  "change_for": null
}