{
  "id": 109277,
  "name": "Fuuun Gokuu Ninden",
  "slug": "fuuun-gokuu-ninden",
  "year": null,
  "banner_url": "",
  "icon_url": "",
  "coverart": "https://lutris.net/media/igdb/cover_big/co2xud.jpg",
  "platforms": [],
  "provider_games": [
    {
      "name": "Fuuun Gokuu Ninden",
      "slug": "fuuun-gokuu-ninden",
      "service": "igdb"
    }
  ],
  "aliases": [],
  "shaders": [],
  "discord_id": "",
  "change_for": null
}