{
  "id": 89929,
  "name": "Diamond Stacks",
  "slug": "diamond-stacks",
  "year": null,
  "banner_url": "",
  "icon_url": "",
  "coverart": null,
  "platforms": [],
  "provider_games": [
    {
      "name": "Diamond Stacks",
      "slug": "diamond-stacks",
      "service": "igdb"
    }
  ],
  "aliases": [],
  "shaders": [],
  "discord_id": "",
  "change_for": null
}