{
  "id": 69953,
  "name": "R.O.M. Gold - Rings of Medusa",
  "slug": "rom-gold-rings-of-medusa",
  "year": null,
  "banner_url": "",
  "icon_url": "",
  "coverart": null,
  "platforms": [],
  "provider_games": [
    {
      "name": "R.O.M. Gold - Rings of Medusa",
      "slug": "rom-gold-rings-of-medusa",
      "service": "igdb"
    }
  ],
  "aliases": [],
  "shaders": [],
  "discord_id": "",
  "change_for": null
}