{
  "id": 65445,
  "name": "FizzBall",
  "slug": "fizzball",
  "year": null,
  "banner_url": "",
  "icon_url": "",
  "coverart": "https://lutris.net/media/igdb/cover_big/kihn2ryhgcrzq6qzm2zz.jpg",
  "platforms": [],
  "provider_games": [
    {
      "name": "FizzBall",
      "slug": "fizzball",
      "service": "igdb"
    }
  ],
  "aliases": [],
  "shaders": [],
  "discord_id": "",
  "change_for": null
}