{
  "id": 137089,
  "name": "No More Room in Hell 2",
  "slug": "no-more-room-in-hell-2",
  "year": null,
  "banner_url": "",
  "icon_url": "",
  "coverart": "https://lutris.net/media/igdb/cover_big/co3q76.jpg",
  "platforms": [],
  "provider_games": [
    {
      "name": "No More Room in Hell 2",
      "slug": "no-more-room-in-hell-2",
      "service": "igdb"
    }
  ],
  "aliases": [],
  "shaders": [],
  "discord_id": "",
  "change_for": null
}