{
  "id": 81888,
  "name": "Guadalcanal Campaign",
  "slug": "guadalcanal-campaign",
  "year": 1982,
  "banner_url": "",
  "icon_url": "",
  "coverart": "https://lutris.net/media/igdb/cover_big/co7mzq.jpg",
  "platforms": [
    {
      "name": "Apple II"
    }
  ],
  "provider_games": [
    {
      "name": "Guadalcanal Campaign",
      "slug": "guadalcanal-campaign",
      "service": "igdb"
    }
  ],
  "aliases": [],
  "shaders": [],
  "discord_id": "",
  "change_for": null
}