{
  "id": 274643,
  "name": "Shot Put",
  "slug": "shot-put",
  "year": 2002,
  "banner_url": "",
  "icon_url": "",
  "coverart": null,
  "platforms": [
    {
      "name": "Family Computer"
    }
  ],
  "provider_games": [
    {
      "name": "Shot Put",
      "slug": "shot-put",
      "service": "igdb"
    }
  ],
  "aliases": [],
  "shaders": [],
  "discord_id": "",
  "change_for": null
}