{
  "id": 17375,
  "name": "The Making of Horizon Zero Dawn",
  "slug": "the-making-of-horizon-zero-dawn",
  "year": null,
  "banner_url": "https://lutris.net/games/banner/the-making-of-horizon-zero-dawn.jpg",
  "icon_url": "https://lutris.net/games/icon/the-making-of-horizon-zero-dawn.png",
  "coverart": null,
  "platforms": [],
  "provider_games": [
    {
      "name": "The Making of Horizon Zero Dawn",
      "slug": "804410",
      "service": "steam"
    }
  ],
  "aliases": [],
  "shaders": [],
  "discord_id": "",
  "change_for": null
}