{
  "id": 157496,
  "name": "Johnny Turbo's Arcade: Shoot Out",
  "slug": "johnny-turbos-arcade-shoot-out",
  "year": 2018,
  "banner_url": "",
  "icon_url": "",
  "coverart": "https://lutris.net/media/igdb/cover_big/co4jcr.jpg",
  "platforms": [
    {
      "name": "Nintendo Switch"
    }
  ],
  "provider_games": [
    {
      "name": "Johnny Turbo's Arcade: Shoot Out",
      "slug": "johnny-turbos-arcade-shoot-out",
      "service": "igdb"
    }
  ],
  "aliases": [],
  "shaders": [],
  "discord_id": "",
  "change_for": null
}