{
  "id": 45564,
  "name": "A New Beginning: Final Cut Edition",
  "slug": "a-new-beginning-final-cut-edition",
  "year": null,
  "banner_url": "",
  "icon_url": "",
  "coverart": null,
  "platforms": [],
  "provider_games": [
    {
      "name": "A New Beginning: Final Cut Edition",
      "slug": "a-new-beginning-final-cut-edition",
      "service": "igdb"
    }
  ],
  "aliases": [],
  "shaders": [],
  "discord_id": "",
  "change_for": null
}