{
  "id": 178591,
  "name": "Sky Racket",
  "slug": "sky-racket",
  "year": 2019,
  "banner_url": "https://lutris.net/games/banner/sky-racket.jpg",
  "icon_url": "",
  "coverart": "https://lutris.net/media/igdb/cover_big/co1t0i.jpg",
  "platforms": [
    {
      "name": "Nintendo Switch"
    },
    {
      "name": "Windows"
    }
  ],
  "provider_games": [
    {
      "name": "Sky Racket",
      "slug": "994500",
      "service": "steam"
    },
    {
      "name": "Sky Racket",
      "slug": "sky-racket",
      "service": "igdb"
    }
  ],
  "aliases": [],
  "shaders": [],
  "discord_id": "",
  "change_for": null
}