{
  "id": 206470,
  "name": "List",
  "slug": "list",
  "year": null,
  "banner_url": "",
  "icon_url": "",
  "coverart": "https://lutris.net/media/igdb/cover_big/co5upk.jpg",
  "platforms": [],
  "provider_games": [
    {
      "name": "List",
      "slug": "list",
      "service": "igdb"
    }
  ],
  "aliases": [],
  "shaders": [],
  "discord_id": "",
  "change_for": null
}