{
  "id": 184892,
  "name": "Mr. Gray and the Island Invasion",
  "slug": "mr-gray-and-the-island-invasion",
  "year": null,
  "banner_url": "",
  "icon_url": "",
  "coverart": null,
  "platforms": [],
  "provider_games": [
    {
      "name": "Mr. Gray and the Island Invasion",
      "slug": "mr-gray-and-the-island-invasion",
      "service": "igdb"
    }
  ],
  "aliases": [],
  "shaders": [],
  "discord_id": "",
  "change_for": null
}