{
  "id": 207304,
  "name": "Bombing!! 2: A Graffiti Paradise",
  "slug": "bombing-2-a-graffiti-paradise",
  "year": null,
  "banner_url": "",
  "icon_url": "",
  "coverart": "https://lutris.net/media/igdb/cover_big/co5rwy.jpg",
  "platforms": [
    {
      "name": "Windows"
    }
  ],
  "provider_games": [
    {
      "name": "Bombing!! 2: A Graffiti Paradise",
      "slug": "bombing-2-a-graffiti-paradise",
      "service": "igdb"
    }
  ],
  "aliases": [],
  "shaders": [],
  "discord_id": "",
  "change_for": null
}