{
  "id": 213323,
  "name": "Insomnia: Theater in the Head",
  "slug": "insomnia-theater-in-the-head",
  "year": 2022,
  "banner_url": "",
  "icon_url": "",
  "coverart": "https://lutris.net/media/igdb/cover_big/co5yi0.jpg",
  "platforms": [
    {
      "name": "Mac"
    },
    {
      "name": "Windows"
    }
  ],
  "provider_games": [
    {
      "name": "Insomnia: Theater in the Head",
      "slug": "insomnia-theater-in-the-head",
      "service": "igdb"
    }
  ],
  "aliases": [],
  "shaders": [],
  "discord_id": "",
  "change_for": null
}