{
  "id": 171068,
  "name": "Pokie The Stickfigure",
  "slug": "pokie-the-stickfigure",
  "year": null,
  "banner_url": "",
  "icon_url": "",
  "coverart": "https://lutris.net/media/igdb/cover_big/co475w.jpg",
  "platforms": [],
  "provider_games": [
    {
      "name": "Pokie the Stickfigure",
      "slug": "pokie-the-stickfigure",
      "service": "igdb"
    }
  ],
  "aliases": [],
  "shaders": [],
  "discord_id": "",
  "change_for": null
}