{
  "id": 293564,
  "name": "Shadows And Monsters",
  "slug": "shadows-and-monsters",
  "year": null,
  "banner_url": "",
  "icon_url": "",
  "coverart": "https://lutris.net/media/igdb/cover_big/co8ni7.jpg",
  "platforms": [],
  "provider_games": [
    {
      "name": "Shadows And Monsters",
      "slug": "shadows-and-monsters",
      "service": "igdb"
    }
  ],
  "aliases": [],
  "shaders": [],
  "discord_id": "",
  "change_for": null
}