{
  "id": 219289,
  "name": "Zombielantis",
  "slug": "zombielantis",
  "year": null,
  "banner_url": "",
  "icon_url": "",
  "coverart": "https://lutris.net/media/igdb/cover_big/co594x.jpg",
  "platforms": [],
  "provider_games": [
    {
      "name": "Zombielantis",
      "slug": "zombielantis",
      "service": "igdb"
    }
  ],
  "aliases": [],
  "shaders": [],
  "discord_id": "",
  "change_for": null
}