{
  "id": 73425,
  "name": "GuitarFreaks 3rdMIX & DrumMania 2ndMIX",
  "slug": "guitarfreaks-3rdmix-and-drummania-2ndmix",
  "year": null,
  "banner_url": "",
  "icon_url": "",
  "coverart": "https://lutris.net/media/igdb/cover_big/co739k.jpg",
  "platforms": [],
  "provider_games": [
    {
      "name": "GuitarFreaks 3rdMix & DrumMania 2ndMix",
      "slug": "guitarfreaks-3rdmix-and-drummania-2ndmix",
      "service": "igdb"
    }
  ],
  "aliases": [],
  "shaders": [],
  "discord_id": "",
  "change_for": null
}