{
  "id": 70326,
  "name": "Charm Girls Club: My Charmed Life",
  "slug": "charm-girls-club-my-charmed-life",
  "year": null,
  "banner_url": "",
  "icon_url": "",
  "coverart": null,
  "platforms": [],
  "provider_games": [
    {
      "name": "Charm Girls Club: My Charmed Life",
      "slug": "charm-girls-club-my-charmed-life",
      "service": "igdb"
    }
  ],
  "aliases": [],
  "shaders": [],
  "discord_id": "",
  "change_for": null
}