{
  "id": 289587,
  "name": "The White Canvas",
  "slug": "the-white-canvas",
  "year": 2015,
  "banner_url": "",
  "icon_url": "",
  "coverart": "https://lutris.net/media/igdb/cover_big/co8d7n.jpg",
  "platforms": [
    {
      "name": "Windows"
    }
  ],
  "provider_games": [
    {
      "name": "The White Canvas",
      "slug": "the-white-canvas",
      "service": "igdb"
    }
  ],
  "aliases": [],
  "shaders": [],
  "discord_id": "",
  "change_for": null
}