{
  "id": 36195,
  "name": "Toy Land Adventure",
  "slug": "toy-land-adventure",
  "year": 2001,
  "banner_url": "",
  "icon_url": "https://lutris.net/games/icon/toy-land-adventure.png",
  "coverart": null,
  "platforms": [
    {
      "name": "Arcade"
    }
  ],
  "provider_games": [
    {
      "name": "Toy Land Adventure",
      "slug": "toyland",
      "service": "mame"
    }
  ],
  "aliases": [],
  "shaders": [],
  "discord_id": "",
  "change_for": null
}