{
  "id": 238646,
  "name": "Survival Shot",
  "slug": "survival-shot",
  "year": null,
  "banner_url": "",
  "icon_url": "",
  "coverart": "https://lutris.net/media/igdb/cover_big/co654e.jpg",
  "platforms": [],
  "provider_games": [
    {
      "name": "Survival Shot",
      "slug": "survival-shot",
      "service": "igdb"
    }
  ],
  "aliases": [],
  "shaders": [],
  "discord_id": "",
  "change_for": null
}