{
  "id": 74663,
  "name": "Oracle of Askigaga",
  "slug": "oracle-of-askigaga",
  "year": null,
  "banner_url": "",
  "icon_url": "",
  "coverart": null,
  "platforms": [],
  "provider_games": [
    {
      "name": "Oracle of Askigaga",
      "slug": "oracle-of-askigaga",
      "service": "igdb"
    }
  ],
  "aliases": [],
  "shaders": [],
  "discord_id": "",
  "change_for": null
}