{
  "id": 181818,
  "name": "Wasteland 2: Director's Cut - Digital Classic Edition",
  "slug": "wasteland-2-directors-cut-digital-classic-edition",
  "year": 2014,
  "banner_url": "",
  "icon_url": "",
  "coverart": "https://lutris.net/media/igdb/cover_big/co1w07.jpg",
  "platforms": [
    {
      "name": "Windows"
    }
  ],
  "provider_games": [
    {
      "name": "Wasteland 2: Director's Cut - Digital Classic Edition",
      "slug": "wasteland-2-directors-cut-digital-classic-edition",
      "service": "igdb"
    }
  ],
  "aliases": [],
  "shaders": [],
  "discord_id": "",
  "change_for": null
}