{
  "id": 39799,
  "name": "PrprLive",
  "slug": "prprlive",
  "year": null,
  "banner_url": "https://lutris.net/games/banner/prprlive.jpg",
  "icon_url": "https://lutris.net/games/icon/prprlive.png",
  "coverart": null,
  "platforms": [],
  "provider_games": [
    {
      "name": "PrprLive",
      "slug": "1279610",
      "service": "steam"
    }
  ],
  "aliases": [],
  "shaders": [],
  "discord_id": "",
  "change_for": null
}