{
  "id": 249448,
  "name": "Drag Her!",
  "slug": "drag-her",
  "year": null,
  "banner_url": "",
  "icon_url": "",
  "coverart": "https://lutris.net/media/igdb/cover_big/co6m8v.jpg",
  "platforms": [
    {
      "name": "Xbox Series X|S"
    }
  ],
  "provider_games": [
    {
      "name": "Drag Her!",
      "slug": "drag-her",
      "service": "igdb"
    }
  ],
  "aliases": [],
  "shaders": [],
  "discord_id": "",
  "change_for": null
}