{
  "id": 134517,
  "name": "Buzz Kill Zero",
  "slug": "buzz-kill-zero",
  "year": 2019,
  "banner_url": "",
  "icon_url": "",
  "coverart": "https://lutris.net/media/igdb/cover_big/co3moh.jpg",
  "platforms": [
    {
      "name": "Windows"
    }
  ],
  "provider_games": [
    {
      "name": "Buzz Kill Zero",
      "slug": "buzz-kill-zero",
      "service": "igdb"
    }
  ],
  "aliases": [],
  "shaders": [],
  "discord_id": "",
  "change_for": null
}