{
  "id": 182229,
  "name": "Sokker Mayhem",
  "slug": "sokker-mayhem",
  "year": null,
  "banner_url": "",
  "icon_url": "",
  "coverart": null,
  "platforms": [],
  "provider_games": [
    {
      "name": "Sokker Mayhem",
      "slug": "sokker-mayhem",
      "service": "igdb"
    }
  ],
  "aliases": [],
  "shaders": [],
  "discord_id": "",
  "change_for": null
}