{
  "id": 191501,
  "name": "Age of History 2",
  "slug": "age-of-history-2",
  "year": 2017,
  "banner_url": "https://lutris.net/games/banner/age-of-history-2.jpg",
  "icon_url": "",
  "coverart": null,
  "platforms": [
    {
      "name": "Windows"
    }
  ],
  "provider_games": [],
  "aliases": [],
  "shaders": [],
  "discord_id": "",
  "change_for": null
}