{
  "id": 143086,
  "name": "Cast Piercer",
  "slug": "cast-piercer",
  "year": null,
  "banner_url": "",
  "icon_url": "",
  "coverart": "https://lutris.net/media/igdb/cover_big/co3u4n.jpg",
  "platforms": [],
  "provider_games": [
    {
      "name": "Cast Piercer",
      "slug": "cast-piercer",
      "service": "igdb"
    }
  ],
  "aliases": [],
  "shaders": [],
  "discord_id": "",
  "change_for": null
}