{
  "id": 192905,
  "name": "Rock Garden Deluxe",
  "slug": "rock-garden-deluxe",
  "year": 2010,
  "banner_url": "",
  "icon_url": "",
  "coverart": "https://lutris.net/media/igdb/cover_big/co4jum.jpg",
  "platforms": [
    {
      "name": "Browser"
    }
  ],
  "provider_games": [
    {
      "name": "Rock Garden Deluxe",
      "slug": "rock-garden-deluxe",
      "service": "igdb"
    }
  ],
  "aliases": [],
  "shaders": [],
  "discord_id": "",
  "change_for": null
}