{
  "id": 176701,
  "name": "The Netrunner Awaken1ng",
  "slug": "the-netrunner-awaken1ng",
  "year": 2022,
  "banner_url": "",
  "icon_url": "",
  "coverart": "https://lutris.net/media/igdb/cover_big/co49ce.jpg",
  "platforms": [
    {
      "name": "Windows"
    }
  ],
  "provider_games": [
    {
      "name": "The Netrunner Awaken1ng",
      "slug": "the-netrunner-awaken1ng",
      "service": "igdb"
    }
  ],
  "aliases": [],
  "shaders": [],
  "discord_id": "",
  "change_for": null
}