{
  "id": 226796,
  "name": "LEGO Legends of Chima: Laval's Journey",
  "slug": "lego-legends-of-chima-lavals-journey",
  "year": 2013,
  "banner_url": "",
  "icon_url": "",
  "coverart": null,
  "platforms": [
    {
      "name": "Nintendo 3DS"
    },
    {
      "name": "Nintendo DS"
    },
    {
      "name": "PlayStation Vita"
    }
  ],
  "provider_games": [
    {
      "name": "LEGO Legends of Chima: Laval's Journey",
      "slug": "lego-legends-of-chima-lavals-journey",
      "service": "igdb"
    }
  ],
  "aliases": [],
  "shaders": [],
  "discord_id": "",
  "change_for": null
}