{
  "id": 19947,
  "name": "ASCIIpOrtal",
  "slug": "asciiportal",
  "year": null,
  "banner_url": "https://lutris.net/games/banner/asciiportal.jpg",
  "icon_url": "",
  "coverart": null,
  "platforms": [
    {
      "name": "Linux"
    }
  ],
  "provider_games": [],
  "aliases": [],
  "shaders": [],
  "discord_id": "",
  "change_for": null
}