{
  "id": 243034,
  "name": "The Legend of Heroes: Trails to Azure - Deluxe Edition",
  "slug": "the-legend-of-heroes-trails-to-azure-deluxe-edition",
  "year": 2023,
  "banner_url": "",
  "icon_url": "",
  "coverart": "https://lutris.net/media/igdb/cover_big/co6gw2.jpg",
  "platforms": [
    {
      "name": "Nintendo Switch"
    },
    {
      "name": "Sony Playstation 4"
    }
  ],
  "provider_games": [
    {
      "name": "The Legend of Heroes: Trails to Azure - Deluxe Edition",
      "slug": "the-legend-of-heroes-trails-to-azure-deluxe-edition",
      "service": "igdb"
    }
  ],
  "aliases": [],
  "shaders": [],
  "discord_id": "",
  "change_for": null
}