{
  "id": 153240,
  "name": "Twilight Phenomena: The Lodgers of House 13 Collector's Edition",
  "slug": "twilight-phenomena-the-lodgers-of-house-13-collectors-edition",
  "year": 2017,
  "banner_url": "",
  "icon_url": "",
  "coverart": "https://lutris.net/media/igdb/cover_big/co5us0.jpg",
  "platforms": [
    {
      "name": "Windows"
    }
  ],
  "provider_games": [
    {
      "name": "Twilight Phenomena: The Lodgers of House 13 Collector's Edition",
      "slug": "twilight-phenomena-the-lodgers-of-house-13-collectors-edition",
      "service": "igdb"
    }
  ],
  "aliases": [],
  "shaders": [],
  "discord_id": "",
  "change_for": null
}