{
  "id": 194895,
  "name": "SNK vs. Capcom: The Match of the Millenium - Best Collection",
  "slug": "snk-vs-capcom-the-match-of-the-millenium-best-collection",
  "year": 2001,
  "banner_url": "",
  "icon_url": "",
  "coverart": null,
  "platforms": [
    {
      "name": "Neo Geo Pocket Color"
    }
  ],
  "provider_games": [
    {
      "name": "SNK vs. Capcom: The Match of the Millenium - Best Collection",
      "slug": "snk-vs-capcom-the-match-of-the-millenium-best-collection",
      "service": "igdb"
    }
  ],
  "aliases": [],
  "shaders": [],
  "discord_id": "",
  "change_for": null
}