{
  "id": 7144,
  "name": "UGT - 2. S.P. Texturing - 1.2",
  "slug": "ugt-2-sp-texturing-12",
  "year": null,
  "banner_url": "https://lutris.net/games/banner/ugt-2-sp-texturing-12.jpg",
  "icon_url": "https://lutris.net/games/icon/ugt-2-sp-texturing-12.png",
  "coverart": null,
  "platforms": [],
  "provider_games": [
    {
      "name": "UGT - 2. S.P. Texturing - 1.2",
      "slug": "425687",
      "service": "steam"
    }
  ],
  "aliases": [],
  "shaders": [],
  "discord_id": "",
  "change_for": null
}