{
  "id": 227692,
  "name": "Crash Course",
  "slug": "crash-course--1",
  "year": null,
  "banner_url": "",
  "icon_url": "",
  "coverart": "https://lutris.net/media/igdb/cover_big/co5d6f.jpg",
  "platforms": [],
  "provider_games": [
    {
      "name": "Crash Course",
      "slug": "crash-course--1",
      "service": "igdb"
    }
  ],
  "aliases": [],
  "shaders": [],
  "discord_id": "",
  "change_for": null
}