{
  "id": 283809,
  "name": "Giana Sisters DS",
  "slug": "giana-sisters-ds--1",
  "year": 2007,
  "banner_url": "",
  "icon_url": "",
  "coverart": null,
  "platforms": [
    {
      "name": "Nintendo DS"
    }
  ],
  "provider_games": [
    {
      "name": "Giana Sisters DS",
      "slug": "giana-sisters-ds--1",
      "service": "igdb"
    }
  ],
  "aliases": [],
  "shaders": [],
  "discord_id": "",
  "change_for": null
}