{
  "id": 222921,
  "name": "Bubble Burst Remix",
  "slug": "bubble-burst-remix",
  "year": null,
  "banner_url": "",
  "icon_url": "",
  "coverart": "https://lutris.net/media/igdb/cover_big/co4x1y.jpg",
  "platforms": [],
  "provider_games": [
    {
      "name": "Bubble Burst Remix",
      "slug": "bubble-burst-remix",
      "service": "igdb"
    }
  ],
  "aliases": [],
  "shaders": [],
  "discord_id": "",
  "change_for": null
}