{
  "id": 51224,
  "name": "LUXOR Adventures",
  "slug": "luxor-adventures",
  "year": 2009,
  "banner_url": "",
  "icon_url": "",
  "coverart": "https://lutris.net/media/igdb/cover_big/bwvn8a2cw9hvoleg2ffz.jpg",
  "platforms": [
    {
      "name": "Windows"
    }
  ],
  "provider_games": [
    {
      "name": "Luxor Adventures",
      "slug": "luxor-adventures",
      "service": "igdb"
    }
  ],
  "aliases": [],
  "shaders": [],
  "discord_id": "",
  "change_for": null
}