{
  "id": 122423,
  "name": "theViewer",
  "slug": "theviewer",
  "year": null,
  "banner_url": "",
  "icon_url": "",
  "coverart": null,
  "platforms": [],
  "provider_games": [
    {
      "name": "theViewer",
      "slug": "theviewer",
      "service": "igdb"
    }
  ],
  "aliases": [],
  "shaders": [],
  "discord_id": "",
  "change_for": null
}