{
  "id": 269216,
  "name": "Paper Sky",
  "slug": "paper-sky",
  "year": null,
  "banner_url": "",
  "icon_url": "",
  "coverart": "https://lutris.net/media/igdb/cover_big/co7ih5.jpg",
  "platforms": [],
  "provider_games": [
    {
      "name": "Paper Sky",
      "slug": "paper-sky",
      "service": "igdb"
    }
  ],
  "aliases": [],
  "shaders": [],
  "discord_id": "",
  "change_for": null
}