{
  "id": 191028,
  "name": "NBA 2K22",
  "slug": "nba-2k22",
  "year": 2021,
  "banner_url": "https://lutris.net/games/banner/nba-2k22.jpg",
  "icon_url": "",
  "coverart": "https://lutris.net/media/igdb/cover_big/co3fdm.jpg",
  "platforms": [
    {
      "name": "Nintendo Switch"
    },
    {
      "name": "Sony Playstation 4"
    },
    {
      "name": "Sony PlayStation 5"
    },
    {
      "name": "Windows"
    },
    {
      "name": "Xbox One"
    },
    {
      "name": "Xbox Series X|S"
    }
  ],
  "provider_games": [
    {
      "name": "NBA 2K22",
      "slug": "nba-2k22",
      "service": "igdb"
    },
    {
      "name": "NBA 2K22",
      "slug": "1644960",
      "service": "steam"
    }
  ],
  "aliases": [],
  "shaders": [],
  "discord_id": "",
  "change_for": null
}