{
  "id": 118446,
  "name": "Me and (My) Cat's Castle X",
  "slug": "me-and-my-cats-castle-x",
  "year": 2020,
  "banner_url": "",
  "icon_url": "",
  "coverart": "https://lutris.net/media/igdb/cover_big/co2lup.jpg",
  "platforms": [
    {
      "name": "Windows"
    }
  ],
  "provider_games": [
    {
      "name": "Me and (My) Cat's Castle X",
      "slug": "me-and-my-cats-castle-x",
      "service": "igdb"
    }
  ],
  "aliases": [],
  "shaders": [],
  "discord_id": "",
  "change_for": null
}