{
  "id": 54649,
  "name": "W.I.N.",
  "slug": "win",
  "year": 1973,
  "banner_url": "",
  "icon_url": "",
  "coverart": "https://lutris.net/media/igdb/cover_big/ihwluscaqb2lfl5fepsl.jpg",
  "platforms": [
    {
      "name": "Odyssey"
    }
  ],
  "provider_games": [
    {
      "name": "W.I.N.",
      "slug": "win",
      "service": "igdb"
    }
  ],
  "aliases": [],
  "shaders": [],
  "discord_id": "",
  "change_for": null
}