{
  "id": 98313,
  "name": "Knight Brawl",
  "slug": "knight-brawl",
  "year": 2019,
  "banner_url": "",
  "icon_url": "",
  "coverart": "https://lutris.net/media/igdb/cover_big/co1llf.jpg",
  "platforms": [],
  "provider_games": [
    {
      "name": "Knight Brawl",
      "slug": "knight-brawl",
      "service": "igdb"
    }
  ],
  "aliases": [],
  "shaders": [],
  "discord_id": "",
  "change_for": null
}