{
  "id": 243984,
  "name": "1-Bit Return",
  "slug": "1-bit-return",
  "year": null,
  "banner_url": "",
  "icon_url": "",
  "coverart": "https://lutris.net/media/igdb/cover_big/co6im8.jpg",
  "platforms": [],
  "provider_games": [
    {
      "name": "1-Bit Return",
      "slug": "1-bit-return",
      "service": "igdb"
    }
  ],
  "aliases": [],
  "shaders": [],
  "discord_id": "",
  "change_for": null
}