{
  "id": 256234,
  "name": "HyperBowl Tokyo",
  "slug": "hyperbowl-tokyo",
  "year": null,
  "banner_url": "",
  "icon_url": "",
  "coverart": null,
  "platforms": [],
  "provider_games": [
    {
      "name": "HyperBowl Tokyo",
      "slug": "hyperbowl-tokyo",
      "service": "igdb"
    }
  ],
  "aliases": [],
  "shaders": [],
  "discord_id": "",
  "change_for": null
}