{
  "id": 131965,
  "name": "Les Manley in: Lost in L.A.",
  "slug": "les-manley-in-lost-in-la",
  "year": 1991,
  "banner_url": "https://lutris.net/games/banner/les-manley-in-lost-in-la.jpg",
  "icon_url": "",
  "coverart": "https://lutris.net/media/igdb/cover_big/co3a7o.jpg",
  "platforms": [
    {
      "name": "Linux"
    },
    {
      "name": "Windows"
    }
  ],
  "provider_games": [
    {
      "name": "Les Manley in: Lost in L.A.",
      "slug": "1299730",
      "service": "steam"
    },
    {
      "name": "Les Manley in: Lost in LA",
      "slug": "1898140719",
      "service": "gog"
    },
    {
      "name": "Les Manley in: Lost in L.A.",
      "slug": "les-manley-in-lost-in-la",
      "service": "igdb"
    }
  ],
  "aliases": [],
  "shaders": [],
  "discord_id": "",
  "change_for": null
}