{
  "id": 301901,
  "name": "Steamboat Rescue",
  "slug": "steamboat-rescue",
  "year": null,
  "banner_url": "",
  "icon_url": "",
  "coverart": "https://lutris.net/media/igdb/cover_big/co92t5.jpg",
  "platforms": [],
  "provider_games": [
    {
      "name": "Steamboat Rescue",
      "slug": "steamboat-rescue",
      "service": "igdb"
    }
  ],
  "aliases": [],
  "shaders": [],
  "discord_id": "",
  "change_for": null
}