{
  "id": 53164,
  "name": "Traffic Department 2192",
  "slug": "traffic-department-2192",
  "year": 1994,
  "banner_url": "",
  "icon_url": "",
  "coverart": "https://lutris.net/media/igdb/cover_big/mkiaehkcsu8oqwth4bsc.jpg",
  "platforms": [],
  "provider_games": [
    {
      "name": "Traffic Department 2192",
      "slug": "traffic-department-2192",
      "service": "igdb"
    }
  ],
  "aliases": [],
  "shaders": [],
  "discord_id": "",
  "change_for": null
}