{
  "id": 182858,
  "name": "Submachine Universe",
  "slug": "submachine-universe",
  "year": 2010,
  "banner_url": "",
  "icon_url": "",
  "coverart": "https://lutris.net/media/igdb/cover_big/co1yjx.jpg",
  "platforms": [
    {
      "name": "Browser"
    }
  ],
  "provider_games": [
    {
      "name": "Submachine Universe",
      "slug": "submachine-universe",
      "service": "igdb"
    }
  ],
  "aliases": [],
  "shaders": [],
  "discord_id": "",
  "change_for": null
}