{
  "id": 44843,
  "name": "8Doors: Arum's Afterlife Adventure",
  "slug": "8doors-arums-afterlife-adventure",
  "year": 2021,
  "banner_url": "https://lutris.net/games/banner/8doors-arums-afterlife-adventure.jpg",
  "icon_url": "https://lutris.net/games/icon/8doors-arums-afterlife-adventure.png",
  "coverart": "https://lutris.net/media/igdb/cover_big/co2hh3.jpg",
  "platforms": [
    {
      "name": "Windows"
    }
  ],
  "provider_games": [
    {
      "name": "8Doors: Arum's Afterlife Adventure",
      "slug": "668550",
      "service": "steam"
    },
    {
      "name": "8Doors: Arum's Afterlife Adventure",
      "slug": "1305658745",
      "service": "gog"
    },
    {
      "name": "8Doors: Arum's Afterlife Adventure DEMO",
      "slug": "1320666662",
      "service": "gog"
    },
    {
      "name": "8Doors: Arum's Afterlife Adventure",
      "slug": "8doors-arums-afterlife-adventure",
      "service": "igdb"
    }
  ],
  "aliases": [],
  "shaders": [],
  "discord_id": "",
  "change_for": null
}