{
  "id": 57904,
  "name": "Game no Kanzume Vol. 1",
  "slug": "game-no-kanzume-vol-1",
  "year": 1994,
  "banner_url": "",
  "icon_url": "",
  "coverart": "https://lutris.net/media/igdb/cover_big/co1xmu.jpg",
  "platforms": [],
  "provider_games": [
    {
      "name": "Game no Kanzume Vol. 1",
      "slug": "game-no-kanzume-vol-1",
      "service": "igdb"
    }
  ],
  "aliases": [],
  "shaders": [],
  "discord_id": "",
  "change_for": null
}