{
  "id": 129206,
  "name": "Lost Frontier",
  "slug": "lost-frontier",
  "year": 2016,
  "banner_url": "",
  "icon_url": "",
  "coverart": "https://lutris.net/media/igdb/cover_big/ahru6hc4tzvawewmpuxc.jpg",
  "platforms": [],
  "provider_games": [
    {
      "name": "Lost Frontier",
      "slug": "lost-frontier",
      "service": "igdb"
    }
  ],
  "aliases": [],
  "shaders": [],
  "discord_id": "",
  "change_for": null
}