{
  "id": 254429,
  "name": "Rocket Car: Ultimate Ball League Machines",
  "slug": "rocket-car-ultimate-ball-league-machines",
  "year": null,
  "banner_url": "",
  "icon_url": "",
  "coverart": "https://lutris.net/media/igdb/cover_big/co6wg6.jpg",
  "platforms": [],
  "provider_games": [
    {
      "name": "Rocket Car: Ultimate Ball League Machines",
      "slug": "rocket-car-ultimate-ball-league-machines",
      "service": "igdb"
    }
  ],
  "aliases": [],
  "shaders": [],
  "discord_id": "",
  "change_for": null
}