{
  "id": 203678,
  "name": "The Dawn: Sniper's Way",
  "slug": "the-dawn-snipers-way",
  "year": null,
  "banner_url": "",
  "icon_url": "",
  "coverart": "https://lutris.net/media/igdb/cover_big/co4fah.jpg",
  "platforms": [],
  "provider_games": [
    {
      "name": "The Dawn: Sniper's Way",
      "slug": "the-dawn-snipers-way",
      "service": "igdb"
    }
  ],
  "aliases": [],
  "shaders": [],
  "discord_id": "",
  "change_for": null
}