{
  "id": 69372,
  "name": "Killer Score",
  "slug": "killer-score",
  "year": null,
  "banner_url": "",
  "icon_url": "",
  "coverart": "https://lutris.net/media/igdb/cover_big/evjm1acrmsqibm37mebt.jpg",
  "platforms": [],
  "provider_games": [
    {
      "name": "Killer Score",
      "slug": "killer-score",
      "service": "igdb"
    }
  ],
  "aliases": [],
  "shaders": [],
  "discord_id": "",
  "change_for": null
}