{
  "id": 250772,
  "name": "WorldMaker",
  "slug": "worldmaker",
  "year": null,
  "banner_url": "https://lutris.net/games/banner/worldmaker.jpg",
  "icon_url": "https://lutris.net/games/icon/worldmaker.png",
  "coverart": null,
  "platforms": [],
  "provider_games": [
    {
      "name": "WorldMaker",
      "slug": "1944670",
      "service": "steam"
    }
  ],
  "aliases": [],
  "shaders": [],
  "discord_id": "",
  "change_for": null
}