{
  "id": 80618,
  "name": "Big League Soccer II",
  "slug": "big-league-soccer-ii",
  "year": null,
  "banner_url": "",
  "icon_url": "",
  "coverart": null,
  "platforms": [],
  "provider_games": [
    {
      "name": "Big League Soccer II",
      "slug": "big-league-soccer-ii",
      "service": "igdb"
    }
  ],
  "aliases": [],
  "shaders": [],
  "discord_id": "",
  "change_for": null
}