{
  "id": 24426,
  "name": "Fatal Frame II: Crimson Butterfly",
  "slug": "fatal-frame-ii-crimson-butterfly",
  "year": 2003,
  "banner_url": "https://lutris.net/games/banner/fatal-frame-ii-crimson-butterfly.jpg",
  "icon_url": "",
  "coverart": "https://lutris.net/media/igdb/cover_big/co1ov0.jpg",
  "platforms": [
    {
      "name": "Sony PlayStation 2"
    }
  ],
  "provider_games": [
    {
      "name": "Fatal Frame II: Crimson Butterfly",
      "slug": "fatal-frame-ii-crimson-butterfly",
      "service": "igdb"
    }
  ],
  "aliases": [],
  "shaders": [],
  "discord_id": "",
  "change_for": null
}