{
  "id": 180090,
  "name": "To Bee Or Not To Bee",
  "slug": "to-bee-or-not-to-bee",
  "year": null,
  "banner_url": "",
  "icon_url": "",
  "coverart": null,
  "platforms": [],
  "provider_games": [
    {
      "name": "To Bee or Not to Bee",
      "slug": "to-bee-or-not-to-bee",
      "service": "igdb"
    }
  ],
  "aliases": [],
  "shaders": [],
  "discord_id": "",
  "change_for": null
}