{
  "id": 291355,
  "name": "TelAIphone",
  "slug": "telaiphone",
  "year": null,
  "banner_url": "",
  "icon_url": "",
  "coverart": "https://lutris.net/media/igdb/cover_big/co8kpe.jpg",
  "platforms": [],
  "provider_games": [
    {
      "name": "TelAIphone",
      "slug": "telaiphone",
      "service": "igdb"
    }
  ],
  "aliases": [],
  "shaders": [],
  "discord_id": "",
  "change_for": null
}