{
  "id": 257344,
  "name": "Game Zero",
  "slug": "game-zero",
  "year": null,
  "banner_url": "",
  "icon_url": "",
  "coverart": null,
  "platforms": [
    {
      "name": "Nintendo GameCube"
    }
  ],
  "provider_games": [
    {
      "name": "Game Zero",
      "slug": "game-zero",
      "service": "igdb"
    }
  ],
  "aliases": [],
  "shaders": [],
  "discord_id": "",
  "change_for": null
}