{
  "id": 271493,
  "name": "Adorimon: Arena of Ancients",
  "slug": "adorimon-arena-of-ancients",
  "year": null,
  "banner_url": "",
  "icon_url": "",
  "coverart": "https://lutris.net/media/igdb/cover_big/co7o5m.jpg",
  "platforms": [],
  "provider_games": [
    {
      "name": "Adorimon: Arena of Ancients",
      "slug": "adorimon-arena-of-ancients",
      "service": "igdb"
    }
  ],
  "aliases": [],
  "shaders": [],
  "discord_id": "",
  "change_for": null
}