{
  "id": 176340,
  "name": "Warhammer Combat Cards",
  "slug": "warhammer-combat-cards",
  "year": 2019,
  "banner_url": "https://lutris.net/games/banner/warhammer-combat-cards.jpg",
  "icon_url": "",
  "coverart": "https://lutris.net/media/igdb/cover_big/co498p.jpg",
  "platforms": [
    {
      "name": "Legacy Cellphone"
    },
    {
      "name": "Windows"
    }
  ],
  "provider_games": [
    {
      "name": "Warhammer Combat Cards",
      "slug": "warhammer-combat-cards",
      "service": "igdb"
    },
    {
      "name": "Warhammer Combat Cards",
      "slug": "1641990",
      "service": "steam"
    }
  ],
  "aliases": [],
  "shaders": [],
  "discord_id": "",
  "change_for": null
}