{
  "id": 88768,
  "name": "Blackjack HD",
  "slug": "blackjack-hd",
  "year": null,
  "banner_url": "",
  "icon_url": "",
  "coverart": null,
  "platforms": [],
  "provider_games": [
    {
      "name": "Blackjack HD",
      "slug": "blackjack-hd",
      "service": "igdb"
    }
  ],
  "aliases": [],
  "shaders": [],
  "discord_id": "",
  "change_for": null
}