{
  "id": 38720,
  "name": "Sally.EXE - The Game",
  "slug": "sallyexe-the-game",
  "year": 2014,
  "banner_url": "https://lutris.net/games/banner/sallyexe-the-game.jpg",
  "icon_url": "",
  "coverart": null,
  "platforms": [
    {
      "name": "Windows"
    }
  ],
  "provider_games": [],
  "aliases": [],
  "shaders": [],
  "discord_id": "",
  "change_for": null
}