{
  "id": 220541,
  "name": "Mahjong Garden Deluxe",
  "slug": "mahjong-garden-deluxe",
  "year": null,
  "banner_url": "",
  "icon_url": "",
  "coverart": null,
  "platforms": [
    {
      "name": "Windows"
    }
  ],
  "provider_games": [
    {
      "name": "Mahjong Garden Deluxe",
      "slug": "mahjong-garden-deluxe",
      "service": "igdb"
    }
  ],
  "aliases": [],
  "shaders": [],
  "discord_id": "",
  "change_for": null
}