{
  "id": 178382,
  "name": "Questron II",
  "slug": "questron-ii",
  "year": 1988,
  "banner_url": "",
  "icon_url": "",
  "coverart": "https://lutris.net/media/igdb/cover_big/co20ik.jpg",
  "platforms": [
    {
      "name": "Amiga"
    },
    {
      "name": "Apple II"
    },
    {
      "name": "Apple IIGS"
    },
    {
      "name": "Atari ST"
    },
    {
      "name": "Commodore C64/128"
    }
  ],
  "provider_games": [
    {
      "name": "Questron II",
      "slug": "1278430629",
      "service": "gog"
    },
    {
      "name": "Questron II",
      "slug": "questron-ii",
      "service": "igdb"
    }
  ],
  "aliases": [],
  "shaders": [],
  "discord_id": "",
  "change_for": null
}