{
  "id": 12178,
  "name": "Green Ranch",
  "slug": "green-ranch",
  "year": 2016,
  "banner_url": "https://lutris.net/games/banner/green-ranch.jpg",
  "icon_url": "https://lutris.net/games/icon/green-ranch.png",
  "coverart": "https://lutris.net/media/igdb/cover_big/co2vpj.jpg",
  "platforms": [
    {
      "name": "Windows"
    }
  ],
  "provider_games": [
    {
      "name": "Green Ranch",
      "slug": "493980",
      "service": "steam"
    },
    {
      "name": "Green Ranch",
      "slug": "green-ranch",
      "service": "igdb"
    }
  ],
  "aliases": [],
  "shaders": [],
  "discord_id": "",
  "change_for": null
}