{
  "id": 33426,
  "name": "Big Run",
  "slug": "big-run",
  "year": 1989,
  "banner_url": "",
  "icon_url": "https://lutris.net/games/icon/big-run.png",
  "coverart": "https://lutris.net/media/igdb/cover_big/fi3jevlocz2wkcfcdpnx.jpg",
  "platforms": [
    {
      "name": "Amiga"
    },
    {
      "name": "Arcade"
    }
  ],
  "provider_games": [
    {
      "name": "Big Run",
      "slug": "bigrun",
      "service": "mame"
    },
    {
      "name": "Big Run",
      "slug": "big-run",
      "service": "igdb"
    }
  ],
  "aliases": [],
  "shaders": [],
  "discord_id": "",
  "change_for": null
}