{
  "id": 280507,
  "name": "Restaurant Health Inspection Simulator: Sanitary Service",
  "slug": "restaurant-health-inspection-simulator-sanitary-service",
  "year": 2024,
  "banner_url": "",
  "icon_url": "",
  "coverart": "https://lutris.net/media/igdb/cover_big/co7z1h.jpg",
  "platforms": [
    {
      "name": "Nintendo Switch"
    }
  ],
  "provider_games": [
    {
      "name": "Restaurant Health Inspection Simulator: Sanitary Service",
      "slug": "restaurant-health-inspection-simulator-sanitary-service",
      "service": "igdb"
    }
  ],
  "aliases": [],
  "shaders": [],
  "discord_id": "",
  "change_for": null
}