{
  "id": 163152,
  "name": "Baobabs Mausoleum Ep. 2 1313 Barnabas Dead End Drive",
  "slug": "baobabs-mausoleum-ep-2-1313-barnabas-dead-end-drive",
  "year": 2018,
  "banner_url": "",
  "icon_url": "",
  "coverart": "https://lutris.net/media/igdb/cover_big/co28v2.jpg",
  "platforms": [
    {
      "name": "Nintendo Switch"
    },
    {
      "name": "Windows"
    }
  ],
  "provider_games": [
    {
      "name": "Baobabs Mausoleum Ep. 2 1313 Barnabas Dead End Drive",
      "slug": "baobabs-mausoleum-ep-2-1313-barnabas-dead-end-drive",
      "service": "igdb"
    }
  ],
  "aliases": [],
  "shaders": [],
  "discord_id": "",
  "change_for": null
}