{
  "id": 211050,
  "name": "Lempo",
  "slug": "lempo",
  "year": 2023,
  "banner_url": "",
  "icon_url": "",
  "coverart": "https://lutris.net/media/igdb/cover_big/co5xel.jpg",
  "platforms": [
    {
      "name": "Windows"
    }
  ],
  "provider_games": [
    {
      "name": "Lempo",
      "slug": "lempo",
      "service": "igdb"
    },
    {
      "name": "Lempo",
      "slug": "1702724905",
      "service": "gog"
    }
  ],
  "aliases": [],
  "shaders": [],
  "discord_id": "",
  "change_for": null
}