{
  "id": 221094,
  "name": "VR Robinhood Archery",
  "slug": "vr-robinhood-archery",
  "year": null,
  "banner_url": "",
  "icon_url": "",
  "coverart": "https://lutris.net/media/igdb/cover_big/co5i39.jpg",
  "platforms": [],
  "provider_games": [
    {
      "name": "VR Robinhood Archery",
      "slug": "vr-robinhood-archery",
      "service": "igdb"
    }
  ],
  "aliases": [],
  "shaders": [],
  "discord_id": "",
  "change_for": null
}