{
  "id": 172795,
  "name": "Mr. Yeti's Fast Food",
  "slug": "mr-yetis-fast-food",
  "year": null,
  "banner_url": "",
  "icon_url": "",
  "coverart": null,
  "platforms": [],
  "provider_games": [
    {
      "name": "Mr. Yeti's Fast Food",
      "slug": "mr-yetis-fast-food",
      "service": "igdb"
    }
  ],
  "aliases": [],
  "shaders": [],
  "discord_id": "",
  "change_for": null
}