{
  "id": 23879,
  "game_id": 5152,
  "game_slug": "bitweb",
  "name": "Bitweb",
  "year": 2015,
  "user": "vanstaveren",
  "runner": "steam",
  "slug": "bitweb-steam",
  "version": "Steam",
  "description": null,
  "notes": "",
  "credits": "",
  "created_at": "2020-10-12T11:51:44.880135Z",
  "updated_at": "2021-12-13T19:10:37.679088Z",
  "draft": false,
  "published": true,
  "published_by": null,
  "rating": "",
  "is_playable": null,
  "steamid": 375220,
  "gogid": null,
  "gogslug": "",
  "humbleid": "",
  "humblestoreid": "",
  "humblestoreid_real": "",
  "script": {
    "game": {
      "appid": 375220
    }
  },
  "content": "game:\n  appid: 375220\n",
  "discord_id": ""
}