{
  "id": 59177,
  "name": "When Pigs Fly",
  "slug": "when-pigs-fly",
  "year": 2015,
  "banner_url": "",
  "icon_url": "",
  "coverart": "https://lutris.net/media/igdb/cover_big/ird0u1nqrddphmxstzzj.jpg",
  "platforms": [
    {
      "name": "Windows"
    }
  ],
  "provider_games": [
    {
      "name": "When Pigs Fly",
      "slug": "when-pigs-fly",
      "service": "igdb"
    }
  ],
  "aliases": [],
  "shaders": [],
  "discord_id": "",
  "change_for": null
}