{
  "id": 2047,
  "name": "System Shock 2",
  "slug": "system-shock-2",
  "year": 1999,
  "banner_url": "https://lutris.net/games/banner/system-shock-2.jpg",
  "icon_url": "https://lutris.net/games/icon/system-shock-2.png",
  "coverart": "https://lutris.net/media/igdb/cover_big/co1y6g.jpg",
  "platforms": [
    {
      "name": "Linux"
    },
    {
      "name": "Mac"
    },
    {
      "name": "Windows"
    }
  ],
  "provider_games": [
    {
      "name": "System Shock® 2 (Classic)",
      "slug": "1207659172",
      "service": "gog"
    },
    {
      "name": "System Shock® 2 (Classic)",
      "slug": "238210",
      "service": "steam"
    },
    {
      "name": "System Shock 2",
      "slug": "system-shock-2",
      "service": "igdb"
    }
  ],
  "aliases": [],
  "shaders": [],
  "discord_id": "489917602412494878",
  "change_for": null
}