{
  "id": 88004,
  "name": "Cutie Pets Go Fishing",
  "slug": "cutie-pets-go-fishing",
  "year": 2016,
  "banner_url": "",
  "icon_url": "",
  "coverart": "https://lutris.net/media/igdb/cover_big/me2wwjbxxb0eyskexdsy.jpg",
  "platforms": [
    {
      "name": "Nintendo Wii U"
    }
  ],
  "provider_games": [
    {
      "name": "Cutie Pets Go Fishing",
      "slug": "cutie-pets-go-fishing",
      "service": "igdb"
    }
  ],
  "aliases": [],
  "shaders": [],
  "discord_id": "",
  "change_for": null
}