{
  "id": 6805,
  "name": "SNOWFLAKE TATTOO",
  "slug": "snowflake-tattoo",
  "year": 2015,
  "banner_url": "https://lutris.net/games/banner/snowflake-tattoo.jpg",
  "icon_url": "https://lutris.net/games/icon/snowflake-tattoo.png",
  "coverart": null,
  "platforms": [
    {
      "name": "Windows"
    }
  ],
  "provider_games": [
    {
      "name": "SNOWFLAKE TATTOO",
      "slug": "355430",
      "service": "steam"
    },
    {
      "name": "Snowflake Tattoo",
      "slug": "snowflake-tattoo",
      "service": "igdb"
    }
  ],
  "aliases": [],
  "shaders": [],
  "discord_id": "",
  "change_for": null
}