{
  "id": 169106,
  "name": "Zangeki no Reginleiv",
  "slug": "zangeki-no-reginleiv",
  "year": 2010,
  "banner_url": "",
  "icon_url": "",
  "coverart": "https://lutris.net/media/igdb/cover_big/co2zsj.jpg",
  "platforms": [
    {
      "name": "Nintendo Wii"
    },
    {
      "name": "Nintendo Wii U"
    }
  ],
  "provider_games": [
    {
      "name": "Zangeki no Reginleiv",
      "slug": "zangeki-no-reginleiv",
      "service": "igdb"
    }
  ],
  "aliases": [],
  "shaders": [],
  "discord_id": "",
  "change_for": null
}