{
  "id": 81525,
  "name": "The Adventures of Victor and Garu",
  "slug": "the-adventures-of-victor-and-garu",
  "year": null,
  "banner_url": "",
  "icon_url": "",
  "coverart": "https://lutris.net/media/igdb/cover_big/kjqpy2c3roh5cmmtolz3.jpg",
  "platforms": [],
  "provider_games": [
    {
      "name": "The Adventures of Victor and Garu",
      "slug": "the-adventures-of-victor-and-garu",
      "service": "igdb"
    }
  ],
  "aliases": [],
  "shaders": [],
  "discord_id": "",
  "change_for": null
}