{
  "id": 61927,
  "name": "Konchuu Fighters",
  "slug": "konchuu-fighters",
  "year": null,
  "banner_url": "",
  "icon_url": "",
  "coverart": "https://lutris.net/media/igdb/cover_big/h7h7so9aciehb51ajl7o.jpg",
  "platforms": [],
  "provider_games": [
    {
      "name": "Konchuu Fighters",
      "slug": "konchuu-fighters",
      "service": "igdb"
    }
  ],
  "aliases": [],
  "shaders": [],
  "discord_id": "",
  "change_for": null
}