{
  "id": 953,
  "game_id": 3087,
  "game_slug": "a-wizards-lizard",
  "name": "A Wizard's Lizard",
  "year": 2014,
  "user": "RobLoach",
  "runner": "steam",
  "slug": "a-wizards-lizard-steam",
  "version": "steam",
  "description": "",
  "notes": "",
  "credits": "",
  "created_at": "2014-10-28T17:19:08.899000Z",
  "updated_at": "2014-11-05T17:53:16.776000Z",
  "draft": false,
  "published": true,
  "published_by": null,
  "rating": "",
  "is_playable": null,
  "steamid": 280040,
  "gogid": null,
  "gogslug": "",
  "humbleid": "",
  "humblestoreid": "",
  "humblestoreid_real": "",
  "script": {
    "game": {
      "appid": 280040
    }
  },
  "content": "game:\n  appid: 280040\n",
  "discord_id": ""
}