{
  "id": 204039,
  "name": "Sphere: Flying Cities - Save the World Edition",
  "slug": "sphere-flying-cities-save-the-world-edition",
  "year": null,
  "banner_url": "",
  "icon_url": "",
  "coverart": "https://lutris.net/media/igdb/cover_big/co4c7c.jpg",
  "platforms": [],
  "provider_games": [
    {
      "name": "Sphere: Flying Cities - Save the World Edition",
      "slug": "sphere-flying-cities-save-the-world-edition",
      "service": "igdb"
    }
  ],
  "aliases": [],
  "shaders": [],
  "discord_id": "",
  "change_for": null
}