{
  "id": 224578,
  "name": "Hide and Seek Scramble!",
  "slug": "hide-and-seek-scramble",
  "year": 2022,
  "banner_url": "",
  "icon_url": "",
  "coverart": "https://lutris.net/media/igdb/cover_big/co5eax.jpg",
  "platforms": [
    {
      "name": "Mac"
    },
    {
      "name": "Windows"
    }
  ],
  "provider_games": [
    {
      "name": "Hide and Seek Scramble!",
      "slug": "hide-and-seek-scramble",
      "service": "igdb"
    }
  ],
  "aliases": [],
  "shaders": [],
  "discord_id": "",
  "change_for": null
}