{
  "id": 261946,
  "name": "Trick or Treat",
  "slug": "trick-or-treat--2",
  "year": null,
  "banner_url": "",
  "icon_url": "",
  "coverart": "https://lutris.net/media/igdb/cover_big/co76qn.jpg",
  "platforms": [
    {
      "name": "Intellivision"
    }
  ],
  "provider_games": [
    {
      "name": "Trick or Treat",
      "slug": "trick-or-treat--2",
      "service": "igdb"
    }
  ],
  "aliases": [],
  "shaders": [],
  "discord_id": "",
  "change_for": null
}