{
  "id": 190489,
  "name": "The Crown Stones: Mirrah",
  "slug": "the-crown-stones-mirrah",
  "year": null,
  "banner_url": "",
  "icon_url": "",
  "coverart": "https://lutris.net/media/igdb/cover_big/co20r5.jpg",
  "platforms": [
    {
      "name": "Windows"
    }
  ],
  "provider_games": [
    {
      "name": "The Crown Stones: Mirrah",
      "slug": "the-crown-stones-mirrah",
      "service": "igdb"
    }
  ],
  "aliases": [],
  "shaders": [],
  "discord_id": "",
  "change_for": null
}