{
  "id": 1276,
  "name": "Sonic Generations",
  "slug": "sonic-generations",
  "year": 2011,
  "banner_url": "https://lutris.net/games/banner/sonic-generations.jpg",
  "icon_url": "https://lutris.net/games/icon/sonic-generations.png",
  "coverart": "https://lutris.net/media/igdb/cover_big/co1zvv.jpg",
  "platforms": [
    {
      "name": "Nintendo 3DS"
    },
    {
      "name": "Sony Playstation 3"
    },
    {
      "name": "Windows"
    },
    {
      "name": "Xbox 360"
    }
  ],
  "provider_games": [
    {
      "name": "Sonic Generations",
      "slug": "71340",
      "service": "steam"
    },
    {
      "name": "Sonic Generations",
      "slug": "sonic-generations",
      "service": "igdb"
    }
  ],
  "aliases": [],
  "shaders": [],
  "discord_id": "502406586895958026",
  "change_for": null
}