{
  "id": 238033,
  "name": "Emergency Crew 2: Global Warming",
  "slug": "emergency-crew-2-global-warming",
  "year": 2022,
  "banner_url": "",
  "icon_url": "",
  "coverart": "https://lutris.net/media/igdb/cover_big/co65cj.jpg",
  "platforms": [
    {
      "name": "Windows"
    }
  ],
  "provider_games": [
    {
      "name": "Emergency Crew 2: Global Warming",
      "slug": "emergency-crew-2-global-warming",
      "service": "igdb"
    }
  ],
  "aliases": [],
  "shaders": [],
  "discord_id": "",
  "change_for": null
}