{
  "id": 201876,
  "name": "Villain Master: Dead or Alive",
  "slug": "villain-master-dead-or-alive",
  "year": null,
  "banner_url": "",
  "icon_url": "",
  "coverart": null,
  "platforms": [],
  "provider_games": [
    {
      "name": "Villain Master: Dead or Alive",
      "slug": "villain-master-dead-or-alive",
      "service": "igdb"
    }
  ],
  "aliases": [],
  "shaders": [],
  "discord_id": "",
  "change_for": null
}