{
  "id": 9533,
  "name": "XunYouInt迅游国际网游加速器",
  "slug": "xunyouint",
  "year": null,
  "banner_url": "https://lutris.net/games/banner/xunyouint.jpg",
  "icon_url": "https://lutris.net/games/icon/xunyouint.png",
  "coverart": null,
  "platforms": [],
  "provider_games": [
    {
      "name": "XunYouInt迅游国际网游加速器",
      "slug": "496840",
      "service": "steam"
    }
  ],
  "aliases": [],
  "shaders": [],
  "discord_id": "",
  "change_for": null
}