{
  "id": 57662,
  "name": "Animal Snap: Rescue Them 2 By 2",
  "slug": "animal-snap-rescue-them-2-by-2",
  "year": 2002,
  "banner_url": "",
  "icon_url": "",
  "coverart": "https://lutris.net/media/igdb/cover_big/u3kqg4rsf2kexgf8tkxb.jpg",
  "platforms": [
    {
      "name": "Nintendo Game Boy Advance"
    },
    {
      "name": "Sony PlayStation"
    }
  ],
  "provider_games": [
    {
      "name": "Animal Snap: Rescue Them 2 By 2",
      "slug": "animal-snap-rescue-them-2-by-2",
      "service": "igdb"
    }
  ],
  "aliases": [],
  "shaders": [],
  "discord_id": "",
  "change_for": null
}