{
  "id": 62258,
  "name": "Sketchy Bounce",
  "slug": "sketchy-bounce",
  "year": null,
  "banner_url": "",
  "icon_url": "",
  "coverart": "https://lutris.net/media/igdb/cover_big/xhjrgbnrv5atarshqxhk.jpg",
  "platforms": [],
  "provider_games": [
    {
      "name": "Sketchy Bounce",
      "slug": "sketchy-bounce",
      "service": "igdb"
    }
  ],
  "aliases": [],
  "shaders": [],
  "discord_id": "",
  "change_for": null
}