{
  "id": 293663,
  "name": "Doki Doki Literature Club",
  "slug": "doki-doki-literature-club--1",
  "year": 2018,
  "banner_url": "",
  "icon_url": "",
  "coverart": "https://lutris.net/media/igdb/cover_big/co9979.jpg",
  "platforms": [
    {
      "name": "Sony PSP"
    }
  ],
  "provider_games": [
    {
      "name": "Doki Doki Literature Club",
      "slug": "doki-doki-literature-club--1",
      "service": "igdb"
    }
  ],
  "aliases": [],
  "shaders": [],
  "discord_id": "",
  "change_for": null
}