{
  "id": 106192,
  "name": "They Call Me... The Skul",
  "slug": "they-call-me-dot-dot-dot-the-skul",
  "year": 1996,
  "banner_url": "",
  "icon_url": "",
  "coverart": "https://lutris.net/media/igdb/cover_big/co2u11.jpg",
  "platforms": [
    {
      "name": "Windows"
    }
  ],
  "provider_games": [
    {
      "name": "They Call Me... The Skul",
      "slug": "they-call-me-dot-dot-dot-the-skul",
      "service": "igdb"
    }
  ],
  "aliases": [],
  "shaders": [],
  "discord_id": "",
  "change_for": null
}