{
  "id": 306788,
  "name": "Commander: Europe at War",
  "slug": "commander-europe-at-war",
  "year": null,
  "banner_url": "",
  "icon_url": "",
  "coverart": null,
  "platforms": [],
  "provider_games": [
    {
      "name": "Commander: Europe at War",
      "slug": "1538352836",
      "service": "gog"
    }
  ],
  "aliases": [],
  "shaders": [],
  "discord_id": "",
  "change_for": null
}