{
  "id": 169751,
  "name": "Enchantress",
  "slug": "enchantress",
  "year": null,
  "banner_url": "",
  "icon_url": "",
  "coverart": "https://lutris.net/media/igdb/cover_big/co462o.jpg",
  "platforms": [],
  "provider_games": [
    {
      "name": "Enchantress",
      "slug": "enchantress",
      "service": "igdb"
    }
  ],
  "aliases": [],
  "shaders": [],
  "discord_id": "",
  "change_for": null
}