{
  "id": 117563,
  "name": "Kill.Switch",
  "slug": "kill-dot-switch",
  "year": 2003,
  "banner_url": "",
  "icon_url": "",
  "coverart": "https://lutris.net/media/igdb/cover_big/co3gao.jpg",
  "platforms": [
    {
      "name": "Nintendo Game Boy Advance"
    },
    {
      "name": "Sony PlayStation 2"
    },
    {
      "name": "Windows"
    }
  ],
  "provider_games": [
    {
      "name": "Kill.Switch",
      "slug": "kill-dot-switch",
      "service": "igdb"
    }
  ],
  "aliases": [],
  "shaders": [],
  "discord_id": "",
  "change_for": null
}