{
  "id": 37389,
  "name": "Gradius V",
  "slug": "gradius-v",
  "year": 2004,
  "banner_url": "https://lutris.net/games/banner/gradius-v.jpg",
  "icon_url": "",
  "coverart": "https://lutris.net/media/igdb/cover_big/co1oqo.jpg",
  "platforms": [
    {
      "name": "Sony PlayStation 2"
    },
    {
      "name": "Sony Playstation 3"
    }
  ],
  "provider_games": [
    {
      "name": "Gradius V",
      "slug": "gradius-v",
      "service": "igdb"
    }
  ],
  "aliases": [],
  "shaders": [],
  "discord_id": "",
  "change_for": null
}