{
  "id": 108605,
  "name": "Hatsuyuki Sakura: First Press Limited Edition",
  "slug": "hatsuyuki-sakura-first-press-limited-edition",
  "year": 2012,
  "banner_url": "",
  "icon_url": "",
  "coverart": "https://lutris.net/media/igdb/cover_big/co1qdj.jpg",
  "platforms": [
    {
      "name": "Windows"
    }
  ],
  "provider_games": [
    {
      "name": "Hatsuyuki Sakura: First Press Limited Edition",
      "slug": "hatsuyuki-sakura-first-press-limited-edition",
      "service": "igdb"
    }
  ],
  "aliases": [],
  "shaders": [],
  "discord_id": "",
  "change_for": null
}