{
  "id": 279273,
  "name": "Flint: The Treasure of Oblivion",
  "slug": "flint-the-treasure-of-oblivion",
  "year": null,
  "banner_url": "",
  "icon_url": "",
  "coverart": null,
  "platforms": [],
  "provider_games": [
    {
      "name": "Flint: Treasure of Oblivion",
      "slug": "1317619868",
      "service": "gog"
    }
  ],
  "aliases": [],
  "shaders": [],
  "discord_id": "",
  "change_for": null
}