{
  "id": 46474,
  "name": "Star Paizlar 2: A New Erection",
  "slug": "star-paizlar-2-a-new-erection",
  "year": null,
  "banner_url": "",
  "icon_url": "",
  "coverart": null,
  "platforms": [],
  "provider_games": [
    {
      "name": "Star Paizlar 2: A New Erection",
      "slug": "star-paizlar-2-a-new-erection",
      "service": "igdb"
    }
  ],
  "aliases": [],
  "shaders": [],
  "discord_id": "",
  "change_for": null
}