{
  "id": 87465,
  "name": "Ace The Space-Case",
  "slug": "ace-the-space-case",
  "year": 1994,
  "banner_url": "",
  "icon_url": "",
  "coverart": null,
  "platforms": [
    {
      "name": "Amiga"
    }
  ],
  "provider_games": [
    {
      "name": "Ace the Space-Case",
      "slug": "ace-the-space-case",
      "service": "igdb"
    }
  ],
  "aliases": [],
  "shaders": [],
  "discord_id": "",
  "change_for": null
}