{
  "id": 11002,
  "game_id": 6556,
  "game_slug": "hard-reset-redux",
  "name": "Hard Reset Redux",
  "year": 2016,
  "user": "e3fe774678b77badcf009002b22a7a17",
  "runner": "wine",
  "slug": "hard-reset-redux-gog",
  "version": "GOG",
  "description": null,
  "notes": "- <a href=\"https://github.com/lutris/lutris/wiki/How-to:-Esync\">To make use of esync follow our guide by clicking this link.</a>",
  "credits": "",
  "created_at": "2018-11-27T12:54:15.077000Z",
  "updated_at": "2018-12-02T02:33:02.680967Z",
  "draft": false,
  "published": true,
  "published_by": 19464,
  "rating": "",
  "is_playable": null,
  "steamid": 407810,
  "gogid": 1459790972,
  "gogslug": "hard_reset_redux",
  "humbleid": "",
  "humblestoreid": "",
  "humblestoreid_real": "",
  "script": {
    "files": [
      {
        "setup": "N/A:Select the game's setup file"
      }
    ],
    "game": {
      "exe": "drive_c/GOG Games/Hard Reset Redux/hr.x64.exe",
      "prefix": "$GAMEDIR"
    },
    "installer": [
      {
        "task": {
          "description": "Installing Hard Reset Redux",
          "executable": "setup",
          "name": "wineexec",
          "prefix": "$GAMEDIR"
        }
      }
    ],
    "wine": {
      "overrides": {
        "xaudio2_7": "native,builtin"
      }
    }
  },
  "content": "files:\n- setup: N/A:Select the game's setup file\ngame:\n  exe: drive_c/GOG Games/Hard Reset Redux/hr.x64.exe\n  prefix: $GAMEDIR\ninstaller:\n- task:\n    description: Installing Hard Reset Redux\n    executable: setup\n    name: wineexec\n    prefix: $GAMEDIR\nwine:\n  overrides:\n    xaudio2_7: native,builtin\n",
  "discord_id": ""
}