{
  "id": 215226,
  "name": "Ambermoon.net",
  "slug": "ambermoon-dot-net",
  "year": null,
  "banner_url": "https://lutris.net/games/banner/ambermoon-dot-net.jpg",
  "icon_url": "",
  "coverart": null,
  "platforms": [
    {
      "name": "Linux"
    },
    {
      "name": "Mac"
    },
    {
      "name": "Windows"
    }
  ],
  "provider_games": [
    {
      "name": "Ambermoon.net",
      "slug": "ambermoon-dot-net",
      "service": "igdb"
    }
  ],
  "aliases": [],
  "shaders": [],
  "discord_id": "",
  "change_for": null
}