{
  "id": 62452,
  "name": "Ninety-Nine Nights Online",
  "slug": "ninety-nine-nights-online",
  "year": null,
  "banner_url": "",
  "icon_url": "",
  "coverart": "https://lutris.net/media/igdb/cover_big/uydghupnodtpgggrzkzt.jpg",
  "platforms": [],
  "provider_games": [
    {
      "name": "Ninety-Nine Nights Online",
      "slug": "ninety-nine-nights-online",
      "service": "igdb"
    }
  ],
  "aliases": [],
  "shaders": [],
  "discord_id": "",
  "change_for": null
}