{
  "id": 29618,
  "name": "Virtual Race Car Engineer 2018",
  "slug": "virtual-race-car-engineer-2018",
  "year": 2017,
  "banner_url": "https://lutris.net/games/banner/virtual-race-car-engineer-2018.jpg",
  "icon_url": "https://lutris.net/games/icon/virtual-race-car-engineer-2018.png",
  "coverart": "https://lutris.net/media/igdb/cover_big/co2746.jpg",
  "platforms": [
    {
      "name": "Windows"
    }
  ],
  "provider_games": [
    {
      "name": "Virtual Race Car Engineer 2018",
      "slug": "728150",
      "service": "steam"
    },
    {
      "name": "Virtual Race Car Engineer 2018",
      "slug": "virtual-race-car-engineer-2018",
      "service": "igdb"
    }
  ],
  "aliases": [],
  "shaders": [],
  "discord_id": "",
  "change_for": null
}