{
  "id": 88695,
  "name": "Cave Bowling",
  "slug": "cave-bowling",
  "year": null,
  "banner_url": "",
  "icon_url": "",
  "coverart": null,
  "platforms": [],
  "provider_games": [
    {
      "name": "Cave Bowling",
      "slug": "cave-bowling",
      "service": "igdb"
    }
  ],
  "aliases": [],
  "shaders": [],
  "discord_id": "",
  "change_for": null
}