{
  "id": 122772,
  "name": "Super ComboMan: Don't Mash Edition",
  "slug": "super-comboman-dont-mash-edition",
  "year": 2014,
  "banner_url": "",
  "icon_url": "",
  "coverart": "https://lutris.net/media/igdb/cover_big/co86kg.jpg",
  "platforms": [
    {
      "name": "Mac"
    },
    {
      "name": "Windows"
    }
  ],
  "provider_games": [
    {
      "name": "Super ComboMan: Don't Mash Edition",
      "slug": "super-comboman-dont-mash-edition",
      "service": "igdb"
    }
  ],
  "aliases": [],
  "shaders": [],
  "discord_id": "",
  "change_for": null
}