{
  "id": 92026,
  "name": "Craft Warriors",
  "slug": "craft-warriors",
  "year": null,
  "banner_url": "",
  "icon_url": "",
  "coverart": "https://lutris.net/media/igdb/cover_big/co86sy.jpg",
  "platforms": [],
  "provider_games": [
    {
      "name": "Craft Warriors",
      "slug": "craft-warriors",
      "service": "igdb"
    }
  ],
  "aliases": [],
  "shaders": [],
  "discord_id": "",
  "change_for": null
}