{
  "id": 104676,
  "name": "O.T.D",
  "slug": "otd",
  "year": null,
  "banner_url": "",
  "icon_url": "",
  "coverart": "https://lutris.net/media/igdb/cover_big/co2qvc.jpg",
  "platforms": [],
  "provider_games": [
    {
      "name": "O.T.D",
      "slug": "otd",
      "service": "igdb"
    }
  ],
  "aliases": [],
  "shaders": [],
  "discord_id": "",
  "change_for": null
}