{
  "id": 84835,
  "name": "Whack A Bubble",
  "slug": "whack-a-bubble",
  "year": 1997,
  "banner_url": "",
  "icon_url": "",
  "coverart": null,
  "platforms": [
    {
      "name": "Philips CD-i"
    }
  ],
  "provider_games": [
    {
      "name": "Whack A Bubble",
      "slug": "whack-a-bubble",
      "service": "igdb"
    }
  ],
  "aliases": [],
  "shaders": [],
  "discord_id": "",
  "change_for": null
}