{
  "id": 202749,
  "name": "Smashball",
  "slug": "smashball--1",
  "year": null,
  "banner_url": "",
  "icon_url": "",
  "coverart": "https://lutris.net/media/igdb/cover_big/co4js9.jpg",
  "platforms": [],
  "provider_games": [
    {
      "name": "Smashball",
      "slug": "smashball--1",
      "service": "igdb"
    }
  ],
  "aliases": [],
  "shaders": [],
  "discord_id": "",
  "change_for": null
}