{
  "id": 34303,
  "name": "Great Swordsman",
  "slug": "great-swordsman",
  "year": 1984,
  "banner_url": "https://lutris.net/games/banner/great-swordsman.jpg",
  "icon_url": "https://lutris.net/games/icon/great-swordsman.png",
  "coverart": "https://lutris.net/media/igdb/cover_big/co8x13.jpg",
  "platforms": [
    {
      "name": "Arcade"
    }
  ],
  "provider_games": [
    {
      "name": "Great Swordsman",
      "slug": "gsword",
      "service": "mame"
    },
    {
      "name": "Great Swordsman",
      "slug": "great-swordsman",
      "service": "igdb"
    }
  ],
  "aliases": [],
  "shaders": [],
  "discord_id": "",
  "change_for": null
}