{
  "id": 88759,
  "name": "Pet Island: Build a cute pet shop!",
  "slug": "pet-island-build-a-cute-pet-shop",
  "year": null,
  "banner_url": "",
  "icon_url": "",
  "coverart": null,
  "platforms": [],
  "provider_games": [
    {
      "name": "Pet Island: Build a cute pet shop!",
      "slug": "pet-island-build-a-cute-pet-shop",
      "service": "igdb"
    }
  ],
  "aliases": [],
  "shaders": [],
  "discord_id": "",
  "change_for": null
}