{
  "id": 85972,
  "name": "Monster Mayhem: Build and Battle",
  "slug": "monster-mayhem-build-and-battle",
  "year": 2009,
  "banner_url": "",
  "icon_url": "",
  "coverart": "https://lutris.net/media/igdb/cover_big/co72qk.jpg",
  "platforms": [
    {
      "name": "Nintendo Wii"
    }
  ],
  "provider_games": [
    {
      "name": "Monster Mayhem: Build and Battle",
      "slug": "monster-mayhem-build-and-battle",
      "service": "igdb"
    }
  ],
  "aliases": [],
  "shaders": [],
  "discord_id": "",
  "change_for": null
}