{
  "id": 85444,
  "name": "Taiyou no Yuusha Fighbird GB",
  "slug": "taiyou-no-yuusha-fighbird-gb",
  "year": 1992,
  "banner_url": "",
  "icon_url": "",
  "coverart": "https://lutris.net/media/igdb/cover_big/co82sz.jpg",
  "platforms": [
    {
      "name": "Game Boy"
    }
  ],
  "provider_games": [
    {
      "name": "Taiyou no Yuusha Fighbird GB",
      "slug": "taiyou-no-yuusha-fighbird-gb",
      "service": "igdb"
    }
  ],
  "aliases": [],
  "shaders": [],
  "discord_id": "",
  "change_for": null
}