{
  "id": 3805,
  "game_id": 3889,
  "game_slug": "1213",
  "name": "1213",
  "year": 2005,
  "user": "FakeShemp",
  "runner": "ags",
  "slug": "1213-episode-3",
  "version": "Episode 3",
  "description": "",
  "notes": "",
  "credits": "",
  "created_at": "2017-05-22T18:58:38.133123Z",
  "updated_at": "2024-04-03T05:13:21.033466Z",
  "draft": false,
  "published": true,
  "published_by": null,
  "rating": "",
  "is_playable": null,
  "steamid": null,
  "gogid": null,
  "gogslug": "",
  "humbleid": "",
  "humblestoreid": "",
  "humblestoreid_real": "",
  "script": {
    "files": [
      {
        "file1": "http://www.americangirlscouts.org/1213/1213_ep3.zip"
      }
    ],
    "game": {
      "main_file": "1213_ep3.exe"
    },
    "installer": [
      {
        "extract": {
          "file": "$file1"
        }
      }
    ]
  },
  "content": "files:\n- file1: http://www.americangirlscouts.org/1213/1213_ep3.zip\ngame:\n  main_file: 1213_ep3.exe\ninstaller:\n- extract:\n    file: $file1\n",
  "discord_id": ""
}