{
  "id": 200772,
  "name": "Archie: Riverdale Rescue",
  "slug": "archie-riverdale-rescue",
  "year": 2013,
  "banner_url": "",
  "icon_url": "",
  "coverart": "https://lutris.net/media/igdb/cover_big/co4b7a.jpg",
  "platforms": [
    {
      "name": "Android"
    },
    {
      "name": "Windows"
    }
  ],
  "provider_games": [
    {
      "name": "Archie: Riverdale Rescue",
      "slug": "archie-riverdale-rescue",
      "service": "igdb"
    }
  ],
  "aliases": [],
  "shaders": [],
  "discord_id": "",
  "change_for": null
}