{
  "id": 199186,
  "name": "OS: Memories",
  "slug": "os-memories",
  "year": null,
  "banner_url": "",
  "icon_url": "",
  "coverart": "https://lutris.net/media/igdb/cover_big/co4eyg.jpg",
  "platforms": [],
  "provider_games": [
    {
      "name": "OS: Memories",
      "slug": "os-memories",
      "service": "igdb"
    }
  ],
  "aliases": [],
  "shaders": [],
  "discord_id": "",
  "change_for": null
}