{
  "id": 70600,
  "name": "Mud2",
  "slug": "mud2",
  "year": null,
  "banner_url": "",
  "icon_url": "",
  "coverart": "https://lutris.net/media/igdb/cover_big/co4vdp.jpg",
  "platforms": [],
  "provider_games": [
    {
      "name": "Mud2",
      "slug": "mud2",
      "service": "igdb"
    }
  ],
  "aliases": [],
  "shaders": [],
  "discord_id": "",
  "change_for": null
}