{
  "id": 229803,
  "name": "Kitty in the Crowd",
  "slug": "kitty-in-the-crowd",
  "year": 2014,
  "banner_url": "",
  "icon_url": "",
  "coverart": "https://lutris.net/media/igdb/cover_big/co6ci4.jpg",
  "platforms": [
    {
      "name": "Android"
    },
    {
      "name": "Windows"
    },
    {
      "name": "Windows Phone"
    }
  ],
  "provider_games": [
    {
      "name": "Kitty in the Crowd",
      "slug": "kitty-in-the-crowd",
      "service": "igdb"
    }
  ],
  "aliases": [],
  "shaders": [],
  "discord_id": "",
  "change_for": null
}