{
  "id": 124084,
  "name": "Master Of Secrets: Dark Europe",
  "slug": "master-of-secrets-dark-europe",
  "year": 2019,
  "banner_url": "",
  "icon_url": "",
  "coverart": null,
  "platforms": [
    {
      "name": "Mac"
    },
    {
      "name": "Windows"
    }
  ],
  "provider_games": [
    {
      "name": "Master of Secrets: Dark Europe",
      "slug": "master-of-secrets-dark-europe",
      "service": "igdb"
    }
  ],
  "aliases": [],
  "shaders": [],
  "discord_id": "",
  "change_for": null
}