{
  "id": 85999,
  "name": "Protection Civile Simulator 2013",
  "slug": "protection-civile-simulator-2013",
  "year": 2012,
  "banner_url": "",
  "icon_url": "",
  "coverart": "https://lutris.net/media/igdb/cover_big/vtsywzayvb0hnaeuhzxc.jpg",
  "platforms": [
    {
      "name": "Windows"
    }
  ],
  "provider_games": [
    {
      "name": "Protection Civile Simulator 2013",
      "slug": "protection-civile-simulator-2013",
      "service": "igdb"
    }
  ],
  "aliases": [],
  "shaders": [],
  "discord_id": "",
  "change_for": null
}