{
  "id": 209514,
  "name": "Prepper",
  "slug": "prepper",
  "year": 2020,
  "banner_url": "",
  "icon_url": "",
  "coverart": "https://lutris.net/media/igdb/cover_big/co93bi.jpg",
  "platforms": [
    {
      "name": "Linux"
    },
    {
      "name": "Mac"
    },
    {
      "name": "Windows"
    }
  ],
  "provider_games": [
    {
      "name": "Prepper",
      "slug": "prepper",
      "service": "igdb"
    }
  ],
  "aliases": [],
  "shaders": [],
  "discord_id": "",
  "change_for": null
}