{
  "id": 10395,
  "game_id": 22029,
  "game_slug": "dragonball-z-ultimate-battle-22",
  "name": "Dragon Ball Z: Ultimate Battle 22",
  "year": 1995,
  "user": "IAmAlreadyAGod",
  "runner": "libretro",
  "slug": "dragon-ball-z-ultimate-battle-playstation",
  "version": "PlayStation",
  "description": "Just uses existing ISO file of games and is launched with emulator.",
  "notes": "Non yet.",
  "credits": "",
  "created_at": "2018-10-01T20:41:19.295000Z",
  "updated_at": "2018-10-04T01:41:17.556138Z",
  "draft": false,
  "published": true,
  "published_by": null,
  "rating": "",
  "is_playable": null,
  "steamid": null,
  "gogid": null,
  "gogslug": "",
  "humbleid": "",
  "humblestoreid": "",
  "humblestoreid_real": "",
  "script": {
    "files": [
      {
        "iso_file": "N/A:Please select the PlayStation ISO file."
      }
    ],
    "game": {
      "core": "pcsx_rearmed",
      "main_file": "iso_file"
    },
    "installer": [
      {
        "merge": {
          "dst": "$GAMEDIR",
          "src": "iso_file"
        }
      }
    ]
  },
  "content": "files:\n- iso_file: N/A:Please select the PlayStation ISO file.\ngame:\n  core: pcsx_rearmed\n  main_file: iso_file\ninstaller:\n- merge:\n    dst: $GAMEDIR\n    src: iso_file\n",
  "discord_id": ""
}