{
  "id": 247187,
  "name": "2 in 1 Pack: St. Thomas - Elisabeth I.",
  "slug": "2-in-1-pack-st-thomas-elisabeth-i",
  "year": 1999,
  "banner_url": "",
  "icon_url": "",
  "coverart": null,
  "platforms": [],
  "provider_games": [
    {
      "name": "2 in 1 Pack: St. Thomas - Elisabeth I.",
      "slug": "2-in-1-pack-st-thomas-elisabeth-i",
      "service": "igdb"
    }
  ],
  "aliases": [],
  "shaders": [],
  "discord_id": "",
  "change_for": null
}