{
  "id": 72682,
  "name": "Galactic Dan",
  "slug": "galactic-dan",
  "year": null,
  "banner_url": "",
  "icon_url": "",
  "coverart": null,
  "platforms": [],
  "provider_games": [
    {
      "name": "Galactic Dan",
      "slug": "galactic-dan",
      "service": "igdb"
    }
  ],
  "aliases": [],
  "shaders": [],
  "discord_id": "",
  "change_for": null
}