{
  "id": 84651,
  "name": "Eggs of Steel",
  "slug": "eggs-of-steel",
  "year": 1998,
  "banner_url": "",
  "icon_url": "",
  "coverart": null,
  "platforms": [
    {
      "name": "Sony PlayStation"
    }
  ],
  "provider_games": [
    {
      "name": "Eggs of Steel",
      "slug": "eggs-of-steel",
      "service": "igdb"
    }
  ],
  "aliases": [],
  "shaders": [],
  "discord_id": "",
  "change_for": null
}