{
  "id": 239575,
  "name": "EarthGang: Mirrorland",
  "slug": "earthgang-mirrorland",
  "year": null,
  "banner_url": "",
  "icon_url": "",
  "coverart": null,
  "platforms": [],
  "provider_games": [
    {
      "name": "EarthGang: Mirrorland",
      "slug": "earthgang-mirrorland",
      "service": "igdb"
    }
  ],
  "aliases": [],
  "shaders": [],
  "discord_id": "",
  "change_for": null
}