{
  "id": 145971,
  "name": "The Amazing Spider-Man 2",
  "slug": "the-amazing-spider-man-2--1",
  "year": 1992,
  "banner_url": "",
  "icon_url": "",
  "coverart": "https://lutris.net/media/igdb/cover_big/co2dp4.jpg",
  "platforms": [
    {
      "name": "Game Boy"
    }
  ],
  "provider_games": [
    {
      "name": "The Amazing Spider-Man 2",
      "slug": "the-amazing-spider-man-2--1",
      "service": "igdb"
    }
  ],
  "aliases": [],
  "shaders": [],
  "discord_id": "",
  "change_for": null
}