{
  "id": 57306,
  "name": "Star Billions",
  "slug": "star-billions",
  "year": null,
  "banner_url": "",
  "icon_url": "",
  "coverart": "https://lutris.net/media/igdb/cover_big/rnblfdexqbfgomlne48i.jpg",
  "platforms": [],
  "provider_games": [
    {
      "name": "Star Billions",
      "slug": "star-billions",
      "service": "igdb"
    }
  ],
  "aliases": [],
  "shaders": [],
  "discord_id": "",
  "change_for": null
}