{
  "id": 51231,
  "name": "Mission Asteroid",
  "slug": "mission-asteroid",
  "year": 1980,
  "banner_url": "",
  "icon_url": "",
  "coverart": "https://lutris.net/media/igdb/cover_big/m5n98ycznyaaipcmlqyf.jpg",
  "platforms": [
    {
      "name": "Apple II"
    },
    {
      "name": "Atari 8-bit"
    },
    {
      "name": "Commodore C64/128"
    },
    {
      "name": "FM-7"
    },
    {
      "name": "PC-8801"
    },
    {
      "name": "PC-98"
    }
  ],
  "provider_games": [
    {
      "name": "Mission Asteroid",
      "slug": "mission-asteroid",
      "service": "igdb"
    }
  ],
  "aliases": [],
  "shaders": [],
  "discord_id": "",
  "change_for": null
}