{
  "id": 212652,
  "name": "Carnivorous",
  "slug": "carnivorous",
  "year": 1999,
  "banner_url": "",
  "icon_url": "",
  "coverart": null,
  "platforms": [
    {
      "name": "Windows"
    }
  ],
  "provider_games": [
    {
      "name": "Carnivorous",
      "slug": "carnivorous",
      "service": "igdb"
    }
  ],
  "aliases": [],
  "shaders": [],
  "discord_id": "",
  "change_for": null
}