{
  "id": 83176,
  "name": "Super Mahjong 3",
  "slug": "super-mahjong-3",
  "year": 1994,
  "banner_url": "",
  "icon_url": "",
  "coverart": null,
  "platforms": [
    {
      "name": "Super Nintendo"
    }
  ],
  "provider_games": [
    {
      "name": "Super Mahjong 3",
      "slug": "super-mahjong-3",
      "service": "igdb"
    }
  ],
  "aliases": [],
  "shaders": [],
  "discord_id": "",
  "change_for": null
}