{
  "id": 74482,
  "name": "OverTake: The Elite Challenge",
  "slug": "overtake-the-elite-challenge",
  "year": null,
  "banner_url": "",
  "icon_url": "",
  "coverart": null,
  "platforms": [],
  "provider_games": [
    {
      "name": "OverTake: The Elite Challenge",
      "slug": "overtake-the-elite-challenge",
      "service": "igdb"
    }
  ],
  "aliases": [],
  "shaders": [],
  "discord_id": "",
  "change_for": null
}