{
  "id": 17244,
  "name": "BoneTown",
  "slug": "bonetown",
  "year": 2009,
  "banner_url": "https://lutris.net/games/banner/bonetown.jpg",
  "icon_url": "",
  "coverart": "https://lutris.net/media/igdb/cover_big/co2w71.jpg",
  "platforms": [
    {
      "name": "Windows"
    }
  ],
  "provider_games": [
    {
      "name": "BoneTown",
      "slug": "bonetown",
      "service": "igdb"
    },
    {
      "name": "BoneTown",
      "slug": "288080",
      "service": "steam"
    }
  ],
  "aliases": [],
  "shaders": [],
  "discord_id": "",
  "change_for": null
}