{
  "id": 184648,
  "name": "The Power of Blood",
  "slug": "the-power-of-blood",
  "year": null,
  "banner_url": "",
  "icon_url": "",
  "coverart": null,
  "platforms": [],
  "provider_games": [
    {
      "name": "The Power of Blood",
      "slug": "the-power-of-blood",
      "service": "igdb"
    }
  ],
  "aliases": [],
  "shaders": [],
  "discord_id": "",
  "change_for": null
}