{
  "id": 189275,
  "name": "Rocksmith 2014 Edition - Remastered",
  "slug": "rocksmith-2014-edition-remastered",
  "year": 2016,
  "banner_url": "",
  "icon_url": "",
  "coverart": "https://lutris.net/media/igdb/cover_big/co2sgg.jpg",
  "platforms": [
    {
      "name": "Mac"
    },
    {
      "name": "Windows"
    },
    {
      "name": "Xbox One"
    }
  ],
  "provider_games": [
    {
      "name": "Rocksmith 2014 Edition: Remastered",
      "slug": "rocksmith-2014-edition-remastered",
      "service": "igdb"
    }
  ],
  "aliases": [],
  "shaders": [],
  "discord_id": "",
  "change_for": null
}