{
  "id": 210771,
  "name": "Alien Escape RPG: Idle Spider",
  "slug": "alien-escape-rpg-idle-spider",
  "year": null,
  "banner_url": "",
  "icon_url": "",
  "coverart": null,
  "platforms": [],
  "provider_games": [
    {
      "name": "Alien Escape RPG: Idle Spider",
      "slug": "alien-escape-rpg-idle-spider",
      "service": "igdb"
    }
  ],
  "aliases": [],
  "shaders": [],
  "discord_id": "",
  "change_for": null
}