{
  "id": 67420,
  "name": "Hoshi de Hakken!! Tamagotchi",
  "slug": "hoshi-de-hakken-tamagotchi",
  "year": null,
  "banner_url": "",
  "icon_url": "",
  "coverart": "https://lutris.net/media/igdb/cover_big/rhbbrfiiu4zvsbumwol2.jpg",
  "platforms": [],
  "provider_games": [
    {
      "name": "Hoshi de Hakken!! Tamagotchi",
      "slug": "hoshi-de-hakken-tamagotchi",
      "service": "igdb"
    }
  ],
  "aliases": [],
  "shaders": [],
  "discord_id": "",
  "change_for": null
}