{
  "id": 25914,
  "name": "Anthem",
  "slug": "anthem",
  "year": 2019,
  "banner_url": "https://lutris.net/games/banner/anthem.jpg",
  "icon_url": "https://lutris.net/games/icon/anthem.png",
  "coverart": "https://lutris.net/media/igdb/cover_big/co2n94.jpg",
  "platforms": [
    {
      "name": "Sony Playstation 4"
    },
    {
      "name": "Windows"
    },
    {
      "name": "Xbox One"
    }
  ],
  "provider_games": [
    {
      "name": "Anthem",
      "slug": "anthem",
      "service": "igdb"
    }
  ],
  "aliases": [],
  "shaders": [],
  "discord_id": "",
  "change_for": null
}