{
  "id": 197345,
  "name": "Magical Escape",
  "slug": "magical-escape",
  "year": null,
  "banner_url": "",
  "icon_url": "",
  "coverart": "https://lutris.net/media/igdb/cover_big/co4ksz.jpg",
  "platforms": [
    {
      "name": "Oculus Quest"
    },
    {
      "name": "Oculus Quest 2"
    }
  ],
  "provider_games": [
    {
      "name": "Magical Escape",
      "slug": "magical-escape",
      "service": "igdb"
    }
  ],
  "aliases": [],
  "shaders": [],
  "discord_id": "",
  "change_for": null
}