{
  "id": 287608,
  "name": "Sanou Kaihatsu Series 5: Meiro, Kioku",
  "slug": "sanou-kaihatsu-series-5-meiro-kioku",
  "year": 1995,
  "banner_url": "",
  "icon_url": "",
  "coverart": "https://lutris.net/media/igdb/cover_big/co8a2z.jpg",
  "platforms": [
    {
      "name": "Sega Pico"
    }
  ],
  "provider_games": [
    {
      "name": "Sanou Kaihatsu Series 5: Meiro, Kioku",
      "slug": "sanou-kaihatsu-series-5-meiro-kioku",
      "service": "igdb"
    }
  ],
  "aliases": [],
  "shaders": [],
  "discord_id": "",
  "change_for": null
}