{
  "id": 91780,
  "name": "Find the Difference in Pics",
  "slug": "find-the-difference-in-pics",
  "year": null,
  "banner_url": "",
  "icon_url": "",
  "coverart": null,
  "platforms": [],
  "provider_games": [
    {
      "name": "Find the Difference in Pics",
      "slug": "find-the-difference-in-pics",
      "service": "igdb"
    }
  ],
  "aliases": [],
  "shaders": [],
  "discord_id": "",
  "change_for": null
}