{
  "id": 36599,
  "name": "Hentai Killer",
  "slug": "hentai-killer",
  "year": null,
  "banner_url": "https://lutris.net/games/banner/hentai-killer.jpg",
  "icon_url": "https://lutris.net/games/icon/hentai-killer.png",
  "coverart": "https://lutris.net/media/igdb/cover_big/co7qzv.jpg",
  "platforms": [],
  "provider_games": [
    {
      "name": "Hentai Killer",
      "slug": "1157340",
      "service": "steam"
    },
    {
      "name": "Hentai Killer",
      "slug": "hentai-killer",
      "service": "igdb"
    }
  ],
  "aliases": [],
  "shaders": [],
  "discord_id": "",
  "change_for": null
}