{
  "id": 134840,
  "name": "WebbVR: The James Webb Space Telescope Virtual Experience",
  "slug": "webbvr-the-james-webb-space-telescope-virtual-experience",
  "year": null,
  "banner_url": "",
  "icon_url": "",
  "coverart": "https://lutris.net/media/igdb/cover_big/co3n2s.jpg",
  "platforms": [],
  "provider_games": [
    {
      "name": "WebbVR: The James Webb Space Telescope Virtual Experience",
      "slug": "webbvr-the-james-webb-space-telescope-virtual-experience",
      "service": "igdb"
    }
  ],
  "aliases": [],
  "shaders": [],
  "discord_id": "",
  "change_for": null
}