{
  "id": 289474,
  "name": "10 Gnomes 1: The Rooftops",
  "slug": "10-gnomes-1-the-rooftops",
  "year": 2008,
  "banner_url": "",
  "icon_url": "",
  "coverart": "https://lutris.net/media/igdb/cover_big/co8ds8.jpg",
  "platforms": [
    {
      "name": "Browser"
    },
    {
      "name": "Windows"
    }
  ],
  "provider_games": [
    {
      "name": "10 Gnomes 1: The Rooftops",
      "slug": "10-gnomes-1-the-rooftops",
      "service": "igdb"
    }
  ],
  "aliases": [],
  "shaders": [],
  "discord_id": "",
  "change_for": null
}