{
  "id": 125148,
  "name": "Ancient Tower",
  "slug": "ancient-tower",
  "year": null,
  "banner_url": "",
  "icon_url": "",
  "coverart": null,
  "platforms": [],
  "provider_games": [
    {
      "name": "Ancient Tower",
      "slug": "ancient-tower",
      "service": "igdb"
    }
  ],
  "aliases": [],
  "shaders": [],
  "discord_id": "",
  "change_for": null
}