{
  "id": 145074,
  "name": "Poor Stickman",
  "slug": "poor-stickman",
  "year": null,
  "banner_url": "",
  "icon_url": "",
  "coverart": "https://lutris.net/media/igdb/cover_big/co3vi1.jpg",
  "platforms": [],
  "provider_games": [
    {
      "name": "Poor Stickman",
      "slug": "poor-stickman",
      "service": "igdb"
    }
  ],
  "aliases": [],
  "shaders": [],
  "discord_id": "",
  "change_for": null
}