{
  "id": 101092,
  "name": "BECOME A GREAT ARTIST IN JUST 10 SECONDS",
  "slug": "become-a-great-artist-in-just-10-seconds",
  "year": 2013,
  "banner_url": "",
  "icon_url": "",
  "coverart": "https://lutris.net/media/igdb/cover_big/co2igo.jpg",
  "platforms": [
    {
      "name": "Browser"
    },
    {
      "name": "Mac"
    },
    {
      "name": "Windows"
    }
  ],
  "provider_games": [
    {
      "name": "Become a Great Artist in Just 10 Seconds",
      "slug": "become-a-great-artist-in-just-10-seconds",
      "service": "igdb"
    }
  ],
  "aliases": [],
  "shaders": [],
  "discord_id": "",
  "change_for": null
}