{
  "id": 259264,
  "name": "剑域情缘",
  "slug": "jian-yu-qing-yuan",
  "year": null,
  "banner_url": "https://lutris.net/games/banner/jian-yu-qing-yuan.jpg",
  "icon_url": "https://lutris.net/games/icon/jian-yu-qing-yuan.png",
  "coverart": null,
  "platforms": [],
  "provider_games": [
    {
      "name": "剑域情缘",
      "slug": "2321600",
      "service": "steam"
    }
  ],
  "aliases": [],
  "shaders": [],
  "discord_id": "",
  "change_for": null
}