{
  "id": 121716,
  "name": "ContactS",
  "slug": "contacts",
  "year": 2017,
  "banner_url": "https://lutris.net/games/banner/contacts.jpg",
  "icon_url": "",
  "coverart": "https://lutris.net/media/igdb/cover_big/co3c4w.jpg",
  "platforms": [
    {
      "name": "Mac"
    },
    {
      "name": "Windows"
    }
  ],
  "provider_games": [
    {
      "name": "ContactS",
      "slug": "contacts",
      "service": "igdb"
    }
  ],
  "aliases": [],
  "shaders": [],
  "discord_id": "",
  "change_for": null
}