{
  "id": 152089,
  "name": "Pode",
  "slug": "pode",
  "year": 2018,
  "banner_url": "https://lutris.net/games/banner/pode.jpg",
  "icon_url": "",
  "coverart": "https://lutris.net/media/igdb/cover_big/co26cu.jpg",
  "platforms": [
    {
      "name": "Nintendo Switch"
    },
    {
      "name": "Sony Playstation 4"
    }
  ],
  "provider_games": [
    {
      "name": "Pode",
      "slug": "944080",
      "service": "steam"
    },
    {
      "name": "Pode",
      "slug": "pode",
      "service": "igdb"
    }
  ],
  "aliases": [],
  "shaders": [],
  "discord_id": "",
  "change_for": null
}