{
  "id": 86627,
  "name": "Holiday Express",
  "slug": "holiday-express",
  "year": null,
  "banner_url": "",
  "icon_url": "",
  "coverart": null,
  "platforms": [],
  "provider_games": [
    {
      "name": "Holiday Express",
      "slug": "holiday-express",
      "service": "igdb"
    }
  ],
  "aliases": [],
  "shaders": [],
  "discord_id": "",
  "change_for": null
}