{
  "id": 193114,
  "name": "No One's Earth",
  "slug": "no-ones-earth",
  "year": null,
  "banner_url": "",
  "icon_url": "",
  "coverart": "https://lutris.net/media/igdb/cover_big/co4fif.jpg",
  "platforms": [],
  "provider_games": [
    {
      "name": "No One's Earth",
      "slug": "no-ones-earth",
      "service": "igdb"
    }
  ],
  "aliases": [],
  "shaders": [],
  "discord_id": "",
  "change_for": null
}