{
  "id": 54557,
  "name": "The Seven Deadly Sins: Knights in the Pocket",
  "slug": "the-seven-deadly-sins-knights-in-the-pocket",
  "year": 2015,
  "banner_url": "",
  "icon_url": "",
  "coverart": "https://lutris.net/media/igdb/cover_big/swsib784nnmmuendklmh.jpg",
  "platforms": [
    {
      "name": "Android"
    }
  ],
  "provider_games": [
    {
      "name": "The Seven Deadly Sins: Knights in the Pocket",
      "slug": "the-seven-deadly-sins-knights-in-the-pocket",
      "service": "igdb"
    }
  ],
  "aliases": [],
  "shaders": [],
  "discord_id": "",
  "change_for": null
}