{
  "id": 266697,
  "name": "Shadow and Bone: Enter the Fold",
  "slug": "shadow-and-bone-enter-the-fold--1",
  "year": 2023,
  "banner_url": "",
  "icon_url": "",
  "coverart": null,
  "platforms": [
    {
      "name": "Android"
    }
  ],
  "provider_games": [
    {
      "name": "Shadow and Bone: Enter the Fold",
      "slug": "shadow-and-bone-enter-the-fold--1",
      "service": "igdb"
    }
  ],
  "aliases": [],
  "shaders": [],
  "discord_id": "",
  "change_for": null
}