{
  "id": 5284,
  "name": "POD Gold",
  "slug": "pod-gold",
  "year": 1997,
  "banner_url": "https://lutris.net/games/banner/pod-gold.jpg",
  "icon_url": "",
  "coverart": "https://lutris.net/media/igdb/cover_big/co1sya.jpg",
  "platforms": [
    {
      "name": "Windows"
    }
  ],
  "provider_games": [
    {
      "name": "POD Gold",
      "slug": "1207658970",
      "service": "gog"
    },
    {
      "name": "POD Gold",
      "slug": "pod-gold",
      "service": "igdb"
    }
  ],
  "aliases": [],
  "shaders": [],
  "discord_id": "",
  "change_for": null
}