{
  "id": 220128,
  "name": "Reality Break",
  "slug": "reality-break",
  "year": null,
  "banner_url": "",
  "icon_url": "",
  "coverart": "https://lutris.net/media/igdb/cover_big/co5lzc.jpg",
  "platforms": [],
  "provider_games": [
    {
      "name": "Reality Break",
      "slug": "reality-break",
      "service": "igdb"
    },
    {
      "name": "Reality Break",
      "slug": "1186521704",
      "service": "gog"
    }
  ],
  "aliases": [],
  "shaders": [],
  "discord_id": "",
  "change_for": null
}