{
  "id": 82624,
  "name": "Tokyo Ghoul - To Eat or Not To Eat",
  "slug": "tokyo-ghoul-to-eat-or-not-to-eat",
  "year": 2017,
  "banner_url": "",
  "icon_url": "",
  "coverart": "https://lutris.net/media/igdb/cover_big/czqwkklpgndagrws77dd.jpg",
  "platforms": [
    {
      "name": "Legacy Cellphone"
    },
    {
      "name": "Linux"
    },
    {
      "name": "Mac"
    },
    {
      "name": "Windows"
    }
  ],
  "provider_games": [
    {
      "name": "Tokyo Ghoul: To Eat or Not to Eat",
      "slug": "tokyo-ghoul-to-eat-or-not-to-eat",
      "service": "igdb"
    }
  ],
  "aliases": [],
  "shaders": [],
  "discord_id": "",
  "change_for": null
}