{
  "id": 152650,
  "name": "CHECKMATE : Battle Arenas",
  "slug": "checkmate-battle-arenas",
  "year": 2018,
  "banner_url": "",
  "icon_url": "",
  "coverart": null,
  "platforms": [
    {
      "name": "Windows"
    }
  ],
  "provider_games": [
    {
      "name": "Checkmate : Battle Arenas",
      "slug": "checkmate-battle-arenas",
      "service": "igdb"
    }
  ],
  "aliases": [],
  "shaders": [],
  "discord_id": "",
  "change_for": null
}