{
  "id": 2741,
  "name": "Pole Position 2012",
  "slug": "pole-position-2012",
  "year": 2012,
  "banner_url": "https://lutris.net/games/banner/pole-position-2012.jpg",
  "icon_url": "https://lutris.net/games/icon/pole-position-2012.png",
  "coverart": "https://lutris.net/media/igdb/cover_big/ojjwrjwyryw8y4dndkpx.jpg",
  "platforms": [
    {
      "name": "Windows"
    }
  ],
  "provider_games": [
    {
      "name": "Pole Position 2012",
      "slug": "pole-position-2012",
      "service": "igdb"
    }
  ],
  "aliases": [],
  "shaders": [],
  "discord_id": "",
  "change_for": null
}