{
  "id": 155049,
  "name": "Redside: Episode 1",
  "slug": "redside-episode-1",
  "year": null,
  "banner_url": "",
  "icon_url": "",
  "coverart": "https://lutris.net/media/igdb/cover_big/co3xhv.jpg",
  "platforms": [],
  "provider_games": [
    {
      "name": "Redside: Episode 1",
      "slug": "redside-episode-1",
      "service": "igdb"
    }
  ],
  "aliases": [],
  "shaders": [],
  "discord_id": "",
  "change_for": null
}