{
  "id": 89817,
  "name": "Cooking Food Maker Games",
  "slug": "cooking-food-maker-games",
  "year": null,
  "banner_url": "",
  "icon_url": "",
  "coverart": null,
  "platforms": [],
  "provider_games": [
    {
      "name": "Cooking Food Maker Games",
      "slug": "cooking-food-maker-games",
      "service": "igdb"
    }
  ],
  "aliases": [],
  "shaders": [],
  "discord_id": "",
  "change_for": null
}