{
  "id": 62590,
  "name": "Another Century's Episode Portable",
  "slug": "another-centurys-episode-portable",
  "year": null,
  "banner_url": "",
  "icon_url": "",
  "coverart": "https://lutris.net/media/igdb/cover_big/co2ffc.jpg",
  "platforms": [],
  "provider_games": [
    {
      "name": "Another Century's Episode Portable",
      "slug": "another-centurys-episode-portable",
      "service": "igdb"
    }
  ],
  "aliases": [],
  "shaders": [],
  "discord_id": "",
  "change_for": null
}