{
  "id": 108356,
  "name": "Daydreamer: Awakened Edition",
  "slug": "daydreamer-awakened-edition",
  "year": 2016,
  "banner_url": "",
  "icon_url": "",
  "coverart": null,
  "platforms": [
    {
      "name": "Sony Playstation 4"
    }
  ],
  "provider_games": [
    {
      "name": "Daydreamer: Awakened Edition",
      "slug": "daydreamer-awakened-edition",
      "service": "igdb"
    }
  ],
  "aliases": [],
  "shaders": [],
  "discord_id": "",
  "change_for": null
}