{
  "id": 109015,
  "name": "The Ninja Warriors Once Again",
  "slug": "the-ninja-warriors-once-again",
  "year": 2019,
  "banner_url": "",
  "icon_url": "",
  "coverart": "https://lutris.net/media/igdb/cover_big/co1l20.jpg",
  "platforms": [
    {
      "name": "Nintendo Switch"
    },
    {
      "name": "Sony Playstation 4"
    }
  ],
  "provider_games": [
    {
      "name": "The Ninja Warriors Once Again",
      "slug": "the-ninja-warriors-once-again",
      "service": "igdb"
    }
  ],
  "aliases": [],
  "shaders": [],
  "discord_id": "",
  "change_for": null
}