{
  "id": 262373,
  "name": "Fowl Damage",
  "slug": "fowl-damage",
  "year": null,
  "banner_url": "",
  "icon_url": "",
  "coverart": "https://lutris.net/media/igdb/cover_big/co78e9.jpg",
  "platforms": [],
  "provider_games": [
    {
      "name": "Fowl Damage",
      "slug": "fowl-damage",
      "service": "igdb"
    }
  ],
  "aliases": [],
  "shaders": [],
  "discord_id": "",
  "change_for": null
}