{
  "id": 13506,
  "name": "The Adventurer - Episode 1: Beginning of the End",
  "slug": "the-adventurer-episode-1-beginning-of-the-end",
  "year": 2017,
  "banner_url": "https://lutris.net/games/banner/the-adventurer-episode-1-beginning-of-the-end.jpg",
  "icon_url": "https://lutris.net/games/icon/the-adventurer-episode-1-beginning-of-the-end.png",
  "coverart": "https://lutris.net/media/igdb/cover_big/co7jpz.jpg",
  "platforms": [
    {
      "name": "Windows"
    }
  ],
  "provider_games": [
    {
      "name": "The Adventurer - Episode 1: Beginning of the End",
      "slug": "628760",
      "service": "steam"
    },
    {
      "name": "The Adventurer: Episode 1 - Beginning of the End",
      "slug": "the-adventurer-episode-1-beginning-of-the-end",
      "service": "igdb"
    }
  ],
  "aliases": [],
  "shaders": [],
  "discord_id": "",
  "change_for": null
}