{
  "id": 207505,
  "name": "The Girl With The Gray Hair Awakens",
  "slug": "the-girl-with-the-gray-hair-awakens",
  "year": 2019,
  "banner_url": "",
  "icon_url": "",
  "coverart": "https://lutris.net/media/igdb/cover_big/co5r51.jpg",
  "platforms": [
    {
      "name": "Windows"
    }
  ],
  "provider_games": [
    {
      "name": "The Girl With the Gray Hair Awakens",
      "slug": "the-girl-with-the-gray-hair-awakens",
      "service": "igdb"
    }
  ],
  "aliases": [],
  "shaders": [],
  "discord_id": "",
  "change_for": null
}