{
  "id": 14518,
  "game_id": 16896,
  "game_slug": "stormworks-build-and-rescue",
  "name": "Stormworks: Build and Rescue",
  "year": 2020,
  "user": "dsmanneke",
  "runner": "steam",
  "slug": "stormworks-build-and-rescue-steam-proton",
  "version": "Steam Proton",
  "description": null,
  "notes": "",
  "credits": "",
  "created_at": "2019-07-10T21:36:14.891000Z",
  "updated_at": "2019-10-11T00:26:03.701101Z",
  "draft": false,
  "published": true,
  "published_by": 19464,
  "rating": "",
  "is_playable": null,
  "steamid": 573090,
  "gogid": null,
  "gogslug": "",
  "humbleid": "",
  "humblestoreid": "",
  "humblestoreid_real": "",
  "script": {
    "game": {
      "appid": 573090
    }
  },
  "content": "game:\n  appid: 573090\n",
  "discord_id": ""
}