{
  "id": 122619,
  "name": "Oscar Mike VR",
  "slug": "oscar-mike-vr",
  "year": 2016,
  "banner_url": "",
  "icon_url": "",
  "coverart": null,
  "platforms": [
    {
      "name": "Windows"
    }
  ],
  "provider_games": [
    {
      "name": "Oscar Mike VR",
      "slug": "oscar-mike-vr",
      "service": "igdb"
    }
  ],
  "aliases": [],
  "shaders": [],
  "discord_id": "",
  "change_for": null
}