{
  "id": 51034,
  "name": "Mary-Kate & Ashley: Crush Course",
  "slug": "mary-kate-ashley-crush-course",
  "year": 2001,
  "banner_url": "",
  "icon_url": "",
  "coverart": "https://lutris.net/media/igdb/cover_big/frk9doyofo3mxzt59v41.jpg",
  "platforms": [
    {
      "name": "Nintendo Game Boy Color"
    },
    {
      "name": "Sony PlayStation"
    },
    {
      "name": "Windows"
    }
  ],
  "provider_games": [
    {
      "name": "Mary-Kate & Ashley: Crush Course",
      "slug": "mary-kate-ashley-crush-course",
      "service": "igdb"
    }
  ],
  "aliases": [],
  "shaders": [],
  "discord_id": "",
  "change_for": null
}