{
  "id": 127129,
  "name": "Amusement Planet Phantasmagoria",
  "slug": "amusement-planet-phantasmagoria",
  "year": 1995,
  "banner_url": "",
  "icon_url": "",
  "coverart": "https://lutris.net/media/igdb/cover_big/co313r.jpg",
  "platforms": [
    {
      "name": "Windows"
    }
  ],
  "provider_games": [
    {
      "name": "Amusement Planet Phantasmagoria",
      "slug": "amusement-planet-phantasmagoria",
      "service": "igdb"
    }
  ],
  "aliases": [],
  "shaders": [],
  "discord_id": "",
  "change_for": null
}