{
  "id": 38277,
  "name": "Super Mario 3D World",
  "slug": "super-mario-3d-world-1",
  "year": 2013,
  "banner_url": "https://lutris.net/games/banner/super-mario-3d-world-1.jpg",
  "icon_url": "",
  "coverart": null,
  "platforms": [
    {
      "name": "Nintendo Wii U"
    }
  ],
  "provider_games": [],
  "aliases": [],
  "shaders": [],
  "discord_id": "",
  "change_for": null
}