{
  "id": 168869,
  "name": "Anno 2205: Collector's Edition",
  "slug": "anno-2205-collectors-edition",
  "year": 2015,
  "banner_url": "",
  "icon_url": "",
  "coverart": "https://lutris.net/media/igdb/cover_big/rp379nerkydt5bcyeyhz.jpg",
  "platforms": [
    {
      "name": "Windows"
    }
  ],
  "provider_games": [
    {
      "name": "Anno 2205: Collector's Edition",
      "slug": "anno-2205-collectors-edition",
      "service": "igdb"
    }
  ],
  "aliases": [],
  "shaders": [],
  "discord_id": "",
  "change_for": null
}