{
  "id": 284355,
  "name": "Teenage Mutant Ninja Turtles 3: Shredder's Last Stand",
  "slug": "teenage-mutant-ninja-turtles-3-shredders-last-stand",
  "year": 1991,
  "banner_url": "",
  "icon_url": "",
  "coverart": null,
  "platforms": [],
  "provider_games": [
    {
      "name": "Teenage Mutant Ninja Turtles 3: Shredder's Last Stand",
      "slug": "teenage-mutant-ninja-turtles-3-shredders-last-stand",
      "service": "igdb"
    }
  ],
  "aliases": [],
  "shaders": [],
  "discord_id": "",
  "change_for": null
}