{
  "id": 126648,
  "name": "MARS VR(全球使命VR)",
  "slug": "mars-vr-quan-qiu-shi-ming-vr",
  "year": 2017,
  "banner_url": "",
  "icon_url": "",
  "coverart": null,
  "platforms": [
    {
      "name": "Windows"
    }
  ],
  "provider_games": [
    {
      "name": "MARS VR(全球使命VR)",
      "slug": "mars-vr-quan-qiu-shi-ming-vr",
      "service": "igdb"
    }
  ],
  "aliases": [],
  "shaders": [],
  "discord_id": "",
  "change_for": null
}