{
  "id": 11969,
  "name": "Stardrift Nomads",
  "slug": "stardrift-nomads",
  "year": 2017,
  "banner_url": "https://lutris.net/games/banner/stardrift-nomads.jpg",
  "icon_url": "https://lutris.net/games/icon/stardrift-nomads.png",
  "coverart": "https://lutris.net/media/igdb/cover_big/co2rf4.jpg",
  "platforms": [
    {
      "name": "Linux"
    },
    {
      "name": "Mac"
    },
    {
      "name": "Windows"
    }
  ],
  "provider_games": [
    {
      "name": "Stardrift Nomads",
      "slug": "381250",
      "service": "steam"
    },
    {
      "name": "Stardrift Nomads",
      "slug": "stardrift-nomads",
      "service": "igdb"
    }
  ],
  "aliases": [],
  "shaders": [],
  "discord_id": "",
  "change_for": null
}