{
  "id": 192828,
  "name": "Digimon",
  "slug": "digimon",
  "year": null,
  "banner_url": "",
  "icon_url": "",
  "coverart": "https://lutris.net/media/igdb/cover_big/co4kti.jpg",
  "platforms": [],
  "provider_games": [
    {
      "name": "Digimon",
      "slug": "digimon",
      "service": "igdb"
    }
  ],
  "aliases": [],
  "shaders": [],
  "discord_id": "",
  "change_for": null
}