{
  "id": 18212,
  "name": "Persian Nights: Sands of Wonders",
  "slug": "persian-nights-sands-of-wonders",
  "year": 2017,
  "banner_url": "https://lutris.net/games/banner/persian-nights-sands-of-wonders.jpg",
  "icon_url": "https://lutris.net/games/icon/persian-nights-sands-of-wonders.png",
  "coverart": "https://lutris.net/media/igdb/cover_big/co21ow.jpg",
  "platforms": [
    {
      "name": "Android"
    },
    {
      "name": "Linux"
    },
    {
      "name": "Mac"
    },
    {
      "name": "Nintendo Switch"
    },
    {
      "name": "Sony Playstation 4"
    },
    {
      "name": "Windows"
    },
    {
      "name": "Xbox One"
    }
  ],
  "provider_games": [
    {
      "name": "Persian Nights: Sands of Wonders",
      "slug": "621080",
      "service": "steam"
    },
    {
      "name": "Persian Nights: Sands of Wonders",
      "slug": "persian-nights-sands-of-wonders",
      "service": "igdb"
    }
  ],
  "aliases": [],
  "shaders": [],
  "discord_id": "",
  "change_for": null
}