{
  "id": 237785,
  "name": "Princess and the Ice Dragon",
  "slug": "princess-and-the-ice-dragon",
  "year": null,
  "banner_url": "",
  "icon_url": "",
  "coverart": null,
  "platforms": [],
  "provider_games": [
    {
      "name": "Princess and the Ice Dragon",
      "slug": "princess-and-the-ice-dragon",
      "service": "igdb"
    }
  ],
  "aliases": [],
  "shaders": [],
  "discord_id": "",
  "change_for": null
}