{
  "id": 102481,
  "name": "Heroes Chronicles: Masters of the Elements",
  "slug": "heroes-chronicles-masters-of-the-elements",
  "year": 2000,
  "banner_url": "",
  "icon_url": "",
  "coverart": "https://lutris.net/media/igdb/cover_big/co29lv.jpg",
  "platforms": [
    {
      "name": "Windows"
    }
  ],
  "provider_games": [
    {
      "name": "Heroes Chronicles: Masters of the Elements",
      "slug": "heroes-chronicles-masters-of-the-elements",
      "service": "igdb"
    }
  ],
  "aliases": [],
  "shaders": [],
  "discord_id": "",
  "change_for": null
}