{
  "id": 81703,
  "name": "Super Yum Yum 3",
  "slug": "super-yum-yum-3",
  "year": null,
  "banner_url": "",
  "icon_url": "",
  "coverart": null,
  "platforms": [],
  "provider_games": [
    {
      "name": "Super Yum Yum 3",
      "slug": "super-yum-yum-3",
      "service": "igdb"
    }
  ],
  "aliases": [],
  "shaders": [],
  "discord_id": "",
  "change_for": null
}