{
  "id": 198709,
  "name": "RPG Tsukuuru GB",
  "slug": "rpg-tsukuuru-gb",
  "year": 2000,
  "banner_url": "",
  "icon_url": "",
  "coverart": null,
  "platforms": [
    {
      "name": "Nintendo Game Boy Color"
    }
  ],
  "provider_games": [
    {
      "name": "RPG Tsukuuru GB",
      "slug": "rpg-tsukuuru-gb",
      "service": "igdb"
    }
  ],
  "aliases": [],
  "shaders": [],
  "discord_id": "",
  "change_for": null
}