{
  "id": 188656,
  "name": "The Bog's Heart",
  "slug": "the-bogs-heart",
  "year": null,
  "banner_url": "",
  "icon_url": "",
  "coverart": "https://lutris.net/media/igdb/cover_big/co5xgq.jpg",
  "platforms": [],
  "provider_games": [
    {
      "name": "The Bog's Heart",
      "slug": "the-bogs-heart",
      "service": "igdb"
    }
  ],
  "aliases": [],
  "shaders": [],
  "discord_id": "",
  "change_for": null
}