{
  "id": 244323,
  "name": "Night Security",
  "slug": "night-security",
  "year": null,
  "banner_url": "",
  "icon_url": "",
  "coverart": "https://lutris.net/media/igdb/cover_big/co6dwm.jpg",
  "platforms": [],
  "provider_games": [
    {
      "name": "Night Security",
      "slug": "night-security",
      "service": "igdb"
    }
  ],
  "aliases": [],
  "shaders": [],
  "discord_id": "",
  "change_for": null
}