{
  "id": 31113,
  "name": "Aeon by SoundSpectrum",
  "slug": "aeon-by-soundspectrum",
  "year": null,
  "banner_url": "https://lutris.net/games/banner/aeon-by-soundspectrum.jpg",
  "icon_url": "",
  "coverart": null,
  "platforms": [
    {
      "name": "Windows"
    }
  ],
  "provider_games": [],
  "aliases": [],
  "shaders": [],
  "discord_id": "",
  "change_for": null
}