{
  "id": 155933,
  "name": "VM Japan: Vantage Master - Mystic Far East",
  "slug": "vm-japan-vantage-master-mystic-far-east",
  "year": 2002,
  "banner_url": "",
  "icon_url": "",
  "coverart": "https://lutris.net/media/igdb/cover_big/ddfz5p2vdlrws4occoho.jpg",
  "platforms": [
    {
      "name": "Sony PlayStation 2"
    },
    {
      "name": "Windows"
    }
  ],
  "provider_games": [
    {
      "name": "VM Japan: Vantage Master - Mystic Far East",
      "slug": "vm-japan-vantage-master-mystic-far-east",
      "service": "igdb"
    }
  ],
  "aliases": [],
  "shaders": [],
  "discord_id": "",
  "change_for": null
}