{
  "id": 104366,
  "name": "Dragon RPG: Dragon Village M",
  "slug": "dragon-rpg-dragon-village-m",
  "year": null,
  "banner_url": "",
  "icon_url": "",
  "coverart": "https://lutris.net/media/igdb/cover_big/co2pz1.jpg",
  "platforms": [],
  "provider_games": [
    {
      "name": "Dragon RPG: Dragon Village M",
      "slug": "dragon-rpg-dragon-village-m",
      "service": "igdb"
    }
  ],
  "aliases": [],
  "shaders": [],
  "discord_id": "",
  "change_for": null
}