{
  "id": 273951,
  "name": "In Corporeal",
  "slug": "in-corporeal",
  "year": null,
  "banner_url": "",
  "icon_url": "",
  "coverart": "https://lutris.net/media/igdb/cover_big/co7rx2.jpg",
  "platforms": [],
  "provider_games": [
    {
      "name": "In Corporeal",
      "slug": "in-corporeal",
      "service": "igdb"
    }
  ],
  "aliases": [],
  "shaders": [],
  "discord_id": "",
  "change_for": null
}