{
  "id": 52891,
  "name": "Dungelot",
  "slug": "dungelot",
  "year": null,
  "banner_url": "",
  "icon_url": "",
  "coverart": "https://lutris.net/media/igdb/cover_big/lusdyxngpbgd85dfzo7h.jpg",
  "platforms": [],
  "provider_games": [
    {
      "name": "Dungelot",
      "slug": "dungelot",
      "service": "igdb"
    }
  ],
  "aliases": [],
  "shaders": [],
  "discord_id": "",
  "change_for": null
}