{
  "id": 162104,
  "name": "Virtua Fighter CG Portrait Series Vol. 5: Wolf Hawkfield",
  "slug": "virtua-fighter-cg-portrait-series-vol-5-wolf-hawkfield",
  "year": 1995,
  "banner_url": "",
  "icon_url": "",
  "coverart": "https://lutris.net/media/igdb/cover_big/co405s.jpg",
  "platforms": [
    {
      "name": "Sega Saturn"
    }
  ],
  "provider_games": [
    {
      "name": "Virtua Fighter CG Portrait Series Vol. 5: Wolf Hawkfield",
      "slug": "virtua-fighter-cg-portrait-series-vol-5-wolf-hawkfield",
      "service": "igdb"
    }
  ],
  "aliases": [],
  "shaders": [],
  "discord_id": "",
  "change_for": null
}