{
  "id": 251061,
  "name": "Pearlglow Cafe: Sweet Crumb Kisses",
  "slug": "pearlglow-cafe-sweet-crumb-kisses",
  "year": 2023,
  "banner_url": "",
  "icon_url": "",
  "coverart": "https://lutris.net/media/igdb/cover_big/co6pgw.jpg",
  "platforms": [
    {
      "name": "Mac"
    },
    {
      "name": "Windows"
    }
  ],
  "provider_games": [
    {
      "name": "Pearlglow Cafe: Sweet Crumb Kisses",
      "slug": "pearlglow-cafe-sweet-crumb-kisses",
      "service": "igdb"
    }
  ],
  "aliases": [],
  "shaders": [],
  "discord_id": "",
  "change_for": null
}