{
  "id": 20318,
  "name": "Nebulous",
  "slug": "nebulous",
  "year": 2016,
  "banner_url": "https://lutris.net/games/banner/nebulous.jpg",
  "icon_url": "https://lutris.net/games/icon/nebulous.png",
  "coverart": "https://lutris.net/media/igdb/cover_big/hq3nazhiueh2wvepf2zk.jpg",
  "platforms": [
    {
      "name": "Mac"
    },
    {
      "name": "Sony Playstation 4"
    },
    {
      "name": "Windows"
    },
    {
      "name": "Xbox One"
    }
  ],
  "provider_games": [
    {
      "name": "Nebulous",
      "slug": "370140",
      "service": "steam"
    },
    {
      "name": "Nebulous",
      "slug": "nebulous",
      "service": "igdb"
    }
  ],
  "aliases": [],
  "shaders": [],
  "discord_id": "",
  "change_for": null
}