{
  "id": 256025,
  "name": "Alvara",
  "slug": "alvara",
  "year": null,
  "banner_url": "",
  "icon_url": "",
  "coverart": "https://lutris.net/media/igdb/cover_big/co6xt5.jpg",
  "platforms": [],
  "provider_games": [
    {
      "name": "Alvara",
      "slug": "alvara",
      "service": "igdb"
    }
  ],
  "aliases": [],
  "shaders": [],
  "discord_id": "",
  "change_for": null
}