{
  "id": 278444,
  "name": "Sculpt People: Complete Edition",
  "slug": "sculpt-people-complete-edition",
  "year": 2024,
  "banner_url": "",
  "icon_url": "",
  "coverart": null,
  "platforms": [
    {
      "name": "Nintendo Switch"
    }
  ],
  "provider_games": [
    {
      "name": "Sculpt People: Complete Edition",
      "slug": "sculpt-people-complete-edition",
      "service": "igdb"
    }
  ],
  "aliases": [],
  "shaders": [],
  "discord_id": "",
  "change_for": null
}