{
  "id": 238424,
  "name": "Fancy!",
  "slug": "fancy",
  "year": null,
  "banner_url": "",
  "icon_url": "",
  "coverart": "https://lutris.net/media/igdb/cover_big/co650i.jpg",
  "platforms": [],
  "provider_games": [
    {
      "name": "Fancy!",
      "slug": "fancy",
      "service": "igdb"
    }
  ],
  "aliases": [],
  "shaders": [],
  "discord_id": "",
  "change_for": null
}