{
  "id": 21507,
  "name": "Ignis Avis Venatio",
  "slug": "ignis-avis-venatio",
  "year": 2018,
  "banner_url": "https://lutris.net/games/banner/ignis-avis-venatio.jpg",
  "icon_url": "https://lutris.net/games/icon/ignis-avis-venatio.png",
  "coverart": "https://lutris.net/media/igdb/cover_big/co6q8i.jpg",
  "platforms": [
    {
      "name": "Linux"
    },
    {
      "name": "Windows"
    }
  ],
  "provider_games": [
    {
      "name": "Ignis Avis Venatio",
      "slug": "809570",
      "service": "steam"
    },
    {
      "name": "Ignis Avis Venatio",
      "slug": "ignis-avis-venatio",
      "service": "igdb"
    }
  ],
  "aliases": [],
  "shaders": [],
  "discord_id": "",
  "change_for": null
}