{
  "id": 121817,
  "name": "Wolflord - Online Werewolf",
  "slug": "wolflord-online-werewolf",
  "year": 2020,
  "banner_url": "",
  "icon_url": "",
  "coverart": "https://lutris.net/media/igdb/cover_big/co2kph.jpg",
  "platforms": [
    {
      "name": "Mac"
    },
    {
      "name": "Windows"
    }
  ],
  "provider_games": [
    {
      "name": "Wolflord - Online Werewolf",
      "slug": "wolflord-online-werewolf",
      "service": "igdb"
    }
  ],
  "aliases": [],
  "shaders": [],
  "discord_id": "",
  "change_for": null
}