{
  "id": 133402,
  "name": "You Will Die Here Tonight",
  "slug": "you-will-die-here-tonight",
  "year": null,
  "banner_url": "https://lutris.net/games/banner/you-will-die-here-tonight.jpg",
  "icon_url": "",
  "coverart": "https://lutris.net/media/igdb/cover_big/co3l6n.jpg",
  "platforms": [],
  "provider_games": [
    {
      "name": "You Will Die Here Tonight",
      "slug": "you-will-die-here-tonight",
      "service": "igdb"
    },
    {
      "name": "You Will Die Here Tonight",
      "slug": "1446350",
      "service": "steam"
    }
  ],
  "aliases": [],
  "shaders": [],
  "discord_id": "",
  "change_for": null
}