{
  "id": 137606,
  "name": "Googass",
  "slug": "googass",
  "year": null,
  "banner_url": "",
  "icon_url": "",
  "coverart": "https://lutris.net/media/igdb/cover_big/co3qyd.jpg",
  "platforms": [],
  "provider_games": [
    {
      "name": "Googass",
      "slug": "googass",
      "service": "igdb"
    }
  ],
  "aliases": [],
  "shaders": [],
  "discord_id": "",
  "change_for": null
}