{
  "id": 250084,
  "name": "Faster Racer Boom Boom",
  "slug": "faster-racer-boom-boom",
  "year": null,
  "banner_url": "",
  "icon_url": "",
  "coverart": "https://lutris.net/media/igdb/cover_big/co6p2q.jpg",
  "platforms": [],
  "provider_games": [
    {
      "name": "Faster Racer Boom Boom",
      "slug": "faster-racer-boom-boom",
      "service": "igdb"
    }
  ],
  "aliases": [],
  "shaders": [],
  "discord_id": "",
  "change_for": null
}