{
  "id": 120072,
  "name": "Domino Effect",
  "slug": "domino-effect",
  "year": null,
  "banner_url": "https://lutris.net/games/banner/domino-effect.jpg",
  "icon_url": "",
  "coverart": "https://lutris.net/media/igdb/cover_big/ip0ej3gaz9ei5quww8ie.jpg",
  "platforms": [],
  "provider_games": [
    {
      "name": "Domino Effect",
      "slug": "767680",
      "service": "steam"
    },
    {
      "name": "Domino Effect",
      "slug": "domino-effect",
      "service": "igdb"
    }
  ],
  "aliases": [],
  "shaders": [],
  "discord_id": "",
  "change_for": null
}