{
  "id": 173183,
  "name": "NFL Blitz: Special Edition",
  "slug": "nfl-blitz-special-edition",
  "year": 2001,
  "banner_url": "",
  "icon_url": "",
  "coverart": "https://lutris.net/media/igdb/cover_big/co47x7.jpg",
  "platforms": [
    {
      "name": "Nintendo 64"
    }
  ],
  "provider_games": [
    {
      "name": "NFL Blitz: Special Edition",
      "slug": "nfl-blitz-special-edition",
      "service": "igdb"
    }
  ],
  "aliases": [],
  "shaders": [],
  "discord_id": "",
  "change_for": null
}