{
  "id": 92165,
  "name": "Subway Simulator 2 - London Underground",
  "slug": "subway-simulator-2-london-underground",
  "year": null,
  "banner_url": "",
  "icon_url": "",
  "coverart": null,
  "platforms": [],
  "provider_games": [
    {
      "name": "Subway Simulator 2 - London Underground",
      "slug": "subway-simulator-2-london-underground",
      "service": "igdb"
    }
  ],
  "aliases": [],
  "shaders": [],
  "discord_id": "",
  "change_for": null
}