{
  "id": 136546,
  "name": "Mr Jorries!",
  "slug": "mr-jorries",
  "year": null,
  "banner_url": "",
  "icon_url": "",
  "coverart": "https://lutris.net/media/igdb/cover_big/co3pf2.jpg",
  "platforms": [],
  "provider_games": [
    {
      "name": "Mr Jorries!",
      "slug": "mr-jorries",
      "service": "igdb"
    }
  ],
  "aliases": [],
  "shaders": [],
  "discord_id": "",
  "change_for": null
}