{
  "id": 157861,
  "name": "World of Mines!",
  "slug": "world-of-mines",
  "year": 2018,
  "banner_url": "",
  "icon_url": "",
  "coverart": null,
  "platforms": [],
  "provider_games": [
    {
      "name": "World of Mines!",
      "slug": "world-of-mines",
      "service": "igdb"
    }
  ],
  "aliases": [],
  "shaders": [],
  "discord_id": "",
  "change_for": null
}