{
  "id": 107354,
  "name": "Haunted Legends: The Secret of Life",
  "slug": "haunted-legends-the-secret-of-life",
  "year": null,
  "banner_url": "",
  "icon_url": "",
  "coverart": null,
  "platforms": [],
  "provider_games": [
    {
      "name": "Haunted Legends: The Secret of Life",
      "slug": "haunted-legends-the-secret-of-life",
      "service": "igdb"
    }
  ],
  "aliases": [],
  "shaders": [],
  "discord_id": "",
  "change_for": null
}