{
  "id": 15478,
  "name": "Prime Shift",
  "slug": "prime-shift",
  "year": 2017,
  "banner_url": "https://lutris.net/games/banner/prime-shift.jpg",
  "icon_url": "https://lutris.net/games/icon/prime-shift.png",
  "coverart": null,
  "platforms": [
    {
      "name": "Windows"
    }
  ],
  "provider_games": [
    {
      "name": "Prime Shift",
      "slug": "663170",
      "service": "steam"
    },
    {
      "name": "Prime Shift",
      "slug": "prime-shift",
      "service": "igdb"
    }
  ],
  "aliases": [],
  "shaders": [],
  "discord_id": "",
  "change_for": null
}