{
  "id": 264010,
  "name": "ARK: Survival Ascended",
  "slug": "ark-survival-ascended",
  "year": null,
  "banner_url": "https://lutris.net/games/banner/ark-survival-ascended.jpg",
  "icon_url": "https://lutris.net/games/icon/ark-survival-ascended.png",
  "coverart": null,
  "platforms": [],
  "provider_games": [
    {
      "name": "ARK: Survival Ascended",
      "slug": "2399830",
      "service": "steam"
    }
  ],
  "aliases": [],
  "shaders": [],
  "discord_id": "",
  "change_for": null
}