{
  "id": 300610,
  "name": "Carlos & Maria: Pearl Madness",
  "slug": "carlos-and-maria-pearl-madness",
  "year": 2019,
  "banner_url": "",
  "icon_url": "",
  "coverart": "https://lutris.net/media/igdb/cover_big/co8zv4.jpg",
  "platforms": [
    {
      "name": "Windows"
    }
  ],
  "provider_games": [
    {
      "name": "Carlos & Maria: Pearl Madness",
      "slug": "carlos-and-maria-pearl-madness",
      "service": "igdb"
    }
  ],
  "aliases": [],
  "shaders": [],
  "discord_id": "",
  "change_for": null
}