{
  "id": 12661,
  "name": "Zzzz-Zzzz-Zzzz",
  "slug": "zzzz-zzzz-zzzz",
  "year": 2017,
  "banner_url": "https://lutris.net/games/banner/zzzz-zzzz-zzzz.jpg",
  "icon_url": "https://lutris.net/games/icon/zzzz-zzzz-zzzz.png",
  "coverart": "https://lutris.net/media/igdb/cover_big/co1jyi.jpg",
  "platforms": [
    {
      "name": "Windows"
    }
  ],
  "provider_games": [
    {
      "name": "Zzzz-Zzzz-Zzzz",
      "slug": "507520",
      "service": "steam"
    },
    {
      "name": "Zzzz-Zzzz-Zzzz",
      "slug": "zzzz-zzzz-zzzz",
      "service": "igdb"
    }
  ],
  "aliases": [],
  "shaders": [],
  "discord_id": "",
  "change_for": null
}