{
  "id": 133181,
  "name": "A Story Beside",
  "slug": "a-story-beside",
  "year": 2019,
  "banner_url": "https://lutris.net/games/banner/a-story-beside.jpg",
  "icon_url": "",
  "coverart": "https://lutris.net/media/igdb/cover_big/co3kw4.jpg",
  "platforms": [
    {
      "name": "Windows"
    }
  ],
  "provider_games": [
    {
      "name": "A Story Beside",
      "slug": "634410",
      "service": "steam"
    },
    {
      "name": "A Story Beside",
      "slug": "a-story-beside",
      "service": "igdb"
    }
  ],
  "aliases": [],
  "shaders": [],
  "discord_id": "",
  "change_for": null
}