{
  "id": 9636,
  "game_id": 4312,
  "game_slug": "exanima",
  "name": "Exanima",
  "year": 2015,
  "user": "0ac0c36cc1b276d5bb6801821586f9b7",
  "runner": "steam",
  "slug": "exanima-proton",
  "version": "Proton",
  "description": null,
  "notes": "",
  "credits": "",
  "created_at": "2018-08-08T06:10:27.028000Z",
  "updated_at": "2021-05-04T02:43:16.062131Z",
  "draft": false,
  "published": true,
  "published_by": null,
  "rating": "",
  "is_playable": null,
  "steamid": 362490,
  "gogid": 1470768488,
  "gogslug": "exanima",
  "humbleid": "",
  "humblestoreid": "",
  "humblestoreid_real": "",
  "script": {
    "game": {
      "appid": 362490
    }
  },
  "content": "game:\n  appid: 362490\n",
  "discord_id": ""
}