{
  "id": 81130,
  "name": "BOMB: Who let the dogfight?",
  "slug": "bomb-who-let-the-dogfight",
  "year": 2015,
  "banner_url": "",
  "icon_url": "",
  "coverart": null,
  "platforms": [
    {
      "name": "Linux"
    },
    {
      "name": "Mac"
    },
    {
      "name": "Windows"
    }
  ],
  "provider_games": [
    {
      "name": "Bomb: Who let the dogfight?",
      "slug": "bomb-who-let-the-dogfight",
      "service": "igdb"
    }
  ],
  "aliases": [],
  "shaders": [],
  "discord_id": "",
  "change_for": null
}