{
  "id": 296263,
  "name": "101 Cats Hidden in Los Angeles",
  "slug": "101-cats-hidden-in-los-angeles",
  "year": 2024,
  "banner_url": "",
  "icon_url": "",
  "coverart": "https://lutris.net/media/igdb/cover_big/co8tpn.jpg",
  "platforms": [
    {
      "name": "Windows"
    }
  ],
  "provider_games": [
    {
      "name": "101 Cats Hidden in Los Angeles",
      "slug": "101-cats-hidden-in-los-angeles",
      "service": "igdb"
    }
  ],
  "aliases": [],
  "shaders": [],
  "discord_id": "",
  "change_for": null
}