{
  "id": 66287,
  "name": "Sharkey's Moll",
  "slug": "sharkeys-moll",
  "year": null,
  "banner_url": "",
  "icon_url": "",
  "coverart": "https://lutris.net/media/igdb/cover_big/jzmx5mmkqdqvidwo7dd3.jpg",
  "platforms": [],
  "provider_games": [
    {
      "name": "Sharkey's Moll",
      "slug": "sharkeys-moll",
      "service": "igdb"
    }
  ],
  "aliases": [],
  "shaders": [],
  "discord_id": "",
  "change_for": null
}