{
  "id": 63047,
  "name": "Baby Leland",
  "slug": "baby-leland",
  "year": null,
  "banner_url": "",
  "icon_url": "",
  "coverart": "https://lutris.net/media/igdb/cover_big/hbwkr1xmtvg7uzm7ipn5.jpg",
  "platforms": [],
  "provider_games": [
    {
      "name": "Baby Leland",
      "slug": "baby-leland",
      "service": "igdb"
    }
  ],
  "aliases": [],
  "shaders": [],
  "discord_id": "",
  "change_for": null
}