{
  "id": 222558,
  "name": "Caddywack",
  "slug": "caddywack",
  "year": null,
  "banner_url": "",
  "icon_url": "",
  "coverart": "https://lutris.net/media/igdb/cover_big/co5cg1.jpg",
  "platforms": [],
  "provider_games": [
    {
      "name": "Caddywack",
      "slug": "caddywack",
      "service": "igdb"
    }
  ],
  "aliases": [],
  "shaders": [],
  "discord_id": "",
  "change_for": null
}