{
  "id": 305312,
  "name": "El Séquito de Leonor de Aquitania",
  "slug": "el-sequito-de-leonor-de-aquitania",
  "year": 2020,
  "banner_url": "",
  "icon_url": "",
  "coverart": "https://lutris.net/media/igdb/cover_big/co910y.jpg",
  "platforms": [
    {
      "name": "Windows"
    }
  ],
  "provider_games": [
    {
      "name": "El Séquito de Leonor de Aquitania",
      "slug": "el-sequito-de-leonor-de-aquitania",
      "service": "igdb"
    }
  ],
  "aliases": [],
  "shaders": [],
  "discord_id": "",
  "change_for": null
}