{
  "id": 31535,
  "name": "System Siege",
  "slug": "system-siege",
  "year": null,
  "banner_url": "https://lutris.net/games/banner/system-siege.jpg",
  "icon_url": "https://lutris.net/games/icon/system-siege.png",
  "coverart": null,
  "platforms": [],
  "provider_games": [
    {
      "name": "System Siege",
      "slug": "683910",
      "service": "steam"
    },
    {
      "name": "System Siege",
      "slug": "system-siege",
      "service": "igdb"
    }
  ],
  "aliases": [],
  "shaders": [],
  "discord_id": "",
  "change_for": null
}