{
  "id": 268093,
  "name": "The Best Play Baseball Special",
  "slug": "the-best-play-baseball-special",
  "year": 1992,
  "banner_url": "",
  "icon_url": "",
  "coverart": null,
  "platforms": [
    {
      "name": "Family Computer"
    }
  ],
  "provider_games": [
    {
      "name": "The Best Play Baseball Special",
      "slug": "the-best-play-baseball-special",
      "service": "igdb"
    }
  ],
  "aliases": [],
  "shaders": [],
  "discord_id": "",
  "change_for": null
}