{
  "id": 11342,
  "name": "Metal Gear Solid: Portable Ops",
  "slug": "metal-gear-solid-portable-ops",
  "year": 2006,
  "banner_url": "https://lutris.net/games/banner/metal-gear-solid-portable-ops.jpg",
  "icon_url": "",
  "coverart": "https://lutris.net/media/igdb/cover_big/co2qok.jpg",
  "platforms": [
    {
      "name": "Sony PSP"
    }
  ],
  "provider_games": [
    {
      "name": "Metal Gear Solid: Portable Ops",
      "slug": "metal-gear-solid-portable-ops",
      "service": "igdb"
    }
  ],
  "aliases": [],
  "shaders": [],
  "discord_id": "",
  "change_for": null
}