{
  "id": 79735,
  "name": "Daedalus: Alien Defense",
  "slug": "daedalus-alien-defense",
  "year": 2003,
  "banner_url": "",
  "icon_url": "",
  "coverart": "https://lutris.net/media/igdb/cover_big/co2jl5.jpg",
  "platforms": [
    {
      "name": "Windows"
    }
  ],
  "provider_games": [
    {
      "name": "Daedalus: Alien Defense",
      "slug": "daedalus-alien-defense",
      "service": "igdb"
    }
  ],
  "aliases": [],
  "shaders": [],
  "discord_id": "",
  "change_for": null
}