{
  "id": 57800,
  "name": "Jet Run: City Defender",
  "slug": "jet-run-city-defender",
  "year": null,
  "banner_url": "",
  "icon_url": "",
  "coverart": "https://lutris.net/media/igdb/cover_big/ekzr09wzthnwh2zi3qwe.jpg",
  "platforms": [],
  "provider_games": [
    {
      "name": "Jet Run: City Defender",
      "slug": "jet-run-city-defender",
      "service": "igdb"
    }
  ],
  "aliases": [],
  "shaders": [],
  "discord_id": "",
  "change_for": null
}