{
  "id": 30888,
  "name": "I and Me",
  "slug": "i-and-me",
  "year": 2016,
  "banner_url": "https://lutris.net/games/banner/i-and-me.jpg",
  "icon_url": "https://lutris.net/games/icon/i-and-me.png",
  "coverart": "https://lutris.net/media/igdb/cover_big/co24we.jpg",
  "platforms": [
    {
      "name": "Nintendo Switch"
    },
    {
      "name": "PlayStation Vita"
    },
    {
      "name": "Sony Playstation 4"
    },
    {
      "name": "Windows"
    },
    {
      "name": "Xbox One"
    }
  ],
  "provider_games": [
    {
      "name": "I and Me",
      "slug": "399600",
      "service": "steam"
    },
    {
      "name": "I and Me",
      "slug": "i-and-me",
      "service": "igdb"
    }
  ],
  "aliases": [],
  "shaders": [],
  "discord_id": "",
  "change_for": null
}