{
  "id": 195993,
  "name": "Dungeonette for Apple Watch",
  "slug": "dungeonette-for-apple-watch",
  "year": 2015,
  "banner_url": "",
  "icon_url": "",
  "coverart": null,
  "platforms": [],
  "provider_games": [
    {
      "name": "Dungeonette for Apple Watch",
      "slug": "dungeonette-for-apple-watch",
      "service": "igdb"
    }
  ],
  "aliases": [],
  "shaders": [],
  "discord_id": "",
  "change_for": null
}