{
  "id": 249385,
  "name": "Sex Hotel Simulator",
  "slug": "sex-hotel-simulator",
  "year": null,
  "banner_url": "",
  "icon_url": "",
  "coverart": "https://lutris.net/media/igdb/cover_big/co6mg0.jpg",
  "platforms": [],
  "provider_games": [
    {
      "name": "Sex Hotel Simulator",
      "slug": "sex-hotel-simulator",
      "service": "igdb"
    }
  ],
  "aliases": [],
  "shaders": [],
  "discord_id": "",
  "change_for": null
}