{
  "id": 6853,
  "game_id": 6835,
  "game_slug": "butsbal",
  "name": "Butsbal",
  "year": 2015,
  "user": "FakeShemp",
  "runner": "linux",
  "slug": "butsbal-desura",
  "version": "Desura",
  "description": null,
  "notes": "",
  "credits": "",
  "created_at": "2017-12-24T22:56:12.846890Z",
  "updated_at": "2024-04-03T05:43:56.985289Z",
  "draft": false,
  "published": true,
  "published_by": null,
  "rating": "",
  "is_playable": null,
  "steamid": 375330,
  "gogid": null,
  "gogslug": "",
  "humbleid": "",
  "humblestoreid": "",
  "humblestoreid_real": "",
  "script": {
    "files": [
      {
        "file1": "N/A:Please select the Desura archive"
      }
    ],
    "game": {
      "exe": "Butsbal.x86_64",
      "launch_configs": [
        {
          "exe": "Butsbal.x86",
          "name": "32 bit version"
        }
      ]
    },
    "installer": [
      {
        "extract": {
          "file": "$file1"
        }
      },
      {
        "chmodx": "$GAMEDIR/Butsbal.x86"
      },
      {
        "chmodx": "$GAMEDIR/Butsbal.x86_64"
      }
    ]
  },
  "content": "files:\n- file1: N/A:Please select the Desura archive\ngame:\n  exe: Butsbal.x86_64\n  launch_configs:\n  - exe: Butsbal.x86\n    name: 32 bit version\ninstaller:\n- extract:\n    file: $file1\n- chmodx: $GAMEDIR/Butsbal.x86\n- chmodx: $GAMEDIR/Butsbal.x86_64\n",
  "discord_id": ""
}