{
  "id": 168540,
  "name": "Two Guys One Cabin",
  "slug": "two-guys-one-cabin",
  "year": null,
  "banner_url": "",
  "icon_url": "",
  "coverart": "https://lutris.net/media/igdb/cover_big/co451h.jpg",
  "platforms": [],
  "provider_games": [
    {
      "name": "Two Guys One Cabin",
      "slug": "two-guys-one-cabin",
      "service": "igdb"
    }
  ],
  "aliases": [],
  "shaders": [],
  "discord_id": "",
  "change_for": null
}