{
  "id": 254449,
  "name": "Dungeon Survivor.io",
  "slug": "dungeon-survivor-dot-io",
  "year": null,
  "banner_url": "",
  "icon_url": "",
  "coverart": null,
  "platforms": [],
  "provider_games": [
    {
      "name": "Dungeon Survivor.io",
      "slug": "dungeon-survivor-dot-io",
      "service": "igdb"
    }
  ],
  "aliases": [],
  "shaders": [],
  "discord_id": "",
  "change_for": null
}