{
  "id": 33046,
  "game_id": 24432,
  "game_slug": "sim-theme-park-theme-park-world",
  "name": "Sim Theme Park / Theme Park World",
  "year": 1999,
  "user": "domistyle",
  "runner": "wine",
  "slug": "sim-theme-park-theme-park-wor-north-american-cdiso",
  "version": "North American CD/ISO",
  "description": "Installer and executable names adjusted for the North American version labeled as \"Sim Theme Park\"",
  "notes": "",
  "credits": "",
  "created_at": "2022-05-04T12:33:40.525000Z",
  "updated_at": "2023-01-06T15:12:42.302139Z",
  "draft": false,
  "published": true,
  "published_by": 1,
  "rating": "",
  "is_playable": null,
  "steamid": null,
  "gogid": null,
  "gogslug": "",
  "humbleid": "",
  "humblestoreid": "",
  "humblestoreid_real": "",
  "script": {
    "files": [
      {
        "nocd": "N/A:Please select a No-CD executable"
      }
    ],
    "game": {
      "arch": "win32",
      "exe": "$GAMEDIR/drive_c/Program Files/SimTheme Park/TP.exe",
      "prefix": "$GAMEDIR"
    },
    "installer": [
      {
        "insert-disc": {
          "requires": "autorun.exe"
        }
      },
      {
        "task": {
          "description": "Creating Wine prefix...",
          "name": "create_prefix",
          "prefix": "$GAMEDIR"
        }
      },
      {
        "task": {
          "executable": "$DISC/autorun.exe",
          "name": "wineexec",
          "prefix": "$GAMEDIR"
        }
      },
      {
        "move": {
          "dst": "$GAMEDIR/drive_c/Program Files/SimTheme Park/TP_OLD.exe",
          "src": "$GAMEDIR/drive_c/Program Files/SimTheme Park/TP.exe"
        }
      },
      {
        "move": {
          "dst": "$GAMEDIR/drive_c/Program Files/SimTheme Park/TP.exe",
          "src": "nocd"
        }
      }
    ]
  },
  "content": "files:\n- nocd: N/A:Please select a No-CD executable\ngame:\n  arch: win32\n  exe: $GAMEDIR/drive_c/Program Files/SimTheme Park/TP.exe\n  prefix: $GAMEDIR\ninstaller:\n- insert-disc:\n    requires: autorun.exe\n- task:\n    description: Creating Wine prefix...\n    name: create_prefix\n    prefix: $GAMEDIR\n- task:\n    executable: $DISC/autorun.exe\n    name: wineexec\n    prefix: $GAMEDIR\n- move:\n    dst: $GAMEDIR/drive_c/Program Files/SimTheme Park/TP_OLD.exe\n    src: $GAMEDIR/drive_c/Program Files/SimTheme Park/TP.exe\n- move:\n    dst: $GAMEDIR/drive_c/Program Files/SimTheme Park/TP.exe\n    src: nocd\n",
  "discord_id": ""
}