{
  "id": 274105,
  "name": "Mike's Lonely Journey",
  "slug": "mikes-lonely-journey",
  "year": 1986,
  "banner_url": "",
  "icon_url": "",
  "coverart": "https://lutris.net/media/igdb/cover_big/co7r7f.jpg",
  "platforms": [
    {
      "name": "FM-7"
    }
  ],
  "provider_games": [
    {
      "name": "Mike's Lonely Journey",
      "slug": "mikes-lonely-journey",
      "service": "igdb"
    }
  ],
  "aliases": [],
  "shaders": [],
  "discord_id": "",
  "change_for": null
}