{
  "id": 173372,
  "name": "Radar Mission",
  "slug": "radar-mission",
  "year": 1990,
  "banner_url": "",
  "icon_url": "",
  "coverart": "https://lutris.net/media/igdb/cover_big/g9knzqjzb0dzbros6wcd.jpg",
  "platforms": [
    {
      "name": "Game Boy"
    },
    {
      "name": "Nintendo 3DS"
    }
  ],
  "provider_games": [
    {
      "name": "Radar Mission",
      "slug": "radar-mission",
      "service": "igdb"
    }
  ],
  "aliases": [],
  "shaders": [],
  "discord_id": "",
  "change_for": null
}