{
  "id": 233591,
  "name": "Disney All Star Cards",
  "slug": "disney-all-star-cards",
  "year": 2008,
  "banner_url": "",
  "icon_url": "",
  "coverart": null,
  "platforms": [
    {
      "name": "Zeebo"
    }
  ],
  "provider_games": [
    {
      "name": "Disney All-Star Cards",
      "slug": "disney-all-star-cards",
      "service": "igdb"
    }
  ],
  "aliases": [],
  "shaders": [],
  "discord_id": "",
  "change_for": null
}