{
  "id": 249155,
  "name": "Mars Survivors",
  "slug": "mars-survivors",
  "year": null,
  "banner_url": "",
  "icon_url": "",
  "coverart": "https://lutris.net/media/igdb/cover_big/co6mnl.jpg",
  "platforms": [],
  "provider_games": [
    {
      "name": "Mars Survivors",
      "slug": "mars-survivors",
      "service": "igdb"
    }
  ],
  "aliases": [],
  "shaders": [],
  "discord_id": "",
  "change_for": null
}