{
  "id": 255881,
  "name": "Nope Nope Nope Nope Nurses",
  "slug": "nope-nope-nope-nope-nurses",
  "year": null,
  "banner_url": "https://lutris.net/games/banner/nope-nope-nope-nope-nurses.jpg",
  "icon_url": "",
  "coverart": "https://lutris.net/media/igdb/cover_big/co6xyq.jpg",
  "platforms": [
    {
      "name": "Windows"
    }
  ],
  "provider_games": [
    {
      "name": "Nope Nope Nope Nope Nurses",
      "slug": "nope-nope-nope-nope-nurses",
      "service": "igdb"
    },
    {
      "name": "Nope Nope Nope Nope Nurses",
      "slug": "1556523808",
      "service": "gog"
    }
  ],
  "aliases": [],
  "shaders": [],
  "discord_id": "",
  "change_for": null
}