{
  "id": 260751,
  "name": "Dragon Village Collection",
  "slug": "dragon-village-collection",
  "year": null,
  "banner_url": "",
  "icon_url": "",
  "coverart": null,
  "platforms": [],
  "provider_games": [
    {
      "name": "Dragon Village Collection",
      "slug": "dragon-village-collection",
      "service": "igdb"
    }
  ],
  "aliases": [],
  "shaders": [],
  "discord_id": "",
  "change_for": null
}