{
  "id": 211801,
  "name": "American Commando",
  "slug": "american-commando",
  "year": null,
  "banner_url": "",
  "icon_url": "",
  "coverart": "https://lutris.net/media/igdb/cover_big/co5f5a.jpg",
  "platforms": [],
  "provider_games": [
    {
      "name": "American Commando",
      "slug": "american-commando",
      "service": "igdb"
    }
  ],
  "aliases": [],
  "shaders": [],
  "discord_id": "",
  "change_for": null
}