{
  "id": 4052,
  "name": "Sniper Art of Victory",
  "slug": "sniper-art-of-victory",
  "year": 2008,
  "banner_url": "https://lutris.net/games/banner/sniper-art-of-victory.jpg",
  "icon_url": "https://lutris.net/games/icon/sniper-art-of-victory.png",
  "coverart": "https://lutris.net/media/igdb/cover_big/co221d.jpg",
  "platforms": [
    {
      "name": "Windows"
    }
  ],
  "provider_games": [
    {
      "name": "Sniper Art of Victory",
      "slug": "271500",
      "service": "steam"
    },
    {
      "name": "Sniper: Art of Victory",
      "slug": "sniper-art-of-victory",
      "service": "igdb"
    }
  ],
  "aliases": [],
  "shaders": [],
  "discord_id": "",
  "change_for": null
}