{
  "id": 167479,
  "name": "The Spiral Labyrinth",
  "slug": "the-spiral-labyrinth",
  "year": null,
  "banner_url": "",
  "icon_url": "",
  "coverart": "https://lutris.net/media/igdb/cover_big/co4446.jpg",
  "platforms": [],
  "provider_games": [
    {
      "name": "The Spiral Labyrinth",
      "slug": "the-spiral-labyrinth",
      "service": "igdb"
    }
  ],
  "aliases": [],
  "shaders": [],
  "discord_id": "",
  "change_for": null
}