{
  "id": 278919,
  "name": "Fantasy of Esula",
  "slug": "fantasy-of-esula",
  "year": null,
  "banner_url": "",
  "icon_url": "",
  "coverart": "https://lutris.net/media/igdb/cover_big/co7xhs.jpg",
  "platforms": [],
  "provider_games": [
    {
      "name": "Fantasy of Esula",
      "slug": "fantasy-of-esula",
      "service": "igdb"
    }
  ],
  "aliases": [],
  "shaders": [],
  "discord_id": "",
  "change_for": null
}