{
  "id": 126859,
  "name": "Dying Flame",
  "slug": "dying-flame",
  "year": null,
  "banner_url": "",
  "icon_url": "",
  "coverart": "https://lutris.net/media/igdb/cover_big/co2w08.jpg",
  "platforms": [],
  "provider_games": [
    {
      "name": "Dying Flame",
      "slug": "dying-flame",
      "service": "igdb"
    }
  ],
  "aliases": [],
  "shaders": [],
  "discord_id": "",
  "change_for": null
}