{
  "id": 249883,
  "name": "Open Flower",
  "slug": "open-flower",
  "year": null,
  "banner_url": "",
  "icon_url": "",
  "coverart": "https://lutris.net/media/igdb/cover_big/co6nfa.jpg",
  "platforms": [],
  "provider_games": [
    {
      "name": "Open Flower",
      "slug": "open-flower",
      "service": "igdb"
    }
  ],
  "aliases": [],
  "shaders": [],
  "discord_id": "",
  "change_for": null
}