{
  "id": 70200,
  "name": "Dennis og Bellini: Stridens æble",
  "slug": "dennis-og-bellini-stridens-aeble",
  "year": null,
  "banner_url": "",
  "icon_url": "",
  "coverart": "https://lutris.net/media/igdb/cover_big/co7pxg.jpg",
  "platforms": [],
  "provider_games": [
    {
      "name": "Dennis og Bellini: Stridens Æble",
      "slug": "dennis-og-bellini-stridens-aeble",
      "service": "igdb"
    }
  ],
  "aliases": [],
  "shaders": [],
  "discord_id": "",
  "change_for": null
}