{
  "id": 239668,
  "name": "CryptoZoo",
  "slug": "cryptozoo",
  "year": null,
  "banner_url": "",
  "icon_url": "",
  "coverart": "https://lutris.net/media/igdb/cover_big/co62t6.jpg",
  "platforms": [],
  "provider_games": [
    {
      "name": "CryptoZoo",
      "slug": "cryptozoo",
      "service": "igdb"
    }
  ],
  "aliases": [],
  "shaders": [],
  "discord_id": "",
  "change_for": null
}