{
  "id": 125166,
  "name": "Dead Reckoning: The Brassfield Manor - Collector's Edition",
  "slug": "dead-reckoning-the-brassfield-manor-collectors-edition",
  "year": 2016,
  "banner_url": "",
  "icon_url": "",
  "coverart": "https://lutris.net/media/igdb/cover_big/qkskiueoymsfcdvu3z8w.jpg",
  "platforms": [
    {
      "name": "Windows"
    }
  ],
  "provider_games": [
    {
      "name": "Dead Reckoning: The Brassfield Manor - Collector's Edition",
      "slug": "dead-reckoning-the-brassfield-manor-collectors-edition",
      "service": "igdb"
    }
  ],
  "aliases": [],
  "shaders": [],
  "discord_id": "",
  "change_for": null
}