{
  "id": 152017,
  "name": "九州仙玉 Kyushu jade",
  "slug": "jiu-zhou-xian-yu-kyushu-jade",
  "year": 2020,
  "banner_url": "",
  "icon_url": "",
  "coverart": "https://lutris.net/media/igdb/cover_big/co2m4k.jpg",
  "platforms": [
    {
      "name": "Windows"
    }
  ],
  "provider_games": [
    {
      "name": "九州仙玉 Kyushu jade",
      "slug": "jiu-zhou-xian-yu-kyushu-jade",
      "service": "igdb"
    }
  ],
  "aliases": [],
  "shaders": [],
  "discord_id": "",
  "change_for": null
}