{
  "id": 24804,
  "name": "Amazing Trivia",
  "slug": "amazing-trivia",
  "year": 2018,
  "banner_url": "https://lutris.net/games/banner/amazing-trivia.jpg",
  "icon_url": "https://lutris.net/games/icon/amazing-trivia.png",
  "coverart": "https://lutris.net/media/igdb/cover_big/co23w3.jpg",
  "platforms": [
    {
      "name": "Windows"
    }
  ],
  "provider_games": [
    {
      "name": "Amazing Trivia",
      "slug": "771320",
      "service": "steam"
    },
    {
      "name": "Amazing Trivia",
      "slug": "amazing-trivia",
      "service": "igdb"
    }
  ],
  "aliases": [],
  "shaders": [],
  "discord_id": "",
  "change_for": null
}