{
  "id": 78765,
  "name": "What Did I Do To Deserve This, My Lord!? 2",
  "slug": "what-did-i-do-to-deserve-this-my-lord-2",
  "year": 2010,
  "banner_url": "",
  "icon_url": "",
  "coverart": "https://lutris.net/media/igdb/cover_big/co2hj3.jpg",
  "platforms": [
    {
      "name": "Sony PSP"
    }
  ],
  "provider_games": [
    {
      "name": "What Did I Do to Deserve This, My Lord!? 2",
      "slug": "what-did-i-do-to-deserve-this-my-lord-2",
      "service": "igdb"
    }
  ],
  "aliases": [],
  "shaders": [],
  "discord_id": "",
  "change_for": null
}