{
  "id": 76237,
  "name": "Simple DS Series Vol. 47: The Suiri Shinshou 2009",
  "slug": "simple-ds-series-vol-47-the-suiri-shinshou-2009",
  "year": null,
  "banner_url": "",
  "icon_url": "",
  "coverart": "https://lutris.net/media/igdb/cover_big/ucnmgu5r3wf061bhoonr.jpg",
  "platforms": [],
  "provider_games": [
    {
      "name": "Simple DS Series Vol. 47: The Suiri Shinshou 2009",
      "slug": "simple-ds-series-vol-47-the-suiri-shinshou-2009",
      "service": "igdb"
    }
  ],
  "aliases": [],
  "shaders": [],
  "discord_id": "",
  "change_for": null
}