{
  "id": 195675,
  "name": "Valley of the Dead: MalnaZidos",
  "slug": "valley-of-the-dead-malnazidos",
  "year": 2022,
  "banner_url": "",
  "icon_url": "",
  "coverart": "https://lutris.net/media/igdb/cover_big/co4kdl.jpg",
  "platforms": [
    {
      "name": "Sony Playstation 4"
    },
    {
      "name": "Windows"
    }
  ],
  "provider_games": [
    {
      "name": "Valley of the Dead: MalnaZidos",
      "slug": "valley-of-the-dead-malnazidos",
      "service": "igdb"
    }
  ],
  "aliases": [],
  "shaders": [],
  "discord_id": "",
  "change_for": null
}