{
  "id": 85361,
  "name": "Shin Samurai Spirits 2",
  "slug": "shin-samurai-spirits-2",
  "year": null,
  "banner_url": "",
  "icon_url": "",
  "coverart": null,
  "platforms": [],
  "provider_games": [
    {
      "name": "Shin Samurai Spirits 2",
      "slug": "shin-samurai-spirits-2",
      "service": "igdb"
    }
  ],
  "aliases": [],
  "shaders": [],
  "discord_id": "",
  "change_for": null
}