{
  "id": 16094,
  "name": "Wonderful Everyday Down the Rabbit-Hole",
  "slug": "wonderful-everyday-down-the-rabbit-hole",
  "year": 2017,
  "banner_url": "https://lutris.net/games/banner/wonderful-everyday-down-the-rabbit-hole.jpg",
  "icon_url": "https://lutris.net/games/icon/wonderful-everyday-down-the-rabbit-hole.png",
  "coverart": "https://lutris.net/media/igdb/cover_big/co3wbe.jpg",
  "platforms": [
    {
      "name": "Windows"
    }
  ],
  "provider_games": [
    {
      "name": "Wonderful Everyday Down the Rabbit-Hole",
      "slug": "658620",
      "service": "steam"
    },
    {
      "name": "Wonderful Everyday: Down the Rabbit-Hole",
      "slug": "wonderful-everyday-down-the-rabbit-hole",
      "service": "igdb"
    }
  ],
  "aliases": [],
  "shaders": [],
  "discord_id": "",
  "change_for": null
}