{
  "id": 26139,
  "name": "Worbital",
  "slug": "worbital",
  "year": 2019,
  "banner_url": "https://lutris.net/games/banner/worbital.jpg",
  "icon_url": "https://lutris.net/games/icon/worbital.png",
  "coverart": "https://lutris.net/media/igdb/cover_big/co1j84.jpg",
  "platforms": [
    {
      "name": "Nintendo Switch"
    },
    {
      "name": "Sony Playstation 4"
    },
    {
      "name": "Windows"
    },
    {
      "name": "Xbox One"
    }
  ],
  "provider_games": [
    {
      "name": "Worbital",
      "slug": "761910",
      "service": "steam"
    },
    {
      "name": "Worbital",
      "slug": "worbital",
      "service": "igdb"
    }
  ],
  "aliases": [],
  "shaders": [],
  "discord_id": "",
  "change_for": null
}