{
  "id": 85398,
  "name": "Jeopardy! Platinum Edition",
  "slug": "jeopardy-platinum-edition",
  "year": 1997,
  "banner_url": "",
  "icon_url": "",
  "coverart": "https://lutris.net/media/igdb/cover_big/co5vfj.jpg",
  "platforms": [
    {
      "name": "Game Boy"
    }
  ],
  "provider_games": [
    {
      "name": "Jeopardy! Platinum Edition",
      "slug": "jeopardy-platinum-edition",
      "service": "igdb"
    }
  ],
  "aliases": [],
  "shaders": [],
  "discord_id": "",
  "change_for": null
}