{
  "id": 65955,
  "name": "Kanokon: Esuii",
  "slug": "kanokon-esuii",
  "year": null,
  "banner_url": "",
  "icon_url": "",
  "coverart": "https://lutris.net/media/igdb/cover_big/hlvb3gb0eybiazyeeu7i.jpg",
  "platforms": [],
  "provider_games": [
    {
      "name": "Kanokon: Esuii",
      "slug": "kanokon-esuii",
      "service": "igdb"
    }
  ],
  "aliases": [],
  "shaders": [],
  "discord_id": "",
  "change_for": null
}