{
  "id": 241092,
  "name": "Word Invaders!",
  "slug": "word-invaders",
  "year": null,
  "banner_url": "",
  "icon_url": "",
  "coverart": null,
  "platforms": [],
  "provider_games": [
    {
      "name": "Word Invaders!",
      "slug": "word-invaders",
      "service": "igdb"
    }
  ],
  "aliases": [],
  "shaders": [],
  "discord_id": "",
  "change_for": null
}