{
  "id": 3963,
  "name": "Rise of the Triad: Dark War",
  "slug": "rise-of-the-triad-dark-war",
  "year": 1994,
  "banner_url": "https://lutris.net/games/banner/rise-of-the-triad-dark-war.jpg",
  "icon_url": "",
  "coverart": "https://lutris.net/media/igdb/cover_big/co21h5.jpg",
  "platforms": [
    {
      "name": "Linux"
    },
    {
      "name": "Mac"
    },
    {
      "name": "Windows"
    }
  ],
  "provider_games": [
    {
      "name": "Rise of the Triad: Dark War",
      "slug": "1207658732",
      "service": "gog"
    },
    {
      "name": "Rise of the Triad: Dark War",
      "slug": "358410",
      "service": "steam"
    },
    {
      "name": "Rise of the Triad: Dark War",
      "slug": "rise-of-the-triad-dark-war",
      "service": "igdb"
    }
  ],
  "aliases": [],
  "shaders": [],
  "discord_id": "",
  "change_for": null
}