{
  "id": 307226,
  "name": "Chao Extreme",
  "slug": "chao-extreme",
  "year": null,
  "banner_url": "",
  "icon_url": "",
  "coverart": null,
  "platforms": [],
  "provider_games": [
    {
      "name": "Chao Extreme",
      "slug": "chao-extreme",
      "service": "igdb"
    }
  ],
  "aliases": [],
  "shaders": [],
  "discord_id": "",
  "change_for": null
}