{
  "id": 168123,
  "name": "Everybody's Golf 3",
  "slug": "everybodys-golf-3",
  "year": 2001,
  "banner_url": "",
  "icon_url": "",
  "coverart": "https://lutris.net/media/igdb/cover_big/ihrr3b4d9phaelq4av2z.jpg",
  "platforms": [
    {
      "name": "Sony PlayStation 2"
    }
  ],
  "provider_games": [
    {
      "name": "Everybody's Golf 3",
      "slug": "everybodys-golf-3",
      "service": "igdb"
    }
  ],
  "aliases": [],
  "shaders": [],
  "discord_id": "",
  "change_for": null
}