{
  "id": 235238,
  "name": "Madness: Project Nexus - Classic",
  "slug": "madness-project-nexus-classic",
  "year": 2012,
  "banner_url": "",
  "icon_url": "",
  "coverart": "https://lutris.net/media/igdb/cover_big/co680f.jpg",
  "platforms": [
    {
      "name": "Browser"
    }
  ],
  "provider_games": [
    {
      "name": "Madness: Project Nexus - Classic",
      "slug": "madness-project-nexus-classic",
      "service": "igdb"
    }
  ],
  "aliases": [],
  "shaders": [],
  "discord_id": "",
  "change_for": null
}