{
  "id": 145428,
  "name": "Asphalt: Urban GT",
  "slug": "asphalt-urban-gt",
  "year": 2004,
  "banner_url": "",
  "icon_url": "",
  "coverart": "https://lutris.net/media/igdb/cover_big/co3vvq.jpg",
  "platforms": [
    {
      "name": "Legacy Cellphone"
    },
    {
      "name": "Nintendo DS"
    }
  ],
  "provider_games": [
    {
      "name": "Asphalt: Urban GT",
      "slug": "asphalt-urban-gt",
      "service": "igdb"
    }
  ],
  "aliases": [],
  "shaders": [],
  "discord_id": "",
  "change_for": null
}