{
  "id": 240990,
  "name": "Cyberlaser",
  "slug": "cyberlaser",
  "year": null,
  "banner_url": "",
  "icon_url": "",
  "coverart": null,
  "platforms": [],
  "provider_games": [
    {
      "name": "Cyberlaser",
      "slug": "cyberlaser",
      "service": "igdb"
    }
  ],
  "aliases": [],
  "shaders": [],
  "discord_id": "",
  "change_for": null
}