{
  "id": 1011,
  "game_id": 624,
  "game_slug": "torchlight-ii",
  "name": "Torchlight II",
  "year": 2012,
  "user": "RobLoach",
  "runner": "steam",
  "slug": "torchlight-ii-steam",
  "version": "Steam",
  "description": null,
  "notes": "",
  "credits": "",
  "created_at": "2014-11-01T06:23:50.449000Z",
  "updated_at": "2019-09-09T00:22:30.340759Z",
  "draft": false,
  "published": true,
  "published_by": 1,
  "rating": "",
  "is_playable": null,
  "steamid": 200710,
  "gogid": 1958228073,
  "gogslug": "torchlight_ii",
  "humbleid": "torchlight2",
  "humblestoreid": "torchlight2",
  "humblestoreid_real": "torchlight2",
  "script": {
    "game": {
      "appid": 200710
    }
  },
  "content": "game:\n  appid: 200710\n",
  "discord_id": "425777164361793547"
}