{
  "id": 85732,
  "name": "Simple 2960 Tomodachi Series Vol. 4: The Trump - Minna de Asoberu 12 Shurui no Trump Game",
  "slug": "simple-2960-tomodachi-series-vol-4-the-trump-minna-de-asoberu-12-shurui-no-trump-game",
  "year": 2004,
  "banner_url": "",
  "icon_url": "",
  "coverart": "https://lutris.net/media/igdb/cover_big/co4zmm.jpg",
  "platforms": [
    {
      "name": "Nintendo Game Boy Advance"
    }
  ],
  "provider_games": [
    {
      "name": "Simple 2960 Tomodachi Series Vol. 4: The Trump - Minna de Asoberu 12 Shurui no Trump Game",
      "slug": "simple-2960-tomodachi-series-vol-4-the-trump-minna-de-asoberu-12-shurui-no-trump-game",
      "service": "igdb"
    }
  ],
  "aliases": [],
  "shaders": [],
  "discord_id": "",
  "change_for": null
}