{
  "id": 45432,
  "name": "King Neptune's Adventure",
  "slug": "king-neptunes-adventure",
  "year": 1990,
  "banner_url": "",
  "icon_url": "",
  "coverart": "https://lutris.net/media/igdb/cover_big/hmvm7leqqjj83nihwfpc.jpg",
  "platforms": [
    {
      "name": "NES"
    }
  ],
  "provider_games": [
    {
      "name": "King Neptune's Adventure",
      "slug": "king-neptunes-adventure",
      "service": "igdb"
    }
  ],
  "aliases": [],
  "shaders": [],
  "discord_id": "",
  "change_for": null
}