{
  "id": 36967,
  "game_id": 22176,
  "game_slug": "motocross-madness",
  "name": "Motocross Madness",
  "year": 1998,
  "user": "strider",
  "runner": "wine",
  "slug": "motocross-madness-cd",
  "version": "CD",
  "description": "",
  "notes": "",
  "credits": "",
  "created_at": "2023-01-22T00:21:44.537906Z",
  "updated_at": "2023-06-13T08:18:23.152276Z",
  "draft": false,
  "published": true,
  "published_by": null,
  "rating": "",
  "is_playable": null,
  "steamid": null,
  "gogid": null,
  "gogslug": "",
  "humbleid": "",
  "humblestoreid": "",
  "humblestoreid_real": "",
  "script": {
    "game": {
      "arch": "win32",
      "exe": "$GAMEDIR/drive_c/Program Files/Microsoft Games/Motocross Madness/mcm.exe",
      "prefix": "$GAMEDIR"
    },
    "installer": [
      {
        "insert-disc": {
          "requires": "game/mcm.exe"
        }
      },
      {
        "task": {
          "arch": "win32",
          "name": "create_prefix"
        }
      },
      {
        "task": {
          "app": "win98",
          "name": "winetricks"
        }
      },
      {
        "task": {
          "arch": "win32",
          "executable": "$DISC/setup.exe",
          "name": "wineexec"
        }
      }
    ],
    "wine": {
      "dgvoodoo2": true
    }
  },
  "content": "game:\n  arch: win32\n  exe: $GAMEDIR/drive_c/Program Files/Microsoft Games/Motocross Madness/mcm.exe\n  prefix: $GAMEDIR\ninstaller:\n- insert-disc:\n    requires: game/mcm.exe\n- task:\n    arch: win32\n    name: create_prefix\n- task:\n    app: win98\n    name: winetricks\n- task:\n    arch: win32\n    executable: $DISC/setup.exe\n    name: wineexec\nwine:\n  dgvoodoo2: true\n",
  "discord_id": ""
}