{
  "id": 60317,
  "name": "Pirates Of The Caribbean: Isles Of War",
  "slug": "pirates-of-the-caribbean-isles-of-war",
  "year": null,
  "banner_url": "",
  "icon_url": "",
  "coverart": null,
  "platforms": [],
  "provider_games": [
    {
      "name": "Pirates of the Caribbean: Isles Of War",
      "slug": "pirates-of-the-caribbean-isles-of-war",
      "service": "igdb"
    }
  ],
  "aliases": [],
  "shaders": [],
  "discord_id": "",
  "change_for": null
}