{
  "id": 5416,
  "game_id": 645,
  "game_slug": "the-showdown-effect",
  "name": "The Showdown Effect",
  "year": 2013,
  "user": "NuSuey",
  "runner": "steam",
  "slug": "the-showdown-effect-proton",
  "version": "Proton",
  "description": "",
  "notes": "",
  "credits": "",
  "created_at": "2017-08-18T21:21:41.486818Z",
  "updated_at": "2021-05-04T02:43:05.140756Z",
  "draft": false,
  "published": true,
  "published_by": null,
  "rating": "",
  "is_playable": null,
  "steamid": 204080,
  "gogid": null,
  "gogslug": "",
  "humbleid": "",
  "humblestoreid": "",
  "humblestoreid_real": "",
  "script": {
    "game": {
      "appid": 204080
    }
  },
  "content": "game:\n  appid: 204080\n",
  "discord_id": ""
}