{
  "id": 116817,
  "name": "Quarth",
  "slug": "quarth",
  "year": 1990,
  "banner_url": "",
  "icon_url": "",
  "coverart": "https://lutris.net/media/igdb/cover_big/co2wg6.jpg",
  "platforms": [
    {
      "name": "Game Boy"
    },
    {
      "name": "MSX"
    },
    {
      "name": "Nintendo 3DS"
    },
    {
      "name": "Sega Master System"
    }
  ],
  "provider_games": [
    {
      "name": "Quarth",
      "slug": "quarth",
      "service": "igdb"
    }
  ],
  "aliases": [],
  "shaders": [],
  "discord_id": "",
  "change_for": null
}