{
  "id": 31556,
  "game_id": 113546,
  "game_slug": "alter-ego--1",
  "name": "Alter Ego",
  "year": 2010,
  "user": "rkido",
  "runner": "wine",
  "slug": "alter-ego-gamersgate-downloade",
  "version": "GamersGate Downloader",
  "description": "",
  "notes": "- GamersGate Downloader version required. Should be called \"Download Alter Ego.exe\". You will need to login to the downloader with your email and password. You will also need the SecuROM serial key from GamersGate.\r\n- Starting the game will open a file selection window. Double click on \"AlterEgo.ebr\".",
  "credits": "",
  "created_at": "2022-01-26T17:10:20.319000Z",
  "updated_at": "2022-01-27T01:37:15.873948Z",
  "draft": false,
  "published": true,
  "published_by": 64834,
  "rating": "",
  "is_playable": null,
  "steamid": null,
  "gogid": null,
  "gogslug": "",
  "humbleid": "",
  "humblestoreid": "",
  "humblestoreid_real": "",
  "script": {
    "files": [
      {
        "ggdownloader": "N/A:Please select Download Alter Ego.exe"
      }
    ],
    "game": {
      "arch": "win32",
      "exe": "drive_c/Program Files/Alter Ego/RunDev.exe",
      "prefix": "$GAMEDIR"
    },
    "installer": [
      {
        "task": {
          "app": "dotnet20",
          "description": "Installing .NET Framework 2.0",
          "name": "winetricks",
          "prefix": "$GAMEDIR"
        }
      },
      {
        "task": {
          "description": "Launching GamersGate Downloader",
          "executable": "ggdownloader",
          "name": "wineexec",
          "prefix": "$GAMEDIR"
        }
      }
    ]
  },
  "content": "files:\n- ggdownloader: N/A:Please select Download Alter Ego.exe\ngame:\n  arch: win32\n  exe: drive_c/Program Files/Alter Ego/RunDev.exe\n  prefix: $GAMEDIR\ninstaller:\n- task:\n    app: dotnet20\n    description: Installing .NET Framework 2.0\n    name: winetricks\n    prefix: $GAMEDIR\n- task:\n    description: Launching GamersGate Downloader\n    executable: ggdownloader\n    name: wineexec\n    prefix: $GAMEDIR\n",
  "discord_id": ""
}