{
  "id": 166739,
  "name": "Horror Tales: The Beggar",
  "slug": "horror-tales-the-beggar",
  "year": null,
  "banner_url": "",
  "icon_url": "",
  "coverart": "https://lutris.net/media/igdb/cover_big/co43cv.jpg",
  "platforms": [],
  "provider_games": [
    {
      "name": "Horror Tales: The Beggar",
      "slug": "horror-tales-the-beggar",
      "service": "igdb"
    }
  ],
  "aliases": [],
  "shaders": [],
  "discord_id": "",
  "change_for": null
}