{
  "id": 213009,
  "name": "Medarot Kuwagata Version",
  "slug": "medarot-kuwagata-version",
  "year": 1997,
  "banner_url": "",
  "icon_url": "",
  "coverart": null,
  "platforms": [
    {
      "name": "Game Boy"
    }
  ],
  "provider_games": [
    {
      "name": "Medarot Kuwagata Version",
      "slug": "medarot-kuwagata-version",
      "service": "igdb"
    }
  ],
  "aliases": [],
  "shaders": [],
  "discord_id": "",
  "change_for": null
}