{
  "id": 288973,
  "name": "Lost Chakras",
  "slug": "lost-chakras",
  "year": 2023,
  "banner_url": "",
  "icon_url": "",
  "coverart": null,
  "platforms": [
    {
      "name": "Windows"
    },
    {
      "name": "Xbox One"
    }
  ],
  "provider_games": [
    {
      "name": "Lost Chakras",
      "slug": "lost-chakras",
      "service": "igdb"
    }
  ],
  "aliases": [],
  "shaders": [],
  "discord_id": "",
  "change_for": null
}