{
  "id": 15237,
  "name": "Slam",
  "slug": "slam",
  "year": 2016,
  "banner_url": "https://lutris.net/games/banner/slam.jpg",
  "icon_url": "https://lutris.net/games/icon/slam.png",
  "coverart": "https://lutris.net/media/igdb/cover_big/mopjclu3eygb9zxzv7pm.jpg",
  "platforms": [
    {
      "name": "Linux"
    },
    {
      "name": "Mac"
    },
    {
      "name": "Windows"
    }
  ],
  "provider_games": [
    {
      "name": "Slam",
      "slug": "377940",
      "service": "steam"
    },
    {
      "name": "Slam",
      "slug": "slam",
      "service": "igdb"
    }
  ],
  "aliases": [],
  "shaders": [],
  "discord_id": "",
  "change_for": null
}