{
  "id": 238925,
  "name": "Five Nights at Tinky's",
  "slug": "five-nights-at-tinkys",
  "year": null,
  "banner_url": "",
  "icon_url": "",
  "coverart": "https://lutris.net/media/igdb/cover_big/co6498.jpg",
  "platforms": [],
  "provider_games": [
    {
      "name": "Five Nights at Tinky's",
      "slug": "five-nights-at-tinkys",
      "service": "igdb"
    }
  ],
  "aliases": [],
  "shaders": [],
  "discord_id": "",
  "change_for": null
}