{
  "id": 116624,
  "name": "SABRE VR",
  "slug": "sabre-vr",
  "year": 2019,
  "banner_url": "",
  "icon_url": "",
  "coverart": null,
  "platforms": [
    {
      "name": "PlayStation VR"
    }
  ],
  "provider_games": [
    {
      "name": "Sabre VR",
      "slug": "sabre-vr",
      "service": "igdb"
    }
  ],
  "aliases": [],
  "shaders": [],
  "discord_id": "",
  "change_for": null
}