{
  "id": 90579,
  "name": "Steampunk Defense Pro",
  "slug": "steampunk-defense-pro",
  "year": null,
  "banner_url": "",
  "icon_url": "",
  "coverart": null,
  "platforms": [],
  "provider_games": [
    {
      "name": "Steampunk Defense Pro",
      "slug": "steampunk-defense-pro",
      "service": "igdb"
    }
  ],
  "aliases": [],
  "shaders": [],
  "discord_id": "",
  "change_for": null
}