{
  "id": 30164,
  "game_id": 2250,
  "game_slug": "hitman-contracts",
  "name": "Hitman: Contracts",
  "year": 2004,
  "user": "KeenanW",
  "runner": "wine",
  "slug": "hitman-contracts-gog",
  "version": "GOG",
  "description": "",
  "notes": "Cap framerate to 60 to avoid physics issues. The nemesis2000 widescreen fix does not work currently.",
  "credits": "",
  "created_at": "2021-11-01T16:29:43.623780Z",
  "updated_at": "2023-01-11T07:35:51.616603Z",
  "draft": false,
  "published": true,
  "published_by": null,
  "rating": "",
  "is_playable": null,
  "steamid": 247430,
  "gogid": 1207660853,
  "gogslug": "ioi_collection",
  "humbleid": "",
  "humblestoreid": "",
  "humblestoreid_real": "",
  "script": {
    "files": [
      {
        "installer": "N/A:Select the game's setup file"
      }
    ],
    "game": {
      "arch": "win32",
      "exe": "drive_c/GOG Games/Hitman - Contracts/HitmanContracts.exe",
      "gogid": 1207660853,
      "prefix": "$GAMEDIR"
    },
    "installer": [
      {
        "task": {
          "arch": "win32",
          "args": "/VERYSILENT /LANG=en /SP- /NOCANCEL /SUPPRESSMSGBOXES /NOGUI /DIR=\"C:\\GOG Games\\Hitman - Contracts\"",
          "description": "Installing Hitman - Contracts",
          "executable": "installer",
          "name": "wineexec",
          "prefix": "$GAMEDIR"
        }
      },
      {
        "write_file": {
          "content": "UseDirectInputMouse\nUseDirectInputKeyboard ",
          "description": "Fix mouse issues",
          "file": "$GAMEDIR/drive_c/GOG Games/Hitman - Contracts/HitmanContracts.ini",
          "mode": "a"
        }
      }
    ]
  },
  "content": "files:\n- installer: N/A:Select the game's setup file\ngame:\n  arch: win32\n  exe: drive_c/GOG Games/Hitman - Contracts/HitmanContracts.exe\n  gogid: 1207660853\n  prefix: $GAMEDIR\ninstaller:\n- task:\n    arch: win32\n    args: /VERYSILENT /LANG=en /SP- /NOCANCEL /SUPPRESSMSGBOXES /NOGUI /DIR=\"C:\\GOG\n      Games\\Hitman - Contracts\"\n    description: Installing Hitman - Contracts\n    executable: installer\n    name: wineexec\n    prefix: $GAMEDIR\n- write_file:\n    content: 'UseDirectInputMouse\n\n      UseDirectInputKeyboard '\n    description: Fix mouse issues\n    file: $GAMEDIR/drive_c/GOG Games/Hitman - Contracts/HitmanContracts.ini\n    mode: a\n",
  "discord_id": ""
}