{
  "id": 160733,
  "name": "Throb of Lovegirl: A Ero Waifu TD",
  "slug": "throb-of-lovegirl-a-ero-waifu-td",
  "year": 2021,
  "banner_url": "",
  "icon_url": "",
  "coverart": "https://lutris.net/media/igdb/cover_big/co3zav.jpg",
  "platforms": [
    {
      "name": "Windows"
    }
  ],
  "provider_games": [
    {
      "name": "Throb of Lovegirl: A Ero Waifu TD",
      "slug": "throb-of-lovegirl-a-ero-waifu-td",
      "service": "igdb"
    }
  ],
  "aliases": [],
  "shaders": [],
  "discord_id": "",
  "change_for": null
}