{
  "id": 41430,
  "name": "Dead Secret Circle",
  "slug": "dead-secret-circle",
  "year": 2018,
  "banner_url": "https://lutris.net/games/banner/dead-secret-circle.jpg",
  "icon_url": "https://lutris.net/games/icon/dead-secret-circle.png",
  "coverart": "https://lutris.net/media/igdb/cover_big/co2h5w.jpg",
  "platforms": [
    {
      "name": "Mac"
    },
    {
      "name": "Oculus VR"
    },
    {
      "name": "Windows"
    }
  ],
  "provider_games": [
    {
      "name": "Dead Secret Circle",
      "slug": "671920",
      "service": "steam"
    },
    {
      "name": "Dead Secret Circle",
      "slug": "dead-secret-circle",
      "service": "igdb"
    }
  ],
  "aliases": [],
  "shaders": [],
  "discord_id": "",
  "change_for": null
}