{
  "id": 63002,
  "name": "Strike Force Red Cell",
  "slug": "strike-force-red-cell",
  "year": null,
  "banner_url": "",
  "icon_url": "",
  "coverart": null,
  "platforms": [],
  "provider_games": [
    {
      "name": "Strike Force Red Cell",
      "slug": "strike-force-red-cell",
      "service": "igdb"
    }
  ],
  "aliases": [],
  "shaders": [],
  "discord_id": "",
  "change_for": null
}