{
  "id": 155012,
  "name": "ClickCells: Summer",
  "slug": "clickcells-summer",
  "year": null,
  "banner_url": "",
  "icon_url": "",
  "coverart": "https://lutris.net/media/igdb/cover_big/co3xgl.jpg",
  "platforms": [],
  "provider_games": [
    {
      "name": "ClickCells: Summer",
      "slug": "clickcells-summer",
      "service": "igdb"
    }
  ],
  "aliases": [],
  "shaders": [],
  "discord_id": "",
  "change_for": null
}