{
  "id": 135639,
  "name": "Dead Motherland: Zombie Co-op",
  "slug": "dead-motherland-zombie-co-op",
  "year": 2020,
  "banner_url": "",
  "icon_url": "",
  "coverart": "https://lutris.net/media/igdb/cover_big/co3o8k.jpg",
  "platforms": [
    {
      "name": "Windows"
    }
  ],
  "provider_games": [
    {
      "name": "Dead Motherland: Zombie Co-op",
      "slug": "dead-motherland-zombie-co-op",
      "service": "igdb"
    }
  ],
  "aliases": [],
  "shaders": [],
  "discord_id": "",
  "change_for": null
}