{
  "id": 243475,
  "name": "Forgotten Journey",
  "slug": "forgotten-journey--1",
  "year": null,
  "banner_url": "",
  "icon_url": "",
  "coverart": "https://lutris.net/media/igdb/cover_big/co6dve.jpg",
  "platforms": [],
  "provider_games": [
    {
      "name": "Forgotten Journey",
      "slug": "forgotten-journey--1",
      "service": "igdb"
    }
  ],
  "aliases": [],
  "shaders": [],
  "discord_id": "",
  "change_for": null
}