{
  "id": 231366,
  "name": "LightBike 2",
  "slug": "lightbike-2",
  "year": null,
  "banner_url": "",
  "icon_url": "",
  "coverart": "https://lutris.net/media/igdb/cover_big/co9arj.jpg",
  "platforms": [],
  "provider_games": [
    {
      "name": "LightBike 2",
      "slug": "lightbike-2",
      "service": "igdb"
    }
  ],
  "aliases": [],
  "shaders": [],
  "discord_id": "",
  "change_for": null
}