{
  "id": 194382,
  "name": "Quest of Wizard",
  "slug": "quest-of-wizard",
  "year": null,
  "banner_url": "https://lutris.net/games/banner/quest-of-wizard.jpg",
  "icon_url": "",
  "coverart": "https://lutris.net/media/igdb/cover_big/co4f1v.jpg",
  "platforms": [],
  "provider_games": [
    {
      "name": "Quest of Wizard",
      "slug": "quest-of-wizard",
      "service": "igdb"
    },
    {
      "name": "Quest of Wizard",
      "slug": "1723570",
      "service": "steam"
    }
  ],
  "aliases": [],
  "shaders": [],
  "discord_id": "",
  "change_for": null
}