{
  "id": 85954,
  "name": "Crash Car Racer",
  "slug": "crash-car-racer",
  "year": 2011,
  "banner_url": "",
  "icon_url": "",
  "coverart": null,
  "platforms": [
    {
      "name": "Nintendo Wii"
    }
  ],
  "provider_games": [
    {
      "name": "Crash Car Racer",
      "slug": "crash-car-racer",
      "service": "igdb"
    }
  ],
  "aliases": [],
  "shaders": [],
  "discord_id": "",
  "change_for": null
}