{
  "id": 121195,
  "name": "IMPOSSIBLE FIGHTER FROG",
  "slug": "impossible-fighter-frog",
  "year": null,
  "banner_url": "",
  "icon_url": "",
  "coverart": null,
  "platforms": [],
  "provider_games": [
    {
      "name": "Impossible Fighter Frog",
      "slug": "impossible-fighter-frog",
      "service": "igdb"
    }
  ],
  "aliases": [],
  "shaders": [],
  "discord_id": "",
  "change_for": null
}