{
  "id": 135495,
  "name": "Cyborgs Attack",
  "slug": "cyborgs-attack",
  "year": null,
  "banner_url": "",
  "icon_url": "",
  "coverart": "https://lutris.net/media/igdb/cover_big/co3nzh.jpg",
  "platforms": [],
  "provider_games": [
    {
      "name": "Cyborgs Attack",
      "slug": "cyborgs-attack",
      "service": "igdb"
    }
  ],
  "aliases": [],
  "shaders": [],
  "discord_id": "",
  "change_for": null
}