{
  "id": 117885,
  "name": "Mighty the Armadillo in Sonic the Hedgehog",
  "slug": "mighty-the-armadillo-in-sonic-the-hedgehog",
  "year": 2011,
  "banner_url": "",
  "icon_url": "",
  "coverart": "https://lutris.net/media/igdb/cover_big/co3az6.jpg",
  "platforms": [
    {
      "name": "Sega Genesis / Mega Drive"
    }
  ],
  "provider_games": [
    {
      "name": "Mighty the Armadillo in Sonic the Hedgehog",
      "slug": "mighty-the-armadillo-in-sonic-the-hedgehog",
      "service": "igdb"
    }
  ],
  "aliases": [],
  "shaders": [],
  "discord_id": "",
  "change_for": null
}