{
  "id": 108596,
  "name": "Gravity Crash Ultra",
  "slug": "gravity-crash-ultra",
  "year": 2014,
  "banner_url": "",
  "icon_url": "",
  "coverart": "https://lutris.net/media/igdb/cover_big/co2ipp.jpg",
  "platforms": [
    {
      "name": "PlayStation Vita"
    }
  ],
  "provider_games": [
    {
      "name": "Gravity Crash Ultra",
      "slug": "gravity-crash-ultra",
      "service": "igdb"
    }
  ],
  "aliases": [],
  "shaders": [],
  "discord_id": "",
  "change_for": null
}