{
  "id": 157869,
  "name": "Top Sailor",
  "slug": "top-sailor",
  "year": 2011,
  "banner_url": "",
  "icon_url": "",
  "coverart": null,
  "platforms": [],
  "provider_games": [
    {
      "name": "Top Sailor",
      "slug": "top-sailor",
      "service": "igdb"
    }
  ],
  "aliases": [],
  "shaders": [],
  "discord_id": "",
  "change_for": null
}