{
  "id": 179509,
  "name": "Upward Restriction",
  "slug": "upward-restriction",
  "year": null,
  "banner_url": "",
  "icon_url": "",
  "coverart": null,
  "platforms": [],
  "provider_games": [
    {
      "name": "Upward Restriction",
      "slug": "upward-restriction",
      "service": "igdb"
    }
  ],
  "aliases": [],
  "shaders": [],
  "discord_id": "",
  "change_for": null
}