{
  "id": 141601,
  "name": "Aerial_Knight's Never Yield: Deluxe Edition",
  "slug": "aerial-knights-never-yield-deluxe-edition",
  "year": null,
  "banner_url": "",
  "icon_url": "",
  "coverart": "https://lutris.net/media/igdb/cover_big/co3t3n.jpg",
  "platforms": [],
  "provider_games": [
    {
      "name": "Aerial_Knight's Never Yield: Deluxe Edition",
      "slug": "aerial-knights-never-yield-deluxe-edition",
      "service": "igdb"
    }
  ],
  "aliases": [],
  "shaders": [],
  "discord_id": "",
  "change_for": null
}