{
  "id": 277130,
  "name": "Further",
  "slug": "further",
  "year": null,
  "banner_url": "",
  "icon_url": "",
  "coverart": "https://lutris.net/media/igdb/cover_big/co7wif.jpg",
  "platforms": [],
  "provider_games": [
    {
      "name": "Further",
      "slug": "further",
      "service": "igdb"
    }
  ],
  "aliases": [],
  "shaders": [],
  "discord_id": "",
  "change_for": null
}