{
  "id": 8052,
  "name": "Fire With Fire: Online Tower Attack and Defense",
  "slug": "fire-with-fire-online-tower-attack-and-defense",
  "year": 2016,
  "banner_url": "https://lutris.net/games/banner/fire-with-fire-online-tower-attack-and-defense.jpg",
  "icon_url": "https://lutris.net/games/icon/fire-with-fire-online-tower-attack-and-defense.png",
  "coverart": "https://lutris.net/media/igdb/cover_big/fk0mz1bvnigi2usvufdi.jpg",
  "platforms": [
    {
      "name": "Windows"
    }
  ],
  "provider_games": [
    {
      "name": "Fire With Fire: Online Tower Attack and Defense",
      "slug": "351630",
      "service": "steam"
    },
    {
      "name": "Fire With Fire: Online Tower Attack and Defense",
      "slug": "fire-with-fire-online-tower-attack-and-defense",
      "service": "igdb"
    }
  ],
  "aliases": [],
  "shaders": [],
  "discord_id": "",
  "change_for": null
}