{
  "id": 76095,
  "name": "Go! Go! Pogo Cat!",
  "slug": "go-go-pogo-cat",
  "year": null,
  "banner_url": "",
  "icon_url": "",
  "coverart": "https://lutris.net/media/igdb/cover_big/co4iek.jpg",
  "platforms": [],
  "provider_games": [
    {
      "name": "Go! Go! Pogo Cat!",
      "slug": "go-go-pogo-cat",
      "service": "igdb"
    }
  ],
  "aliases": [],
  "shaders": [],
  "discord_id": "",
  "change_for": null
}