{
  "id": 39030,
  "game_id": 285045,
  "game_slug": "owe-money-pay-money",
  "name": "Owe Money Pay Money",
  "year": null,
  "user": "vanstaveren",
  "runner": "steam",
  "slug": "owe-money-pay-money-steam",
  "version": "steam",
  "description": "",
  "notes": "",
  "credits": "",
  "created_at": "2024-12-08T07:12:00.120169Z",
  "updated_at": "2024-12-08T07:12:00.120191Z",
  "draft": false,
  "published": true,
  "published_by": null,
  "rating": "",
  "is_playable": null,
  "steamid": null,
  "gogid": null,
  "gogslug": "",
  "humbleid": "",
  "humblestoreid": "",
  "humblestoreid_real": "",
  "script": {
    "game": {
      "appid": 2915390
    }
  },
  "content": "game:\n  appid: 2915390\n",
  "discord_id": ""
}