{
  "id": 7423,
  "game_id": 8522,
  "game_slug": "12-orbits",
  "name": "12 orbits",
  "year": 2016,
  "user": "t-rex91",
  "runner": "steam",
  "slug": "12-orbits-steam",
  "version": "Steam",
  "description": null,
  "notes": "",
  "credits": "",
  "created_at": "2018-03-02T12:04:32.152575Z",
  "updated_at": "2018-03-03T06:00:52.183257Z",
  "draft": false,
  "published": true,
  "published_by": null,
  "rating": "",
  "is_playable": null,
  "steamid": 529950,
  "gogid": null,
  "gogslug": "",
  "humbleid": "",
  "humblestoreid": "",
  "humblestoreid_real": "",
  "script": {
    "game": {
      "appid": 529950
    }
  },
  "content": "game:\n  appid: 529950\n",
  "discord_id": ""
}