{
  "id": 234151,
  "name": "Odin's Adventures",
  "slug": "odins-adventures",
  "year": null,
  "banner_url": "",
  "icon_url": "",
  "coverart": null,
  "platforms": [],
  "provider_games": [
    {
      "name": "Odin's Adventures",
      "slug": "odins-adventures",
      "service": "igdb"
    }
  ],
  "aliases": [],
  "shaders": [],
  "discord_id": "",
  "change_for": null
}