{
  "id": 295865,
  "name": "AboFlah-intelliFinish",
  "slug": "aboflah-intellifinish",
  "year": null,
  "banner_url": "",
  "icon_url": "",
  "coverart": "https://lutris.net/media/igdb/cover_big/co8sut.jpg",
  "platforms": [],
  "provider_games": [
    {
      "name": "AboFlah-intelliFinish",
      "slug": "aboflah-intellifinish",
      "service": "igdb"
    }
  ],
  "aliases": [],
  "shaders": [],
  "discord_id": "",
  "change_for": null
}