{
  "id": 93806,
  "name": "Paddles! Pong edition",
  "slug": "paddles-pong-edition",
  "year": null,
  "banner_url": "",
  "icon_url": "",
  "coverart": null,
  "platforms": [],
  "provider_games": [
    {
      "name": "Paddles! Pong edition",
      "slug": "paddles-pong-edition",
      "service": "igdb"
    }
  ],
  "aliases": [],
  "shaders": [],
  "discord_id": "",
  "change_for": null
}