{
  "id": 10609,
  "name": "Dustoff Heli Rescue 2",
  "slug": "dustoff-heli-rescue-2",
  "year": 2016,
  "banner_url": "https://lutris.net/games/banner/dustoff-heli-rescue-2.jpg",
  "icon_url": "https://lutris.net/games/icon/dustoff-heli-rescue-2.png",
  "coverart": "https://lutris.net/media/igdb/cover_big/co2b05.jpg",
  "platforms": [
    {
      "name": "Android"
    },
    {
      "name": "Nintendo Switch"
    },
    {
      "name": "Sony Playstation 4"
    },
    {
      "name": "Windows"
    },
    {
      "name": "Xbox One"
    }
  ],
  "provider_games": [
    {
      "name": "Dustoff Heli Rescue 2",
      "slug": "553690",
      "service": "steam"
    },
    {
      "name": "Dustoff Heli Rescue 2",
      "slug": "dustoff-heli-rescue-2",
      "service": "igdb"
    }
  ],
  "aliases": [],
  "shaders": [],
  "discord_id": "",
  "change_for": null
}