{
  "id": 251691,
  "name": "Sky High Golf",
  "slug": "sky-high-golf",
  "year": null,
  "banner_url": "",
  "icon_url": "",
  "coverart": null,
  "platforms": [],
  "provider_games": [
    {
      "name": "Sky High Golf",
      "slug": "sky-high-golf",
      "service": "igdb"
    }
  ],
  "aliases": [],
  "shaders": [],
  "discord_id": "",
  "change_for": null
}