{
  "id": 118964,
  "name": "Abyss The Forgotten Past",
  "slug": "abyss-the-forgotten-past",
  "year": 2021,
  "banner_url": "",
  "icon_url": "",
  "coverart": "https://lutris.net/media/igdb/cover_big/co2s2q.jpg",
  "platforms": [
    {
      "name": "Windows"
    }
  ],
  "provider_games": [
    {
      "name": "Abyss the Forgotten Past",
      "slug": "abyss-the-forgotten-past",
      "service": "igdb"
    }
  ],
  "aliases": [],
  "shaders": [],
  "discord_id": "",
  "change_for": null
}