{
  "id": 254166,
  "name": "Dirt Bicycle Rider Simulator",
  "slug": "dirt-bicycle-rider-simulator",
  "year": null,
  "banner_url": "",
  "icon_url": "",
  "coverart": "https://lutris.net/media/igdb/cover_big/co6vov.jpg",
  "platforms": [],
  "provider_games": [
    {
      "name": "Dirt Bicycle Rider Simulator",
      "slug": "dirt-bicycle-rider-simulator",
      "service": "igdb"
    }
  ],
  "aliases": [],
  "shaders": [],
  "discord_id": "",
  "change_for": null
}