{
  "id": 256573,
  "name": "Warf",
  "slug": "warf",
  "year": null,
  "banner_url": "",
  "icon_url": "",
  "coverart": "https://lutris.net/media/igdb/cover_big/co6z9z.jpg",
  "platforms": [],
  "provider_games": [
    {
      "name": "Warf",
      "slug": "warf",
      "service": "igdb"
    }
  ],
  "aliases": [],
  "shaders": [],
  "discord_id": "",
  "change_for": null
}