{
  "id": 63681,
  "name": "Wordzy",
  "slug": "wordzy",
  "year": null,
  "banner_url": "",
  "icon_url": "",
  "coverart": "https://lutris.net/media/igdb/cover_big/usknabqaeihcy2zj15sf.jpg",
  "platforms": [],
  "provider_games": [
    {
      "name": "Wordzy",
      "slug": "wordzy",
      "service": "igdb"
    }
  ],
  "aliases": [],
  "shaders": [],
  "discord_id": "",
  "change_for": null
}