{
  "id": 98641,
  "name": "GNOME Hitori",
  "slug": "gnome-hitori",
  "year": null,
  "banner_url": "",
  "icon_url": "",
  "coverart": null,
  "platforms": [],
  "provider_games": [
    {
      "name": "Gnome Hitori",
      "slug": "gnome-hitori",
      "service": "igdb"
    }
  ],
  "aliases": [],
  "shaders": [],
  "discord_id": "",
  "change_for": null
}