{
  "id": 16666,
  "name": "OutSplit",
  "slug": "outsplit",
  "year": 2017,
  "banner_url": "https://lutris.net/games/banner/outsplit.jpg",
  "icon_url": "https://lutris.net/games/icon/outsplit.png",
  "coverart": null,
  "platforms": [
    {
      "name": "Windows"
    }
  ],
  "provider_games": [
    {
      "name": "OutSplit",
      "slug": "outsplit",
      "service": "igdb"
    }
  ],
  "aliases": [],
  "shaders": [],
  "discord_id": "",
  "change_for": null
}