{
  "id": 157776,
  "name": "Cumanbins",
  "slug": "cumanbins",
  "year": 2015,
  "banner_url": "",
  "icon_url": "",
  "coverart": null,
  "platforms": [],
  "provider_games": [
    {
      "name": "Cumanbins",
      "slug": "cumanbins",
      "service": "igdb"
    }
  ],
  "aliases": [],
  "shaders": [],
  "discord_id": "",
  "change_for": null
}