{
  "id": 202586,
  "name": "Ice Cream Break: Head to Head",
  "slug": "ice-cream-break-head-to-head",
  "year": 2021,
  "banner_url": "",
  "icon_url": "",
  "coverart": "https://lutris.net/media/igdb/cover_big/co4kf2.jpg",
  "platforms": [
    {
      "name": "Sony Playstation 4"
    },
    {
      "name": "Sony PlayStation 5"
    }
  ],
  "provider_games": [
    {
      "name": "Ice Cream Break: Head to Head",
      "slug": "ice-cream-break-head-to-head",
      "service": "igdb"
    }
  ],
  "aliases": [],
  "shaders": [],
  "discord_id": "",
  "change_for": null
}