{
  "id": 4802,
  "name": "Relic Hunters Zero",
  "slug": "relic-hunters-zero",
  "year": 2015,
  "banner_url": "https://lutris.net/games/banner/relic-hunters-zero.jpg",
  "icon_url": "https://lutris.net/games/icon/relic-hunters-zero.png",
  "coverart": "https://lutris.net/media/igdb/cover_big/co1pj8.jpg",
  "platforms": [
    {
      "name": "Mac"
    },
    {
      "name": "Windows"
    }
  ],
  "provider_games": [
    {
      "name": "Relic Hunters Zero: Remix",
      "slug": "382490",
      "service": "steam"
    },
    {
      "name": "Relic Hunters Zero",
      "slug": "relic-hunters-zero",
      "service": "igdb"
    }
  ],
  "aliases": [],
  "shaders": [],
  "discord_id": "451546725606359050",
  "change_for": null
}