{
  "id": 229021,
  "name": "Forktuck Challenge",
  "slug": "forktuck-challenge",
  "year": null,
  "banner_url": "https://lutris.net/games/banner/forktuck-challenge.jpg",
  "icon_url": "https://lutris.net/games/icon/forktuck-challenge.png",
  "coverart": null,
  "platforms": [],
  "provider_games": [
    {
      "name": "Forktuck Challenge",
      "slug": "374120",
      "service": "steam"
    }
  ],
  "aliases": [],
  "shaders": [],
  "discord_id": "",
  "change_for": null
}