{
  "id": 286921,
  "name": "Contingency Plan",
  "slug": "contingency-plan",
  "year": null,
  "banner_url": "",
  "icon_url": "",
  "coverart": "https://lutris.net/media/igdb/cover_big/co89ti.jpg",
  "platforms": [],
  "provider_games": [
    {
      "name": "Contingency Plan",
      "slug": "contingency-plan",
      "service": "igdb"
    }
  ],
  "aliases": [],
  "shaders": [],
  "discord_id": "",
  "change_for": null
}