{
  "id": 266914,
  "name": "Forest Crossroads",
  "slug": "forest-crossroads",
  "year": null,
  "banner_url": "",
  "icon_url": "",
  "coverart": "https://lutris.net/media/igdb/cover_big/co7ez4.jpg",
  "platforms": [],
  "provider_games": [
    {
      "name": "Forest Crossroads",
      "slug": "forest-crossroads",
      "service": "igdb"
    }
  ],
  "aliases": [],
  "shaders": [],
  "discord_id": "",
  "change_for": null
}