{
  "id": 31710,
  "name": "5O Cent Bulletproof",
  "slug": "5o-cent-bulletproof",
  "year": 2005,
  "banner_url": "https://lutris.net/games/banner/5o-cent-bulletproof.jpg",
  "icon_url": "",
  "coverart": null,
  "platforms": [
    {
      "name": "Sony PlayStation 2"
    }
  ],
  "provider_games": [],
  "aliases": [],
  "shaders": [],
  "discord_id": "",
  "change_for": null
}