{
  "id": 29143,
  "name": "Colin McRae Rally 04",
  "slug": "colin-mcrae-rally-04",
  "year": 2003,
  "banner_url": "https://lutris.net/games/banner/colin-mcrae-rally-04.jpg",
  "icon_url": "",
  "coverart": "https://lutris.net/media/igdb/cover_big/co2vg4.jpg",
  "platforms": [
    {
      "name": "Sony PlayStation 2"
    },
    {
      "name": "Windows"
    }
  ],
  "provider_games": [
    {
      "name": "Colin McRae Rally 04",
      "slug": "colin-mcrae-rally-04",
      "service": "igdb"
    }
  ],
  "aliases": [],
  "shaders": [],
  "discord_id": "",
  "change_for": null
}