{
  "id": 170354,
  "name": "Little Chick",
  "slug": "little-chick",
  "year": null,
  "banner_url": "",
  "icon_url": "",
  "coverart": "https://lutris.net/media/igdb/cover_big/co46mj.jpg",
  "platforms": [],
  "provider_games": [
    {
      "name": "Little Chick",
      "slug": "little-chick",
      "service": "igdb"
    }
  ],
  "aliases": [],
  "shaders": [],
  "discord_id": "",
  "change_for": null
}