{
  "id": 237248,
  "name": "Asteroids Mining Saga",
  "slug": "asteroids-mining-saga",
  "year": null,
  "banner_url": "",
  "icon_url": "",
  "coverart": null,
  "platforms": [],
  "provider_games": [
    {
      "name": "Asteroids Mining Saga",
      "slug": "asteroids-mining-saga",
      "service": "igdb"
    }
  ],
  "aliases": [],
  "shaders": [],
  "discord_id": "",
  "change_for": null
}