{
  "id": 149508,
  "name": "The Wranglers",
  "slug": "the-wranglers",
  "year": null,
  "banner_url": "",
  "icon_url": "",
  "coverart": null,
  "platforms": [],
  "provider_games": [
    {
      "name": "The Wranglers",
      "slug": "the-wranglers",
      "service": "igdb"
    }
  ],
  "aliases": [],
  "shaders": [],
  "discord_id": "",
  "change_for": null
}