{
  "id": 11303,
  "name": "Medal of Honor: Heroes 2",
  "slug": "medal-of-honor-heroes-2",
  "year": 2007,
  "banner_url": "https://lutris.net/games/banner/medal-of-honor-heroes-2.jpg",
  "icon_url": "",
  "coverart": "https://lutris.net/media/igdb/cover_big/co2npw.jpg",
  "platforms": [
    {
      "name": "Nintendo Wii"
    },
    {
      "name": "Sony PSP"
    }
  ],
  "provider_games": [
    {
      "name": "Medal of Honor: Heroes 2",
      "slug": "medal-of-honor-heroes-2",
      "service": "igdb"
    }
  ],
  "aliases": [],
  "shaders": [],
  "discord_id": "",
  "change_for": null
}