{
  "id": 218603,
  "name": "Outer Darkness",
  "slug": "outer-darkness",
  "year": null,
  "banner_url": "",
  "icon_url": "",
  "coverart": "https://lutris.net/media/igdb/cover_big/co5k64.jpg",
  "platforms": [],
  "provider_games": [
    {
      "name": "Outer Darkness",
      "slug": "outer-darkness",
      "service": "igdb"
    }
  ],
  "aliases": [],
  "shaders": [],
  "discord_id": "",
  "change_for": null
}