{
  "id": 270510,
  "name": "The Lost Signal: SCP",
  "slug": "the-lost-signal-scp",
  "year": 2016,
  "banner_url": "",
  "icon_url": "",
  "coverart": "https://lutris.net/media/igdb/cover_big/co7l7w.jpg",
  "platforms": [
    {
      "name": "Android"
    }
  ],
  "provider_games": [
    {
      "name": "The Lost Signal: SCP",
      "slug": "the-lost-signal-scp",
      "service": "igdb"
    }
  ],
  "aliases": [],
  "shaders": [],
  "discord_id": "",
  "change_for": null
}