{
  "id": 73982,
  "name": "Rising Fire",
  "slug": "rising-fire",
  "year": null,
  "banner_url": "",
  "icon_url": "",
  "coverart": null,
  "platforms": [],
  "provider_games": [
    {
      "name": "Rising Fire",
      "slug": "rising-fire",
      "service": "igdb"
    }
  ],
  "aliases": [],
  "shaders": [],
  "discord_id": "",
  "change_for": null
}