{
  "id": 89573,
  "name": "Le Pendu en Français",
  "slug": "le-pendu-en-francais",
  "year": null,
  "banner_url": "",
  "icon_url": "",
  "coverart": null,
  "platforms": [],
  "provider_games": [
    {
      "name": "Le Pendu en Français",
      "slug": "le-pendu-en-francais",
      "service": "igdb"
    }
  ],
  "aliases": [],
  "shaders": [],
  "discord_id": "",
  "change_for": null
}