{
  "id": 61532,
  "name": "Dragon Story: New Dawn",
  "slug": "dragon-story-new-dawn",
  "year": null,
  "banner_url": "",
  "icon_url": "",
  "coverart": "https://lutris.net/media/igdb/cover_big/vsiv0bs9wueqbps97fsg.jpg",
  "platforms": [],
  "provider_games": [
    {
      "name": "Dragon Story: New Dawn",
      "slug": "dragon-story-new-dawn",
      "service": "igdb"
    }
  ],
  "aliases": [],
  "shaders": [],
  "discord_id": "",
  "change_for": null
}