{
  "id": 190203,
  "name": "Jerry Wanker and the Quest to get Laid",
  "slug": "jerry-wanker-and-the-quest-to-get-laid",
  "year": 2022,
  "banner_url": "",
  "icon_url": "",
  "coverart": "https://lutris.net/media/igdb/cover_big/co46gz.jpg",
  "platforms": [
    {
      "name": "Linux"
    },
    {
      "name": "Mac"
    },
    {
      "name": "Windows"
    }
  ],
  "provider_games": [
    {
      "name": "Jerry Wanker and the Quest to get Laid",
      "slug": "jerry-wanker-and-the-quest-to-get-laid",
      "service": "igdb"
    }
  ],
  "aliases": [],
  "shaders": [],
  "discord_id": "",
  "change_for": null
}