{
  "id": 66036,
  "name": "Shutter Chance Love",
  "slug": "shutter-chance-love",
  "year": null,
  "banner_url": "",
  "icon_url": "",
  "coverart": "https://lutris.net/media/igdb/cover_big/s9zcedytsk4sq73trbqw.jpg",
  "platforms": [],
  "provider_games": [
    {
      "name": "Shutter Chance Love",
      "slug": "shutter-chance-love",
      "service": "igdb"
    }
  ],
  "aliases": [],
  "shaders": [],
  "discord_id": "",
  "change_for": null
}