{
  "id": 166771,
  "name": "Hover Tank Arena",
  "slug": "hover-tank-arena",
  "year": null,
  "banner_url": "",
  "icon_url": "",
  "coverart": "https://lutris.net/media/igdb/cover_big/co43dy.jpg",
  "platforms": [],
  "provider_games": [
    {
      "name": "Hover Tank Arena",
      "slug": "hover-tank-arena",
      "service": "igdb"
    }
  ],
  "aliases": [],
  "shaders": [],
  "discord_id": "",
  "change_for": null
}