{
  "id": 269564,
  "name": "Dead Ninja Mortal Shadow",
  "slug": "dead-ninja-mortal-shadow",
  "year": 2014,
  "banner_url": "",
  "icon_url": "",
  "coverart": "https://lutris.net/media/igdb/cover_big/co7j8j.jpg",
  "platforms": [
    {
      "name": "Android"
    }
  ],
  "provider_games": [
    {
      "name": "Dead Ninja Mortal Shadow",
      "slug": "dead-ninja-mortal-shadow",
      "service": "igdb"
    }
  ],
  "aliases": [],
  "shaders": [],
  "discord_id": "",
  "change_for": null
}