{
  "id": 98076,
  "name": "UNSUBSCRIBED: THE GAME",
  "slug": "unsubscribed-the-game",
  "year": null,
  "banner_url": "",
  "icon_url": "",
  "coverart": null,
  "platforms": [],
  "provider_games": [
    {
      "name": "Unsubscribed: The Game",
      "slug": "unsubscribed-the-game",
      "service": "igdb"
    }
  ],
  "aliases": [],
  "shaders": [],
  "discord_id": "",
  "change_for": null
}