{
  "id": 84889,
  "name": "The Akuma Hunters: Exorsister",
  "slug": "the-akuma-hunters-exorsister",
  "year": 2010,
  "banner_url": "",
  "icon_url": "",
  "coverart": "https://lutris.net/media/igdb/cover_big/co1k3x.jpg",
  "platforms": [
    {
      "name": "Sony PSP"
    }
  ],
  "provider_games": [
    {
      "name": "The Akuma Hunters: Exorsister",
      "slug": "the-akuma-hunters-exorsister",
      "service": "igdb"
    }
  ],
  "aliases": [],
  "shaders": [],
  "discord_id": "",
  "change_for": null
}