{
  "id": 59435,
  "name": "Sugar Drops",
  "slug": "sugar-drops",
  "year": 2014,
  "banner_url": "",
  "icon_url": "",
  "coverart": "https://lutris.net/media/igdb/cover_big/yjahqeh5b1dz41pag30c.jpg",
  "platforms": [
    {
      "name": "Android"
    }
  ],
  "provider_games": [
    {
      "name": "Sugar Drops",
      "slug": "sugar-drops",
      "service": "igdb"
    }
  ],
  "aliases": [],
  "shaders": [],
  "discord_id": "",
  "change_for": null
}