{
  "id": 15349,
  "game_id": 29283,
  "game_slug": "blooming-nightshade",
  "name": "Blooming Nightshade",
  "year": 2017,
  "user": "oscararg",
  "runner": "linux",
  "slug": "blooming-nightshade-itch",
  "version": "Itch",
  "description": null,
  "notes": "",
  "credits": "",
  "created_at": "2019-09-07T05:25:23.015000Z",
  "updated_at": "2024-04-03T05:34:35.988129Z",
  "draft": false,
  "published": true,
  "published_by": 19464,
  "rating": "",
  "is_playable": null,
  "steamid": 1148400,
  "gogid": null,
  "gogslug": "",
  "humbleid": "",
  "humblestoreid": "",
  "humblestoreid_real": "",
  "script": {
    "files": [
      {
        "archive": "N/A:Please select the itch.io archive"
      }
    ],
    "game": {
      "exe": "BloomingNightshade.sh"
    },
    "installer": [
      {
        "extract": {
          "file": "archive"
        }
      }
    ]
  },
  "content": "files:\n- archive: N/A:Please select the itch.io archive\ngame:\n  exe: BloomingNightshade.sh\ninstaller:\n- extract:\n    file: archive\n",
  "discord_id": ""
}