{
  "id": 184669,
  "name": "Moon Slasher",
  "slug": "moon-slasher",
  "year": null,
  "banner_url": "",
  "icon_url": "",
  "coverart": null,
  "platforms": [],
  "provider_games": [
    {
      "name": "Moon Slasher",
      "slug": "moon-slasher",
      "service": "igdb"
    }
  ],
  "aliases": [],
  "shaders": [],
  "discord_id": "",
  "change_for": null
}