{
  "id": 17493,
  "name": "PROJECT VELOCITY",
  "slug": "project-velocity",
  "year": 2018,
  "banner_url": "https://lutris.net/games/banner/project-velocity.jpg",
  "icon_url": "https://lutris.net/games/icon/project-velocity.png",
  "coverart": null,
  "platforms": [
    {
      "name": "Linux"
    },
    {
      "name": "Mac"
    },
    {
      "name": "Windows"
    }
  ],
  "provider_games": [
    {
      "name": "PROJECT VELOCITY",
      "slug": "776440",
      "service": "steam"
    },
    {
      "name": "Project Velocity",
      "slug": "project-velocity",
      "service": "igdb"
    }
  ],
  "aliases": [],
  "shaders": [],
  "discord_id": "",
  "change_for": null
}