{
  "id": 250009,
  "name": "Metal: Hellsinger - Essential Hits Edition",
  "slug": "metal-hellsinger-essential-hits-edition",
  "year": 2023,
  "banner_url": "",
  "icon_url": "",
  "coverart": "https://lutris.net/media/igdb/cover_big/co6n93.jpg",
  "platforms": [
    {
      "name": "Xbox Series X|S"
    }
  ],
  "provider_games": [
    {
      "name": "Metal: Hellsinger - Essential Hits Edition",
      "slug": "metal-hellsinger-essential-hits-edition",
      "service": "igdb"
    }
  ],
  "aliases": [],
  "shaders": [],
  "discord_id": "",
  "change_for": null
}