{
  "id": 121939,
  "name": "Aka Manto | 赤マント",
  "slug": "aka-manto-chi-manto",
  "year": 2019,
  "banner_url": "",
  "icon_url": "",
  "coverart": "https://lutris.net/media/igdb/cover_big/co1ybk.jpg",
  "platforms": [
    {
      "name": "Windows"
    }
  ],
  "provider_games": [
    {
      "name": "Aka Manto | 赤マント",
      "slug": "aka-manto-chi-manto",
      "service": "igdb"
    }
  ],
  "aliases": [],
  "shaders": [],
  "discord_id": "",
  "change_for": null
}