{
  "id": 198449,
  "name": "Late photographer 3",
  "slug": "late-photographer-3",
  "year": null,
  "banner_url": "",
  "icon_url": "",
  "coverart": "https://lutris.net/media/igdb/cover_big/co4ip9.jpg",
  "platforms": [],
  "provider_games": [
    {
      "name": "Late Photographer 3",
      "slug": "late-photographer-3",
      "service": "igdb"
    }
  ],
  "aliases": [],
  "shaders": [],
  "discord_id": "",
  "change_for": null
}