{
  "id": 68136,
  "name": "One Piece: Unlimited Cruise SP2",
  "slug": "one-piece-unlimited-cruise-sp2",
  "year": 2012,
  "banner_url": "",
  "icon_url": "",
  "coverart": "https://lutris.net/media/igdb/cover_big/mpawxdyl9h0yrqu1z5ob.jpg",
  "platforms": [
    {
      "name": "Nintendo 3DS"
    }
  ],
  "provider_games": [
    {
      "name": "One Piece: Unlimited Cruise SP2",
      "slug": "one-piece-unlimited-cruise-sp2",
      "service": "igdb"
    }
  ],
  "aliases": [],
  "shaders": [],
  "discord_id": "",
  "change_for": null
}