{
  "id": 184104,
  "name": "Woden GP",
  "slug": "woden-gp",
  "year": null,
  "banner_url": "",
  "icon_url": "",
  "coverart": "https://lutris.net/media/igdb/cover_big/co3nb5.jpg",
  "platforms": [],
  "provider_games": [
    {
      "name": "Woden GP",
      "slug": "woden-gp",
      "service": "igdb"
    }
  ],
  "aliases": [],
  "shaders": [],
  "discord_id": "",
  "change_for": null
}