{
  "id": 1464,
  "game_id": 4149,
  "game_slug": "dungeon-warfare",
  "name": "Dungeon Warfare",
  "year": 2015,
  "user": "Xodetaetl",
  "runner": "steam",
  "slug": "dungeon-warfare-steam",
  "version": "Steam",
  "description": "",
  "notes": "",
  "credits": "",
  "created_at": "2015-04-19T14:31:52.959000Z",
  "updated_at": "2015-04-19T14:36:09.695000Z",
  "draft": false,
  "published": true,
  "published_by": null,
  "rating": "",
  "is_playable": null,
  "steamid": 355980,
  "gogid": null,
  "gogslug": "",
  "humbleid": "",
  "humblestoreid": "",
  "humblestoreid_real": "",
  "script": {
    "game": {
      "appid": 355980
    }
  },
  "content": "game:\n  appid: 355980\n",
  "discord_id": ""
}