{
  "id": 293155,
  "name": "My Wet Leto Comic: A Day of Green",
  "slug": "my-wet-leto-comic-a-day-of-green",
  "year": null,
  "banner_url": "",
  "icon_url": "",
  "coverart": "https://lutris.net/media/igdb/cover_big/co8lre.jpg",
  "platforms": [],
  "provider_games": [
    {
      "name": "My Wet Leto Comic: A Day of Green",
      "slug": "my-wet-leto-comic-a-day-of-green",
      "service": "igdb"
    }
  ],
  "aliases": [],
  "shaders": [],
  "discord_id": "",
  "change_for": null
}