{
  "id": 272067,
  "name": "Meteora's Mystic Merge",
  "slug": "meteoras-mystic-merge",
  "year": 2024,
  "banner_url": "",
  "icon_url": "",
  "coverart": "https://lutris.net/media/igdb/cover_big/co7pl8.jpg",
  "platforms": [
    {
      "name": "Linux"
    },
    {
      "name": "Windows"
    }
  ],
  "provider_games": [
    {
      "name": "Meteora's Mystic Merge",
      "slug": "meteoras-mystic-merge",
      "service": "igdb"
    }
  ],
  "aliases": [],
  "shaders": [],
  "discord_id": "",
  "change_for": null
}