{
  "id": 259044,
  "name": "Cryoterror",
  "slug": "cryoterror",
  "year": null,
  "banner_url": "",
  "icon_url": "",
  "coverart": "https://lutris.net/media/igdb/cover_big/co73dq.jpg",
  "platforms": [],
  "provider_games": [
    {
      "name": "Cryoterror",
      "slug": "cryoterror",
      "service": "igdb"
    }
  ],
  "aliases": [],
  "shaders": [],
  "discord_id": "",
  "change_for": null
}