{
  "id": 214299,
  "name": "Army vs Zombie",
  "slug": "army-vs-zombie",
  "year": null,
  "banner_url": "",
  "icon_url": "",
  "coverart": null,
  "platforms": [],
  "provider_games": [
    {
      "name": "Army vs Zombie",
      "slug": "army-vs-zombie",
      "service": "igdb"
    }
  ],
  "aliases": [],
  "shaders": [],
  "discord_id": "",
  "change_for": null
}