{
  "id": 416,
  "name": "The Next BIG Thing",
  "slug": "the-next-big-thing",
  "year": 2011,
  "banner_url": "https://lutris.net/games/banner/the-next-big-thing.jpg",
  "icon_url": "https://lutris.net/games/icon/the-next-big-thing.png",
  "coverart": "https://lutris.net/media/igdb/cover_big/co43zv.jpg",
  "platforms": [
    {
      "name": "Linux"
    },
    {
      "name": "Mac"
    },
    {
      "name": "Windows"
    }
  ],
  "provider_games": [
    {
      "name": "The Next BIG Thing",
      "slug": "1819705999",
      "service": "gog"
    },
    {
      "name": "The Next BIG Thing",
      "slug": "58570",
      "service": "steam"
    },
    {
      "name": "The Next Big Thing",
      "slug": "the-next-big-thing",
      "service": "igdb"
    }
  ],
  "aliases": [],
  "shaders": [],
  "discord_id": "",
  "change_for": null
}