{
  "id": 142686,
  "name": "The fairy tale you don't know",
  "slug": "the-fairy-tale-you-dont-know",
  "year": 2021,
  "banner_url": "https://lutris.net/games/banner/the-fairy-tale-you-dont-know.jpg",
  "icon_url": "",
  "coverart": "https://lutris.net/media/igdb/cover_big/co3t08.jpg",
  "platforms": [
    {
      "name": "Windows"
    }
  ],
  "provider_games": [
    {
      "name": "The fairy tale you don't know",
      "slug": "the-fairy-tale-you-dont-know",
      "service": "igdb"
    },
    {
      "name": "The fairy tale you don't know",
      "slug": "1490410",
      "service": "steam"
    }
  ],
  "aliases": [],
  "shaders": [],
  "discord_id": "",
  "change_for": null
}