{
  "id": 4294,
  "name": "Clive Barker's Undying",
  "slug": "clive-barkers-undying",
  "year": 2001,
  "banner_url": "https://lutris.net/games/banner/clive-barkers-undying.jpg",
  "icon_url": "https://lutris.net/games/icon/clive-barkers-undying.png",
  "coverart": "https://lutris.net/media/igdb/cover_big/co1zuh.jpg",
  "platforms": [
    {
      "name": "Mac"
    },
    {
      "name": "Windows"
    }
  ],
  "provider_games": [
    {
      "name": "Clive Barker's Undying",
      "slug": "1207659191",
      "service": "gog"
    },
    {
      "name": "Clive Barker's Undying",
      "slug": "clive-barker-s-undying",
      "service": "igdb"
    }
  ],
  "aliases": [
    {
      "slug": "clive-barker-s-undying",
      "name": "Clive Barker's Undying"
    }
  ],
  "shaders": [],
  "discord_id": "",
  "change_for": null
}