{
  "id": 12070,
  "name": "Yukkuri Panic: Escalation",
  "slug": "yukkuri-panic-escalation",
  "year": 2008,
  "banner_url": "https://lutris.net/games/banner/yukkuri-panic-escalation.jpg",
  "icon_url": "",
  "coverart": null,
  "platforms": [
    {
      "name": "Windows"
    }
  ],
  "provider_games": [],
  "aliases": [],
  "shaders": [],
  "discord_id": "",
  "change_for": null
}