{
  "id": 116463,
  "name": "For Honor: Season 12 - Sun Da",
  "slug": "for-honor-season-12-sun-da",
  "year": 2019,
  "banner_url": "",
  "icon_url": "",
  "coverart": "https://lutris.net/media/igdb/cover_big/co3daw.jpg",
  "platforms": [
    {
      "name": "Sony Playstation 4"
    },
    {
      "name": "Windows"
    },
    {
      "name": "Xbox One"
    }
  ],
  "provider_games": [
    {
      "name": "For Honor: Season 12 - Sun Da",
      "slug": "for-honor-season-12-sun-da",
      "service": "igdb"
    }
  ],
  "aliases": [],
  "shaders": [],
  "discord_id": "",
  "change_for": null
}