{
  "id": 493,
  "name": "POSTAL",
  "slug": "postal",
  "year": 1997,
  "banner_url": "https://lutris.net/games/banner/postal.jpg",
  "icon_url": "https://lutris.net/games/icon/postal.png",
  "coverart": "https://lutris.net/media/igdb/cover_big/co2e31.jpg",
  "platforms": [
    {
      "name": "Linux"
    },
    {
      "name": "Mac"
    },
    {
      "name": "Windows"
    }
  ],
  "provider_games": [
    {
      "name": "POSTAL",
      "slug": "232770",
      "service": "steam"
    },
    {
      "name": "Postal",
      "slug": "postal",
      "service": "igdb"
    }
  ],
  "aliases": [],
  "shaders": [],
  "discord_id": "",
  "change_for": null
}