{
  "id": 93795,
  "name": "Dish Puzzle For Toddlers",
  "slug": "dish-puzzle-for-toddlers",
  "year": null,
  "banner_url": "",
  "icon_url": "",
  "coverart": null,
  "platforms": [],
  "provider_games": [
    {
      "name": "Dish Puzzle For Toddlers",
      "slug": "dish-puzzle-for-toddlers",
      "service": "igdb"
    }
  ],
  "aliases": [],
  "shaders": [],
  "discord_id": "",
  "change_for": null
}