{
  "id": 240748,
  "name": "RPG Workshop Max",
  "slug": "rpg-workshop-max",
  "year": null,
  "banner_url": "",
  "icon_url": "",
  "coverart": "https://lutris.net/media/igdb/cover_big/co61ej.jpg",
  "platforms": [],
  "provider_games": [
    {
      "name": "RPG Workshop Max",
      "slug": "rpg-workshop-max",
      "service": "igdb"
    }
  ],
  "aliases": [],
  "shaders": [],
  "discord_id": "",
  "change_for": null
}