{
  "id": 249679,
  "name": "Edge of Grief",
  "slug": "edge-of-grief",
  "year": null,
  "banner_url": "",
  "icon_url": "",
  "coverart": "https://lutris.net/media/igdb/cover_big/co6ocv.jpg",
  "platforms": [],
  "provider_games": [
    {
      "name": "Edge of Grief",
      "slug": "edge-of-grief",
      "service": "igdb"
    }
  ],
  "aliases": [],
  "shaders": [],
  "discord_id": "",
  "change_for": null
}