{
  "id": 35938,
  "name": "Treasure Bonus",
  "slug": "treasure-bonus",
  "year": 1995,
  "banner_url": "",
  "icon_url": "https://lutris.net/games/icon/treasure-bonus.png",
  "coverart": null,
  "platforms": [
    {
      "name": "Arcade"
    }
  ],
  "provider_games": [
    {
      "name": "Treasure Bonus",
      "slug": "stbsub",
      "service": "mame"
    }
  ],
  "aliases": [],
  "shaders": [],
  "discord_id": "",
  "change_for": null
}