{
  "id": 267083,
  "name": "Quest of Goddess",
  "slug": "quest-of-goddess",
  "year": null,
  "banner_url": "",
  "icon_url": "",
  "coverart": "https://lutris.net/media/igdb/cover_big/co7eng.jpg",
  "platforms": [],
  "provider_games": [
    {
      "name": "Quest of Goddess",
      "slug": "quest-of-goddess",
      "service": "igdb"
    }
  ],
  "aliases": [],
  "shaders": [],
  "discord_id": "",
  "change_for": null
}