{
  "id": 275053,
  "name": "Touhou Genso Wanderer: Foresight",
  "slug": "touhou-genso-wanderer-foresight",
  "year": 2024,
  "banner_url": "",
  "icon_url": "",
  "coverart": "https://lutris.net/media/igdb/cover_big/co7u0g.jpg",
  "platforms": [
    {
      "name": "Windows"
    }
  ],
  "provider_games": [
    {
      "name": "Touhou Genso Wanderer: Foresight",
      "slug": "touhou-genso-wanderer-foresight",
      "service": "igdb"
    }
  ],
  "aliases": [],
  "shaders": [],
  "discord_id": "",
  "change_for": null
}