{
  "id": 8566,
  "name": "Portal Stories: VR",
  "slug": "portal-stories-vr",
  "year": 2016,
  "banner_url": "https://lutris.net/games/banner/portal-stories-vr.jpg",
  "icon_url": "https://lutris.net/games/icon/portal-stories-vr.png",
  "coverart": "https://lutris.net/media/igdb/cover_big/co1zwd.jpg",
  "platforms": [
    {
      "name": "SteamVR"
    }
  ],
  "provider_games": [
    {
      "name": "Portal Stories: VR",
      "slug": "446750",
      "service": "steam"
    },
    {
      "name": "Portal Stories: VR",
      "slug": "portal-stories-vr",
      "service": "igdb"
    }
  ],
  "aliases": [],
  "shaders": [],
  "discord_id": "",
  "change_for": null
}