{
  "id": 3429,
  "game_id": 6046,
  "game_slug": "hard-west",
  "name": "Hard West",
  "year": 2015,
  "user": "liberodark",
  "runner": "steam",
  "slug": "hard-west-steam",
  "version": "Steam",
  "description": "",
  "notes": "",
  "credits": "",
  "created_at": "2017-04-01T02:59:49.328859Z",
  "updated_at": "2017-04-04T20:05:44.244408Z",
  "draft": false,
  "published": true,
  "published_by": null,
  "rating": "",
  "is_playable": null,
  "steamid": 307670,
  "gogid": 1442827661,
  "gogslug": "hard_west_collectors_edition",
  "humbleid": "",
  "humblestoreid": "",
  "humblestoreid_real": "",
  "script": {
    "game": {
      "appid": 307670
    }
  },
  "content": "game:\n  appid: 307670\n",
  "discord_id": "496776675351330846"
}