{
  "id": 103660,
  "name": "Attack on Titan: Assault",
  "slug": "attack-on-titan-assault",
  "year": 2018,
  "banner_url": "",
  "icon_url": "",
  "coverart": "https://lutris.net/media/igdb/cover_big/co2slc.jpg",
  "platforms": [
    {
      "name": "Android"
    }
  ],
  "provider_games": [
    {
      "name": "Attack on Titan: Assault",
      "slug": "attack-on-titan-assault",
      "service": "igdb"
    }
  ],
  "aliases": [],
  "shaders": [],
  "discord_id": "",
  "change_for": null
}