{
  "id": 11187,
  "name": "Drawful 2",
  "slug": "drawful-2",
  "year": 2016,
  "banner_url": "https://lutris.net/games/banner/drawful-2.jpg",
  "icon_url": "https://lutris.net/games/icon/drawful-2.png",
  "coverart": "https://lutris.net/media/igdb/cover_big/co1rqn.jpg",
  "platforms": [
    {
      "name": "Amazon Fire TV"
    },
    {
      "name": "Linux"
    },
    {
      "name": "Mac"
    },
    {
      "name": "Nintendo Switch"
    },
    {
      "name": "Sony Playstation 4"
    },
    {
      "name": "Windows"
    },
    {
      "name": "Xbox One"
    }
  ],
  "provider_games": [
    {
      "name": "Drawful 2",
      "slug": "442070",
      "service": "steam"
    },
    {
      "name": "Drawful 2",
      "slug": "drawful-2",
      "service": "igdb"
    }
  ],
  "aliases": [],
  "shaders": [],
  "discord_id": "",
  "change_for": null
}