{
  "id": 68636,
  "name": "Exisled",
  "slug": "exisled",
  "year": null,
  "banner_url": "",
  "icon_url": "",
  "coverart": "https://lutris.net/media/igdb/cover_big/p4ppiuuxwpbfstjqql2h.jpg",
  "platforms": [],
  "provider_games": [
    {
      "name": "Exisled",
      "slug": "exisled",
      "service": "igdb"
    }
  ],
  "aliases": [],
  "shaders": [],
  "discord_id": "",
  "change_for": null
}