{
  "id": 4423,
  "name": "Shattered Planet",
  "slug": "shattered-planet",
  "year": 2014,
  "banner_url": "https://lutris.net/games/banner/shattered-planet.jpg",
  "icon_url": "https://lutris.net/games/icon/shattered-planet.png",
  "coverart": "https://lutris.net/media/igdb/cover_big/co1rjf.jpg",
  "platforms": [
    {
      "name": "Android"
    },
    {
      "name": "Mac"
    },
    {
      "name": "Windows"
    }
  ],
  "provider_games": [
    {
      "name": "Shattered Planet",
      "slug": "305640",
      "service": "steam"
    },
    {
      "name": "Shattered Planet",
      "slug": "shattered-planet",
      "service": "igdb"
    }
  ],
  "aliases": [],
  "shaders": [],
  "discord_id": "",
  "change_for": null
}