{
  "id": 15101,
  "name": "IGT Slots Paradise Garden",
  "slug": "igt-slots-paradise-garden",
  "year": 2014,
  "banner_url": "https://lutris.net/games/banner/igt-slots-paradise-garden.jpg",
  "icon_url": "https://lutris.net/games/icon/igt-slots-paradise-garden.png",
  "coverart": "https://lutris.net/media/igdb/cover_big/co48ih.jpg",
  "platforms": [
    {
      "name": "Mac"
    },
    {
      "name": "Windows"
    }
  ],
  "provider_games": [
    {
      "name": "IGT Slots Paradise Garden",
      "slug": "320970",
      "service": "steam"
    },
    {
      "name": "IGT Slots Paradise Garden",
      "slug": "igt-slots-paradise-garden",
      "service": "igdb"
    }
  ],
  "aliases": [],
  "shaders": [],
  "discord_id": "",
  "change_for": null
}