{
  "id": 35027,
  "name": "Miss Bingo",
  "slug": "miss-bingo",
  "year": 1994,
  "banner_url": "",
  "icon_url": "https://lutris.net/games/icon/miss-bingo.png",
  "coverart": null,
  "platforms": [
    {
      "name": "Arcade"
    }
  ],
  "provider_games": [
    {
      "name": "Miss Bingo",
      "slug": "msbingo",
      "service": "mame"
    },
    {
      "name": "Miss Bingo",
      "slug": "miss-bingo",
      "service": "igdb"
    }
  ],
  "aliases": [],
  "shaders": [],
  "discord_id": "",
  "change_for": null
}