{
  "id": 242646,
  "name": "Sushi Cat Words",
  "slug": "sushi-cat-words",
  "year": null,
  "banner_url": "",
  "icon_url": "",
  "coverart": "https://lutris.net/media/igdb/cover_big/co97hh.jpg",
  "platforms": [],
  "provider_games": [
    {
      "name": "Sushi Cat Words",
      "slug": "sushi-cat-words",
      "service": "igdb"
    }
  ],
  "aliases": [],
  "shaders": [],
  "discord_id": "",
  "change_for": null
}