{
  "id": 16320,
  "name": "Happyland Adventures",
  "slug": "happyland-adventures",
  "year": 2000,
  "banner_url": "https://lutris.net/games/banner/happyland-adventures.jpg",
  "icon_url": "",
  "coverart": "https://lutris.net/media/igdb/cover_big/co1vqz.jpg",
  "platforms": [
    {
      "name": "MS-DOS"
    },
    {
      "name": "Windows"
    }
  ],
  "provider_games": [
    {
      "name": "Happyland Adventures",
      "slug": "happyland-adventures",
      "service": "igdb"
    }
  ],
  "aliases": [],
  "shaders": [],
  "discord_id": "",
  "change_for": null
}