{
  "id": 84965,
  "name": "Mega Race",
  "slug": "mega-race",
  "year": 1994,
  "banner_url": "",
  "icon_url": "",
  "coverart": "https://lutris.net/media/igdb/cover_big/dc33hqwubdqvxktopmgg.jpg",
  "platforms": [],
  "provider_games": [
    {
      "name": "Mega Race",
      "slug": "mega-race",
      "service": "igdb"
    }
  ],
  "aliases": [],
  "shaders": [],
  "discord_id": "",
  "change_for": null
}