{
  "id": 33771,
  "name": "Crazy Rally",
  "slug": "crazy-rally",
  "year": 1985,
  "banner_url": "",
  "icon_url": "https://lutris.net/games/icon/crazy-rally.png",
  "coverart": "https://lutris.net/media/igdb/cover_big/kebzqqyjpmq0ghddvjxo.jpg",
  "platforms": [
    {
      "name": "Arcade"
    }
  ],
  "provider_games": [
    {
      "name": "Crazy Rally",
      "slug": "crzrally",
      "service": "mame"
    },
    {
      "name": "Crazy Rally",
      "slug": "crazy-rally",
      "service": "igdb"
    }
  ],
  "aliases": [],
  "shaders": [],
  "discord_id": "",
  "change_for": null
}