{
  "id": 235025,
  "name": "Attack on Hex Island",
  "slug": "attack-on-hex-island",
  "year": null,
  "banner_url": "",
  "icon_url": "",
  "coverart": "https://lutris.net/media/igdb/cover_big/co679r.jpg",
  "platforms": [],
  "provider_games": [
    {
      "name": "Attack on Hex Island",
      "slug": "attack-on-hex-island",
      "service": "igdb"
    }
  ],
  "aliases": [],
  "shaders": [],
  "discord_id": "",
  "change_for": null
}