{
  "id": 153596,
  "name": "Escape Hospital",
  "slug": "escape-hospital",
  "year": null,
  "banner_url": "",
  "icon_url": "",
  "coverart": "https://lutris.net/media/igdb/cover_big/co3srt.jpg",
  "platforms": [],
  "provider_games": [
    {
      "name": "Escape Hospital",
      "slug": "escape-hospital",
      "service": "igdb"
    }
  ],
  "aliases": [],
  "shaders": [],
  "discord_id": "",
  "change_for": null
}