{
  "id": 143516,
  "name": "Attack",
  "slug": "attack",
  "year": 1976,
  "banner_url": "",
  "icon_url": "",
  "coverart": "https://lutris.net/media/igdb/cover_big/hzjo2a1n7cvabnpokknn.jpg",
  "platforms": [],
  "provider_games": [
    {
      "name": "Attack",
      "slug": "attack",
      "service": "igdb"
    }
  ],
  "aliases": [],
  "shaders": [],
  "discord_id": "",
  "change_for": null
}