{
  "id": 256639,
  "name": "Horror Gallery",
  "slug": "horror-gallery",
  "year": null,
  "banner_url": "",
  "icon_url": "",
  "coverart": "https://lutris.net/media/igdb/cover_big/co6zai.jpg",
  "platforms": [],
  "provider_games": [
    {
      "name": "Horror Gallery",
      "slug": "horror-gallery",
      "service": "igdb"
    }
  ],
  "aliases": [],
  "shaders": [],
  "discord_id": "",
  "change_for": null
}