{
  "id": 162461,
  "name": "Power Pro-Kun Pocket 11",
  "slug": "power-pro-kun-pocket-11",
  "year": null,
  "banner_url": "",
  "icon_url": "",
  "coverart": "https://lutris.net/media/igdb/cover_big/co65b7.jpg",
  "platforms": [],
  "provider_games": [
    {
      "name": "Power Pro-Kun Pocket 11",
      "slug": "power-pro-kun-pocket-11",
      "service": "igdb"
    }
  ],
  "aliases": [],
  "shaders": [],
  "discord_id": "",
  "change_for": null
}