{
  "id": 141792,
  "name": "Zombie Derby: Pixel Survival",
  "slug": "zombie-derby-pixel-survival",
  "year": null,
  "banner_url": "",
  "icon_url": "",
  "coverart": "https://lutris.net/media/igdb/cover_big/co3t7c.jpg",
  "platforms": [],
  "provider_games": [
    {
      "name": "Zombie Derby: Pixel Survival",
      "slug": "zombie-derby-pixel-survival",
      "service": "igdb"
    }
  ],
  "aliases": [],
  "shaders": [],
  "discord_id": "",
  "change_for": null
}