{
  "id": 4786,
  "name": "Alpha Runner",
  "slug": "alpha-runner",
  "year": 2015,
  "banner_url": "https://lutris.net/games/banner/alpha-runner.jpg",
  "icon_url": "https://lutris.net/games/icon/alpha-runner.png",
  "coverart": "https://lutris.net/media/igdb/cover_big/co7tub.jpg",
  "platforms": [
    {
      "name": "Windows"
    }
  ],
  "provider_games": [
    {
      "name": "Alpha Runner",
      "slug": "387840",
      "service": "steam"
    },
    {
      "name": "Alpha Runner",
      "slug": "alpha-runner",
      "service": "igdb"
    }
  ],
  "aliases": [],
  "shaders": [],
  "discord_id": "",
  "change_for": null
}