{
  "id": 256629,
  "name": "Merchant Master",
  "slug": "merchant-master",
  "year": null,
  "banner_url": "",
  "icon_url": "",
  "coverart": "https://lutris.net/media/igdb/cover_big/co6z63.jpg",
  "platforms": [],
  "provider_games": [
    {
      "name": "Merchant Master",
      "slug": "merchant-master",
      "service": "igdb"
    }
  ],
  "aliases": [],
  "shaders": [],
  "discord_id": "",
  "change_for": null
}