{
  "id": 202672,
  "name": "Super Baseball League",
  "slug": "super-baseball-league",
  "year": null,
  "banner_url": "",
  "icon_url": "",
  "coverart": "https://lutris.net/media/igdb/cover_big/co4ia5.jpg",
  "platforms": [
    {
      "name": "Android"
    }
  ],
  "provider_games": [
    {
      "name": "Super Baseball League",
      "slug": "super-baseball-league",
      "service": "igdb"
    }
  ],
  "aliases": [],
  "shaders": [],
  "discord_id": "",
  "change_for": null
}