{
  "id": 236257,
  "name": "Dishonest",
  "slug": "dishonest",
  "year": 2019,
  "banner_url": "",
  "icon_url": "",
  "coverart": null,
  "platforms": [
    {
      "name": "Windows"
    }
  ],
  "provider_games": [
    {
      "name": "Dishonest",
      "slug": "dishonest",
      "service": "igdb"
    }
  ],
  "aliases": [],
  "shaders": [],
  "discord_id": "",
  "change_for": null
}