{
  "id": 225007,
  "name": "Courage the Cowardly Dog: Pharaoh Phobia",
  "slug": "courage-the-cowardly-dog-pharaoh-phobia",
  "year": 2007,
  "banner_url": "",
  "icon_url": "",
  "coverart": "https://lutris.net/media/igdb/cover_big/co4sx7.jpg",
  "platforms": [
    {
      "name": "Browser"
    }
  ],
  "provider_games": [
    {
      "name": "Courage the Cowardly Dog: Pharaoh Phobia",
      "slug": "courage-the-cowardly-dog-pharaoh-phobia",
      "service": "igdb"
    }
  ],
  "aliases": [],
  "shaders": [],
  "discord_id": "",
  "change_for": null
}