{
  "id": 218083,
  "name": "The Rage of Valhalla",
  "slug": "the-rage-of-valhalla",
  "year": null,
  "banner_url": "",
  "icon_url": "",
  "coverart": "https://lutris.net/media/igdb/cover_big/co53io.jpg",
  "platforms": [],
  "provider_games": [
    {
      "name": "The Rage of Valhalla",
      "slug": "the-rage-of-valhalla",
      "service": "igdb"
    }
  ],
  "aliases": [],
  "shaders": [],
  "discord_id": "",
  "change_for": null
}