{
  "id": 207881,
  "name": "Overwritten: Defeat The Net",
  "slug": "overwritten-defeat-the-net",
  "year": null,
  "banner_url": "",
  "icon_url": "",
  "coverart": "https://lutris.net/media/igdb/cover_big/co5qpq.jpg",
  "platforms": [],
  "provider_games": [
    {
      "name": "Overwritten: Defeat the Net",
      "slug": "overwritten-defeat-the-net",
      "service": "igdb"
    }
  ],
  "aliases": [],
  "shaders": [],
  "discord_id": "",
  "change_for": null
}