{
  "id": 71893,
  "name": "Touring Car Racer",
  "slug": "touring-car-racer",
  "year": null,
  "banner_url": "",
  "icon_url": "",
  "coverart": null,
  "platforms": [],
  "provider_games": [
    {
      "name": "Touring Car Racer",
      "slug": "touring-car-racer",
      "service": "igdb"
    }
  ],
  "aliases": [],
  "shaders": [],
  "discord_id": "",
  "change_for": null
}