{
  "id": 297572,
  "name": "MA-RI-A: Ningyoukan no Noroi",
  "slug": "ma-ri-a-ningyoukan-no-noroi",
  "year": 1996,
  "banner_url": "",
  "icon_url": "",
  "coverart": null,
  "platforms": [
    {
      "name": "Windows"
    }
  ],
  "provider_games": [
    {
      "name": "MA-RI-A: Ningyoukan no Noroi",
      "slug": "ma-ri-a-ningyoukan-no-noroi",
      "service": "igdb"
    }
  ],
  "aliases": [],
  "shaders": [],
  "discord_id": "",
  "change_for": null
}