{
  "id": 10677,
  "name": "Defunct",
  "slug": "defunct",
  "year": 2016,
  "banner_url": "https://lutris.net/games/banner/defunct.jpg",
  "icon_url": "https://lutris.net/games/icon/defunct.png",
  "coverart": "https://lutris.net/media/igdb/cover_big/co24xw.jpg",
  "platforms": [
    {
      "name": "Nintendo Switch"
    },
    {
      "name": "Sony Playstation 4"
    },
    {
      "name": "Windows"
    },
    {
      "name": "Xbox One"
    }
  ],
  "provider_games": [
    {
      "name": "Defunct",
      "slug": "359350",
      "service": "steam"
    },
    {
      "name": "Defunct",
      "slug": "defunct",
      "service": "igdb"
    }
  ],
  "aliases": [],
  "shaders": [],
  "discord_id": "",
  "change_for": null
}