{
  "id": 251068,
  "name": "PictoQuest: The Cursed Grids",
  "slug": "pictoquest-the-cursed-grids",
  "year": 2019,
  "banner_url": "",
  "icon_url": "",
  "coverart": null,
  "platforms": [
    {
      "name": "Android"
    },
    {
      "name": "Nintendo Switch"
    },
    {
      "name": "Sony Playstation 4"
    },
    {
      "name": "Windows"
    },
    {
      "name": "Xbox One"
    },
    {
      "name": "Xbox Series X|S"
    }
  ],
  "provider_games": [
    {
      "name": "PictoQuest: The Cursed Grids",
      "slug": "pictoquest-the-cursed-grids",
      "service": "igdb"
    }
  ],
  "aliases": [],
  "shaders": [],
  "discord_id": "",
  "change_for": null
}