{
  "id": 275662,
  "name": "Little Red Riding Hood: Wonder Animals",
  "slug": "little-red-riding-hood-wonder-animals",
  "year": 2024,
  "banner_url": "",
  "icon_url": "",
  "coverart": "https://lutris.net/media/igdb/cover_big/co7t5z.jpg",
  "platforms": [
    {
      "name": "Nintendo Switch"
    }
  ],
  "provider_games": [
    {
      "name": "Little Red Riding Hood: Wonder Animals",
      "slug": "little-red-riding-hood-wonder-animals",
      "service": "igdb"
    }
  ],
  "aliases": [],
  "shaders": [],
  "discord_id": "",
  "change_for": null
}