{
  "id": 18321,
  "name": "Redium",
  "slug": "redium",
  "year": 2017,
  "banner_url": "https://lutris.net/games/banner/redium.jpg",
  "icon_url": "https://lutris.net/games/icon/redium.png",
  "coverart": "https://lutris.net/media/igdb/cover_big/co27wp.jpg",
  "platforms": [
    {
      "name": "Windows"
    }
  ],
  "provider_games": [
    {
      "name": "Redium",
      "slug": "667420",
      "service": "steam"
    },
    {
      "name": "Redium",
      "slug": "redium",
      "service": "igdb"
    }
  ],
  "aliases": [],
  "shaders": [],
  "discord_id": "",
  "change_for": null
}