{
  "id": 186931,
  "name": "The Eye of the Beheld",
  "slug": "the-eye-of-the-beheld",
  "year": null,
  "banner_url": "",
  "icon_url": "",
  "coverart": null,
  "platforms": [],
  "provider_games": [
    {
      "name": "The Eye of the Beheld",
      "slug": "the-eye-of-the-beheld",
      "service": "igdb"
    }
  ],
  "aliases": [],
  "shaders": [],
  "discord_id": "",
  "change_for": null
}