{
  "id": 4432,
  "name": "Street Fighter II: The World Warrior",
  "slug": "street-fighter-ii-the-world-warrior",
  "year": 1991,
  "banner_url": "https://lutris.net/games/banner/street-fighter-ii-the-world-warrior.jpg",
  "icon_url": "https://lutris.net/games/icon/street-fighter-ii-the-world-warrior.png",
  "coverart": "https://lutris.net/media/igdb/cover_big/co2suq.jpg",
  "platforms": [
    {
      "name": "Amiga"
    },
    {
      "name": "Arcade"
    },
    {
      "name": "Nintendo Wii"
    },
    {
      "name": "Nintendo Wii U"
    },
    {
      "name": "Super Nintendo"
    }
  ],
  "provider_games": [
    {
      "name": "Street Fighter II: The World Warrior",
      "slug": "sf2",
      "service": "mame"
    },
    {
      "name": "Street Fighter II: The World Warrior",
      "slug": "street-fighter-ii-the-world-warrior",
      "service": "igdb"
    }
  ],
  "aliases": [],
  "shaders": [],
  "discord_id": "",
  "change_for": null
}