{
  "id": 213420,
  "name": "Disney's 101 Dalmatians",
  "slug": "disneys-101-dalmatians",
  "year": 1997,
  "banner_url": "",
  "icon_url": "",
  "coverart": null,
  "platforms": [],
  "provider_games": [
    {
      "name": "Disney's 101 Dalmatians",
      "slug": "disneys-101-dalmatians",
      "service": "igdb"
    }
  ],
  "aliases": [],
  "shaders": [],
  "discord_id": "",
  "change_for": null
}