{
  "id": 266646,
  "name": "One False Move",
  "slug": "one-false-move",
  "year": null,
  "banner_url": "",
  "icon_url": "",
  "coverart": "https://lutris.net/media/igdb/cover_big/co7dbt.jpg",
  "platforms": [],
  "provider_games": [
    {
      "name": "One False Move",
      "slug": "one-false-move",
      "service": "igdb"
    }
  ],
  "aliases": [],
  "shaders": [],
  "discord_id": "",
  "change_for": null
}