{
  "id": 59815,
  "name": "Sintel: The Game",
  "slug": "sintel-the-game",
  "year": null,
  "banner_url": "",
  "icon_url": "",
  "coverart": "https://lutris.net/media/igdb/cover_big/okuc6enl0nlgomogdhrw.jpg",
  "platforms": [],
  "provider_games": [
    {
      "name": "Sintel: The Game",
      "slug": "sintel-the-game",
      "service": "igdb"
    }
  ],
  "aliases": [],
  "shaders": [],
  "discord_id": "",
  "change_for": null
}