{
  "id": 232184,
  "name": "Hair Nah",
  "slug": "hair-nah",
  "year": 2017,
  "banner_url": "",
  "icon_url": "",
  "coverart": "https://lutris.net/media/igdb/cover_big/co6bjo.jpg",
  "platforms": [
    {
      "name": "Arcade"
    },
    {
      "name": "Windows"
    }
  ],
  "provider_games": [
    {
      "name": "Hair Nah",
      "slug": "hair-nah",
      "service": "igdb"
    }
  ],
  "aliases": [],
  "shaders": [],
  "discord_id": "",
  "change_for": null
}