{
  "id": 198654,
  "name": "Shadow Running",
  "slug": "shadow-running",
  "year": null,
  "banner_url": "",
  "icon_url": "",
  "coverart": "https://lutris.net/media/igdb/cover_big/co4eys.jpg",
  "platforms": [],
  "provider_games": [
    {
      "name": "Shadow Running",
      "slug": "shadow-running",
      "service": "igdb"
    }
  ],
  "aliases": [],
  "shaders": [],
  "discord_id": "",
  "change_for": null
}