{
  "id": 273647,
  "name": "Extermination Shock",
  "slug": "extermination-shock",
  "year": null,
  "banner_url": "",
  "icon_url": "",
  "coverart": "https://lutris.net/media/igdb/cover_big/co7q1y.jpg",
  "platforms": [],
  "provider_games": [
    {
      "name": "Extermination Shock",
      "slug": "extermination-shock",
      "service": "igdb"
    }
  ],
  "aliases": [],
  "shaders": [],
  "discord_id": "",
  "change_for": null
}