{
  "id": 214151,
  "name": "Pull the Pin",
  "slug": "pull-the-pin",
  "year": null,
  "banner_url": "",
  "icon_url": "",
  "coverart": null,
  "platforms": [],
  "provider_games": [
    {
      "name": "Pull the Pin",
      "slug": "pull-the-pin",
      "service": "igdb"
    }
  ],
  "aliases": [],
  "shaders": [],
  "discord_id": "",
  "change_for": null
}