{
  "id": 1490,
  "name": "Garshasp: Temple of the Dragon",
  "slug": "garshasp-temple-of-the-dragon",
  "year": 2012,
  "banner_url": "https://lutris.net/games/banner/garshasp-temple-of-the-dragon.jpg",
  "icon_url": "https://lutris.net/games/icon/garshasp-temple-of-the-dragon.png",
  "coverart": "https://lutris.net/media/igdb/cover_big/rvej7nztzsekxrcny7d3.jpg",
  "platforms": [
    {
      "name": "Windows"
    }
  ],
  "provider_games": [
    {
      "name": "Garshasp: Temple of the Dragon",
      "slug": "99410",
      "service": "steam"
    },
    {
      "name": "Garshasp: Temple of the Dragon",
      "slug": "garshasp-temple-of-the-dragon",
      "service": "igdb"
    }
  ],
  "aliases": [],
  "shaders": [],
  "discord_id": "",
  "change_for": null
}