{
  "id": 238536,
  "name": "Into the Necrovale",
  "slug": "into-the-necrovale",
  "year": null,
  "banner_url": "",
  "icon_url": "",
  "coverart": "https://lutris.net/media/igdb/cover_big/co62m5.jpg",
  "platforms": [
    {
      "name": "Linux"
    },
    {
      "name": "Mac"
    },
    {
      "name": "Windows"
    }
  ],
  "provider_games": [
    {
      "name": "Into the Necrovale",
      "slug": "into-the-necrovale",
      "service": "igdb"
    },
    {
      "name": "Into the Necrovale",
      "slug": "1756098576",
      "service": "gog"
    }
  ],
  "aliases": [],
  "shaders": [],
  "discord_id": "",
  "change_for": null
}