{
  "id": 110638,
  "name": "UFO On Tape: First Contact",
  "slug": "ufo-on-tape-first-contact",
  "year": 2019,
  "banner_url": "",
  "icon_url": "",
  "coverart": "https://lutris.net/media/igdb/cover_big/co2zdp.jpg",
  "platforms": [],
  "provider_games": [
    {
      "name": "UFO on Tape: First Contact",
      "slug": "ufo-on-tape-first-contact",
      "service": "igdb"
    }
  ],
  "aliases": [],
  "shaders": [],
  "discord_id": "",
  "change_for": null
}