{
  "id": 152726,
  "name": "MiniRacer",
  "slug": "miniracer",
  "year": null,
  "banner_url": "",
  "icon_url": "",
  "coverart": "https://lutris.net/media/igdb/cover_big/co3smn.jpg",
  "platforms": [],
  "provider_games": [
    {
      "name": "MiniRacer",
      "slug": "miniracer",
      "service": "igdb"
    }
  ],
  "aliases": [],
  "shaders": [],
  "discord_id": "",
  "change_for": null
}