{
  "id": 200524,
  "name": "Just Cause 2: Complete Edition",
  "slug": "just-cause-2-complete-edition",
  "year": null,
  "banner_url": "",
  "icon_url": "",
  "coverart": "https://lutris.net/media/igdb/cover_big/co4c78.jpg",
  "platforms": [],
  "provider_games": [
    {
      "name": "Just Cause 2: Complete Edition",
      "slug": "just-cause-2-complete-edition",
      "service": "igdb"
    }
  ],
  "aliases": [],
  "shaders": [],
  "discord_id": "",
  "change_for": null
}