{
  "id": 99482,
  "name": "for political lovers, a little utopia sketch",
  "slug": "for-political-lovers-a-little-utopia-sketch",
  "year": 2015,
  "banner_url": "",
  "icon_url": "",
  "coverart": "https://lutris.net/media/igdb/cover_big/co1x3f.jpg",
  "platforms": [
    {
      "name": "Browser"
    }
  ],
  "provider_games": [
    {
      "name": "For Political Lovers, a Little Utopia Sketch",
      "slug": "for-political-lovers-a-little-utopia-sketch",
      "service": "igdb"
    }
  ],
  "aliases": [],
  "shaders": [],
  "discord_id": "",
  "change_for": null
}