{
  "id": 57483,
  "name": "Re-Move Blocks",
  "slug": "re-move-blocks",
  "year": null,
  "banner_url": "",
  "icon_url": "",
  "coverart": "https://lutris.net/media/igdb/cover_big/xyo5y380e4er63fldsid.jpg",
  "platforms": [],
  "provider_games": [
    {
      "name": "Re-Move Blocks",
      "slug": "re-move-blocks",
      "service": "igdb"
    }
  ],
  "aliases": [],
  "shaders": [],
  "discord_id": "",
  "change_for": null
}