{
  "id": 103914,
  "name": "Aegis: Innocence",
  "slug": "aegis-innocence",
  "year": null,
  "banner_url": "",
  "icon_url": "",
  "coverart": "https://lutris.net/media/igdb/cover_big/odb4lh9plkb3loetgvub.jpg",
  "platforms": [],
  "provider_games": [
    {
      "name": "Aegis: Innocence",
      "slug": "aegis-innocence",
      "service": "igdb"
    }
  ],
  "aliases": [],
  "shaders": [],
  "discord_id": "",
  "change_for": null
}