{
  "id": 76845,
  "name": "Jellyfish",
  "slug": "jellyfish--1",
  "year": 1982,
  "banner_url": "",
  "icon_url": "",
  "coverart": "https://lutris.net/media/igdb/cover_big/wkqzl4p1yjstjon7tvlu.jpg",
  "platforms": [
    {
      "name": "Apple II"
    }
  ],
  "provider_games": [
    {
      "name": "Jellyfish",
      "slug": "jellyfish--1",
      "service": "igdb"
    }
  ],
  "aliases": [],
  "shaders": [],
  "discord_id": "",
  "change_for": null
}