{
  "id": 228688,
  "name": "Flowers - Le Volume Sur Hiver",
  "slug": "flowers-le-volume-sur-hiver-1",
  "year": 2022,
  "banner_url": "",
  "icon_url": "",
  "coverart": null,
  "platforms": [],
  "provider_games": [
    {
      "name": "Flowers - Le Volume Sur Hiver",
      "slug": "1564851593",
      "service": "gog"
    }
  ],
  "aliases": [],
  "shaders": [],
  "discord_id": "",
  "change_for": null
}