{
  "id": 257317,
  "name": "I Became a Proper Member and Got a Girlfriend",
  "slug": "i-became-a-proper-member-and-got-a-girlfriend",
  "year": 2022,
  "banner_url": "",
  "icon_url": "",
  "coverart": "https://lutris.net/media/igdb/cover_big/co70o8.jpg",
  "platforms": [
    {
      "name": "Mac"
    },
    {
      "name": "Windows"
    }
  ],
  "provider_games": [
    {
      "name": "I Became a Proper Member and Got a Girlfriend",
      "slug": "i-became-a-proper-member-and-got-a-girlfriend",
      "service": "igdb"
    }
  ],
  "aliases": [],
  "shaders": [],
  "discord_id": "",
  "change_for": null
}