{
  "id": 163894,
  "name": "Santa's Story of Christmas",
  "slug": "santas-story-of-christmas",
  "year": null,
  "banner_url": "",
  "icon_url": "",
  "coverart": "https://lutris.net/media/igdb/cover_big/co40so.jpg",
  "platforms": [],
  "provider_games": [
    {
      "name": "Santa's Story of Christmas",
      "slug": "santas-story-of-christmas",
      "service": "igdb"
    }
  ],
  "aliases": [],
  "shaders": [],
  "discord_id": "",
  "change_for": null
}