{
  "id": 170703,
  "name": "Substantia Cana",
  "slug": "substantia-cana",
  "year": null,
  "banner_url": "",
  "icon_url": "",
  "coverart": "https://lutris.net/media/igdb/cover_big/co46uk.jpg",
  "platforms": [],
  "provider_games": [
    {
      "name": "Substantia Cana",
      "slug": "substantia-cana",
      "service": "igdb"
    }
  ],
  "aliases": [],
  "shaders": [],
  "discord_id": "",
  "change_for": null
}