{
  "id": 281199,
  "name": "Sinag",
  "slug": "sinag",
  "year": null,
  "banner_url": "",
  "icon_url": "",
  "coverart": "https://lutris.net/media/igdb/cover_big/co7yvs.jpg",
  "platforms": [],
  "provider_games": [
    {
      "name": "Sinag",
      "slug": "sinag",
      "service": "igdb"
    }
  ],
  "aliases": [],
  "shaders": [],
  "discord_id": "",
  "change_for": null
}