{
  "id": 302722,
  "name": "Now Entering: Quiet Haven",
  "slug": "now-entering-quiet-haven",
  "year": null,
  "banner_url": "",
  "icon_url": "",
  "coverart": null,
  "platforms": [
    {
      "name": "Windows"
    }
  ],
  "provider_games": [
    {
      "name": "Now Entering: Quiet Haven",
      "slug": "now-entering-quiet-haven",
      "service": "igdb"
    }
  ],
  "aliases": [],
  "shaders": [],
  "discord_id": "",
  "change_for": null
}