{
  "id": 147,
  "game_id": 523,
  "game_slug": "rust",
  "name": "Rust",
  "year": 2018,
  "user": "strider",
  "runner": "steam",
  "slug": "rust-steam",
  "version": "steam",
  "description": null,
  "notes": "",
  "credits": "",
  "created_at": "2013-12-19T23:56:16.257000Z",
  "updated_at": "2021-01-10T02:20:19.129624Z",
  "draft": false,
  "published": true,
  "published_by": null,
  "rating": "",
  "is_playable": null,
  "steamid": 252490,
  "gogid": null,
  "gogslug": "",
  "humbleid": "",
  "humblestoreid": "",
  "humblestoreid_real": "",
  "script": {
    "game": {
      "appid": 252490
    }
  },
  "content": "game:\n  appid: 252490\n",
  "discord_id": "356888738724446208"
}