{
  "id": 201254,
  "name": "Duline",
  "slug": "duline",
  "year": null,
  "banner_url": "",
  "icon_url": "",
  "coverart": "https://lutris.net/media/igdb/cover_big/co4po8.jpg",
  "platforms": [],
  "provider_games": [
    {
      "name": "Duline",
      "slug": "duline",
      "service": "igdb"
    }
  ],
  "aliases": [],
  "shaders": [],
  "discord_id": "",
  "change_for": null
}