{
  "id": 147157,
  "name": "Endless Furry Clicker",
  "slug": "endless-furry-clicker",
  "year": null,
  "banner_url": "",
  "icon_url": "",
  "coverart": "https://lutris.net/media/igdb/cover_big/co3u3o.jpg",
  "platforms": [],
  "provider_games": [
    {
      "name": "Endless Furry Clicker",
      "slug": "endless-furry-clicker",
      "service": "igdb"
    }
  ],
  "aliases": [],
  "shaders": [],
  "discord_id": "",
  "change_for": null
}