{
  "id": 230682,
  "name": "Game of Rollink",
  "slug": "game-of-rollink",
  "year": null,
  "banner_url": "",
  "icon_url": "",
  "coverart": "https://lutris.net/media/igdb/cover_big/co6d49.jpg",
  "platforms": [],
  "provider_games": [
    {
      "name": "Game of Rollink",
      "slug": "game-of-rollink",
      "service": "igdb"
    }
  ],
  "aliases": [],
  "shaders": [],
  "discord_id": "",
  "change_for": null
}