{
  "id": 301555,
  "name": "Super Mario Galaxy: A Blue Star Adventure",
  "slug": "super-mario-galaxy-a-blue-star-adventure",
  "year": null,
  "banner_url": "",
  "icon_url": "",
  "coverart": null,
  "platforms": [
    {
      "name": "Windows"
    }
  ],
  "provider_games": [
    {
      "name": "Super Mario Galaxy: A Blue Star Adventure",
      "slug": "super-mario-galaxy-a-blue-star-adventure",
      "service": "igdb"
    }
  ],
  "aliases": [],
  "shaders": [],
  "discord_id": "",
  "change_for": null
}