{
  "id": 6474,
  "game_id": 3020,
  "game_slug": "typer-shark-deluxe",
  "name": "Typer Shark! Deluxe",
  "year": 2006,
  "user": "Stoney_Fish",
  "runner": "steam",
  "slug": "typer-shark-deluxe-proton",
  "version": "Proton",
  "description": null,
  "notes": "",
  "credits": "",
  "created_at": "2017-11-28T22:38:34.125988Z",
  "updated_at": "2021-05-04T02:43:05.984917Z",
  "draft": false,
  "published": true,
  "published_by": null,
  "rating": "",
  "is_playable": null,
  "steamid": 3450,
  "gogid": null,
  "gogslug": "",
  "humbleid": "",
  "humblestoreid": "",
  "humblestoreid_real": "",
  "script": {
    "game": {
      "appid": 3450
    }
  },
  "content": "game:\n  appid: 3450\n",
  "discord_id": ""
}