{
  "id": 208400,
  "name": "Dummy Defense",
  "slug": "dummy-defense",
  "year": null,
  "banner_url": "",
  "icon_url": "",
  "coverart": null,
  "platforms": [],
  "provider_games": [
    {
      "name": "Dummy Defense",
      "slug": "dummy-defense",
      "service": "igdb"
    }
  ],
  "aliases": [],
  "shaders": [],
  "discord_id": "",
  "change_for": null
}