{
  "id": 151772,
  "name": "Many Bricks Breaker",
  "slug": "many-bricks-breaker",
  "year": null,
  "banner_url": "https://lutris.net/games/banner/many-bricks-breaker.jpg",
  "icon_url": "",
  "coverart": "https://lutris.net/media/igdb/cover_big/co3no9.jpg",
  "platforms": [],
  "provider_games": [
    {
      "name": "Many Bricks Breaker",
      "slug": "many-bricks-breaker",
      "service": "igdb"
    },
    {
      "name": "Many Bricks Breaker",
      "slug": "1604020",
      "service": "steam"
    }
  ],
  "aliases": [],
  "shaders": [],
  "discord_id": "",
  "change_for": null
}