{
  "id": 122735,
  "name": "Monster MIX",
  "slug": "monster-mix",
  "year": null,
  "banner_url": "",
  "icon_url": "",
  "coverart": null,
  "platforms": [],
  "provider_games": [
    {
      "name": "Monster MIX",
      "slug": "monster-mix",
      "service": "igdb"
    }
  ],
  "aliases": [],
  "shaders": [],
  "discord_id": "",
  "change_for": null
}