{
  "id": 71589,
  "name": "A-B-C Bowler",
  "slug": "a-b-c-bowler",
  "year": null,
  "banner_url": "",
  "icon_url": "",
  "coverart": null,
  "platforms": [],
  "provider_games": [
    {
      "name": "A-B-C Bowler",
      "slug": "a-b-c-bowler",
      "service": "igdb"
    }
  ],
  "aliases": [],
  "shaders": [],
  "discord_id": "",
  "change_for": null
}