{
  "id": 117801,
  "name": "(Mario) The Music Box",
  "slug": "mario-the-music-box",
  "year": 2015,
  "banner_url": "",
  "icon_url": "",
  "coverart": "https://lutris.net/media/igdb/cover_big/co31io.jpg",
  "platforms": [
    {
      "name": "Windows"
    }
  ],
  "provider_games": [
    {
      "name": "Mario: The Music Box",
      "slug": "mario-the-music-box",
      "service": "igdb"
    }
  ],
  "aliases": [],
  "shaders": [],
  "discord_id": "",
  "change_for": null
}