{
  "id": 112435,
  "name": "Apathy: Midnight Collection - Vol. 1",
  "slug": "apathy-midnight-collection-vol-1",
  "year": 2007,
  "banner_url": "",
  "icon_url": "",
  "coverart": "https://lutris.net/media/igdb/cover_big/co31ea.jpg",
  "platforms": [
    {
      "name": "Windows"
    }
  ],
  "provider_games": [
    {
      "name": "Apathy: Midnight Collection - Vol. 1",
      "slug": "apathy-midnight-collection-vol-1",
      "service": "igdb"
    }
  ],
  "aliases": [],
  "shaders": [],
  "discord_id": "",
  "change_for": null
}