{
  "id": 96375,
  "name": "Maze: The Broken Tower",
  "slug": "maze-the-broken-tower",
  "year": null,
  "banner_url": "",
  "icon_url": "",
  "coverart": null,
  "platforms": [],
  "provider_games": [
    {
      "name": "Maze: The Broken Tower",
      "slug": "maze-the-broken-tower",
      "service": "igdb"
    }
  ],
  "aliases": [],
  "shaders": [],
  "discord_id": "",
  "change_for": null
}