{
  "id": 12706,
  "name": "Sky Jac",
  "slug": "sky-jac",
  "year": 2016,
  "banner_url": "https://lutris.net/games/banner/sky-jac.jpg",
  "icon_url": "https://lutris.net/games/icon/sky-jac.png",
  "coverart": null,
  "platforms": [
    {
      "name": "Windows"
    }
  ],
  "provider_games": [
    {
      "name": "Sky Jac",
      "slug": "518190",
      "service": "steam"
    },
    {
      "name": "Sky Jac",
      "slug": "sky-jac",
      "service": "igdb"
    }
  ],
  "aliases": [],
  "shaders": [],
  "discord_id": "",
  "change_for": null
}