{
  "id": 31264,
  "name": "Sparklite",
  "slug": "sparklite",
  "year": 2019,
  "banner_url": "https://lutris.net/games/banner/sparklite.jpg",
  "icon_url": "https://lutris.net/games/icon/sparklite.png",
  "coverart": "https://lutris.net/media/igdb/cover_big/co1z3y.jpg",
  "platforms": [
    {
      "name": "Linux"
    },
    {
      "name": "Mac"
    },
    {
      "name": "Nintendo Switch"
    },
    {
      "name": "Sony Playstation 4"
    },
    {
      "name": "Windows"
    },
    {
      "name": "Xbox One"
    }
  ],
  "provider_games": [
    {
      "name": "Sparklite",
      "slug": "1745190094",
      "service": "gog"
    },
    {
      "name": "Sparklite",
      "slug": "943140",
      "service": "steam"
    },
    {
      "name": "Sparklite",
      "slug": "sparklite",
      "service": "igdb"
    }
  ],
  "aliases": [],
  "shaders": [],
  "discord_id": "",
  "change_for": null
}