{
  "id": 267981,
  "name": "Air Aces",
  "slug": "air-aces--1",
  "year": null,
  "banner_url": "",
  "icon_url": "",
  "coverart": "https://lutris.net/media/igdb/cover_big/co7fdp.jpg",
  "platforms": [],
  "provider_games": [
    {
      "name": "Air Aces",
      "slug": "air-aces--1",
      "service": "igdb"
    }
  ],
  "aliases": [],
  "shaders": [],
  "discord_id": "",
  "change_for": null
}