{
  "id": 266583,
  "name": "Monowave",
  "slug": "monowave",
  "year": null,
  "banner_url": "",
  "icon_url": "",
  "coverart": "https://lutris.net/media/igdb/cover_big/co7dbv.jpg",
  "platforms": [],
  "provider_games": [
    {
      "name": "Monowave",
      "slug": "monowave",
      "service": "igdb"
    }
  ],
  "aliases": [],
  "shaders": [],
  "discord_id": "",
  "change_for": null
}