{
  "id": 288333,
  "name": "Bottomless Block Barrage",
  "slug": "bottomless-block-barrage",
  "year": null,
  "banner_url": "",
  "icon_url": "",
  "coverart": "https://lutris.net/media/igdb/cover_big/co8cjm.jpg",
  "platforms": [
    {
      "name": "Nintendo 3DS"
    }
  ],
  "provider_games": [
    {
      "name": "Bottomless Block Barrage",
      "slug": "bottomless-block-barrage",
      "service": "igdb"
    }
  ],
  "aliases": [],
  "shaders": [],
  "discord_id": "",
  "change_for": null
}