{
  "id": 180706,
  "name": "Fatal Fury: First Contact",
  "slug": "fatal-fury-first-contact",
  "year": 1999,
  "banner_url": "",
  "icon_url": "",
  "coverart": "https://lutris.net/media/igdb/cover_big/co4ady.jpg",
  "platforms": [
    {
      "name": "Neo Geo Pocket Color"
    }
  ],
  "provider_games": [
    {
      "name": "Fatal Fury: First Contact",
      "slug": "fatal-fury-first-contact",
      "service": "igdb"
    }
  ],
  "aliases": [],
  "shaders": [],
  "discord_id": "",
  "change_for": null
}