{
  "id": 205855,
  "name": "The Lost Castle: Escape Room",
  "slug": "the-lost-castle-escape-room",
  "year": null,
  "banner_url": "",
  "icon_url": "",
  "coverart": "https://lutris.net/media/igdb/cover_big/co5swj.jpg",
  "platforms": [],
  "provider_games": [
    {
      "name": "The Lost Castle: Escape Room",
      "slug": "the-lost-castle-escape-room",
      "service": "igdb"
    }
  ],
  "aliases": [],
  "shaders": [],
  "discord_id": "",
  "change_for": null
}