{
  "id": 56669,
  "name": "Arcobaleno!",
  "slug": "arcobaleno",
  "year": null,
  "banner_url": "",
  "icon_url": "",
  "coverart": "https://lutris.net/media/igdb/cover_big/co54pq.jpg",
  "platforms": [],
  "provider_games": [
    {
      "name": "Arcobaleno!",
      "slug": "arcobaleno",
      "service": "igdb"
    }
  ],
  "aliases": [],
  "shaders": [],
  "discord_id": "",
  "change_for": null
}