{
  "id": 235022,
  "name": "L/Right Reflection",
  "slug": "l-slash-right-reflection",
  "year": null,
  "banner_url": "",
  "icon_url": "",
  "coverart": "https://lutris.net/media/igdb/cover_big/co67e0.jpg",
  "platforms": [],
  "provider_games": [
    {
      "name": "L/Right Reflection",
      "slug": "l-slash-right-reflection",
      "service": "igdb"
    }
  ],
  "aliases": [],
  "shaders": [],
  "discord_id": "",
  "change_for": null
}