{
  "id": 26502,
  "game_id": 41496,
  "game_slug": "up-in-the-air",
  "name": "Up in the Air",
  "year": 2020,
  "user": "vanstaveren",
  "runner": "steam",
  "slug": "up-in-the-air-steam",
  "version": "steam",
  "description": null,
  "notes": "",
  "credits": "",
  "created_at": "2021-02-19T18:24:06.990416Z",
  "updated_at": "2021-12-13T19:10:35.593650Z",
  "draft": false,
  "published": true,
  "published_by": null,
  "rating": "",
  "is_playable": null,
  "steamid": null,
  "gogid": null,
  "gogslug": "",
  "humbleid": "",
  "humblestoreid": "",
  "humblestoreid_real": "",
  "script": {
    "game": {
      "appid": 969220
    }
  },
  "content": "game:\n  appid: 969220\n",
  "discord_id": ""
}