{
  "id": 277641,
  "name": "Fly Hands",
  "slug": "fly-hands",
  "year": null,
  "banner_url": "",
  "icon_url": "",
  "coverart": "https://lutris.net/media/igdb/cover_big/co7vzr.jpg",
  "platforms": [],
  "provider_games": [
    {
      "name": "Fly Hands",
      "slug": "fly-hands",
      "service": "igdb"
    }
  ],
  "aliases": [],
  "shaders": [],
  "discord_id": "",
  "change_for": null
}