{
  "id": 239896,
  "name": "Cluster Traffic: Parkour Trucks",
  "slug": "cluster-traffic-parkour-trucks",
  "year": null,
  "banner_url": "",
  "icon_url": "",
  "coverart": null,
  "platforms": [],
  "provider_games": [
    {
      "name": "Cluster Traffic: Parkour Trucks",
      "slug": "cluster-traffic-parkour-trucks",
      "service": "igdb"
    }
  ],
  "aliases": [],
  "shaders": [],
  "discord_id": "",
  "change_for": null
}