{
  "id": 11819,
  "name": "Date (Almost) Anything",
  "slug": "date-almost-anything",
  "year": 2017,
  "banner_url": "https://lutris.net/games/banner/date-almost-anything.jpg",
  "icon_url": "",
  "coverart": null,
  "platforms": [
    {
      "name": "Windows"
    }
  ],
  "provider_games": [],
  "aliases": [],
  "shaders": [],
  "discord_id": "",
  "change_for": null
}