{
  "id": 34108,
  "name": "Fire Shark",
  "slug": "fire-shark",
  "year": 1990,
  "banner_url": "https://lutris.net/games/banner/fire-shark.jpg",
  "icon_url": "https://lutris.net/games/icon/fire-shark.png",
  "coverart": "https://lutris.net/media/igdb/cover_big/co1unr.jpg",
  "platforms": [
    {
      "name": "Arcade"
    },
    {
      "name": "Sega Genesis / Mega Drive"
    }
  ],
  "provider_games": [
    {
      "name": "Fire Shark",
      "slug": "fireshrk",
      "service": "mame"
    },
    {
      "name": "Fire Shark",
      "slug": "fire-shark",
      "service": "igdb"
    },
    {
      "name": "Fire Shark",
      "slug": "1492810625",
      "service": "gog"
    }
  ],
  "aliases": [],
  "shaders": [],
  "discord_id": "",
  "change_for": null
}