{
  "id": 122585,
  "name": "Becoming a Dandelion Spore",
  "slug": "becoming-a-dandelion-spore",
  "year": null,
  "banner_url": "",
  "icon_url": "",
  "coverart": null,
  "platforms": [],
  "provider_games": [
    {
      "name": "Becoming a Dandelion Spore",
      "slug": "becoming-a-dandelion-spore",
      "service": "igdb"
    }
  ],
  "aliases": [],
  "shaders": [],
  "discord_id": "",
  "change_for": null
}