{
  "id": 68880,
  "name": "Blocky Baseball",
  "slug": "blocky-baseball",
  "year": null,
  "banner_url": "",
  "icon_url": "",
  "coverart": null,
  "platforms": [],
  "provider_games": [
    {
      "name": "Blocky Baseball",
      "slug": "blocky-baseball",
      "service": "igdb"
    }
  ],
  "aliases": [],
  "shaders": [],
  "discord_id": "",
  "change_for": null
}