{
  "id": 28208,
  "game_id": 42681,
  "game_slug": "pokemon-rejuvenation",
  "name": "Pokemon Rejuvenation",
  "year": 2014,
  "user": "colltyp",
  "runner": "wine",
  "slug": "pokemon-rejuvenation-windows",
  "version": "Windows",
  "description": "v13.0.5",
  "notes": "",
  "credits": "",
  "created_at": "2021-06-11T17:24:34.709000Z",
  "updated_at": "2023-06-13T01:34:44.346251Z",
  "draft": false,
  "published": true,
  "published_by": 64834,
  "rating": "",
  "is_playable": null,
  "steamid": null,
  "gogid": null,
  "gogslug": "",
  "humbleid": "",
  "humblestoreid": "",
  "humblestoreid_real": "",
  "script": {
    "files": [
      {
        "launcher": "https://www.rebornevo.com/downloads/Rejuvenation-v13.0.5.zip"
      }
    ],
    "game": {
      "exe": "game/Game.exe",
      "prefix": "$GAMEDIR"
    },
    "installer": [
      {
        "task": {
          "arch": "win64",
          "name": "create_prefix",
          "prefix": "$GAMEDIR"
        }
      },
      {
        "extract": {
          "dst": "$GAMEDIR/game",
          "file": "launcher"
        }
      }
    ]
  },
  "content": "files:\n- launcher: https://www.rebornevo.com/downloads/Rejuvenation-v13.0.5.zip\ngame:\n  exe: game/Game.exe\n  prefix: $GAMEDIR\ninstaller:\n- task:\n    arch: win64\n    name: create_prefix\n    prefix: $GAMEDIR\n- extract:\n    dst: $GAMEDIR/game\n    file: launcher\n",
  "discord_id": ""
}