{
  "id": 270073,
  "name": "The Red Robot Radio",
  "slug": "the-red-robot-radio",
  "year": 2023,
  "banner_url": "https://lutris.net/games/banner/the-red-robot-radio.jpg",
  "icon_url": "",
  "coverart": null,
  "platforms": [
    {
      "name": "Linux"
    }
  ],
  "provider_games": [],
  "aliases": [],
  "shaders": [],
  "discord_id": "",
  "change_for": null
}