{
  "id": 46328,
  "name": "Bored Meeting",
  "slug": "bored-meeting",
  "year": null,
  "banner_url": "",
  "icon_url": "",
  "coverart": "https://lutris.net/media/igdb/cover_big/owyal6ijwklbtpjseo72.jpg",
  "platforms": [],
  "provider_games": [
    {
      "name": "Bored Meeting",
      "slug": "bored-meeting",
      "service": "igdb"
    }
  ],
  "aliases": [],
  "shaders": [],
  "discord_id": "",
  "change_for": null
}