{
  "id": 114160,
  "name": "Rektangle",
  "slug": "rektangle",
  "year": null,
  "banner_url": "",
  "icon_url": "",
  "coverart": "https://lutris.net/media/igdb/cover_big/y3ujhi5mn7vszlcu5try.jpg",
  "platforms": [],
  "provider_games": [
    {
      "name": "Rektangle",
      "slug": "rektangle",
      "service": "igdb"
    }
  ],
  "aliases": [],
  "shaders": [],
  "discord_id": "",
  "change_for": null
}