{
  "id": 103848,
  "name": "Temple of the Lizardmen 4",
  "slug": "temple-of-the-lizardmen-4",
  "year": 2015,
  "banner_url": "",
  "icon_url": "",
  "coverart": "https://lutris.net/media/igdb/cover_big/co2oip.jpg",
  "platforms": [
    {
      "name": "Windows"
    }
  ],
  "provider_games": [
    {
      "name": "Temple of the Lizardmen 4",
      "slug": "temple-of-the-lizardmen-4",
      "service": "igdb"
    }
  ],
  "aliases": [],
  "shaders": [],
  "discord_id": "",
  "change_for": null
}