{
  "id": 131154,
  "name": "Tokyo Xtreme Racer",
  "slug": "tokyo-xtreme-racer",
  "year": 1999,
  "banner_url": "",
  "icon_url": "",
  "coverart": "https://lutris.net/media/igdb/cover_big/co1p39.jpg",
  "platforms": [
    {
      "name": "Dreamcast"
    }
  ],
  "provider_games": [
    {
      "name": "Tokyo Xtreme Racer",
      "slug": "tokyo-xtreme-racer",
      "service": "igdb"
    }
  ],
  "aliases": [],
  "shaders": [],
  "discord_id": "",
  "change_for": null
}