{
  "id": 17138,
  "name": "Helium Rain",
  "slug": "helium-rain",
  "year": 2017,
  "banner_url": "https://lutris.net/games/banner/helium-rain.jpg",
  "icon_url": "https://lutris.net/games/icon/helium-rain.png",
  "coverart": "https://lutris.net/media/igdb/cover_big/co24x3.jpg",
  "platforms": [
    {
      "name": "Linux"
    },
    {
      "name": "Windows"
    }
  ],
  "provider_games": [
    {
      "name": "Helium Rain",
      "slug": "1807214820",
      "service": "gog"
    },
    {
      "name": "Helium Rain",
      "slug": "681330",
      "service": "steam"
    },
    {
      "name": "Helium Rain",
      "slug": "helium-rain",
      "service": "igdb"
    }
  ],
  "aliases": [],
  "shaders": [],
  "discord_id": "",
  "change_for": null
}