{
  "id": 152371,
  "name": "Greyhat: A Digital Detective Adventure",
  "slug": "greyhat-a-digital-detective-adventure",
  "year": 2020,
  "banner_url": "https://lutris.net/games/banner/greyhat-a-digital-detective-adventure.jpg",
  "icon_url": "",
  "coverart": "https://lutris.net/media/igdb/cover_big/co2lrr.jpg",
  "platforms": [
    {
      "name": "Mac"
    },
    {
      "name": "Windows"
    }
  ],
  "provider_games": [
    {
      "name": "Greyhat - A Digital Detective Adventure",
      "slug": "1247940",
      "service": "steam"
    },
    {
      "name": "Greyhat: A Digital Detective Adventure",
      "slug": "greyhat-a-digital-detective-adventure",
      "service": "igdb"
    }
  ],
  "aliases": [],
  "shaders": [],
  "discord_id": "",
  "change_for": null
}