{
  "id": 45605,
  "name": "Pegasus",
  "slug": "pegasus",
  "year": 1991,
  "banner_url": "",
  "icon_url": "",
  "coverart": "https://lutris.net/media/igdb/cover_big/livutvq3hpjenehmnfxq.jpg",
  "platforms": [
    {
      "name": "Amiga"
    },
    {
      "name": "Atari ST"
    }
  ],
  "provider_games": [
    {
      "name": "Pegasus",
      "slug": "pegasus",
      "service": "igdb"
    }
  ],
  "aliases": [],
  "shaders": [],
  "discord_id": "",
  "change_for": null
}