{
  "id": 20283,
  "name": "Weed Shop 2",
  "slug": "weed-shop-2",
  "year": 2017,
  "banner_url": "https://lutris.net/games/banner/weed-shop-2.jpg",
  "icon_url": "https://lutris.net/games/icon/weed-shop-2.png",
  "coverart": "https://lutris.net/media/igdb/cover_big/co24kc.jpg",
  "platforms": [
    {
      "name": "Windows"
    }
  ],
  "provider_games": [
    {
      "name": "Weed Shop 2",
      "slug": "617700",
      "service": "steam"
    },
    {
      "name": "Weed Shop 2",
      "slug": "weed-shop-2",
      "service": "igdb"
    }
  ],
  "aliases": [],
  "shaders": [],
  "discord_id": "",
  "change_for": null
}