{
  "id": 276386,
  "name": "Xetanon",
  "slug": "xetanon",
  "year": null,
  "banner_url": "",
  "icon_url": "",
  "coverart": "https://lutris.net/media/igdb/cover_big/co7un9.jpg",
  "platforms": [],
  "provider_games": [
    {
      "name": "Xetanon",
      "slug": "xetanon",
      "service": "igdb"
    }
  ],
  "aliases": [],
  "shaders": [],
  "discord_id": "",
  "change_for": null
}