{
  "id": 109091,
  "name": "3D Defenders",
  "slug": "3d-defenders",
  "year": 1981,
  "banner_url": "",
  "icon_url": "",
  "coverart": "https://lutris.net/media/igdb/cover_big/co2lhp.jpg",
  "platforms": [
    {
      "name": "Sinclair ZX81"
    }
  ],
  "provider_games": [
    {
      "name": "3D Defenders",
      "slug": "3d-defenders",
      "service": "igdb"
    }
  ],
  "aliases": [],
  "shaders": [],
  "discord_id": "",
  "change_for": null
}