{
  "id": 156228,
  "name": "Valkyrie Anatomia: The Origin",
  "slug": "valkyrie-anatomia-the-origin",
  "year": 2016,
  "banner_url": "",
  "icon_url": "",
  "coverart": "https://lutris.net/media/igdb/cover_big/qkrn4hmfh2vrc24vnl1k.jpg",
  "platforms": [
    {
      "name": "Android"
    }
  ],
  "provider_games": [
    {
      "name": "Valkyrie Anatomia: The Origin",
      "slug": "valkyrie-anatomia-the-origin",
      "service": "igdb"
    }
  ],
  "aliases": [],
  "shaders": [],
  "discord_id": "",
  "change_for": null
}