{
  "id": 260003,
  "name": "Bob the Elementalist",
  "slug": "bob-the-elementalist",
  "year": null,
  "banner_url": "",
  "icon_url": "",
  "coverart": "https://lutris.net/media/igdb/cover_big/co73u0.jpg",
  "platforms": [],
  "provider_games": [
    {
      "name": "Bob the Elementalist",
      "slug": "bob-the-elementalist",
      "service": "igdb"
    }
  ],
  "aliases": [],
  "shaders": [],
  "discord_id": "",
  "change_for": null
}