{
  "id": 183714,
  "name": "Transient",
  "slug": "transient--1",
  "year": null,
  "banner_url": "",
  "icon_url": "",
  "coverart": null,
  "platforms": [],
  "provider_games": [
    {
      "name": "Transient",
      "slug": "2100029274",
      "service": "gog"
    },
    {
      "name": "Transient",
      "slug": "transient--1",
      "service": "igdb"
    }
  ],
  "aliases": [],
  "shaders": [],
  "discord_id": "",
  "change_for": null
}