{
  "id": 19124,
  "name": "Beyond the Invisible: Darkness Came",
  "slug": "beyond-the-invisible-darkness-came",
  "year": 2018,
  "banner_url": "https://lutris.net/games/banner/beyond-the-invisible-darkness-came.jpg",
  "icon_url": "https://lutris.net/games/icon/beyond-the-invisible-darkness-came.png",
  "coverart": "https://lutris.net/media/igdb/cover_big/co543q.jpg",
  "platforms": [
    {
      "name": "Windows"
    }
  ],
  "provider_games": [
    {
      "name": "Beyond the Invisible: Darkness Came",
      "slug": "772670",
      "service": "steam"
    },
    {
      "name": "Beyond the Invisible: Darkness Came",
      "slug": "beyond-the-invisible-darkness-came",
      "service": "igdb"
    }
  ],
  "aliases": [],
  "shaders": [],
  "discord_id": "",
  "change_for": null
}