{
  "id": 219615,
  "name": "Storage Hunters",
  "slug": "storage-hunters",
  "year": null,
  "banner_url": "",
  "icon_url": "",
  "coverart": "https://lutris.net/media/igdb/cover_big/co5ocq.jpg",
  "platforms": [],
  "provider_games": [
    {
      "name": "Storage Hunters",
      "slug": "storage-hunters",
      "service": "igdb"
    }
  ],
  "aliases": [],
  "shaders": [],
  "discord_id": "",
  "change_for": null
}