{
  "id": 175266,
  "name": "Otogi: Myth of Demons",
  "slug": "otogi-myth-of-demons",
  "year": 2002,
  "banner_url": "",
  "icon_url": "",
  "coverart": "https://lutris.net/media/igdb/cover_big/co48qb.jpg",
  "platforms": [],
  "provider_games": [
    {
      "name": "Otogi: Myth of Demons",
      "slug": "otogi-myth-of-demons",
      "service": "igdb"
    }
  ],
  "aliases": [],
  "shaders": [],
  "discord_id": "",
  "change_for": null
}