{
  "id": 155820,
  "name": "Perfect Zero Puzzle",
  "slug": "perfect-zero-puzzle",
  "year": 2014,
  "banner_url": "",
  "icon_url": "",
  "coverart": null,
  "platforms": [],
  "provider_games": [
    {
      "name": "Perfect Zero Puzzle",
      "slug": "perfect-zero-puzzle",
      "service": "igdb"
    }
  ],
  "aliases": [],
  "shaders": [],
  "discord_id": "",
  "change_for": null
}