{
  "id": 52257,
  "name": "Cave Crawlers",
  "slug": "cave-crawlers",
  "year": null,
  "banner_url": "",
  "icon_url": "",
  "coverart": "https://lutris.net/media/igdb/cover_big/vtwojmzflycjgasv6qba.jpg",
  "platforms": [],
  "provider_games": [
    {
      "name": "Cave Crawlers",
      "slug": "cave-crawlers",
      "service": "igdb"
    }
  ],
  "aliases": [],
  "shaders": [],
  "discord_id": "",
  "change_for": null
}