{
  "id": 270585,
  "name": "A Long Goodbye",
  "slug": "a-long-goodbye",
  "year": 2020,
  "banner_url": "",
  "icon_url": "",
  "coverart": null,
  "platforms": [
    {
      "name": "Windows"
    }
  ],
  "provider_games": [
    {
      "name": "A Long Goodbye",
      "slug": "a-long-goodbye",
      "service": "igdb"
    }
  ],
  "aliases": [],
  "shaders": [],
  "discord_id": "",
  "change_for": null
}