{
  "id": 75280,
  "name": "Cats are Cute",
  "slug": "cats-are-cute",
  "year": null,
  "banner_url": "",
  "icon_url": "",
  "coverart": "https://lutris.net/media/igdb/cover_big/co5mw0.jpg",
  "platforms": [],
  "provider_games": [
    {
      "name": "Cats are Cute",
      "slug": "cats-are-cute",
      "service": "igdb"
    }
  ],
  "aliases": [],
  "shaders": [],
  "discord_id": "",
  "change_for": null
}