{
  "id": 22126,
  "name": "Legend of Fainn Dynasty ～Battles of Beautiful Warlords～",
  "slug": "legend-of-fainn-dynasty-battles-of-beautiful-warlo",
  "year": null,
  "banner_url": "https://lutris.net/games/banner/legend-of-fainn-dynasty-battles-of-beautiful-warlo.jpg",
  "icon_url": "https://lutris.net/games/icon/legend-of-fainn-dynasty-battles-of-beautiful-warlo.png",
  "coverart": null,
  "platforms": [],
  "provider_games": [
    {
      "name": "Legend of Fainn Dynasty ～Battles of Beautiful Warlords～",
      "slug": "720240",
      "service": "steam"
    }
  ],
  "aliases": [],
  "shaders": [],
  "discord_id": "",
  "change_for": null
}