{
  "id": 206512,
  "name": "My Secret Spy Lovers",
  "slug": "my-secret-spy-lovers",
  "year": 2022,
  "banner_url": "",
  "icon_url": "",
  "coverart": "https://lutris.net/media/igdb/cover_big/co5v2q.jpg",
  "platforms": [
    {
      "name": "Android"
    }
  ],
  "provider_games": [
    {
      "name": "My Secret Spy Lovers",
      "slug": "my-secret-spy-lovers",
      "service": "igdb"
    }
  ],
  "aliases": [],
  "shaders": [],
  "discord_id": "",
  "change_for": null
}