{
  "id": 90242,
  "name": "Escape from LaVille",
  "slug": "escape-from-laville",
  "year": null,
  "banner_url": "",
  "icon_url": "",
  "coverart": null,
  "platforms": [],
  "provider_games": [
    {
      "name": "Escape from LaVille",
      "slug": "escape-from-laville",
      "service": "igdb"
    }
  ],
  "aliases": [],
  "shaders": [],
  "discord_id": "",
  "change_for": null
}