{
  "id": 95097,
  "name": "Medal Of Valor 4",
  "slug": "medal-of-valor-4",
  "year": null,
  "banner_url": "",
  "icon_url": "",
  "coverart": null,
  "platforms": [],
  "provider_games": [
    {
      "name": "Medal of Valor 4",
      "slug": "medal-of-valor-4",
      "service": "igdb"
    }
  ],
  "aliases": [],
  "shaders": [],
  "discord_id": "",
  "change_for": null
}