{
  "id": 51078,
  "name": "Safari Race",
  "slug": "safari-race",
  "year": 1984,
  "banner_url": "",
  "icon_url": "",
  "coverart": "https://lutris.net/media/igdb/cover_big/bzgah0dg7h8imggp1iul.jpg",
  "platforms": [
    {
      "name": "SG-1000"
    }
  ],
  "provider_games": [
    {
      "name": "Safari Race",
      "slug": "safari-race",
      "service": "igdb"
    }
  ],
  "aliases": [],
  "shaders": [],
  "discord_id": "",
  "change_for": null
}