{
  "id": 201472,
  "name": "Out of Sight",
  "slug": "out-of-sight--1",
  "year": null,
  "banner_url": "",
  "icon_url": "",
  "coverart": "https://lutris.net/media/igdb/cover_big/co4pcw.jpg",
  "platforms": [],
  "provider_games": [
    {
      "name": "Out of Sight",
      "slug": "out-of-sight--1",
      "service": "igdb"
    }
  ],
  "aliases": [],
  "shaders": [],
  "discord_id": "",
  "change_for": null
}