{
  "id": 162107,
  "name": "Virtua Fighter CG Portrait Series Vol. 9: Kage Maru",
  "slug": "virtua-fighter-cg-portrait-series-vol-9-kage-maru",
  "year": 1996,
  "banner_url": "",
  "icon_url": "",
  "coverart": "https://lutris.net/media/igdb/cover_big/co405u.jpg",
  "platforms": [
    {
      "name": "Sega Saturn"
    }
  ],
  "provider_games": [
    {
      "name": "Virtua Fighter CG Portrait Series Vol. 9: Kage Maru",
      "slug": "virtua-fighter-cg-portrait-series-vol-9-kage-maru",
      "service": "igdb"
    }
  ],
  "aliases": [],
  "shaders": [],
  "discord_id": "",
  "change_for": null
}