{
  "id": 208953,
  "name": "Rock Life: The Rock Simulator",
  "slug": "rock-life-the-rock-simulator--1",
  "year": 2022,
  "banner_url": "",
  "icon_url": "",
  "coverart": "https://lutris.net/media/igdb/cover_big/co5uyl.jpg",
  "platforms": [
    {
      "name": "Windows"
    }
  ],
  "provider_games": [
    {
      "name": "Rock Life: The Rock Simulator",
      "slug": "rock-life-the-rock-simulator--1",
      "service": "igdb"
    }
  ],
  "aliases": [],
  "shaders": [],
  "discord_id": "",
  "change_for": null
}