{
  "id": 137542,
  "name": "ALF",
  "slug": "alf",
  "year": 1989,
  "banner_url": "",
  "icon_url": "",
  "coverart": "https://lutris.net/media/igdb/cover_big/ezmopkojhdokhg08ecl4.jpg",
  "platforms": [
    {
      "name": "Sega Master System"
    }
  ],
  "provider_games": [
    {
      "name": "Alf",
      "slug": "alf",
      "service": "igdb"
    }
  ],
  "aliases": [],
  "shaders": [],
  "discord_id": "",
  "change_for": null
}