{
  "id": 262870,
  "name": "SandRipper",
  "slug": "sandripper",
  "year": null,
  "banner_url": "",
  "icon_url": "",
  "coverart": "https://lutris.net/media/igdb/cover_big/co77hf.jpg",
  "platforms": [],
  "provider_games": [
    {
      "name": "SandRipper",
      "slug": "sandripper",
      "service": "igdb"
    }
  ],
  "aliases": [],
  "shaders": [],
  "discord_id": "",
  "change_for": null
}