{
  "id": 38050,
  "game_id": 194071,
  "game_slug": "cog-back-to-the-80s",
  "name": "COG: Back To The 80s",
  "year": null,
  "user": "vanstaveren",
  "runner": "steam",
  "slug": "cog-back-to-the-80s-steam",
  "version": "steam",
  "description": "",
  "notes": "",
  "credits": "",
  "created_at": "2023-11-28T01:11:05.832693Z",
  "updated_at": "2023-11-28T01:11:05.832720Z",
  "draft": false,
  "published": true,
  "published_by": null,
  "rating": "",
  "is_playable": null,
  "steamid": null,
  "gogid": null,
  "gogslug": "",
  "humbleid": "",
  "humblestoreid": "",
  "humblestoreid_real": "",
  "script": {
    "game": {
      "appid": 1893150
    }
  },
  "content": "game:\n  appid: 1893150\n",
  "discord_id": ""
}