{
  "id": 74590,
  "name": "DS Yukemuri Suspense Series: Free Writer Tachibana Maki - \"Touyako, Nanatsu no Yu, Okuyu no Sato\" Shuzai Techou",
  "slug": "ds-yukemuri-suspense-series-free-writer-tachibana-maki-touyako-nanatsu-no-yu-okuyu-no-sato-shuzai-techou",
  "year": null,
  "banner_url": "",
  "icon_url": "",
  "coverart": "https://lutris.net/media/igdb/cover_big/co75zc.jpg",
  "platforms": [],
  "provider_games": [
    {
      "name": "DS Yukemuri Suspense Series: Free Writer Tachibana Maki - \"Touyako, Nanatsu no Yu, Okuyu no Sato\" Shuzai Techou",
      "slug": "ds-yukemuri-suspense-series-free-writer-tachibana-maki-touyako-nanatsu-no-yu-okuyu-no-sato-shuzai-techou",
      "service": "igdb"
    }
  ],
  "aliases": [],
  "shaders": [],
  "discord_id": "",
  "change_for": null
}