{
  "id": 139069,
  "name": "Valis III",
  "slug": "valis-iii",
  "year": 1990,
  "banner_url": "",
  "icon_url": "",
  "coverart": "https://lutris.net/media/igdb/cover_big/co25zt.jpg",
  "platforms": [
    {
      "name": "Sega Genesis / Mega Drive"
    },
    {
      "name": "Turbografx-16/PC Engine CD"
    }
  ],
  "provider_games": [
    {
      "name": "Valis III",
      "slug": "valis-iii",
      "service": "igdb"
    }
  ],
  "aliases": [],
  "shaders": [],
  "discord_id": "",
  "change_for": null
}