{
  "id": 94011,
  "name": "We Bare Bears Match3 Repairs",
  "slug": "we-bare-bears-match3-repairs",
  "year": null,
  "banner_url": "",
  "icon_url": "",
  "coverart": null,
  "platforms": [],
  "provider_games": [
    {
      "name": "We Bare Bears Match3 Repairs",
      "slug": "we-bare-bears-match3-repairs",
      "service": "igdb"
    }
  ],
  "aliases": [],
  "shaders": [],
  "discord_id": "",
  "change_for": null
}