{
  "id": 233581,
  "name": "Disney Princess: Worlds of Enchantment",
  "slug": "disney-princess-worlds-of-enchantment",
  "year": 2005,
  "banner_url": "",
  "icon_url": "",
  "coverart": null,
  "platforms": [],
  "provider_games": [
    {
      "name": "Disney Princess: Worlds of Enchantment",
      "slug": "disney-princess-worlds-of-enchantment",
      "service": "igdb"
    }
  ],
  "aliases": [],
  "shaders": [],
  "discord_id": "",
  "change_for": null
}