{
  "id": 194712,
  "name": "Barbaria",
  "slug": "barbaria",
  "year": 2022,
  "banner_url": "https://lutris.net/games/banner/barbaria.jpg",
  "icon_url": "",
  "coverart": "https://lutris.net/media/igdb/cover_big/co4mfm.jpg",
  "platforms": [
    {
      "name": "Oculus Rift"
    }
  ],
  "provider_games": [
    {
      "name": "Barbaria",
      "slug": "barbaria",
      "service": "igdb"
    },
    {
      "name": "Barbaria",
      "slug": "1984610",
      "service": "steam"
    }
  ],
  "aliases": [],
  "shaders": [],
  "discord_id": "",
  "change_for": null
}