{
  "id": 26129,
  "name": "Fuzecat",
  "slug": "fuzecat",
  "year": 2017,
  "banner_url": "https://lutris.net/games/banner/fuzecat.jpg",
  "icon_url": "https://lutris.net/games/icon/fuzecat.png",
  "coverart": "https://lutris.net/media/igdb/cover_big/co2bgk.jpg",
  "platforms": [
    {
      "name": "Mac"
    },
    {
      "name": "Windows"
    }
  ],
  "provider_games": [
    {
      "name": "Fuzecat",
      "slug": "629720",
      "service": "steam"
    },
    {
      "name": "Fuzecat",
      "slug": "fuzecat",
      "service": "igdb"
    }
  ],
  "aliases": [],
  "shaders": [],
  "discord_id": "",
  "change_for": null
}