{
  "id": 250112,
  "name": "Switch Sides 2: Sea Sandwich",
  "slug": "switch-sides-2-sea-sandwich",
  "year": 2023,
  "banner_url": "",
  "icon_url": "",
  "coverart": "https://lutris.net/media/igdb/cover_big/co6oom.jpg",
  "platforms": [
    {
      "name": "Nintendo Switch"
    }
  ],
  "provider_games": [
    {
      "name": "Switch Sides 2: Sea Sandwich",
      "slug": "switch-sides-2-sea-sandwich",
      "service": "igdb"
    }
  ],
  "aliases": [],
  "shaders": [],
  "discord_id": "",
  "change_for": null
}