{
  "id": 153465,
  "name": "Juggernauts",
  "slug": "juggernauts",
  "year": null,
  "banner_url": "",
  "icon_url": "",
  "coverart": null,
  "platforms": [],
  "provider_games": [
    {
      "name": "Juggernauts",
      "slug": "juggernauts",
      "service": "igdb"
    }
  ],
  "aliases": [],
  "shaders": [],
  "discord_id": "",
  "change_for": null
}