{
  "id": 94327,
  "name": "Dot Blocks!",
  "slug": "dot-blocks",
  "year": null,
  "banner_url": "",
  "icon_url": "",
  "coverart": null,
  "platforms": [],
  "provider_games": [
    {
      "name": "Dot Blocks!",
      "slug": "dot-blocks",
      "service": "igdb"
    }
  ],
  "aliases": [],
  "shaders": [],
  "discord_id": "",
  "change_for": null
}