{
  "id": 66592,
  "name": "Hidden Object: Imagination",
  "slug": "hidden-object-imagination",
  "year": null,
  "banner_url": "",
  "icon_url": "",
  "coverart": null,
  "platforms": [],
  "provider_games": [
    {
      "name": "Hidden Object: Imagination",
      "slug": "hidden-object-imagination",
      "service": "igdb"
    }
  ],
  "aliases": [],
  "shaders": [],
  "discord_id": "",
  "change_for": null
}