{
  "id": 25183,
  "name": "Jigsaw",
  "slug": "jigsaw",
  "year": 1995,
  "banner_url": "https://lutris.net/games/banner/jigsaw.jpg",
  "icon_url": "https://lutris.net/games/icon/jigsaw.png",
  "coverart": "https://lutris.net/media/igdb/cover_big/fxk70zls9i6sl8muyv7j.jpg",
  "platforms": [
    {
      "name": "Mac"
    },
    {
      "name": "Windows"
    }
  ],
  "provider_games": [
    {
      "name": "Jigsaw",
      "slug": "739440",
      "service": "steam"
    },
    {
      "name": "Jigsaw",
      "slug": "jigsaw",
      "service": "igdb"
    }
  ],
  "aliases": [],
  "shaders": [],
  "discord_id": "",
  "change_for": null
}