{
  "id": 19130,
  "name": "Changeover: Decisions",
  "slug": "changeover-decisions",
  "year": null,
  "banner_url": "https://lutris.net/games/banner/changeover-decisions.jpg",
  "icon_url": "https://lutris.net/games/icon/changeover-decisions.png",
  "coverart": "https://lutris.net/media/igdb/cover_big/co3mzy.jpg",
  "platforms": [],
  "provider_games": [
    {
      "name": "Changeover: Decisions",
      "slug": "788480",
      "service": "steam"
    },
    {
      "name": "Changeover: Decisions",
      "slug": "changeover-decisions",
      "service": "igdb"
    }
  ],
  "aliases": [],
  "shaders": [],
  "discord_id": "",
  "change_for": null
}