{
  "id": 7327,
  "name": "Ultimate Arena",
  "slug": "ultimate-arena",
  "year": 2016,
  "banner_url": "https://lutris.net/games/banner/ultimate-arena.jpg",
  "icon_url": "https://lutris.net/games/icon/ultimate-arena.png",
  "coverart": "https://lutris.net/media/igdb/cover_big/co3pbb.jpg",
  "platforms": [
    {
      "name": "Linux"
    },
    {
      "name": "Windows"
    }
  ],
  "provider_games": [
    {
      "name": "Ultimate Arena",
      "slug": "385240",
      "service": "steam"
    },
    {
      "name": "Ultimate Arena",
      "slug": "ultimate-arena",
      "service": "igdb"
    }
  ],
  "aliases": [],
  "shaders": [],
  "discord_id": "",
  "change_for": null
}