{
  "id": 87907,
  "name": "Riding Star 3D",
  "slug": "riding-star-3d",
  "year": 2014,
  "banner_url": "",
  "icon_url": "",
  "coverart": "https://lutris.net/media/igdb/cover_big/pgjkubtdv1jpvuxqdewc.jpg",
  "platforms": [
    {
      "name": "Nintendo 3DS"
    }
  ],
  "provider_games": [
    {
      "name": "Riding Star 3D",
      "slug": "riding-star-3d",
      "service": "igdb"
    }
  ],
  "aliases": [],
  "shaders": [],
  "discord_id": "",
  "change_for": null
}