{
  "id": 124356,
  "name": "Othello",
  "slug": "othello--1",
  "year": 1982,
  "banner_url": "",
  "icon_url": "",
  "coverart": "https://lutris.net/media/igdb/cover_big/z68nzftnjy53yhvp9bow.jpg",
  "platforms": [
    {
      "name": "Linux"
    },
    {
      "name": "Mac"
    },
    {
      "name": "TRS-80"
    },
    {
      "name": "Windows"
    }
  ],
  "provider_games": [
    {
      "name": "Othello",
      "slug": "othello--1",
      "service": "igdb"
    }
  ],
  "aliases": [],
  "shaders": [],
  "discord_id": "",
  "change_for": null
}