{
  "id": 202161,
  "name": "Barton Lynch Pro Surfing 2022",
  "slug": "barton-lynch-pro-surfing-2022",
  "year": null,
  "banner_url": "",
  "icon_url": "",
  "coverart": "https://lutris.net/media/igdb/cover_big/co4mlw.jpg",
  "platforms": [],
  "provider_games": [
    {
      "name": "Barton Lynch Pro Surfing 2022",
      "slug": "barton-lynch-pro-surfing-2022",
      "service": "igdb"
    }
  ],
  "aliases": [],
  "shaders": [],
  "discord_id": "",
  "change_for": null
}