{
  "id": 287986,
  "name": "Oh, Flock!",
  "slug": "oh-flock",
  "year": null,
  "banner_url": "",
  "icon_url": "",
  "coverart": "https://lutris.net/media/igdb/cover_big/co8b65.jpg",
  "platforms": [],
  "provider_games": [
    {
      "name": "Oh, Flock!",
      "slug": "oh-flock",
      "service": "igdb"
    }
  ],
  "aliases": [],
  "shaders": [],
  "discord_id": "",
  "change_for": null
}