{
  "id": 303304,
  "name": "Christmas Store: Santa's Supermarket Simulator",
  "slug": "christmas-store-santas-supermarket-simulator",
  "year": 2024,
  "banner_url": "",
  "icon_url": "",
  "coverart": "https://lutris.net/media/igdb/cover_big/co96qq.jpg",
  "platforms": [
    {
      "name": "Windows"
    }
  ],
  "provider_games": [
    {
      "name": "Christmas Store: Santa's Supermarket Simulator",
      "slug": "christmas-store-santas-supermarket-simulator",
      "service": "igdb"
    }
  ],
  "aliases": [],
  "shaders": [],
  "discord_id": "",
  "change_for": null
}