{
  "id": 181881,
  "name": "Space Quest: The Sarien Encounter",
  "slug": "space-quest-the-sarien-encounter",
  "year": 1986,
  "banner_url": "",
  "icon_url": "",
  "coverart": "https://lutris.net/media/igdb/cover_big/co321o.jpg",
  "platforms": [
    {
      "name": "Amiga"
    },
    {
      "name": "Apple II"
    },
    {
      "name": "Apple IIGS"
    },
    {
      "name": "Atari ST"
    },
    {
      "name": "Mac"
    }
  ],
  "provider_games": [
    {
      "name": "Space Quest: The Sarien Encounter",
      "slug": "space-quest-the-sarien-encounter",
      "service": "igdb"
    }
  ],
  "aliases": [],
  "shaders": [],
  "discord_id": "",
  "change_for": null
}