{
  "id": 250117,
  "name": "Driving Strikers",
  "slug": "driving-strikers",
  "year": null,
  "banner_url": "",
  "icon_url": "",
  "coverart": "https://lutris.net/media/igdb/cover_big/co6p43.jpg",
  "platforms": [],
  "provider_games": [
    {
      "name": "Driving Strikers",
      "slug": "driving-strikers",
      "service": "igdb"
    }
  ],
  "aliases": [],
  "shaders": [],
  "discord_id": "",
  "change_for": null
}