{
  "id": 157855,
  "name": "Shadow Codex",
  "slug": "shadow-codex",
  "year": 2019,
  "banner_url": "",
  "icon_url": "",
  "coverart": null,
  "platforms": [],
  "provider_games": [
    {
      "name": "Shadow Codex",
      "slug": "shadow-codex",
      "service": "igdb"
    }
  ],
  "aliases": [],
  "shaders": [],
  "discord_id": "",
  "change_for": null
}