{
  "id": 292006,
  "name": "City Park Play Date",
  "slug": "city-park-play-date",
  "year": null,
  "banner_url": "",
  "icon_url": "",
  "coverart": "https://lutris.net/media/igdb/cover_big/co8k56.jpg",
  "platforms": [],
  "provider_games": [
    {
      "name": "City Park Play Date",
      "slug": "city-park-play-date",
      "service": "igdb"
    }
  ],
  "aliases": [],
  "shaders": [],
  "discord_id": "",
  "change_for": null
}