{
  "id": 64350,
  "name": "Star Trek V: The Final Frontier",
  "slug": "star-trek-v-the-final-frontier--1",
  "year": 1989,
  "banner_url": "",
  "icon_url": "",
  "coverart": "https://lutris.net/media/igdb/cover_big/vt638w1zsmyboo05ldwd.jpg",
  "platforms": [],
  "provider_games": [
    {
      "name": "Star Trek V: The Final Frontier",
      "slug": "star-trek-v-the-final-frontier--1",
      "service": "igdb"
    }
  ],
  "aliases": [],
  "shaders": [],
  "discord_id": "",
  "change_for": null
}