{
  "id": 183195,
  "name": "Pillars on Poppy Hills",
  "slug": "pillars-on-poppy-hills",
  "year": 2020,
  "banner_url": "",
  "icon_url": "",
  "coverart": "https://lutris.net/media/igdb/cover_big/co395i.jpg",
  "platforms": [
    {
      "name": "Windows"
    }
  ],
  "provider_games": [
    {
      "name": "Pillars on Poppy Hills",
      "slug": "pillars-on-poppy-hills",
      "service": "igdb"
    }
  ],
  "aliases": [],
  "shaders": [],
  "discord_id": "",
  "change_for": null
}