{
  "id": 246198,
  "name": "Project Proxima",
  "slug": "project-proxima",
  "year": null,
  "banner_url": "",
  "icon_url": "",
  "coverart": "https://lutris.net/media/igdb/cover_big/co6i5u.jpg",
  "platforms": [],
  "provider_games": [
    {
      "name": "Project Proxima",
      "slug": "project-proxima",
      "service": "igdb"
    }
  ],
  "aliases": [],
  "shaders": [],
  "discord_id": "",
  "change_for": null
}