{
  "id": 20606,
  "name": "Super Sky Arena",
  "slug": "super-sky-arena",
  "year": 2015,
  "banner_url": "https://lutris.net/games/banner/super-sky-arena.jpg",
  "icon_url": "https://lutris.net/games/icon/super-sky-arena.png",
  "coverart": "https://lutris.net/media/igdb/cover_big/kohbk9yzasjlyo11crgg.jpg",
  "platforms": [
    {
      "name": "Windows"
    }
  ],
  "provider_games": [
    {
      "name": "Super Sky Arena",
      "slug": "309900",
      "service": "steam"
    },
    {
      "name": "Super Sky Arena",
      "slug": "super-sky-arena",
      "service": "igdb"
    }
  ],
  "aliases": [],
  "shaders": [],
  "discord_id": "",
  "change_for": null
}