{
  "id": 98685,
  "name": "Star Trek Online: Awakening",
  "slug": "star-trek-online-awakening",
  "year": null,
  "banner_url": "",
  "icon_url": "",
  "coverart": "https://lutris.net/media/igdb/cover_big/co5t7y.jpg",
  "platforms": [],
  "provider_games": [
    {
      "name": "Star Trek Online: Awakening",
      "slug": "star-trek-online-awakening",
      "service": "igdb"
    }
  ],
  "aliases": [],
  "shaders": [],
  "discord_id": "",
  "change_for": null
}