{
  "id": 56309,
  "name": "Wizardry Empire",
  "slug": "wizardry-empire",
  "year": 1999,
  "banner_url": "",
  "icon_url": "",
  "coverart": "https://lutris.net/media/igdb/cover_big/js8nqiquacgkz2ezqkqb.jpg",
  "platforms": [
    {
      "name": "Nintendo Game Boy Color"
    }
  ],
  "provider_games": [
    {
      "name": "Wizardry Empire",
      "slug": "wizardry-empire",
      "service": "igdb"
    }
  ],
  "aliases": [],
  "shaders": [],
  "discord_id": "",
  "change_for": null
}