{
  "id": 34644,
  "game_id": 204759,
  "game_slug": "error143",
  "name": "Error143",
  "year": 2022,
  "user": "vanstaveren",
  "runner": "steam",
  "slug": "error143-steam",
  "version": "steam",
  "description": "",
  "notes": "",
  "credits": "",
  "created_at": "2022-07-31T16:03:20.566145Z",
  "updated_at": "2023-01-11T06:08:00.893772Z",
  "draft": false,
  "published": true,
  "published_by": null,
  "rating": "",
  "is_playable": null,
  "steamid": 2066550,
  "gogid": null,
  "gogslug": "",
  "humbleid": "",
  "humblestoreid": "",
  "humblestoreid_real": "",
  "script": {
    "game": {
      "appid": 2066550
    }
  },
  "content": "game:\n  appid: 2066550\n",
  "discord_id": ""
}