{
  "id": 270292,
  "name": "Motto Nee, Chanto Shiyou yo! +Plus",
  "slug": "motto-nee-chanto-shiyou-yo-plus-plus",
  "year": 2014,
  "banner_url": "",
  "icon_url": "",
  "coverart": "https://lutris.net/media/igdb/cover_big/co7lue.jpg",
  "platforms": [
    {
      "name": "PlayStation Vita"
    }
  ],
  "provider_games": [
    {
      "name": "Motto Nee, Chanto Shiyou yo! +Plus",
      "slug": "motto-nee-chanto-shiyou-yo-plus-plus",
      "service": "igdb"
    }
  ],
  "aliases": [],
  "shaders": [],
  "discord_id": "",
  "change_for": null
}