{
  "id": 203624,
  "name": "Battle Fishing Masters",
  "slug": "battle-fishing-masters",
  "year": null,
  "banner_url": "",
  "icon_url": "",
  "coverart": "https://lutris.net/media/igdb/cover_big/co4fsv.jpg",
  "platforms": [],
  "provider_games": [
    {
      "name": "Battle Fishing Masters",
      "slug": "battle-fishing-masters",
      "service": "igdb"
    }
  ],
  "aliases": [],
  "shaders": [],
  "discord_id": "",
  "change_for": null
}