{
  "id": 260826,
  "name": "HeadBangers: Rhythm Royale - Digital Deluxe Edition",
  "slug": "headbangers-rhythm-royale-digital-deluxe-edition",
  "year": 2023,
  "banner_url": "",
  "icon_url": "",
  "coverart": "https://lutris.net/media/igdb/cover_big/co7b57.jpg",
  "platforms": [
    {
      "name": "Nintendo Switch"
    }
  ],
  "provider_games": [
    {
      "name": "HeadBangers: Rhythm Royale - Digital Deluxe Edition",
      "slug": "headbangers-rhythm-royale-digital-deluxe-edition",
      "service": "igdb"
    }
  ],
  "aliases": [],
  "shaders": [],
  "discord_id": "",
  "change_for": null
}