{
  "id": 294088,
  "name": "Raster",
  "slug": "raster--1",
  "year": null,
  "banner_url": "",
  "icon_url": "",
  "coverart": "https://lutris.net/media/igdb/cover_big/co8mj2.jpg",
  "platforms": [],
  "provider_games": [
    {
      "name": "Raster",
      "slug": "raster--1",
      "service": "igdb"
    }
  ],
  "aliases": [],
  "shaders": [],
  "discord_id": "",
  "change_for": null
}