{
  "id": 15176,
  "name": "Plates",
  "slug": "plates",
  "year": 2016,
  "banner_url": "https://lutris.net/games/banner/plates.jpg",
  "icon_url": "https://lutris.net/games/icon/plates.png",
  "coverart": null,
  "platforms": [
    {
      "name": "Linux"
    },
    {
      "name": "Mac"
    },
    {
      "name": "Windows"
    }
  ],
  "provider_games": [
    {
      "name": "Plates",
      "slug": "497680",
      "service": "steam"
    },
    {
      "name": "Plates",
      "slug": "plates",
      "service": "igdb"
    }
  ],
  "aliases": [],
  "shaders": [],
  "discord_id": "",
  "change_for": null
}