{
  "id": 36991,
  "game_id": 147349,
  "game_slug": "infinite-art-museum",
  "name": "Infinite Art Museum",
  "year": null,
  "user": "vanstaveren",
  "runner": "steam",
  "slug": "infinite-art-museum-steam",
  "version": "steam",
  "description": "",
  "notes": "",
  "credits": "",
  "created_at": "2023-01-24T23:51:07.736120Z",
  "updated_at": "2023-01-24T23:51:07.736146Z",
  "draft": false,
  "published": true,
  "published_by": null,
  "rating": "",
  "is_playable": null,
  "steamid": null,
  "gogid": null,
  "gogslug": "",
  "humbleid": "",
  "humblestoreid": "",
  "humblestoreid_real": "",
  "script": {
    "game": {
      "appid": 1011000
    }
  },
  "content": "game:\n  appid: 1011000\n",
  "discord_id": ""
}