{
  "id": 35276,
  "game_id": 198485,
  "game_slug": "paper-wizards",
  "name": "Paper Wizards",
  "year": null,
  "user": "vanstaveren",
  "runner": "steam",
  "slug": "paper-wizards-steam",
  "version": "steam",
  "description": "",
  "notes": "",
  "credits": "",
  "created_at": "2022-09-12T17:31:02.171482Z",
  "updated_at": "2023-01-11T06:07:59.236257Z",
  "draft": false,
  "published": true,
  "published_by": null,
  "rating": "",
  "is_playable": null,
  "steamid": null,
  "gogid": null,
  "gogslug": "",
  "humbleid": "",
  "humblestoreid": "",
  "humblestoreid_real": "",
  "script": {
    "game": {
      "appid": 1869310
    }
  },
  "content": "game:\n  appid: 1869310\n",
  "discord_id": ""
}