{
  "id": 230342,
  "name": "Within a Dead City",
  "slug": "within-a-dead-city",
  "year": null,
  "banner_url": "",
  "icon_url": "",
  "coverart": "https://lutris.net/media/igdb/cover_big/co6cxe.jpg",
  "platforms": [],
  "provider_games": [
    {
      "name": "Within a Dead City",
      "slug": "within-a-dead-city",
      "service": "igdb"
    }
  ],
  "aliases": [],
  "shaders": [],
  "discord_id": "",
  "change_for": null
}