{
  "id": 23875,
  "name": "Realms of Arkania 3",
  "slug": "realms-of-arkania-3",
  "year": 1996,
  "banner_url": "https://lutris.net/games/banner/realms-of-arkania-3.jpg",
  "icon_url": "",
  "coverart": null,
  "platforms": [
    {
      "name": "Windows"
    }
  ],
  "provider_games": [
    {
      "name": "Realms of Arkania 3",
      "slug": "1207658797",
      "service": "gog"
    },
    {
      "name": "Realms of Arkania 3",
      "slug": "realms-of-arkania-3",
      "service": "igdb"
    }
  ],
  "aliases": [],
  "shaders": [],
  "discord_id": "",
  "change_for": null
}