{
  "id": 144440,
  "name": "Runner",
  "slug": "runner--1",
  "year": null,
  "banner_url": "",
  "icon_url": "",
  "coverart": "https://lutris.net/media/igdb/cover_big/co3uvh.jpg",
  "platforms": [],
  "provider_games": [
    {
      "name": "Runner",
      "slug": "runner--1",
      "service": "igdb"
    }
  ],
  "aliases": [],
  "shaders": [],
  "discord_id": "",
  "change_for": null
}