{
  "id": 16546,
  "name": "All Our Asias",
  "slug": "all-our-asias",
  "year": 2018,
  "banner_url": "https://lutris.net/games/banner/all-our-asias.jpg",
  "icon_url": "https://lutris.net/games/icon/all-our-asias.png",
  "coverart": "https://lutris.net/media/igdb/cover_big/co1vw4.jpg",
  "platforms": [
    {
      "name": "Linux"
    },
    {
      "name": "Mac"
    },
    {
      "name": "Windows"
    }
  ],
  "provider_games": [
    {
      "name": "All Our Asias",
      "slug": "698050",
      "service": "steam"
    },
    {
      "name": "All Our Asias",
      "slug": "all-our-asias",
      "service": "igdb"
    }
  ],
  "aliases": [],
  "shaders": [],
  "discord_id": "",
  "change_for": null
}