{
  "id": 236123,
  "name": "Bunny Hop Hare Trigger",
  "slug": "bunny-hop-hare-trigger",
  "year": null,
  "banner_url": "",
  "icon_url": "",
  "coverart": "https://lutris.net/media/igdb/cover_big/co61vc.jpg",
  "platforms": [],
  "provider_games": [
    {
      "name": "Bunny Hop Hare Trigger",
      "slug": "bunny-hop-hare-trigger",
      "service": "igdb"
    }
  ],
  "aliases": [],
  "shaders": [],
  "discord_id": "",
  "change_for": null
}