{
  "id": 98586,
  "name": "The Not Very Golden Age of Piracy",
  "slug": "the-not-very-golden-age-of-piracy",
  "year": 2018,
  "banner_url": "",
  "icon_url": "",
  "coverart": "https://lutris.net/media/igdb/cover_big/co23v7.jpg",
  "platforms": [
    {
      "name": "Browser"
    },
    {
      "name": "Linux"
    },
    {
      "name": "Mac"
    },
    {
      "name": "Windows"
    }
  ],
  "provider_games": [
    {
      "name": "The Not Very Golden Age of Piracy",
      "slug": "the-not-very-golden-age-of-piracy",
      "service": "igdb"
    }
  ],
  "aliases": [],
  "shaders": [],
  "discord_id": "",
  "change_for": null
}