{
  "id": 31398,
  "name": "Zombotron",
  "slug": "zombotron",
  "year": 2019,
  "banner_url": "https://lutris.net/games/banner/zombotron.jpg",
  "icon_url": "https://lutris.net/games/icon/zombotron.png",
  "coverart": "https://lutris.net/media/igdb/cover_big/co1kqj.jpg",
  "platforms": [
    {
      "name": "Mac"
    },
    {
      "name": "Windows"
    }
  ],
  "provider_games": [
    {
      "name": "Zombotron",
      "slug": "664830",
      "service": "steam"
    },
    {
      "name": "Zombotron",
      "slug": "zombotron",
      "service": "igdb"
    }
  ],
  "aliases": [],
  "shaders": [],
  "discord_id": "",
  "change_for": null
}