{
  "id": 12356,
  "name": "RAM BOE",
  "slug": "ram-boe",
  "year": 2016,
  "banner_url": "https://lutris.net/games/banner/ram-boe.jpg",
  "icon_url": "https://lutris.net/games/icon/ram-boe.png",
  "coverart": "https://lutris.net/media/igdb/cover_big/co81cw.jpg",
  "platforms": [
    {
      "name": "Linux"
    },
    {
      "name": "Mac"
    },
    {
      "name": "Windows"
    }
  ],
  "provider_games": [
    {
      "name": "RAM BOE",
      "slug": "454720",
      "service": "steam"
    },
    {
      "name": "Ram Boe",
      "slug": "ram-boe",
      "service": "igdb"
    }
  ],
  "aliases": [],
  "shaders": [],
  "discord_id": "",
  "change_for": null
}