{
  "id": 303661,
  "name": "Monster Care Simulator",
  "slug": "monster-care-simulator",
  "year": null,
  "banner_url": "",
  "icon_url": "",
  "coverart": "https://lutris.net/media/igdb/cover_big/co96oh.jpg",
  "platforms": [],
  "provider_games": [
    {
      "name": "Monster Care Simulator",
      "slug": "monster-care-simulator",
      "service": "igdb"
    }
  ],
  "aliases": [],
  "shaders": [],
  "discord_id": "",
  "change_for": null
}