{
  "id": 299463,
  "name": "Juxtagram",
  "slug": "juxtagram",
  "year": 2024,
  "banner_url": "",
  "icon_url": "",
  "coverart": null,
  "platforms": [
    {
      "name": "Playdate"
    }
  ],
  "provider_games": [
    {
      "name": "Juxtagram",
      "slug": "juxtagram",
      "service": "igdb"
    }
  ],
  "aliases": [],
  "shaders": [],
  "discord_id": "",
  "change_for": null
}