{
  "id": 11936,
  "name": "Ecchi Mery and the Perils of the Cosmic Shrine",
  "slug": "ecchi-mery-and-the-perils-of-the-cosmic-shrine",
  "year": null,
  "banner_url": "https://lutris.net/games/banner/ecchi-mery-and-the-perils-of-the-cosmic-shrine.jpg",
  "icon_url": "",
  "coverart": "https://lutris.net/media/igdb/cover_big/hcz3v8kuy4wj1fdukwyu.jpg",
  "platforms": [
    {
      "name": "Windows"
    }
  ],
  "provider_games": [
    {
      "name": "Ecchi Mery and the Perils of the Cosmic Shrine",
      "slug": "ecchi-mery-and-the-perils-of-the-cosmic-shrine",
      "service": "igdb"
    }
  ],
  "aliases": [],
  "shaders": [],
  "discord_id": "",
  "change_for": null
}