{
  "id": 215824,
  "name": "Idler Coaster",
  "slug": "idler-coaster",
  "year": null,
  "banner_url": "",
  "icon_url": "",
  "coverart": "https://lutris.net/media/igdb/cover_big/co58m4.jpg",
  "platforms": [],
  "provider_games": [
    {
      "name": "Idler Coaster",
      "slug": "idler-coaster",
      "service": "igdb"
    }
  ],
  "aliases": [],
  "shaders": [],
  "discord_id": "",
  "change_for": null
}