{
  "id": 137588,
  "name": "Pathfinders: Mini Words",
  "slug": "pathfinders-mini-words",
  "year": null,
  "banner_url": "",
  "icon_url": "",
  "coverart": "https://lutris.net/media/igdb/cover_big/co3qvc.jpg",
  "platforms": [],
  "provider_games": [
    {
      "name": "Pathfinders: Mini Words",
      "slug": "pathfinders-mini-words",
      "service": "igdb"
    }
  ],
  "aliases": [],
  "shaders": [],
  "discord_id": "",
  "change_for": null
}