{
  "id": 260911,
  "name": "Cream Party",
  "slug": "cream-party",
  "year": null,
  "banner_url": "",
  "icon_url": "",
  "coverart": "https://lutris.net/media/igdb/cover_big/co75mn.jpg",
  "platforms": [],
  "provider_games": [
    {
      "name": "Cream Party",
      "slug": "cream-party",
      "service": "igdb"
    }
  ],
  "aliases": [],
  "shaders": [],
  "discord_id": "",
  "change_for": null
}