{
  "id": 254002,
  "name": "Road Rash: Jailbreak",
  "slug": "road-rash-jailbreak--1",
  "year": 2000,
  "banner_url": "",
  "icon_url": "",
  "coverart": null,
  "platforms": [
    {
      "name": "Sony PlayStation"
    }
  ],
  "provider_games": [
    {
      "name": "Road Rash: Jailbreak",
      "slug": "road-rash-jailbreak--1",
      "service": "igdb"
    }
  ],
  "aliases": [],
  "shaders": [],
  "discord_id": "",
  "change_for": null
}