{
  "id": 238747,
  "name": "SlimeCatcher",
  "slug": "slimecatcher",
  "year": null,
  "banner_url": "",
  "icon_url": "",
  "coverart": "https://lutris.net/media/igdb/cover_big/co63xb.jpg",
  "platforms": [],
  "provider_games": [
    {
      "name": "SlimeCatcher",
      "slug": "slimecatcher",
      "service": "igdb"
    }
  ],
  "aliases": [],
  "shaders": [],
  "discord_id": "",
  "change_for": null
}