{
  "id": 3261,
  "game_id": 2660,
  "game_slug": "max-gentlemen",
  "name": "Max Gentlemen",
  "year": 2014,
  "user": "FakeShemp",
  "runner": "linux",
  "slug": "max-gentlemen-humble",
  "version": "Humble",
  "description": "",
  "notes": "",
  "credits": "",
  "created_at": "2017-02-12T11:37:07.593513Z",
  "updated_at": "2024-04-03T05:34:32.555483Z",
  "draft": false,
  "published": true,
  "published_by": null,
  "rating": "",
  "is_playable": null,
  "steamid": 257710,
  "gogid": null,
  "gogslug": "",
  "humbleid": "",
  "humblestoreid": "",
  "humblestoreid_real": "",
  "script": {
    "files": [
      {
        "file1": "N/A:Please select the Humble archive"
      }
    ],
    "game": {
      "exe": "MaxGentlemenLinux"
    },
    "installer": [
      {
        "extract": {
          "dst": "$GAMEDIR",
          "file": "file1"
        }
      },
      {
        "chmodx": "$GAMEDIR/MaxGentlemenLinux"
      }
    ]
  },
  "content": "files:\n- file1: N/A:Please select the Humble archive\ngame:\n  exe: MaxGentlemenLinux\ninstaller:\n- extract:\n    dst: $GAMEDIR\n    file: file1\n- chmodx: $GAMEDIR/MaxGentlemenLinux\n",
  "discord_id": ""
}