{
  "id": 92605,
  "name": "Bridge to Another World: The Others HD",
  "slug": "bridge-to-another-world-the-others-hd",
  "year": null,
  "banner_url": "",
  "icon_url": "",
  "coverart": null,
  "platforms": [],
  "provider_games": [
    {
      "name": "Bridge to Another World: The Others HD",
      "slug": "bridge-to-another-world-the-others-hd",
      "service": "igdb"
    }
  ],
  "aliases": [],
  "shaders": [],
  "discord_id": "",
  "change_for": null
}