{
  "id": 53758,
  "name": "Terra Cognita",
  "slug": "terra-cognita",
  "year": 1986,
  "banner_url": "",
  "icon_url": "",
  "coverart": "https://lutris.net/media/igdb/cover_big/uiqjflthdjzkcnf5sigf.jpg",
  "platforms": [
    {
      "name": "Amstrad CPC"
    },
    {
      "name": "Commodore 16"
    },
    {
      "name": "Commodore C64/128"
    },
    {
      "name": "ZX Spectrum"
    }
  ],
  "provider_games": [
    {
      "name": "Terra Cognita",
      "slug": "terra-cognita",
      "service": "igdb"
    }
  ],
  "aliases": [],
  "shaders": [],
  "discord_id": "",
  "change_for": null
}