{
  "id": 3755,
  "game_id": 3740,
  "game_slug": "massive-chalice",
  "name": "MASSIVE CHALICE",
  "year": 2015,
  "user": "FakeShemp",
  "runner": "linux",
  "slug": "massive-chalice-humble",
  "version": "Humble",
  "description": "",
  "notes": "",
  "credits": "",
  "created_at": "2017-05-21T08:45:42.440969Z",
  "updated_at": "2024-04-03T05:34:31.778067Z",
  "draft": false,
  "published": true,
  "published_by": null,
  "rating": "",
  "is_playable": null,
  "steamid": 246110,
  "gogid": 1432894004,
  "gogslug": "massive_chalice",
  "humbleid": "massivechalice",
  "humblestoreid": "massivechalice",
  "humblestoreid_real": "massivechalice",
  "script": {
    "files": [
      {
        "file1": "N/A:Please select the Humble archive"
      }
    ],
    "game": {
      "exe": "MC"
    },
    "installer": [
      {
        "extract": {
          "file": "$file1"
        }
      }
    ]
  },
  "content": "files:\n- file1: N/A:Please select the Humble archive\ngame:\n  exe: MC\ninstaller:\n- extract:\n    file: $file1\n",
  "discord_id": ""
}