{
  "id": 236895,
  "name": "Chougoukin Selections",
  "slug": "chougoukin-selections",
  "year": 1995,
  "banner_url": "",
  "icon_url": "",
  "coverart": null,
  "platforms": [
    {
      "name": "Playdia"
    }
  ],
  "provider_games": [
    {
      "name": "Chougoukin Selections",
      "slug": "chougoukin-selections",
      "service": "igdb"
    }
  ],
  "aliases": [],
  "shaders": [],
  "discord_id": "",
  "change_for": null
}