{
  "id": 128682,
  "name": "Arcade Archives: FRONT LINE",
  "slug": "arcade-archives-front-line",
  "year": 2017,
  "banner_url": "",
  "icon_url": "",
  "coverart": "https://lutris.net/media/igdb/cover_big/co390z.jpg",
  "platforms": [
    {
      "name": "Nintendo Switch"
    },
    {
      "name": "Sony Playstation 4"
    }
  ],
  "provider_games": [
    {
      "name": "Arcade Archives: Front Line",
      "slug": "arcade-archives-front-line",
      "service": "igdb"
    }
  ],
  "aliases": [],
  "shaders": [],
  "discord_id": "",
  "change_for": null
}