{
  "id": 248044,
  "name": "Bad Burgers",
  "slug": "bad-burgers",
  "year": null,
  "banner_url": "",
  "icon_url": "",
  "coverart": null,
  "platforms": [],
  "provider_games": [
    {
      "name": "Bad Burgers",
      "slug": "bad-burgers",
      "service": "igdb"
    }
  ],
  "aliases": [],
  "shaders": [],
  "discord_id": "",
  "change_for": null
}