{
  "id": 163855,
  "name": "SBX 5K",
  "slug": "sbx-5k",
  "year": null,
  "banner_url": "",
  "icon_url": "",
  "coverart": "https://lutris.net/media/igdb/cover_big/co40tw.jpg",
  "platforms": [],
  "provider_games": [
    {
      "name": "SBX 5K",
      "slug": "sbx-5k",
      "service": "igdb"
    }
  ],
  "aliases": [],
  "shaders": [],
  "discord_id": "",
  "change_for": null
}