{
  "id": 62712,
  "name": "Flips: More Bloody Horowitz",
  "slug": "flips-more-bloody-horowitz",
  "year": 2010,
  "banner_url": "",
  "icon_url": "",
  "coverart": "https://lutris.net/media/igdb/cover_big/hi9am3cpqt3zj5exp10g.jpg",
  "platforms": [
    {
      "name": "Nintendo DSi"
    }
  ],
  "provider_games": [
    {
      "name": "Flips: More Bloody Horowitz",
      "slug": "flips-more-bloody-horowitz",
      "service": "igdb"
    }
  ],
  "aliases": [],
  "shaders": [],
  "discord_id": "",
  "change_for": null
}