{
  "id": 36390,
  "name": "Welltris",
  "slug": "welltris",
  "year": 1991,
  "banner_url": "",
  "icon_url": "https://lutris.net/games/icon/welltris.png",
  "coverart": "https://lutris.net/media/igdb/cover_big/sqp5mjl9dwkclszjqend.jpg",
  "platforms": [
    {
      "name": "Amiga"
    },
    {
      "name": "Amstrad CPC"
    },
    {
      "name": "Arcade"
    }
  ],
  "provider_games": [
    {
      "name": "Welltris",
      "slug": "welltris",
      "service": "mame"
    },
    {
      "name": "Welltris",
      "slug": "welltris",
      "service": "igdb"
    }
  ],
  "aliases": [],
  "shaders": [],
  "discord_id": "",
  "change_for": null
}