{
  "id": 43663,
  "name": "Lineage 2 Chronicle 4",
  "slug": "lineage-2-chronicle-4",
  "year": 2006,
  "banner_url": "https://lutris.net/games/banner/lineage-2-chronicle-4.jpg",
  "icon_url": "",
  "coverart": null,
  "platforms": [
    {
      "name": "Windows"
    }
  ],
  "provider_games": [],
  "aliases": [],
  "shaders": [],
  "discord_id": "",
  "change_for": null
}