{
  "id": 188744,
  "name": "I'm Just Popping Down the Dungeon, Does Anybody Want Anything?",
  "slug": "im-just-popping-down-the-dungeon-does-anybody-want-anything",
  "year": 2019,
  "banner_url": "",
  "icon_url": "",
  "coverart": "https://lutris.net/media/igdb/cover_big/co2mpg.jpg",
  "platforms": [
    {
      "name": "Browser"
    },
    {
      "name": "Windows"
    }
  ],
  "provider_games": [
    {
      "name": "I'm Just Popping Down the Dungeon, Does Anybody Want Anything?",
      "slug": "im-just-popping-down-the-dungeon-does-anybody-want-anything",
      "service": "igdb"
    }
  ],
  "aliases": [],
  "shaders": [],
  "discord_id": "",
  "change_for": null
}