{
  "id": 267141,
  "name": "Five Nights at Freddys: 1993",
  "slug": "five-nights-at-freddys-1993",
  "year": 2020,
  "banner_url": "",
  "icon_url": "",
  "coverart": "https://lutris.net/media/igdb/cover_big/co7ej6.jpg",
  "platforms": [
    {
      "name": "Windows"
    }
  ],
  "provider_games": [
    {
      "name": "Five Nights at Freddys: 1993",
      "slug": "five-nights-at-freddys-1993",
      "service": "igdb"
    }
  ],
  "aliases": [],
  "shaders": [],
  "discord_id": "",
  "change_for": null
}