{
  "id": 104833,
  "name": "Rugon",
  "slug": "rugon",
  "year": null,
  "banner_url": "",
  "icon_url": "",
  "coverart": "https://lutris.net/media/igdb/cover_big/co2r79.jpg",
  "platforms": [],
  "provider_games": [
    {
      "name": "Rugon",
      "slug": "rugon",
      "service": "igdb"
    }
  ],
  "aliases": [],
  "shaders": [],
  "discord_id": "",
  "change_for": null
}