{
  "id": 10194,
  "name": "Pixel Fodder",
  "slug": "pixel-fodder",
  "year": 2015,
  "banner_url": "https://lutris.net/games/banner/pixel-fodder.jpg",
  "icon_url": "https://lutris.net/games/icon/pixel-fodder.png",
  "coverart": "https://lutris.net/media/igdb/cover_big/xrnuxndkdn1fzrx9pot6.jpg",
  "platforms": [
    {
      "name": "Mac"
    },
    {
      "name": "Windows"
    }
  ],
  "provider_games": [
    {
      "name": "Pixel Fodder",
      "slug": "386600",
      "service": "steam"
    },
    {
      "name": "Pixel Fodder",
      "slug": "pixel-fodder",
      "service": "igdb"
    }
  ],
  "aliases": [],
  "shaders": [],
  "discord_id": "",
  "change_for": null
}