{
  "id": 138739,
  "name": "Ciel Nosurge",
  "slug": "ciel-nosurge",
  "year": 2012,
  "banner_url": "",
  "icon_url": "",
  "coverart": "https://lutris.net/media/igdb/cover_big/co2xqa.jpg",
  "platforms": [
    {
      "name": "PlayStation Vita"
    }
  ],
  "provider_games": [
    {
      "name": "Ciel Nosurge",
      "slug": "ciel-nosurge",
      "service": "igdb"
    }
  ],
  "aliases": [],
  "shaders": [],
  "discord_id": "",
  "change_for": null
}