{
  "id": 186296,
  "name": "Deep Space Airships",
  "slug": "deep-space-airships",
  "year": null,
  "banner_url": "",
  "icon_url": "",
  "coverart": null,
  "platforms": [],
  "provider_games": [
    {
      "name": "Deep Space Airships",
      "slug": "deep-space-airships",
      "service": "igdb"
    }
  ],
  "aliases": [],
  "shaders": [],
  "discord_id": "",
  "change_for": null
}