{
  "id": 227563,
  "name": "ABC Follow Me: Animals - Extended Edition",
  "slug": "abc-follow-me-animals-extended-edition",
  "year": null,
  "banner_url": "",
  "icon_url": "",
  "coverart": null,
  "platforms": [],
  "provider_games": [
    {
      "name": "ABC Follow Me: Animals - Extended Edition",
      "slug": "abc-follow-me-animals-extended-edition",
      "service": "igdb"
    }
  ],
  "aliases": [],
  "shaders": [],
  "discord_id": "",
  "change_for": null
}