{
  "id": 111641,
  "name": "Day In Dementia",
  "slug": "day-in-dementia",
  "year": null,
  "banner_url": "",
  "icon_url": "",
  "coverart": "https://lutris.net/media/igdb/cover_big/co1f0h.jpg",
  "platforms": [],
  "provider_games": [
    {
      "name": "Day In Dementia",
      "slug": "day-in-dementia",
      "service": "igdb"
    }
  ],
  "aliases": [],
  "shaders": [],
  "discord_id": "",
  "change_for": null
}