{
  "id": 72377,
  "name": "School Rendezvous Second Semester",
  "slug": "school-rendezvous-second-semester",
  "year": null,
  "banner_url": "",
  "icon_url": "",
  "coverart": null,
  "platforms": [],
  "provider_games": [
    {
      "name": "School Rendezvous Second Semester",
      "slug": "school-rendezvous-second-semester",
      "service": "igdb"
    }
  ],
  "aliases": [],
  "shaders": [],
  "discord_id": "",
  "change_for": null
}