{
  "id": 278450,
  "name": "Boxing Go",
  "slug": "boxing-go",
  "year": null,
  "banner_url": "",
  "icon_url": "",
  "coverart": "https://lutris.net/media/igdb/cover_big/co7y4t.jpg",
  "platforms": [],
  "provider_games": [
    {
      "name": "Boxing Go",
      "slug": "boxing-go",
      "service": "igdb"
    }
  ],
  "aliases": [],
  "shaders": [],
  "discord_id": "",
  "change_for": null
}