{
  "id": 32981,
  "name": "Dark Mysteries: The Soul Keeper",
  "slug": "dark-mysteries-the-soul-keeper",
  "year": null,
  "banner_url": "https://lutris.net/games/banner/dark-mysteries-the-soul-keeper.jpg",
  "icon_url": "",
  "coverart": "https://lutris.net/media/igdb/cover_big/co3z74.jpg",
  "platforms": [
    {
      "name": "Windows"
    }
  ],
  "provider_games": [
    {
      "name": "Dark Mysteries: The Soul Keeper",
      "slug": "dark-mysteries-the-soul-keeper",
      "service": "igdb"
    }
  ],
  "aliases": [],
  "shaders": [],
  "discord_id": "",
  "change_for": null
}