{
  "id": 258835,
  "name": "Satebo's Word Game",
  "slug": "satebos-word-game",
  "year": null,
  "banner_url": "",
  "icon_url": "",
  "coverart": null,
  "platforms": [
    {
      "name": "Satellaview"
    }
  ],
  "provider_games": [
    {
      "name": "Satebo's Word Game",
      "slug": "satebos-word-game",
      "service": "igdb"
    }
  ],
  "aliases": [],
  "shaders": [],
  "discord_id": "",
  "change_for": null
}