{
  "id": 117493,
  "name": "WakuWaku Ski Wonder Spur",
  "slug": "wakuwaku-ski-wonder-spur",
  "year": 1995,
  "banner_url": "",
  "icon_url": "",
  "coverart": "https://lutris.net/media/igdb/cover_big/co3g9q.jpg",
  "platforms": [
    {
      "name": "Super Nintendo"
    }
  ],
  "provider_games": [
    {
      "name": "WakuWaku Ski Wonder Spur",
      "slug": "wakuwaku-ski-wonder-spur",
      "service": "igdb"
    }
  ],
  "aliases": [],
  "shaders": [],
  "discord_id": "",
  "change_for": null
}