{
  "id": 229870,
  "name": "Battle Cars",
  "slug": "battle-cars--2",
  "year": null,
  "banner_url": "",
  "icon_url": "",
  "coverart": null,
  "platforms": [],
  "provider_games": [
    {
      "name": "Battle Cars",
      "slug": "battle-cars--2",
      "service": "igdb"
    }
  ],
  "aliases": [],
  "shaders": [],
  "discord_id": "",
  "change_for": null
}