{
  "id": 257723,
  "name": "Stellar Echoes: Brave Trial",
  "slug": "stellar-echoes-brave-trial",
  "year": null,
  "banner_url": "",
  "icon_url": "",
  "coverart": "https://lutris.net/media/igdb/cover_big/co6zz6.jpg",
  "platforms": [],
  "provider_games": [
    {
      "name": "Stellar Echoes: Brave Trial",
      "slug": "stellar-echoes-brave-trial",
      "service": "igdb"
    }
  ],
  "aliases": [],
  "shaders": [],
  "discord_id": "",
  "change_for": null
}