{
  "id": 41202,
  "name": "Double Switch - 25th Anniversary Edition",
  "slug": "double-switch-25th-anniversary-edition",
  "year": 2018,
  "banner_url": "https://lutris.net/games/banner/double-switch-25th-anniversary-edition.jpg",
  "icon_url": "https://lutris.net/games/icon/double-switch-25th-anniversary-edition.png",
  "coverart": "https://lutris.net/media/igdb/cover_big/co2hij.jpg",
  "platforms": [
    {
      "name": "Nintendo Switch"
    },
    {
      "name": "Sony Playstation 4"
    }
  ],
  "provider_games": [
    {
      "name": "Double Switch - 25th Anniversary Edition",
      "slug": "878290",
      "service": "steam"
    },
    {
      "name": "Double Switch: 25th Anniversary Edition",
      "slug": "double-switch-25th-anniversary-edition",
      "service": "igdb"
    }
  ],
  "aliases": [],
  "shaders": [],
  "discord_id": "",
  "change_for": null
}