{
  "id": 114245,
  "name": "Doctor Who: The First Adventure",
  "slug": "doctor-who-the-first-adventure",
  "year": 1983,
  "banner_url": "",
  "icon_url": "",
  "coverart": "https://lutris.net/media/igdb/cover_big/co3ahm.jpg",
  "platforms": [
    {
      "name": "BBC Microcomputer System"
    }
  ],
  "provider_games": [
    {
      "name": "Doctor Who: The First Adventure",
      "slug": "doctor-who-the-first-adventure",
      "service": "igdb"
    }
  ],
  "aliases": [],
  "shaders": [],
  "discord_id": "",
  "change_for": null
}