{
  "id": 121701,
  "name": "Thrills & Chills - Roller Coasters",
  "slug": "thrills-and-chills-roller-coasters",
  "year": 2016,
  "banner_url": "",
  "icon_url": "",
  "coverart": null,
  "platforms": [
    {
      "name": "Windows"
    }
  ],
  "provider_games": [
    {
      "name": "Thrills & Chills - Roller Coasters",
      "slug": "thrills-and-chills-roller-coasters",
      "service": "igdb"
    }
  ],
  "aliases": [],
  "shaders": [],
  "discord_id": "",
  "change_for": null
}