{
  "id": 25878,
  "name": "Citadale - The Ancestral Strain",
  "slug": "citadale-the-ancestral-strain",
  "year": 2018,
  "banner_url": "https://lutris.net/games/banner/citadale-the-ancestral-strain.jpg",
  "icon_url": "https://lutris.net/games/icon/citadale-the-ancestral-strain.png",
  "coverart": "https://lutris.net/media/igdb/cover_big/co28wl.jpg",
  "platforms": [
    {
      "name": "Linux"
    },
    {
      "name": "Mac"
    },
    {
      "name": "Windows"
    }
  ],
  "provider_games": [
    {
      "name": "Citadale - The Ancestral Strain",
      "slug": "963170",
      "service": "steam"
    },
    {
      "name": "Citadale: The Ancestral Strain",
      "slug": "citadale-the-ancestral-strain",
      "service": "igdb"
    }
  ],
  "aliases": [],
  "shaders": [],
  "discord_id": "",
  "change_for": null
}