{
  "id": 195004,
  "name": "Sudoku Minimalist Infinite",
  "slug": "sudoku-minimalist-infinite",
  "year": null,
  "banner_url": "",
  "icon_url": "",
  "coverart": "https://lutris.net/media/igdb/cover_big/co4q34.jpg",
  "platforms": [],
  "provider_games": [
    {
      "name": "Sudoku Minimalist Infinite",
      "slug": "sudoku-minimalist-infinite",
      "service": "igdb"
    }
  ],
  "aliases": [],
  "shaders": [],
  "discord_id": "",
  "change_for": null
}