{
  "id": 5943,
  "game_id": 14242,
  "game_slug": "argentum-age",
  "name": "Argentum Age",
  "year": 2017,
  "user": "predator8bit",
  "runner": "linux",
  "slug": "argentum-age-10579",
  "version": "1.0.579",
  "description": null,
  "notes": "",
  "credits": "",
  "created_at": "2017-10-12T21:48:40.171000Z",
  "updated_at": "2024-04-03T05:34:05.158963Z",
  "draft": false,
  "published": true,
  "published_by": null,
  "rating": "",
  "is_playable": null,
  "steamid": null,
  "gogid": null,
  "gogslug": "",
  "humbleid": "",
  "humblestoreid": "",
  "humblestoreid_real": "",
  "script": {
    "files": [
      {
        "argentum-age": "http://theargentlark.com/files/argentum-age.tar.bz2"
      }
    ],
    "game": {
      "exe": "run.sh"
    },
    "installer": [
      {
        "extract": {
          "dst": "$GAMEDIR",
          "file": "argentum-age",
          "format": "bz2"
        }
      }
    ],
    "system": {
      "disable_runtime": true
    }
  },
  "content": "files:\n- argentum-age: http://theargentlark.com/files/argentum-age.tar.bz2\ngame:\n  exe: run.sh\ninstaller:\n- extract:\n    dst: $GAMEDIR\n    file: argentum-age\n    format: bz2\nsystem:\n  disable_runtime: true\n",
  "discord_id": ""
}