{
  "id": 190880,
  "name": "World of Illusion Starring Mickey Mouse and Donald Duck",
  "slug": "world-of-illusion-starring-mickey-mouse-and-donald-duck",
  "year": 1992,
  "banner_url": "",
  "icon_url": "",
  "coverart": "https://lutris.net/media/igdb/cover_big/co2rwe.jpg",
  "platforms": [
    {
      "name": "Sega Genesis / Mega Drive"
    }
  ],
  "provider_games": [
    {
      "name": "World of Illusion Starring Mickey Mouse and Donald Duck",
      "slug": "world-of-illusion-starring-mickey-mouse-and-donald-duck",
      "service": "igdb"
    }
  ],
  "aliases": [],
  "shaders": [],
  "discord_id": "",
  "change_for": null
}