{
  "id": 206758,
  "name": "Punished Talents: Dark Knowledge Collector’s Edition",
  "slug": "punished-talents-dark-knowledge-collectors-edition",
  "year": null,
  "banner_url": "",
  "icon_url": "",
  "coverart": "https://lutris.net/media/igdb/cover_big/co5urh.jpg",
  "platforms": [
    {
      "name": "Windows"
    }
  ],
  "provider_games": [
    {
      "name": "Punished Talents: Dark Knowledge - Collector's Edition",
      "slug": "punished-talents-dark-knowledge-collectors-edition",
      "service": "igdb"
    }
  ],
  "aliases": [],
  "shaders": [],
  "discord_id": "",
  "change_for": null
}