{
  "id": 179220,
  "name": "REPLIKATOR",
  "slug": "replikator",
  "year": 2021,
  "banner_url": "https://lutris.net/games/banner/replikator.jpg",
  "icon_url": "",
  "coverart": "https://lutris.net/media/igdb/cover_big/co31ez.jpg",
  "platforms": [
    {
      "name": "Windows"
    }
  ],
  "provider_games": [
    {
      "name": "Replikator",
      "slug": "replikator",
      "service": "igdb"
    },
    {
      "name": "REPLIKATOR",
      "slug": "1576370",
      "service": "steam"
    },
    {
      "name": "REPLIKATOR",
      "slug": "1092065140",
      "service": "gog"
    }
  ],
  "aliases": [],
  "shaders": [],
  "discord_id": "",
  "change_for": null
}