{
  "id": 169190,
  "name": "Brothers Conflict: Precious Baby",
  "slug": "brothers-conflict-precious-baby",
  "year": 2016,
  "banner_url": "",
  "icon_url": "",
  "coverart": "https://lutris.net/media/igdb/cover_big/co3m8f.jpg",
  "platforms": [
    {
      "name": "Nintendo Switch"
    },
    {
      "name": "PlayStation Vita"
    }
  ],
  "provider_games": [
    {
      "name": "Brothers Conflict: Precious Baby",
      "slug": "brothers-conflict-precious-baby",
      "service": "igdb"
    }
  ],
  "aliases": [],
  "shaders": [],
  "discord_id": "",
  "change_for": null
}