{
  "id": 16736,
  "name": "Bubsy: The Woolies Strike Back",
  "slug": "bubsy-the-woolies-strike-back",
  "year": 2017,
  "banner_url": "https://lutris.net/games/banner/bubsy-the-woolies-strike-back.jpg",
  "icon_url": "https://lutris.net/games/icon/bubsy-the-woolies-strike-back.png",
  "coverart": null,
  "platforms": [
    {
      "name": "Sony Playstation 4"
    },
    {
      "name": "Windows"
    }
  ],
  "provider_games": [
    {
      "name": "Bubsy: The Woolies Strike Back",
      "slug": "627910",
      "service": "steam"
    },
    {
      "name": "Bubsy: The Woolies Strike Back",
      "slug": "1503510643",
      "service": "gog"
    },
    {
      "name": "Bubsy: The Woolies Strike Back",
      "slug": "bubsy-the-woolies-strike-back",
      "service": "igdb"
    }
  ],
  "aliases": [],
  "shaders": [],
  "discord_id": "",
  "change_for": null
}