{
  "id": 216040,
  "name": "Spirit & Stone",
  "slug": "spirit-and-stone",
  "year": null,
  "banner_url": "",
  "icon_url": "",
  "coverart": "https://lutris.net/media/igdb/cover_big/co58gd.jpg",
  "platforms": [],
  "provider_games": [
    {
      "name": "Spirit & Stone",
      "slug": "spirit-and-stone",
      "service": "igdb"
    }
  ],
  "aliases": [],
  "shaders": [],
  "discord_id": "",
  "change_for": null
}