{
  "id": 39386,
  "name": "Us Lovely Corpses",
  "slug": "us-lovely-corpses",
  "year": 2018,
  "banner_url": "https://lutris.net/games/banner/us-lovely-corpses.jpg",
  "icon_url": "",
  "coverart": "https://lutris.net/media/igdb/cover_big/co2cdy.jpg",
  "platforms": [
    {
      "name": "Linux"
    },
    {
      "name": "Mac"
    },
    {
      "name": "Windows"
    }
  ],
  "provider_games": [
    {
      "name": "Us Lovely Corpses",
      "slug": "us-lovely-corpses",
      "service": "igdb"
    }
  ],
  "aliases": [],
  "shaders": [],
  "discord_id": "",
  "change_for": null
}