{
  "id": 14489,
  "name": "Knight of the Hamsters",
  "slug": "knight-of-the-hamsters",
  "year": 2015,
  "banner_url": "https://lutris.net/games/banner/knight-of-the-hamsters.jpg",
  "icon_url": "https://lutris.net/games/icon/knight-of-the-hamsters.png",
  "coverart": null,
  "platforms": [
    {
      "name": "Windows"
    }
  ],
  "provider_games": [
    {
      "name": "Knight of the Hamsters",
      "slug": "328650",
      "service": "steam"
    },
    {
      "name": "Knight of the Hamsters",
      "slug": "knight-of-the-hamsters",
      "service": "igdb"
    }
  ],
  "aliases": [],
  "shaders": [],
  "discord_id": "",
  "change_for": null
}