{
  "id": 108989,
  "name": "Cartoon Wars - Gunner",
  "slug": "cartoon-wars-gunner",
  "year": 2009,
  "banner_url": "",
  "icon_url": "",
  "coverart": "https://lutris.net/media/igdb/cover_big/co2xia.jpg",
  "platforms": [],
  "provider_games": [
    {
      "name": "Cartoon Wars - Gunner",
      "slug": "cartoon-wars-gunner",
      "service": "igdb"
    }
  ],
  "aliases": [],
  "shaders": [],
  "discord_id": "",
  "change_for": null
}