{
  "id": 184535,
  "name": "Trail Mix",
  "slug": "trail-mix",
  "year": null,
  "banner_url": "",
  "icon_url": "",
  "coverart": "https://lutris.net/media/igdb/cover_big/co84p3.jpg",
  "platforms": [],
  "provider_games": [
    {
      "name": "Trail Mix",
      "slug": "trail-mix",
      "service": "igdb"
    }
  ],
  "aliases": [],
  "shaders": [],
  "discord_id": "",
  "change_for": null
}