{
  "id": 201035,
  "name": "Bloodied Fear",
  "slug": "bloodied-fear",
  "year": null,
  "banner_url": "",
  "icon_url": "",
  "coverart": "https://lutris.net/media/igdb/cover_big/co4puy.jpg",
  "platforms": [],
  "provider_games": [
    {
      "name": "Bloodied Fear",
      "slug": "bloodied-fear",
      "service": "igdb"
    }
  ],
  "aliases": [],
  "shaders": [],
  "discord_id": "",
  "change_for": null
}