{
  "id": 141938,
  "name": "Lifespawn",
  "slug": "lifespawn",
  "year": null,
  "banner_url": "",
  "icon_url": "",
  "coverart": "https://lutris.net/media/igdb/cover_big/co3tcc.jpg",
  "platforms": [],
  "provider_games": [
    {
      "name": "Lifespawn",
      "slug": "lifespawn",
      "service": "igdb"
    }
  ],
  "aliases": [],
  "shaders": [],
  "discord_id": "",
  "change_for": null
}