{
  "id": 37945,
  "game_id": 135845,
  "game_slug": "destiny-island",
  "name": "Destiny Island",
  "year": null,
  "user": "vanstaveren",
  "runner": "steam",
  "slug": "destiny-island-steam",
  "version": "steam",
  "description": "",
  "notes": "",
  "credits": "",
  "created_at": "2023-11-20T23:44:41.298713Z",
  "updated_at": "2023-11-20T23:44:41.298734Z",
  "draft": false,
  "published": true,
  "published_by": null,
  "rating": "",
  "is_playable": null,
  "steamid": null,
  "gogid": null,
  "gogslug": "",
  "humbleid": "",
  "humblestoreid": "",
  "humblestoreid_real": "",
  "script": {
    "game": {
      "appid": 1522180
    }
  },
  "content": "game:\n  appid: 1522180\n",
  "discord_id": ""
}