{
  "id": 44419,
  "name": "Hoa",
  "slug": "hoa",
  "year": 2021,
  "banner_url": "https://lutris.net/games/banner/hoa.jpg",
  "icon_url": "https://lutris.net/games/icon/hoa.png",
  "coverart": "https://lutris.net/media/igdb/cover_big/co2f7w.jpg",
  "platforms": [
    {
      "name": "Mac"
    },
    {
      "name": "Nintendo Switch"
    },
    {
      "name": "Sony Playstation 4"
    },
    {
      "name": "Sony PlayStation 5"
    },
    {
      "name": "Windows"
    },
    {
      "name": "Xbox One"
    },
    {
      "name": "Xbox Series X|S"
    }
  ],
  "provider_games": [
    {
      "name": "Hoa",
      "slug": "1075405163",
      "service": "gog"
    },
    {
      "name": "Hoa",
      "slug": "hoa",
      "service": "igdb"
    },
    {
      "name": "Hoa",
      "slug": "1484900",
      "service": "steam"
    }
  ],
  "aliases": [],
  "shaders": [],
  "discord_id": "",
  "change_for": null
}