{
  "id": 39272,
  "name": "Rogue Rocks",
  "slug": "rogue-rocks",
  "year": 2019,
  "banner_url": "https://lutris.net/games/banner/rogue-rocks.jpg",
  "icon_url": "",
  "coverart": "https://lutris.net/media/igdb/cover_big/co2chj.jpg",
  "platforms": [
    {
      "name": "Linux"
    },
    {
      "name": "Windows"
    }
  ],
  "provider_games": [
    {
      "name": "Rogue Rocks",
      "slug": "rogue-rocks",
      "service": "igdb"
    }
  ],
  "aliases": [],
  "shaders": [],
  "discord_id": "",
  "change_for": null
}