{
  "id": 231518,
  "name": "StormEdge",
  "slug": "stormedge",
  "year": null,
  "banner_url": "",
  "icon_url": "",
  "coverart": "https://lutris.net/media/igdb/cover_big/co68f0.jpg",
  "platforms": [],
  "provider_games": [
    {
      "name": "StormEdge",
      "slug": "stormedge",
      "service": "igdb"
    },
    {
      "name": "StormEdge",
      "slug": "1871009736",
      "service": "gog"
    }
  ],
  "aliases": [],
  "shaders": [],
  "discord_id": "",
  "change_for": null
}