{
  "id": 151393,
  "name": "A.I.M.2 Clan Wars",
  "slug": "a-dot-i-m-dot-2-clan-wars",
  "year": 2007,
  "banner_url": "",
  "icon_url": "",
  "coverart": "https://lutris.net/media/igdb/cover_big/co3kv6.jpg",
  "platforms": [
    {
      "name": "Windows"
    }
  ],
  "provider_games": [
    {
      "name": "A.I.M.2 Clan Wars",
      "slug": "a-dot-i-m-dot-2-clan-wars",
      "service": "igdb"
    },
    {
      "name": "A.I.M.2 Clan Wars",
      "slug": "1103597019",
      "service": "gog"
    }
  ],
  "aliases": [],
  "shaders": [],
  "discord_id": "",
  "change_for": null
}