{
  "id": 6829,
  "game_id": 1209,
  "game_slug": "east-india-company-gold",
  "name": "East India Company Gold",
  "year": null,
  "user": "soredake",
  "runner": "steam",
  "slug": "east-india-company-gold-proton",
  "version": "Proton",
  "description": null,
  "notes": "",
  "credits": "",
  "created_at": "2017-12-23T22:26:11.067823Z",
  "updated_at": "2021-05-04T02:43:05.400582Z",
  "draft": false,
  "published": true,
  "published_by": null,
  "rating": "",
  "is_playable": null,
  "steamid": 254000,
  "gogid": null,
  "gogslug": "",
  "humbleid": "",
  "humblestoreid": "",
  "humblestoreid_real": "",
  "script": {
    "game": {
      "appid": 254000
    }
  },
  "content": "game:\n  appid: 254000\n",
  "discord_id": ""
}