{
  "id": 87463,
  "name": "Wonder Gravity",
  "slug": "wonder-gravity",
  "year": 2018,
  "banner_url": "",
  "icon_url": "",
  "coverart": null,
  "platforms": [
    {
      "name": "Android"
    }
  ],
  "provider_games": [
    {
      "name": "Wonder Gravity",
      "slug": "wonder-gravity",
      "service": "igdb"
    }
  ],
  "aliases": [],
  "shaders": [],
  "discord_id": "",
  "change_for": null
}