{
  "id": 280855,
  "name": "O Conde de Monte Cristo",
  "slug": "o-conde-de-monte-cristo",
  "year": 1988,
  "banner_url": "",
  "icon_url": "",
  "coverart": "https://lutris.net/media/igdb/cover_big/co7zf4.jpg",
  "platforms": [
    {
      "name": "MSX"
    }
  ],
  "provider_games": [
    {
      "name": "O Conde de Monte Cristo",
      "slug": "o-conde-de-monte-cristo",
      "service": "igdb"
    }
  ],
  "aliases": [],
  "shaders": [],
  "discord_id": "",
  "change_for": null
}