{
  "id": 133001,
  "name": "GTA: La Heist",
  "slug": "gta-la-heist",
  "year": null,
  "banner_url": "",
  "icon_url": "",
  "coverart": "https://lutris.net/media/igdb/cover_big/co1ndv.jpg",
  "platforms": [],
  "provider_games": [
    {
      "name": "GTA: La Heist",
      "slug": "gta-la-heist",
      "service": "igdb"
    }
  ],
  "aliases": [],
  "shaders": [],
  "discord_id": "",
  "change_for": null
}