{
  "id": 282377,
  "name": "Cazzarion: Dart Wheel",
  "slug": "cazzarion-dart-wheel",
  "year": 2024,
  "banner_url": "",
  "icon_url": "",
  "coverart": "https://lutris.net/media/igdb/cover_big/co81jz.jpg",
  "platforms": [
    {
      "name": "Sony PlayStation 5"
    }
  ],
  "provider_games": [
    {
      "name": "Cazzarion: Dart Wheel",
      "slug": "cazzarion-dart-wheel",
      "service": "igdb"
    }
  ],
  "aliases": [],
  "shaders": [],
  "discord_id": "",
  "change_for": null
}