{
  "id": 161379,
  "name": "Flat Earths!",
  "slug": "flat-earths",
  "year": null,
  "banner_url": "",
  "icon_url": "",
  "coverart": "https://lutris.net/media/igdb/cover_big/co3zqq.jpg",
  "platforms": [],
  "provider_games": [
    {
      "name": "Flat Earths!",
      "slug": "flat-earths",
      "service": "igdb"
    }
  ],
  "aliases": [],
  "shaders": [],
  "discord_id": "",
  "change_for": null
}