{
  "id": 59253,
  "name": "Boss!",
  "slug": "boss",
  "year": null,
  "banner_url": "",
  "icon_url": "",
  "coverart": "https://lutris.net/media/igdb/cover_big/uawqwj4fklrrodzx8xnv.jpg",
  "platforms": [],
  "provider_games": [
    {
      "name": "Boss!",
      "slug": "boss",
      "service": "igdb"
    }
  ],
  "aliases": [],
  "shaders": [],
  "discord_id": "",
  "change_for": null
}