{
  "id": 145282,
  "name": "Cyclod",
  "slug": "cyclod",
  "year": 1982,
  "banner_url": "",
  "icon_url": "",
  "coverart": "https://lutris.net/media/igdb/cover_big/ztgtm2zjruy9kympb9es.jpg",
  "platforms": [
    {
      "name": "Apple II"
    },
    {
      "name": "Atari 8-bit"
    }
  ],
  "provider_games": [
    {
      "name": "Cyclod",
      "slug": "cyclod",
      "service": "igdb"
    }
  ],
  "aliases": [],
  "shaders": [],
  "discord_id": "",
  "change_for": null
}