{
  "id": 133707,
  "name": "Arc Wizards",
  "slug": "arc-wizards",
  "year": null,
  "banner_url": "",
  "icon_url": "",
  "coverart": "https://lutris.net/media/igdb/cover_big/co3lm0.jpg",
  "platforms": [],
  "provider_games": [
    {
      "name": "Arc Wizards",
      "slug": "arc-wizards",
      "service": "igdb"
    }
  ],
  "aliases": [],
  "shaders": [],
  "discord_id": "",
  "change_for": null
}