{
  "id": 33347,
  "name": "Astro Wars",
  "slug": "astro-wars",
  "year": 1980,
  "banner_url": "https://lutris.net/games/banner/astro-wars.jpg",
  "icon_url": "https://lutris.net/games/icon/astro-wars.png",
  "coverart": null,
  "platforms": [
    {
      "name": "Arcade"
    }
  ],
  "provider_games": [
    {
      "name": "Astro Wars",
      "slug": "astrowar",
      "service": "mame"
    },
    {
      "name": "Astro Wars",
      "slug": "astro-wars",
      "service": "igdb"
    }
  ],
  "aliases": [],
  "shaders": [],
  "discord_id": "",
  "change_for": null
}