{
  "id": 39134,
  "game_id": 156841,
  "game_slug": "towaga-among-shadows",
  "name": "Towaga: Among Shadows",
  "year": 2019,
  "user": "vanstaveren",
  "runner": "steam",
  "slug": "towaga-among-shadows-steam",
  "version": "steam",
  "description": "",
  "notes": "",
  "credits": "",
  "created_at": "2025-01-12T07:12:00.170214Z",
  "updated_at": "2025-01-12T07:12:00.170249Z",
  "draft": false,
  "published": true,
  "published_by": null,
  "rating": "",
  "is_playable": null,
  "steamid": 907600,
  "gogid": null,
  "gogslug": "",
  "humbleid": "",
  "humblestoreid": "",
  "humblestoreid_real": "",
  "script": {
    "game": {
      "appid": 907600
    }
  },
  "content": "game:\n  appid: 907600\n",
  "discord_id": ""
}