{
  "id": 232441,
  "name": "Heroes vs. Hordes",
  "slug": "heroes-vs-hordes",
  "year": 2022,
  "banner_url": "",
  "icon_url": "",
  "coverart": "https://lutris.net/media/igdb/cover_big/co6b4p.jpg",
  "platforms": [
    {
      "name": "Android"
    }
  ],
  "provider_games": [
    {
      "name": "Heroes vs. Hordes",
      "slug": "heroes-vs-hordes",
      "service": "igdb"
    }
  ],
  "aliases": [],
  "shaders": [],
  "discord_id": "",
  "change_for": null
}