{
  "id": 254891,
  "name": "Cannon Fotter",
  "slug": "cannon-fotter",
  "year": null,
  "banner_url": "",
  "icon_url": "",
  "coverart": "https://lutris.net/media/igdb/cover_big/co6wd7.jpg",
  "platforms": [],
  "provider_games": [
    {
      "name": "Cannon Fotter",
      "slug": "cannon-fotter",
      "service": "igdb"
    }
  ],
  "aliases": [],
  "shaders": [],
  "discord_id": "",
  "change_for": null
}