{
  "id": 92733,
  "name": "Still Here... A cute Adventure",
  "slug": "still-here-dot-dot-dot-a-cute-adventure",
  "year": null,
  "banner_url": "",
  "icon_url": "",
  "coverart": null,
  "platforms": [],
  "provider_games": [
    {
      "name": "Still Here... A cute Adventure",
      "slug": "still-here-dot-dot-dot-a-cute-adventure",
      "service": "igdb"
    }
  ],
  "aliases": [],
  "shaders": [],
  "discord_id": "",
  "change_for": null
}