{
  "id": 10769,
  "name": "Void Vikings",
  "slug": "void-vikings",
  "year": 2018,
  "banner_url": "https://lutris.net/games/banner/void-vikings.jpg",
  "icon_url": "https://lutris.net/games/icon/void-vikings.png",
  "coverart": "https://lutris.net/media/igdb/cover_big/co269v.jpg",
  "platforms": [
    {
      "name": "Mac"
    },
    {
      "name": "Windows"
    },
    {
      "name": "Xbox One"
    }
  ],
  "provider_games": [
    {
      "name": "Void Vikings",
      "slug": "440660",
      "service": "steam"
    },
    {
      "name": "Void Vikings",
      "slug": "void-vikings",
      "service": "igdb"
    }
  ],
  "aliases": [],
  "shaders": [],
  "discord_id": "",
  "change_for": null
}