{
  "id": 95693,
  "name": "Ocean Nomad",
  "slug": "ocean-nomad",
  "year": null,
  "banner_url": "",
  "icon_url": "",
  "coverart": null,
  "platforms": [],
  "provider_games": [
    {
      "name": "Ocean Nomad",
      "slug": "ocean-nomad",
      "service": "igdb"
    }
  ],
  "aliases": [],
  "shaders": [],
  "discord_id": "",
  "change_for": null
}