{
  "id": 13091,
  "game_id": 16734,
  "game_slug": "sudden-strike-gold",
  "name": "Sudden Strike Gold",
  "year": 2017,
  "user": "Turbid",
  "runner": "wine",
  "slug": "sudden-strike-gold-gog",
  "version": "GOG",
  "description": null,
  "notes": "",
  "credits": "",
  "created_at": "2019-04-25T15:24:53.085000Z",
  "updated_at": "2019-04-27T05:53:41.675488Z",
  "draft": false,
  "published": true,
  "published_by": 19464,
  "rating": "",
  "is_playable": null,
  "steamid": 612300,
  "gogid": 1248581604,
  "gogslug": "sudden_strike_gold",
  "humbleid": "",
  "humblestoreid": "",
  "humblestoreid_real": "",
  "script": {
    "files": [
      {
        "setup": "N/A:Select the GOG setup exe"
      }
    ],
    "game": {
      "arch": "win32",
      "exe": "drive_c/GOG Games/Sudden Strike/GAME_EXE.EXE",
      "prefix": "$GAMEDIR"
    },
    "installer": [
      {
        "task": {
          "arch": "win32",
          "name": "create_prefix",
          "prefix": "$GAMEDIR"
        }
      },
      {
        "task": {
          "args": "/LANG=en /SP- /NOCANCEL /SUPPRESSMSGBOXES",
          "description": "Installing Sudden Strike",
          "executable": "setup",
          "name": "wineexec",
          "prefix": "$GAMEDIR"
        }
      }
    ]
  },
  "content": "files:\n- setup: N/A:Select the GOG setup exe\ngame:\n  arch: win32\n  exe: drive_c/GOG Games/Sudden Strike/GAME_EXE.EXE\n  prefix: $GAMEDIR\ninstaller:\n- task:\n    arch: win32\n    name: create_prefix\n    prefix: $GAMEDIR\n- task:\n    args: /LANG=en /SP- /NOCANCEL /SUPPRESSMSGBOXES\n    description: Installing Sudden Strike\n    executable: setup\n    name: wineexec\n    prefix: $GAMEDIR\n",
  "discord_id": ""
}