{
  "id": 213193,
  "name": "The Legend of Zelda: Breath of the Wild - Starter Edition",
  "slug": "the-legend-of-zelda-breath-of-the-wild-starter-edition",
  "year": 2018,
  "banner_url": "",
  "icon_url": "",
  "coverart": "https://lutris.net/media/igdb/cover_big/co5ws4.jpg",
  "platforms": [
    {
      "name": "Nintendo Switch"
    }
  ],
  "provider_games": [
    {
      "name": "The Legend of Zelda: Breath of the Wild - Starter Edition",
      "slug": "the-legend-of-zelda-breath-of-the-wild-starter-edition",
      "service": "igdb"
    }
  ],
  "aliases": [],
  "shaders": [],
  "discord_id": "",
  "change_for": null
}