{
  "id": 302327,
  "name": "City Tales: Medieval Era",
  "slug": "city-tales-medieval-era",
  "year": 2025,
  "banner_url": "",
  "icon_url": "",
  "coverart": "https://lutris.net/media/igdb/cover_big/co94c7.jpg",
  "platforms": [
    {
      "name": "Windows"
    }
  ],
  "provider_games": [
    {
      "name": "City Tales: Medieval Era",
      "slug": "city-tales-medieval-era",
      "service": "igdb"
    }
  ],
  "aliases": [],
  "shaders": [],
  "discord_id": "",
  "change_for": null
}