{
  "id": 136205,
  "name": "Drone Gladiator",
  "slug": "drone-gladiator",
  "year": null,
  "banner_url": "",
  "icon_url": "",
  "coverart": "https://lutris.net/media/igdb/cover_big/co3ozr.jpg",
  "platforms": [],
  "provider_games": [
    {
      "name": "Drone Gladiator",
      "slug": "drone-gladiator",
      "service": "igdb"
    }
  ],
  "aliases": [],
  "shaders": [],
  "discord_id": "",
  "change_for": null
}