{
  "id": 161513,
  "name": "Odyssey: The Search for Ulysses",
  "slug": "odyssey-the-search-for-ulysses",
  "year": 2000,
  "banner_url": "",
  "icon_url": "",
  "coverart": "https://lutris.net/media/igdb/cover_big/co3zvc.jpg",
  "platforms": [
    {
      "name": "Windows"
    }
  ],
  "provider_games": [
    {
      "name": "Odyssey: The Search for Ulysses",
      "slug": "odyssey-the-search-for-ulysses",
      "service": "igdb"
    }
  ],
  "aliases": [],
  "shaders": [],
  "discord_id": "",
  "change_for": null
}