{
  "id": 261130,
  "name": "Hard Battle",
  "slug": "hard-battle",
  "year": null,
  "banner_url": "",
  "icon_url": "",
  "coverart": null,
  "platforms": [
    {
      "name": "X68000"
    }
  ],
  "provider_games": [
    {
      "name": "Hard Battle",
      "slug": "hard-battle",
      "service": "igdb"
    }
  ],
  "aliases": [],
  "shaders": [],
  "discord_id": "",
  "change_for": null
}