{
  "id": 198752,
  "name": "Slice of Life Fantasy",
  "slug": "slice-of-life-fantasy",
  "year": null,
  "banner_url": "",
  "icon_url": "",
  "coverart": "https://lutris.net/media/igdb/cover_big/co4gfu.jpg",
  "platforms": [],
  "provider_games": [
    {
      "name": "Slice of Life Fantasy",
      "slug": "slice-of-life-fantasy",
      "service": "igdb"
    }
  ],
  "aliases": [],
  "shaders": [],
  "discord_id": "",
  "change_for": null
}