{
  "id": 35537,
  "name": "The Adventures of Robby Roto!",
  "slug": "the-adventures-of-robby-roto",
  "year": 1981,
  "banner_url": "https://lutris.net/games/banner/the-adventures-of-robby-roto.jpg",
  "icon_url": "https://lutris.net/games/icon/the-adventures-of-robby-roto.png",
  "coverart": null,
  "platforms": [
    {
      "name": "Arcade"
    }
  ],
  "provider_games": [
    {
      "name": "The Adventures of Robby Roto!",
      "slug": "robby",
      "service": "mame"
    },
    {
      "name": "The Adventures of Robby Roto",
      "slug": "the-adventures-of-robby-roto",
      "service": "igdb"
    }
  ],
  "aliases": [],
  "shaders": [],
  "discord_id": "",
  "change_for": null
}