{
  "id": 271248,
  "name": "Alaa: Mogus Must Die",
  "slug": "alaa-mogus-must-die",
  "year": null,
  "banner_url": "",
  "icon_url": "",
  "coverart": "https://lutris.net/media/igdb/cover_big/co7o5h.jpg",
  "platforms": [],
  "provider_games": [
    {
      "name": "Alaa: Mogus Must Die",
      "slug": "alaa-mogus-must-die",
      "service": "igdb"
    }
  ],
  "aliases": [],
  "shaders": [],
  "discord_id": "",
  "change_for": null
}