{
  "id": 267611,
  "name": "The Emperor and State",
  "slug": "the-emperor-and-state",
  "year": null,
  "banner_url": "",
  "icon_url": "",
  "coverart": "https://lutris.net/media/igdb/cover_big/co7fzl.jpg",
  "platforms": [],
  "provider_games": [
    {
      "name": "The Emperor and State",
      "slug": "the-emperor-and-state",
      "service": "igdb"
    }
  ],
  "aliases": [],
  "shaders": [],
  "discord_id": "",
  "change_for": null
}