{
  "id": 2076,
  "name": "Star Conflict",
  "slug": "star-conflict",
  "year": 2014,
  "banner_url": "https://lutris.net/games/banner/star-conflict.jpg",
  "icon_url": "https://lutris.net/games/icon/star-conflict.png",
  "coverart": "https://lutris.net/media/igdb/cover_big/co1szt.jpg",
  "platforms": [
    {
      "name": "Linux"
    },
    {
      "name": "Mac"
    },
    {
      "name": "Windows"
    }
  ],
  "provider_games": [
    {
      "name": "Star Conflict",
      "slug": "212070",
      "service": "steam"
    },
    {
      "name": "Star Conflict",
      "slug": "star-conflict",
      "service": "igdb"
    }
  ],
  "aliases": [],
  "shaders": [],
  "discord_id": "451546138999390208",
  "change_for": null
}