{
  "id": 73724,
  "name": "Re:Monster ~The Goblin Reincarnation Chronicles~",
  "slug": "re-monster-the-goblin-reincarnation-chronicles",
  "year": null,
  "banner_url": "",
  "icon_url": "",
  "coverart": null,
  "platforms": [],
  "provider_games": [
    {
      "name": "Re:Monster ~The Goblin Reincarnation Chronicles~",
      "slug": "re-monster-the-goblin-reincarnation-chronicles",
      "service": "igdb"
    }
  ],
  "aliases": [],
  "shaders": [],
  "discord_id": "",
  "change_for": null
}