{
  "id": 140877,
  "name": "Persona 5 Royal: Phantom Thieves Edition",
  "slug": "persona-5-royal-phantom-thieves-edition",
  "year": 2020,
  "banner_url": "",
  "icon_url": "",
  "coverart": "https://lutris.net/media/igdb/cover_big/co2ous.jpg",
  "platforms": [
    {
      "name": "Sony Playstation 4"
    }
  ],
  "provider_games": [
    {
      "name": "Persona 5 Royal: Phantom Thieves Edition",
      "slug": "persona-5-royal-phantom-thieves-edition",
      "service": "igdb"
    }
  ],
  "aliases": [],
  "shaders": [],
  "discord_id": "",
  "change_for": null
}