{
  "id": 222366,
  "name": "Count Pumpcula",
  "slug": "count-pumpcula",
  "year": null,
  "banner_url": "",
  "icon_url": "",
  "coverart": "https://lutris.net/media/igdb/cover_big/co5d59.jpg",
  "platforms": [],
  "provider_games": [
    {
      "name": "Count Pumpcula",
      "slug": "count-pumpcula",
      "service": "igdb"
    }
  ],
  "aliases": [],
  "shaders": [],
  "discord_id": "",
  "change_for": null
}