{
  "id": 21713,
  "game_id": 37351,
  "game_slug": "one-dreamer-prologue",
  "name": "One Dreamer: Prologue",
  "year": 2020,
  "user": "vanstaveren",
  "runner": "steam",
  "slug": "one-dreamer-prologue-steam",
  "version": "steam",
  "description": null,
  "notes": "",
  "credits": "",
  "created_at": "2020-06-20T00:44:18.663784Z",
  "updated_at": "2021-12-13T19:10:38.822436Z",
  "draft": false,
  "published": true,
  "published_by": null,
  "rating": "",
  "is_playable": null,
  "steamid": null,
  "gogid": 1948292905,
  "gogslug": "one_dreamer_prologue",
  "humbleid": "",
  "humblestoreid": "",
  "humblestoreid_real": "",
  "script": {
    "game": {
      "appid": 1274140
    }
  },
  "content": "game:\n  appid: 1274140\n",
  "discord_id": ""
}