{
  "id": 262194,
  "name": "Football Academy: Build and Prove Your Football Knowledge",
  "slug": "football-academy-build-and-prove-your-football-knowledge",
  "year": 2009,
  "banner_url": "",
  "icon_url": "",
  "coverart": "https://lutris.net/media/igdb/cover_big/co76aj.jpg",
  "platforms": [
    {
      "name": "Nintendo DS"
    }
  ],
  "provider_games": [
    {
      "name": "Football Academy: Build and Prove Your Football Knowledge",
      "slug": "football-academy-build-and-prove-your-football-knowledge",
      "service": "igdb"
    }
  ],
  "aliases": [],
  "shaders": [],
  "discord_id": "",
  "change_for": null
}