{
  "id": 176075,
  "name": "Winter Games",
  "slug": "winter-games",
  "year": 1985,
  "banner_url": "",
  "icon_url": "",
  "coverart": "https://lutris.net/media/igdb/cover_big/z75gbgwozv0nncp6xmjk.jpg",
  "platforms": [
    {
      "name": "Amiga"
    },
    {
      "name": "Amstrad CPC"
    },
    {
      "name": "Apple II"
    },
    {
      "name": "Apple IIGS"
    },
    {
      "name": "Atari ST"
    },
    {
      "name": "Commodore C64/128"
    },
    {
      "name": "Family Computer Disk System"
    },
    {
      "name": "Mac"
    },
    {
      "name": "MSX"
    },
    {
      "name": "NES"
    },
    {
      "name": "Nintendo Wii"
    },
    {
      "name": "ZX Spectrum"
    }
  ],
  "provider_games": [
    {
      "name": "Winter Games",
      "slug": "winter-games",
      "service": "igdb"
    }
  ],
  "aliases": [],
  "shaders": [],
  "discord_id": "",
  "change_for": null
}