{
  "id": 1699,
  "game_id": 40,
  "game_slug": "teeworlds",
  "name": "Teeworlds",
  "year": 2013,
  "user": "RobLoach",
  "runner": "steam",
  "slug": "teeworlds-steam",
  "version": "Steam",
  "description": "",
  "notes": "http://store.steampowered.com/app/380840/",
  "credits": "",
  "created_at": "2015-11-06T01:29:23.887127Z",
  "updated_at": "2016-01-05T18:29:40.725997Z",
  "draft": false,
  "published": true,
  "published_by": null,
  "rating": "",
  "is_playable": null,
  "steamid": 380840,
  "gogid": null,
  "gogslug": "",
  "humbleid": "",
  "humblestoreid": "",
  "humblestoreid_real": "",
  "script": {
    "game": {
      "appid": 380840
    }
  },
  "content": "game:\n  appid: 380840\n",
  "discord_id": "451541853418815498"
}