{
  "id": 245167,
  "name": "Farmer Drift!",
  "slug": "farmer-drift",
  "year": null,
  "banner_url": "",
  "icon_url": "",
  "coverart": null,
  "platforms": [],
  "provider_games": [
    {
      "name": "Farmer Drift!",
      "slug": "farmer-drift",
      "service": "igdb"
    }
  ],
  "aliases": [],
  "shaders": [],
  "discord_id": "",
  "change_for": null
}