{
  "id": 280588,
  "name": "EA Sports Fantasy Football Live Score Tracker",
  "slug": "ea-sports-fantasy-football-live-score-tracker",
  "year": 2008,
  "banner_url": "",
  "icon_url": "",
  "coverart": null,
  "platforms": [
    {
      "name": "Sony Playstation 3"
    },
    {
      "name": "Xbox 360"
    }
  ],
  "provider_games": [
    {
      "name": "EA Sports Fantasy Football Live Score Tracker",
      "slug": "ea-sports-fantasy-football-live-score-tracker",
      "service": "igdb"
    }
  ],
  "aliases": [],
  "shaders": [],
  "discord_id": "",
  "change_for": null
}