{
  "id": 252662,
  "name": "Digital Makeover",
  "slug": "digital-makeover",
  "year": 1999,
  "banner_url": "",
  "icon_url": "",
  "coverart": null,
  "platforms": [
    {
      "name": "Windows"
    }
  ],
  "provider_games": [
    {
      "name": "Digital Makeover",
      "slug": "digital-makeover",
      "service": "igdb"
    }
  ],
  "aliases": [],
  "shaders": [],
  "discord_id": "",
  "change_for": null
}