{
  "id": 75863,
  "name": "Pajamorama",
  "slug": "pajamorama",
  "year": null,
  "banner_url": "",
  "icon_url": "",
  "coverart": null,
  "platforms": [],
  "provider_games": [
    {
      "name": "Pajamorama",
      "slug": "pajamorama",
      "service": "igdb"
    }
  ],
  "aliases": [],
  "shaders": [],
  "discord_id": "",
  "change_for": null
}