{
  "id": 244205,
  "name": "Rich Dad Simulator",
  "slug": "rich-dad-simulator",
  "year": null,
  "banner_url": "",
  "icon_url": "",
  "coverart": "https://lutris.net/media/igdb/cover_big/co6fse.jpg",
  "platforms": [],
  "provider_games": [
    {
      "name": "Rich Dad Simulator",
      "slug": "rich-dad-simulator",
      "service": "igdb"
    }
  ],
  "aliases": [],
  "shaders": [],
  "discord_id": "",
  "change_for": null
}