{
  "id": 20843,
  "name": "MegaRace 3",
  "slug": "megarace-3",
  "year": 2002,
  "banner_url": "https://lutris.net/games/banner/megarace-3.jpg",
  "icon_url": "https://lutris.net/games/icon/megarace-3.png",
  "coverart": "https://lutris.net/media/igdb/cover_big/co3nsc.jpg",
  "platforms": [
    {
      "name": "Sony PlayStation 2"
    },
    {
      "name": "Windows"
    }
  ],
  "provider_games": [
    {
      "name": "MegaRace 3",
      "slug": "1207658764",
      "service": "gog"
    },
    {
      "name": "MegaRace 3",
      "slug": "733770",
      "service": "steam"
    },
    {
      "name": "MegaRace 3",
      "slug": "megarace-3",
      "service": "igdb"
    }
  ],
  "aliases": [],
  "shaders": [],
  "discord_id": "",
  "change_for": null
}