{
  "id": 31129,
  "name": "The White Door",
  "slug": "the-white-door",
  "year": 2020,
  "banner_url": "https://lutris.net/games/banner/the-white-door.jpg",
  "icon_url": "https://lutris.net/games/icon/the-white-door.png",
  "coverart": "https://lutris.net/media/igdb/cover_big/co1mm9.jpg",
  "platforms": [
    {
      "name": "Android"
    },
    {
      "name": "Windows"
    }
  ],
  "provider_games": [
    {
      "name": "The White Door",
      "slug": "2078008465",
      "service": "gog"
    },
    {
      "name": "The White Door",
      "slug": "1145960",
      "service": "steam"
    },
    {
      "name": "The White Door",
      "slug": "the-white-door",
      "service": "igdb"
    }
  ],
  "aliases": [],
  "shaders": [],
  "discord_id": "",
  "change_for": null
}