{
  "id": 196361,
  "name": "Lost In The Space",
  "slug": "lost-in-the-space",
  "year": null,
  "banner_url": "",
  "icon_url": "",
  "coverart": "https://lutris.net/media/igdb/cover_big/co4ndw.jpg",
  "platforms": [],
  "provider_games": [
    {
      "name": "Lost in the Space",
      "slug": "lost-in-the-space",
      "service": "igdb"
    }
  ],
  "aliases": [],
  "shaders": [],
  "discord_id": "",
  "change_for": null
}