{
  "id": 256176,
  "name": "Moonlight Sculptor: Darkgamer",
  "slug": "moonlight-sculptor-darkgamer",
  "year": null,
  "banner_url": "",
  "icon_url": "",
  "coverart": "https://lutris.net/media/igdb/cover_big/co6yyb.jpg",
  "platforms": [
    {
      "name": "Windows"
    }
  ],
  "provider_games": [
    {
      "name": "Moonlight Sculptor: Darkgamer",
      "slug": "moonlight-sculptor-darkgamer",
      "service": "igdb"
    }
  ],
  "aliases": [],
  "shaders": [],
  "discord_id": "",
  "change_for": null
}