{
  "id": 36788,
  "game_id": 205779,
  "game_slug": "visite-virtuelle-de-lassemblee-nationale",
  "name": "Visite virtuelle de l'Assemblée nationale",
  "year": 2021,
  "user": "vanstaveren",
  "runner": "steam",
  "slug": "visite-virtuelle-de-lassemble-steam",
  "version": "steam",
  "description": "",
  "notes": "",
  "credits": "",
  "created_at": "2022-12-31T21:19:43.889018Z",
  "updated_at": "2023-01-05T20:32:13.835531Z",
  "draft": false,
  "published": true,
  "published_by": 1,
  "rating": "",
  "is_playable": null,
  "steamid": null,
  "gogid": null,
  "gogslug": "",
  "humbleid": "",
  "humblestoreid": "",
  "humblestoreid_real": "",
  "script": {
    "game": {
      "appid": 1753400
    }
  },
  "content": "game:\n  appid: 1753400",
  "discord_id": null
}