{
  "id": 170756,
  "name": "The Abnormal Place",
  "slug": "the-abnormal-place",
  "year": null,
  "banner_url": "",
  "icon_url": "",
  "coverart": "https://lutris.net/media/igdb/cover_big/co46wg.jpg",
  "platforms": [],
  "provider_games": [
    {
      "name": "The Abnormal Place",
      "slug": "the-abnormal-place",
      "service": "igdb"
    }
  ],
  "aliases": [],
  "shaders": [],
  "discord_id": "",
  "change_for": null
}