{
  "id": 253309,
  "name": "The Rift Between Us",
  "slug": "the-rift-between-us",
  "year": null,
  "banner_url": "",
  "icon_url": "",
  "coverart": "https://lutris.net/media/igdb/cover_big/co6u5z.jpg",
  "platforms": [],
  "provider_games": [
    {
      "name": "The Rift Between Us",
      "slug": "the-rift-between-us",
      "service": "igdb"
    }
  ],
  "aliases": [],
  "shaders": [],
  "discord_id": "",
  "change_for": null
}