{
  "id": 162443,
  "name": "Stark Penitentiary",
  "slug": "stark-penitentiary",
  "year": 2021,
  "banner_url": "",
  "icon_url": "",
  "coverart": "https://lutris.net/media/igdb/cover_big/co4096.jpg",
  "platforms": [
    {
      "name": "Linux"
    },
    {
      "name": "Windows"
    }
  ],
  "provider_games": [
    {
      "name": "Stark Penitentiary",
      "slug": "stark-penitentiary",
      "service": "igdb"
    }
  ],
  "aliases": [],
  "shaders": [],
  "discord_id": "",
  "change_for": null
}