{
  "id": 239513,
  "name": "Mayhem Heroes",
  "slug": "mayhem-heroes",
  "year": null,
  "banner_url": "",
  "icon_url": "",
  "coverart": "https://lutris.net/media/igdb/cover_big/co62yr.jpg",
  "platforms": [],
  "provider_games": [
    {
      "name": "Mayhem Heroes",
      "slug": "mayhem-heroes",
      "service": "igdb"
    }
  ],
  "aliases": [],
  "shaders": [],
  "discord_id": "",
  "change_for": null
}