{
  "id": 77409,
  "name": "Mobile Suit Gundam: Operation: Troy",
  "slug": "mobile-suit-gundam-operation-troy",
  "year": 2008,
  "banner_url": "",
  "icon_url": "",
  "coverart": "https://lutris.net/media/igdb/cover_big/bcfwehduchpu7f0qqdkc.jpg",
  "platforms": [
    {
      "name": "Xbox 360"
    }
  ],
  "provider_games": [
    {
      "name": "Mobile Suit Gundam: Operation - Troy",
      "slug": "mobile-suit-gundam-operation-troy",
      "service": "igdb"
    }
  ],
  "aliases": [],
  "shaders": [],
  "discord_id": "",
  "change_for": null
}