{
  "id": 298783,
  "name": "Into Black",
  "slug": "into-black",
  "year": 2024,
  "banner_url": "",
  "icon_url": "",
  "coverart": "https://lutris.net/media/igdb/cover_big/co8xn2.jpg",
  "platforms": [
    {
      "name": "Oculus Quest 2"
    }
  ],
  "provider_games": [
    {
      "name": "Into Black",
      "slug": "into-black",
      "service": "igdb"
    }
  ],
  "aliases": [],
  "shaders": [],
  "discord_id": "",
  "change_for": null
}