{
  "id": 228660,
  "name": "McPixel 3 Demo",
  "slug": "mcpixel-3-demo",
  "year": null,
  "banner_url": "",
  "icon_url": "",
  "coverart": null,
  "platforms": [],
  "provider_games": [
    {
      "name": "McPixel 3 Demo",
      "slug": "1803215870",
      "service": "gog"
    }
  ],
  "aliases": [],
  "shaders": [],
  "discord_id": "",
  "change_for": null
}