{
  "id": 268603,
  "name": "Purgatory Salvation",
  "slug": "purgatory-salvation",
  "year": null,
  "banner_url": "",
  "icon_url": "",
  "coverart": "https://lutris.net/media/igdb/cover_big/co7gfw.jpg",
  "platforms": [],
  "provider_games": [
    {
      "name": "Purgatory Salvation",
      "slug": "purgatory-salvation",
      "service": "igdb"
    }
  ],
  "aliases": [],
  "shaders": [],
  "discord_id": "",
  "change_for": null
}