{
  "id": 228686,
  "name": "Flowers - Le Volume Sur Ete",
  "slug": "flowers-le-volume-sur-ete-1",
  "year": 2018,
  "banner_url": "",
  "icon_url": "",
  "coverart": null,
  "platforms": [],
  "provider_games": [
    {
      "name": "Flowers - Le Volume Sur Ete",
      "slug": "1685981342",
      "service": "gog"
    }
  ],
  "aliases": [],
  "shaders": [],
  "discord_id": "",
  "change_for": null
}