{
  "id": 278828,
  "name": "Strategic Command WWII: War in the Pacific",
  "slug": "strategic-command-wwii-war-in-the-pacific",
  "year": null,
  "banner_url": "",
  "icon_url": "",
  "coverart": "https://lutris.net/media/igdb/cover_big/co7xgi.jpg",
  "platforms": [],
  "provider_games": [
    {
      "name": "Strategic Command WWII: War in the Pacific",
      "slug": "strategic-command-wwii-war-in-the-pacific",
      "service": "igdb"
    }
  ],
  "aliases": [],
  "shaders": [],
  "discord_id": "",
  "change_for": null
}