{
  "id": 270537,
  "name": "Kidou Senkan Nadesico: Ruriruri Mahjong",
  "slug": "kidou-senkan-nadesico-ruriruri-mahjong",
  "year": 1999,
  "banner_url": "",
  "icon_url": "",
  "coverart": "https://lutris.net/media/igdb/cover_big/co7l19.jpg",
  "platforms": [
    {
      "name": "Nintendo Game Boy Color"
    }
  ],
  "provider_games": [
    {
      "name": "Kidou Senkan Nadesico: Ruriruri Mahjong",
      "slug": "kidou-senkan-nadesico-ruriruri-mahjong",
      "service": "igdb"
    }
  ],
  "aliases": [],
  "shaders": [],
  "discord_id": "",
  "change_for": null
}