{
  "id": 31477,
  "name": "HEPH",
  "slug": "heph",
  "year": 2017,
  "banner_url": "https://lutris.net/games/banner/heph.jpg",
  "icon_url": "https://lutris.net/games/icon/heph.png",
  "coverart": "https://lutris.net/media/igdb/cover_big/co2blg.jpg",
  "platforms": [
    {
      "name": "Windows"
    }
  ],
  "provider_games": [
    {
      "name": "HEPH",
      "slug": "567480",
      "service": "steam"
    },
    {
      "name": "Heph",
      "slug": "heph",
      "service": "igdb"
    }
  ],
  "aliases": [],
  "shaders": [],
  "discord_id": "",
  "change_for": null
}