{
  "id": 106222,
  "name": "Katamari Forever",
  "slug": "katamari-forever",
  "year": 2009,
  "banner_url": "",
  "icon_url": "",
  "coverart": "https://lutris.net/media/igdb/cover_big/co244v.jpg",
  "platforms": [
    {
      "name": "Sony Playstation 3"
    }
  ],
  "provider_games": [
    {
      "name": "Katamari Forever",
      "slug": "katamari-forever",
      "service": "igdb"
    }
  ],
  "aliases": [],
  "shaders": [],
  "discord_id": "",
  "change_for": null
}