{
  "id": 80116,
  "name": "FIFA Soccer 09 All-Play",
  "slug": "fifa-soccer-09-all-play",
  "year": 2008,
  "banner_url": "",
  "icon_url": "",
  "coverart": "https://lutris.net/media/igdb/cover_big/co207p.jpg",
  "platforms": [
    {
      "name": "Nintendo Wii"
    }
  ],
  "provider_games": [
    {
      "name": "FIFA Soccer 09 All-Play",
      "slug": "fifa-soccer-09-all-play",
      "service": "igdb"
    }
  ],
  "aliases": [],
  "shaders": [],
  "discord_id": "",
  "change_for": null
}