{
  "id": 96587,
  "name": "Only Shadows Left Behind",
  "slug": "only-shadows-left-behind",
  "year": null,
  "banner_url": "",
  "icon_url": "",
  "coverart": null,
  "platforms": [],
  "provider_games": [
    {
      "name": "Only Shadows Left Behind",
      "slug": "only-shadows-left-behind",
      "service": "igdb"
    }
  ],
  "aliases": [],
  "shaders": [],
  "discord_id": "",
  "change_for": null
}