{
  "id": 10802,
  "name": "3 Coins At School",
  "slug": "3-coins-at-school",
  "year": 2016,
  "banner_url": "https://lutris.net/games/banner/3-coins-at-school.jpg",
  "icon_url": "https://lutris.net/games/icon/3-coins-at-school.png",
  "coverart": "https://lutris.net/media/igdb/cover_big/co22fr.jpg",
  "platforms": [
    {
      "name": "Windows"
    }
  ],
  "provider_games": [
    {
      "name": "3 Coins At School",
      "slug": "462110",
      "service": "steam"
    },
    {
      "name": "3 Coins At School",
      "slug": "3-coins-at-school",
      "service": "igdb"
    }
  ],
  "aliases": [],
  "shaders": [],
  "discord_id": "",
  "change_for": null
}