{
  "id": 193523,
  "name": "Aegis Descent",
  "slug": "aegis-descent",
  "year": null,
  "banner_url": "",
  "icon_url": "",
  "coverart": "https://lutris.net/media/igdb/cover_big/co4pig.jpg",
  "platforms": [],
  "provider_games": [
    {
      "name": "Aegis Descent",
      "slug": "aegis-descent",
      "service": "igdb"
    }
  ],
  "aliases": [],
  "shaders": [],
  "discord_id": "",
  "change_for": null
}