{
  "id": 184117,
  "name": "Pencil Peril",
  "slug": "pencil-peril",
  "year": null,
  "banner_url": "",
  "icon_url": "",
  "coverart": null,
  "platforms": [],
  "provider_games": [
    {
      "name": "Pencil Peril",
      "slug": "pencil-peril",
      "service": "igdb"
    }
  ],
  "aliases": [],
  "shaders": [],
  "discord_id": "",
  "change_for": null
}