{
  "id": 77298,
  "name": "4 in One",
  "slug": "4-in-one",
  "year": null,
  "banner_url": "",
  "icon_url": "",
  "coverart": "https://lutris.net/media/igdb/cover_big/co4lgd.jpg",
  "platforms": [],
  "provider_games": [
    {
      "name": "4 in One",
      "slug": "4-in-one",
      "service": "igdb"
    }
  ],
  "aliases": [],
  "shaders": [],
  "discord_id": "",
  "change_for": null
}