{
  "id": 289196,
  "name": "Contained",
  "slug": "contained",
  "year": null,
  "banner_url": "",
  "icon_url": "",
  "coverart": "https://lutris.net/media/igdb/cover_big/co8djg.jpg",
  "platforms": [],
  "provider_games": [
    {
      "name": "Contained",
      "slug": "contained",
      "service": "igdb"
    }
  ],
  "aliases": [],
  "shaders": [],
  "discord_id": "",
  "change_for": null
}