{
  "id": 18811,
  "name": "Fruit Sudoku🍉 4",
  "slug": "fruit-sudoku-4",
  "year": null,
  "banner_url": "https://lutris.net/games/banner/fruit-sudoku-4.jpg",
  "icon_url": "https://lutris.net/games/icon/fruit-sudoku-4.png",
  "coverart": null,
  "platforms": [],
  "provider_games": [],
  "aliases": [],
  "shaders": [],
  "discord_id": "",
  "change_for": null
}