{
  "id": 277021,
  "name": "Dollmare",
  "slug": "dollmare",
  "year": null,
  "banner_url": "",
  "icon_url": "",
  "coverart": "https://lutris.net/media/igdb/cover_big/co7wm4.jpg",
  "platforms": [],
  "provider_games": [
    {
      "name": "Dollmare",
      "slug": "dollmare",
      "service": "igdb"
    }
  ],
  "aliases": [],
  "shaders": [],
  "discord_id": "",
  "change_for": null
}