{
  "id": 11059,
  "name": "GoNNER",
  "slug": "gonner",
  "year": 2016,
  "banner_url": "https://lutris.net/games/banner/gonner.jpg",
  "icon_url": "https://lutris.net/games/icon/gonner.png",
  "coverart": "https://lutris.net/media/igdb/cover_big/co24yg.jpg",
  "platforms": [
    {
      "name": "Linux"
    },
    {
      "name": "Mac"
    },
    {
      "name": "Nintendo Switch"
    },
    {
      "name": "Sony Playstation 4"
    },
    {
      "name": "Windows"
    }
  ],
  "provider_games": [
    {
      "name": "GoNNER BlüEBERRY EdiTION",
      "slug": "2056546893",
      "service": "gog"
    },
    {
      "name": "GoNNER",
      "slug": "437570",
      "service": "steam"
    },
    {
      "name": "Gonner",
      "slug": "gonner",
      "service": "igdb"
    }
  ],
  "aliases": [],
  "shaders": [],
  "discord_id": "425443673698861066",
  "change_for": null
}