{
  "id": 224686,
  "name": "Villwars",
  "slug": "villwars",
  "year": null,
  "banner_url": "",
  "icon_url": "",
  "coverart": "https://lutris.net/media/igdb/cover_big/co5i0q.jpg",
  "platforms": [],
  "provider_games": [
    {
      "name": "Villwars",
      "slug": "villwars",
      "service": "igdb"
    }
  ],
  "aliases": [],
  "shaders": [],
  "discord_id": "",
  "change_for": null
}