{
  "id": 65838,
  "name": "Firestorm: The Forest Fire Simulation Program",
  "slug": "firestorm-the-forest-fire-simulation-program",
  "year": null,
  "banner_url": "",
  "icon_url": "",
  "coverart": "https://lutris.net/media/igdb/cover_big/co9113.jpg",
  "platforms": [],
  "provider_games": [
    {
      "name": "Firestorm: The Forest Fire Simulation Program",
      "slug": "firestorm-the-forest-fire-simulation-program",
      "service": "igdb"
    }
  ],
  "aliases": [],
  "shaders": [],
  "discord_id": "",
  "change_for": null
}