{
  "id": 276172,
  "name": "The Darkness Below",
  "slug": "the-darkness-below",
  "year": null,
  "banner_url": "",
  "icon_url": "",
  "coverart": "https://lutris.net/media/igdb/cover_big/co7uxl.jpg",
  "platforms": [],
  "provider_games": [
    {
      "name": "The Darkness Below",
      "slug": "the-darkness-below",
      "service": "igdb"
    }
  ],
  "aliases": [],
  "shaders": [],
  "discord_id": "",
  "change_for": null
}