{
  "id": 229940,
  "name": "Man on Wire",
  "slug": "man-on-wire",
  "year": null,
  "banner_url": "",
  "icon_url": "",
  "coverart": null,
  "platforms": [],
  "provider_games": [
    {
      "name": "Man on Wire",
      "slug": "man-on-wire",
      "service": "igdb"
    }
  ],
  "aliases": [],
  "shaders": [],
  "discord_id": "",
  "change_for": null
}