{
  "id": 107865,
  "name": "The Fairly OddParents: Breakin' da Rules",
  "slug": "the-fairly-oddparents-breakin-da-rules",
  "year": 2003,
  "banner_url": "",
  "icon_url": "",
  "coverart": "https://lutris.net/media/igdb/cover_big/co2rl9.jpg",
  "platforms": [
    {
      "name": "Nintendo Game Boy Advance"
    },
    {
      "name": "Nintendo GameCube"
    },
    {
      "name": "Sony PlayStation 2"
    },
    {
      "name": "Windows"
    }
  ],
  "provider_games": [
    {
      "name": "The Fairly OddParents: Breakin' da Rules",
      "slug": "the-fairly-oddparents-breakin-da-rules",
      "service": "igdb"
    }
  ],
  "aliases": [],
  "shaders": [],
  "discord_id": "",
  "change_for": null
}