{
  "id": 160596,
  "name": "Hiscores! Gold",
  "slug": "hiscores-gold",
  "year": null,
  "banner_url": "",
  "icon_url": "",
  "coverart": "https://lutris.net/media/igdb/cover_big/co42hb.jpg",
  "platforms": [],
  "provider_games": [
    {
      "name": "Hiscores! Gold",
      "slug": "hiscores-gold",
      "service": "igdb"
    }
  ],
  "aliases": [],
  "shaders": [],
  "discord_id": "",
  "change_for": null
}