{
  "id": 70911,
  "name": "Raventhorne",
  "slug": "raventhorne",
  "year": null,
  "banner_url": "",
  "icon_url": "",
  "coverart": null,
  "platforms": [],
  "provider_games": [
    {
      "name": "Raventhorne",
      "slug": "raventhorne",
      "service": "igdb"
    }
  ],
  "aliases": [],
  "shaders": [],
  "discord_id": "",
  "change_for": null
}