{
  "id": 185858,
  "name": "Winter, 2001: Someone tell Luigi I love him",
  "slug": "winter-2001-someone-tell-luigi-i-love-him",
  "year": null,
  "banner_url": "",
  "icon_url": "",
  "coverart": null,
  "platforms": [],
  "provider_games": [
    {
      "name": "Winter, 2001: Someone tell Luigi I love him",
      "slug": "winter-2001-someone-tell-luigi-i-love-him",
      "service": "igdb"
    }
  ],
  "aliases": [],
  "shaders": [],
  "discord_id": "",
  "change_for": null
}