{
  "id": 297538,
  "name": "Decathlon DX",
  "slug": "decathlon-dx",
  "year": 2024,
  "banner_url": "",
  "icon_url": "",
  "coverart": "https://lutris.net/media/igdb/cover_big/co8rd1.jpg",
  "platforms": [
    {
      "name": "Nintendo Game Boy Color"
    }
  ],
  "provider_games": [
    {
      "name": "Decathlon DX",
      "slug": "decathlon-dx",
      "service": "igdb"
    }
  ],
  "aliases": [],
  "shaders": [],
  "discord_id": "",
  "change_for": null
}