{
  "id": 65659,
  "name": "Dragon Saber: After Story of Dragon Spirit",
  "slug": "dragon-saber-after-story-of-dragon-spirit",
  "year": null,
  "banner_url": "",
  "icon_url": "",
  "coverart": null,
  "platforms": [],
  "provider_games": [
    {
      "name": "Dragon Saber: After Story of Dragon Spirit",
      "slug": "dragon-saber-after-story-of-dragon-spirit",
      "service": "igdb"
    }
  ],
  "aliases": [],
  "shaders": [],
  "discord_id": "",
  "change_for": null
}