{
  "id": 301289,
  "name": "Kellogg's Marvel's Civil War VR",
  "slug": "kelloggs-marvels-civil-war-vr",
  "year": 2016,
  "banner_url": "",
  "icon_url": "",
  "coverart": "https://lutris.net/media/igdb/cover_big/co91zu.jpg",
  "platforms": [
    {
      "name": "Android"
    }
  ],
  "provider_games": [
    {
      "name": "Kellogg's Marvel's Civil War VR",
      "slug": "kelloggs-marvels-civil-war-vr",
      "service": "igdb"
    }
  ],
  "aliases": [],
  "shaders": [],
  "discord_id": "",
  "change_for": null
}