{
  "id": 162180,
  "name": "Dragon Ball Z 2 V",
  "slug": "dragon-ball-z-2-v",
  "year": 2004,
  "banner_url": "",
  "icon_url": "",
  "coverart": "https://lutris.net/media/igdb/cover_big/co406i.jpg",
  "platforms": [
    {
      "name": "Sony PlayStation 2"
    }
  ],
  "provider_games": [
    {
      "name": "Dragon Ball Z 2 V",
      "slug": "dragon-ball-z-2-v",
      "service": "igdb"
    }
  ],
  "aliases": [],
  "shaders": [],
  "discord_id": "",
  "change_for": null
}