{
  "id": 219962,
  "name": "Seasons of the Sorcerer",
  "slug": "seasons-of-the-sorcerer",
  "year": 2022,
  "banner_url": "",
  "icon_url": "",
  "coverart": "https://lutris.net/media/igdb/cover_big/co5kun.jpg",
  "platforms": [
    {
      "name": "Windows"
    }
  ],
  "provider_games": [
    {
      "name": "Seasons of the Sorcerer",
      "slug": "seasons-of-the-sorcerer",
      "service": "igdb"
    }
  ],
  "aliases": [],
  "shaders": [],
  "discord_id": "",
  "change_for": null
}