{
  "id": 167417,
  "name": "The Revenge of Sophia Red",
  "slug": "the-revenge-of-sophia-red",
  "year": null,
  "banner_url": "",
  "icon_url": "",
  "coverart": "https://lutris.net/media/igdb/cover_big/co442d.jpg",
  "platforms": [],
  "provider_games": [
    {
      "name": "The Revenge of Sophia Red",
      "slug": "the-revenge-of-sophia-red",
      "service": "igdb"
    }
  ],
  "aliases": [],
  "shaders": [],
  "discord_id": "",
  "change_for": null
}