{
  "id": 147897,
  "name": "Early Quest",
  "slug": "early-quest",
  "year": null,
  "banner_url": "",
  "icon_url": "",
  "coverart": "https://lutris.net/media/igdb/cover_big/co3pq2.jpg",
  "platforms": [],
  "provider_games": [
    {
      "name": "Early Quest",
      "slug": "early-quest",
      "service": "igdb"
    }
  ],
  "aliases": [],
  "shaders": [],
  "discord_id": "",
  "change_for": null
}