{
  "id": 59645,
  "name": "A Song for Viggo",
  "slug": "a-song-for-viggo",
  "year": null,
  "banner_url": "",
  "icon_url": "",
  "coverart": "https://lutris.net/media/igdb/cover_big/pujgirxpaans0wh2ctla.jpg",
  "platforms": [],
  "provider_games": [
    {
      "name": "A Song for Viggo",
      "slug": "a-song-for-viggo",
      "service": "igdb"
    }
  ],
  "aliases": [],
  "shaders": [],
  "discord_id": "",
  "change_for": null
}