{
  "id": 239786,
  "name": "Package Dudes",
  "slug": "package-dudes--1",
  "year": null,
  "banner_url": "",
  "icon_url": "",
  "coverart": "https://lutris.net/media/igdb/cover_big/co62ok.jpg",
  "platforms": [],
  "provider_games": [
    {
      "name": "Package Dudes",
      "slug": "package-dudes--1",
      "service": "igdb"
    }
  ],
  "aliases": [],
  "shaders": [],
  "discord_id": "",
  "change_for": null
}