{
  "id": 111950,
  "name": "4 Travellers: Play French",
  "slug": "4-travellers-play-french",
  "year": 2010,
  "banner_url": "",
  "icon_url": "",
  "coverart": "https://lutris.net/media/igdb/cover_big/defxi1hrzj86n4lxxy7r.jpg",
  "platforms": [
    {
      "name": "Nintendo DSi"
    }
  ],
  "provider_games": [
    {
      "name": "4 Travellers: Play French",
      "slug": "4-travellers-play-french",
      "service": "igdb"
    }
  ],
  "aliases": [],
  "shaders": [],
  "discord_id": "",
  "change_for": null
}