{
  "id": 157426,
  "name": "Faircroft's Antiques: Treasures of Treffenburg Collector's Edition",
  "slug": "faircrofts-antiques-treasures-of-treffenburg-collectors-edition",
  "year": 2021,
  "banner_url": "",
  "icon_url": "",
  "coverart": "https://lutris.net/media/igdb/cover_big/co4dgt.jpg",
  "platforms": [
    {
      "name": "Nintendo Switch"
    }
  ],
  "provider_games": [
    {
      "name": "Faircroft's Antiques: Treasures of Treffenburg Collector's Edition",
      "slug": "faircrofts-antiques-treasures-of-treffenburg-collectors-edition",
      "service": "igdb"
    }
  ],
  "aliases": [],
  "shaders": [],
  "discord_id": "",
  "change_for": null
}