{
  "id": 87231,
  "name": "Space Cobra Professional",
  "slug": "space-cobra-professional",
  "year": null,
  "banner_url": "",
  "icon_url": "",
  "coverart": "https://lutris.net/media/igdb/cover_big/ljvu5scsyeiwsjkzlwt6.jpg",
  "platforms": [],
  "provider_games": [
    {
      "name": "Space Cobra Professional",
      "slug": "space-cobra-professional",
      "service": "igdb"
    }
  ],
  "aliases": [],
  "shaders": [],
  "discord_id": "",
  "change_for": null
}