{
  "id": 164702,
  "name": "Sly Slime",
  "slug": "sly-slime",
  "year": null,
  "banner_url": "",
  "icon_url": "",
  "coverart": "https://lutris.net/media/igdb/cover_big/co41o7.jpg",
  "platforms": [],
  "provider_games": [
    {
      "name": "Sly Slime",
      "slug": "sly-slime",
      "service": "igdb"
    }
  ],
  "aliases": [],
  "shaders": [],
  "discord_id": "",
  "change_for": null
}