{
  "id": 56856,
  "name": "Street Sports Football",
  "slug": "street-sports-football",
  "year": 1988,
  "banner_url": "",
  "icon_url": "",
  "coverart": "https://lutris.net/media/igdb/cover_big/vlqjf1grksdrs16nkmpu.jpg",
  "platforms": [
    {
      "name": "Apple II"
    },
    {
      "name": "Commodore C64/128"
    }
  ],
  "provider_games": [
    {
      "name": "Street Sports Football",
      "slug": "street-sports-football",
      "service": "igdb"
    }
  ],
  "aliases": [],
  "shaders": [],
  "discord_id": "",
  "change_for": null
}