{
  "id": 95098,
  "name": "Level Up Button Gold",
  "slug": "level-up-button-gold",
  "year": null,
  "banner_url": "",
  "icon_url": "",
  "coverart": null,
  "platforms": [],
  "provider_games": [
    {
      "name": "Level Up Button Gold",
      "slug": "level-up-button-gold",
      "service": "igdb"
    }
  ],
  "aliases": [],
  "shaders": [],
  "discord_id": "",
  "change_for": null
}