{
  "id": 41962,
  "name": "Seek Girl Ⅶ",
  "slug": "seek-girl-vii",
  "year": 2020,
  "banner_url": "https://lutris.net/games/banner/seek-girl-vii.jpg",
  "icon_url": "https://lutris.net/games/icon/seek-girl-vii.png",
  "coverart": "https://lutris.net/media/igdb/cover_big/co3ufl.jpg",
  "platforms": [
    {
      "name": "Windows"
    }
  ],
  "provider_games": [
    {
      "name": "Seek Girl VII",
      "slug": "seek-girl-vii",
      "service": "igdb"
    },
    {
      "name": "Seek Girl Ⅶ",
      "slug": "1464930",
      "service": "steam"
    }
  ],
  "aliases": [],
  "shaders": [],
  "discord_id": "",
  "change_for": null
}