{
  "id": 63095,
  "name": "Dragoon Armor for Adult",
  "slug": "dragoon-armor-for-adult",
  "year": null,
  "banner_url": "",
  "icon_url": "",
  "coverart": "https://lutris.net/media/igdb/cover_big/vgofroykrdqkamyspp0s.jpg",
  "platforms": [],
  "provider_games": [
    {
      "name": "Dragoon Armor for Adult",
      "slug": "dragoon-armor-for-adult",
      "service": "igdb"
    }
  ],
  "aliases": [],
  "shaders": [],
  "discord_id": "",
  "change_for": null
}