{
  "id": 5696,
  "game_id": 13886,
  "game_slug": "da-new-guys-day-of-the-jackass",
  "name": "Da New Guys: Day of the Jackass",
  "year": 2012,
  "user": "FakeShemp",
  "runner": "ags",
  "slug": "da-new-guys-day-of-the-jackas-groupees",
  "version": "Groupees",
  "description": "Uses the files from the Windows installer from Groupees.",
  "notes": "",
  "credits": "",
  "created_at": "2017-09-11T18:07:21.394000Z",
  "updated_at": "2024-04-03T05:13:32.186596Z",
  "draft": false,
  "published": true,
  "published_by": null,
  "rating": "",
  "is_playable": null,
  "steamid": null,
  "gogid": null,
  "gogslug": "",
  "humbleid": "",
  "humblestoreid": "",
  "humblestoreid_real": "",
  "script": {
    "files": [
      {
        "file1": "N/A:Please select the Groupees installer"
      },
      {
        "file2": "https://lutris.nyc3.digitaloceanspaces.com/tools/innoextract/innoextract-1.8-dev-2019-01-13-linux.tar.xz"
      }
    ],
    "game": {
      "main_file": "Jackass.exe"
    },
    "installer": [
      {
        "extract": {
          "dst": "$CACHE",
          "file": "$file2"
        }
      },
      {
        "execute": {
          "args": "-d \"$CACHE\" \"$file1\"",
          "file": "$CACHE/innoextract"
        }
      },
      {
        "merge": {
          "dst": "$GAMEDIR",
          "src": "$CACHE/app"
        }
      }
    ]
  },
  "content": "files:\n- file1: N/A:Please select the Groupees installer\n- file2: https://lutris.nyc3.digitaloceanspaces.com/tools/innoextract/innoextract-1.8-dev-2019-01-13-linux.tar.xz\ngame:\n  main_file: Jackass.exe\ninstaller:\n- extract:\n    dst: $CACHE\n    file: $file2\n- execute:\n    args: -d \"$CACHE\" \"$file1\"\n    file: $CACHE/innoextract\n- merge:\n    dst: $GAMEDIR\n    src: $CACHE/app\n",
  "discord_id": ""
}