{
  "id": 267602,
  "name": "Os Cavaleiros do Zodíaco: A Guerra Galáctica",
  "slug": "os-cavaleiros-do-zodiaco-a-guerra-galactica",
  "year": null,
  "banner_url": "",
  "icon_url": "",
  "coverart": "https://lutris.net/media/igdb/cover_big/co7fv5.jpg",
  "platforms": [
    {
      "name": "Windows"
    }
  ],
  "provider_games": [
    {
      "name": "Os Cavaleiros do Zodíaco: A Guerra Galáctica",
      "slug": "os-cavaleiros-do-zodiaco-a-guerra-galactica",
      "service": "igdb"
    }
  ],
  "aliases": [],
  "shaders": [],
  "discord_id": "",
  "change_for": null
}