{
  "id": 32638,
  "name": "Mind the Vikings",
  "slug": "mind-the-vikings",
  "year": null,
  "banner_url": "https://lutris.net/games/banner/mind-the-vikings.jpg",
  "icon_url": "https://lutris.net/games/icon/mind-the-vikings.png",
  "coverart": "https://lutris.net/media/igdb/cover_big/o0ifplz0ttifmpigk8up.jpg",
  "platforms": [],
  "provider_games": [
    {
      "name": "Mind the Vikings",
      "slug": "765250",
      "service": "steam"
    },
    {
      "name": "Mind the Vikings",
      "slug": "mind-the-vikings",
      "service": "igdb"
    }
  ],
  "aliases": [],
  "shaders": [],
  "discord_id": "",
  "change_for": null
}