{
  "id": 207820,
  "name": "Ludus Mortis",
  "slug": "ludus-mortis",
  "year": null,
  "banner_url": "",
  "icon_url": "",
  "coverart": "https://lutris.net/media/igdb/cover_big/co5qrn.jpg",
  "platforms": [],
  "provider_games": [
    {
      "name": "Ludus Mortis",
      "slug": "ludus-mortis",
      "service": "igdb"
    },
    {
      "name": "Ludus Mortis",
      "slug": "1605563385",
      "service": "gog"
    }
  ],
  "aliases": [],
  "shaders": [],
  "discord_id": "",
  "change_for": null
}