{
  "id": 278085,
  "name": "Duck Dash",
  "slug": "duck-dash",
  "year": null,
  "banner_url": "",
  "icon_url": "",
  "coverart": "https://lutris.net/media/igdb/cover_big/co7vjw.jpg",
  "platforms": [],
  "provider_games": [
    {
      "name": "Duck Dash",
      "slug": "duck-dash",
      "service": "igdb"
    }
  ],
  "aliases": [],
  "shaders": [],
  "discord_id": "",
  "change_for": null
}