{
  "id": 257084,
  "name": "Search & Find: Hidden Objects",
  "slug": "search-and-find-hidden-objects",
  "year": null,
  "banner_url": "",
  "icon_url": "",
  "coverart": "https://lutris.net/media/igdb/cover_big/co70xh.jpg",
  "platforms": [],
  "provider_games": [
    {
      "name": "Search & Find: Hidden Objects",
      "slug": "search-and-find-hidden-objects",
      "service": "igdb"
    }
  ],
  "aliases": [],
  "shaders": [],
  "discord_id": "",
  "change_for": null
}