{
  "id": 18711,
  "name": "WireNet",
  "slug": "wirenet",
  "year": 2017,
  "banner_url": "https://lutris.net/games/banner/wirenet.jpg",
  "icon_url": "https://lutris.net/games/icon/wirenet.png",
  "coverart": null,
  "platforms": [
    {
      "name": "Windows"
    }
  ],
  "provider_games": [
    {
      "name": "WireNet",
      "slug": "687510",
      "service": "steam"
    },
    {
      "name": "WireNet",
      "slug": "wirenet",
      "service": "igdb"
    }
  ],
  "aliases": [],
  "shaders": [],
  "discord_id": "",
  "change_for": null
}