{
  "id": 255150,
  "name": "Endless Truck",
  "slug": "endless-truck",
  "year": null,
  "banner_url": "",
  "icon_url": "",
  "coverart": "https://lutris.net/media/igdb/cover_big/co6xbg.jpg",
  "platforms": [],
  "provider_games": [
    {
      "name": "Endless Truck",
      "slug": "endless-truck",
      "service": "igdb"
    }
  ],
  "aliases": [],
  "shaders": [],
  "discord_id": "",
  "change_for": null
}