{
  "id": 3221,
  "name": "Villagers and Heroes",
  "slug": "villagers-and-heroes",
  "year": 2014,
  "banner_url": "https://lutris.net/games/banner/villagers-and-heroes.jpg",
  "icon_url": "https://lutris.net/games/icon/villagers-and-heroes.png",
  "coverart": "https://lutris.net/media/igdb/cover_big/co296z.jpg",
  "platforms": [
    {
      "name": "Windows"
    }
  ],
  "provider_games": [
    {
      "name": "Villagers and Heroes",
      "slug": "263540",
      "service": "steam"
    },
    {
      "name": "Villagers and Heroes",
      "slug": "villagers-and-heroes",
      "service": "igdb"
    }
  ],
  "aliases": [],
  "shaders": [],
  "discord_id": "",
  "change_for": null
}