{
  "id": 133317,
  "name": "Zero Wrath Vendetta",
  "slug": "zero-wrath-vendetta",
  "year": 2020,
  "banner_url": "",
  "icon_url": "",
  "coverart": "https://lutris.net/media/igdb/cover_big/co3l1f.jpg",
  "platforms": [
    {
      "name": "Windows"
    }
  ],
  "provider_games": [
    {
      "name": "Zero Wrath Vendetta",
      "slug": "zero-wrath-vendetta",
      "service": "igdb"
    }
  ],
  "aliases": [],
  "shaders": [],
  "discord_id": "",
  "change_for": null
}