{
  "id": 287209,
  "name": "Anachron",
  "slug": "anachron",
  "year": null,
  "banner_url": "",
  "icon_url": "",
  "coverart": "https://lutris.net/media/igdb/cover_big/co89ev.jpg",
  "platforms": [],
  "provider_games": [
    {
      "name": "Anachron",
      "slug": "anachron",
      "service": "igdb"
    }
  ],
  "aliases": [],
  "shaders": [],
  "discord_id": "",
  "change_for": null
}