{
  "id": 120420,
  "name": "The Hive",
  "slug": "the-hive--1",
  "year": 2016,
  "banner_url": "",
  "icon_url": "",
  "coverart": "https://lutris.net/media/igdb/cover_big/co20qi.jpg",
  "platforms": [
    {
      "name": "Linux"
    },
    {
      "name": "Mac"
    },
    {
      "name": "Windows"
    }
  ],
  "provider_games": [
    {
      "name": "The Hive",
      "slug": "the-hive--1",
      "service": "igdb"
    },
    {
      "name": "The Hive",
      "slug": "1502691388",
      "service": "gog"
    }
  ],
  "aliases": [],
  "shaders": [],
  "discord_id": "",
  "change_for": null
}