{
  "id": 170400,
  "name": "Wear a rope",
  "slug": "wear-a-rope",
  "year": null,
  "banner_url": "",
  "icon_url": "",
  "coverart": "https://lutris.net/media/igdb/cover_big/co46p8.jpg",
  "platforms": [],
  "provider_games": [
    {
      "name": "Wear a rope",
      "slug": "wear-a-rope",
      "service": "igdb"
    }
  ],
  "aliases": [],
  "shaders": [],
  "discord_id": "",
  "change_for": null
}