{
  "id": 237929,
  "name": "Sacred Earth: Alternative",
  "slug": "sacred-earth-alternative",
  "year": 2023,
  "banner_url": "",
  "icon_url": "",
  "coverart": "https://lutris.net/media/igdb/cover_big/co649j.jpg",
  "platforms": [
    {
      "name": "Windows"
    }
  ],
  "provider_games": [
    {
      "name": "Sacred Earth: Alternative",
      "slug": "sacred-earth-alternative",
      "service": "igdb"
    }
  ],
  "aliases": [],
  "shaders": [],
  "discord_id": "",
  "change_for": null
}