{
  "id": 291623,
  "name": "Pintaris",
  "slug": "pintaris",
  "year": null,
  "banner_url": "",
  "icon_url": "",
  "coverart": "https://lutris.net/media/igdb/cover_big/co8ke2.jpg",
  "platforms": [],
  "provider_games": [
    {
      "name": "Pintaris",
      "slug": "pintaris",
      "service": "igdb"
    }
  ],
  "aliases": [],
  "shaders": [],
  "discord_id": "",
  "change_for": null
}