{
  "id": 234500,
  "name": "Mamegoma 2: Uchi no Ko ga Ichiban!",
  "slug": "mamegoma-2-uchi-no-ko-ga-ichiban",
  "year": 2008,
  "banner_url": "",
  "icon_url": "",
  "coverart": "https://lutris.net/media/igdb/cover_big/co68qn.jpg",
  "platforms": [
    {
      "name": "Nintendo DS"
    }
  ],
  "provider_games": [
    {
      "name": "Mamegoma 2: Uchi no Ko ga Ichiban!",
      "slug": "mamegoma-2-uchi-no-ko-ga-ichiban",
      "service": "igdb"
    }
  ],
  "aliases": [],
  "shaders": [],
  "discord_id": "",
  "change_for": null
}