{
  "id": 163992,
  "name": "Seek Girl:Fog Ⅰ",
  "slug": "seek-girl-fog-i",
  "year": 2020,
  "banner_url": "",
  "icon_url": "",
  "coverart": "https://lutris.net/media/igdb/cover_big/co40xq.jpg",
  "platforms": [
    {
      "name": "Windows"
    }
  ],
  "provider_games": [
    {
      "name": "Seek Girl:Fog I",
      "slug": "seek-girl-fog-i",
      "service": "igdb"
    }
  ],
  "aliases": [],
  "shaders": [],
  "discord_id": "",
  "change_for": null
}