{
  "id": 257376,
  "name": "Online Soccer Manager",
  "slug": "online-soccer-manager",
  "year": 2012,
  "banner_url": "",
  "icon_url": "",
  "coverart": null,
  "platforms": [
    {
      "name": "Android"
    }
  ],
  "provider_games": [
    {
      "name": "Online Soccer Manager",
      "slug": "online-soccer-manager",
      "service": "igdb"
    }
  ],
  "aliases": [],
  "shaders": [],
  "discord_id": "",
  "change_for": null
}