{
  "id": 188626,
  "name": "Interactive Portraits: Trans People in Japan",
  "slug": "interactive-portraits-trans-people-in-japan",
  "year": 2020,
  "banner_url": "",
  "icon_url": "",
  "coverart": "https://lutris.net/media/igdb/cover_big/co2cbf.jpg",
  "platforms": [
    {
      "name": "Linux"
    },
    {
      "name": "Mac"
    },
    {
      "name": "Windows"
    }
  ],
  "provider_games": [
    {
      "name": "Interactive Portraits: Trans People in Japan",
      "slug": "interactive-portraits-trans-people-in-japan",
      "service": "igdb"
    }
  ],
  "aliases": [],
  "shaders": [],
  "discord_id": "",
  "change_for": null
}