{
  "id": 76102,
  "name": "Mr. Pencil: The Lost Colors of Doodleburg!",
  "slug": "mr-pencil-the-lost-colors-of-doodleburg",
  "year": null,
  "banner_url": "",
  "icon_url": "",
  "coverart": null,
  "platforms": [],
  "provider_games": [
    {
      "name": "Mr. Pencil: The Lost Colors of Doodleburg!",
      "slug": "mr-pencil-the-lost-colors-of-doodleburg",
      "service": "igdb"
    }
  ],
  "aliases": [],
  "shaders": [],
  "discord_id": "",
  "change_for": null
}