{
  "id": 95079,
  "name": "Baldis Basics 2: High School",
  "slug": "baldis-basics-2-high-school",
  "year": null,
  "banner_url": "",
  "icon_url": "",
  "coverart": null,
  "platforms": [],
  "provider_games": [
    {
      "name": "Baldis Basics 2: High School",
      "slug": "baldis-basics-2-high-school",
      "service": "igdb"
    }
  ],
  "aliases": [],
  "shaders": [],
  "discord_id": "",
  "change_for": null
}