{
  "id": 5492,
  "name": "TRANSFORMERS: Devastation",
  "slug": "transformers-devastation",
  "year": 2015,
  "banner_url": "https://lutris.net/games/banner/transformers-devastation.jpg",
  "icon_url": "https://lutris.net/games/icon/transformers-devastation.png",
  "coverart": "https://lutris.net/media/igdb/cover_big/co2rqk.jpg",
  "platforms": [
    {
      "name": "Sony Playstation 3"
    },
    {
      "name": "Sony Playstation 4"
    },
    {
      "name": "Windows"
    },
    {
      "name": "Xbox 360"
    },
    {
      "name": "Xbox One"
    }
  ],
  "provider_games": [
    {
      "name": "Transformers: Devastation",
      "slug": "transformers-devastation",
      "service": "igdb"
    }
  ],
  "aliases": [],
  "shaders": [],
  "discord_id": "",
  "change_for": null
}