{
  "id": 65130,
  "name": "Roommate Complete Box",
  "slug": "roommate-complete-box",
  "year": null,
  "banner_url": "",
  "icon_url": "",
  "coverart": "https://lutris.net/media/igdb/cover_big/qtshgtevvyauif9hvqfw.jpg",
  "platforms": [],
  "provider_games": [
    {
      "name": "Roommate Complete Box",
      "slug": "roommate-complete-box",
      "service": "igdb"
    }
  ],
  "aliases": [],
  "shaders": [],
  "discord_id": "",
  "change_for": null
}