{
  "id": 170219,
  "name": "Inspire Footprints",
  "slug": "inspire-footprints",
  "year": null,
  "banner_url": "",
  "icon_url": "",
  "coverart": "https://lutris.net/media/igdb/cover_big/co46g7.jpg",
  "platforms": [],
  "provider_games": [
    {
      "name": "Inspire Footprints",
      "slug": "inspire-footprints",
      "service": "igdb"
    }
  ],
  "aliases": [],
  "shaders": [],
  "discord_id": "",
  "change_for": null
}