{
  "id": 107485,
  "name": "Bokura no School Battle",
  "slug": "bokura-no-school-battle",
  "year": null,
  "banner_url": "",
  "icon_url": "",
  "coverart": "https://lutris.net/media/igdb/cover_big/co2vao.jpg",
  "platforms": [],
  "provider_games": [
    {
      "name": "Bokura no School Battle",
      "slug": "bokura-no-school-battle",
      "service": "igdb"
    }
  ],
  "aliases": [],
  "shaders": [],
  "discord_id": "",
  "change_for": null
}