{
  "id": 300600,
  "name": "Hellslave: Project Z-Treme",
  "slug": "hellslave-project-z-treme",
  "year": null,
  "banner_url": "",
  "icon_url": "",
  "coverart": "https://lutris.net/media/igdb/cover_big/co902x.jpg",
  "platforms": [
    {
      "name": "Sega Saturn"
    }
  ],
  "provider_games": [
    {
      "name": "Hellslave: Project Z-Treme",
      "slug": "hellslave-project-z-treme",
      "service": "igdb"
    }
  ],
  "aliases": [],
  "shaders": [],
  "discord_id": "",
  "change_for": null
}