{
  "id": 203342,
  "name": "JezzBall Atomic",
  "slug": "jezzball-atomic",
  "year": null,
  "banner_url": "",
  "icon_url": "",
  "coverart": "https://lutris.net/media/igdb/cover_big/co4g87.jpg",
  "platforms": [],
  "provider_games": [
    {
      "name": "JezzBall Atomic",
      "slug": "jezzball-atomic",
      "service": "igdb"
    }
  ],
  "aliases": [],
  "shaders": [],
  "discord_id": "",
  "change_for": null
}