{
  "id": 200139,
  "name": "Whack Your Boss: Superhero",
  "slug": "whack-your-boss-superhero",
  "year": null,
  "banner_url": "",
  "icon_url": "",
  "coverart": null,
  "platforms": [],
  "provider_games": [
    {
      "name": "Whack Your Boss: Superhero",
      "slug": "whack-your-boss-superhero",
      "service": "igdb"
    }
  ],
  "aliases": [],
  "shaders": [],
  "discord_id": "",
  "change_for": null
}