{
  "id": 85831,
  "name": "Beach Volley Hot Sports",
  "slug": "beach-volley-hot-sports",
  "year": null,
  "banner_url": "",
  "icon_url": "",
  "coverart": null,
  "platforms": [],
  "provider_games": [
    {
      "name": "Beach Volley Hot Sports",
      "slug": "beach-volley-hot-sports",
      "service": "igdb"
    }
  ],
  "aliases": [],
  "shaders": [],
  "discord_id": "",
  "change_for": null
}