{
  "id": 259414,
  "name": "The Anime Super Remix: Kyojin no Hoshi",
  "slug": "the-anime-super-remix-kyojin-no-hoshi",
  "year": 2002,
  "banner_url": "",
  "icon_url": "",
  "coverart": "https://lutris.net/media/igdb/cover_big/co74vb.jpg",
  "platforms": [
    {
      "name": "Sony PlayStation 2"
    }
  ],
  "provider_games": [
    {
      "name": "The Anime Super Remix: Kyojin no Hoshi",
      "slug": "the-anime-super-remix-kyojin-no-hoshi",
      "service": "igdb"
    }
  ],
  "aliases": [],
  "shaders": [],
  "discord_id": "",
  "change_for": null
}