{
  "id": 25102,
  "name": "Pure Rock Crawling",
  "slug": "pure-rock-crawling",
  "year": null,
  "banner_url": "https://lutris.net/games/banner/pure-rock-crawling.jpg",
  "icon_url": "https://lutris.net/games/icon/pure-rock-crawling.png",
  "coverart": "https://lutris.net/media/igdb/cover_big/co3y41.jpg",
  "platforms": [],
  "provider_games": [
    {
      "name": "Pure Rock Crawling",
      "slug": "824720",
      "service": "steam"
    },
    {
      "name": "Pure Rock Crawling",
      "slug": "pure-rock-crawling",
      "service": "igdb"
    }
  ],
  "aliases": [],
  "shaders": [],
  "discord_id": "",
  "change_for": null
}