{
  "id": 84925,
  "name": "Slam - Shaq Vs. The Legends",
  "slug": "slam-shaq-vs-the-legends",
  "year": 1995,
  "banner_url": "",
  "icon_url": "",
  "coverart": "https://lutris.net/media/igdb/cover_big/bsfctrroab6qubpw324f.jpg",
  "platforms": [
    {
      "name": "Sega Genesis / Mega Drive"
    }
  ],
  "provider_games": [
    {
      "name": "Slam: Shaq vs. The Legends",
      "slug": "slam-shaq-vs-the-legends",
      "service": "igdb"
    }
  ],
  "aliases": [],
  "shaders": [],
  "discord_id": "",
  "change_for": null
}