{
  "id": 209511,
  "name": "Wuru Painting Scroll: Romance of Heaven and Earth",
  "slug": "wuru-painting-scroll-romance-of-heaven-and-earth",
  "year": 2022,
  "banner_url": "",
  "icon_url": "",
  "coverart": "https://lutris.net/media/igdb/cover_big/co59o1.jpg",
  "platforms": [
    {
      "name": "Windows"
    }
  ],
  "provider_games": [
    {
      "name": "Wuru Painting Scroll: Romance of Heaven and Earth",
      "slug": "wuru-painting-scroll-romance-of-heaven-and-earth",
      "service": "igdb"
    }
  ],
  "aliases": [],
  "shaders": [],
  "discord_id": "",
  "change_for": null
}