{
  "id": 182825,
  "name": "Dogforce: Seasons",
  "slug": "dogforce-seasons",
  "year": null,
  "banner_url": "",
  "icon_url": "",
  "coverart": null,
  "platforms": [],
  "provider_games": [
    {
      "name": "Dogforce: Seasons",
      "slug": "dogforce-seasons",
      "service": "igdb"
    }
  ],
  "aliases": [],
  "shaders": [],
  "discord_id": "",
  "change_for": null
}