{
  "id": 71597,
  "name": "Topple",
  "slug": "topple",
  "year": null,
  "banner_url": "",
  "icon_url": "",
  "coverart": "https://lutris.net/media/igdb/cover_big/co6oyq.jpg",
  "platforms": [],
  "provider_games": [
    {
      "name": "Topple",
      "slug": "topple",
      "service": "igdb"
    }
  ],
  "aliases": [],
  "shaders": [],
  "discord_id": "",
  "change_for": null
}