{
  "id": 117116,
  "name": "Gates of Zendocon",
  "slug": "gates-of-zendocon",
  "year": 1989,
  "banner_url": "",
  "icon_url": "",
  "coverart": "https://lutris.net/media/igdb/cover_big/co1ubo.jpg",
  "platforms": [
    {
      "name": "Atari Lynx"
    }
  ],
  "provider_games": [
    {
      "name": "Gates of Zendocon",
      "slug": "gates-of-zendocon",
      "service": "igdb"
    }
  ],
  "aliases": [],
  "shaders": [],
  "discord_id": "",
  "change_for": null
}