{
  "id": 30595,
  "name": "Eviternity",
  "slug": "eviternity",
  "year": 2019,
  "banner_url": "https://lutris.net/games/banner/eviternity.jpg",
  "icon_url": "",
  "coverart": "https://lutris.net/media/igdb/cover_big/co2dwn.jpg",
  "platforms": [
    {
      "name": "Linux"
    },
    {
      "name": "Windows"
    }
  ],
  "provider_games": [
    {
      "name": "Eviternity",
      "slug": "eviternity",
      "service": "igdb"
    }
  ],
  "aliases": [],
  "shaders": [],
  "discord_id": "",
  "change_for": null
}