{
  "id": 253112,
  "name": "Exilium",
  "slug": "exilium--1",
  "year": null,
  "banner_url": "",
  "icon_url": "",
  "coverart": "https://lutris.net/media/igdb/cover_big/co6txy.jpg",
  "platforms": [],
  "provider_games": [
    {
      "name": "Exilium",
      "slug": "exilium--1",
      "service": "igdb"
    }
  ],
  "aliases": [],
  "shaders": [],
  "discord_id": "",
  "change_for": null
}