{
  "id": 69066,
  "name": "Christmas Delivery",
  "slug": "christmas-delivery",
  "year": null,
  "banner_url": "",
  "icon_url": "",
  "coverart": "https://lutris.net/media/igdb/cover_big/egqqvndwplmfnzxac4kn.jpg",
  "platforms": [],
  "provider_games": [
    {
      "name": "Christmas Delivery",
      "slug": "christmas-delivery",
      "service": "igdb"
    }
  ],
  "aliases": [],
  "shaders": [],
  "discord_id": "",
  "change_for": null
}