{
  "id": 257121,
  "name": "The Nascent Necromancer",
  "slug": "the-nascent-necromancer",
  "year": null,
  "banner_url": "",
  "icon_url": "",
  "coverart": "https://lutris.net/media/igdb/cover_big/co70w1.jpg",
  "platforms": [],
  "provider_games": [
    {
      "name": "The Nascent Necromancer",
      "slug": "the-nascent-necromancer",
      "service": "igdb"
    }
  ],
  "aliases": [],
  "shaders": [],
  "discord_id": "",
  "change_for": null
}