{
  "id": 61386,
  "name": "Times of Conflict",
  "slug": "times-of-conflict",
  "year": null,
  "banner_url": "",
  "icon_url": "",
  "coverart": "https://lutris.net/media/igdb/cover_big/ysxpy5enakewnt0ursgn.jpg",
  "platforms": [],
  "provider_games": [
    {
      "name": "Times of Conflict",
      "slug": "times-of-conflict",
      "service": "igdb"
    }
  ],
  "aliases": [],
  "shaders": [],
  "discord_id": "",
  "change_for": null
}