{
  "id": 306850,
  "name": "Marshmallow Marvin",
  "slug": "marshmallow-marvin",
  "year": 2024,
  "banner_url": "",
  "icon_url": "",
  "coverart": "https://lutris.net/media/igdb/cover_big/co9ede.jpg",
  "platforms": [
    {
      "name": "Xbox Series X|S"
    }
  ],
  "provider_games": [
    {
      "name": "Marshmallow Marvin",
      "slug": "marshmallow-marvin",
      "service": "igdb"
    }
  ],
  "aliases": [],
  "shaders": [],
  "discord_id": "",
  "change_for": null
}