{
  "id": 14960,
  "name": "Naughty Or Nice",
  "slug": "naughty-or-nice",
  "year": 2016,
  "banner_url": "https://lutris.net/games/banner/naughty-or-nice.jpg",
  "icon_url": "https://lutris.net/games/icon/naughty-or-nice.png",
  "coverart": null,
  "platforms": [
    {
      "name": "Windows"
    }
  ],
  "provider_games": [
    {
      "name": "Naughty Or Nice",
      "slug": "574780",
      "service": "steam"
    },
    {
      "name": "Naughty or Nice",
      "slug": "naughty-or-nice",
      "service": "igdb"
    }
  ],
  "aliases": [],
  "shaders": [],
  "discord_id": "",
  "change_for": null
}