{
  "id": 8069,
  "name": "OLD PITCH-HIT (GET NEW IN STORE)",
  "slug": "old-pitch-hit-get-new-in-store",
  "year": null,
  "banner_url": "https://lutris.net/games/banner/old-pitch-hit-get-new-in-store.jpg",
  "icon_url": "https://lutris.net/games/icon/old-pitch-hit-get-new-in-store.png",
  "coverart": null,
  "platforms": [],
  "provider_games": [
    {
      "name": "PITCH-HIT : DEMO",
      "slug": "453190",
      "service": "steam"
    }
  ],
  "aliases": [],
  "shaders": [],
  "discord_id": "",
  "change_for": null
}