{
  "id": 80563,
  "name": "Aggressor",
  "slug": "aggressor",
  "year": null,
  "banner_url": "",
  "icon_url": "",
  "coverart": null,
  "platforms": [
    {
      "name": "Acorn Archimedes"
    }
  ],
  "provider_games": [
    {
      "name": "Aggressor",
      "slug": "aggressor",
      "service": "igdb"
    }
  ],
  "aliases": [],
  "shaders": [],
  "discord_id": "",
  "change_for": null
}