{
  "id": 246056,
  "name": "Freshcharge Ruru",
  "slug": "freshcharge-ruru",
  "year": null,
  "banner_url": "",
  "icon_url": "",
  "coverart": "https://lutris.net/media/igdb/cover_big/co6j0z.jpg",
  "platforms": [],
  "provider_games": [
    {
      "name": "FreshCharge Ruru",
      "slug": "freshcharge-ruru",
      "service": "igdb"
    }
  ],
  "aliases": [],
  "shaders": [],
  "discord_id": "",
  "change_for": null
}