{
  "id": 85585,
  "name": "Hamster Club 4: Shigessa Daidassou",
  "slug": "hamster-club-4-shigessa-daidassou",
  "year": 2003,
  "banner_url": "",
  "icon_url": "",
  "coverart": null,
  "platforms": [
    {
      "name": "Nintendo Game Boy Advance"
    }
  ],
  "provider_games": [
    {
      "name": "Hamster Club 4: Shigessa Daidassou",
      "slug": "hamster-club-4-shigessa-daidassou",
      "service": "igdb"
    }
  ],
  "aliases": [],
  "shaders": [],
  "discord_id": "",
  "change_for": null
}