{
  "id": 73039,
  "name": "Maria/Alchemist: Synthetist Maria's Tragedy",
  "slug": "maria-slash-alchemist-synthetist-marias-tragedy",
  "year": null,
  "banner_url": "",
  "icon_url": "",
  "coverart": null,
  "platforms": [],
  "provider_games": [
    {
      "name": "Maria/Alchemist: Synthetist Maria's Tragedy",
      "slug": "maria-slash-alchemist-synthetist-marias-tragedy",
      "service": "igdb"
    }
  ],
  "aliases": [],
  "shaders": [],
  "discord_id": "",
  "change_for": null
}