{
  "id": 5258,
  "game_id": 14945,
  "game_slug": "doom-1993",
  "name": "DOOM (1993)",
  "year": 1993,
  "user": "bacera",
  "runner": "zdoom",
  "slug": "doom-1993-shareware",
  "version": "Shareware",
  "description": "Downloads the free shareware (demo) version of Doom. No Steam required.",
  "notes": "",
  "credits": "",
  "created_at": "2017-08-03T01:35:43.248000Z",
  "updated_at": "2023-04-20T23:24:14.309393Z",
  "draft": false,
  "published": true,
  "published_by": 494,
  "rating": "",
  "is_playable": null,
  "steamid": 2280,
  "gogid": 1435827232,
  "gogslug": "doom_1993",
  "humbleid": "",
  "humblestoreid": "",
  "humblestoreid_real": "",
  "script": {
    "files": [
      {
        "iwad": "http://distro.ibiblio.org/pub/linux/distributions/slitaz/sources/packages/d/doom1.wad"
      }
    ],
    "game": {
      "main_file": "$GAMEDIR/doom1.wad"
    },
    "installer": [
      {
        "move": {
          "dst": "$GAMEDIR",
          "src": "$iwad"
        }
      }
    ]
  },
  "content": "files:\n- iwad: http://distro.ibiblio.org/pub/linux/distributions/slitaz/sources/packages/d/doom1.wad\ngame:\n  main_file: $GAMEDIR/doom1.wad\ninstaller:\n- move:\n    dst: $GAMEDIR\n    src: $iwad\n",
  "discord_id": null
}