{
  "id": 33659,
  "name": "Cheeky Mouse",
  "slug": "cheeky-mouse",
  "year": 1980,
  "banner_url": "https://lutris.net/games/banner/cheeky-mouse.jpg",
  "icon_url": "https://lutris.net/games/icon/cheeky-mouse.png",
  "coverart": "https://lutris.net/media/igdb/cover_big/co5uan.jpg",
  "platforms": [
    {
      "name": "Arcade"
    }
  ],
  "provider_games": [
    {
      "name": "Cheeky Mouse",
      "slug": "cheekyms",
      "service": "mame"
    },
    {
      "name": "Cheeky Mouse",
      "slug": "cheeky-mouse",
      "service": "igdb"
    }
  ],
  "aliases": [],
  "shaders": [],
  "discord_id": "",
  "change_for": null
}