{
  "id": 304312,
  "name": "Indoor Gardening Create Your Own Home Garden",
  "slug": "indoor-gardening-create-your-own-home-garden",
  "year": null,
  "banner_url": "",
  "icon_url": "",
  "coverart": "https://lutris.net/media/igdb/cover_big/co9aj6.jpg",
  "platforms": [],
  "provider_games": [
    {
      "name": "Indoor Gardening Create Your Own Home Garden",
      "slug": "indoor-gardening-create-your-own-home-garden",
      "service": "igdb"
    }
  ],
  "aliases": [],
  "shaders": [],
  "discord_id": "",
  "change_for": null
}