{
  "id": 14095,
  "game_id": 10014,
  "game_slug": "winter-novel",
  "name": "Winter Novel",
  "year": 2016,
  "user": "kimchitea",
  "runner": "steam",
  "slug": "winter-novel-steam-demo",
  "version": "Steam Demo",
  "description": null,
  "notes": "",
  "credits": "",
  "created_at": "2019-06-15T01:37:50.931524Z",
  "updated_at": "2019-06-17T00:24:31.062114Z",
  "draft": false,
  "published": true,
  "published_by": null,
  "rating": "",
  "is_playable": null,
  "steamid": 485350,
  "gogid": null,
  "gogslug": "",
  "humbleid": "",
  "humblestoreid": "",
  "humblestoreid_real": "",
  "script": {
    "game": {
      "appid": 517390
    }
  },
  "content": "game:\n  appid: 517390\n",
  "discord_id": ""
}