{
  "id": 5170,
  "name": "Lost Lands: A Hidden Object Adventure",
  "slug": "lost-lands-a-hidden-object-adventure",
  "year": 2015,
  "banner_url": "https://lutris.net/games/banner/lost-lands-a-hidden-object-adventure.jpg",
  "icon_url": "https://lutris.net/games/icon/lost-lands-a-hidden-object-adventure.png",
  "coverart": "https://lutris.net/media/igdb/cover_big/mvepjvc7lbykdfxn78sh.jpg",
  "platforms": [
    {
      "name": "Mac"
    },
    {
      "name": "Windows"
    }
  ],
  "provider_games": [
    {
      "name": "Lost Lands: A Hidden Object Adventure",
      "slug": "392950",
      "service": "steam"
    },
    {
      "name": "Lost Lands: A Hidden Object Adventure",
      "slug": "lost-lands-a-hidden-object-adventure",
      "service": "igdb"
    }
  ],
  "aliases": [],
  "shaders": [],
  "discord_id": "",
  "change_for": null
}