{
  "id": 34915,
  "name": "Mini-Boy 7",
  "slug": "mini-boy-7",
  "year": 1983,
  "banner_url": "",
  "icon_url": "https://lutris.net/games/icon/mini-boy-7.png",
  "coverart": null,
  "platforms": [
    {
      "name": "Arcade"
    }
  ],
  "provider_games": [
    {
      "name": "Mini-Boy 7",
      "slug": "miniboy7",
      "service": "mame"
    }
  ],
  "aliases": [],
  "shaders": [],
  "discord_id": "",
  "change_for": null
}