{
  "id": 2268,
  "game_id": 6515,
  "game_slug": "raiden-dx",
  "name": "Raiden DX",
  "year": 1994,
  "user": "ssf",
  "runner": "pcsxr",
  "slug": "raiden-dx-playstation",
  "version": "PlayStation",
  "description": "",
  "notes": "",
  "credits": "",
  "created_at": "2016-07-06T00:30:23.215067Z",
  "updated_at": "2024-04-03T05:10:22.808386Z",
  "draft": false,
  "published": true,
  "published_by": null,
  "rating": "",
  "is_playable": null,
  "steamid": null,
  "gogid": null,
  "gogslug": "",
  "humbleid": "",
  "humblestoreid": "",
  "humblestoreid_real": "",
  "script": {
    "files": [
      {
        "iso_file": "N/A:Please select the PlayStation ISO file."
      }
    ],
    "game": {
      "iso": "iso_file"
    },
    "installer": [
      {
        "merge": {
          "dst": "$GAMEDIR",
          "src": "iso_file"
        }
      }
    ]
  },
  "content": "files:\n- iso_file: N/A:Please select the PlayStation ISO file.\ngame:\n  iso: iso_file\ninstaller:\n- merge:\n    dst: $GAMEDIR\n    src: iso_file\n",
  "discord_id": ""
}