{
  "id": 272173,
  "name": "NeverDone",
  "slug": "neverdone",
  "year": null,
  "banner_url": "",
  "icon_url": "",
  "coverart": "https://lutris.net/media/igdb/cover_big/co7p6z.jpg",
  "platforms": [],
  "provider_games": [
    {
      "name": "NeverDone",
      "slug": "neverdone",
      "service": "igdb"
    }
  ],
  "aliases": [],
  "shaders": [],
  "discord_id": "",
  "change_for": null
}