{
  "id": 174935,
  "name": "Rogue Trooper",
  "slug": "rogue-trooper--1",
  "year": 1986,
  "banner_url": "",
  "icon_url": "",
  "coverart": "https://lutris.net/media/igdb/cover_big/wrygmeul3j4lbsiciqsc.jpg",
  "platforms": [
    {
      "name": "Amstrad CPC"
    },
    {
      "name": "Commodore C64/128"
    },
    {
      "name": "ZX Spectrum"
    }
  ],
  "provider_games": [
    {
      "name": "Rogue Trooper",
      "slug": "rogue-trooper--1",
      "service": "igdb"
    }
  ],
  "aliases": [],
  "shaders": [],
  "discord_id": "",
  "change_for": null
}