{
  "id": 264103,
  "name": "Western Redemption",
  "slug": "western-redemption",
  "year": null,
  "banner_url": "",
  "icon_url": "",
  "coverart": "https://lutris.net/media/igdb/cover_big/co7avd.jpg",
  "platforms": [],
  "provider_games": [
    {
      "name": "Western Redemption",
      "slug": "western-redemption",
      "service": "igdb"
    }
  ],
  "aliases": [],
  "shaders": [],
  "discord_id": "",
  "change_for": null
}