{
  "id": 263266,
  "name": "Fat Goblins",
  "slug": "fat-goblins",
  "year": null,
  "banner_url": "",
  "icon_url": "",
  "coverart": "https://lutris.net/media/igdb/cover_big/co79yg.jpg",
  "platforms": [],
  "provider_games": [
    {
      "name": "Fat Goblins",
      "slug": "fat-goblins",
      "service": "igdb"
    }
  ],
  "aliases": [],
  "shaders": [],
  "discord_id": "",
  "change_for": null
}