{
  "id": 9380,
  "game_id": 16259,
  "game_slug": "koenchu-the-tale-of-the-voice-actress-you-the-sky-",
  "name": "Koenchu! The Tale of the Voice Actress - You, the Sky, and that Summer",
  "year": 2011,
  "user": "kimchitea",
  "runner": "wine",
  "slug": "koenchu-the-tale-of-the-voice-dlsite",
  "version": "DLsite",
  "description": null,
  "notes": "All five parts of the installer must be in the same folder. When the installer starts, change the extract location to C: and click the bottom left button.",
  "credits": "",
  "created_at": "2018-07-25T14:26:59.190775Z",
  "updated_at": "2018-07-26T06:22:32.979539Z",
  "draft": false,
  "published": true,
  "published_by": null,
  "rating": "",
  "is_playable": null,
  "steamid": null,
  "gogid": null,
  "gogslug": "",
  "humbleid": "",
  "humblestoreid": "",
  "humblestoreid_real": "",
  "script": {
    "files": [
      {
        "file1": "N/A:Please select the DLsite installer (part one)"
      }
    ],
    "game": {
      "arch": "win32",
      "exe": "$GAMEDIR/drive_c/RJ087885/KoenchuSORA/KoenchuSora.eXe",
      "prefix": "$GAMEDIR"
    },
    "installer": [
      {
        "task": {
          "arch": "win32",
          "env": {
            "LC_ALL": "ja_JP.UTF-8"
          },
          "executable": "$file1",
          "name": "wineexec"
        }
      }
    ],
    "system": {
      "env": {
        "LC_ALL": "ja_JP.UTF-8"
      }
    }
  },
  "content": "files:\n- file1: N/A:Please select the DLsite installer (part one)\ngame:\n  arch: win32\n  exe: $GAMEDIR/drive_c/RJ087885/KoenchuSORA/KoenchuSora.eXe\n  prefix: $GAMEDIR\ninstaller:\n- task:\n    arch: win32\n    env:\n      LC_ALL: ja_JP.UTF-8\n    executable: $file1\n    name: wineexec\nsystem:\n  env:\n    LC_ALL: ja_JP.UTF-8\n",
  "discord_id": ""
}