{
  "id": 190164,
  "name": "Teacup",
  "slug": "teacup",
  "year": 2020,
  "banner_url": "https://lutris.net/games/banner/teacup.jpg",
  "icon_url": "",
  "coverart": "https://lutris.net/media/igdb/cover_big/co2o9o.jpg",
  "platforms": [
    {
      "name": "Nintendo Switch"
    },
    {
      "name": "Sony Playstation 4"
    },
    {
      "name": "Sony PlayStation 5"
    },
    {
      "name": "Windows"
    },
    {
      "name": "Xbox One"
    },
    {
      "name": "Xbox Series X|S"
    }
  ],
  "provider_games": [
    {
      "name": "Teacup",
      "slug": "teacup",
      "service": "igdb"
    },
    {
      "name": "Teacup",
      "slug": "1444300",
      "service": "steam"
    }
  ],
  "aliases": [],
  "shaders": [],
  "discord_id": "",
  "change_for": null
}