{
  "id": 213451,
  "name": "Cannon Fodder",
  "slug": "cannon-fodder--2",
  "year": null,
  "banner_url": "",
  "icon_url": "",
  "coverart": null,
  "platforms": [],
  "provider_games": [
    {
      "name": "Cannon Fodder",
      "slug": "cannon-fodder--2",
      "service": "igdb"
    }
  ],
  "aliases": [],
  "shaders": [],
  "discord_id": "",
  "change_for": null
}