{
  "id": 215965,
  "name": "Quasimorphosis",
  "slug": "quasimorphosis",
  "year": 2023,
  "banner_url": "",
  "icon_url": "",
  "coverart": "https://lutris.net/media/igdb/cover_big/co5p1p.jpg",
  "platforms": [
    {
      "name": "Windows"
    }
  ],
  "provider_games": [
    {
      "name": "Quasimorphosis",
      "slug": "quasimorphosis",
      "service": "igdb"
    }
  ],
  "aliases": [],
  "shaders": [],
  "discord_id": "",
  "change_for": null
}