{
  "id": 61300,
  "name": "Pet Pals: New Leash on Life",
  "slug": "pet-pals-new-leash-on-life",
  "year": 2010,
  "banner_url": "",
  "icon_url": "",
  "coverart": "https://lutris.net/media/igdb/cover_big/jeyqhohxmftxbgdvbtbh.jpg",
  "platforms": [
    {
      "name": "Nintendo DS"
    }
  ],
  "provider_games": [
    {
      "name": "Pet Pals: New Leash on Life",
      "slug": "pet-pals-new-leash-on-life",
      "service": "igdb"
    }
  ],
  "aliases": [],
  "shaders": [],
  "discord_id": "",
  "change_for": null
}