{
  "id": 54101,
  "name": "Miracle Casino Paradise",
  "slug": "miracle-casino-paradise",
  "year": 1995,
  "banner_url": "",
  "icon_url": "",
  "coverart": "https://lutris.net/media/igdb/cover_big/kwll6rvfja3qhkldlv7w.jpg",
  "platforms": [
    {
      "name": "Super Nintendo"
    }
  ],
  "provider_games": [
    {
      "name": "Miracle Casino Paradise",
      "slug": "miracle-casino-paradise",
      "service": "igdb"
    }
  ],
  "aliases": [],
  "shaders": [],
  "discord_id": "",
  "change_for": null
}