{
  "id": 14199,
  "name": "Guns'n'Stories: Bulletproof VR",
  "slug": "gunsnstories-bulletproof-vr",
  "year": 2017,
  "banner_url": "https://lutris.net/games/banner/gunsnstories-bulletproof-vr.jpg",
  "icon_url": "https://lutris.net/games/icon/gunsnstories-bulletproof-vr.png",
  "coverart": "https://lutris.net/media/igdb/cover_big/co24y1.jpg",
  "platforms": [
    {
      "name": "Sony Playstation 4"
    },
    {
      "name": "Windows"
    }
  ],
  "provider_games": [
    {
      "name": "Guns'n'Stories: Bulletproof VR",
      "slug": "685690",
      "service": "steam"
    },
    {
      "name": "Guns'n'Stories: Bulletproof VR",
      "slug": "gunsnstories-bulletproof-vr",
      "service": "igdb"
    }
  ],
  "aliases": [],
  "shaders": [],
  "discord_id": "",
  "change_for": null
}