{
  "id": 288076,
  "name": "Ultimate General: American Revolution - Premium Edition",
  "slug": "ultimate-general-american-revolution-premium-edition",
  "year": null,
  "banner_url": "",
  "icon_url": "",
  "coverart": "https://lutris.net/media/igdb/cover_big/co8g9p.jpg",
  "platforms": [],
  "provider_games": [
    {
      "name": "Ultimate General: American Revolution - Premium Edition",
      "slug": "ultimate-general-american-revolution-premium-edition",
      "service": "igdb"
    }
  ],
  "aliases": [],
  "shaders": [],
  "discord_id": "",
  "change_for": null
}