{
  "id": 58679,
  "name": "Electric Racing Car",
  "slug": "electric-racing-car",
  "year": null,
  "banner_url": "",
  "icon_url": "",
  "coverart": "https://lutris.net/media/igdb/cover_big/vluwg3bm3gfnrrhxfqlu.jpg",
  "platforms": [],
  "provider_games": [
    {
      "name": "Electric Racing Car",
      "slug": "electric-racing-car",
      "service": "igdb"
    }
  ],
  "aliases": [],
  "shaders": [],
  "discord_id": "",
  "change_for": null
}