{
  "id": 54066,
  "name": "St Andrews: Eikou to Rekishi no Old Course",
  "slug": "st-andrews-eikou-to-rekishi-no-old-course",
  "year": 1995,
  "banner_url": "",
  "icon_url": "",
  "coverart": "https://lutris.net/media/igdb/cover_big/o3monkdglualmautr4mp.jpg",
  "platforms": [
    {
      "name": "Super Nintendo"
    }
  ],
  "provider_games": [
    {
      "name": "St Andrews: Eikou to Rekishi no Old Course",
      "slug": "st-andrews-eikou-to-rekishi-no-old-course",
      "service": "igdb"
    }
  ],
  "aliases": [],
  "shaders": [],
  "discord_id": "",
  "change_for": null
}