{
  "id": 241616,
  "name": "Adventure mosaics. Lost Expedition",
  "slug": "adventure-mosaics-lost-expedition",
  "year": null,
  "banner_url": "",
  "icon_url": "",
  "coverart": "https://lutris.net/media/igdb/cover_big/co5zxe.jpg",
  "platforms": [],
  "provider_games": [
    {
      "name": "Adventure Mosaics: Lost Expedition",
      "slug": "adventure-mosaics-lost-expedition",
      "service": "igdb"
    }
  ],
  "aliases": [],
  "shaders": [],
  "discord_id": "",
  "change_for": null
}