{
  "id": 23716,
  "game_id": 17164,
  "game_slug": "grey-hack",
  "name": "Grey Hack",
  "year": 2017,
  "user": "Fires",
  "runner": "steam",
  "slug": "grey-hack-steam",
  "version": "Steam",
  "description": null,
  "notes": "",
  "credits": "",
  "created_at": "2020-10-05T15:59:50.319722Z",
  "updated_at": "2023-01-11T06:08:01.674162Z",
  "draft": true,
  "published": true,
  "published_by": null,
  "rating": "",
  "is_playable": null,
  "steamid": 605230,
  "gogid": null,
  "gogslug": "",
  "humbleid": "",
  "humblestoreid": "",
  "humblestoreid_real": "",
  "script": {
    "game": {
      "appid": 605230
    }
  },
  "content": "game:\n  appid: 605230\n",
  "discord_id": ""
}