{
  "id": 292643,
  "name": "Furitsu Metatopology Daigaku Fuzoku Joshi Koukou",
  "slug": "furitsu-metatopology-daigaku-fuzoku-joshi-koukou",
  "year": 1995,
  "banner_url": "",
  "icon_url": "",
  "coverart": "https://lutris.net/media/igdb/cover_big/co8i3m.jpg",
  "platforms": [
    {
      "name": "PC-98"
    }
  ],
  "provider_games": [
    {
      "name": "Furitsu Metatopology Daigaku Fuzoku Joshi Koukou",
      "slug": "furitsu-metatopology-daigaku-fuzoku-joshi-koukou",
      "service": "igdb"
    }
  ],
  "aliases": [],
  "shaders": [],
  "discord_id": "",
  "change_for": null
}