{
  "id": 230953,
  "name": "Furry Futa",
  "slug": "furry-futa",
  "year": null,
  "banner_url": "",
  "icon_url": "",
  "coverart": "https://lutris.net/media/igdb/cover_big/co66wp.jpg",
  "platforms": [],
  "provider_games": [
    {
      "name": "Furry Futa",
      "slug": "furry-futa",
      "service": "igdb"
    }
  ],
  "aliases": [],
  "shaders": [],
  "discord_id": "",
  "change_for": null
}