{
  "id": 62311,
  "name": "Crazy Streets - Thrill Drive 4",
  "slug": "crazy-streets-thrill-drive-4",
  "year": null,
  "banner_url": "",
  "icon_url": "",
  "coverart": null,
  "platforms": [],
  "provider_games": [
    {
      "name": "Crazy Streets - Thrill Drive 4",
      "slug": "crazy-streets-thrill-drive-4",
      "service": "igdb"
    }
  ],
  "aliases": [],
  "shaders": [],
  "discord_id": "",
  "change_for": null
}