{
  "id": 146157,
  "name": "Dino City",
  "slug": "dino-city",
  "year": 1992,
  "banner_url": "",
  "icon_url": "",
  "coverart": "https://lutris.net/media/igdb/cover_big/co2zxu.jpg",
  "platforms": [
    {
      "name": "Super Famicom"
    },
    {
      "name": "Super Nintendo"
    }
  ],
  "provider_games": [
    {
      "name": "Dino City",
      "slug": "dino-city",
      "service": "igdb"
    }
  ],
  "aliases": [],
  "shaders": [],
  "discord_id": "",
  "change_for": null
}