{
  "id": 247429,
  "name": "Puzzle by Nikoli S: Yajirin",
  "slug": "puzzle-by-nikoli-s-yajirin",
  "year": null,
  "banner_url": "",
  "icon_url": "",
  "coverart": null,
  "platforms": [],
  "provider_games": [
    {
      "name": "Puzzle by Nikoli S: Yajirin",
      "slug": "puzzle-by-nikoli-s-yajirin",
      "service": "igdb"
    }
  ],
  "aliases": [],
  "shaders": [],
  "discord_id": "",
  "change_for": null
}