{
  "id": 260475,
  "name": "The Last Librarian",
  "slug": "the-last-librarian--1",
  "year": null,
  "banner_url": "",
  "icon_url": "",
  "coverart": "https://lutris.net/media/igdb/cover_big/co7345.jpg",
  "platforms": [],
  "provider_games": [
    {
      "name": "The Last Librarian",
      "slug": "the-last-librarian--1",
      "service": "igdb"
    }
  ],
  "aliases": [],
  "shaders": [],
  "discord_id": "",
  "change_for": null
}