{
  "id": 211178,
  "name": "Zellige: The Tilemaker of Granada",
  "slug": "zellige-the-tilemaker-of-granada",
  "year": null,
  "banner_url": "",
  "icon_url": "",
  "coverart": "https://lutris.net/media/igdb/cover_big/co5fql.jpg",
  "platforms": [],
  "provider_games": [
    {
      "name": "Zellige: The Tilemaker of Granada",
      "slug": "zellige-the-tilemaker-of-granada",
      "service": "igdb"
    }
  ],
  "aliases": [],
  "shaders": [],
  "discord_id": "",
  "change_for": null
}