{
  "id": 285865,
  "name": "Tip Top Table Tennis",
  "slug": "tip-top-table-tennis",
  "year": 2024,
  "banner_url": "",
  "icon_url": "",
  "coverart": "https://lutris.net/media/igdb/cover_big/co87x5.jpg",
  "platforms": [
    {
      "name": "Nintendo Switch"
    }
  ],
  "provider_games": [
    {
      "name": "Tip Top Table Tennis",
      "slug": "tip-top-table-tennis",
      "service": "igdb"
    }
  ],
  "aliases": [],
  "shaders": [],
  "discord_id": "",
  "change_for": null
}