{
  "id": 227101,
  "name": "Wanderlust",
  "slug": "wanderlust--2",
  "year": 1994,
  "banner_url": "",
  "icon_url": "",
  "coverart": null,
  "platforms": [
    {
      "name": "Mac"
    },
    {
      "name": "Windows"
    }
  ],
  "provider_games": [
    {
      "name": "Wanderlust",
      "slug": "wanderlust--2",
      "service": "igdb"
    }
  ],
  "aliases": [],
  "shaders": [],
  "discord_id": "",
  "change_for": null
}