{
  "id": 228585,
  "name": "Episode 3 - The Mole, The Mob, and the Meatball",
  "slug": "episode-3-the-mole-the-mob-and-the-meatball",
  "year": null,
  "banner_url": "",
  "icon_url": "",
  "coverart": null,
  "platforms": [],
  "provider_games": [
    {
      "name": "Episode 3 - The Mole, The Mob, and the Meatball",
      "slug": "1207663603",
      "service": "gog"
    }
  ],
  "aliases": [],
  "shaders": [],
  "discord_id": "",
  "change_for": null
}