{
  "id": 189455,
  "name": "Armed Emeth",
  "slug": "armed-emeth",
  "year": 2021,
  "banner_url": "https://lutris.net/games/banner/armed-emeth.jpg",
  "icon_url": "",
  "coverart": "https://lutris.net/media/igdb/cover_big/co3lnl.jpg",
  "platforms": [
    {
      "name": "Android"
    },
    {
      "name": "Nintendo Switch"
    },
    {
      "name": "Sony Playstation 4"
    },
    {
      "name": "Windows"
    },
    {
      "name": "Xbox One"
    },
    {
      "name": "Xbox Series X|S"
    }
  ],
  "provider_games": [
    {
      "name": "Armed Emeth",
      "slug": "armed-emeth",
      "service": "igdb"
    },
    {
      "name": "Armed Emeth",
      "slug": "1641510",
      "service": "steam"
    }
  ],
  "aliases": [],
  "shaders": [],
  "discord_id": "",
  "change_for": null
}