{
  "id": 56779,
  "name": "Magician's Saga",
  "slug": "magicians-saga",
  "year": null,
  "banner_url": "",
  "icon_url": "",
  "coverart": "https://lutris.net/media/igdb/cover_big/ienpyqdb9zh1lvtynmj5.jpg",
  "platforms": [],
  "provider_games": [
    {
      "name": "Magician's Saga",
      "slug": "magicians-saga",
      "service": "igdb"
    }
  ],
  "aliases": [],
  "shaders": [],
  "discord_id": "",
  "change_for": null
}