{
  "id": 31229,
  "name": "Shin Megami Tensei: Digital Devil Saga",
  "slug": "shin-megami-tensei-digital-devil-saga",
  "year": 2005,
  "banner_url": "https://lutris.net/games/banner/shin-megami-tensei-digital-devil-saga.jpg",
  "icon_url": "",
  "coverart": "https://lutris.net/media/igdb/cover_big/co2y4s.jpg",
  "platforms": [
    {
      "name": "Sony PlayStation 2"
    }
  ],
  "provider_games": [
    {
      "name": "Shin Megami Tensei: Digital Devil Saga",
      "slug": "shin-megami-tensei-digital-devil-saga",
      "service": "igdb"
    }
  ],
  "aliases": [],
  "shaders": [],
  "discord_id": "",
  "change_for": null
}