{
  "id": 174732,
  "name": "Uninvited Guest",
  "slug": "uninvited-guest",
  "year": 2021,
  "banner_url": "https://lutris.net/games/banner/uninvited-guest.jpg",
  "icon_url": "",
  "coverart": "https://lutris.net/media/igdb/cover_big/co48h3.jpg",
  "platforms": [
    {
      "name": "Windows"
    }
  ],
  "provider_games": [
    {
      "name": "Uninvited Guest",
      "slug": "uninvited-guest",
      "service": "igdb"
    },
    {
      "name": "Uninvited Guest",
      "slug": "1659210",
      "service": "steam"
    }
  ],
  "aliases": [],
  "shaders": [],
  "discord_id": "",
  "change_for": null
}