{
  "id": 168542,
  "name": "Pig Skater Simulator",
  "slug": "pig-skater-simulator",
  "year": null,
  "banner_url": "",
  "icon_url": "",
  "coverart": "https://lutris.net/media/igdb/cover_big/co4755.jpg",
  "platforms": [],
  "provider_games": [
    {
      "name": "Pig Skater Simulator",
      "slug": "pig-skater-simulator",
      "service": "igdb"
    }
  ],
  "aliases": [],
  "shaders": [],
  "discord_id": "",
  "change_for": null
}