{
  "id": 212490,
  "name": "D*Fuzed",
  "slug": "d-star-fuzed",
  "year": 2022,
  "banner_url": "",
  "icon_url": "",
  "coverart": "https://lutris.net/media/igdb/cover_big/co5dhu.jpg",
  "platforms": [
    {
      "name": "Game Boy"
    },
    {
      "name": "Nintendo Game Boy Color"
    }
  ],
  "provider_games": [
    {
      "name": "D*Fuzed",
      "slug": "d-star-fuzed",
      "service": "igdb"
    }
  ],
  "aliases": [],
  "shaders": [],
  "discord_id": "",
  "change_for": null
}