{
  "id": 257206,
  "name": "G.I. Joe: Wrath of Cobra",
  "slug": "gi-joe-wrath-of-cobra",
  "year": 2024,
  "banner_url": "",
  "icon_url": "",
  "coverart": "https://lutris.net/media/igdb/cover_big/co70lj.jpg",
  "platforms": [
    {
      "name": "Windows"
    }
  ],
  "provider_games": [
    {
      "name": "G.I. Joe: Wrath of Cobra",
      "slug": "gi-joe-wrath-of-cobra",
      "service": "igdb"
    }
  ],
  "aliases": [],
  "shaders": [],
  "discord_id": "",
  "change_for": null
}