{
  "id": 24043,
  "name": "Soldier of Fortune II: Double Helix - Gold Edition",
  "slug": "soldier-of-fortune-ii-double-helix-gold-edition",
  "year": 2003,
  "banner_url": "https://lutris.net/games/banner/soldier-of-fortune-ii-double-helix-gold-edition.jpg",
  "icon_url": "",
  "coverart": "https://lutris.net/media/igdb/cover_big/co3d1u.jpg",
  "platforms": [
    {
      "name": "Windows"
    }
  ],
  "provider_games": [
    {
      "name": "Soldier of Fortune II: Double Helix - Gold Edition",
      "slug": "1228964594",
      "service": "gog"
    },
    {
      "name": "Soldier of Fortune II: Double Helix - Gold Edition",
      "slug": "soldier-of-fortune-ii-double-helix-gold-edition",
      "service": "igdb"
    }
  ],
  "aliases": [],
  "shaders": [],
  "discord_id": "",
  "change_for": null
}