{
  "id": 191119,
  "name": "Archangel (2002)",
  "slug": "archangel-2002",
  "year": 2002,
  "banner_url": "https://lutris.net/games/banner/archangel-2002.jpg",
  "icon_url": "",
  "coverart": null,
  "platforms": [
    {
      "name": "Windows"
    }
  ],
  "provider_games": [],
  "aliases": [],
  "shaders": [],
  "discord_id": "",
  "change_for": null
}