{
  "id": 65712,
  "name": "Lord of the Shades",
  "slug": "lord-of-the-shades",
  "year": null,
  "banner_url": "",
  "icon_url": "",
  "coverart": null,
  "platforms": [],
  "provider_games": [
    {
      "name": "Lord of the Shades",
      "slug": "lord-of-the-shades",
      "service": "igdb"
    }
  ],
  "aliases": [],
  "shaders": [],
  "discord_id": "",
  "change_for": null
}