{
  "id": 136199,
  "name": "Dream of Hakugyokurou",
  "slug": "dream-of-hakugyokurou",
  "year": null,
  "banner_url": "",
  "icon_url": "",
  "coverart": "https://lutris.net/media/igdb/cover_big/co3oyj.jpg",
  "platforms": [],
  "provider_games": [
    {
      "name": "Dream of Hakugyokurou",
      "slug": "dream-of-hakugyokurou",
      "service": "igdb"
    }
  ],
  "aliases": [],
  "shaders": [],
  "discord_id": "",
  "change_for": null
}