{
  "id": 82040,
  "name": "Zombie Crow 3D",
  "slug": "zombie-crow-3d",
  "year": 2016,
  "banner_url": "",
  "icon_url": "",
  "coverart": "https://lutris.net/media/igdb/cover_big/gmnkmomzbrszy4jfwlom.jpg",
  "platforms": [
    {
      "name": "Windows"
    }
  ],
  "provider_games": [
    {
      "name": "Zombie Crow 3D",
      "slug": "zombie-crow-3d",
      "service": "igdb"
    }
  ],
  "aliases": [],
  "shaders": [],
  "discord_id": "",
  "change_for": null
}