{
  "id": 21172,
  "name": "Battlevoid: Sector Siege",
  "slug": "battlevoid-sector-siege",
  "year": 2017,
  "banner_url": "https://lutris.net/games/banner/battlevoid-sector-siege.jpg",
  "icon_url": "https://lutris.net/games/icon/battlevoid-sector-siege.png",
  "coverart": "https://lutris.net/media/igdb/cover_big/co29wr.jpg",
  "platforms": [
    {
      "name": "Linux"
    },
    {
      "name": "Mac"
    },
    {
      "name": "Windows"
    }
  ],
  "provider_games": [
    {
      "name": "Battlevoid: Sector Siege",
      "slug": "716630",
      "service": "steam"
    },
    {
      "name": "Battlevoid: Sector Siege",
      "slug": "battlevoid-sector-siege",
      "service": "igdb"
    }
  ],
  "aliases": [],
  "shaders": [],
  "discord_id": "",
  "change_for": null
}