{
  "id": 80597,
  "name": "Arquimedes XXI",
  "slug": "arquimedes-xxi",
  "year": 1986,
  "banner_url": "",
  "icon_url": "",
  "coverart": "https://lutris.net/media/igdb/cover_big/iizzxdey3nkzs7m6qh9v.jpg",
  "platforms": [
    {
      "name": "MSX"
    },
    {
      "name": "ZX Spectrum"
    }
  ],
  "provider_games": [
    {
      "name": "Arquimedes XXI",
      "slug": "arquimedes-xxi",
      "service": "igdb"
    }
  ],
  "aliases": [],
  "shaders": [],
  "discord_id": "",
  "change_for": null
}