{
  "id": 87654,
  "name": "Alpha Kimori: Great Doubt - Episode Two",
  "slug": "alpha-kimori-great-doubt-episode-two",
  "year": null,
  "banner_url": "",
  "icon_url": "",
  "coverart": null,
  "platforms": [],
  "provider_games": [
    {
      "name": "Alpha Kimori: Great Doubt - Episode Two",
      "slug": "alpha-kimori-great-doubt-episode-two",
      "service": "igdb"
    }
  ],
  "aliases": [],
  "shaders": [],
  "discord_id": "",
  "change_for": null
}