{
  "id": 214035,
  "name": "Grimfield Mystery",
  "slug": "grimfield-mystery",
  "year": null,
  "banner_url": "",
  "icon_url": "",
  "coverart": "https://lutris.net/media/igdb/cover_big/co5syf.jpg",
  "platforms": [],
  "provider_games": [
    {
      "name": "Grimfield Mystery",
      "slug": "grimfield-mystery",
      "service": "igdb"
    }
  ],
  "aliases": [],
  "shaders": [],
  "discord_id": "",
  "change_for": null
}