{
  "id": 301679,
  "name": "Gossip",
  "slug": "gossip",
  "year": null,
  "banner_url": "",
  "icon_url": "",
  "coverart": null,
  "platforms": [
    {
      "name": "Atari 8-bit"
    }
  ],
  "provider_games": [
    {
      "name": "Gossip",
      "slug": "gossip",
      "service": "igdb"
    }
  ],
  "aliases": [],
  "shaders": [],
  "discord_id": "",
  "change_for": null
}