{
  "id": 3730,
  "name": "Saw",
  "slug": "saw",
  "year": 2009,
  "banner_url": "https://lutris.net/games/banner/saw.jpg",
  "icon_url": "",
  "coverart": "https://lutris.net/media/igdb/cover_big/co3izt.jpg",
  "platforms": [
    {
      "name": "Sony Playstation 3"
    },
    {
      "name": "Windows"
    },
    {
      "name": "Xbox 360"
    }
  ],
  "provider_games": [
    {
      "name": "Saw",
      "slug": "27300",
      "service": "steam"
    },
    {
      "name": "Saw",
      "slug": "saw",
      "service": "igdb"
    }
  ],
  "aliases": [],
  "shaders": [],
  "discord_id": "",
  "change_for": null
}