{
  "id": 184031,
  "name": "Of a Feather",
  "slug": "of-a-feather",
  "year": null,
  "banner_url": "",
  "icon_url": "",
  "coverart": null,
  "platforms": [],
  "provider_games": [
    {
      "name": "Of a Feather",
      "slug": "of-a-feather",
      "service": "igdb"
    }
  ],
  "aliases": [],
  "shaders": [],
  "discord_id": "",
  "change_for": null
}