{
  "id": 135826,
  "name": "Destroy The Hexons",
  "slug": "destroy-the-hexons",
  "year": null,
  "banner_url": "",
  "icon_url": "",
  "coverart": "https://lutris.net/media/igdb/cover_big/co3oit.jpg",
  "platforms": [],
  "provider_games": [
    {
      "name": "Destroy the Hexons",
      "slug": "destroy-the-hexons",
      "service": "igdb"
    }
  ],
  "aliases": [],
  "shaders": [],
  "discord_id": "",
  "change_for": null
}