{
  "id": 181557,
  "name": "The Coma: Recut - Deluxe Edition",
  "slug": "the-coma-recut-deluxe-edition",
  "year": null,
  "banner_url": "",
  "icon_url": "",
  "coverart": "https://lutris.net/media/igdb/cover_big/co3cdu.jpg",
  "platforms": [],
  "provider_games": [
    {
      "name": "The Coma: Recut - Deluxe Edition",
      "slug": "the-coma-recut-deluxe-edition",
      "service": "igdb"
    }
  ],
  "aliases": [],
  "shaders": [],
  "discord_id": "",
  "change_for": null
}