{
  "id": 3170,
  "game_id": 9184,
  "game_slug": "battlefield-1942",
  "name": "Battlefield 1942",
  "year": 2002,
  "user": "Lucki",
  "runner": "wine",
  "slug": "battlefield-1942-internet-archives",
  "version": "Internet Archives",
  "description": "Play \"Battlefield 1942 - Complete Edition\" on Linux!",
  "notes": "- Before to launch this script, you have to download \"Battlefield 1942 complete edition\" setup installer at https://archive.org/download/battlefield1942thecompletecollectionwindows10compatible\r\n- Multilingual: you will be able to choose your preferred language for the menus between English (default), French, Italian, Spanish, German, Chinese, Korean and Japanese\r\n- Game executable patched to enable connection to the new master server: master.bf1942.org",
  "credits": "- master.bf1942.org - Patch: https://www.moddb.com/games/battlefield-1942/downloads/bf1942-masterbf1942org-patch\r\n- Lutris script maintained by legluondunet: https://github.com/legluondunet/MyLittleLutrisScripts",
  "created_at": "2017-01-10T02:11:55.267000Z",
  "updated_at": "2024-02-20T14:01:23.619151Z",
  "draft": false,
  "published": true,
  "published_by": 494,
  "rating": "",
  "is_playable": null,
  "steamid": null,
  "gogid": null,
  "gogslug": "",
  "humbleid": "",
  "humblestoreid": "",
  "humblestoreid_real": "",
  "script": {
    "files": [
      {
        "file1": "N/A: Select BattleField 1942 setup installer downloaded from https://archive.org/download/battlefield1942thecompletecollectionwindows10compatible"
      },
      {
        "patch": "https://github.com/legluondunet/MyLittleLutrisScripts/raw/master/Battlefield%201942%20-%20Complete%20Edition/bf1942_patch.tar.xz"
      }
    ],
    "game": {
      "exe": "drive_c/GAMES/BATTLEFIELD_1942_COMPLETE/BF1942.exe",
      "prefix": "$GAMEDIR"
    },
    "installer": [
      {
        "task": {
          "arch": "win64",
          "name": "create_prefix",
          "prefix": "$GAMEDIR"
        }
      },
      {
        "task": {
          "description": "Installing Battlefield 1942",
          "executable": "file1",
          "name": "wineexec"
        }
      },
      {
        "copy": {
          "dst": "$GAMEDIR/drive_c/GAMES/BATTLEFIELD_1942_COMPLETE/backup",
          "src": "$GAMEDIR/drive_c/GAMES/BATTLEFIELD_1942_COMPLETE/BF1942.exe"
        }
      },
      {
        "extract": {
          "dst": "$GAMEDIR/drive_c/GAMES/BATTLEFIELD_1942_COMPLETE",
          "file": "patch"
        }
      },
      {
        "input_menu": {
          "description": "Choose the game's language for menus:",
          "id": "LANG",
          "options": [
            {
              "English": "English"
            },
            {
              "French": "French"
            },
            {
              "Italian": "Italian"
            },
            {
              "Spanish": "Spanish"
            },
            {
              "German": "German"
            },
            {
              "Chinese": "Chinese"
            },
            {
              "Korean": "Korean"
            },
            {
              "Japanese": "Japanese"
            }
          ],
          "preselect": "English"
        }
      },
      {
        "task": {
          "key": "Language",
          "name": "set_regedit",
          "path": "HKEY_LOCAL_MACHINE\\Software\\Wow6432Node\\EA Games\\Battlefield 1942",
          "type": "REG_SZ",
          "value": "$INPUT_LANG"
        }
      },
      {
        "execute": {
          "command": "cd \"$GAMEDIR//drive_c/GAMES/BATTLEFIELD_1942_COMPLETE/Mods/bf1942/Settings/Profiles/Custom\"; sed -i -e s/1024\\ 768/$RESOLUTION_WIDTH\\ $RESOLUTION_HEIGHT/ Video.con;"
        }
      }
    ]
  },
  "content": "files:\n- file1: 'N/A: Select BattleField 1942 setup installer downloaded from https://archive.org/download/battlefield1942thecompletecollectionwindows10compatible'\n- patch: https://github.com/legluondunet/MyLittleLutrisScripts/raw/master/Battlefield%201942%20-%20Complete%20Edition/bf1942_patch.tar.xz\ngame:\n  exe: drive_c/GAMES/BATTLEFIELD_1942_COMPLETE/BF1942.exe\n  prefix: $GAMEDIR\ninstaller:\n- task:\n    arch: win64\n    name: create_prefix\n    prefix: $GAMEDIR\n- task:\n    description: Installing Battlefield 1942\n    executable: file1\n    name: wineexec\n- copy:\n    dst: $GAMEDIR/drive_c/GAMES/BATTLEFIELD_1942_COMPLETE/backup\n    src: $GAMEDIR/drive_c/GAMES/BATTLEFIELD_1942_COMPLETE/BF1942.exe\n- extract:\n    dst: $GAMEDIR/drive_c/GAMES/BATTLEFIELD_1942_COMPLETE\n    file: patch\n- input_menu:\n    description: 'Choose the game''s language for menus:'\n    id: LANG\n    options:\n    - English: English\n    - French: French\n    - Italian: Italian\n    - Spanish: Spanish\n    - German: German\n    - Chinese: Chinese\n    - Korean: Korean\n    - Japanese: Japanese\n    preselect: English\n- task:\n    key: Language\n    name: set_regedit\n    path: HKEY_LOCAL_MACHINE\\Software\\Wow6432Node\\EA Games\\Battlefield 1942\n    type: REG_SZ\n    value: $INPUT_LANG\n- execute:\n    command: cd \"$GAMEDIR//drive_c/GAMES/BATTLEFIELD_1942_COMPLETE/Mods/bf1942/Settings/Profiles/Custom\";\n      sed -i -e s/1024\\ 768/$RESOLUTION_WIDTH\\ $RESOLUTION_HEIGHT/ Video.con;\n",
  "discord_id": null
}