{
  "id": 11454,
  "game_id": 23555,
  "game_slug": "chopper-command",
  "name": "Chopper Command",
  "year": 1982,
  "user": "te_lanus",
  "runner": "libretro",
  "slug": "chopper-command-atari-200",
  "version": "Atari 200",
  "description": null,
  "notes": "",
  "credits": "",
  "created_at": "2019-01-05T17:19:25.480459Z",
  "updated_at": "2019-01-05T17:19:34.451930Z",
  "draft": false,
  "published": true,
  "published_by": null,
  "rating": "",
  "is_playable": null,
  "steamid": null,
  "gogid": null,
  "gogslug": "",
  "humbleid": "",
  "humblestoreid": "",
  "humblestoreid_real": "",
  "script": {
    "files": [
      {
        "file1": "N/A:Please select the Atari 2600 Cartridge"
      }
    ],
    "game": {
      "core": "stella",
      "main_file": "file1"
    },
    "installer": [
      {
        "merge": {
          "dst": "$GAMEDIR",
          "src": "file1"
        }
      }
    ]
  },
  "content": "files:\n- file1: N/A:Please select the Atari 2600 Cartridge\ngame:\n  core: stella\n  main_file: file1\ninstaller:\n- merge:\n    dst: $GAMEDIR\n    src: file1\n",
  "discord_id": ""
}