{
  "id": 149009,
  "name": "Digital Jigsaw Puzzle",
  "slug": "digital-jigsaw-puzzle",
  "year": null,
  "banner_url": "",
  "icon_url": "",
  "coverart": "https://lutris.net/media/igdb/cover_big/co3om7.jpg",
  "platforms": [],
  "provider_games": [
    {
      "name": "Digital Jigsaw Puzzle",
      "slug": "digital-jigsaw-puzzle",
      "service": "igdb"
    }
  ],
  "aliases": [],
  "shaders": [],
  "discord_id": "",
  "change_for": null
}