{
  "id": 218304,
  "name": "The Pit",
  "slug": "the-pit--2",
  "year": null,
  "banner_url": "",
  "icon_url": "",
  "coverart": "https://lutris.net/media/igdb/cover_big/co5nab.jpg",
  "platforms": [],
  "provider_games": [
    {
      "name": "The Pit",
      "slug": "the-pit--2",
      "service": "igdb"
    },
    {
      "name": "The Pit",
      "slug": "1459258180",
      "service": "gog"
    }
  ],
  "aliases": [],
  "shaders": [],
  "discord_id": "",
  "change_for": null
}