{
  "id": 298764,
  "name": "Dawning Subaru, and The Owl lurking in the twilight.",
  "slug": "dawning-subaru-and-the-owl-lurking-in-the-twilight",
  "year": 2024,
  "banner_url": "",
  "icon_url": "",
  "coverart": "https://lutris.net/media/igdb/cover_big/co8uts.jpg",
  "platforms": [
    {
      "name": "Nintendo Switch"
    },
    {
      "name": "Sony Playstation 4"
    }
  ],
  "provider_games": [
    {
      "name": "Dawning Subaru, and The Owl lurking in the twilight.",
      "slug": "dawning-subaru-and-the-owl-lurking-in-the-twilight",
      "service": "igdb"
    }
  ],
  "aliases": [],
  "shaders": [],
  "discord_id": "",
  "change_for": null
}