{
  "id": 121801,
  "name": "Plan Z Chapter 1",
  "slug": "plan-z-chapter-1",
  "year": 2016,
  "banner_url": "https://lutris.net/games/banner/plan-z-chapter-1.jpg",
  "icon_url": "",
  "coverart": null,
  "platforms": [
    {
      "name": "Windows"
    }
  ],
  "provider_games": [
    {
      "name": "Plan Z Chapter 1",
      "slug": "486300",
      "service": "steam"
    },
    {
      "name": "Plan Z Chapter 1",
      "slug": "plan-z-chapter-1",
      "service": "igdb"
    }
  ],
  "aliases": [],
  "shaders": [],
  "discord_id": "",
  "change_for": null
}