{
  "id": 170984,
  "name": "Panama Canal",
  "slug": "panama-canal",
  "year": null,
  "banner_url": "",
  "icon_url": "",
  "coverart": "https://lutris.net/media/igdb/cover_big/co4743.jpg",
  "platforms": [],
  "provider_games": [
    {
      "name": "Panama Canal",
      "slug": "panama-canal",
      "service": "igdb"
    }
  ],
  "aliases": [],
  "shaders": [],
  "discord_id": "",
  "change_for": null
}