{
  "id": 274774,
  "name": "Winter Night",
  "slug": "winter-night",
  "year": null,
  "banner_url": "",
  "icon_url": "",
  "coverart": "https://lutris.net/media/igdb/cover_big/co7sd2.jpg",
  "platforms": [],
  "provider_games": [
    {
      "name": "Winter Night",
      "slug": "winter-night",
      "service": "igdb"
    }
  ],
  "aliases": [],
  "shaders": [],
  "discord_id": "",
  "change_for": null
}