{
  "id": 161707,
  "name": "Evil Tonight",
  "slug": "evil-tonight",
  "year": 2021,
  "banner_url": "https://lutris.net/games/banner/evil-tonight.jpg",
  "icon_url": "",
  "coverart": "https://lutris.net/media/igdb/cover_big/co401q.jpg",
  "platforms": [
    {
      "name": "Nintendo Switch"
    },
    {
      "name": "Windows"
    }
  ],
  "provider_games": [
    {
      "name": "Evil Tonight",
      "slug": "evil-tonight",
      "service": "igdb"
    },
    {
      "name": "Evil Tonight",
      "slug": "1480830",
      "service": "steam"
    }
  ],
  "aliases": [],
  "shaders": [],
  "discord_id": "",
  "change_for": null
}