{
  "id": 153006,
  "name": "Action Card Football",
  "slug": "action-card-football",
  "year": 2019,
  "banner_url": "https://lutris.net/games/banner/action-card-football.jpg",
  "icon_url": "",
  "coverart": "https://lutris.net/media/igdb/cover_big/co2pdt.jpg",
  "platforms": [
    {
      "name": "Windows"
    }
  ],
  "provider_games": [
    {
      "name": "Action Card Football",
      "slug": "848470",
      "service": "steam"
    },
    {
      "name": "Action Card Football",
      "slug": "action-card-football",
      "service": "igdb"
    }
  ],
  "aliases": [],
  "shaders": [],
  "discord_id": "",
  "change_for": null
}