{
  "id": 279513,
  "name": "The Mandalorian: Chapter 3 - The Sin",
  "slug": "the-mandalorian-chapter-3-the-sin",
  "year": 2021,
  "banner_url": "",
  "icon_url": "",
  "coverart": "https://lutris.net/media/igdb/cover_big/co81br.jpg",
  "platforms": [
    {
      "name": "Nintendo Game Boy Color"
    }
  ],
  "provider_games": [
    {
      "name": "The Mandalorian: Chapter 3 - The Sin",
      "slug": "the-mandalorian-chapter-3-the-sin",
      "service": "igdb"
    }
  ],
  "aliases": [],
  "shaders": [],
  "discord_id": "",
  "change_for": null
}