{
  "id": 283505,
  "name": "Hentai Tales: The Entrance To Isekai",
  "slug": "hentai-tales-the-entrance-to-isekai",
  "year": null,
  "banner_url": "",
  "icon_url": "",
  "coverart": "https://lutris.net/media/igdb/cover_big/co83dd.jpg",
  "platforms": [],
  "provider_games": [
    {
      "name": "Hentai Tales: The Entrance To Isekai",
      "slug": "hentai-tales-the-entrance-to-isekai",
      "service": "igdb"
    }
  ],
  "aliases": [],
  "shaders": [],
  "discord_id": "",
  "change_for": null
}