{
  "id": 59518,
  "name": "Machi Guile: Takareet Fighter II",
  "slug": "machi-guile-takareet-fighter-ii",
  "year": null,
  "banner_url": "",
  "icon_url": "",
  "coverart": "https://lutris.net/media/igdb/cover_big/p3we09lf9fr9peedjcb2.jpg",
  "platforms": [],
  "provider_games": [
    {
      "name": "Machi Guile: Takareet Fighter II",
      "slug": "machi-guile-takareet-fighter-ii",
      "service": "igdb"
    }
  ],
  "aliases": [],
  "shaders": [],
  "discord_id": "",
  "change_for": null
}