{
  "id": 282253,
  "name": "Magic Research 2",
  "slug": "magic-research-2",
  "year": null,
  "banner_url": "https://lutris.net/games/banner/magic-research-2.jpg",
  "icon_url": "",
  "coverart": "https://lutris.net/media/igdb/cover_big/co827m.jpg",
  "platforms": [],
  "provider_games": [
    {
      "name": "Magic Research 2",
      "slug": "magic-research-2",
      "service": "igdb"
    }
  ],
  "aliases": [],
  "shaders": [],
  "discord_id": "",
  "change_for": null
}