{
  "id": 304819,
  "name": "Medix",
  "slug": "medix",
  "year": 2025,
  "banner_url": "",
  "icon_url": "",
  "coverart": "https://lutris.net/media/igdb/cover_big/co97xa.jpg",
  "platforms": [
    {
      "name": "Mac"
    },
    {
      "name": "Windows"
    }
  ],
  "provider_games": [
    {
      "name": "Medix",
      "slug": "medix",
      "service": "igdb"
    }
  ],
  "aliases": [],
  "shaders": [],
  "discord_id": "",
  "change_for": null
}