{
  "id": 57170,
  "name": "Bear Dream",
  "slug": "bear-dream",
  "year": null,
  "banner_url": "",
  "icon_url": "",
  "coverart": "https://lutris.net/media/igdb/cover_big/fcnytq1vxnjauo0t576v.jpg",
  "platforms": [],
  "provider_games": [
    {
      "name": "Bear Dream",
      "slug": "bear-dream",
      "service": "igdb"
    }
  ],
  "aliases": [],
  "shaders": [],
  "discord_id": "",
  "change_for": null
}