{
  "id": 83341,
  "name": "Third Blade",
  "slug": "third-blade",
  "year": 2012,
  "banner_url": "",
  "icon_url": "",
  "coverart": null,
  "platforms": [
    {
      "name": "Android"
    }
  ],
  "provider_games": [
    {
      "name": "Third Blade",
      "slug": "third-blade",
      "service": "igdb"
    }
  ],
  "aliases": [],
  "shaders": [],
  "discord_id": "",
  "change_for": null
}