{
  "id": 54994,
  "name": "Lowrider",
  "slug": "lowrider",
  "year": null,
  "banner_url": "",
  "icon_url": "",
  "coverart": "https://lutris.net/media/igdb/cover_big/co6poe.jpg",
  "platforms": [],
  "provider_games": [
    {
      "name": "Lowrider",
      "slug": "lowrider",
      "service": "igdb"
    }
  ],
  "aliases": [],
  "shaders": [],
  "discord_id": "",
  "change_for": null
}