{
  "id": 292623,
  "name": "World Eternal: Battlegrounds",
  "slug": "world-eternal-battlegrounds",
  "year": null,
  "banner_url": "",
  "icon_url": "",
  "coverart": "https://lutris.net/media/igdb/cover_big/co8mvn.jpg",
  "platforms": [],
  "provider_games": [
    {
      "name": "World Eternal: Battlegrounds",
      "slug": "world-eternal-battlegrounds",
      "service": "igdb"
    }
  ],
  "aliases": [],
  "shaders": [],
  "discord_id": "",
  "change_for": null
}