{
  "id": 29475,
  "name": "Starpoint Gemini 3",
  "slug": "starpoint-gemini-3",
  "year": 2019,
  "banner_url": "https://lutris.net/games/banner/starpoint-gemini-3.jpg",
  "icon_url": "https://lutris.net/games/icon/starpoint-gemini-3.png",
  "coverart": "https://lutris.net/media/igdb/cover_big/co421o.jpg",
  "platforms": [
    {
      "name": "Windows"
    }
  ],
  "provider_games": [
    {
      "name": "Starpoint Gemini 3",
      "slug": "1195777992",
      "service": "gog"
    },
    {
      "name": "Starpoint Gemini 3",
      "slug": "977720",
      "service": "steam"
    },
    {
      "name": "Starpoint Gemini 3",
      "slug": "starpoint-gemini-3",
      "service": "igdb"
    }
  ],
  "aliases": [],
  "shaders": [],
  "discord_id": "",
  "change_for": null
}