{
  "id": 10678,
  "game_id": 5002,
  "game_slug": "tales-of-zestiria",
  "name": "Tales of Zestiria",
  "year": 2015,
  "user": "Gunmask",
  "runner": "winesteam",
  "slug": "tales-of-zestiria-steam-w-dxvk",
  "version": "Steam w/ DXVK",
  "description": null,
  "notes": "",
  "credits": "",
  "created_at": "2018-10-29T00:55:09.063000Z",
  "updated_at": "2023-06-13T01:34:39.778634Z",
  "draft": false,
  "published": true,
  "published_by": 19464,
  "rating": "",
  "is_playable": null,
  "steamid": 351970,
  "gogid": null,
  "gogslug": "",
  "humbleid": "",
  "humblestoreid": "",
  "humblestoreid_real": "",
  "script": {
    "game": {
      "appid": 351970,
      "arch": "win64",
      "prefix": "$GAMEDIR/prefix"
    },
    "installer": [
      {
        "task": {
          "arch": "win64",
          "name": "create_prefix",
          "prefix": "$GAMEDIR/prefix"
        }
      },
      {
        "task": {
          "app": "allfonts",
          "arch": "win64",
          "name": "winetricks",
          "prefix": "$GAMEDIR/prefix"
        }
      }
    ]
  },
  "content": "game:\n  appid: 351970\n  arch: win64\n  prefix: $GAMEDIR/prefix\ninstaller:\n- task:\n    arch: win64\n    name: create_prefix\n    prefix: $GAMEDIR/prefix\n- task:\n    app: allfonts\n    arch: win64\n    name: winetricks\n    prefix: $GAMEDIR/prefix\n",
  "discord_id": "504070466948956160"
}