{
  "id": 57493,
  "name": "Zigamus: Zombies at Vigamus",
  "slug": "zigamus-zombies-at-vigamus",
  "year": null,
  "banner_url": "",
  "icon_url": "",
  "coverart": "https://lutris.net/media/igdb/cover_big/ofcjba0xphf2awvvwio0.jpg",
  "platforms": [],
  "provider_games": [
    {
      "name": "Zigamus: Zombies at Vigamus",
      "slug": "zigamus-zombies-at-vigamus",
      "service": "igdb"
    }
  ],
  "aliases": [],
  "shaders": [],
  "discord_id": "",
  "change_for": null
}