{
  "id": 95954,
  "name": "Caveman adventures",
  "slug": "caveman-adventures",
  "year": null,
  "banner_url": "",
  "icon_url": "",
  "coverart": null,
  "platforms": [],
  "provider_games": [
    {
      "name": "Caveman adventures",
      "slug": "caveman-adventures",
      "service": "igdb"
    }
  ],
  "aliases": [],
  "shaders": [],
  "discord_id": "",
  "change_for": null
}