{
  "id": 20809,
  "name": "TheGunRunner",
  "slug": "thegunrunner",
  "year": 2018,
  "banner_url": "https://lutris.net/games/banner/thegunrunner.jpg",
  "icon_url": "https://lutris.net/games/icon/thegunrunner.png",
  "coverart": null,
  "platforms": [
    {
      "name": "Windows"
    }
  ],
  "provider_games": [
    {
      "name": "TheGunRunner",
      "slug": "809780",
      "service": "steam"
    },
    {
      "name": "TheGunRunner",
      "slug": "thegunrunner",
      "service": "igdb"
    }
  ],
  "aliases": [],
  "shaders": [],
  "discord_id": "",
  "change_for": null
}