{
  "id": 18761,
  "name": "Destination Dungeon: Crypts of Warthallow",
  "slug": "destination-dungeon-crypts-of-warthallow",
  "year": 2017,
  "banner_url": "https://lutris.net/games/banner/destination-dungeon-crypts-of-warthallow.jpg",
  "icon_url": "https://lutris.net/games/icon/destination-dungeon-crypts-of-warthallow.png",
  "coverart": "https://lutris.net/media/igdb/cover_big/co2as7.jpg",
  "platforms": [
    {
      "name": "Windows"
    }
  ],
  "provider_games": [
    {
      "name": "Destination Dungeon: Crypts of Warthallow",
      "slug": "destination-dungeon-crypts-of-warthallow",
      "service": "igdb"
    }
  ],
  "aliases": [],
  "shaders": [],
  "discord_id": "",
  "change_for": null
}