{
  "id": 275686,
  "name": "Drift Boss game",
  "slug": "drift-boss-game",
  "year": 2022,
  "banner_url": "",
  "icon_url": "",
  "coverart": null,
  "platforms": [
    {
      "name": "Game & Watch"
    }
  ],
  "provider_games": [],
  "aliases": [],
  "shaders": [],
  "discord_id": "",
  "change_for": null
}