{
  "id": 125033,
  "name": "Endure",
  "slug": "endure",
  "year": null,
  "banner_url": "",
  "icon_url": "",
  "coverart": "https://lutris.net/media/igdb/cover_big/b90yl6feewjor3qvgw2e.jpg",
  "platforms": [],
  "provider_games": [
    {
      "name": "Endure",
      "slug": "endure",
      "service": "igdb"
    }
  ],
  "aliases": [],
  "shaders": [],
  "discord_id": "",
  "change_for": null
}