{
  "id": 21625,
  "name": "Frightened Beetles",
  "slug": "frightened-beetles",
  "year": 2018,
  "banner_url": "https://lutris.net/games/banner/frightened-beetles.jpg",
  "icon_url": "https://lutris.net/games/icon/frightened-beetles.png",
  "coverart": "https://lutris.net/media/igdb/cover_big/co4sv9.jpg",
  "platforms": [
    {
      "name": "Windows"
    }
  ],
  "provider_games": [
    {
      "name": "Frightened Beetles",
      "slug": "823830",
      "service": "steam"
    },
    {
      "name": "Frightened Beetles",
      "slug": "frightened-beetles",
      "service": "igdb"
    }
  ],
  "aliases": [],
  "shaders": [],
  "discord_id": "",
  "change_for": null
}