{
  "id": 117603,
  "name": "Puchi Eva: Evangelion @ Game",
  "slug": "puchi-eva-evangelion-at-game",
  "year": 2008,
  "banner_url": "",
  "icon_url": "",
  "coverart": "https://lutris.net/media/igdb/cover_big/co2wlm.jpg",
  "platforms": [
    {
      "name": "Nintendo DS"
    }
  ],
  "provider_games": [
    {
      "name": "Puchi Eva: Evangelion@Game",
      "slug": "puchi-eva-evangelion-at-game",
      "service": "igdb"
    }
  ],
  "aliases": [],
  "shaders": [],
  "discord_id": "",
  "change_for": null
}