{
  "id": 4261,
  "game_id": 4526,
  "game_slug": "dungeon-crawlers-hd",
  "name": "Dungeon Crawlers HD",
  "year": 2015,
  "user": "FakeShemp",
  "runner": "wine",
  "slug": "dungeon-crawlers-hd-indiegamestand",
  "version": "IndieGameStand",
  "description": "",
  "notes": "",
  "credits": "",
  "created_at": "2017-06-10T14:08:55.422000Z",
  "updated_at": "2018-05-19T03:41:52.789431Z",
  "draft": false,
  "published": true,
  "published_by": null,
  "rating": "",
  "is_playable": null,
  "steamid": 355100,
  "gogid": null,
  "gogslug": "",
  "humbleid": "",
  "humblestoreid": "",
  "humblestoreid_real": "",
  "script": {
    "files": [
      {
        "file1": "N/A:Please select the IndieGameStand installer"
      }
    ],
    "game": {
      "arch": "win32",
      "exe": "drive_c/Program Files/Dungeon Crawlers HD/Dungeon Crawlers HD.exe",
      "prefix": "$GAMEDIR"
    },
    "installer": [
      {
        "task": {
          "executable": "$file1",
          "name": "wineexec",
          "prefix": "$GAMEDIR"
        }
      }
    ]
  },
  "content": "files:\n- file1: N/A:Please select the IndieGameStand installer\ngame:\n  arch: win32\n  exe: drive_c/Program Files/Dungeon Crawlers HD/Dungeon Crawlers HD.exe\n  prefix: $GAMEDIR\ninstaller:\n- task:\n    executable: $file1\n    name: wineexec\n    prefix: $GAMEDIR\n",
  "discord_id": ""
}