{
  "id": 224327,
  "name": "Space Shells",
  "slug": "space-shells",
  "year": null,
  "banner_url": "",
  "icon_url": "",
  "coverart": "https://lutris.net/media/igdb/cover_big/co5ma3.jpg",
  "platforms": [],
  "provider_games": [
    {
      "name": "Space Shells",
      "slug": "space-shells",
      "service": "igdb"
    }
  ],
  "aliases": [],
  "shaders": [],
  "discord_id": "",
  "change_for": null
}