{
  "id": 238470,
  "name": "Miracle Sweeper",
  "slug": "miracle-sweeper",
  "year": null,
  "banner_url": "",
  "icon_url": "",
  "coverart": "https://lutris.net/media/igdb/cover_big/co63u0.jpg",
  "platforms": [],
  "provider_games": [
    {
      "name": "Miracle Sweeper",
      "slug": "miracle-sweeper",
      "service": "igdb"
    }
  ],
  "aliases": [],
  "shaders": [],
  "discord_id": "",
  "change_for": null
}