{
  "id": 152517,
  "name": "Evil Orbs",
  "slug": "evil-orbs",
  "year": 2016,
  "banner_url": "https://lutris.net/games/banner/evil-orbs.jpg",
  "icon_url": "",
  "coverart": "https://lutris.net/media/igdb/cover_big/co3qfl.jpg",
  "platforms": [
    {
      "name": "Mac"
    },
    {
      "name": "Windows"
    }
  ],
  "provider_games": [
    {
      "name": "Evil Orbs",
      "slug": "528420",
      "service": "steam"
    },
    {
      "name": "Evil Orbs",
      "slug": "evil-orbs",
      "service": "igdb"
    }
  ],
  "aliases": [],
  "shaders": [],
  "discord_id": "",
  "change_for": null
}