{
  "id": 201536,
  "name": "Sonic the Hedgehog 2",
  "slug": "sonic-the-hedgehog-2--2",
  "year": null,
  "banner_url": "",
  "icon_url": "",
  "coverart": "https://lutris.net/media/igdb/cover_big/co4p2q.jpg",
  "platforms": [],
  "provider_games": [
    {
      "name": "Sonic the Hedgehog 2",
      "slug": "sonic-the-hedgehog-2--2",
      "service": "igdb"
    }
  ],
  "aliases": [],
  "shaders": [],
  "discord_id": "",
  "change_for": null
}