{
  "id": 106263,
  "name": "Warlock",
  "slug": "warlock",
  "year": 1987,
  "banner_url": "",
  "icon_url": "",
  "coverart": "https://lutris.net/media/igdb/cover_big/unnkfehhk8htyewezzva.jpg",
  "platforms": [
    {
      "name": "Amstrad CPC"
    },
    {
      "name": "ZX Spectrum"
    }
  ],
  "provider_games": [
    {
      "name": "Warlock",
      "slug": "warlock",
      "service": "igdb"
    }
  ],
  "aliases": [],
  "shaders": [],
  "discord_id": "",
  "change_for": null
}