{
  "id": 19248,
  "name": "Me & My Katamari",
  "slug": "me-my-katamari",
  "year": 2006,
  "banner_url": "https://lutris.net/games/banner/me-my-katamari.jpg",
  "icon_url": "",
  "coverart": "https://lutris.net/media/igdb/cover_big/co2hix.jpg",
  "platforms": [
    {
      "name": "Sony PSP"
    }
  ],
  "provider_games": [
    {
      "name": "Me & My Katamari",
      "slug": "me-my-katamari",
      "service": "igdb"
    }
  ],
  "aliases": [],
  "shaders": [],
  "discord_id": "",
  "change_for": null
}