{
  "id": 79576,
  "name": "F-1 Race",
  "slug": "f-1-race",
  "year": 1984,
  "banner_url": "",
  "icon_url": "",
  "coverart": "https://lutris.net/media/igdb/cover_big/tvf5p9mrhxmhjc7jmvvs.jpg",
  "platforms": [
    {
      "name": "Family Computer"
    },
    {
      "name": "Game Boy"
    }
  ],
  "provider_games": [
    {
      "name": "F-1 Race",
      "slug": "f-1-race",
      "service": "igdb"
    }
  ],
  "aliases": [],
  "shaders": [],
  "discord_id": "",
  "change_for": null
}