{
  "id": 224904,
  "name": "Astro Battlers TD",
  "slug": "astro-battlers-td",
  "year": null,
  "banner_url": "",
  "icon_url": "",
  "coverart": "https://lutris.net/media/igdb/cover_big/co58qt.jpg",
  "platforms": [],
  "provider_games": [
    {
      "name": "Astro Battlers TD",
      "slug": "astro-battlers-td",
      "service": "igdb"
    }
  ],
  "aliases": [],
  "shaders": [],
  "discord_id": "",
  "change_for": null
}