{
  "id": 163075,
  "name": "Risen Dragons",
  "slug": "risen-dragons",
  "year": null,
  "banner_url": "",
  "icon_url": "",
  "coverart": "https://lutris.net/media/igdb/cover_big/co40iz.jpg",
  "platforms": [],
  "provider_games": [
    {
      "name": "Risen Dragons",
      "slug": "risen-dragons",
      "service": "igdb"
    }
  ],
  "aliases": [],
  "shaders": [],
  "discord_id": "",
  "change_for": null
}