{
  "id": 4146,
  "name": "Survivors",
  "slug": "survivors",
  "year": null,
  "banner_url": "https://lutris.net/games/banner/survivors.jpg",
  "icon_url": "https://lutris.net/games/icon/survivors.png",
  "coverart": "https://lutris.net/media/igdb/cover_big/co5prh.jpg",
  "platforms": [],
  "provider_games": [
    {
      "name": "Pixel Survivors",
      "slug": "342970",
      "service": "steam"
    },
    {
      "name": "Survivors",
      "slug": "survivors",
      "service": "igdb"
    }
  ],
  "aliases": [],
  "shaders": [],
  "discord_id": "",
  "change_for": null
}