{
  "id": 4712,
  "game_id": 4470,
  "game_slug": "sanctuaryrpg-black-edition",
  "name": "SanctuaryRPG: Black Edition",
  "year": 2015,
  "user": "FakeShemp",
  "runner": "wine",
  "slug": "sanctuaryrpg-black-edition-humble",
  "version": "Humble",
  "description": "",
  "notes": "",
  "credits": "",
  "created_at": "2017-06-28T18:50:36.749304Z",
  "updated_at": "2018-05-19T03:41:53.440203Z",
  "draft": false,
  "published": true,
  "published_by": null,
  "rating": "",
  "is_playable": null,
  "steamid": 328760,
  "gogid": 1423487549,
  "gogslug": "sanctuaryrpg_black_edition",
  "humbleid": "",
  "humblestoreid": "",
  "humblestoreid_real": "",
  "script": {
    "files": [
      {
        "file1": "N/A:Please select the Humble archive"
      }
    ],
    "game": {
      "arch": "win32",
      "exe": "drive_c/Program Files/SanctuaryRPG/SanctuaryRPG.exe",
      "prefix": "$GAMEDIR"
    },
    "installer": [
      {
        "extract": {
          "dst": "$GAMEDIR/drive_c/Program Files/SanctuaryRPG",
          "file": "$file1"
        }
      }
    ]
  },
  "content": "files:\n- file1: N/A:Please select the Humble archive\ngame:\n  arch: win32\n  exe: drive_c/Program Files/SanctuaryRPG/SanctuaryRPG.exe\n  prefix: $GAMEDIR\ninstaller:\n- extract:\n    dst: $GAMEDIR/drive_c/Program Files/SanctuaryRPG\n    file: $file1\n",
  "discord_id": ""
}