{
  "id": 21230,
  "name": "Steve Chong Finds Out That Suicide is a Bad Idea",
  "slug": "steve-chong-finds-out-that-suicide-is-a-bad-idea",
  "year": null,
  "banner_url": "https://lutris.net/games/banner/steve-chong-finds-out-that-suicide-is-a-bad-idea.jpg",
  "icon_url": "https://lutris.net/games/icon/steve-chong-finds-out-that-suicide-is-a-bad-idea.png",
  "coverart": null,
  "platforms": [],
  "provider_games": [
    {
      "name": "Steve Chong Finds Out That Suicide is a Bad Idea",
      "slug": "382780",
      "service": "steam"
    }
  ],
  "aliases": [],
  "shaders": [],
  "discord_id": "",
  "change_for": null
}