{
  "id": 102537,
  "name": "Wheel of Fortune: Show Puzzles",
  "slug": "wheel-of-fortune-show-puzzles",
  "year": 2016,
  "banner_url": "",
  "icon_url": "",
  "coverart": "https://lutris.net/media/igdb/cover_big/v5twc4ibjwhoz4kgzoat.jpg",
  "platforms": [],
  "provider_games": [
    {
      "name": "Wheel of Fortune: Show Puzzles",
      "slug": "wheel-of-fortune-show-puzzles",
      "service": "igdb"
    }
  ],
  "aliases": [],
  "shaders": [],
  "discord_id": "",
  "change_for": null
}