{
  "id": 227896,
  "name": "The Rest of Our Lives",
  "slug": "the-rest-of-our-lives",
  "year": 2019,
  "banner_url": "",
  "icon_url": "",
  "coverart": "https://lutris.net/media/igdb/cover_big/co55ra.jpg",
  "platforms": [
    {
      "name": "Windows"
    }
  ],
  "provider_games": [
    {
      "name": "The Rest of Our Lives",
      "slug": "the-rest-of-our-lives",
      "service": "igdb"
    }
  ],
  "aliases": [],
  "shaders": [],
  "discord_id": "",
  "change_for": null
}