{
  "id": 260750,
  "name": "Car Simulator: Car Games 3D",
  "slug": "car-simulator-car-games-3d",
  "year": null,
  "banner_url": "",
  "icon_url": "",
  "coverart": null,
  "platforms": [],
  "provider_games": [
    {
      "name": "Car Simulator: Car Games 3D",
      "slug": "car-simulator-car-games-3d",
      "service": "igdb"
    }
  ],
  "aliases": [],
  "shaders": [],
  "discord_id": "",
  "change_for": null
}