{
  "id": 17475,
  "game_id": 29688,
  "game_slug": "code-vein",
  "name": "CODE VEIN",
  "year": 2019,
  "user": "Tarulia",
  "runner": "steam",
  "slug": "code-vein-steam-proton",
  "version": "Steam Proton",
  "description": null,
  "notes": "Enable Steam Play (if not already done) and disable Steam Overlay\r\n\r\nSteam > Steam > Settings > Steam Play > Check all boxes > Restart\r\nSteam > Steam > Settings > In-Game > Uncheck \"Enable the Steam Overlay while in-game\"\r\nThen run this installer",
  "credits": "",
  "created_at": "2019-12-21T20:51:49.256000Z",
  "updated_at": "2019-12-22T11:22:34.662133Z",
  "draft": false,
  "published": true,
  "published_by": 20548,
  "rating": "",
  "is_playable": null,
  "steamid": 678960,
  "gogid": null,
  "gogslug": "",
  "humbleid": "",
  "humblestoreid": "",
  "humblestoreid_real": "",
  "script": {
    "game": {
      "appid": 678960
    }
  },
  "content": "game:\n  appid: 678960\n",
  "discord_id": ""
}