{
  "id": 219871,
  "name": "Gates of Devoroth",
  "slug": "gates-of-devoroth",
  "year": null,
  "banner_url": "",
  "icon_url": "",
  "coverart": "https://lutris.net/media/igdb/cover_big/co5dlu.jpg",
  "platforms": [],
  "provider_games": [
    {
      "name": "Gates of Devoroth",
      "slug": "gates-of-devoroth",
      "service": "igdb"
    }
  ],
  "aliases": [],
  "shaders": [],
  "discord_id": "",
  "change_for": null
}