{
  "id": 196074,
  "name": "Gang Human Wrestling",
  "slug": "gang-human-wrestling",
  "year": null,
  "banner_url": "",
  "icon_url": "",
  "coverart": null,
  "platforms": [],
  "provider_games": [
    {
      "name": "Gang Human Wrestling",
      "slug": "gang-human-wrestling",
      "service": "igdb"
    }
  ],
  "aliases": [],
  "shaders": [],
  "discord_id": "",
  "change_for": null
}