{
  "id": 26072,
  "game_id": 41156,
  "game_slug": "dyson-sphere-program",
  "name": "Dyson Sphere Program",
  "year": 2021,
  "user": "kjagodka",
  "runner": "steam",
  "slug": "dyson-sphere-program-steam",
  "version": "Steam",
  "description": null,
  "notes": "As of january 27th 2021, it works just fine with proton 5.13.5.",
  "credits": "",
  "created_at": "2021-01-27T13:58:16.999069Z",
  "updated_at": "2021-01-28T01:27:21.338295Z",
  "draft": false,
  "published": true,
  "published_by": null,
  "rating": "",
  "is_playable": null,
  "steamid": 1366540,
  "gogid": null,
  "gogslug": "",
  "humbleid": "",
  "humblestoreid": "",
  "humblestoreid_real": "",
  "script": {
    "game": {
      "appid": 1366540
    }
  },
  "content": "game:\n  appid: 1366540\n",
  "discord_id": ""
}