{
  "id": 221344,
  "name": "Ocean Explorer Tycoon",
  "slug": "ocean-explorer-tycoon",
  "year": null,
  "banner_url": "",
  "icon_url": "",
  "coverart": null,
  "platforms": [],
  "provider_games": [
    {
      "name": "Ocean Explorer Tycoon",
      "slug": "ocean-explorer-tycoon",
      "service": "igdb"
    }
  ],
  "aliases": [],
  "shaders": [],
  "discord_id": "",
  "change_for": null
}