{
  "id": 88548,
  "name": "Hobby Farm Free",
  "slug": "hobby-farm-free",
  "year": null,
  "banner_url": "",
  "icon_url": "",
  "coverart": null,
  "platforms": [],
  "provider_games": [
    {
      "name": "Hobby Farm Free",
      "slug": "hobby-farm-free",
      "service": "igdb"
    }
  ],
  "aliases": [],
  "shaders": [],
  "discord_id": "",
  "change_for": null
}