{
  "id": 272431,
  "name": "Feichang Mowang Beelzebub",
  "slug": "feichang-mowang-beelzebub",
  "year": null,
  "banner_url": "",
  "icon_url": "",
  "coverart": "https://lutris.net/media/igdb/cover_big/co7oy9.jpg",
  "platforms": [],
  "provider_games": [
    {
      "name": "Feichang Mowang Beelzebub",
      "slug": "feichang-mowang-beelzebub",
      "service": "igdb"
    }
  ],
  "aliases": [],
  "shaders": [],
  "discord_id": "",
  "change_for": null
}