{
  "id": 268221,
  "name": "Taskmaster VR",
  "slug": "taskmaster-vr",
  "year": null,
  "banner_url": "",
  "icon_url": "",
  "coverart": "https://lutris.net/media/igdb/cover_big/co7fe5.jpg",
  "platforms": [],
  "provider_games": [
    {
      "name": "Taskmaster VR",
      "slug": "taskmaster-vr",
      "service": "igdb"
    }
  ],
  "aliases": [],
  "shaders": [],
  "discord_id": "",
  "change_for": null
}