{
  "id": 262779,
  "name": "The Shark's Bathhouse",
  "slug": "the-sharks-bathhouse--3",
  "year": null,
  "banner_url": "",
  "icon_url": "",
  "coverart": "https://lutris.net/media/igdb/cover_big/co78aa.jpg",
  "platforms": [
    {
      "name": "Windows"
    }
  ],
  "provider_games": [
    {
      "name": "The Shark's Bathhouse",
      "slug": "the-sharks-bathhouse--3",
      "service": "igdb"
    }
  ],
  "aliases": [],
  "shaders": [],
  "discord_id": "",
  "change_for": null
}