{
  "id": 169904,
  "name": "Front Mission Series: Gun Hazard",
  "slug": "front-mission-series-gun-hazard",
  "year": 1996,
  "banner_url": "",
  "icon_url": "",
  "coverart": "https://lutris.net/media/igdb/cover_big/co2k5g.jpg",
  "platforms": [
    {
      "name": "Nintendo Wii"
    },
    {
      "name": "Super Famicom"
    }
  ],
  "provider_games": [
    {
      "name": "Front Mission Series: Gun Hazard",
      "slug": "front-mission-series-gun-hazard",
      "service": "igdb"
    }
  ],
  "aliases": [],
  "shaders": [],
  "discord_id": "",
  "change_for": null
}