{
  "id": 38291,
  "game_id": 274294,
  "game_slug": "tales-of-the-magic-ball-the-lost-sorcerer",
  "name": "Tales of the Magic Ball: The Lost Sorcerer",
  "year": 2024,
  "user": "vanstaveren",
  "runner": "steam",
  "slug": "tales-of-the-magic-ball-the-l-steam",
  "version": "steam",
  "description": "",
  "notes": "",
  "credits": "",
  "created_at": "2024-02-26T23:14:05.673904Z",
  "updated_at": "2024-02-26T23:14:05.673923Z",
  "draft": false,
  "published": true,
  "published_by": null,
  "rating": "",
  "is_playable": null,
  "steamid": null,
  "gogid": null,
  "gogslug": "",
  "humbleid": "",
  "humblestoreid": "",
  "humblestoreid_real": "",
  "script": {
    "game": {
      "appid": 2318100
    }
  },
  "content": "game:\n  appid: 2318100\n",
  "discord_id": ""
}