{
  "id": 287295,
  "name": "Vojna",
  "slug": "vojna",
  "year": null,
  "banner_url": "",
  "icon_url": "",
  "coverart": "https://lutris.net/media/igdb/cover_big/co8a7c.jpg",
  "platforms": [],
  "provider_games": [
    {
      "name": "Vojna",
      "slug": "vojna",
      "service": "igdb"
    }
  ],
  "aliases": [],
  "shaders": [],
  "discord_id": "",
  "change_for": null
}