{
  "id": 82481,
  "name": "Trump: Agent of Hate",
  "slug": "trump-agent-of-hate",
  "year": 2017,
  "banner_url": "",
  "icon_url": "",
  "coverart": "https://lutris.net/media/igdb/cover_big/co27ur.jpg",
  "platforms": [
    {
      "name": "Windows"
    }
  ],
  "provider_games": [
    {
      "name": "Trump: Agent of Hate",
      "slug": "trump-agent-of-hate",
      "service": "igdb"
    }
  ],
  "aliases": [],
  "shaders": [],
  "discord_id": "",
  "change_for": null
}