{
  "id": 86026,
  "name": "Outdoor Action Double Pack",
  "slug": "outdoor-action-double-pack",
  "year": 2010,
  "banner_url": "",
  "icon_url": "",
  "coverart": null,
  "platforms": [
    {
      "name": "Nintendo Wii"
    }
  ],
  "provider_games": [
    {
      "name": "Outdoor Action Double Pack",
      "slug": "outdoor-action-double-pack",
      "service": "igdb"
    }
  ],
  "aliases": [],
  "shaders": [],
  "discord_id": "",
  "change_for": null
}