{
  "id": 8974,
  "game_id": 4008,
  "game_slug": "oolite",
  "name": "Oolite",
  "year": 2006,
  "user": "tsoj",
  "runner": "linux",
  "slug": "oolite-190-linux-x86_64",
  "version": "1.90 Linux x86_64",
  "description": null,
  "notes": "The oolite_setup.sh is a modified version of the setup script that is included in the .run file. The script is designed to remove the hard-coded value so that the game is installed to the Lutris $GAMEDIR.\r\n\r\nThe script needs to be updated to allow for a custom Lutris $GAMEDIR, but for now it is set to $HOME/Games/oolite",
  "credits": "",
  "created_at": "2018-07-01T21:33:03.288000Z",
  "updated_at": "2021-01-10T05:57:26.838552Z",
  "draft": false,
  "published": true,
  "published_by": 1,
  "rating": "",
  "is_playable": null,
  "steamid": null,
  "gogid": null,
  "gogslug": "",
  "humbleid": "",
  "humblestoreid": "",
  "humblestoreid_real": "",
  "script": {
    "files": [
      {
        "installer": "https://github.com/OoliteProject/oolite/releases/download/1.90/oolite-1.90.linux-x86_64.tgz"
      },
      {
        "setup": "https://raw.githubusercontent.com/dhollinger/lutris_installers/master/scripts/oolite_setup.sh"
      }
    ],
    "game": {
      "exe": "$GAMEDIR/GNUstep/Applications/Oolite/oolite"
    },
    "installer": [
      {
        "extract": {
          "file": "$installer"
        }
      },
      {
        "execute": {
          "command": "chmod +x $GAMEDIR/oolite-1.90.linux-x86_64.run"
        }
      },
      {
        "execute": {
          "args": "--keep --noexec --target $GAMEDIR/installer",
          "file": "$GAMEDIR/oolite-1.90.linux-x86_64.run",
          "terminal": true
        }
      },
      {
        "move": {
          "dst": "$GAMEDIR/installer/oolite_setup.sh",
          "src": "setup"
        }
      },
      {
        "execute": {
          "command": "chmod +x $GAMEDIR/installer/oolite_setup.sh"
        }
      },
      {
        "execute": {
          "args": "install",
          "file": "$GAMEDIR/installer/oolite_setup.sh",
          "terminal": true
        }
      }
    ]
  },
  "content": "files:\n- installer: https://github.com/OoliteProject/oolite/releases/download/1.90/oolite-1.90.linux-x86_64.tgz\n- setup: https://raw.githubusercontent.com/dhollinger/lutris_installers/master/scripts/oolite_setup.sh\ngame:\n  exe: $GAMEDIR/GNUstep/Applications/Oolite/oolite\ninstaller:\n- extract:\n    file: $installer\n- execute:\n    command: chmod +x $GAMEDIR/oolite-1.90.linux-x86_64.run\n- execute:\n    args: --keep --noexec --target $GAMEDIR/installer\n    file: $GAMEDIR/oolite-1.90.linux-x86_64.run\n    terminal: true\n- move:\n    dst: $GAMEDIR/installer/oolite_setup.sh\n    src: setup\n- execute:\n    command: chmod +x $GAMEDIR/installer/oolite_setup.sh\n- execute:\n    args: install\n    file: $GAMEDIR/installer/oolite_setup.sh\n    terminal: true\n",
  "discord_id": ""
}