{
  "id": 148333,
  "name": "Anime Artist 2: Lovely Danya",
  "slug": "anime-artist-2-lovely-danya",
  "year": 2020,
  "banner_url": "https://lutris.net/games/banner/anime-artist-2-lovely-danya.jpg",
  "icon_url": "",
  "coverart": "https://lutris.net/media/igdb/cover_big/co1zzq.jpg",
  "platforms": [
    {
      "name": "Windows"
    }
  ],
  "provider_games": [
    {
      "name": "Anime Artist 2: Lovely Danya",
      "slug": "1221800",
      "service": "steam"
    },
    {
      "name": "Anime Artist 2: Lovely Danya",
      "slug": "anime-artist-2-lovely-danya",
      "service": "igdb"
    }
  ],
  "aliases": [],
  "shaders": [],
  "discord_id": "",
  "change_for": null
}