{
  "id": 155071,
  "name": "Fun Platformer",
  "slug": "fun-platformer",
  "year": null,
  "banner_url": "",
  "icon_url": "",
  "coverart": "https://lutris.net/media/igdb/cover_big/co3xjm.jpg",
  "platforms": [],
  "provider_games": [
    {
      "name": "Fun Platformer",
      "slug": "fun-platformer",
      "service": "igdb"
    }
  ],
  "aliases": [],
  "shaders": [],
  "discord_id": "",
  "change_for": null
}