{
  "id": 14282,
  "name": "The Caretaker",
  "slug": "the-caretaker",
  "year": 2016,
  "banner_url": "https://lutris.net/games/banner/the-caretaker.jpg",
  "icon_url": "https://lutris.net/games/icon/the-caretaker.png",
  "coverart": null,
  "platforms": [
    {
      "name": "Mac"
    },
    {
      "name": "Windows"
    }
  ],
  "provider_games": [
    {
      "name": "The Caretaker",
      "slug": "486550",
      "service": "steam"
    },
    {
      "name": "The Caretaker",
      "slug": "the-caretaker",
      "service": "igdb"
    }
  ],
  "aliases": [],
  "shaders": [],
  "discord_id": "",
  "change_for": null
}