{
  "id": 154792,
  "name": "Zombie Dinos From Planet Zeltoid",
  "slug": "zombie-dinos-from-planet-zeltoid",
  "year": 1992,
  "banner_url": "https://lutris.net/games/banner/zombie-dinos-from-planet-zeltoid.jpg",
  "icon_url": "",
  "coverart": "https://lutris.net/media/igdb/cover_big/lxjoghgdwsibfpbrtden.jpg",
  "platforms": [
    {
      "name": "Windows"
    }
  ],
  "provider_games": [
    {
      "name": "Zombie Dinos from Planet Zeltoid",
      "slug": "1650051827",
      "service": "gog"
    },
    {
      "name": "Zombie Dinos From Planet Zeltoid",
      "slug": "zombie-dinos-from-planet-zeltoid",
      "service": "igdb"
    },
    {
      "name": "Zombie Dinos from Planet Zeltoid",
      "slug": "1749720",
      "service": "steam"
    }
  ],
  "aliases": [],
  "shaders": [],
  "discord_id": "",
  "change_for": null
}