{
  "id": 170210,
  "name": "Tower",
  "slug": "tower--2",
  "year": null,
  "banner_url": "",
  "icon_url": "",
  "coverart": "https://lutris.net/media/igdb/cover_big/co46fz.jpg",
  "platforms": [],
  "provider_games": [
    {
      "name": "Tower",
      "slug": "tower--2",
      "service": "igdb"
    }
  ],
  "aliases": [],
  "shaders": [],
  "discord_id": "",
  "change_for": null
}