{
  "id": 35267,
  "name": "Phraze Craze",
  "slug": "phraze-craze",
  "year": 1986,
  "banner_url": "https://lutris.net/games/banner/phraze-craze.jpg",
  "icon_url": "https://lutris.net/games/icon/phraze-craze.png",
  "coverart": "https://lutris.net/media/igdb/cover_big/co8gqc.jpg",
  "platforms": [
    {
      "name": "Arcade"
    }
  ],
  "provider_games": [
    {
      "name": "Phraze Craze",
      "slug": "phrcraze",
      "service": "mame"
    },
    {
      "name": "Phraze Craze",
      "slug": "phraze-craze",
      "service": "igdb"
    }
  ],
  "aliases": [],
  "shaders": [],
  "discord_id": "",
  "change_for": null
}