{
  "id": 92811,
  "name": "Super Craft: Building Game",
  "slug": "super-craft-building-game",
  "year": null,
  "banner_url": "",
  "icon_url": "",
  "coverart": null,
  "platforms": [],
  "provider_games": [
    {
      "name": "Super Craft: Building Game",
      "slug": "super-craft-building-game",
      "service": "igdb"
    }
  ],
  "aliases": [],
  "shaders": [],
  "discord_id": "",
  "change_for": null
}