{
  "id": 173431,
  "name": "1193 Anno Domini: Merchants and Crusaders",
  "slug": "1193-anno-domini-merchants-and-crusaders",
  "year": 2001,
  "banner_url": "",
  "icon_url": "",
  "coverart": "https://lutris.net/media/igdb/cover_big/e6ieevphc2owyac9ac5x.jpg",
  "platforms": [
    {
      "name": "Windows"
    }
  ],
  "provider_games": [
    {
      "name": "1193 Anno Domini: Merchants and Crusaders",
      "slug": "1193-anno-domini-merchants-and-crusaders",
      "service": "igdb"
    }
  ],
  "aliases": [],
  "shaders": [],
  "discord_id": "",
  "change_for": null
}