{
  "id": 108195,
  "name": "Hakaioh: King of Crusher",
  "slug": "hakaioh-king-of-crusher",
  "year": 1998,
  "banner_url": "",
  "icon_url": "",
  "coverart": "https://lutris.net/media/igdb/cover_big/co2wjc.jpg",
  "platforms": [
    {
      "name": "Sony PlayStation"
    }
  ],
  "provider_games": [
    {
      "name": "Hakaioh: King of Crusher",
      "slug": "hakaioh-king-of-crusher",
      "service": "igdb"
    }
  ],
  "aliases": [],
  "shaders": [],
  "discord_id": "",
  "change_for": null
}