{
  "id": 113719,
  "name": "Brothers in Arms: Art of War",
  "slug": "brothers-in-arms-art-of-war",
  "year": 2008,
  "banner_url": "",
  "icon_url": "",
  "coverart": "https://lutris.net/media/igdb/cover_big/co39a9.jpg",
  "platforms": [
    {
      "name": "Legacy Cellphone"
    }
  ],
  "provider_games": [
    {
      "name": "Brothers in Arms: Art of War",
      "slug": "brothers-in-arms-art-of-war",
      "service": "igdb"
    }
  ],
  "aliases": [],
  "shaders": [],
  "discord_id": "",
  "change_for": null
}