{
  "id": 60135,
  "name": "Panic Park",
  "slug": "panic-park",
  "year": 1997,
  "banner_url": "",
  "icon_url": "",
  "coverart": "https://lutris.net/media/igdb/cover_big/co1xyt.jpg",
  "platforms": [],
  "provider_games": [
    {
      "name": "Panic Park",
      "slug": "panic-park",
      "service": "igdb"
    }
  ],
  "aliases": [],
  "shaders": [],
  "discord_id": "",
  "change_for": null
}