{
  "id": 64441,
  "name": "The Amazing Flying Brothers",
  "slug": "the-amazing-flying-brothers",
  "year": null,
  "banner_url": "",
  "icon_url": "",
  "coverart": "https://lutris.net/media/igdb/cover_big/co6ia8.jpg",
  "platforms": [],
  "provider_games": [
    {
      "name": "The Amazing Flying Brothers",
      "slug": "the-amazing-flying-brothers",
      "service": "igdb"
    }
  ],
  "aliases": [],
  "shaders": [],
  "discord_id": "",
  "change_for": null
}