{
  "id": 241530,
  "name": "All You Want Bundle",
  "slug": "all-you-want-bundle",
  "year": null,
  "banner_url": "",
  "icon_url": "",
  "coverart": "https://lutris.net/media/igdb/cover_big/co5zyb.jpg",
  "platforms": [],
  "provider_games": [
    {
      "name": "All You Want Bundle",
      "slug": "all-you-want-bundle",
      "service": "igdb"
    }
  ],
  "aliases": [],
  "shaders": [],
  "discord_id": "",
  "change_for": null
}