{
  "id": 93282,
  "name": "Redemption Cemetery: The Island of the Lost",
  "slug": "redemption-cemetery-the-island-of-the-lost",
  "year": null,
  "banner_url": "",
  "icon_url": "",
  "coverart": null,
  "platforms": [],
  "provider_games": [
    {
      "name": "Redemption Cemetery: The Island of the Lost",
      "slug": "redemption-cemetery-the-island-of-the-lost",
      "service": "igdb"
    }
  ],
  "aliases": [],
  "shaders": [],
  "discord_id": "",
  "change_for": null
}