{
  "id": 134691,
  "name": "Growlanser VI: Precarious World",
  "slug": "growlanser-vi-precarious-world",
  "year": 2007,
  "banner_url": "",
  "icon_url": "",
  "coverart": "https://lutris.net/media/igdb/cover_big/co2wit.jpg",
  "platforms": [
    {
      "name": "Sony PlayStation 2"
    }
  ],
  "provider_games": [
    {
      "name": "Growlanser VI: Precarious World",
      "slug": "growlanser-vi-precarious-world",
      "service": "igdb"
    }
  ],
  "aliases": [],
  "shaders": [],
  "discord_id": "",
  "change_for": null
}