{
  "id": 253416,
  "name": "Blazing Dragon",
  "slug": "blazing-dragon",
  "year": null,
  "banner_url": "",
  "icon_url": "",
  "coverart": "https://lutris.net/media/igdb/cover_big/co6u32.jpg",
  "platforms": [],
  "provider_games": [
    {
      "name": "Blazing Dragon",
      "slug": "blazing-dragon",
      "service": "igdb"
    }
  ],
  "aliases": [],
  "shaders": [],
  "discord_id": "",
  "change_for": null
}