{
  "id": 13275,
  "name": "Advance Wars",
  "slug": "advance-wars",
  "year": 2001,
  "banner_url": "https://lutris.net/games/banner/advance-wars.jpg",
  "icon_url": "",
  "coverart": "https://lutris.net/media/igdb/cover_big/co25mi.jpg",
  "platforms": [
    {
      "name": "Nintendo Game Boy Advance"
    },
    {
      "name": "Nintendo Wii U"
    }
  ],
  "provider_games": [
    {
      "name": "Advance Wars",
      "slug": "advance-wars",
      "service": "igdb"
    }
  ],
  "aliases": [],
  "shaders": [],
  "discord_id": "",
  "change_for": null
}