{
  "id": 4376,
  "name": "GoldenEye 007",
  "slug": "goldeneye-007",
  "year": 1997,
  "banner_url": "https://lutris.net/games/banner/goldeneye-007.jpg",
  "icon_url": "",
  "coverart": "https://lutris.net/media/igdb/cover_big/co25w8.jpg",
  "platforms": [
    {
      "name": "Nintendo 64"
    }
  ],
  "provider_games": [
    {
      "name": "GoldenEye 007",
      "slug": "goldeneye-007",
      "service": "igdb"
    }
  ],
  "aliases": [],
  "shaders": [],
  "discord_id": "",
  "change_for": null
}