{
  "id": 57806,
  "name": "Brawler Friends",
  "slug": "brawler-friends",
  "year": null,
  "banner_url": "",
  "icon_url": "",
  "coverart": null,
  "platforms": [],
  "provider_games": [
    {
      "name": "Brawler Friends",
      "slug": "brawler-friends",
      "service": "igdb"
    }
  ],
  "aliases": [],
  "shaders": [],
  "discord_id": "",
  "change_for": null
}