{
  "id": 126952,
  "name": "Hyperide: Vector Raid",
  "slug": "hyperide-vector-raid",
  "year": 2018,
  "banner_url": "",
  "icon_url": "",
  "coverart": "https://lutris.net/media/igdb/cover_big/co4jzj.jpg",
  "platforms": [
    {
      "name": "Nintendo Switch"
    }
  ],
  "provider_games": [
    {
      "name": "Hyperide: Vector Raid",
      "slug": "hyperide-vector-raid",
      "service": "igdb"
    }
  ],
  "aliases": [],
  "shaders": [],
  "discord_id": "",
  "change_for": null
}