{
  "id": 18345,
  "name": "Fluffy Friends 2",
  "slug": "fluffy-friends-2",
  "year": 2017,
  "banner_url": "https://lutris.net/games/banner/fluffy-friends-2.jpg",
  "icon_url": "https://lutris.net/games/icon/fluffy-friends-2.png",
  "coverart": "https://lutris.net/media/igdb/cover_big/co2bf6.jpg",
  "platforms": [
    {
      "name": "Linux"
    },
    {
      "name": "Mac"
    },
    {
      "name": "Windows"
    }
  ],
  "provider_games": [
    {
      "name": "Fluffy Friends 2",
      "slug": "737810",
      "service": "steam"
    },
    {
      "name": "Fluffy Friends 2",
      "slug": "fluffy-friends-2",
      "service": "igdb"
    }
  ],
  "aliases": [],
  "shaders": [],
  "discord_id": "",
  "change_for": null
}