{
  "id": 184172,
  "name": "Dawn Will Come",
  "slug": "dawn-will-come",
  "year": null,
  "banner_url": "",
  "icon_url": "",
  "coverart": "https://lutris.net/media/igdb/cover_big/co6ruu.jpg",
  "platforms": [],
  "provider_games": [
    {
      "name": "Dawn Will Come",
      "slug": "dawn-will-come",
      "service": "igdb"
    }
  ],
  "aliases": [],
  "shaders": [],
  "discord_id": "",
  "change_for": null
}