{
  "id": 147764,
  "name": "Unbeatable Wilderness",
  "slug": "unbeatable-wilderness",
  "year": 2018,
  "banner_url": "",
  "icon_url": "",
  "coverart": null,
  "platforms": [
    {
      "name": "Windows"
    }
  ],
  "provider_games": [
    {
      "name": "Unbeatable Wilderness",
      "slug": "unbeatable-wilderness",
      "service": "igdb"
    }
  ],
  "aliases": [],
  "shaders": [],
  "discord_id": "",
  "change_for": null
}