{
  "id": 87689,
  "name": "Kinect Bundle: Boom Ball 2 + Squid Hero",
  "slug": "kinect-bundle-boom-ball-2-plus-squid-hero",
  "year": 2017,
  "banner_url": "",
  "icon_url": "",
  "coverart": "https://lutris.net/media/igdb/cover_big/co22zn.jpg",
  "platforms": [
    {
      "name": "Xbox One"
    }
  ],
  "provider_games": [
    {
      "name": "Kinect Bundle: Boom Ball 2 + Squid Hero",
      "slug": "kinect-bundle-boom-ball-2-plus-squid-hero",
      "service": "igdb"
    }
  ],
  "aliases": [],
  "shaders": [],
  "discord_id": "",
  "change_for": null
}