{
  "id": 287332,
  "name": "Ant Attack",
  "slug": "ant-attack--1",
  "year": null,
  "banner_url": "",
  "icon_url": "",
  "coverart": "https://lutris.net/media/igdb/cover_big/co89jx.jpg",
  "platforms": [],
  "provider_games": [
    {
      "name": "Ant Attack",
      "slug": "ant-attack--1",
      "service": "igdb"
    }
  ],
  "aliases": [],
  "shaders": [],
  "discord_id": "",
  "change_for": null
}