{
  "id": 137439,
  "name": "Oik Memory 3",
  "slug": "oik-memory-3",
  "year": null,
  "banner_url": "",
  "icon_url": "",
  "coverart": "https://lutris.net/media/igdb/cover_big/co3qk6.jpg",
  "platforms": [],
  "provider_games": [
    {
      "name": "Oik Memory 3",
      "slug": "oik-memory-3",
      "service": "igdb"
    }
  ],
  "aliases": [],
  "shaders": [],
  "discord_id": "",
  "change_for": null
}