{
  "id": 61029,
  "name": "Coin 'n Carry",
  "slug": "coin-n-carry",
  "year": null,
  "banner_url": "",
  "icon_url": "",
  "coverart": "https://lutris.net/media/igdb/cover_big/s8c02sggiyaookrygqm4.jpg",
  "platforms": [],
  "provider_games": [
    {
      "name": "Coin 'n Carry",
      "slug": "coin-n-carry",
      "service": "igdb"
    }
  ],
  "aliases": [],
  "shaders": [],
  "discord_id": "",
  "change_for": null
}