{
  "id": 136781,
  "name": "Ego Death",
  "slug": "ego-death",
  "year": null,
  "banner_url": "",
  "icon_url": "",
  "coverart": "https://lutris.net/media/igdb/cover_big/co3psy.jpg",
  "platforms": [],
  "provider_games": [
    {
      "name": "Ego Death",
      "slug": "ego-death",
      "service": "igdb"
    }
  ],
  "aliases": [],
  "shaders": [],
  "discord_id": "",
  "change_for": null
}