{
  "id": 68010,
  "name": "Oz: The Magical Adventure",
  "slug": "oz-the-magical-adventure",
  "year": null,
  "banner_url": "",
  "icon_url": "",
  "coverart": "https://lutris.net/media/igdb/cover_big/hctbbatuv0yqc8smjuvj.jpg",
  "platforms": [],
  "provider_games": [
    {
      "name": "Oz: The Magical Adventure",
      "slug": "oz-the-magical-adventure",
      "service": "igdb"
    }
  ],
  "aliases": [],
  "shaders": [],
  "discord_id": "",
  "change_for": null
}