{
  "id": 170829,
  "name": "Mobocratic",
  "slug": "mobocratic",
  "year": null,
  "banner_url": "",
  "icon_url": "",
  "coverart": "https://lutris.net/media/igdb/cover_big/co46z1.jpg",
  "platforms": [],
  "provider_games": [
    {
      "name": "Mobocratic",
      "slug": "mobocratic",
      "service": "igdb"
    }
  ],
  "aliases": [],
  "shaders": [],
  "discord_id": "",
  "change_for": null
}