{
  "id": 66827,
  "name": "Emergency Room 2",
  "slug": "emergency-room-2",
  "year": null,
  "banner_url": "",
  "icon_url": "",
  "coverart": null,
  "platforms": [],
  "provider_games": [
    {
      "name": "Emergency Room 2",
      "slug": "emergency-room-2",
      "service": "igdb"
    }
  ],
  "aliases": [],
  "shaders": [],
  "discord_id": "",
  "change_for": null
}