{
  "id": 37862,
  "game_id": 199032,
  "game_slug": "gun-ugly",
  "name": "Gun Ugly",
  "year": null,
  "user": "vanstaveren",
  "runner": "steam",
  "slug": "gun-ugly-steam",
  "version": "steam",
  "description": "",
  "notes": "",
  "credits": "",
  "created_at": "2023-09-27T22:48:13.849679Z",
  "updated_at": "2023-09-27T22:48:13.849702Z",
  "draft": false,
  "published": true,
  "published_by": null,
  "rating": "",
  "is_playable": null,
  "steamid": null,
  "gogid": null,
  "gogslug": "",
  "humbleid": "",
  "humblestoreid": "",
  "humblestoreid_real": "",
  "script": {
    "game": {
      "appid": 1879970
    }
  },
  "content": "game:\n  appid: 1879970\n",
  "discord_id": ""
}