{
  "id": 198273,
  "name": "Chastity Catastrophe",
  "slug": "chastity-catastrophe",
  "year": null,
  "banner_url": "https://lutris.net/games/banner/chastity-catastrophe.jpg",
  "icon_url": "",
  "coverart": "https://lutris.net/media/igdb/cover_big/co4j0m.jpg",
  "platforms": [],
  "provider_games": [
    {
      "name": "Chastity Catastrophe",
      "slug": "chastity-catastrophe",
      "service": "igdb"
    },
    {
      "name": "Chastity Catastrophe",
      "slug": "1780470",
      "service": "steam"
    }
  ],
  "aliases": [],
  "shaders": [],
  "discord_id": "",
  "change_for": null
}