{
  "id": 74166,
  "name": "Chubaw Desuyo! Kyoushou Recipe Shuu",
  "slug": "chubaw-desuyo-kyoushou-recipe-shuu",
  "year": null,
  "banner_url": "",
  "icon_url": "",
  "coverart": null,
  "platforms": [],
  "provider_games": [
    {
      "name": "Chubaw Desuyo! Kyoushou Recipe Shuu",
      "slug": "chubaw-desuyo-kyoushou-recipe-shuu",
      "service": "igdb"
    }
  ],
  "aliases": [],
  "shaders": [],
  "discord_id": "",
  "change_for": null
}