{
  "id": 210287,
  "name": "G-Mode Archives+: Tantei Kibukawa Ryousuke Jiken-tan Vol. 1 - Kamen Gensou Satsujin Jiken",
  "slug": "g-mode-archives-plus-tantei-kibukawa-ryousuke-jiken-tan-vol-1-kamen-gensou-satsujin-jiken",
  "year": null,
  "banner_url": "",
  "icon_url": "",
  "coverart": "https://lutris.net/media/igdb/cover_big/co68jz.jpg",
  "platforms": [],
  "provider_games": [
    {
      "name": "G-Mode Archives+: Tantei Kibukawa Ryousuke Jiken-tan Vol. 1 - Kamen Gensou Satsujin Jiken",
      "slug": "g-mode-archives-plus-tantei-kibukawa-ryousuke-jiken-tan-vol-1-kamen-gensou-satsujin-jiken",
      "service": "igdb"
    }
  ],
  "aliases": [],
  "shaders": [],
  "discord_id": "",
  "change_for": null
}