{
  "id": 63821,
  "name": "OSD vs RON",
  "slug": "osd-vs-ron",
  "year": null,
  "banner_url": "",
  "icon_url": "",
  "coverart": null,
  "platforms": [],
  "provider_games": [
    {
      "name": "OSD vs RON",
      "slug": "osd-vs-ron",
      "service": "igdb"
    }
  ],
  "aliases": [],
  "shaders": [],
  "discord_id": "",
  "change_for": null
}