{
  "id": 237124,
  "name": "Football Seasons",
  "slug": "football-seasons",
  "year": null,
  "banner_url": "",
  "icon_url": "",
  "coverart": null,
  "platforms": [],
  "provider_games": [
    {
      "name": "Football Seasons",
      "slug": "football-seasons",
      "service": "igdb"
    }
  ],
  "aliases": [],
  "shaders": [],
  "discord_id": "",
  "change_for": null
}