{
  "id": 27001,
  "game_id": 28945,
  "game_slug": "cutthroats",
  "name": "Cutthroats",
  "year": 1984,
  "user": "appoloin",
  "runner": "dosbox",
  "slug": "cutthroats-infocom-treasures-ii",
  "version": "Infocom Treasures II CD",
  "description": null,
  "notes": "",
  "credits": "",
  "created_at": "2021-03-19T19:07:35.047000Z",
  "updated_at": "2021-12-11T19:53:34.200355Z",
  "draft": false,
  "published": true,
  "published_by": 51687,
  "rating": "",
  "is_playable": null,
  "steamid": null,
  "gogid": null,
  "gogslug": "",
  "humbleid": "",
  "humblestoreid": "",
  "humblestoreid_real": "",
  "script": {
    "game": {
      "main_file": "$GAMEDIR/cutthroat.conf"
    },
    "installer": [
      {
        "execute": {
          "args": "$GAMEDIR/HDD",
          "file": "mkdir"
        }
      },
      {
        "write_file": {
          "content": "#!/bin/bash\nsrc=$1\ndst=$2\nsrc_path=$(echo \"$1\" | sed -r \"s/(.+)\\/.+/\\1/\")\nfind \"$src_path\" -type d \\( -iname \"cutthroa\"  \\) -exec cp -r {} \"$dst\" \\;",
          "file": "$CACHE/selectcopy.sh"
        }
      },
      {
        "chmodx": "$CACHE/selectcopy.sh"
      },
      {
        "insert-disc": {
          "description": "Please insert Lost Treasures of Infocom II CD",
          "requires": "DOS"
        }
      },
      {
        "execute": {
          "args": "$DISC $GAMEDIR/HDD",
          "file": "$CACHE/selectcopy.sh"
        }
      },
      {
        "execute": {
          "args": "-R 775  \"$GAMEDIR\"",
          "file": "/bin/chmod"
        }
      },
      {
        "write_file": {
          "content": "[autoexec]\nmount C \"$GAMEDIR/HDD\" -t dir\nC:\ncd cutthroa\ncutthroa\nexit",
          "file": "$GAMEDIR/cutthroat.conf"
        }
      }
    ]
  },
  "content": "game:\n  main_file: $GAMEDIR/cutthroat.conf\ninstaller:\n- execute:\n    args: $GAMEDIR/HDD\n    file: mkdir\n- write_file:\n    content: '#!/bin/bash\n\n      src=$1\n\n      dst=$2\n\n      src_path=$(echo \"$1\" | sed -r \"s/(.+)\\/.+/\\1/\")\n\n      find \"$src_path\" -type d \\( -iname \"cutthroa\"  \\) -exec cp -r {} \"$dst\" \\;'\n    file: $CACHE/selectcopy.sh\n- chmodx: $CACHE/selectcopy.sh\n- insert-disc:\n    description: Please insert Lost Treasures of Infocom II CD\n    requires: DOS\n- execute:\n    args: $DISC $GAMEDIR/HDD\n    file: $CACHE/selectcopy.sh\n- execute:\n    args: -R 775  \"$GAMEDIR\"\n    file: /bin/chmod\n- write_file:\n    content: '[autoexec]\n\n      mount C \"$GAMEDIR/HDD\" -t dir\n\n      C:\n\n      cd cutthroa\n\n      cutthroa\n\n      exit'\n    file: $GAMEDIR/cutthroat.conf\n",
  "discord_id": ""
}