{
  "id": 111091,
  "name": "Yo-kai Watch Busters 2: Hihou Densetsu Bambalaya Sword",
  "slug": "yo-kai-watch-busters-2-hihou-densetsu-bambalaya-sword",
  "year": 2017,
  "banner_url": "",
  "icon_url": "",
  "coverart": "https://lutris.net/media/igdb/cover_big/co2zws.jpg",
  "platforms": [
    {
      "name": "Nintendo 3DS"
    }
  ],
  "provider_games": [
    {
      "name": "Yo-kai Watch Busters 2: Hihou Densetsu Bambalaya Sword",
      "slug": "yo-kai-watch-busters-2-hihou-densetsu-bambalaya-sword",
      "service": "igdb"
    }
  ],
  "aliases": [],
  "shaders": [],
  "discord_id": "",
  "change_for": null
}