{
  "id": 49031,
  "name": "Minecraft: Story Mode Season Two - Episode 4: Below the Bedrock",
  "slug": "minecraft-story-mode-season-two-episode-4-below-the-bedrock",
  "year": 2017,
  "banner_url": "",
  "icon_url": "",
  "coverart": "https://lutris.net/media/igdb/cover_big/co1vir.jpg",
  "platforms": [
    {
      "name": "Android"
    },
    {
      "name": "Sony Playstation 4"
    },
    {
      "name": "Windows"
    },
    {
      "name": "Xbox One"
    }
  ],
  "provider_games": [
    {
      "name": "Minecraft: Story Mode Season Two - Episode 4: Below the Bedrock",
      "slug": "minecraft-story-mode-season-two-episode-4-below-the-bedrock",
      "service": "igdb"
    }
  ],
  "aliases": [],
  "shaders": [],
  "discord_id": "",
  "change_for": null
}