{
  "id": 122873,
  "name": "HIBIKAKEYIRONOKISEKI / 裂色的奇迹",
  "slug": "hibikakeyironokiseki-slash-lie-se-de-qi-ji",
  "year": 2017,
  "banner_url": "",
  "icon_url": "",
  "coverart": "https://lutris.net/media/igdb/cover_big/co2bm8.jpg",
  "platforms": [
    {
      "name": "Linux"
    },
    {
      "name": "Mac"
    },
    {
      "name": "Windows"
    }
  ],
  "provider_games": [
    {
      "name": "HIBIKAKEYIRONOKISEKI / 裂色的奇迹",
      "slug": "hibikakeyironokiseki-slash-lie-se-de-qi-ji",
      "service": "igdb"
    }
  ],
  "aliases": [],
  "shaders": [],
  "discord_id": "",
  "change_for": null
}