{
  "id": 76943,
  "name": "Standoff Multiplayer",
  "slug": "standoff-multiplayer",
  "year": null,
  "banner_url": "",
  "icon_url": "",
  "coverart": null,
  "platforms": [],
  "provider_games": [
    {
      "name": "Standoff Multiplayer",
      "slug": "standoff-multiplayer",
      "service": "igdb"
    }
  ],
  "aliases": [],
  "shaders": [],
  "discord_id": "",
  "change_for": null
}