{
  "id": 77164,
  "name": "Aldo Again",
  "slug": "aldo-again",
  "year": null,
  "banner_url": "",
  "icon_url": "",
  "coverart": null,
  "platforms": [],
  "provider_games": [
    {
      "name": "Aldo Again",
      "slug": "aldo-again",
      "service": "igdb"
    }
  ],
  "aliases": [],
  "shaders": [],
  "discord_id": "",
  "change_for": null
}