{
  "id": 263565,
  "name": "Tugboat Terror",
  "slug": "tugboat-terror",
  "year": null,
  "banner_url": "",
  "icon_url": "",
  "coverart": "https://lutris.net/media/igdb/cover_big/co79a7.jpg",
  "platforms": [],
  "provider_games": [
    {
      "name": "Tugboat Terror",
      "slug": "tugboat-terror",
      "service": "igdb"
    }
  ],
  "aliases": [],
  "shaders": [],
  "discord_id": "",
  "change_for": null
}