{
  "id": 105619,
  "name": "Scubaman's Quest",
  "slug": "scubamans-quest",
  "year": 1994,
  "banner_url": "",
  "icon_url": "",
  "coverart": null,
  "platforms": [],
  "provider_games": [
    {
      "name": "Scubaman's Quest",
      "slug": "scubamans-quest",
      "service": "igdb"
    }
  ],
  "aliases": [],
  "shaders": [],
  "discord_id": "",
  "change_for": null
}