{
  "id": 58944,
  "name": "Digit & Dash",
  "slug": "digit-and-dash",
  "year": null,
  "banner_url": "",
  "icon_url": "",
  "coverart": null,
  "platforms": [],
  "provider_games": [
    {
      "name": "Digit & Dash",
      "slug": "digit-and-dash",
      "service": "igdb"
    }
  ],
  "aliases": [],
  "shaders": [],
  "discord_id": "",
  "change_for": null
}