{
  "id": 224509,
  "name": "Watch Your Back",
  "slug": "watch-your-back",
  "year": null,
  "banner_url": "",
  "icon_url": "",
  "coverart": "https://lutris.net/media/igdb/cover_big/co5hr9.jpg",
  "platforms": [],
  "provider_games": [
    {
      "name": "Watch Your Back",
      "slug": "watch-your-back",
      "service": "igdb"
    }
  ],
  "aliases": [],
  "shaders": [],
  "discord_id": "",
  "change_for": null
}