{
  "id": 138970,
  "name": "Genkai Tokki: Castle Panzers - Limited Edition",
  "slug": "genkai-tokki-castle-panzers-limited-edition",
  "year": null,
  "banner_url": "",
  "icon_url": "",
  "coverart": null,
  "platforms": [],
  "provider_games": [
    {
      "name": "Genkai Tokki: Castle Panzers - Limited Edition",
      "slug": "genkai-tokki-castle-panzers-limited-edition",
      "service": "igdb"
    }
  ],
  "aliases": [],
  "shaders": [],
  "discord_id": "",
  "change_for": null
}