{
  "id": 277446,
  "name": "Heat or Die",
  "slug": "heat-or-die",
  "year": null,
  "banner_url": "",
  "icon_url": "",
  "coverart": "https://lutris.net/media/igdb/cover_big/co7wae.jpg",
  "platforms": [],
  "provider_games": [
    {
      "name": "Heat or Die",
      "slug": "heat-or-die",
      "service": "igdb"
    }
  ],
  "aliases": [],
  "shaders": [],
  "discord_id": "",
  "change_for": null
}