{
  "id": 299344,
  "name": "Alfred Hitchcock’s Psycho Adventure Game",
  "slug": "alfred-hitchcocks-psycho-adventure-game",
  "year": 2022,
  "banner_url": "",
  "icon_url": "",
  "coverart": "https://lutris.net/media/igdb/cover_big/co8yo6.jpg",
  "platforms": [
    {
      "name": "Linux"
    },
    {
      "name": "Mac"
    },
    {
      "name": "Windows"
    }
  ],
  "provider_games": [
    {
      "name": "Alfred Hitchcock’s Psycho Adventure Game",
      "slug": "alfred-hitchcocks-psycho-adventure-game",
      "service": "igdb"
    }
  ],
  "aliases": [],
  "shaders": [],
  "discord_id": "",
  "change_for": null
}