{
  "id": 114219,
  "name": "Marvel's Guardians of the Galaxy: The Telltale Series - Episode 1: Tangled Up in Blue",
  "slug": "marvels-guardians-of-the-galaxy-the-telltale-series-episode-1-tangled-up-in-blue",
  "year": 2017,
  "banner_url": "",
  "icon_url": "",
  "coverart": "https://lutris.net/media/igdb/cover_big/co1vcv.jpg",
  "platforms": [
    {
      "name": "Android"
    },
    {
      "name": "Sony Playstation 4"
    },
    {
      "name": "Windows"
    },
    {
      "name": "Xbox One"
    }
  ],
  "provider_games": [
    {
      "name": "Marvel's Guardians of the Galaxy: The Telltale Series - Episode 1: Tangled Up in Blue",
      "slug": "marvels-guardians-of-the-galaxy-the-telltale-series-episode-1-tangled-up-in-blue",
      "service": "igdb"
    }
  ],
  "aliases": [],
  "shaders": [],
  "discord_id": "",
  "change_for": null
}