{
  "id": 30351,
  "name": "Incredible Dracula: Witches' Curse",
  "slug": "incredible-dracula-witches-curse",
  "year": null,
  "banner_url": "https://lutris.net/games/banner/incredible-dracula-witches-curse.jpg",
  "icon_url": "https://lutris.net/games/icon/incredible-dracula-witches-curse.png",
  "coverart": "https://lutris.net/media/igdb/cover_big/co43ju.jpg",
  "platforms": [],
  "provider_games": [
    {
      "name": "Incredible Dracula: Witches' Curse",
      "slug": "1187830",
      "service": "steam"
    },
    {
      "name": "Incredible Dracula: Witches' Curse",
      "slug": "incredible-dracula-witches-curse",
      "service": "igdb"
    }
  ],
  "aliases": [],
  "shaders": [],
  "discord_id": "",
  "change_for": null
}