{
  "id": 158542,
  "name": "Puppy Adventure",
  "slug": "puppy-adventure",
  "year": null,
  "banner_url": "",
  "icon_url": "",
  "coverart": "https://lutris.net/media/igdb/cover_big/co3y3y.jpg",
  "platforms": [],
  "provider_games": [
    {
      "name": "Puppy Adventure",
      "slug": "puppy-adventure",
      "service": "igdb"
    }
  ],
  "aliases": [],
  "shaders": [],
  "discord_id": "",
  "change_for": null
}