{
  "id": 79054,
  "name": "Shiny: Digital Deluxe Edition",
  "slug": "shiny-digital-deluxe-edition",
  "year": null,
  "banner_url": "",
  "icon_url": "",
  "coverart": null,
  "platforms": [],
  "provider_games": [
    {
      "name": "Shiny: Digital Deluxe Edition",
      "slug": "shiny-digital-deluxe-edition",
      "service": "igdb"
    }
  ],
  "aliases": [],
  "shaders": [],
  "discord_id": "",
  "change_for": null
}