{
  "id": 271491,
  "name": "AquaRevive",
  "slug": "aquarevive",
  "year": null,
  "banner_url": "",
  "icon_url": "",
  "coverart": "https://lutris.net/media/igdb/cover_big/co7o6x.jpg",
  "platforms": [],
  "provider_games": [
    {
      "name": "AquaRevive",
      "slug": "aquarevive",
      "service": "igdb"
    }
  ],
  "aliases": [],
  "shaders": [],
  "discord_id": "",
  "change_for": null
}