{
  "id": 169306,
  "name": "Coronavirus Quarantine Simulator",
  "slug": "coronavirus-quarantine-simulator",
  "year": null,
  "banner_url": "",
  "icon_url": "",
  "coverart": "https://lutris.net/media/igdb/cover_big/co45ow.jpg",
  "platforms": [],
  "provider_games": [
    {
      "name": "Coronavirus Quarantine Simulator",
      "slug": "coronavirus-quarantine-simulator",
      "service": "igdb"
    }
  ],
  "aliases": [],
  "shaders": [],
  "discord_id": "",
  "change_for": null
}