{
  "id": 52697,
  "name": "Fatal Fury: Battle Archives Vol. 2",
  "slug": "fatal-fury-battle-archives-vol-2",
  "year": 2008,
  "banner_url": "",
  "icon_url": "",
  "coverart": "https://lutris.net/media/igdb/cover_big/coorbjebllrzjkz2nwgw.jpg",
  "platforms": [
    {
      "name": "Sony PlayStation 2"
    }
  ],
  "provider_games": [
    {
      "name": "Fatal Fury: Battle Archives Vol. 2",
      "slug": "fatal-fury-battle-archives-vol-2",
      "service": "igdb"
    }
  ],
  "aliases": [],
  "shaders": [],
  "discord_id": "",
  "change_for": null
}