{
  "id": 21103,
  "name": "RollerForce",
  "slug": "rollerforce",
  "year": 2016,
  "banner_url": "https://lutris.net/games/banner/rollerforce.jpg",
  "icon_url": "https://lutris.net/games/icon/rollerforce.png",
  "coverart": null,
  "platforms": [
    {
      "name": "Windows"
    }
  ],
  "provider_games": [
    {
      "name": "RollerForce",
      "slug": "506550",
      "service": "steam"
    },
    {
      "name": "RollerForce",
      "slug": "rollerforce",
      "service": "igdb"
    }
  ],
  "aliases": [],
  "shaders": [],
  "discord_id": "",
  "change_for": null
}