{
  "id": 54529,
  "name": "International Ninja Rabbits",
  "slug": "international-ninja-rabbits",
  "year": 1991,
  "banner_url": "",
  "icon_url": "",
  "coverart": "https://lutris.net/media/igdb/cover_big/opzdcxhoxd2ojs4uxecl.jpg",
  "platforms": [
    {
      "name": "Commodore C64/128"
    }
  ],
  "provider_games": [
    {
      "name": "International Ninja Rabbits",
      "slug": "international-ninja-rabbits",
      "service": "igdb"
    }
  ],
  "aliases": [],
  "shaders": [],
  "discord_id": "",
  "change_for": null
}