{
  "id": 271328,
  "name": "Gourmet Action Game: Manpuku!! Nabe Kazoku",
  "slug": "gourmet-action-game-manpuku-nabe-kazoku",
  "year": 2002,
  "banner_url": "",
  "icon_url": "",
  "coverart": "https://lutris.net/media/igdb/cover_big/co7ogi.jpg",
  "platforms": [
    {
      "name": "PlayStation Vita"
    },
    {
      "name": "Sony PlayStation"
    },
    {
      "name": "Sony Playstation 3"
    },
    {
      "name": "Sony PSP"
    }
  ],
  "provider_games": [
    {
      "name": "Gourmet Action Game: Manpuku!! Nabe Kazoku",
      "slug": "gourmet-action-game-manpuku-nabe-kazoku",
      "service": "igdb"
    }
  ],
  "aliases": [],
  "shaders": [],
  "discord_id": "",
  "change_for": null
}