{
  "id": 124755,
  "name": "In The Shadow Of The Truth",
  "slug": "in-the-shadow-of-the-truth",
  "year": 2016,
  "banner_url": "https://lutris.net/games/banner/in-the-shadow-of-the-truth.jpg",
  "icon_url": "",
  "coverart": null,
  "platforms": [
    {
      "name": "Windows"
    }
  ],
  "provider_games": [
    {
      "name": "In The Shadow Of The Truth",
      "slug": "498680",
      "service": "steam"
    },
    {
      "name": "In the Shadow of the Truth",
      "slug": "in-the-shadow-of-the-truth",
      "service": "igdb"
    }
  ],
  "aliases": [],
  "shaders": [],
  "discord_id": "",
  "change_for": null
}