{
  "id": 38892,
  "game_id": 177521,
  "game_slug": "the-chronicles-of-narnia-the-lion-the-witch-and-the-wardrobe",
  "name": "The Chronicles of Narnia: The Lion, the Witch and the Wardrobe",
  "year": 2005,
  "user": "Stench4158",
  "runner": "wine",
  "slug": "the-chronicles-of-narnia-the-retail-dvd",
  "version": "Retail, DVD",
  "description": "",
  "notes": "",
  "credits": "",
  "created_at": "2024-10-19T10:53:14.405205Z",
  "updated_at": "2024-10-19T10:53:14.405226Z",
  "draft": false,
  "published": true,
  "published_by": null,
  "rating": "",
  "is_playable": null,
  "steamid": null,
  "gogid": null,
  "gogslug": "",
  "humbleid": "",
  "humblestoreid": "",
  "humblestoreid_real": "",
  "script": {
    "game": {
      "arch": "win64",
      "exe": "drive_c/Program Files (x86)/Buena Vista Games/Narnia/Narnia.exe",
      "prefix": "$GAMEDIR"
    },
    "installer": [
      {
        "insert-disc": {
          "requires": "narniasplash.exe"
        }
      },
      {
        "task": {
          "description": "Creating Wine prefix",
          "install_mono": false,
          "name": "create_prefix",
          "prefix": "$GAMEDIR"
        }
      },
      {
        "task": {
          "description": "Installing...",
          "executable": "$DISC/setup.exe",
          "name": "wineexec",
          "prefix": "$GAMEDIR"
        }
      }
    ]
  },
  "content": "game:\n  arch: win64\n  exe: drive_c/Program Files (x86)/Buena Vista Games/Narnia/Narnia.exe\n  prefix: $GAMEDIR\ninstaller:\n- insert-disc:\n    requires: narniasplash.exe\n- task:\n    description: Creating Wine prefix\n    install_mono: false\n    name: create_prefix\n    prefix: $GAMEDIR\n- task:\n    description: Installing...\n    executable: $DISC/setup.exe\n    name: wineexec\n    prefix: $GAMEDIR\n",
  "discord_id": ""
}