{
  "id": 96799,
  "name": "Jason The Greek: The Ladies of Lemnos",
  "slug": "jason-the-greek-the-ladies-of-lemnos",
  "year": null,
  "banner_url": "",
  "icon_url": "",
  "coverart": null,
  "platforms": [],
  "provider_games": [
    {
      "name": "Jason The Greek: The Ladies of Lemnos",
      "slug": "jason-the-greek-the-ladies-of-lemnos",
      "service": "igdb"
    }
  ],
  "aliases": [],
  "shaders": [],
  "discord_id": "",
  "change_for": null
}