{
  "id": 37809,
  "name": "Yang2020 Path To Presidency",
  "slug": "yang2020-path-to-presidency",
  "year": 2019,
  "banner_url": "https://lutris.net/games/banner/yang2020-path-to-presidency.jpg",
  "icon_url": "https://lutris.net/games/icon/yang2020-path-to-presidency.png",
  "coverart": "https://lutris.net/media/igdb/cover_big/co2hy9.jpg",
  "platforms": [
    {
      "name": "Windows"
    }
  ],
  "provider_games": [
    {
      "name": "Yang2020 Path To Presidency",
      "slug": "1204720",
      "service": "steam"
    },
    {
      "name": "Yang2020: Path to Presidency",
      "slug": "yang2020-path-to-presidency",
      "service": "igdb"
    }
  ],
  "aliases": [],
  "shaders": [],
  "discord_id": "",
  "change_for": null
}