{
  "id": 217581,
  "name": "Brick City",
  "slug": "brick-city--2",
  "year": null,
  "banner_url": "",
  "icon_url": "",
  "coverart": "https://lutris.net/media/igdb/cover_big/co54dd.jpg",
  "platforms": [
    {
      "name": "Windows Phone"
    }
  ],
  "provider_games": [
    {
      "name": "Brick City",
      "slug": "brick-city--2",
      "service": "igdb"
    }
  ],
  "aliases": [],
  "shaders": [],
  "discord_id": "",
  "change_for": null
}