{
  "id": 136892,
  "name": "Need for sharp",
  "slug": "need-for-sharp",
  "year": null,
  "banner_url": "",
  "icon_url": "",
  "coverart": "https://lutris.net/media/igdb/cover_big/co3q16.jpg",
  "platforms": [],
  "provider_games": [
    {
      "name": "Need for sharp",
      "slug": "need-for-sharp",
      "service": "igdb"
    }
  ],
  "aliases": [],
  "shaders": [],
  "discord_id": "",
  "change_for": null
}