{
  "id": 4657,
  "name": "Kung Fury: Street Rage",
  "slug": "kung-fury-street-rage",
  "year": 2015,
  "banner_url": "https://lutris.net/games/banner/kung-fury-street-rage.jpg",
  "icon_url": "https://lutris.net/games/icon/kung-fury-street-rage.png",
  "coverart": "https://lutris.net/media/igdb/cover_big/co2qiv.jpg",
  "platforms": [
    {
      "name": "Android"
    },
    {
      "name": "Sony Playstation 4"
    },
    {
      "name": "Windows"
    }
  ],
  "provider_games": [
    {
      "name": "Kung Fury: Street Rage - Ultimate Edition",
      "slug": "373180",
      "service": "steam"
    },
    {
      "name": "Kung Fury: Street Rage",
      "slug": "kung-fury-street-rage",
      "service": "igdb"
    }
  ],
  "aliases": [],
  "shaders": [],
  "discord_id": "",
  "change_for": null
}