{
  "id": 191270,
  "name": "Pixeline - Syng, leg og lær",
  "slug": "pixeline-syng-leg-og-lr",
  "year": 1996,
  "banner_url": "https://lutris.net/games/banner/pixeline-syng-leg-og-lr.jpg",
  "icon_url": "",
  "coverart": null,
  "platforms": [
    {
      "name": "Windows"
    }
  ],
  "provider_games": [],
  "aliases": [],
  "shaders": [],
  "discord_id": "",
  "change_for": null
}