{
  "id": 76235,
  "name": "Onore no Shinzuru Michi wo Yuke",
  "slug": "onore-no-shinzuru-michi-wo-yuke",
  "year": 2009,
  "banner_url": "",
  "icon_url": "",
  "coverart": "https://lutris.net/media/igdb/cover_big/co2fjq.jpg",
  "platforms": [
    {
      "name": "Sony PSP"
    }
  ],
  "provider_games": [
    {
      "name": "Onore no Shinzuru Michi wo Yuke",
      "slug": "onore-no-shinzuru-michi-wo-yuke",
      "service": "igdb"
    }
  ],
  "aliases": [],
  "shaders": [],
  "discord_id": "",
  "change_for": null
}