{
  "id": 254333,
  "name": "Smoots Pinball",
  "slug": "smoots-pinball",
  "year": null,
  "banner_url": "",
  "icon_url": "",
  "coverart": "https://lutris.net/media/igdb/cover_big/co6w9b.jpg",
  "platforms": [],
  "provider_games": [
    {
      "name": "Smoots Pinball",
      "slug": "smoots-pinball",
      "service": "igdb"
    }
  ],
  "aliases": [],
  "shaders": [],
  "discord_id": "",
  "change_for": null
}