{
  "id": 259901,
  "name": "Super Mario Brasileiro",
  "slug": "super-mario-brasileiro",
  "year": 2009,
  "banner_url": "",
  "icon_url": "",
  "coverart": null,
  "platforms": [
    {
      "name": "Windows"
    }
  ],
  "provider_games": [
    {
      "name": "Super Mario Brasileiro",
      "slug": "super-mario-brasileiro",
      "service": "igdb"
    }
  ],
  "aliases": [],
  "shaders": [],
  "discord_id": "",
  "change_for": null
}