{
  "id": 35579,
  "name": "Rolling Thunder 2",
  "slug": "rolling-thunder-2",
  "year": 1990,
  "banner_url": "https://lutris.net/games/banner/rolling-thunder-2.jpg",
  "icon_url": "https://lutris.net/games/icon/rolling-thunder-2.png",
  "coverart": "https://lutris.net/media/igdb/cover_big/co2nfy.jpg",
  "platforms": [
    {
      "name": "Arcade"
    },
    {
      "name": "Nintendo Wii"
    },
    {
      "name": "Sega Genesis / Mega Drive"
    }
  ],
  "provider_games": [
    {
      "name": "Rolling Thunder 2",
      "slug": "rthun2",
      "service": "mame"
    },
    {
      "name": "Rolling Thunder 2",
      "slug": "rolling-thunder-2",
      "service": "igdb"
    }
  ],
  "aliases": [],
  "shaders": [],
  "discord_id": "",
  "change_for": null
}