{
  "id": 262682,
  "name": "SNK Arcade Classics Vol.1",
  "slug": "snk-arcade-classics-vol-dot-1",
  "year": 2008,
  "banner_url": "",
  "icon_url": "",
  "coverart": null,
  "platforms": [
    {
      "name": "Nintendo Wii"
    },
    {
      "name": "Sony PlayStation 2"
    },
    {
      "name": "Sony PSP"
    }
  ],
  "provider_games": [
    {
      "name": "SNK Arcade Classics Vol.1",
      "slug": "snk-arcade-classics-vol-dot-1",
      "service": "igdb"
    }
  ],
  "aliases": [],
  "shaders": [],
  "discord_id": "",
  "change_for": null
}