{
  "id": 227102,
  "name": "Triangle Strategy: Tacticians's Limited Edition",
  "slug": "triangle-strategy-tacticianss-limited-edition",
  "year": 2022,
  "banner_url": "",
  "icon_url": "",
  "coverart": null,
  "platforms": [
    {
      "name": "Nintendo Switch"
    }
  ],
  "provider_games": [
    {
      "name": "Triangle Strategy: Tacticians's Limited Edition",
      "slug": "triangle-strategy-tacticianss-limited-edition",
      "service": "igdb"
    }
  ],
  "aliases": [],
  "shaders": [],
  "discord_id": "",
  "change_for": null
}