{
  "id": 140831,
  "name": "GunBlocks",
  "slug": "gunblocks",
  "year": null,
  "banner_url": "",
  "icon_url": "",
  "coverart": "https://lutris.net/media/igdb/cover_big/co3sph.jpg",
  "platforms": [],
  "provider_games": [
    {
      "name": "GunBlocks",
      "slug": "gunblocks",
      "service": "igdb"
    }
  ],
  "aliases": [],
  "shaders": [],
  "discord_id": "",
  "change_for": null
}