{
  "id": 187010,
  "name": "Deep Relics",
  "slug": "deep-relics",
  "year": null,
  "banner_url": "",
  "icon_url": "",
  "coverart": "https://lutris.net/media/igdb/cover_big/co93bl.jpg",
  "platforms": [],
  "provider_games": [
    {
      "name": "Deep Relics",
      "slug": "deep-relics",
      "service": "igdb"
    }
  ],
  "aliases": [],
  "shaders": [],
  "discord_id": "",
  "change_for": null
}