{
  "id": 143796,
  "name": "KINESIS",
  "slug": "kinesis",
  "year": null,
  "banner_url": "",
  "icon_url": "",
  "coverart": "https://lutris.net/media/igdb/cover_big/co2udr.jpg",
  "platforms": [],
  "provider_games": [
    {
      "name": "Kinesis",
      "slug": "kinesis",
      "service": "igdb"
    }
  ],
  "aliases": [],
  "shaders": [],
  "discord_id": "",
  "change_for": null
}