{
  "id": 63656,
  "name": "DT Racer Refueled",
  "slug": "dt-racer-refueled",
  "year": null,
  "banner_url": "",
  "icon_url": "",
  "coverart": "https://lutris.net/media/igdb/cover_big/dx33dhvpqdl1y1acabut.jpg",
  "platforms": [],
  "provider_games": [
    {
      "name": "DT Racer Refueled",
      "slug": "dt-racer-refueled",
      "service": "igdb"
    }
  ],
  "aliases": [],
  "shaders": [],
  "discord_id": "",
  "change_for": null
}