{
  "id": 200251,
  "name": "City Retreat",
  "slug": "city-retreat",
  "year": null,
  "banner_url": "",
  "icon_url": "",
  "coverart": "https://lutris.net/media/igdb/cover_big/co4efq.jpg",
  "platforms": [],
  "provider_games": [
    {
      "name": "City Retreat",
      "slug": "city-retreat",
      "service": "igdb"
    }
  ],
  "aliases": [],
  "shaders": [],
  "discord_id": "",
  "change_for": null
}