{
  "id": 287673,
  "name": "Rogue Eclipse",
  "slug": "rogue-eclipse",
  "year": null,
  "banner_url": "",
  "icon_url": "",
  "coverart": "https://lutris.net/media/igdb/cover_big/co8bin.jpg",
  "platforms": [],
  "provider_games": [
    {
      "name": "Rogue Eclipse",
      "slug": "rogue-eclipse",
      "service": "igdb"
    }
  ],
  "aliases": [],
  "shaders": [],
  "discord_id": "",
  "change_for": null
}