{
  "id": 215301,
  "name": "Beepers: MVP Baseball",
  "slug": "beepers-mvp-baseball",
  "year": 1996,
  "banner_url": "",
  "icon_url": "",
  "coverart": "https://lutris.net/media/igdb/cover_big/co5a2j.jpg",
  "platforms": [],
  "provider_games": [
    {
      "name": "Beepers: MVP Baseball",
      "slug": "beepers-mvp-baseball",
      "service": "igdb"
    }
  ],
  "aliases": [],
  "shaders": [],
  "discord_id": "",
  "change_for": null
}