{
  "id": 31951,
  "game_id": 41535,
  "game_slug": "pixel-puzzles-illustrations-anime",
  "name": "Pixel Puzzles Illustrations & Anime",
  "year": null,
  "user": "vanstaveren",
  "runner": "steam",
  "slug": "pixel-puzzles-illustrations-a-steam",
  "version": "Steam",
  "description": "",
  "notes": "",
  "credits": "",
  "created_at": "2022-02-19T11:48:16.648725Z",
  "updated_at": "2023-01-11T06:02:00.031226Z",
  "draft": false,
  "published": true,
  "published_by": null,
  "rating": "",
  "is_playable": null,
  "steamid": 1005240,
  "gogid": null,
  "gogslug": "",
  "humbleid": "",
  "humblestoreid": "",
  "humblestoreid_real": "",
  "script": {
    "game": {
      "appid": 1005240
    }
  },
  "content": "game:\n  appid: 1005240\n",
  "discord_id": ""
}