{
  "id": 7352,
  "name": "Hover : Revolt Of Gamers",
  "slug": "hover-revolt-of-gamers",
  "year": null,
  "banner_url": "https://lutris.net/games/banner/hover-revolt-of-gamers.jpg",
  "icon_url": "https://lutris.net/games/icon/hover-revolt-of-gamers.png",
  "coverart": null,
  "platforms": [],
  "provider_games": [
    {
      "name": "Hover",
      "slug": "280180",
      "service": "steam"
    }
  ],
  "aliases": [],
  "shaders": [],
  "discord_id": "",
  "change_for": null
}