{
  "id": 284245,
  "name": "Tycoon's Choice: My Secretary",
  "slug": "tycoons-choice-my-secretary",
  "year": null,
  "banner_url": "",
  "icon_url": "",
  "coverart": null,
  "platforms": [
    {
      "name": "Android"
    }
  ],
  "provider_games": [
    {
      "name": "Tycoon's Choice: My Secretary",
      "slug": "tycoons-choice-my-secretary",
      "service": "igdb"
    }
  ],
  "aliases": [],
  "shaders": [],
  "discord_id": "",
  "change_for": null
}