{
  "id": 265441,
  "name": "Tibor: Tale Of A Kind Vampire",
  "slug": "tibor-tale-of-a-kind-vampire",
  "year": null,
  "banner_url": "",
  "icon_url": "",
  "coverart": "https://lutris.net/media/igdb/cover_big/co7awh.jpg",
  "platforms": [
    {
      "name": "Windows"
    }
  ],
  "provider_games": [
    {
      "name": "Tibor: Tale Of A Kind Vampire",
      "slug": "tibor-tale-of-a-kind-vampire",
      "service": "igdb"
    },
    {
      "name": "Tibor: Tale of a Kind Vampire",
      "slug": "1105251456",
      "service": "gog"
    }
  ],
  "aliases": [],
  "shaders": [],
  "discord_id": "",
  "change_for": null
}