{
  "id": 55848,
  "name": "Doctor Who: Evacuation Earth",
  "slug": "doctor-who-evacuation-earth",
  "year": 2010,
  "banner_url": "",
  "icon_url": "",
  "coverart": "https://lutris.net/media/igdb/cover_big/gyshetm5nrdoxxmlmpta.jpg",
  "platforms": [
    {
      "name": "Nintendo DS"
    }
  ],
  "provider_games": [
    {
      "name": "Doctor Who: Evacuation Earth",
      "slug": "doctor-who-evacuation-earth",
      "service": "igdb"
    }
  ],
  "aliases": [],
  "shaders": [],
  "discord_id": "",
  "change_for": null
}