{
  "id": 143245,
  "name": "Airline Tycoon 2: Falcon Airlines",
  "slug": "airline-tycoon-2-falcon-airlines",
  "year": null,
  "banner_url": "",
  "icon_url": "",
  "coverart": "https://lutris.net/media/igdb/cover_big/txrpzibd7dkrpvn84wnk.jpg",
  "platforms": [],
  "provider_games": [
    {
      "name": "Airline Tycoon 2: Falcon Airlines",
      "slug": "airline-tycoon-2-falcon-airlines",
      "service": "igdb"
    }
  ],
  "aliases": [],
  "shaders": [],
  "discord_id": "",
  "change_for": null
}