{
  "id": 86313,
  "name": "Buka Post Apocalyptic Collection",
  "slug": "buka-post-apocalyptic-collection",
  "year": null,
  "banner_url": "",
  "icon_url": "",
  "coverart": null,
  "platforms": [],
  "provider_games": [
    {
      "name": "Buka Post Apocalyptic Collection",
      "slug": "buka-post-apocalyptic-collection",
      "service": "igdb"
    }
  ],
  "aliases": [],
  "shaders": [],
  "discord_id": "",
  "change_for": null
}