{
  "id": 109154,
  "name": "Neophyte: The Spirit Master",
  "slug": "neophyte-the-spirit-master",
  "year": 1996,
  "banner_url": "",
  "icon_url": "",
  "coverart": null,
  "platforms": [
    {
      "name": "Windows"
    }
  ],
  "provider_games": [
    {
      "name": "Neophyte: The Spirit Master",
      "slug": "neophyte-the-spirit-master",
      "service": "igdb"
    }
  ],
  "aliases": [],
  "shaders": [],
  "discord_id": "",
  "change_for": null
}