{
  "id": 101119,
  "name": "Haunted Train: Frozen in Time",
  "slug": "haunted-train-frozen-in-time",
  "year": null,
  "banner_url": "",
  "icon_url": "",
  "coverart": null,
  "platforms": [],
  "provider_games": [
    {
      "name": "Haunted Train: Frozen in Time",
      "slug": "haunted-train-frozen-in-time",
      "service": "igdb"
    }
  ],
  "aliases": [],
  "shaders": [],
  "discord_id": "",
  "change_for": null
}