{
  "id": 105771,
  "name": "Death Wing",
  "slug": "death-wing",
  "year": null,
  "banner_url": "",
  "icon_url": "",
  "coverart": "https://lutris.net/media/igdb/cover_big/co2tjd.jpg",
  "platforms": [
    {
      "name": "Sony PlayStation"
    }
  ],
  "provider_games": [
    {
      "name": "Death Wing",
      "slug": "death-wing",
      "service": "igdb"
    }
  ],
  "aliases": [],
  "shaders": [],
  "discord_id": "",
  "change_for": null
}