{
  "id": 156435,
  "name": "Backpack Heroes",
  "slug": "backpack-heroes",
  "year": null,
  "banner_url": "",
  "icon_url": "",
  "coverart": null,
  "platforms": [],
  "provider_games": [
    {
      "name": "Backpack Heroes",
      "slug": "backpack-heroes",
      "service": "igdb"
    }
  ],
  "aliases": [],
  "shaders": [],
  "discord_id": "",
  "change_for": null
}