{
  "id": 254288,
  "name": "Magical Swirl",
  "slug": "magical-swirl",
  "year": null,
  "banner_url": "",
  "icon_url": "",
  "coverart": null,
  "platforms": [],
  "provider_games": [
    {
      "name": "Magical Swirl",
      "slug": "magical-swirl",
      "service": "igdb"
    }
  ],
  "aliases": [],
  "shaders": [],
  "discord_id": "",
  "change_for": null
}