{
  "id": 104591,
  "name": "Looney Tunes",
  "slug": "looney-tunes",
  "year": 1992,
  "banner_url": "",
  "icon_url": "",
  "coverart": "https://lutris.net/media/igdb/cover_big/co2ql9.jpg",
  "platforms": [
    {
      "name": "Game Boy"
    },
    {
      "name": "Nintendo Game Boy Color"
    }
  ],
  "provider_games": [
    {
      "name": "Looney Tunes",
      "slug": "looney-tunes",
      "service": "igdb"
    }
  ],
  "aliases": [],
  "shaders": [],
  "discord_id": "",
  "change_for": null
}