{
  "id": 257286,
  "name": "Survival RPG 4: Haunted Manor",
  "slug": "survival-rpg-4-haunted-manor",
  "year": null,
  "banner_url": "",
  "icon_url": "",
  "coverart": "https://lutris.net/media/igdb/cover_big/co70m1.jpg",
  "platforms": [
    {
      "name": "Android"
    }
  ],
  "provider_games": [
    {
      "name": "Survival RPG 4: Haunted Manor",
      "slug": "survival-rpg-4-haunted-manor",
      "service": "igdb"
    }
  ],
  "aliases": [],
  "shaders": [],
  "discord_id": "",
  "change_for": null
}