{
  "id": 9317,
  "game_id": 20119,
  "game_slug": "karl-quappe",
  "name": "Karl Quappe",
  "year": 2017,
  "user": "te_lanus",
  "runner": "libretro",
  "slug": "karl-quappe-vectrex",
  "version": "Vectrex",
  "description": null,
  "notes": "",
  "credits": "",
  "created_at": "2018-07-21T20:38:37.140030Z",
  "updated_at": "2018-07-21T20:38:52.916057Z",
  "draft": false,
  "published": true,
  "published_by": null,
  "rating": "",
  "is_playable": null,
  "steamid": null,
  "gogid": null,
  "gogslug": "",
  "humbleid": "",
  "humblestoreid": "",
  "humblestoreid_real": "",
  "script": {
    "files": [
      {
        "file1": "N/A:Please select the Vectrex game file"
      }
    ],
    "game": {
      "core": "vecx",
      "main_file": "file1"
    },
    "installer": [
      {
        "merge": {
          "dst": "$GAMEDIR",
          "src": "file1"
        }
      }
    ]
  },
  "content": "files:\n- file1: N/A:Please select the Vectrex game file\ngame:\n  core: vecx\n  main_file: file1\ninstaller:\n- merge:\n    dst: $GAMEDIR\n    src: file1\n",
  "discord_id": ""
}