{
  "id": 102316,
  "name": "Objection!",
  "slug": "objection",
  "year": 1992,
  "banner_url": "",
  "icon_url": "",
  "coverart": null,
  "platforms": [],
  "provider_games": [
    {
      "name": "Objection!",
      "slug": "objection",
      "service": "igdb"
    }
  ],
  "aliases": [],
  "shaders": [],
  "discord_id": "",
  "change_for": null
}