{
  "id": 128001,
  "name": "Angel Beats! -Operation Wars-",
  "slug": "angel-beats-operation-wars",
  "year": 2014,
  "banner_url": "",
  "icon_url": "",
  "coverart": "https://lutris.net/media/igdb/cover_big/co1tb3.jpg",
  "platforms": [
    {
      "name": "Android"
    }
  ],
  "provider_games": [
    {
      "name": "Angel Beats! Operation Wars",
      "slug": "angel-beats-operation-wars",
      "service": "igdb"
    }
  ],
  "aliases": [],
  "shaders": [],
  "discord_id": "",
  "change_for": null
}