{
  "id": 108266,
  "name": "Humpty's Scramble",
  "slug": "humptys-scramble",
  "year": 1998,
  "banner_url": "",
  "icon_url": "",
  "coverart": "https://lutris.net/media/igdb/cover_big/co2u5w.jpg",
  "platforms": [],
  "provider_games": [
    {
      "name": "Humpty's Scramble",
      "slug": "humptys-scramble",
      "service": "igdb"
    }
  ],
  "aliases": [],
  "shaders": [],
  "discord_id": "",
  "change_for": null
}