{
  "id": 196400,
  "name": "Another Path",
  "slug": "another-path",
  "year": null,
  "banner_url": "",
  "icon_url": "",
  "coverart": "https://lutris.net/media/igdb/cover_big/co4nb7.jpg",
  "platforms": [],
  "provider_games": [
    {
      "name": "Another Path",
      "slug": "another-path",
      "service": "igdb"
    }
  ],
  "aliases": [],
  "shaders": [],
  "discord_id": "",
  "change_for": null
}