{
  "id": 209388,
  "name": "Samantha Oups! Le Jeu",
  "slug": "samantha-oups-le-jeu",
  "year": 2008,
  "banner_url": "",
  "icon_url": "",
  "coverart": "https://lutris.net/media/igdb/cover_big/co5nw2.jpg",
  "platforms": [
    {
      "name": "Nintendo DS"
    }
  ],
  "provider_games": [
    {
      "name": "Samantha Oups! Le Jeu",
      "slug": "samantha-oups-le-jeu",
      "service": "igdb"
    }
  ],
  "aliases": [],
  "shaders": [],
  "discord_id": "",
  "change_for": null
}