{
  "id": 49062,
  "name": "Final Fantasy XIII-2: Collector's Edition",
  "slug": "final-fantasy-xiii-2-collectors-edition",
  "year": 2012,
  "banner_url": "",
  "icon_url": "",
  "coverart": "https://lutris.net/media/igdb/cover_big/co1vpb.jpg",
  "platforms": [
    {
      "name": "Xbox 360"
    }
  ],
  "provider_games": [
    {
      "name": "Final Fantasy XIII-2: Collector's Edition",
      "slug": "final-fantasy-xiii-2-collectors-edition",
      "service": "igdb"
    }
  ],
  "aliases": [],
  "shaders": [],
  "discord_id": "",
  "change_for": null
}