{
  "id": 161789,
  "name": "Far Cry 4 Arena Master",
  "slug": "far-cry-4-arena-master",
  "year": 2014,
  "banner_url": "",
  "icon_url": "",
  "coverart": "https://lutris.net/media/igdb/cover_big/lzqur5jjtskwf1inunds.jpg",
  "platforms": [
    {
      "name": "Android"
    }
  ],
  "provider_games": [
    {
      "name": "Far Cry 4: Arena Master",
      "slug": "far-cry-4-arena-master",
      "service": "igdb"
    }
  ],
  "aliases": [],
  "shaders": [],
  "discord_id": "",
  "change_for": null
}