{
  "id": 64214,
  "name": "Madeline's Rainy Day Activities",
  "slug": "madelines-rainy-day-activities",
  "year": null,
  "banner_url": "",
  "icon_url": "",
  "coverart": "https://lutris.net/media/igdb/cover_big/ifehsmhy0qnt5tirugyj.jpg",
  "platforms": [],
  "provider_games": [
    {
      "name": "Madeline's Rainy Day Activities",
      "slug": "madelines-rainy-day-activities",
      "service": "igdb"
    }
  ],
  "aliases": [],
  "shaders": [],
  "discord_id": "",
  "change_for": null
}