{
  "id": 196205,
  "name": "Bloody Forest",
  "slug": "bloody-forest",
  "year": null,
  "banner_url": "",
  "icon_url": "",
  "coverart": "https://lutris.net/media/igdb/cover_big/co4nrf.jpg",
  "platforms": [],
  "provider_games": [
    {
      "name": "Bloody Forest",
      "slug": "bloody-forest",
      "service": "igdb"
    }
  ],
  "aliases": [],
  "shaders": [],
  "discord_id": "",
  "change_for": null
}