{
  "id": 9648,
  "name": "Evolution VR",
  "slug": "evolution-vr",
  "year": 2017,
  "banner_url": "https://lutris.net/games/banner/evolution-vr.jpg",
  "icon_url": "https://lutris.net/games/icon/evolution-vr.png",
  "coverart": "https://lutris.net/media/igdb/cover_big/co2b5t.jpg",
  "platforms": [
    {
      "name": "Windows"
    }
  ],
  "provider_games": [
    {
      "name": "Evolution VR",
      "slug": "549760",
      "service": "steam"
    },
    {
      "name": "Evolution VR",
      "slug": "evolution-vr",
      "service": "igdb"
    }
  ],
  "aliases": [],
  "shaders": [],
  "discord_id": "",
  "change_for": null
}