{
  "id": 76993,
  "name": "Order of the Metal Glove",
  "slug": "order-of-the-metal-glove",
  "year": null,
  "banner_url": "",
  "icon_url": "",
  "coverart": "https://lutris.net/media/igdb/cover_big/co70sq.jpg",
  "platforms": [],
  "provider_games": [
    {
      "name": "Order of the Metal Glove",
      "slug": "order-of-the-metal-glove",
      "service": "igdb"
    }
  ],
  "aliases": [],
  "shaders": [],
  "discord_id": "",
  "change_for": null
}