{
  "id": 208443,
  "name": "Astrid: Reverie",
  "slug": "astrid-reverie",
  "year": null,
  "banner_url": "",
  "icon_url": "",
  "coverart": "https://lutris.net/media/igdb/cover_big/co5pye.jpg",
  "platforms": [],
  "provider_games": [
    {
      "name": "Astrid: Reverie",
      "slug": "astrid-reverie",
      "service": "igdb"
    }
  ],
  "aliases": [],
  "shaders": [],
  "discord_id": "",
  "change_for": null
}