{
  "id": 245806,
  "name": "The Quest: Mithril Horde II",
  "slug": "the-quest-mithril-horde-ii",
  "year": null,
  "banner_url": "",
  "icon_url": "",
  "coverart": null,
  "platforms": [],
  "provider_games": [
    {
      "name": "The Quest: Mithril Horde II",
      "slug": "the-quest-mithril-horde-ii",
      "service": "igdb"
    }
  ],
  "aliases": [],
  "shaders": [],
  "discord_id": "",
  "change_for": null
}