{
  "id": 88860,
  "name": "Esther - Interactive Bible Stories",
  "slug": "esther-interactive-bible-stories",
  "year": null,
  "banner_url": "",
  "icon_url": "",
  "coverart": null,
  "platforms": [],
  "provider_games": [
    {
      "name": "Esther - Interactive Bible Stories",
      "slug": "esther-interactive-bible-stories",
      "service": "igdb"
    }
  ],
  "aliases": [],
  "shaders": [],
  "discord_id": "",
  "change_for": null
}