{
  "id": 60604,
  "name": "EuroCops",
  "slug": "eurocops",
  "year": null,
  "banner_url": "",
  "icon_url": "",
  "coverart": "https://lutris.net/media/igdb/cover_big/s3nxdfkajlvtpawjt1o3.jpg",
  "platforms": [],
  "provider_games": [
    {
      "name": "EuroCops",
      "slug": "eurocops",
      "service": "igdb"
    }
  ],
  "aliases": [],
  "shaders": [],
  "discord_id": "",
  "change_for": null
}