{
  "id": 1219,
  "game_id": 693,
  "game_slug": "red-faction",
  "name": "Red Faction",
  "year": 2001,
  "user": "strider",
  "runner": "wine",
  "slug": "red-faction-gog",
  "version": "GOG",
  "description": "GOG version with Dash Faction patch",
  "notes": "",
  "credits": "",
  "created_at": "2014-12-19T23:53:29.258000Z",
  "updated_at": "2023-05-11T21:25:26.106029Z",
  "draft": false,
  "published": true,
  "published_by": 1,
  "rating": "",
  "is_playable": null,
  "steamid": 20530,
  "gogid": 1207660623,
  "gogslug": "red_faction",
  "humbleid": "",
  "humblestoreid": "",
  "humblestoreid_real": "",
  "script": {
    "files": [
      {
        "installer": "N/A:Select the game's setup file"
      },
      {
        "dashfaction": "https://github.com/rafalh/dashfaction/releases/download/v1.8.0/DashFaction-1.8.0-setup.exe"
      }
    ],
    "game": {
      "arch": "win32",
      "exe": "drive_c/Program Files/Dash Faction/DashFactionLauncher.exe",
      "prefix": "$GAMEDIR"
    },
    "installer": [
      {
        "task": {
          "args": "/VERYSILENT /LANG=en /SP- /NOCANCEL /SUPPRESSMSGBOXES /NOGUI /DIR=\"C:\\GOG Games\\Red Faction\"",
          "executable": "installer",
          "name": "wineexec",
          "prefix": "$GAMEDIR"
        }
      },
      {
        "task": {
          "app": "tahoma",
          "description": "Install tahoma font for Dash Faction installer",
          "name": "winetricks"
        }
      },
      {
        "task": {
          "description": "Installing Dash Faction",
          "executable": "dashfaction",
          "name": "wineexec",
          "prefix": "$GAMEDIR"
        }
      }
    ]
  },
  "content": "files:\n- installer: N/A:Select the game's setup file\n- dashfaction: https://github.com/rafalh/dashfaction/releases/download/v1.8.0/DashFaction-1.8.0-setup.exe\ngame:\n  arch: win32\n  exe: drive_c/Program Files/Dash Faction/DashFactionLauncher.exe\n  prefix: $GAMEDIR\ninstaller:\n- task:\n    args: /VERYSILENT /LANG=en /SP- /NOCANCEL /SUPPRESSMSGBOXES /NOGUI /DIR=\"C:\\GOG\n      Games\\Red Faction\"\n    executable: installer\n    name: wineexec\n    prefix: $GAMEDIR\n- task:\n    app: tahoma\n    description: Install tahoma font for Dash Faction installer\n    name: winetricks\n- task:\n    description: Installing Dash Faction\n    executable: dashfaction\n    name: wineexec\n    prefix: $GAMEDIR\n",
  "discord_id": "425440700335915028"
}