{
  "id": 273402,
  "name": "Grapple Tanks",
  "slug": "grapple-tanks",
  "year": null,
  "banner_url": "",
  "icon_url": "",
  "coverart": "https://lutris.net/media/igdb/cover_big/co7qd6.jpg",
  "platforms": [],
  "provider_games": [
    {
      "name": "Grapple Tanks",
      "slug": "grapple-tanks",
      "service": "igdb"
    }
  ],
  "aliases": [],
  "shaders": [],
  "discord_id": "",
  "change_for": null
}