{
  "id": 276479,
  "name": "That Cowgirl Life",
  "slug": "that-cowgirl-life",
  "year": null,
  "banner_url": "",
  "icon_url": "",
  "coverart": "https://lutris.net/media/igdb/cover_big/co7uh7.jpg",
  "platforms": [],
  "provider_games": [
    {
      "name": "That Cowgirl Life",
      "slug": "that-cowgirl-life",
      "service": "igdb"
    }
  ],
  "aliases": [],
  "shaders": [],
  "discord_id": "",
  "change_for": null
}