{
  "id": 219939,
  "name": "Master Of Earth",
  "slug": "master-of-earth",
  "year": null,
  "banner_url": "",
  "icon_url": "",
  "coverart": "https://lutris.net/media/igdb/cover_big/co5kpk.jpg",
  "platforms": [],
  "provider_games": [
    {
      "name": "Master of Earth",
      "slug": "master-of-earth",
      "service": "igdb"
    }
  ],
  "aliases": [],
  "shaders": [],
  "discord_id": "",
  "change_for": null
}