{
  "id": 157421,
  "name": "Wings of Magloryx",
  "slug": "wings-of-magloryx",
  "year": 2016,
  "banner_url": "",
  "icon_url": "",
  "coverart": "https://lutris.net/media/igdb/cover_big/zfiyfq78s8o6ukojn4q8.jpg",
  "platforms": [
    {
      "name": "Nintendo Wii U"
    }
  ],
  "provider_games": [
    {
      "name": "Wings of Magloryx",
      "slug": "wings-of-magloryx",
      "service": "igdb"
    }
  ],
  "aliases": [],
  "shaders": [],
  "discord_id": "",
  "change_for": null
}