{
  "id": 62476,
  "name": "Simon HD",
  "slug": "simon-hd",
  "year": null,
  "banner_url": "",
  "icon_url": "",
  "coverart": "https://lutris.net/media/igdb/cover_big/vzwzvdtvtr8ac4lstold.jpg",
  "platforms": [],
  "provider_games": [
    {
      "name": "Simon HD",
      "slug": "simon-hd",
      "service": "igdb"
    }
  ],
  "aliases": [],
  "shaders": [],
  "discord_id": "",
  "change_for": null
}