{
  "id": 301322,
  "name": "Hellgate Senigallia Remake",
  "slug": "hellgate-senigallia-remake",
  "year": 2024,
  "banner_url": "",
  "icon_url": "",
  "coverart": "https://lutris.net/media/igdb/cover_big/co93ed.jpg",
  "platforms": [
    {
      "name": "Windows"
    }
  ],
  "provider_games": [
    {
      "name": "Hellgate Senigallia Remake",
      "slug": "hellgate-senigallia-remake",
      "service": "igdb"
    }
  ],
  "aliases": [],
  "shaders": [],
  "discord_id": "",
  "change_for": null
}