{
  "id": 230417,
  "name": "Lockstone Mountains",
  "slug": "lockstone-mountains",
  "year": null,
  "banner_url": "",
  "icon_url": "",
  "coverart": "https://lutris.net/media/igdb/cover_big/co6ctz.jpg",
  "platforms": [],
  "provider_games": [
    {
      "name": "Lockstone Mountains",
      "slug": "lockstone-mountains",
      "service": "igdb"
    }
  ],
  "aliases": [],
  "shaders": [],
  "discord_id": "",
  "change_for": null
}