{
  "id": 215740,
  "name": "Mars Vice",
  "slug": "mars-vice",
  "year": null,
  "banner_url": "",
  "icon_url": "",
  "coverart": "https://lutris.net/media/igdb/cover_big/co58op.jpg",
  "platforms": [],
  "provider_games": [
    {
      "name": "Mars Vice",
      "slug": "mars-vice",
      "service": "igdb"
    }
  ],
  "aliases": [],
  "shaders": [],
  "discord_id": "",
  "change_for": null
}