{
  "id": 275091,
  "name": "Hebi no Inochi",
  "slug": "hebi-no-inochi",
  "year": 2020,
  "banner_url": "",
  "icon_url": "",
  "coverart": "https://lutris.net/media/igdb/cover_big/co7tsz.jpg",
  "platforms": [
    {
      "name": "Android"
    },
    {
      "name": "Browser"
    }
  ],
  "provider_games": [
    {
      "name": "Hebi no Inochi",
      "slug": "hebi-no-inochi",
      "service": "igdb"
    }
  ],
  "aliases": [],
  "shaders": [],
  "discord_id": "",
  "change_for": null
}