{
  "id": 200949,
  "name": "Zombie Slaughter VR",
  "slug": "zombie-slaughter-vr",
  "year": null,
  "banner_url": "",
  "icon_url": "",
  "coverart": "https://lutris.net/media/igdb/cover_big/co4pvf.jpg",
  "platforms": [],
  "provider_games": [
    {
      "name": "Zombie Slaughter VR",
      "slug": "zombie-slaughter-vr",
      "service": "igdb"
    }
  ],
  "aliases": [],
  "shaders": [],
  "discord_id": "",
  "change_for": null
}