{
  "id": 255324,
  "name": "New English Training: Learning with Tempo - Beginners Edition",
  "slug": "new-english-training-learning-with-tempo-beginners-edition",
  "year": 2009,
  "banner_url": "",
  "icon_url": "",
  "coverart": null,
  "platforms": [
    {
      "name": "Nintendo DSi"
    }
  ],
  "provider_games": [
    {
      "name": "New English Training: Learning with Tempo - Beginners Edition",
      "slug": "new-english-training-learning-with-tempo-beginners-edition",
      "service": "igdb"
    }
  ],
  "aliases": [],
  "shaders": [],
  "discord_id": "",
  "change_for": null
}