{
  "id": 5836,
  "name": "XCOM 2",
  "slug": "xcom-2",
  "year": 2016,
  "banner_url": "https://lutris.net/games/banner/xcom-2.jpg",
  "icon_url": "https://lutris.net/games/icon/xcom-2.png",
  "coverart": "https://lutris.net/media/igdb/cover_big/co1mvj.jpg",
  "platforms": [
    {
      "name": "Linux"
    },
    {
      "name": "Mac"
    },
    {
      "name": "Nintendo Switch"
    },
    {
      "name": "Sony Playstation 4"
    },
    {
      "name": "Windows"
    },
    {
      "name": "Xbox One"
    }
  ],
  "provider_games": [
    {
      "name": "XCOM® 2",
      "slug": "1482002159",
      "service": "gog"
    },
    {
      "name": "XCOM 2",
      "slug": "268500",
      "service": "steam"
    },
    {
      "name": "XCOM 2",
      "slug": "xcom-2",
      "service": "igdb"
    }
  ],
  "aliases": [],
  "shaders": [],
  "discord_id": "359510740878491658",
  "change_for": null
}