{
  "id": 247254,
  "name": "Korokoro Harley",
  "slug": "korokoro-harley--1",
  "year": 2023,
  "banner_url": "",
  "icon_url": "",
  "coverart": null,
  "platforms": [
    {
      "name": "Nintendo Switch"
    }
  ],
  "provider_games": [
    {
      "name": "Korokoro Harley",
      "slug": "korokoro-harley--1",
      "service": "igdb"
    }
  ],
  "aliases": [],
  "shaders": [],
  "discord_id": "",
  "change_for": null
}