{
  "id": 149514,
  "name": "Pepo",
  "slug": "pepo",
  "year": null,
  "banner_url": "",
  "icon_url": "",
  "coverart": "https://lutris.net/media/igdb/cover_big/co3u77.jpg",
  "platforms": [],
  "provider_games": [
    {
      "name": "Pepo",
      "slug": "pepo",
      "service": "igdb"
    }
  ],
  "aliases": [],
  "shaders": [],
  "discord_id": "",
  "change_for": null
}