{
  "id": 221185,
  "name": "Megaman's Christmas Carol Remix",
  "slug": "megamans-christmas-carol-remix",
  "year": 2012,
  "banner_url": "",
  "icon_url": "",
  "coverart": "https://lutris.net/media/igdb/cover_big/co4z2t.jpg",
  "platforms": [
    {
      "name": "Windows"
    }
  ],
  "provider_games": [
    {
      "name": "Megaman's Christmas Carol Remix",
      "slug": "megamans-christmas-carol-remix",
      "service": "igdb"
    }
  ],
  "aliases": [],
  "shaders": [],
  "discord_id": "",
  "change_for": null
}