{
  "id": 41197,
  "name": "REMOTE LIFE",
  "slug": "remote-life",
  "year": null,
  "banner_url": "https://lutris.net/games/banner/remote-life.jpg",
  "icon_url": "https://lutris.net/games/icon/remote-life.png",
  "coverart": "https://lutris.net/media/igdb/cover_big/co3yf8.jpg",
  "platforms": [],
  "provider_games": [
    {
      "name": "REMOTE LIFE",
      "slug": "1126420",
      "service": "steam"
    },
    {
      "name": "Remote Life",
      "slug": "remote-life",
      "service": "igdb"
    }
  ],
  "aliases": [],
  "shaders": [],
  "discord_id": "",
  "change_for": null
}