{
  "id": 196166,
  "name": "2080 Apocalypse",
  "slug": "2080-apocalypse",
  "year": null,
  "banner_url": "",
  "icon_url": "",
  "coverart": "https://lutris.net/media/igdb/cover_big/co4ntl.jpg",
  "platforms": [],
  "provider_games": [
    {
      "name": "2080 Apocalypse",
      "slug": "2080-apocalypse",
      "service": "igdb"
    }
  ],
  "aliases": [],
  "shaders": [],
  "discord_id": "",
  "change_for": null
}