{
  "id": 8898,
  "name": "Alien Blitz",
  "slug": "alien-blitz",
  "year": 2016,
  "banner_url": "https://lutris.net/games/banner/alien-blitz.jpg",
  "icon_url": "https://lutris.net/games/icon/alien-blitz.png",
  "coverart": null,
  "platforms": [
    {
      "name": "Linux"
    },
    {
      "name": "Mac"
    },
    {
      "name": "Windows"
    }
  ],
  "provider_games": [
    {
      "name": "Alien Blitz",
      "slug": "434240",
      "service": "steam"
    },
    {
      "name": "Alien Blitz",
      "slug": "alien-blitz",
      "service": "igdb"
    }
  ],
  "aliases": [],
  "shaders": [],
  "discord_id": "",
  "change_for": null
}