{
  "id": 206700,
  "name": "Boku ha Koukuu Kanseikan: Airport Hero 3D - Honolulu",
  "slug": "boku-ha-koukuu-kanseikan-airport-hero-3d-honolulu",
  "year": null,
  "banner_url": "",
  "icon_url": "",
  "coverart": null,
  "platforms": [],
  "provider_games": [
    {
      "name": "Boku ha Koukuu Kanseikan: Airport Hero 3D - Honolulu",
      "slug": "boku-ha-koukuu-kanseikan-airport-hero-3d-honolulu",
      "service": "igdb"
    }
  ],
  "aliases": [],
  "shaders": [],
  "discord_id": "",
  "change_for": null
}