{
  "id": 222333,
  "name": "Perfect Partner",
  "slug": "perfect-partner",
  "year": null,
  "banner_url": "https://lutris.net/games/banner/perfect-partner.jpg",
  "icon_url": "",
  "coverart": "https://lutris.net/media/igdb/cover_big/co5kdp.jpg",
  "platforms": [],
  "provider_games": [
    {
      "name": "Perfect Partner",
      "slug": "1859270",
      "service": "steam"
    },
    {
      "name": "Perfect Partner",
      "slug": "perfect-partner",
      "service": "igdb"
    }
  ],
  "aliases": [],
  "shaders": [],
  "discord_id": "",
  "change_for": null
}