{
  "id": 20427,
  "name": "Hide The Body",
  "slug": "hide-the-body",
  "year": 2018,
  "banner_url": "https://lutris.net/games/banner/hide-the-body.jpg",
  "icon_url": "https://lutris.net/games/icon/hide-the-body.png",
  "coverart": "https://lutris.net/media/igdb/cover_big/co219m.jpg",
  "platforms": [
    {
      "name": "Windows"
    }
  ],
  "provider_games": [
    {
      "name": "Hide The Body",
      "slug": "803360",
      "service": "steam"
    },
    {
      "name": "Hide the Body",
      "slug": "hide-the-body",
      "service": "igdb"
    }
  ],
  "aliases": [],
  "shaders": [],
  "discord_id": "",
  "change_for": null
}