{
  "id": 142914,
  "name": "Dragon Ball Z: Bakuretsu Impact",
  "slug": "dragon-ball-z-bakuretsu-impact",
  "year": null,
  "banner_url": "",
  "icon_url": "",
  "coverart": "https://lutris.net/media/igdb/cover_big/sfaz18pav6hzj78ngex3.jpg",
  "platforms": [],
  "provider_games": [
    {
      "name": "Dragon Ball Z: Bakuretsu Impact",
      "slug": "dragon-ball-z-bakuretsu-impact",
      "service": "igdb"
    }
  ],
  "aliases": [],
  "shaders": [],
  "discord_id": "",
  "change_for": null
}