{
  "id": 232221,
  "name": "Hakuouki Shinkai: Manyou no Shou",
  "slug": "hakuouki-shinkai-manyou-no-shou",
  "year": 2023,
  "banner_url": "",
  "icon_url": "",
  "coverart": "https://lutris.net/media/igdb/cover_big/co6bkn.jpg",
  "platforms": [
    {
      "name": "Nintendo Switch"
    }
  ],
  "provider_games": [
    {
      "name": "Hakuouki Shinkai: Manyou no Shou",
      "slug": "hakuouki-shinkai-manyou-no-shou",
      "service": "igdb"
    }
  ],
  "aliases": [],
  "shaders": [],
  "discord_id": "",
  "change_for": null
}