{
  "id": 98849,
  "name": "Whoops!",
  "slug": "whoops",
  "year": 1992,
  "banner_url": "",
  "icon_url": "",
  "coverart": "https://lutris.net/media/igdb/cover_big/co1r0q.jpg",
  "platforms": [
    {
      "name": "Atari 8-bit"
    }
  ],
  "provider_games": [
    {
      "name": "Whoops!",
      "slug": "whoops",
      "service": "igdb"
    }
  ],
  "aliases": [],
  "shaders": [],
  "discord_id": "",
  "change_for": null
}