{
  "id": 168989,
  "name": "Lost in Sky: Violent Seed",
  "slug": "lost-in-sky-violent-seed",
  "year": null,
  "banner_url": "",
  "icon_url": "",
  "coverart": "https://lutris.net/media/igdb/cover_big/co45ft.jpg",
  "platforms": [],
  "provider_games": [
    {
      "name": "Lost in Sky: Violent Seed",
      "slug": "lost-in-sky-violent-seed",
      "service": "igdb"
    }
  ],
  "aliases": [],
  "shaders": [],
  "discord_id": "",
  "change_for": null
}