{
  "id": 218305,
  "name": "Wolfstar Adventures in the Inu System",
  "slug": "wolfstar-adventures-in-the-inu-system",
  "year": null,
  "banner_url": "",
  "icon_url": "",
  "coverart": "https://lutris.net/media/igdb/cover_big/co5id8.jpg",
  "platforms": [],
  "provider_games": [
    {
      "name": "Wolfstar Adventures in the Inu System",
      "slug": "wolfstar-adventures-in-the-inu-system",
      "service": "igdb"
    }
  ],
  "aliases": [],
  "shaders": [],
  "discord_id": "",
  "change_for": null
}