{
  "id": 269737,
  "name": "Disney Junior Magical Holiday",
  "slug": "disney-junior-magical-holiday",
  "year": 2023,
  "banner_url": "",
  "icon_url": "",
  "coverart": "https://lutris.net/media/igdb/cover_big/co7k0e.jpg",
  "platforms": [
    {
      "name": "Browser"
    }
  ],
  "provider_games": [
    {
      "name": "Disney Junior Magical Holiday",
      "slug": "disney-junior-magical-holiday",
      "service": "igdb"
    }
  ],
  "aliases": [],
  "shaders": [],
  "discord_id": "",
  "change_for": null
}