{
  "id": 216259,
  "name": "Candy Kombat",
  "slug": "candy-kombat",
  "year": null,
  "banner_url": "",
  "icon_url": "",
  "coverart": "https://lutris.net/media/igdb/cover_big/co588o.jpg",
  "platforms": [],
  "provider_games": [
    {
      "name": "Candy Kombat",
      "slug": "candy-kombat",
      "service": "igdb"
    }
  ],
  "aliases": [],
  "shaders": [],
  "discord_id": "",
  "change_for": null
}