{
  "id": 203335,
  "name": "SquareMan-Boy",
  "slug": "squareman-boy",
  "year": null,
  "banner_url": "",
  "icon_url": "",
  "coverart": "https://lutris.net/media/igdb/cover_big/co4g95.jpg",
  "platforms": [],
  "provider_games": [
    {
      "name": "SquareMan-Boy",
      "slug": "squareman-boy",
      "service": "igdb"
    }
  ],
  "aliases": [],
  "shaders": [],
  "discord_id": "",
  "change_for": null
}