{
  "id": 48310,
  "name": "Tim Burton's The Nightmare Before Christmas: The Pumpkin King",
  "slug": "tim-burtons-the-nightmare-before-christmas-the-pumpkin-king",
  "year": null,
  "banner_url": "",
  "icon_url": "",
  "coverart": "https://lutris.net/media/igdb/cover_big/rcipxx7vtxjrdzkfpieq.jpg",
  "platforms": [],
  "provider_games": [
    {
      "name": "Tim Burton's The Nightmare Before Christmas: The Pumpkin King",
      "slug": "tim-burtons-the-nightmare-before-christmas-the-pumpkin-king",
      "service": "igdb"
    }
  ],
  "aliases": [],
  "shaders": [],
  "discord_id": "",
  "change_for": null
}