{
  "id": 93581,
  "name": "BunnyRace Duracell",
  "slug": "bunnyrace-duracell",
  "year": null,
  "banner_url": "",
  "icon_url": "",
  "coverart": "https://lutris.net/media/igdb/cover_big/ao2jkadnjlelztzbxtlt.jpg",
  "platforms": [],
  "provider_games": [
    {
      "name": "BunnyRace Duracell",
      "slug": "bunnyrace-duracell",
      "service": "igdb"
    }
  ],
  "aliases": [],
  "shaders": [],
  "discord_id": "",
  "change_for": null
}