{
  "id": 251332,
  "name": "Screams from the Past",
  "slug": "screams-from-the-past",
  "year": null,
  "banner_url": "",
  "icon_url": "",
  "coverart": "https://lutris.net/media/igdb/cover_big/co6rba.jpg",
  "platforms": [],
  "provider_games": [
    {
      "name": "Screams from the Past",
      "slug": "screams-from-the-past",
      "service": "igdb"
    }
  ],
  "aliases": [],
  "shaders": [],
  "discord_id": "",
  "change_for": null
}