{
  "id": 175532,
  "name": "Haiku, the Robot",
  "slug": "haiku-the-robot",
  "year": null,
  "banner_url": "https://lutris.net/games/banner/haiku-the-robot.jpg",
  "icon_url": "",
  "coverart": "https://lutris.net/media/igdb/cover_big/co47rj.jpg",
  "platforms": [
    {
      "name": "Mac"
    },
    {
      "name": "Windows"
    }
  ],
  "provider_games": [
    {
      "name": "Haiku, the Robot",
      "slug": "1231880",
      "service": "steam"
    },
    {
      "name": "Haiku, the Robot",
      "slug": "haiku-the-robot",
      "service": "igdb"
    }
  ],
  "aliases": [],
  "shaders": [],
  "discord_id": "",
  "change_for": null
}