{
  "id": 72982,
  "name": "Hidden Object: Faries Trail",
  "slug": "hidden-object-faries-trail",
  "year": null,
  "banner_url": "",
  "icon_url": "",
  "coverart": null,
  "platforms": [],
  "provider_games": [
    {
      "name": "Hidden Object: Faries Trail",
      "slug": "hidden-object-faries-trail",
      "service": "igdb"
    }
  ],
  "aliases": [],
  "shaders": [],
  "discord_id": "",
  "change_for": null
}