{
  "id": 294383,
  "name": "Wrath: Aeon of Ruin VR",
  "slug": "wrath-aeon-of-ruin-vr",
  "year": null,
  "banner_url": "",
  "icon_url": "",
  "coverart": "https://lutris.net/media/igdb/cover_big/co8oqo.jpg",
  "platforms": [
    {
      "name": "Oculus Quest 2"
    },
    {
      "name": "SteamVR"
    }
  ],
  "provider_games": [
    {
      "name": "Wrath: Aeon of Ruin VR",
      "slug": "wrath-aeon-of-ruin-vr",
      "service": "igdb"
    }
  ],
  "aliases": [],
  "shaders": [],
  "discord_id": "",
  "change_for": null
}