{
  "id": 56732,
  "name": "A Fork in the Tale",
  "slug": "a-fork-in-the-tale--1",
  "year": null,
  "banner_url": "",
  "icon_url": "",
  "coverart": null,
  "platforms": [],
  "provider_games": [
    {
      "name": "A Fork in the Tale",
      "slug": "a-fork-in-the-tale--1",
      "service": "igdb"
    }
  ],
  "aliases": [],
  "shaders": [],
  "discord_id": "",
  "change_for": null
}