{
  "id": 38678,
  "game_id": 293788,
  "game_slug": "liu-xing-hu-die-jian",
  "name": "流星蝴蝶剑",
  "year": 2002,
  "user": "fuckingaway2024",
  "runner": "wine",
  "slug": "liu-xing-hu-die-jian-goty-setup",
  "version": "GOTY Setup",
  "description": "",
  "notes": "1. 游戏内动画播放存在问题\r\n2. 游戏部分字体过窄\r\n3. 切出游戏后再切入，分辨率可能不正常",
  "credits": "",
  "created_at": "2024-08-16T14:15:25.929137Z",
  "updated_at": "2024-08-16T14:15:25.929155Z",
  "draft": false,
  "published": true,
  "published_by": null,
  "rating": "",
  "is_playable": null,
  "steamid": null,
  "gogid": null,
  "gogslug": "",
  "humbleid": "",
  "humblestoreid": "",
  "humblestoreid_real": "",
  "script": {
    "files": [
      {
        "setupfile": "N/A:Select the setup file"
      }
    ],
    "game": {
      "arch": "win64",
      "exe": "drive_c/Program Files (x86)/Meteor/Meteor.exe",
      "launch_configs": [
        {
          "exe": "config.exe",
          "name": "流星蝴蝶剑效能设置"
        }
      ],
      "prefix": "$GAMEDIR"
    },
    "installer": [
      {
        "task": {
          "name": "create_prefix",
          "prefix": "$GAMEDIR"
        }
      },
      {
        "task": {
          "app": "winxp",
          "name": "winetricks",
          "prefix": "$GAMEDIR",
          "silent": false
        }
      },
      {
        "task": {
          "app": "directshow",
          "name": "winetricks",
          "prefix": "$GAMEDIR",
          "silent": false
        }
      },
      {
        "task": {
          "app": "sourcehansans",
          "name": "winetricks",
          "prefix": "$GAMEDIR",
          "silent": false
        }
      },
      {
        "task": {
          "app": "fakechinese",
          "name": "winetricks",
          "prefix": "$GAMEDIR",
          "silent": false
        }
      },
      {
        "task": {
          "executable": "setupfile",
          "name": "wineexec",
          "prefix": "$GAMEDIR"
        }
      }
    ],
    "system": {
      "env": {
        "LANG": "zh_CN.UTF-8"
      },
      "locale": "zh_CN.utf8"
    }
  },
  "content": "files:\n- setupfile: N/A:Select the setup file\ngame:\n  arch: win64\n  exe: drive_c/Program Files (x86)/Meteor/Meteor.exe\n  launch_configs:\n  - exe: config.exe\n    name: \"\\u6D41\\u661F\\u8774\\u8776\\u5251\\u6548\\u80FD\\u8BBE\\u7F6E\"\n  prefix: $GAMEDIR\ninstaller:\n- task:\n    name: create_prefix\n    prefix: $GAMEDIR\n- task:\n    app: winxp\n    name: winetricks\n    prefix: $GAMEDIR\n    silent: false\n- task:\n    app: directshow\n    name: winetricks\n    prefix: $GAMEDIR\n    silent: false\n- task:\n    app: sourcehansans\n    name: winetricks\n    prefix: $GAMEDIR\n    silent: false\n- task:\n    app: fakechinese\n    name: winetricks\n    prefix: $GAMEDIR\n    silent: false\n- task:\n    executable: setupfile\n    name: wineexec\n    prefix: $GAMEDIR\nsystem:\n  env:\n    LANG: zh_CN.UTF-8\n  locale: zh_CN.utf8\n",
  "discord_id": ""
}