{
  "id": 294563,
  "name": "The Secret Behind the Exam Paper",
  "slug": "the-secret-behind-the-exam-paper",
  "year": null,
  "banner_url": "",
  "icon_url": "",
  "coverart": "https://lutris.net/media/igdb/cover_big/co8q34.jpg",
  "platforms": [],
  "provider_games": [
    {
      "name": "The Secret Behind the Exam Paper",
      "slug": "the-secret-behind-the-exam-paper",
      "service": "igdb"
    }
  ],
  "aliases": [],
  "shaders": [],
  "discord_id": "",
  "change_for": null
}