{
  "id": 262850,
  "name": "G-Mode Archives 49: Gregory Horror Show",
  "slug": "g-mode-archives-49-gregory-horror-show",
  "year": null,
  "banner_url": "",
  "icon_url": "",
  "coverart": "https://lutris.net/media/igdb/cover_big/co77kc.jpg",
  "platforms": [],
  "provider_games": [
    {
      "name": "G-Mode Archives 49: Gregory Horror Show",
      "slug": "g-mode-archives-49-gregory-horror-show",
      "service": "igdb"
    }
  ],
  "aliases": [],
  "shaders": [],
  "discord_id": "",
  "change_for": null
}