{
  "id": 294389,
  "name": "The Dreams Of Fritz",
  "slug": "the-dreams-of-fritz",
  "year": 2024,
  "banner_url": "",
  "icon_url": "",
  "coverart": "https://lutris.net/media/igdb/cover_big/co8mxk.jpg",
  "platforms": [
    {
      "name": "Windows"
    }
  ],
  "provider_games": [
    {
      "name": "The Dreams Of Fritz",
      "slug": "the-dreams-of-fritz",
      "service": "igdb"
    }
  ],
  "aliases": [],
  "shaders": [],
  "discord_id": "",
  "change_for": null
}