{
  "id": 217513,
  "name": "Beach Boys: You and Me",
  "slug": "beach-boys-you-and-me",
  "year": null,
  "banner_url": "",
  "icon_url": "",
  "coverart": "https://lutris.net/media/igdb/cover_big/co55l9.jpg",
  "platforms": [],
  "provider_games": [
    {
      "name": "Beach Boys: You and Me",
      "slug": "beach-boys-you-and-me",
      "service": "igdb"
    }
  ],
  "aliases": [],
  "shaders": [],
  "discord_id": "",
  "change_for": null
}