{
  "id": 6129,
  "game_id": 14418,
  "game_slug": "battle-buggy-grounds",
  "name": "Battle Buggy Grounds",
  "year": 2015,
  "user": "FakeShemp",
  "runner": "wine",
  "slug": "battle-buggy-grounds-groupees",
  "version": "Groupees",
  "description": "",
  "notes": "",
  "credits": "",
  "created_at": "2017-10-26T18:49:30.468000Z",
  "updated_at": "2018-05-19T03:41:56.189251Z",
  "draft": false,
  "published": true,
  "published_by": null,
  "rating": "",
  "is_playable": null,
  "steamid": null,
  "gogid": null,
  "gogslug": "",
  "humbleid": "",
  "humblestoreid": "",
  "humblestoreid_real": "",
  "script": {
    "files": [
      {
        "file1": "N/A:Please select the Groupees installer"
      }
    ],
    "game": {
      "arch": "win32",
      "exe": "drive_c/Program Files/Battle Buggy Grounds/Battle Buggy Groundz.exe",
      "prefix": "$GAMEDIR"
    },
    "installer": [
      {
        "task": {
          "args": "\"/S\" \"/D=\"C:\\\\Program Files\\\\Battle Buggy Grounds\"\"",
          "executable": "$file1",
          "name": "wineexec",
          "prefix": "$GAMEDIR"
        }
      }
    ]
  },
  "content": "files:\n- file1: N/A:Please select the Groupees installer\ngame:\n  arch: win32\n  exe: drive_c/Program Files/Battle Buggy Grounds/Battle Buggy Groundz.exe\n  prefix: $GAMEDIR\ninstaller:\n- task:\n    args: '\"/S\" \"/D=\"C:\\\\Program Files\\\\Battle Buggy Grounds\"\"'\n    executable: $file1\n    name: wineexec\n    prefix: $GAMEDIR\n",
  "discord_id": ""
}