{
  "id": 61684,
  "name": "Stone Smash",
  "slug": "stone-smash",
  "year": null,
  "banner_url": "",
  "icon_url": "",
  "coverart": "https://lutris.net/media/igdb/cover_big/ivvhlkqzmq2j3zmmzrnx.jpg",
  "platforms": [],
  "provider_games": [
    {
      "name": "Stone Smash",
      "slug": "stone-smash",
      "service": "igdb"
    }
  ],
  "aliases": [],
  "shaders": [],
  "discord_id": "",
  "change_for": null
}