{
  "id": 256380,
  "name": "Anime Sudoku",
  "slug": "anime-sudoku",
  "year": 2023,
  "banner_url": "",
  "icon_url": "",
  "coverart": "https://lutris.net/media/igdb/cover_big/co6zju.jpg",
  "platforms": [
    {
      "name": "Android"
    }
  ],
  "provider_games": [
    {
      "name": "Anime Sudoku",
      "slug": "anime-sudoku",
      "service": "igdb"
    }
  ],
  "aliases": [],
  "shaders": [],
  "discord_id": "",
  "change_for": null
}