{
  "id": 148981,
  "name": "Brrrainz: Feed your Hunger",
  "slug": "brrrainz-feed-your-hunger",
  "year": null,
  "banner_url": "",
  "icon_url": "",
  "coverart": null,
  "platforms": [],
  "provider_games": [
    {
      "name": "Brrrainz: Feed your Hunger",
      "slug": "brrrainz-feed-your-hunger",
      "service": "igdb"
    }
  ],
  "aliases": [],
  "shaders": [],
  "discord_id": "",
  "change_for": null
}