{
  "id": 60400,
  "name": "Maluch Racer 2",
  "slug": "maluch-racer-2",
  "year": null,
  "banner_url": "",
  "icon_url": "",
  "coverart": "https://lutris.net/media/igdb/cover_big/qlbvwmwkzy29bduwbb4e.jpg",
  "platforms": [],
  "provider_games": [
    {
      "name": "Maluch Racer 2",
      "slug": "maluch-racer-2",
      "service": "igdb"
    }
  ],
  "aliases": [],
  "shaders": [],
  "discord_id": "",
  "change_for": null
}