{
  "id": 282351,
  "name": "Bunny-girl with Golden Tummy",
  "slug": "bunny-girl-with-golden-tummy",
  "year": null,
  "banner_url": "",
  "icon_url": "",
  "coverart": "https://lutris.net/media/igdb/cover_big/co8242.jpg",
  "platforms": [],
  "provider_games": [
    {
      "name": "Bunny-girl with Golden Tummy",
      "slug": "bunny-girl-with-golden-tummy",
      "service": "igdb"
    }
  ],
  "aliases": [],
  "shaders": [],
  "discord_id": "",
  "change_for": null
}