{
  "id": 175091,
  "name": "Global City",
  "slug": "global-city",
  "year": null,
  "banner_url": "https://lutris.net/games/banner/global-city.jpg",
  "icon_url": "",
  "coverart": "https://lutris.net/media/igdb/cover_big/co48nq.jpg",
  "platforms": [],
  "provider_games": [
    {
      "name": "Global City",
      "slug": "global-city",
      "service": "igdb"
    },
    {
      "name": "Global City",
      "slug": "1731270",
      "service": "steam"
    }
  ],
  "aliases": [],
  "shaders": [],
  "discord_id": "",
  "change_for": null
}