{
  "id": 23956,
  "name": "Street Fighter Alpha 2",
  "slug": "street-fighter-alpha-2",
  "year": 1996,
  "banner_url": "https://lutris.net/games/banner/street-fighter-alpha-2.jpg",
  "icon_url": "https://lutris.net/games/icon/street-fighter-alpha-2.png",
  "coverart": "https://lutris.net/media/igdb/cover_big/co1w4v.jpg",
  "platforms": [
    {
      "name": "Arcade"
    },
    {
      "name": "Nintendo 3DS"
    },
    {
      "name": "Nintendo Wii"
    },
    {
      "name": "Nintendo Wii U"
    },
    {
      "name": "Sega Saturn"
    },
    {
      "name": "Sony PlayStation"
    },
    {
      "name": "Sony Playstation 3"
    },
    {
      "name": "Sony PSP"
    },
    {
      "name": "Super Nintendo"
    },
    {
      "name": "Windows"
    }
  ],
  "provider_games": [
    {
      "name": "Street Fighter Alpha 2",
      "slug": "sfa2",
      "service": "mame"
    },
    {
      "name": "Street Fighter Alpha 2",
      "slug": "1207659134",
      "service": "gog"
    },
    {
      "name": "Street Fighter Alpha 2",
      "slug": "street-fighter-alpha-2",
      "service": "igdb"
    }
  ],
  "aliases": [
    {
      "slug": "street-fighter-zero-2",
      "name": "Street Fighter Zero 2"
    }
  ],
  "shaders": [],
  "discord_id": "",
  "change_for": null
}