{
  "id": 65757,
  "name": "Dark Designs I: Grelminar's Staff",
  "slug": "dark-designs-i-grelminars-staff",
  "year": null,
  "banner_url": "",
  "icon_url": "",
  "coverart": null,
  "platforms": [],
  "provider_games": [
    {
      "name": "Dark Designs I: Grelminar's Staff",
      "slug": "dark-designs-i-grelminars-staff",
      "service": "igdb"
    }
  ],
  "aliases": [],
  "shaders": [],
  "discord_id": "",
  "change_for": null
}