{
  "id": 189,
  "name": "Defense Grid: The Awakening",
  "slug": "defense-grid-the-awakening",
  "year": 2008,
  "banner_url": "https://lutris.net/games/banner/defense-grid-the-awakening.jpg",
  "icon_url": "https://lutris.net/games/icon/defense-grid-the-awakening.png",
  "coverart": "https://lutris.net/media/igdb/cover_big/co2gdm.jpg",
  "platforms": [
    {
      "name": "Windows"
    }
  ],
  "provider_games": [
    {
      "name": "Defense Grid: The Awakening",
      "slug": "18500",
      "service": "steam"
    },
    {
      "name": "Defense Grid: The Awakening",
      "slug": "defense-grid-the-awakening",
      "service": "igdb"
    }
  ],
  "aliases": [],
  "shaders": [],
  "discord_id": "",
  "change_for": null
}