{
  "id": 7176,
  "name": "Dispatcher",
  "slug": "dispatcher",
  "year": 2015,
  "banner_url": "https://lutris.net/games/banner/dispatcher.jpg",
  "icon_url": "https://lutris.net/games/icon/dispatcher.png",
  "coverart": "https://lutris.net/media/igdb/cover_big/jfdyqvylnroukjzillop.jpg",
  "platforms": [
    {
      "name": "Windows"
    }
  ],
  "provider_games": [
    {
      "name": "Dispatcher",
      "slug": "dispatcher",
      "service": "igdb"
    }
  ],
  "aliases": [],
  "shaders": [],
  "discord_id": "",
  "change_for": null
}