{
  "id": 548,
  "game_id": 1690,
  "game_slug": "puzzle-bots",
  "name": "Puzzle Bots",
  "year": 2010,
  "user": "dennisjj4",
  "runner": "steam",
  "slug": "puzzle-bots-proton",
  "version": "Proton",
  "description": "",
  "notes": "",
  "credits": "",
  "created_at": "2014-08-13T02:56:23.022000Z",
  "updated_at": "2021-05-04T02:43:01.877739Z",
  "draft": false,
  "published": true,
  "published_by": null,
  "rating": "",
  "is_playable": null,
  "steamid": 80300,
  "gogid": null,
  "gogslug": "",
  "humbleid": "",
  "humblestoreid": "",
  "humblestoreid_real": "",
  "script": {
    "game": {
      "appid": 80300
    }
  },
  "content": "game:\n  appid: 80300\n",
  "discord_id": ""
}