{
  "id": 285657,
  "name": "Nutz Revenge",
  "slug": "nutz-revenge",
  "year": null,
  "banner_url": "",
  "icon_url": "",
  "coverart": "https://lutris.net/media/igdb/cover_big/co89dg.jpg",
  "platforms": [],
  "provider_games": [
    {
      "name": "Nutz Revenge",
      "slug": "nutz-revenge",
      "service": "igdb"
    }
  ],
  "aliases": [],
  "shaders": [],
  "discord_id": "",
  "change_for": null
}