{
  "id": 233980,
  "name": "N0de: Machina Omega",
  "slug": "n0de-machina-omega",
  "year": null,
  "banner_url": "",
  "icon_url": "",
  "coverart": null,
  "platforms": [],
  "provider_games": [
    {
      "name": "N0de: Machina Omega",
      "slug": "n0de-machina-omega",
      "service": "igdb"
    }
  ],
  "aliases": [],
  "shaders": [],
  "discord_id": "",
  "change_for": null
}