{
  "id": 42318,
  "name": "Nongunz: Doppelganger Edition",
  "slug": "nongunz-doppelganger-edition",
  "year": 2021,
  "banner_url": "https://lutris.net/games/banner/nongunz-doppelganger-edition.jpg",
  "icon_url": "https://lutris.net/games/icon/nongunz-doppelganger-edition.png",
  "coverart": "https://lutris.net/media/igdb/cover_big/co2icl.jpg",
  "platforms": [
    {
      "name": "Nintendo Switch"
    },
    {
      "name": "Sony Playstation 4"
    },
    {
      "name": "Windows"
    },
    {
      "name": "Xbox One"
    },
    {
      "name": "Xbox Series X|S"
    }
  ],
  "provider_games": [
    {
      "name": "Nongunz: Doppelganger Edition",
      "slug": "1304780",
      "service": "steam"
    },
    {
      "name": "Nongunz: Doppelganger Edition ",
      "slug": "1955433774",
      "service": "gog"
    },
    {
      "name": "Nongunz: Doppelganger Edition Demo",
      "slug": "1563414043",
      "service": "gog"
    },
    {
      "name": "Nongunz: Doppelganger Edition",
      "slug": "nongunz-doppelganger-edition",
      "service": "igdb"
    }
  ],
  "aliases": [],
  "shaders": [],
  "discord_id": "",
  "change_for": null
}