{
  "id": 193868,
  "name": "Tree Simulator 2023",
  "slug": "tree-simulator-2023",
  "year": null,
  "banner_url": "https://lutris.net/games/banner/tree-simulator-2023.jpg",
  "icon_url": "",
  "coverart": "https://lutris.net/media/igdb/cover_big/co4lpj.jpg",
  "platforms": [],
  "provider_games": [
    {
      "name": "Tree Simulator 2023",
      "slug": "tree-simulator-2023",
      "service": "igdb"
    },
    {
      "name": "Tree Simulator 2023",
      "slug": "1916970",
      "service": "steam"
    }
  ],
  "aliases": [],
  "shaders": [],
  "discord_id": "",
  "change_for": null
}