{
  "id": 206913,
  "name": "Sonic Project Advanced",
  "slug": "sonic-project-advanced",
  "year": null,
  "banner_url": "",
  "icon_url": "",
  "coverart": "https://lutris.net/media/igdb/cover_big/co7nnm.jpg",
  "platforms": [
    {
      "name": "Windows"
    }
  ],
  "provider_games": [
    {
      "name": "Sonic Project Advanced",
      "slug": "sonic-project-advanced",
      "service": "igdb"
    }
  ],
  "aliases": [],
  "shaders": [],
  "discord_id": "",
  "change_for": null
}