{
  "id": 295840,
  "name": "Jammer Dash",
  "slug": "jammer-dash--1",
  "year": null,
  "banner_url": "",
  "icon_url": "",
  "coverart": "https://lutris.net/media/igdb/cover_big/co8qgs.jpg",
  "platforms": [
    {
      "name": "Android"
    },
    {
      "name": "Linux"
    },
    {
      "name": "Mac"
    },
    {
      "name": "Windows"
    }
  ],
  "provider_games": [
    {
      "name": "Jammer Dash",
      "slug": "jammer-dash--1",
      "service": "igdb"
    }
  ],
  "aliases": [],
  "shaders": [],
  "discord_id": "",
  "change_for": null
}