{
  "id": 269492,
  "name": "The Asteroid Field",
  "slug": "the-asteroid-field",
  "year": 1980,
  "banner_url": "",
  "icon_url": "",
  "coverart": "https://lutris.net/media/igdb/cover_big/co7jhk.jpg",
  "platforms": [
    {
      "name": "Apple II"
    }
  ],
  "provider_games": [
    {
      "name": "The Asteroid Field",
      "slug": "the-asteroid-field",
      "service": "igdb"
    }
  ],
  "aliases": [],
  "shaders": [],
  "discord_id": "",
  "change_for": null
}