{
  "id": 261184,
  "name": "The Little Match Girl 3: The Escalus Manifold",
  "slug": "the-little-match-girl-3-the-escalus-manifold",
  "year": 2023,
  "banner_url": "",
  "icon_url": "",
  "coverart": "https://lutris.net/media/igdb/cover_big/co7vfg.jpg",
  "platforms": [
    {
      "name": "Browser"
    }
  ],
  "provider_games": [
    {
      "name": "The Little Match Girl 3: The Escalus Manifold",
      "slug": "the-little-match-girl-3-the-escalus-manifold",
      "service": "igdb"
    }
  ],
  "aliases": [],
  "shaders": [],
  "discord_id": "",
  "change_for": null
}