{
  "id": 106166,
  "name": "Cartoon Toolbox Starring Felix the Cat",
  "slug": "cartoon-toolbox-starring-felix-the-cat",
  "year": 1995,
  "banner_url": "",
  "icon_url": "",
  "coverart": "https://lutris.net/media/igdb/cover_big/co2tx3.jpg",
  "platforms": [
    {
      "name": "Mac"
    },
    {
      "name": "Windows"
    }
  ],
  "provider_games": [
    {
      "name": "Cartoon Toolbox Starring Felix the Cat",
      "slug": "cartoon-toolbox-starring-felix-the-cat",
      "service": "igdb"
    }
  ],
  "aliases": [],
  "shaders": [],
  "discord_id": "",
  "change_for": null
}