{
  "id": 37620,
  "name": "Ride To Canada",
  "slug": "ride-to-canada",
  "year": null,
  "banner_url": "https://lutris.net/games/banner/ride-to-canada.jpg",
  "icon_url": "https://lutris.net/games/icon/ride-to-canada.png",
  "coverart": null,
  "platforms": [],
  "provider_games": [
    {
      "name": "Ride To Canada",
      "slug": "845390",
      "service": "steam"
    },
    {
      "name": "Ride to Canada",
      "slug": "ride-to-canada",
      "service": "igdb"
    }
  ],
  "aliases": [],
  "shaders": [],
  "discord_id": "",
  "change_for": null
}