{
  "id": 111444,
  "name": "D.A.N.G.E.R. Team.",
  "slug": "danger-team",
  "year": null,
  "banner_url": "",
  "icon_url": "",
  "coverart": null,
  "platforms": [],
  "provider_games": [
    {
      "name": "D.A.N.G.E.R. Team.",
      "slug": "danger-team",
      "service": "igdb"
    }
  ],
  "aliases": [],
  "shaders": [],
  "discord_id": "",
  "change_for": null
}