{
  "id": 247172,
  "name": "Löwenzahn: Geschichten aus Natur, Umwelt und Technik",
  "slug": "lowenzahn-geschichten-aus-natur-umwelt-und-technik",
  "year": 1997,
  "banner_url": "",
  "icon_url": "",
  "coverart": "https://lutris.net/media/igdb/cover_big/co6j6u.jpg",
  "platforms": [
    {
      "name": "Mac"
    },
    {
      "name": "Windows"
    }
  ],
  "provider_games": [
    {
      "name": "Löwenzahn: Geschichten aus Natur, Umwelt und Technik",
      "slug": "lowenzahn-geschichten-aus-natur-umwelt-und-technik",
      "service": "igdb"
    }
  ],
  "aliases": [],
  "shaders": [],
  "discord_id": "",
  "change_for": null
}