{
  "id": 148170,
  "name": "Monster Clicker : Idle Halloween Strategy",
  "slug": "monster-clicker-idle-halloween-strategy",
  "year": 2018,
  "banner_url": "",
  "icon_url": "",
  "coverart": null,
  "platforms": [
    {
      "name": "Windows"
    }
  ],
  "provider_games": [
    {
      "name": "Monster Clicker : Idle Halloween Strategy",
      "slug": "monster-clicker-idle-halloween-strategy",
      "service": "igdb"
    }
  ],
  "aliases": [],
  "shaders": [],
  "discord_id": "",
  "change_for": null
}