{
  "id": 64332,
  "name": "Ultimate Football '95",
  "slug": "ultimate-football-95",
  "year": null,
  "banner_url": "",
  "icon_url": "",
  "coverart": null,
  "platforms": [],
  "provider_games": [
    {
      "name": "Ultimate Football '95",
      "slug": "ultimate-football-95",
      "service": "igdb"
    }
  ],
  "aliases": [],
  "shaders": [],
  "discord_id": "",
  "change_for": null
}