{
  "id": 86595,
  "name": "Farm Machine Championships 2013",
  "slug": "farm-machine-championships-2013",
  "year": null,
  "banner_url": "",
  "icon_url": "",
  "coverart": null,
  "platforms": [],
  "provider_games": [
    {
      "name": "Farm Machine Championships 2013",
      "slug": "farm-machine-championships-2013",
      "service": "igdb"
    }
  ],
  "aliases": [],
  "shaders": [],
  "discord_id": "",
  "change_for": null
}