{
  "id": 275173,
  "name": "Reimei no Yu",
  "slug": "reimei-no-yu--1",
  "year": null,
  "banner_url": "",
  "icon_url": "",
  "coverart": "https://lutris.net/media/igdb/cover_big/co7tbx.jpg",
  "platforms": [],
  "provider_games": [
    {
      "name": "Reimei no Yu",
      "slug": "reimei-no-yu--1",
      "service": "igdb"
    }
  ],
  "aliases": [],
  "shaders": [],
  "discord_id": "",
  "change_for": null
}