{
  "id": 104555,
  "name": "KartRider Rush+",
  "slug": "kartrider-rush-plus",
  "year": null,
  "banner_url": "",
  "icon_url": "",
  "coverart": "https://lutris.net/media/igdb/cover_big/co2qha.jpg",
  "platforms": [],
  "provider_games": [
    {
      "name": "KartRider Rush+",
      "slug": "kartrider-rush-plus",
      "service": "igdb"
    }
  ],
  "aliases": [],
  "shaders": [],
  "discord_id": "",
  "change_for": null
}