{
  "id": 99756,
  "name": "WinFish 3 - Fly Fishing",
  "slug": "winfish-3-fly-fishing",
  "year": 1995,
  "banner_url": "",
  "icon_url": "",
  "coverart": null,
  "platforms": [
    {
      "name": "Windows"
    }
  ],
  "provider_games": [
    {
      "name": "WinFish 3 - Fly Fishing",
      "slug": "winfish-3-fly-fishing",
      "service": "igdb"
    }
  ],
  "aliases": [],
  "shaders": [],
  "discord_id": "",
  "change_for": null
}