{
  "id": 49144,
  "name": "Catherine: Full Body - Launch Edition",
  "slug": "catherine-full-body-launch-edition",
  "year": null,
  "banner_url": "",
  "icon_url": "",
  "coverart": null,
  "platforms": [],
  "provider_games": [
    {
      "name": "Catherine: Full Body - Launch Edition",
      "slug": "catherine-full-body-launch-edition",
      "service": "igdb"
    }
  ],
  "aliases": [],
  "shaders": [],
  "discord_id": "",
  "change_for": null
}