{
  "id": 203516,
  "name": "Mistral",
  "slug": "mistral",
  "year": null,
  "banner_url": "",
  "icon_url": "",
  "coverart": "https://lutris.net/media/igdb/cover_big/co4fb4.jpg",
  "platforms": [],
  "provider_games": [
    {
      "name": "Mistral",
      "slug": "mistral",
      "service": "igdb"
    }
  ],
  "aliases": [],
  "shaders": [],
  "discord_id": "",
  "change_for": null
}