{
  "id": 228922,
  "name": "Monster Girl2",
  "slug": "monster-girl2",
  "year": null,
  "banner_url": "https://lutris.net/games/banner/monster-girl2.jpg",
  "icon_url": "https://lutris.net/games/icon/monster-girl2.png",
  "coverart": null,
  "platforms": [],
  "provider_games": [
    {
      "name": "捉妖物语2",
      "slug": "2158500",
      "service": "steam"
    }
  ],
  "aliases": [],
  "shaders": [],
  "discord_id": "",
  "change_for": null
}