{
  "id": 80952,
  "name": "Time Zone",
  "slug": "time-zone",
  "year": 1982,
  "banner_url": "",
  "icon_url": "",
  "coverart": "https://lutris.net/media/igdb/cover_big/lgstxo76hutdm7hdddsd.jpg",
  "platforms": [
    {
      "name": "Apple II"
    },
    {
      "name": "FM-7"
    },
    {
      "name": "PC-8801"
    },
    {
      "name": "PC-98"
    }
  ],
  "provider_games": [
    {
      "name": "Time Zone",
      "slug": "time-zone",
      "service": "igdb"
    }
  ],
  "aliases": [],
  "shaders": [],
  "discord_id": "",
  "change_for": null
}