{
  "id": 18636,
  "name": "The Tritan Initiative",
  "slug": "the-tritan-initiative",
  "year": 2017,
  "banner_url": "https://lutris.net/games/banner/the-tritan-initiative.jpg",
  "icon_url": "https://lutris.net/games/icon/the-tritan-initiative.png",
  "coverart": null,
  "platforms": [
    {
      "name": "Windows"
    }
  ],
  "provider_games": [
    {
      "name": "The Tritan Initiative",
      "slug": "the-tritan-initiative",
      "service": "igdb"
    }
  ],
  "aliases": [],
  "shaders": [],
  "discord_id": "",
  "change_for": null
}