{
  "id": 171754,
  "name": "Not Enough Souls",
  "slug": "not-enough-souls",
  "year": null,
  "banner_url": "",
  "icon_url": "",
  "coverart": null,
  "platforms": [],
  "provider_games": [
    {
      "name": "Not Enough Souls",
      "slug": "not-enough-souls",
      "service": "igdb"
    }
  ],
  "aliases": [],
  "shaders": [],
  "discord_id": "",
  "change_for": null
}