{
  "id": 108145,
  "name": "Wembley International Soccer",
  "slug": "wembley-international-soccer",
  "year": 1994,
  "banner_url": "",
  "icon_url": "",
  "coverart": "https://lutris.net/media/igdb/cover_big/je8rixkj98k22ubcdicg.jpg",
  "platforms": [
    {
      "name": "Amiga"
    },
    {
      "name": "Amiga CD32"
    }
  ],
  "provider_games": [
    {
      "name": "Wembley International Soccer",
      "slug": "wembley-international-soccer",
      "service": "igdb"
    }
  ],
  "aliases": [],
  "shaders": [],
  "discord_id": "",
  "change_for": null
}