{
  "id": 219656,
  "name": "Mt. Aki",
  "slug": "mt-aki",
  "year": null,
  "banner_url": "",
  "icon_url": "",
  "coverart": "https://lutris.net/media/igdb/cover_big/co5lm8.jpg",
  "platforms": [],
  "provider_games": [
    {
      "name": "Mt. Aki",
      "slug": "mt-aki",
      "service": "igdb"
    }
  ],
  "aliases": [],
  "shaders": [],
  "discord_id": "",
  "change_for": null
}