{
  "id": 251634,
  "name": "Fitness Game: Romance Story",
  "slug": "fitness-game-romance-story",
  "year": null,
  "banner_url": "",
  "icon_url": "",
  "coverart": null,
  "platforms": [],
  "provider_games": [
    {
      "name": "Fitness Game: Romance Story",
      "slug": "fitness-game-romance-story",
      "service": "igdb"
    }
  ],
  "aliases": [],
  "shaders": [],
  "discord_id": "",
  "change_for": null
}