{
  "id": 88950,
  "name": "GuiGhost Farms",
  "slug": "guighost-farms",
  "year": 2018,
  "banner_url": "",
  "icon_url": "",
  "coverart": "https://lutris.net/media/igdb/cover_big/pk0asqtvgtc2sbqeoetv.jpg",
  "platforms": [
    {
      "name": "Browser"
    }
  ],
  "provider_games": [
    {
      "name": "GuiGhost Farms",
      "slug": "guighost-farms",
      "service": "igdb"
    }
  ],
  "aliases": [],
  "shaders": [],
  "discord_id": "",
  "change_for": null
}