{
  "id": 36113,
  "name": "Thunder Cross",
  "slug": "thunder-cross",
  "year": 1988,
  "banner_url": "https://lutris.net/games/banner/thunder-cross.jpg",
  "icon_url": "https://lutris.net/games/icon/thunder-cross.png",
  "coverart": "https://lutris.net/media/igdb/cover_big/snswjlpsswttwpgs4ehd.jpg",
  "platforms": [
    {
      "name": "Arcade"
    }
  ],
  "provider_games": [
    {
      "name": "Thunder Cross",
      "slug": "thunderx",
      "service": "mame"
    },
    {
      "name": "Thunder Cross",
      "slug": "thunder-cross",
      "service": "igdb"
    }
  ],
  "aliases": [],
  "shaders": [],
  "discord_id": "",
  "change_for": null
}