{
  "id": 15027,
  "game_id": 1238,
  "game_slug": "call-of-duty-2",
  "name": "Call of Duty 2",
  "year": 2005,
  "user": "Ludecan",
  "runner": "wine",
  "slug": "call-of-duty-2-dvd",
  "version": "DVD",
  "description": "Installs the DVD version, and updates the game to version 1.3",
  "notes": "Moves all the requierd install files to a folder then runs the setup.\r\nAfter the installer crashes, you'll have to end the process \"cod2.exe\" using a task manager, or else the process will not proceed.\r\nYou might need a no-cd crack as well due to the use of SafeDisc DRM.",
  "credits": "",
  "created_at": "2019-08-16T16:57:46.457000Z",
  "updated_at": "2021-12-22T22:58:07.900086Z",
  "draft": false,
  "published": true,
  "published_by": 1,
  "rating": "",
  "is_playable": null,
  "steamid": 2630,
  "gogid": null,
  "gogslug": "",
  "humbleid": "",
  "humblestoreid": "",
  "humblestoreid_real": "",
  "script": {
    "files": [
      {
        "patch13": "http://www.callofdutyview.net/files/patches/cod2-v1.3.zip"
      }
    ],
    "game": {
      "arch": "win32",
      "exe": "drive_c/Program Files/Activision/Call of Duty 2/CoD2SP_s.exe",
      "prefix": "$GAMEDIR"
    },
    "installer": [
      {
        "task": {
          "name": "create_prefix",
          "prefix": "$GAMEDIR"
        }
      },
      {
        "insert-disc": {
          "description": "Insert DVD",
          "requires": "setup.exe"
        }
      },
      {
        "extract": {
          "description": "Extracting the patch",
          "file": "patch13"
        }
      },
      {
        "task": {
          "description": "Running the installer. Choose Typical. The installer will crash, you'll have to end the process \"cod2.exe\" using a task manager, or else the process will not procead.",
          "executable": "$DISC/setup.exe",
          "name": "wineexec",
          "prefix": "$GAMEDIR"
        }
      },
      {
        "task": {
          "description": "Running the 1.3 Patch.",
          "executable": "$GAMEDIR/cod2-v1.3.exe",
          "name": "wineexec",
          "prefix": "$GAMEDIR"
        }
      }
    ],
    "wine": {
      "Desktop": true,
      "esync": false
    }
  },
  "content": "files:\n- patch13: http://www.callofdutyview.net/files/patches/cod2-v1.3.zip\ngame:\n  arch: win32\n  exe: drive_c/Program Files/Activision/Call of Duty 2/CoD2SP_s.exe\n  prefix: $GAMEDIR\ninstaller:\n- task:\n    name: create_prefix\n    prefix: $GAMEDIR\n- insert-disc:\n    description: Insert DVD\n    requires: setup.exe\n- extract:\n    description: Extracting the patch\n    file: patch13\n- task:\n    description: Running the installer. Choose Typical. The installer will crash,\n      you'll have to end the process \"cod2.exe\" using a task manager, or else the\n      process will not procead.\n    executable: $DISC/setup.exe\n    name: wineexec\n    prefix: $GAMEDIR\n- task:\n    description: Running the 1.3 Patch.\n    executable: $GAMEDIR/cod2-v1.3.exe\n    name: wineexec\n    prefix: $GAMEDIR\nwine:\n  Desktop: true\n  esync: false\n",
  "discord_id": "496546499346432010"
}