{
  "id": 143360,
  "name": "Blockee",
  "slug": "blockee",
  "year": null,
  "banner_url": "",
  "icon_url": "",
  "coverart": "https://lutris.net/media/igdb/cover_big/co3u9e.jpg",
  "platforms": [],
  "provider_games": [
    {
      "name": "Blockee",
      "slug": "blockee",
      "service": "igdb"
    }
  ],
  "aliases": [],
  "shaders": [],
  "discord_id": "",
  "change_for": null
}