{
  "id": 247660,
  "name": "The Four Paths",
  "slug": "the-four-paths",
  "year": null,
  "banner_url": "",
  "icon_url": "",
  "coverart": "https://lutris.net/media/igdb/cover_big/co6kvi.jpg",
  "platforms": [],
  "provider_games": [
    {
      "name": "The Four Paths",
      "slug": "the-four-paths",
      "service": "igdb"
    }
  ],
  "aliases": [],
  "shaders": [],
  "discord_id": "",
  "change_for": null
}