{
  "id": 174846,
  "name": "AI Dungeon",
  "slug": "ai-dungeon",
  "year": 2019,
  "banner_url": "https://lutris.net/games/banner/ai-dungeon.jpg",
  "icon_url": "",
  "coverart": "https://lutris.net/media/igdb/cover_big/co48g8.jpg",
  "platforms": [
    {
      "name": "Android"
    },
    {
      "name": "Browser"
    }
  ],
  "provider_games": [
    {
      "name": "AI Dungeon",
      "slug": "ai-dungeon",
      "service": "igdb"
    },
    {
      "name": "AI Dungeon",
      "slug": "1519310",
      "service": "steam"
    }
  ],
  "aliases": [],
  "shaders": [],
  "discord_id": "",
  "change_for": null
}