{
  "id": 38957,
  "name": "Deck Defenders",
  "slug": "deck-defenders",
  "year": 2020,
  "banner_url": "https://lutris.net/games/banner/deck-defenders.jpg",
  "icon_url": "",
  "coverart": "https://lutris.net/media/igdb/cover_big/co2j4a.jpg",
  "platforms": [
    {
      "name": "Windows"
    },
    {
      "name": "Windows Mixed Reality"
    }
  ],
  "provider_games": [
    {
      "name": "Deck Defenders",
      "slug": "deck-defenders",
      "service": "igdb"
    }
  ],
  "aliases": [],
  "shaders": [],
  "discord_id": "",
  "change_for": null
}