{
  "id": 39307,
  "name": "Guitar Fretter",
  "slug": "guitar-fretter",
  "year": 2017,
  "banner_url": "https://lutris.net/games/banner/guitar-fretter.jpg",
  "icon_url": "",
  "coverart": "https://lutris.net/media/igdb/cover_big/co2c7z.jpg",
  "platforms": [
    {
      "name": "Windows"
    }
  ],
  "provider_games": [
    {
      "name": "Guitar Fretter",
      "slug": "guitar-fretter",
      "service": "igdb"
    }
  ],
  "aliases": [],
  "shaders": [],
  "discord_id": "",
  "change_for": null
}