{
  "id": 221146,
  "name": "Reader Rabbit 2nd Grade",
  "slug": "reader-rabbit-2nd-grade--1",
  "year": null,
  "banner_url": "",
  "icon_url": "",
  "coverart": "https://lutris.net/media/igdb/cover_big/co4z4m.jpg",
  "platforms": [],
  "provider_games": [
    {
      "name": "Reader Rabbit 2nd Grade",
      "slug": "reader-rabbit-2nd-grade--1",
      "service": "igdb"
    }
  ],
  "aliases": [],
  "shaders": [],
  "discord_id": "",
  "change_for": null
}