{
  "id": 285552,
  "name": "One Chance",
  "slug": "one-chance--1",
  "year": null,
  "banner_url": "",
  "icon_url": "",
  "coverart": "https://lutris.net/media/igdb/cover_big/co88pi.jpg",
  "platforms": [],
  "provider_games": [
    {
      "name": "One Chance",
      "slug": "one-chance--1",
      "service": "igdb"
    }
  ],
  "aliases": [],
  "shaders": [],
  "discord_id": "",
  "change_for": null
}