{
  "id": 301738,
  "name": "The Misfits",
  "slug": "the-misfits--1",
  "year": null,
  "banner_url": "",
  "icon_url": "",
  "coverart": "https://lutris.net/media/igdb/cover_big/co9356.jpg",
  "platforms": [],
  "provider_games": [
    {
      "name": "The Misfits",
      "slug": "the-misfits--1",
      "service": "igdb"
    }
  ],
  "aliases": [],
  "shaders": [],
  "discord_id": "",
  "change_for": null
}