{
  "id": 294153,
  "name": "Draughts",
  "slug": "draughts--2",
  "year": 1981,
  "banner_url": "",
  "icon_url": "",
  "coverart": "https://lutris.net/media/igdb/cover_big/co8lds.jpg",
  "platforms": [
    {
      "name": "VC 4000"
    }
  ],
  "provider_games": [
    {
      "name": "Draughts",
      "slug": "draughts--2",
      "service": "igdb"
    }
  ],
  "aliases": [],
  "shaders": [],
  "discord_id": "",
  "change_for": null
}