{
  "id": 269464,
  "name": "Art Challenge",
  "slug": "art-challenge",
  "year": null,
  "banner_url": "",
  "icon_url": "",
  "coverart": "https://lutris.net/media/igdb/cover_big/co7jid.jpg",
  "platforms": [],
  "provider_games": [
    {
      "name": "Art Challenge",
      "slug": "art-challenge",
      "service": "igdb"
    }
  ],
  "aliases": [],
  "shaders": [],
  "discord_id": "",
  "change_for": null
}