{
  "id": 161693,
  "name": "Game Boy Advance Video: Kirby: Right Back at Ya!",
  "slug": "game-boy-advance-video-kirby-right-back-at-ya",
  "year": null,
  "banner_url": "",
  "icon_url": "",
  "coverart": "https://lutris.net/media/igdb/cover_big/co3zye.jpg",
  "platforms": [
    {
      "name": "Nintendo Game Boy Advance"
    }
  ],
  "provider_games": [
    {
      "name": "Game Boy Advance Video: Kirby: Right Back at Ya!",
      "slug": "game-boy-advance-video-kirby-right-back-at-ya",
      "service": "igdb"
    }
  ],
  "aliases": [],
  "shaders": [],
  "discord_id": "",
  "change_for": null
}