{
  "id": 142305,
  "name": "Thexder",
  "slug": "thexder",
  "year": 1985,
  "banner_url": "",
  "icon_url": "",
  "coverart": "https://lutris.net/media/igdb/cover_big/co2w8h.jpg",
  "platforms": [
    {
      "name": "Amiga"
    },
    {
      "name": "Apple II"
    },
    {
      "name": "Apple IIGS"
    },
    {
      "name": "Family Computer"
    },
    {
      "name": "Mac"
    },
    {
      "name": "MSX"
    },
    {
      "name": "Sharp X1"
    },
    {
      "name": "TRS-80"
    }
  ],
  "provider_games": [
    {
      "name": "Thexder",
      "slug": "thexder",
      "service": "igdb"
    }
  ],
  "aliases": [],
  "shaders": [],
  "discord_id": "",
  "change_for": null
}