{
  "id": 145771,
  "name": "Senran Kagura Burst Re:Newal - At the Seams Edition",
  "slug": "senran-kagura-burst-re-newal-at-the-seams-edition",
  "year": null,
  "banner_url": "",
  "icon_url": "",
  "coverart": null,
  "platforms": [],
  "provider_games": [
    {
      "name": "Senran Kagura Burst Re:Newal - At the Seams Edition",
      "slug": "senran-kagura-burst-re-newal-at-the-seams-edition",
      "service": "igdb"
    }
  ],
  "aliases": [],
  "shaders": [],
  "discord_id": "",
  "change_for": null
}