{
  "id": 32806,
  "name": "Micro Commandos",
  "slug": "micro-commandos",
  "year": 2002,
  "banner_url": "https://lutris.net/games/banner/micro-commandos.jpg",
  "icon_url": "",
  "coverart": "https://lutris.net/media/igdb/cover_big/co2iob.jpg",
  "platforms": [
    {
      "name": "Windows"
    }
  ],
  "provider_games": [
    {
      "name": "Micro Commandos",
      "slug": "micro-commandos",
      "service": "igdb"
    }
  ],
  "aliases": [],
  "shaders": [],
  "discord_id": "",
  "change_for": null
}