{
  "id": 110700,
  "name": "Power Politics",
  "slug": "power-politics",
  "year": 1992,
  "banner_url": "",
  "icon_url": "",
  "coverart": null,
  "platforms": [
    {
      "name": "Windows"
    }
  ],
  "provider_games": [
    {
      "name": "Power Politics",
      "slug": "power-politics",
      "service": "igdb"
    }
  ],
  "aliases": [],
  "shaders": [],
  "discord_id": "",
  "change_for": null
}