{
  "id": 17084,
  "game_id": 30596,
  "game_slug": "valfaris",
  "name": "Valfaris",
  "year": 2019,
  "user": "Sazulo",
  "runner": "wine",
  "slug": "valfaris-gog",
  "version": "GOG",
  "description": null,
  "notes": "",
  "credits": "",
  "created_at": "2019-11-29T11:52:03.502000Z",
  "updated_at": "2021-01-10T05:02:49.198778Z",
  "draft": false,
  "published": true,
  "published_by": 1,
  "rating": "",
  "is_playable": null,
  "steamid": 600130,
  "gogid": 1939903548,
  "gogslug": "valfaris_digital_deluxe_edition",
  "humbleid": "",
  "humblestoreid": "",
  "humblestoreid_real": "",
  "script": {
    "files": [
      {
        "setup": "N/A:Select GOG setup exe"
      }
    ],
    "game": {
      "exe": "drive_c/GOG Games/Valfaris/Valfaris.exe",
      "prefix": "$GAMEDIR"
    },
    "installer": [
      {
        "task": {
          "name": "create_prefix",
          "prefix": "$GAEMDIR"
        }
      },
      {
        "task": {
          "args": "/SP- /SUPPRESSMSGBOXES",
          "executable": "setup",
          "name": "wineexec",
          "prefix": "$GAMEDIR"
        }
      }
    ]
  },
  "content": "files:\n- setup: N/A:Select GOG setup exe\ngame:\n  exe: drive_c/GOG Games/Valfaris/Valfaris.exe\n  prefix: $GAMEDIR\ninstaller:\n- task:\n    name: create_prefix\n    prefix: $GAEMDIR\n- task:\n    args: /SP- /SUPPRESSMSGBOXES\n    executable: setup\n    name: wineexec\n    prefix: $GAMEDIR\n",
  "discord_id": ""
}