{
  "id": 230474,
  "name": "The Black Within",
  "slug": "the-black-within",
  "year": null,
  "banner_url": "",
  "icon_url": "",
  "coverart": "https://lutris.net/media/igdb/cover_big/co6daf.jpg",
  "platforms": [],
  "provider_games": [
    {
      "name": "The Black Within",
      "slug": "the-black-within",
      "service": "igdb"
    },
    {
      "name": "The Black Within",
      "slug": "1254210921",
      "service": "gog"
    }
  ],
  "aliases": [],
  "shaders": [],
  "discord_id": "",
  "change_for": null
}