{
  "id": 284294,
  "name": "Papo Town Sports Meet",
  "slug": "papo-town-sports-meet",
  "year": null,
  "banner_url": "",
  "icon_url": "",
  "coverart": null,
  "platforms": [
    {
      "name": "Android"
    }
  ],
  "provider_games": [
    {
      "name": "Papo Town Sports Meet",
      "slug": "papo-town-sports-meet",
      "service": "igdb"
    }
  ],
  "aliases": [],
  "shaders": [],
  "discord_id": "",
  "change_for": null
}