{
  "id": 223640,
  "name": "Become a pig",
  "slug": "become-a-pig",
  "year": null,
  "banner_url": "",
  "icon_url": "",
  "coverart": "https://lutris.net/media/igdb/cover_big/co5bk8.jpg",
  "platforms": [],
  "provider_games": [
    {
      "name": "Become a pig",
      "slug": "become-a-pig",
      "service": "igdb"
    }
  ],
  "aliases": [],
  "shaders": [],
  "discord_id": "",
  "change_for": null
}