{
  "id": 278511,
  "name": "Blood Peace",
  "slug": "blood-peace",
  "year": null,
  "banner_url": "",
  "icon_url": "",
  "coverart": "https://lutris.net/media/igdb/cover_big/co7y4o.jpg",
  "platforms": [],
  "provider_games": [
    {
      "name": "Blood Peace",
      "slug": "blood-peace",
      "service": "igdb"
    }
  ],
  "aliases": [],
  "shaders": [],
  "discord_id": "",
  "change_for": null
}