{
  "id": 207367,
  "name": "Shall we date?: Castle Break",
  "slug": "shall-we-date-castle-break",
  "year": 2015,
  "banner_url": "",
  "icon_url": "",
  "coverart": "https://lutris.net/media/igdb/cover_big/co5rgl.jpg",
  "platforms": [
    {
      "name": "Android"
    }
  ],
  "provider_games": [
    {
      "name": "Shall we date?: Castle Break",
      "slug": "shall-we-date-castle-break",
      "service": "igdb"
    }
  ],
  "aliases": [],
  "shaders": [],
  "discord_id": "",
  "change_for": null
}