{
  "id": 226363,
  "name": "Star Wars: Episode I - Gian Speeder Chase",
  "slug": "star-wars-episode-i-gian-speeder-chase",
  "year": 1999,
  "banner_url": "",
  "icon_url": "",
  "coverart": null,
  "platforms": [],
  "provider_games": [
    {
      "name": "Star Wars: Episode I - Gian Speeder Chase",
      "slug": "star-wars-episode-i-gian-speeder-chase",
      "service": "igdb"
    }
  ],
  "aliases": [],
  "shaders": [],
  "discord_id": "",
  "change_for": null
}