{
  "id": 110737,
  "name": "Neon Genesis Evangelion: Battle Orchestra",
  "slug": "neon-genesis-evangelion-battle-orchestra",
  "year": 2007,
  "banner_url": "",
  "icon_url": "",
  "coverart": "https://lutris.net/media/igdb/cover_big/co2wlf.jpg",
  "platforms": [
    {
      "name": "Sony PlayStation 2"
    },
    {
      "name": "Sony PSP"
    }
  ],
  "provider_games": [
    {
      "name": "Neon Genesis Evangelion: Battle Orchestra",
      "slug": "neon-genesis-evangelion-battle-orchestra",
      "service": "igdb"
    }
  ],
  "aliases": [],
  "shaders": [],
  "discord_id": "",
  "change_for": null
}