{
  "id": 147364,
  "name": "Nina Aquila: Legal Eagle, Season One",
  "slug": "nina-aquila-legal-eagle-season-one",
  "year": 2021,
  "banner_url": "",
  "icon_url": "",
  "coverart": "https://lutris.net/media/igdb/cover_big/co3aq6.jpg",
  "platforms": [
    {
      "name": "Windows"
    }
  ],
  "provider_games": [
    {
      "name": "Nina Aquila: Legal Eagle, Season One",
      "slug": "nina-aquila-legal-eagle-season-one",
      "service": "igdb"
    }
  ],
  "aliases": [],
  "shaders": [],
  "discord_id": "",
  "change_for": null
}