{
  "id": 220772,
  "name": "PSI: Syberian Conflict",
  "slug": "psi-syberian-conflict",
  "year": null,
  "banner_url": "",
  "icon_url": "",
  "coverart": null,
  "platforms": [],
  "provider_games": [
    {
      "name": "PSI: Syberian Conflict",
      "slug": "psi-syberian-conflict",
      "service": "igdb"
    }
  ],
  "aliases": [],
  "shaders": [],
  "discord_id": "",
  "change_for": null
}