{
  "id": 229990,
  "name": "TouHou: Legend of Fairy Souls",
  "slug": "touhou-legend-of-fairy-souls",
  "year": null,
  "banner_url": "",
  "icon_url": "",
  "coverart": "https://lutris.net/media/igdb/cover_big/co6d65.jpg",
  "platforms": [],
  "provider_games": [
    {
      "name": "TouHou: Legend of Fairy Souls",
      "slug": "touhou-legend-of-fairy-souls",
      "service": "igdb"
    }
  ],
  "aliases": [],
  "shaders": [],
  "discord_id": "",
  "change_for": null
}