{
  "id": 11662,
  "name": "Citadel",
  "slug": "citadel",
  "year": 2016,
  "banner_url": "https://lutris.net/games/banner/citadel.jpg",
  "icon_url": "https://lutris.net/games/icon/citadel.png",
  "coverart": null,
  "platforms": [
    {
      "name": "Windows"
    }
  ],
  "provider_games": [
    {
      "name": "Citadel",
      "slug": "485590",
      "service": "steam"
    },
    {
      "name": "Citadel",
      "slug": "citadel",
      "service": "igdb"
    }
  ],
  "aliases": [],
  "shaders": [],
  "discord_id": "",
  "change_for": null
}