{
  "id": 79859,
  "name": "Phase Shift: Threats Beyond the Network",
  "slug": "phase-shift-threats-beyond-the-network",
  "year": 2013,
  "banner_url": "",
  "icon_url": "",
  "coverart": "https://lutris.net/media/igdb/cover_big/co2jup.jpg",
  "platforms": [
    {
      "name": "PlayStation Vita"
    },
    {
      "name": "Sony Playstation 3"
    },
    {
      "name": "Sony PSP"
    }
  ],
  "provider_games": [
    {
      "name": "Phase Shift: Threats Beyond the Network",
      "slug": "phase-shift-threats-beyond-the-network",
      "service": "igdb"
    }
  ],
  "aliases": [],
  "shaders": [],
  "discord_id": "",
  "change_for": null
}