{
  "id": 33386,
  "name": "Baryon - Future Assault",
  "slug": "baryon-future-assault",
  "year": 1997,
  "banner_url": "",
  "icon_url": "https://lutris.net/games/icon/baryon-future-assault.png",
  "coverart": null,
  "platforms": [
    {
      "name": "Arcade"
    }
  ],
  "provider_games": [
    {
      "name": "Baryon - Future Assault",
      "slug": "baryon",
      "service": "mame"
    }
  ],
  "aliases": [],
  "shaders": [],
  "discord_id": "",
  "change_for": null
}