{
  "id": 224707,
  "name": "Shadow of Asha",
  "slug": "shadow-of-asha",
  "year": null,
  "banner_url": "",
  "icon_url": "",
  "coverart": "https://lutris.net/media/igdb/cover_big/co5l2e.jpg",
  "platforms": [],
  "provider_games": [
    {
      "name": "Shadow of Asha",
      "slug": "shadow-of-asha",
      "service": "igdb"
    }
  ],
  "aliases": [],
  "shaders": [],
  "discord_id": "",
  "change_for": null
}