{
  "id": 11931,
  "name": "Oats Studios - Volume 1",
  "slug": "oats-studios-volume-1",
  "year": null,
  "banner_url": "https://lutris.net/games/banner/oats-studios-volume-1.jpg",
  "icon_url": "https://lutris.net/games/icon/oats-studios-volume-1.png",
  "coverart": null,
  "platforms": [],
  "provider_games": [
    {
      "name": "Oats Studios - Volume 1",
      "slug": "633030",
      "service": "steam"
    }
  ],
  "aliases": [],
  "shaders": [],
  "discord_id": "",
  "change_for": null
}