{
  "id": 189270,
  "name": "Harms Way",
  "slug": "harms-way",
  "year": 2010,
  "banner_url": "",
  "icon_url": "",
  "coverart": "https://lutris.net/media/igdb/cover_big/qqccd0lo9pb1fowplqqo.jpg",
  "platforms": [
    {
      "name": "Xbox 360"
    },
    {
      "name": "Xbox One"
    }
  ],
  "provider_games": [
    {
      "name": "Harms Way",
      "slug": "harms-way",
      "service": "igdb"
    }
  ],
  "aliases": [],
  "shaders": [],
  "discord_id": "",
  "change_for": null
}