{
  "id": 192359,
  "name": "Komeiji Satori no Jousou Kyouiku",
  "slug": "komeiji-satori-no-jousou-kyouiku",
  "year": 2012,
  "banner_url": "",
  "icon_url": "",
  "coverart": "https://lutris.net/media/igdb/cover_big/co4cs1.jpg",
  "platforms": [
    {
      "name": "Windows"
    }
  ],
  "provider_games": [
    {
      "name": "Komeiji Satori no Jousou Kyouiku",
      "slug": "komeiji-satori-no-jousou-kyouiku",
      "service": "igdb"
    }
  ],
  "aliases": [],
  "shaders": [],
  "discord_id": "",
  "change_for": null
}