{
  "id": 109008,
  "name": "Romance of the Three Kingdoms XIII with Power-Up Kit",
  "slug": "romance-of-the-three-kingdoms-xiii-with-power-up-kit",
  "year": null,
  "banner_url": "",
  "icon_url": "",
  "coverart": null,
  "platforms": [],
  "provider_games": [
    {
      "name": "Romance of the Three Kingdoms XIII with Power-Up Kit",
      "slug": "romance-of-the-three-kingdoms-xiii-with-power-up-kit",
      "service": "igdb"
    }
  ],
  "aliases": [],
  "shaders": [],
  "discord_id": "",
  "change_for": null
}