{
  "id": 15306,
  "game_id": 13434,
  "game_slug": "call-of-cthulhu-shadow-of-the-comet",
  "name": "Call of Cthulhu: Shadow of the Comet",
  "year": 1993,
  "user": "legluondunet",
  "runner": "dosbox",
  "slug": "call-of-cthulhu-shadow-of-the-gog",
  "version": "GOG",
  "description": "Play \"Call of Cthulhu - Shadow of the Comet\" provided by GOG on Linux!",
  "notes": "- Multilanguage: during install you can choose game text language between English, French, Italian, German and Spanish",
  "credits": "- Lutris script maintained by legluondunet: https://github.com/legluondunet/MyLittleLutrisScripts",
  "created_at": "2019-09-05T12:20:16.729000Z",
  "updated_at": "2024-12-07T19:29:17.942809Z",
  "draft": false,
  "published": true,
  "published_by": 494,
  "rating": "",
  "is_playable": null,
  "steamid": 389470,
  "gogid": 1431942210,
  "gogslug": "call_of_cthulhu_shadow_of_the_comet",
  "humbleid": "",
  "humblestoreid": "",
  "humblestoreid_real": "",
  "script": {
    "files": [
      {
        "gogsetup": "N/A:Please select the GOG installer"
      }
    ],
    "game": {
      "config_file": "$GAMEDIR/dosbox_conf/dosbox_sotc_single.conf",
      "main_file": "dosbox_conf/dosbox_sotc.conf",
      "prefix": "$GAMEDIR"
    },
    "installer": [
      {
        "extract": {
          "dst": "$GAMEDIR",
          "file": "gogsetup",
          "format": "gog"
        }
      },
      {
        "input_menu": {
          "description": "Please choose your preferred game's text language",
          "id": "LANG",
          "options": [
            {
              "0": "Français"
            },
            {
              "1": "English"
            },
            {
              "2": "Español"
            },
            {
              "3": "Deutsch"
            },
            {
              "4": "Italiano"
            }
          ],
          "preselect": 1
        }
      },
      {
        "merge": {
          "dst": "$GAMEDIR/dosbox_conf",
          "src": "$GAMEDIR/__support/app"
        }
      },
      {
        "execute": {
          "command": "cd $GAMEDIR; for i in {0,1,2,3,4}; do sed -i -e 's/\\x30\\x0'$i'\\x04\\x03/\\x30\\x0'$INPUT_LANG'\\x04\\x03/g' \"INFOGRAM/SHADOW.CD/SHADO_CD.CFG\"; sed -i -e 's/\\x30\\x0'$i'\\x04\\x03/\\x30\\x0'$INPUT_LANG'\\x04\\x03/g' \"CD/SHADO_CD.CFG\"; done; cd dosbox_conf; sed -i 's/output=overlay/output=opengl/g' dosbox_sotc.conf; sed -i 's/aspect=false/aspect=true/g' dosbox_sotc.conf;"
        }
      }
    ]
  },
  "content": "files:\n- gogsetup: N/A:Please select the GOG installer\ngame:\n  config_file: $GAMEDIR/dosbox_conf/dosbox_sotc_single.conf\n  main_file: dosbox_conf/dosbox_sotc.conf\n  prefix: $GAMEDIR\ninstaller:\n- extract:\n    dst: $GAMEDIR\n    file: gogsetup\n    format: gog\n- input_menu:\n    description: Please choose your preferred game's text language\n    id: LANG\n    options:\n    - 0: \"Fran\\xE7ais\"\n    - 1: English\n    - 2: \"Espa\\xF1ol\"\n    - 3: Deutsch\n    - 4: Italiano\n    preselect: 1\n- merge:\n    dst: $GAMEDIR/dosbox_conf\n    src: $GAMEDIR/__support/app\n- execute:\n    command: cd $GAMEDIR; for i in {0,1,2,3,4}; do sed -i -e 's/\\x30\\x0'$i'\\x04\\x03/\\x30\\x0'$INPUT_LANG'\\x04\\x03/g'\n      \"INFOGRAM/SHADOW.CD/SHADO_CD.CFG\"; sed -i -e 's/\\x30\\x0'$i'\\x04\\x03/\\x30\\x0'$INPUT_LANG'\\x04\\x03/g'\n      \"CD/SHADO_CD.CFG\"; done; cd dosbox_conf; sed -i 's/output=overlay/output=opengl/g'\n      dosbox_sotc.conf; sed -i 's/aspect=false/aspect=true/g' dosbox_sotc.conf;\n",
  "discord_id": ""
}