{
  "id": 258221,
  "name": "Subside",
  "slug": "subside",
  "year": null,
  "banner_url": "",
  "icon_url": "",
  "coverart": "https://lutris.net/media/igdb/cover_big/co71oc.jpg",
  "platforms": [],
  "provider_games": [
    {
      "name": "Subside",
      "slug": "subside",
      "service": "igdb"
    }
  ],
  "aliases": [],
  "shaders": [],
  "discord_id": "",
  "change_for": null
}