{
  "id": 172810,
  "name": "NextRev: Hisho Kentei Shiken",
  "slug": "nextrev-hisho-kentei-shiken",
  "year": 2013,
  "banner_url": "",
  "icon_url": "",
  "coverart": "https://lutris.net/media/igdb/cover_big/co2x0i.jpg",
  "platforms": [
    {
      "name": "PlayStation Vita"
    }
  ],
  "provider_games": [
    {
      "name": "NextRev: Hisho Kentei Shiken",
      "slug": "nextrev-hisho-kentei-shiken",
      "service": "igdb"
    }
  ],
  "aliases": [],
  "shaders": [],
  "discord_id": "",
  "change_for": null
}