{
  "id": 1795,
  "game_id": 959,
  "game_slug": "saints-row-iv",
  "name": "Saints Row IV",
  "year": 2013,
  "user": "RobLoach",
  "runner": "steam",
  "slug": "saints-row-iv-steam",
  "version": "Steam",
  "description": "",
  "notes": "",
  "credits": "",
  "created_at": "2015-12-29T08:36:43.627211Z",
  "updated_at": "2016-01-05T18:19:34.675047Z",
  "draft": false,
  "published": true,
  "published_by": null,
  "rating": "",
  "is_playable": null,
  "steamid": 206420,
  "gogid": 2037689757,
  "gogslug": "saints_row_iv_reelected",
  "humbleid": "",
  "humblestoreid": "",
  "humblestoreid_real": "saints-row-iv-game-of-the-century-edition",
  "script": {
    "game": {
      "appid": 206420
    }
  },
  "content": "game:\r\n  appid: 206420\r\n",
  "discord_id": "363430103306338304"
}