{
  "id": 76832,
  "name": "Sven-Göran Eriksson's World Challenge",
  "slug": "sven-goran-erikssons-world-challenge",
  "year": 2002,
  "banner_url": "",
  "icon_url": "",
  "coverart": "https://lutris.net/media/igdb/cover_big/grub7vupm7hpnwtbrazl.jpg",
  "platforms": [
    {
      "name": "Sony PlayStation"
    }
  ],
  "provider_games": [
    {
      "name": "Sven-Göran Eriksson's World Challenge",
      "slug": "sven-goran-erikssons-world-challenge",
      "service": "igdb"
    }
  ],
  "aliases": [],
  "shaders": [],
  "discord_id": "",
  "change_for": null
}