{
  "id": 146772,
  "name": "Gates of Horn and Ivory",
  "slug": "gates-of-horn-and-ivory",
  "year": 2018,
  "banner_url": "",
  "icon_url": "",
  "coverart": "https://lutris.net/media/igdb/cover_big/co2o2e.jpg",
  "platforms": [
    {
      "name": "Windows"
    }
  ],
  "provider_games": [
    {
      "name": "Gates of Horn and Ivory",
      "slug": "gates-of-horn-and-ivory",
      "service": "igdb"
    }
  ],
  "aliases": [],
  "shaders": [],
  "discord_id": "",
  "change_for": null
}