{
  "id": 159638,
  "name": "Math Blaster HyperBlast 2 HD",
  "slug": "math-blaster-hyperblast-2-hd",
  "year": 2012,
  "banner_url": "",
  "icon_url": "",
  "coverart": "https://lutris.net/media/igdb/cover_big/bf5lggclmmyqlw9vylpt.jpg",
  "platforms": [],
  "provider_games": [
    {
      "name": "Math Blaster HyperBlast 2 HD",
      "slug": "math-blaster-hyperblast-2-hd",
      "service": "igdb"
    }
  ],
  "aliases": [],
  "shaders": [],
  "discord_id": "",
  "change_for": null
}