{
  "id": 138035,
  "name": "Shantae: Half-Genie Hero - Ultimate Day One Edition",
  "slug": "shantae-half-genie-hero-ultimate-day-one-edition",
  "year": null,
  "banner_url": "",
  "icon_url": "",
  "coverart": null,
  "platforms": [],
  "provider_games": [
    {
      "name": "Shantae: Half-Genie Hero - Ultimate Day One Edition",
      "slug": "shantae-half-genie-hero-ultimate-day-one-edition",
      "service": "igdb"
    }
  ],
  "aliases": [],
  "shaders": [],
  "discord_id": "",
  "change_for": null
}