{
  "id": 222011,
  "name": "Space Hunter 3",
  "slug": "space-hunter-3",
  "year": null,
  "banner_url": "",
  "icon_url": "",
  "coverart": null,
  "platforms": [],
  "provider_games": [
    {
      "name": "Space Hunter 3",
      "slug": "space-hunter-3",
      "service": "igdb"
    }
  ],
  "aliases": [],
  "shaders": [],
  "discord_id": "",
  "change_for": null
}