{
  "id": 40869,
  "name": "Futa Fix Dick Dine and Dash",
  "slug": "futa-fix-dick-dine-and-dash",
  "year": 2020,
  "banner_url": "https://lutris.net/games/banner/futa-fix-dick-dine-and-dash.jpg",
  "icon_url": "https://lutris.net/games/icon/futa-fix-dick-dine-and-dash.png",
  "coverart": "https://lutris.net/media/igdb/cover_big/co2n3w.jpg",
  "platforms": [
    {
      "name": "Windows"
    }
  ],
  "provider_games": [
    {
      "name": "Futa Fix Dick Dine and Dash",
      "slug": "1173400",
      "service": "steam"
    },
    {
      "name": "Futa Fix Dick Dine and Dash",
      "slug": "futa-fix-dick-dine-and-dash",
      "service": "igdb"
    }
  ],
  "aliases": [],
  "shaders": [],
  "discord_id": "",
  "change_for": null
}