{
  "id": 65088,
  "name": "Pre-RON MI5 Bob",
  "slug": "pre-ron-mi5-bob",
  "year": null,
  "banner_url": "",
  "icon_url": "",
  "coverart": null,
  "platforms": [],
  "provider_games": [
    {
      "name": "Pre-RON MI5 Bob",
      "slug": "pre-ron-mi5-bob",
      "service": "igdb"
    }
  ],
  "aliases": [],
  "shaders": [],
  "discord_id": "",
  "change_for": null
}