{
  "id": 5748,
  "name": "Legend of Mysteria",
  "slug": "legend-of-mysteria",
  "year": 2015,
  "banner_url": "https://lutris.net/games/banner/legend-of-mysteria.jpg",
  "icon_url": "https://lutris.net/games/icon/legend-of-mysteria.png",
  "coverart": "https://lutris.net/media/igdb/cover_big/co21bg.jpg",
  "platforms": [
    {
      "name": "Windows"
    }
  ],
  "provider_games": [
    {
      "name": "Legend of Mysteria",
      "slug": "407230",
      "service": "steam"
    },
    {
      "name": "Legend of Mysteria",
      "slug": "legend-of-mysteria",
      "service": "igdb"
    }
  ],
  "aliases": [],
  "shaders": [],
  "discord_id": "",
  "change_for": null
}