{
  "id": 229356,
  "name": "The End of the Sun Demo",
  "slug": "the-end-of-the-sun-demo",
  "year": null,
  "banner_url": "",
  "icon_url": "",
  "coverart": null,
  "platforms": [],
  "provider_games": [
    {
      "name": "The End of the Sun Demo",
      "slug": "1083727712",
      "service": "gog"
    }
  ],
  "aliases": [],
  "shaders": [],
  "discord_id": "",
  "change_for": null
}