{
  "id": 116297,
  "name": "Cryptid Crush",
  "slug": "cryptid-crush",
  "year": null,
  "banner_url": "",
  "icon_url": "",
  "coverart": "https://lutris.net/media/igdb/cover_big/co3d6h.jpg",
  "platforms": [],
  "provider_games": [
    {
      "name": "Cryptid Crush",
      "slug": "cryptid-crush",
      "service": "igdb"
    }
  ],
  "aliases": [],
  "shaders": [],
  "discord_id": "",
  "change_for": null
}