{
  "id": 77525,
  "name": "Where's Waldo? The Fantastic Journey",
  "slug": "wheres-waldo-the-fantastic-journey",
  "year": 2009,
  "banner_url": "",
  "icon_url": "",
  "coverart": "https://lutris.net/media/igdb/cover_big/t4yxgqmjhcv1hvhxcuue.jpg",
  "platforms": [
    {
      "name": "Nintendo Wii"
    }
  ],
  "provider_games": [
    {
      "name": "Where's Waldo? The Fantastic Journey",
      "slug": "wheres-waldo-the-fantastic-journey",
      "service": "igdb"
    }
  ],
  "aliases": [],
  "shaders": [],
  "discord_id": "",
  "change_for": null
}