{
  "id": 188798,
  "name": "Auto Museum 64",
  "slug": "auto-museum-64",
  "year": null,
  "banner_url": "",
  "icon_url": "",
  "coverart": null,
  "platforms": [],
  "provider_games": [
    {
      "name": "Auto Museum 64",
      "slug": "auto-museum-64",
      "service": "igdb"
    }
  ],
  "aliases": [],
  "shaders": [],
  "discord_id": "",
  "change_for": null
}