{
  "id": 66595,
  "name": "Two of a Kind",
  "slug": "two-of-a-kind",
  "year": null,
  "banner_url": "",
  "icon_url": "",
  "coverart": "https://lutris.net/media/igdb/cover_big/ngfxzswwb1c2jagvgv2e.jpg",
  "platforms": [],
  "provider_games": [
    {
      "name": "Two of a Kind",
      "slug": "two-of-a-kind",
      "service": "igdb"
    }
  ],
  "aliases": [],
  "shaders": [],
  "discord_id": "",
  "change_for": null
}