{
  "id": 11782,
  "game_id": 9056,
  "game_slug": "trackmania-united-forever",
  "name": "TrackMania United Forever",
  "year": 2006,
  "user": "r6RNjMKgw",
  "runner": "wine",
  "slug": "trackmania-united-forever-retail-dvd",
  "version": "Retail, DVD",
  "description": "Requires a valid serial number.",
  "notes": "",
  "credits": "",
  "created_at": "2019-01-30T18:29:18.050240Z",
  "updated_at": "2024-12-04T10:56:24.396879Z",
  "draft": false,
  "published": true,
  "published_by": 494,
  "rating": "",
  "is_playable": null,
  "steamid": null,
  "gogid": null,
  "gogslug": "",
  "humbleid": "",
  "humblestoreid": "",
  "humblestoreid_real": "",
  "script": {
    "files": [
      {
        "update": "http://files2.trackmaniaforever.com/TmUnitedForever_Update_2010-03-15_Setup.exe"
      }
    ],
    "game": {
      "exe": "drive_c/Program Files (x86)/TmUnitedForever/TmForeverLauncher.exe",
      "prefix": "$GAMEDIR"
    },
    "installer": [
      {
        "insert-disc": {
          "requires": "TmUnitedForeverSetup.exe"
        }
      },
      {
        "task": {
          "arch": "win64",
          "description": "Creating Wine prefix",
          "name": "create_prefix",
          "prefix": "$GAMEDIR"
        }
      },
      {
        "task": {
          "args": "/silent",
          "description": "Installing...",
          "executable": "$DISC/TmUnitedForeverSetup.exe",
          "name": "wineexec",
          "prefix": "$GAMEDIR"
        }
      },
      {
        "task": {
          "args": "/silent",
          "description": "Updating...",
          "executable": "update",
          "name": "wineexec",
          "prefix": "$GAMEDIR"
        }
      }
    ]
  },
  "content": "files:\n- update: http://files2.trackmaniaforever.com/TmUnitedForever_Update_2010-03-15_Setup.exe\ngame:\n  exe: drive_c/Program Files (x86)/TmUnitedForever/TmForeverLauncher.exe\n  prefix: $GAMEDIR\ninstaller:\n- insert-disc:\n    requires: TmUnitedForeverSetup.exe\n- task:\n    arch: win64\n    description: Creating Wine prefix\n    name: create_prefix\n    prefix: $GAMEDIR\n- task:\n    args: /silent\n    description: Installing...\n    executable: $DISC/TmUnitedForeverSetup.exe\n    name: wineexec\n    prefix: $GAMEDIR\n- task:\n    args: /silent\n    description: Updating...\n    executable: update\n    name: wineexec\n    prefix: $GAMEDIR\n",
  "discord_id": "425709280725958689"
}