{
  "id": 50663,
  "name": "Beneath Apple Manor",
  "slug": "beneath-apple-manor",
  "year": 1978,
  "banner_url": "",
  "icon_url": "",
  "coverart": "https://lutris.net/media/igdb/cover_big/rjzyafmm2em2q5ee8wu5.jpg",
  "platforms": [
    {
      "name": "Apple II"
    },
    {
      "name": "Atari 8-bit"
    }
  ],
  "provider_games": [
    {
      "name": "Beneath Apple Manor",
      "slug": "beneath-apple-manor",
      "service": "igdb"
    }
  ],
  "aliases": [],
  "shaders": [],
  "discord_id": "",
  "change_for": null
}