{
  "id": 34727,
  "name": "Linky Pipe",
  "slug": "linky-pipe",
  "year": 1998,
  "banner_url": "",
  "icon_url": "https://lutris.net/games/icon/linky-pipe.png",
  "coverart": null,
  "platforms": [
    {
      "name": "Arcade"
    }
  ],
  "provider_games": [
    {
      "name": "Linky Pipe",
      "slug": "linkypip",
      "service": "mame"
    }
  ],
  "aliases": [],
  "shaders": [],
  "discord_id": "",
  "change_for": null
}