{
  "id": 157944,
  "name": "Mystery of Fortune 3",
  "slug": "mystery-of-fortune-3",
  "year": 2019,
  "banner_url": "",
  "icon_url": "",
  "coverart": null,
  "platforms": [],
  "provider_games": [
    {
      "name": "Mystery of Fortune 3",
      "slug": "mystery-of-fortune-3",
      "service": "igdb"
    }
  ],
  "aliases": [],
  "shaders": [],
  "discord_id": "",
  "change_for": null
}