{
  "id": 59007,
  "name": "FreeRun Masters",
  "slug": "freerun-masters",
  "year": null,
  "banner_url": "",
  "icon_url": "",
  "coverart": "https://lutris.net/media/igdb/cover_big/gpbk3qnxrknfdzbjzpm6.jpg",
  "platforms": [],
  "provider_games": [
    {
      "name": "FreeRun Masters",
      "slug": "freerun-masters",
      "service": "igdb"
    }
  ],
  "aliases": [],
  "shaders": [],
  "discord_id": "",
  "change_for": null
}