{
  "id": 226966,
  "name": "Virtual Cameraman Part 1: Sawada Naomi and Juri Anna",
  "slug": "virtual-cameraman-part-1-sawada-naomi-and-juri-anna",
  "year": 1995,
  "banner_url": "",
  "icon_url": "",
  "coverart": "https://lutris.net/media/igdb/cover_big/co6ges.jpg",
  "platforms": [
    {
      "name": "3DO"
    }
  ],
  "provider_games": [
    {
      "name": "Virtual Cameraman Part 1: Sawada Naomi and Juri Anna",
      "slug": "virtual-cameraman-part-1-sawada-naomi-and-juri-anna",
      "service": "igdb"
    }
  ],
  "aliases": [],
  "shaders": [],
  "discord_id": "",
  "change_for": null
}