{
  "id": 263288,
  "name": "The Elision Effect",
  "slug": "the-elision-effect",
  "year": null,
  "banner_url": "",
  "icon_url": "",
  "coverart": "https://lutris.net/media/igdb/cover_big/co79wb.jpg",
  "platforms": [],
  "provider_games": [
    {
      "name": "The Elision Effect",
      "slug": "the-elision-effect",
      "service": "igdb"
    }
  ],
  "aliases": [],
  "shaders": [],
  "discord_id": "",
  "change_for": null
}