{
  "id": 240086,
  "name": "Salary Man Kintarou: The Game",
  "slug": "salary-man-kintarou-the-game",
  "year": 2000,
  "banner_url": "",
  "icon_url": "",
  "coverart": "https://lutris.net/media/igdb/cover_big/co629n.jpg",
  "platforms": [
    {
      "name": "Sony PlayStation"
    }
  ],
  "provider_games": [
    {
      "name": "Salary Man Kintarou: The Game",
      "slug": "salary-man-kintarou-the-game",
      "service": "igdb"
    }
  ],
  "aliases": [],
  "shaders": [],
  "discord_id": "",
  "change_for": null
}