{
  "id": 97770,
  "name": "Nin! Nin! Ninja!!!",
  "slug": "nin-nin-ninja",
  "year": null,
  "banner_url": "",
  "icon_url": "",
  "coverart": null,
  "platforms": [],
  "provider_games": [
    {
      "name": "Nin! Nin! Ninja!!!",
      "slug": "nin-nin-ninja",
      "service": "igdb"
    }
  ],
  "aliases": [],
  "shaders": [],
  "discord_id": "",
  "change_for": null
}