{
  "id": 187174,
  "name": "Ballad of the Sea",
  "slug": "ballad-of-the-sea",
  "year": null,
  "banner_url": "",
  "icon_url": "",
  "coverart": null,
  "platforms": [],
  "provider_games": [
    {
      "name": "Ballad of the Sea",
      "slug": "ballad-of-the-sea",
      "service": "igdb"
    }
  ],
  "aliases": [],
  "shaders": [],
  "discord_id": "",
  "change_for": null
}