{
  "id": 229246,
  "name": "The Coffin of Andy and Leyley",
  "slug": "the-coffin-of-andy-and-leyley",
  "year": 2023,
  "banner_url": "https://lutris.net/games/banner/the-coffin-of-andy-and-leyley.jpg",
  "icon_url": "",
  "coverart": "https://lutris.net/media/igdb/cover_big/co6dho.jpg",
  "platforms": [
    {
      "name": "Windows"
    }
  ],
  "provider_games": [
    {
      "name": "The Coffin of Andy and Leyley",
      "slug": "2378900",
      "service": "steam"
    },
    {
      "name": "The Coffin of Andy and Leyley",
      "slug": "the-coffin-of-andy-and-leyley",
      "service": "igdb"
    }
  ],
  "aliases": [],
  "shaders": [],
  "discord_id": "",
  "change_for": null
}