{
  "id": 250767,
  "name": "Jigsaw Novel - The Job Promotion",
  "slug": "jigsaw-novel-the-job-promotion",
  "year": null,
  "banner_url": "https://lutris.net/games/banner/jigsaw-novel-the-job-promotion.jpg",
  "icon_url": "https://lutris.net/games/icon/jigsaw-novel-the-job-promotion.png",
  "coverart": "https://lutris.net/media/igdb/cover_big/co7r2k.jpg",
  "platforms": [],
  "provider_games": [
    {
      "name": "Jigsaw Novel - The Job Promotion",
      "slug": "1934090",
      "service": "steam"
    },
    {
      "name": "Jigsaw Novel: The Job Promotion",
      "slug": "jigsaw-novel-the-job-promotion",
      "service": "igdb"
    }
  ],
  "aliases": [],
  "shaders": [],
  "discord_id": "",
  "change_for": null
}