{
  "id": 91754,
  "name": "911 Drift Simulator",
  "slug": "911-drift-simulator",
  "year": null,
  "banner_url": "",
  "icon_url": "",
  "coverart": null,
  "platforms": [],
  "provider_games": [
    {
      "name": "911 Drift Simulator",
      "slug": "911-drift-simulator",
      "service": "igdb"
    }
  ],
  "aliases": [],
  "shaders": [],
  "discord_id": "",
  "change_for": null
}