{
  "id": 8627,
  "name": "Eon Altar",
  "slug": "eon-altar",
  "year": 2016,
  "banner_url": "https://lutris.net/games/banner/eon-altar.jpg",
  "icon_url": "https://lutris.net/games/icon/eon-altar.png",
  "coverart": "https://lutris.net/media/igdb/cover_big/co1u30.jpg",
  "platforms": [
    {
      "name": "Mac"
    },
    {
      "name": "Windows"
    }
  ],
  "provider_games": [
    {
      "name": "Eon Altar",
      "slug": "382050",
      "service": "steam"
    },
    {
      "name": "Eon Altar",
      "slug": "eon-altar",
      "service": "igdb"
    }
  ],
  "aliases": [],
  "shaders": [],
  "discord_id": "",
  "change_for": null
}