{
  "id": 287312,
  "name": "The Die Is Cast",
  "slug": "the-die-is-cast--1",
  "year": null,
  "banner_url": "",
  "icon_url": "",
  "coverart": "https://lutris.net/media/igdb/cover_big/co8a83.jpg",
  "platforms": [],
  "provider_games": [
    {
      "name": "The Die Is Cast",
      "slug": "the-die-is-cast--1",
      "service": "igdb"
    }
  ],
  "aliases": [],
  "shaders": [],
  "discord_id": "",
  "change_for": null
}