{
  "id": 68617,
  "name": "NHL Eastside Hockey Manager 2005",
  "slug": "nhl-eastside-hockey-manager-2005",
  "year": null,
  "banner_url": "",
  "icon_url": "",
  "coverart": "https://lutris.net/media/igdb/cover_big/co7vpe.jpg",
  "platforms": [],
  "provider_games": [
    {
      "name": "NHL Eastside Hockey Manager 2005",
      "slug": "nhl-eastside-hockey-manager-2005",
      "service": "igdb"
    }
  ],
  "aliases": [],
  "shaders": [],
  "discord_id": "",
  "change_for": null
}