{
  "id": 3012,
  "game_id": 4812,
  "game_slug": "freeorion",
  "name": "FreeOrion",
  "year": 2004,
  "user": "scottviger",
  "runner": "linux",
  "slug": "freeorion-046",
  "version": "0.4.6",
  "description": "",
  "notes": "",
  "credits": "",
  "created_at": "2016-11-15T03:29:08.900303Z",
  "updated_at": "2024-04-03T05:34:04.051719Z",
  "draft": false,
  "published": true,
  "published_by": null,
  "rating": "",
  "is_playable": null,
  "steamid": null,
  "gogid": null,
  "gogslug": "",
  "humbleid": "",
  "humblestoreid": "",
  "humblestoreid_real": "",
  "script": {
    "files": [
      {
        "game": "https://netcologne.dl.sourceforge.net/project/open-source-games/freeorion.tar.xz"
      }
    ],
    "game": {
      "exe": "freeorion"
    },
    "installer": [
      {
        "extract": {
          "dst": "$GAMEDIR",
          "file": "game"
        }
      }
    ]
  },
  "content": "files:\n- game: https://netcologne.dl.sourceforge.net/project/open-source-games/freeorion.tar.xz\ngame:\n  exe: freeorion\ninstaller:\n- extract:\n    dst: $GAMEDIR\n    file: game\n",
  "discord_id": ""
}