{
  "id": 304926,
  "name": "Anpanman wo Sagase!",
  "slug": "anpanman-wo-sagase",
  "year": 2009,
  "banner_url": "",
  "icon_url": "",
  "coverart": "https://lutris.net/media/igdb/cover_big/co990l.jpg",
  "platforms": [],
  "provider_games": [
    {
      "name": "Anpanman wo Sagase!",
      "slug": "anpanman-wo-sagase",
      "service": "igdb"
    }
  ],
  "aliases": [],
  "shaders": [],
  "discord_id": "",
  "change_for": null
}