{
  "id": 43712,
  "name": "Chair F*cking Simulator",
  "slug": "chair-fcking-simulator",
  "year": null,
  "banner_url": "https://lutris.net/games/banner/chair-fcking-simulator.jpg",
  "icon_url": "https://lutris.net/games/icon/chair-fcking-simulator.png",
  "coverart": null,
  "platforms": [],
  "provider_games": [
    {
      "name": "Chair F*cking Simulator",
      "slug": "1302800",
      "service": "steam"
    }
  ],
  "aliases": [],
  "shaders": [],
  "discord_id": "",
  "change_for": null
}