{
  "id": 116873,
  "name": "Fairy Godmother Stories: Dark Deal",
  "slug": "fairy-godmother-stories-dark-deal",
  "year": 2020,
  "banner_url": "",
  "icon_url": "",
  "coverart": "https://lutris.net/media/igdb/cover_big/co3e0k.jpg",
  "platforms": [
    {
      "name": "Windows"
    }
  ],
  "provider_games": [
    {
      "name": "Fairy Godmother Stories: Dark Deal",
      "slug": "fairy-godmother-stories-dark-deal",
      "service": "igdb"
    }
  ],
  "aliases": [],
  "shaders": [],
  "discord_id": "",
  "change_for": null
}