{
  "id": 78770,
  "name": "Final Fantasy XII: Collector's Edition",
  "slug": "final-fantasy-xii-collectors-edition",
  "year": 2006,
  "banner_url": "",
  "icon_url": "",
  "coverart": "https://lutris.net/media/igdb/cover_big/co1vlo.jpg",
  "platforms": [
    {
      "name": "Sony PlayStation 2"
    }
  ],
  "provider_games": [
    {
      "name": "Final Fantasy XII: Collector's Edition",
      "slug": "final-fantasy-xii-collectors-edition",
      "service": "igdb"
    }
  ],
  "aliases": [],
  "shaders": [],
  "discord_id": "",
  "change_for": null
}