{
  "id": 290736,
  "name": "Fantasy Saga Frenzy",
  "slug": "fantasy-saga-frenzy",
  "year": 2024,
  "banner_url": "",
  "icon_url": "",
  "coverart": "https://lutris.net/media/igdb/cover_big/co8iqo.jpg",
  "platforms": [
    {
      "name": "Nintendo Switch"
    }
  ],
  "provider_games": [
    {
      "name": "Fantasy Saga Frenzy",
      "slug": "fantasy-saga-frenzy",
      "service": "igdb"
    }
  ],
  "aliases": [],
  "shaders": [],
  "discord_id": "",
  "change_for": null
}