{
  "id": 235256,
  "name": "Fall... in Love",
  "slug": "fall-dot-dot-dot-in-love",
  "year": 2018,
  "banner_url": "",
  "icon_url": "",
  "coverart": null,
  "platforms": [
    {
      "name": "Windows"
    }
  ],
  "provider_games": [
    {
      "name": "Fall... in Love",
      "slug": "fall-dot-dot-dot-in-love",
      "service": "igdb"
    }
  ],
  "aliases": [],
  "shaders": [],
  "discord_id": "",
  "change_for": null
}