{
  "id": 44474,
  "name": "Rocks'n'Diamonds",
  "slug": "rocksndiamonds",
  "year": 1995,
  "banner_url": "https://lutris.net/games/banner/rocksndiamonds.jpg",
  "icon_url": "",
  "coverart": "https://lutris.net/media/igdb/cover_big/co4l9k.jpg",
  "platforms": [
    {
      "name": "Linux"
    }
  ],
  "provider_games": [
    {
      "name": "Rocks 'n' Diamonds",
      "slug": "rocks-n-diamonds",
      "service": "igdb"
    }
  ],
  "aliases": [
    {
      "slug": "rocks-n-diamonds",
      "name": "Rocks 'n' Diamonds"
    }
  ],
  "shaders": [],
  "discord_id": "",
  "change_for": null
}