{
  "id": 63173,
  "name": "G.G. Series: Shin Hero Ouga",
  "slug": "gg-series-shin-hero-ouga",
  "year": null,
  "banner_url": "",
  "icon_url": "",
  "coverart": "https://lutris.net/media/igdb/cover_big/isv42myxt2yzcsxkzcnp.jpg",
  "platforms": [],
  "provider_games": [
    {
      "name": "G.G. Series: Shin Hero Ouga",
      "slug": "gg-series-shin-hero-ouga",
      "service": "igdb"
    }
  ],
  "aliases": [],
  "shaders": [],
  "discord_id": "",
  "change_for": null
}