{
  "id": 14816,
  "name": "Hell (2017)",
  "slug": "hell-2017",
  "year": 2017,
  "banner_url": "https://lutris.net/games/banner/hell-2017.jpg",
  "icon_url": "",
  "coverart": null,
  "platforms": [
    {
      "name": "Windows"
    }
  ],
  "provider_games": [],
  "aliases": [],
  "shaders": [],
  "discord_id": "",
  "change_for": null
}