{
  "id": 187127,
  "name": "Crypt of the Fungal Lord",
  "slug": "crypt-of-the-fungal-lord",
  "year": null,
  "banner_url": "",
  "icon_url": "",
  "coverart": null,
  "platforms": [],
  "provider_games": [
    {
      "name": "Crypt of the Fungal Lord",
      "slug": "crypt-of-the-fungal-lord",
      "service": "igdb"
    }
  ],
  "aliases": [],
  "shaders": [],
  "discord_id": "",
  "change_for": null
}