{
  "id": 194220,
  "name": "Rude Breaker",
  "slug": "rude-breaker",
  "year": 1996,
  "banner_url": "",
  "icon_url": "",
  "coverart": "https://lutris.net/media/igdb/cover_big/co54mv.jpg",
  "platforms": [
    {
      "name": "PC-98"
    }
  ],
  "provider_games": [
    {
      "name": "Rude Breaker",
      "slug": "rude-breaker",
      "service": "igdb"
    }
  ],
  "aliases": [],
  "shaders": [],
  "discord_id": "",
  "change_for": null
}