{
  "id": 9276,
  "game_id": 20021,
  "game_slug": "absolute-obedience-zettai-fukuju-meirei",
  "name": "Absolute Obedience - Zettai Fukuju Meirei",
  "year": 2006,
  "user": "kimchitea",
  "runner": "wine",
  "slug": "absolute-obedience-zettai-fuk-jast",
  "version": "JAST",
  "description": null,
  "notes": "",
  "credits": "",
  "created_at": "2018-07-19T04:21:41.257000Z",
  "updated_at": "2018-07-19T13:28:15.153496Z",
  "draft": false,
  "published": true,
  "published_by": null,
  "rating": "",
  "is_playable": null,
  "steamid": null,
  "gogid": null,
  "gogslug": "",
  "humbleid": "",
  "humblestoreid": "",
  "humblestoreid_real": "",
  "script": {
    "files": [
      {
        "file1": "N/A:Please select the JAST archive"
      }
    ],
    "game": {
      "arch": "win32",
      "exe": "$GAMEDIR/drive_c/Program Files/langmaor/Absolute Obedience/absobey.exe",
      "prefix": "$GAMEDIR"
    },
    "installer": [
      {
        "extract": {
          "dst": "$CACHE",
          "file": "$file1"
        }
      },
      {
        "task": {
          "app": "winxp",
          "arch": "win32",
          "description": "Setting Windows version to XP",
          "name": "winetricks",
          "prefix": "$GAMEDIR"
        }
      },
      {
        "task": {
          "arch": "win32",
          "executable": "$CACHE/Setup.exe",
          "name": "wineexec",
          "prefix": "$GAMEDIR"
        }
      },
      {
        "move": {
          "dst": "$GAMEDIR/drive_c/Program Files/langmaor/Absolute Obedience",
          "src": "$CACHE/Readme.txt"
        }
      }
    ]
  },
  "content": "files:\n- file1: N/A:Please select the JAST archive\ngame:\n  arch: win32\n  exe: $GAMEDIR/drive_c/Program Files/langmaor/Absolute Obedience/absobey.exe\n  prefix: $GAMEDIR\ninstaller:\n- extract:\n    dst: $CACHE\n    file: $file1\n- task:\n    app: winxp\n    arch: win32\n    description: Setting Windows version to XP\n    name: winetricks\n    prefix: $GAMEDIR\n- task:\n    arch: win32\n    executable: $CACHE/Setup.exe\n    name: wineexec\n    prefix: $GAMEDIR\n- move:\n    dst: $GAMEDIR/drive_c/Program Files/langmaor/Absolute Obedience\n    src: $CACHE/Readme.txt\n",
  "discord_id": ""
}