{
  "id": 92127,
  "name": "Bidding Contest",
  "slug": "bidding-contest",
  "year": null,
  "banner_url": "",
  "icon_url": "",
  "coverart": null,
  "platforms": [],
  "provider_games": [
    {
      "name": "Bidding Contest",
      "slug": "bidding-contest",
      "service": "igdb"
    }
  ],
  "aliases": [],
  "shaders": [],
  "discord_id": "",
  "change_for": null
}