{
  "id": 241504,
  "name": "Mario Party 7: Bowser's Lair Hockey",
  "slug": "mario-party-7-bowsers-lair-hockey",
  "year": 2005,
  "banner_url": "",
  "icon_url": "",
  "coverart": "https://lutris.net/media/igdb/cover_big/co60gv.jpg",
  "platforms": [
    {
      "name": "Browser"
    }
  ],
  "provider_games": [
    {
      "name": "Mario Party 7: Bowser's Lair Hockey",
      "slug": "mario-party-7-bowsers-lair-hockey",
      "service": "igdb"
    }
  ],
  "aliases": [],
  "shaders": [],
  "discord_id": "",
  "change_for": null
}