{
  "id": 77050,
  "name": "Sesame Street: Ready, Set, Grover!",
  "slug": "sesame-street-ready-set-grover",
  "year": null,
  "banner_url": "",
  "icon_url": "",
  "coverart": "https://lutris.net/media/igdb/cover_big/co74oc.jpg",
  "platforms": [],
  "provider_games": [
    {
      "name": "Sesame Street: Ready, Set, Grover!",
      "slug": "sesame-street-ready-set-grover",
      "service": "igdb"
    }
  ],
  "aliases": [],
  "shaders": [],
  "discord_id": "",
  "change_for": null
}