{
  "id": 222245,
  "name": "My Dystopian Robot Girlfriend",
  "slug": "my-dystopian-robot-girlfriend",
  "year": null,
  "banner_url": "https://lutris.net/games/banner/my-dystopian-robot-girlfriend.jpg",
  "icon_url": "",
  "coverart": "https://lutris.net/media/igdb/cover_big/co5lnu.jpg",
  "platforms": [
    {
      "name": "Android"
    },
    {
      "name": "Linux"
    },
    {
      "name": "Mac"
    },
    {
      "name": "Windows"
    }
  ],
  "provider_games": [
    {
      "name": "My Dystopian Robot Girlfriend",
      "slug": "my-dystopian-robot-girlfriend",
      "service": "igdb"
    }
  ],
  "aliases": [],
  "shaders": [],
  "discord_id": "",
  "change_for": null
}