{
  "id": 157284,
  "name": "Reverie: Sweet As Edition",
  "slug": "reverie-sweet-as-edition",
  "year": 2019,
  "banner_url": "",
  "icon_url": "",
  "coverart": "https://lutris.net/media/igdb/cover_big/co1j1k.jpg",
  "platforms": [
    {
      "name": "Nintendo Switch"
    }
  ],
  "provider_games": [
    {
      "name": "Reverie: Sweet As Edition",
      "slug": "reverie-sweet-as-edition",
      "service": "igdb"
    },
    {
      "name": "Reverie: Sweet As Edition",
      "slug": "1871638809",
      "service": "gog"
    }
  ],
  "aliases": [],
  "shaders": [],
  "discord_id": "",
  "change_for": null
}