{
  "id": 278940,
  "name": "Sea Chase",
  "slug": "sea-chase",
  "year": 1983,
  "banner_url": "",
  "icon_url": "",
  "coverart": "https://lutris.net/media/igdb/cover_big/co7xp3.jpg",
  "platforms": [
    {
      "name": "Atari 8-bit"
    }
  ],
  "provider_games": [
    {
      "name": "Sea Chase",
      "slug": "sea-chase",
      "service": "igdb"
    }
  ],
  "aliases": [],
  "shaders": [],
  "discord_id": "",
  "change_for": null
}