{
  "id": 201497,
  "name": "Travel to GolemPark",
  "slug": "travel-to-golempark",
  "year": null,
  "banner_url": "",
  "icon_url": "",
  "coverart": "https://lutris.net/media/igdb/cover_big/co4pca.jpg",
  "platforms": [],
  "provider_games": [
    {
      "name": "Travel to GolemPark",
      "slug": "travel-to-golempark",
      "service": "igdb"
    }
  ],
  "aliases": [],
  "shaders": [],
  "discord_id": "",
  "change_for": null
}