{
  "id": 15961,
  "name": "inVR",
  "slug": "invr",
  "year": null,
  "banner_url": "https://lutris.net/games/banner/invr.jpg",
  "icon_url": "https://lutris.net/games/icon/invr.png",
  "coverart": null,
  "platforms": [],
  "provider_games": [
    {
      "name": "inVR",
      "slug": "466260",
      "service": "steam"
    }
  ],
  "aliases": [],
  "shaders": [],
  "discord_id": "",
  "change_for": null
}