{
  "id": 49486,
  "name": "Animal Breeder",
  "slug": "animal-breeder",
  "year": null,
  "banner_url": "",
  "icon_url": "",
  "coverart": "https://lutris.net/media/igdb/cover_big/eso35jk5cd3jecaqeh0j.jpg",
  "platforms": [],
  "provider_games": [
    {
      "name": "Animal Breeder",
      "slug": "animal-breeder",
      "service": "igdb"
    }
  ],
  "aliases": [],
  "shaders": [],
  "discord_id": "",
  "change_for": null
}