{
  "id": 150467,
  "name": "Musashi vs. Cthulhu",
  "slug": "musashi-vs-cthulhu",
  "year": 2020,
  "banner_url": "",
  "icon_url": "",
  "coverart": "https://lutris.net/media/igdb/cover_big/co210x.jpg",
  "platforms": [
    {
      "name": "Windows"
    }
  ],
  "provider_games": [
    {
      "name": "Musashi vs. Cthulhu",
      "slug": "musashi-vs-cthulhu",
      "service": "igdb"
    }
  ],
  "aliases": [],
  "shaders": [],
  "discord_id": "",
  "change_for": null
}