{
  "id": 68346,
  "name": "The Tomb - Pinball",
  "slug": "the-tomb-pinball",
  "year": null,
  "banner_url": "",
  "icon_url": "",
  "coverart": "https://lutris.net/media/igdb/cover_big/cavozfyhxa1ezyw94pmj.jpg",
  "platforms": [],
  "provider_games": [
    {
      "name": "The Tomb: Pinball",
      "slug": "the-tomb-pinball",
      "service": "igdb"
    }
  ],
  "aliases": [],
  "shaders": [],
  "discord_id": "",
  "change_for": null
}