{
  "id": 225294,
  "name": "The Last Human is a Biker",
  "slug": "the-last-human-is-a-biker",
  "year": null,
  "banner_url": "",
  "icon_url": "",
  "coverart": "https://lutris.net/media/igdb/cover_big/co4s3l.jpg",
  "platforms": [],
  "provider_games": [
    {
      "name": "The Last Human is a Biker",
      "slug": "the-last-human-is-a-biker",
      "service": "igdb"
    }
  ],
  "aliases": [],
  "shaders": [],
  "discord_id": "",
  "change_for": null
}