{
  "id": 156800,
  "name": "Atelier Sophie: The Alchemist of the Mysterious Book DX",
  "slug": "atelier-sophie-the-alchemist-of-the-mysterious-book-dx",
  "year": 2021,
  "banner_url": "https://lutris.net/games/banner/atelier-sophie-the-alchemist-of-the-mysterious-book-dx.jpg",
  "icon_url": "",
  "coverart": "https://lutris.net/media/igdb/cover_big/co321r.jpg",
  "platforms": [
    {
      "name": "Nintendo Switch"
    },
    {
      "name": "Sony Playstation 4"
    },
    {
      "name": "Windows"
    }
  ],
  "provider_games": [
    {
      "name": "Atelier Sophie: The Alchemist of the Mysterious Book DX",
      "slug": "atelier-sophie-the-alchemist-of-the-mysterious-book-dx",
      "service": "igdb"
    }
  ],
  "aliases": [],
  "shaders": [],
  "discord_id": "",
  "change_for": null
}