{
  "id": 78026,
  "name": "Mighty Max",
  "slug": "mighty-max",
  "year": 1994,
  "banner_url": "",
  "icon_url": "",
  "coverart": "https://lutris.net/media/igdb/cover_big/pbt4cz5m9hn9mm3tiifs.jpg",
  "platforms": [
    {
      "name": "Sega Genesis / Mega Drive"
    },
    {
      "name": "Super Nintendo"
    }
  ],
  "provider_games": [
    {
      "name": "Mighty Max",
      "slug": "mighty-max",
      "service": "igdb"
    }
  ],
  "aliases": [],
  "shaders": [],
  "discord_id": "",
  "change_for": null
}