{
  "id": 18460,
  "name": "Radiant Defense",
  "slug": "radiant-defense",
  "year": 2012,
  "banner_url": "https://lutris.net/games/banner/radiant-defense.jpg",
  "icon_url": "https://lutris.net/games/icon/radiant-defense.png",
  "coverart": "https://lutris.net/media/igdb/cover_big/co3y87.jpg",
  "platforms": [
    {
      "name": "Android"
    },
    {
      "name": "Windows"
    }
  ],
  "provider_games": [
    {
      "name": "Radiant Defense",
      "slug": "302970",
      "service": "steam"
    },
    {
      "name": "Radiant Defense",
      "slug": "radiant-defense",
      "service": "igdb"
    }
  ],
  "aliases": [],
  "shaders": [],
  "discord_id": "",
  "change_for": null
}