{
  "id": 190357,
  "name": "Boomerang X",
  "slug": "boomerang-x",
  "year": 2021,
  "banner_url": "https://lutris.net/games/banner/boomerang-x.jpg",
  "icon_url": "",
  "coverart": "https://lutris.net/media/igdb/cover_big/co4a5g.jpg",
  "platforms": [
    {
      "name": "Nintendo Switch"
    },
    {
      "name": "Windows"
    }
  ],
  "provider_games": [
    {
      "name": "Boomerang X",
      "slug": "1170060",
      "service": "steam"
    },
    {
      "name": "Boomerang X",
      "slug": "1222423749",
      "service": "gog"
    },
    {
      "name": "Boomerang X",
      "slug": "boomerang-x",
      "service": "igdb"
    }
  ],
  "aliases": [],
  "shaders": [],
  "discord_id": "",
  "change_for": null
}