{
  "id": 249401,
  "name": "CleverMonkey",
  "slug": "clevermonkey",
  "year": null,
  "banner_url": "",
  "icon_url": "",
  "coverart": null,
  "platforms": [],
  "provider_games": [
    {
      "name": "CleverMonkey",
      "slug": "clevermonkey",
      "service": "igdb"
    }
  ],
  "aliases": [],
  "shaders": [],
  "discord_id": "",
  "change_for": null
}