{
  "id": 247734,
  "name": "Power Solenoid",
  "slug": "power-solenoid",
  "year": null,
  "banner_url": "",
  "icon_url": "",
  "coverart": "https://lutris.net/media/igdb/cover_big/co6kuv.jpg",
  "platforms": [],
  "provider_games": [
    {
      "name": "Power Solenoid",
      "slug": "power-solenoid",
      "service": "igdb"
    }
  ],
  "aliases": [],
  "shaders": [],
  "discord_id": "",
  "change_for": null
}