{
  "id": 7156,
  "name": "Far Cry Primal",
  "slug": "far-cry-primal",
  "year": 2016,
  "banner_url": "https://lutris.net/games/banner/far-cry-primal.jpg",
  "icon_url": "https://lutris.net/games/icon/far-cry-primal.png",
  "coverart": "https://lutris.net/media/igdb/cover_big/co28ha.jpg",
  "platforms": [
    {
      "name": "Google Stadia"
    },
    {
      "name": "Sony Playstation 4"
    },
    {
      "name": "Windows"
    },
    {
      "name": "Xbox One"
    }
  ],
  "provider_games": [
    {
      "name": "Far Cry Primal",
      "slug": "371660",
      "service": "steam"
    },
    {
      "name": "Far Cry: Primal",
      "slug": "far-cry-primal",
      "service": "igdb"
    }
  ],
  "aliases": [],
  "shaders": [],
  "discord_id": "425438207631556608",
  "change_for": null
}