{
  "id": 109655,
  "name": "Railworks 2: Train Simulator",
  "slug": "railworks-2-train-simulator",
  "year": 2010,
  "banner_url": "",
  "icon_url": "",
  "coverart": "https://lutris.net/media/igdb/cover_big/mogc8g24n6kegfbcpyw4.jpg",
  "platforms": [
    {
      "name": "Windows"
    }
  ],
  "provider_games": [
    {
      "name": "Railworks 2: Train Simulator",
      "slug": "railworks-2-train-simulator",
      "service": "igdb"
    }
  ],
  "aliases": [],
  "shaders": [],
  "discord_id": "",
  "change_for": null
}