{
  "id": 86073,
  "name": "Kung Fu House",
  "slug": "kung-fu-house",
  "year": null,
  "banner_url": "",
  "icon_url": "",
  "coverart": "https://lutris.net/media/igdb/cover_big/ijaq9ppljzcjcjftwyy4.jpg",
  "platforms": [],
  "provider_games": [
    {
      "name": "Kung Fu House",
      "slug": "kung-fu-house",
      "service": "igdb"
    }
  ],
  "aliases": [],
  "shaders": [],
  "discord_id": "",
  "change_for": null
}