{
  "id": 224167,
  "name": "PathCraft",
  "slug": "pathcraft",
  "year": null,
  "banner_url": "",
  "icon_url": "",
  "coverart": "https://lutris.net/media/igdb/cover_big/co4uok.jpg",
  "platforms": [
    {
      "name": "Oculus Quest 2"
    }
  ],
  "provider_games": [
    {
      "name": "PathCraft",
      "slug": "pathcraft",
      "service": "igdb"
    }
  ],
  "aliases": [],
  "shaders": [],
  "discord_id": "",
  "change_for": null
}