{
  "id": 290227,
  "name": "X10",
  "slug": "x10",
  "year": null,
  "banner_url": "",
  "icon_url": "",
  "coverart": "https://lutris.net/media/igdb/cover_big/co8gij.jpg",
  "platforms": [
    {
      "name": "Nintendo GameCube"
    },
    {
      "name": "Sony PlayStation 2"
    }
  ],
  "provider_games": [
    {
      "name": "X10",
      "slug": "x10",
      "service": "igdb"
    }
  ],
  "aliases": [],
  "shaders": [],
  "discord_id": "",
  "change_for": null
}