{
  "id": 163346,
  "name": "Hotel Mahjong",
  "slug": "hotel-mahjong",
  "year": null,
  "banner_url": "",
  "icon_url": "",
  "coverart": "https://lutris.net/media/igdb/cover_big/co40mj.jpg",
  "platforms": [],
  "provider_games": [
    {
      "name": "Hotel Mahjong",
      "slug": "hotel-mahjong",
      "service": "igdb"
    }
  ],
  "aliases": [],
  "shaders": [],
  "discord_id": "",
  "change_for": null
}