{
  "id": 107765,
  "name": "Dancing Stage Fusion",
  "slug": "dancing-stage-fusion",
  "year": 2004,
  "banner_url": "",
  "icon_url": "",
  "coverart": "https://lutris.net/media/igdb/cover_big/co2vr7.jpg",
  "platforms": [
    {
      "name": "Sony PlayStation"
    },
    {
      "name": "Sony PlayStation 2"
    }
  ],
  "provider_games": [
    {
      "name": "Dancing Stage Fusion",
      "slug": "dancing-stage-fusion",
      "service": "igdb"
    }
  ],
  "aliases": [],
  "shaders": [],
  "discord_id": "",
  "change_for": null
}