{
  "id": 204870,
  "name": "Zorya",
  "slug": "zorya",
  "year": null,
  "banner_url": "https://lutris.net/games/banner/zorya.jpg",
  "icon_url": "https://lutris.net/games/icon/zorya.png",
  "coverart": null,
  "platforms": [],
  "provider_games": [
    {
      "name": "Zorya",
      "slug": "1332150",
      "service": "steam"
    }
  ],
  "aliases": [],
  "shaders": [],
  "discord_id": "",
  "change_for": null
}