{
  "id": 110343,
  "name": "Angelic",
  "slug": "angelic",
  "year": null,
  "banner_url": "",
  "icon_url": "",
  "coverart": "https://lutris.net/media/igdb/cover_big/co2y42.jpg",
  "platforms": [],
  "provider_games": [
    {
      "name": "Angelic",
      "slug": "angelic",
      "service": "igdb"
    }
  ],
  "aliases": [],
  "shaders": [],
  "discord_id": "",
  "change_for": null
}