{
  "id": 169829,
  "name": "Flock of Dogs",
  "slug": "flock-of-dogs",
  "year": null,
  "banner_url": "",
  "icon_url": "",
  "coverart": "https://lutris.net/media/igdb/cover_big/co4650.jpg",
  "platforms": [],
  "provider_games": [
    {
      "name": "Flock of Dogs",
      "slug": "flock-of-dogs",
      "service": "igdb"
    }
  ],
  "aliases": [],
  "shaders": [],
  "discord_id": "",
  "change_for": null
}