{
  "id": 133825,
  "name": "Asian Riddles 4",
  "slug": "asian-riddles-4",
  "year": null,
  "banner_url": "https://lutris.net/games/banner/asian-riddles-4.jpg",
  "icon_url": "",
  "coverart": "https://lutris.net/media/igdb/cover_big/co3lp2.jpg",
  "platforms": [],
  "provider_games": [
    {
      "name": "Asian Riddles 4",
      "slug": "asian-riddles-4",
      "service": "igdb"
    },
    {
      "name": "Asian Riddles 4",
      "slug": "1495080",
      "service": "steam"
    }
  ],
  "aliases": [],
  "shaders": [],
  "discord_id": "",
  "change_for": null
}