{
  "id": 237148,
  "name": "Kita e. Photo Memories",
  "slug": "kita-e-photo-memories",
  "year": 1999,
  "banner_url": "",
  "icon_url": "",
  "coverart": "https://lutris.net/media/igdb/cover_big/co66op.jpg",
  "platforms": [
    {
      "name": "Dreamcast"
    }
  ],
  "provider_games": [
    {
      "name": "Kita e. Photo Memories",
      "slug": "kita-e-photo-memories",
      "service": "igdb"
    }
  ],
  "aliases": [],
  "shaders": [],
  "discord_id": "",
  "change_for": null
}