{
  "id": 193858,
  "name": "Goal! The Club Manager",
  "slug": "goal-the-club-manager",
  "year": 2022,
  "banner_url": "https://lutris.net/games/banner/goal-the-club-manager.jpg",
  "icon_url": "",
  "coverart": "https://lutris.net/media/igdb/cover_big/co4lpb.jpg",
  "platforms": [
    {
      "name": "Linux"
    },
    {
      "name": "Mac"
    },
    {
      "name": "Windows"
    }
  ],
  "provider_games": [
    {
      "name": "Goal!: The Club Manager",
      "slug": "goal-the-club-manager",
      "service": "igdb"
    },
    {
      "name": "GOAL! The Club Manager",
      "slug": "1252000",
      "service": "steam"
    },
    {
      "name": "GOAL! The Club Manager",
      "slug": "1153566462",
      "service": "gog"
    }
  ],
  "aliases": [],
  "shaders": [],
  "discord_id": "",
  "change_for": null
}