{
  "id": 100935,
  "name": "Activate the Three Artefacts and then Leave",
  "slug": "activate-the-three-artefacts-and-then-leave",
  "year": 2010,
  "banner_url": "",
  "icon_url": "",
  "coverart": null,
  "platforms": [
    {
      "name": "Mac"
    },
    {
      "name": "Windows"
    }
  ],
  "provider_games": [
    {
      "name": "Activate the Three Artefacts and then Leave",
      "slug": "activate-the-three-artefacts-and-then-leave",
      "service": "igdb"
    }
  ],
  "aliases": [],
  "shaders": [],
  "discord_id": "",
  "change_for": null
}