{
  "id": 268512,
  "name": "Corridor VR",
  "slug": "corridor-vr",
  "year": null,
  "banner_url": "",
  "icon_url": "",
  "coverart": "https://lutris.net/media/igdb/cover_big/co7h2l.jpg",
  "platforms": [],
  "provider_games": [
    {
      "name": "Corridor VR",
      "slug": "corridor-vr",
      "service": "igdb"
    }
  ],
  "aliases": [],
  "shaders": [],
  "discord_id": "",
  "change_for": null
}