{
  "id": 54199,
  "name": "Natsuki Crisis Battle",
  "slug": "natsuki-crisis-battle",
  "year": 1995,
  "banner_url": "",
  "icon_url": "",
  "coverart": "https://lutris.net/media/igdb/cover_big/caafw0skdimev9hsbx2o.jpg",
  "platforms": [
    {
      "name": "Super Nintendo"
    }
  ],
  "provider_games": [
    {
      "name": "Natsuki Crisis Battle",
      "slug": "natsuki-crisis-battle",
      "service": "igdb"
    }
  ],
  "aliases": [],
  "shaders": [],
  "discord_id": "",
  "change_for": null
}