{
  "id": 7901,
  "name": "PeriAreion",
  "slug": "periareion",
  "year": 2015,
  "banner_url": "https://lutris.net/games/banner/periareion.jpg",
  "icon_url": "https://lutris.net/games/icon/periareion.png",
  "coverart": "https://lutris.net/media/igdb/cover_big/co8dpf.jpg",
  "platforms": [
    {
      "name": "Mac"
    },
    {
      "name": "Windows"
    }
  ],
  "provider_games": [
    {
      "name": "PeriAreion",
      "slug": "349540",
      "service": "steam"
    },
    {
      "name": "PeriAreion",
      "slug": "periareion",
      "service": "igdb"
    }
  ],
  "aliases": [],
  "shaders": [],
  "discord_id": "",
  "change_for": null
}