{
  "id": 197444,
  "name": "Aegeankai no Shizuku",
  "slug": "aegeankai-no-shizuku",
  "year": 1995,
  "banner_url": "",
  "icon_url": "",
  "coverart": "https://lutris.net/media/igdb/cover_big/co4kkr.jpg",
  "platforms": [
    {
      "name": "PC-98"
    },
    {
      "name": "Windows"
    }
  ],
  "provider_games": [
    {
      "name": "Aegeankai no Shizuku",
      "slug": "aegeankai-no-shizuku",
      "service": "igdb"
    }
  ],
  "aliases": [],
  "shaders": [],
  "discord_id": "",
  "change_for": null
}