{
  "id": 154482,
  "name": "Coloring Pixel: Fantasy Characters",
  "slug": "coloring-pixel-fantasy-characters",
  "year": 2021,
  "banner_url": "",
  "icon_url": "",
  "coverart": "https://lutris.net/media/igdb/cover_big/co3x8o.jpg",
  "platforms": [
    {
      "name": "Windows"
    }
  ],
  "provider_games": [
    {
      "name": "Coloring Pixel: Fantasy Characters",
      "slug": "coloring-pixel-fantasy-characters",
      "service": "igdb"
    }
  ],
  "aliases": [],
  "shaders": [],
  "discord_id": "",
  "change_for": null
}