{
  "id": 164193,
  "name": "Lapis Vitae",
  "slug": "lapis-vitae",
  "year": null,
  "banner_url": "",
  "icon_url": "",
  "coverart": null,
  "platforms": [],
  "provider_games": [
    {
      "name": "Lapis Vitae",
      "slug": "lapis-vitae",
      "service": "igdb"
    }
  ],
  "aliases": [],
  "shaders": [],
  "discord_id": "",
  "change_for": null
}