{
  "id": 120931,
  "name": "Spirits of Mystery: The Silver Arrow - Collector's Edition",
  "slug": "spirits-of-mystery-the-silver-arrow-collectors-edition",
  "year": 2018,
  "banner_url": "",
  "icon_url": "",
  "coverart": null,
  "platforms": [
    {
      "name": "Windows"
    }
  ],
  "provider_games": [
    {
      "name": "Spirits of Mystery: The Silver Arrow - Collector's Edition",
      "slug": "spirits-of-mystery-the-silver-arrow-collectors-edition",
      "service": "igdb"
    }
  ],
  "aliases": [],
  "shaders": [],
  "discord_id": "",
  "change_for": null
}