{
  "id": 250484,
  "name": "Motorbike Evolution 2024",
  "slug": "motorbike-evolution-2024",
  "year": null,
  "banner_url": "",
  "icon_url": "",
  "coverart": "https://lutris.net/media/igdb/cover_big/co6oie.jpg",
  "platforms": [],
  "provider_games": [
    {
      "name": "Motorbike Evolution 2024",
      "slug": "motorbike-evolution-2024",
      "service": "igdb"
    }
  ],
  "aliases": [],
  "shaders": [],
  "discord_id": "",
  "change_for": null
}