{
  "id": 26425,
  "game_id": 40349,
  "game_slug": "valheim",
  "name": "Valheim",
  "year": 2021,
  "user": "sr98vn",
  "runner": "steam",
  "slug": "valheim-steam-proton",
  "version": "Steam (Proton)",
  "description": null,
  "notes": "",
  "credits": "",
  "created_at": "2021-02-14T22:58:38.533337Z",
  "updated_at": "2021-12-13T19:18:33.303672Z",
  "draft": false,
  "published": true,
  "published_by": null,
  "rating": "",
  "is_playable": null,
  "steamid": 892970,
  "gogid": null,
  "gogslug": "",
  "humbleid": "",
  "humblestoreid": "",
  "humblestoreid_real": "",
  "script": {
    "game": {
      "appid": 892970
    }
  },
  "content": "game:\n  appid: 892970\n",
  "discord_id": ""
}