{
  "id": 137276,
  "name": "Escape From The Cosmic Abyss",
  "slug": "escape-from-the-cosmic-abyss",
  "year": null,
  "banner_url": "",
  "icon_url": "",
  "coverart": "https://lutris.net/media/igdb/cover_big/co3qci.jpg",
  "platforms": [],
  "provider_games": [
    {
      "name": "Escape From the Cosmic Abyss",
      "slug": "escape-from-the-cosmic-abyss",
      "service": "igdb"
    }
  ],
  "aliases": [],
  "shaders": [],
  "discord_id": "",
  "change_for": null
}