{
  "id": 224613,
  "name": "The Lion King Legeng",
  "slug": "the-lion-king-legeng",
  "year": 1997,
  "banner_url": "",
  "icon_url": "",
  "coverart": "https://lutris.net/media/igdb/cover_big/co4vwg.jpg",
  "platforms": [
    {
      "name": "Family Computer"
    },
    {
      "name": "Sega Genesis / Mega Drive"
    },
    {
      "name": "Super Famicom"
    }
  ],
  "provider_games": [
    {
      "name": "The Lion King Legeng",
      "slug": "the-lion-king-legeng",
      "service": "igdb"
    }
  ],
  "aliases": [],
  "shaders": [],
  "discord_id": "",
  "change_for": null
}