{
  "id": 236091,
  "name": "Life Effect",
  "slug": "life-effect",
  "year": null,
  "banner_url": "",
  "icon_url": "",
  "coverart": "https://lutris.net/media/igdb/cover_big/co64te.jpg",
  "platforms": [],
  "provider_games": [
    {
      "name": "Life Effect",
      "slug": "life-effect",
      "service": "igdb"
    }
  ],
  "aliases": [],
  "shaders": [],
  "discord_id": "",
  "change_for": null
}