{
  "id": 26495,
  "game_id": 11165,
  "game_slug": "quest-for-glory-i-so-you-want-to-be-a-hero-vga",
  "name": "Quest for Glory I: So You Want To Be A Hero (VGA Remake)",
  "year": 1992,
  "user": "legluondunet",
  "runner": "scummvm",
  "slug": "quest-for-glory-i-so-you-want-gog-vga-remake",
  "version": "GOG VGA remake",
  "description": "\"Quest for Glory I: So You Want To Be A Hero\" VGA remake using ScummVM.",
  "notes": "",
  "credits": "",
  "created_at": "2021-02-19T06:41:49.572000Z",
  "updated_at": "2022-02-03T06:41:29.288924Z",
  "draft": false,
  "published": true,
  "published_by": 494,
  "rating": "",
  "is_playable": null,
  "steamid": 502750,
  "gogid": 1207661313,
  "gogslug": "quest_for_glory",
  "humbleid": "",
  "humblestoreid": "",
  "humblestoreid_real": "",
  "script": {
    "custom-name": "Quest for Glory I - So You Want To Be A Hero - VGA remake - GOG - ScummVM",
    "files": [
      {
        "gogsetup": "N/A:Please select the game Windows install file, available for  download from your GOG account page."
      },
      {
        "inno": "https://constexpr.org/innoextract/files/innoextract-1.9/innoextract-1.9-linux.tar.xz"
      }
    ],
    "game": {
      "game_id": "qfg1vga",
      "path": "$GAMEDIR",
      "subtitles": true
    },
    "installer": [
      {
        "extract": {
          "dst": "$CACHE",
          "file": "$inno"
        }
      },
      {
        "execute": {
          "args": "-d \"$GAMEDIR\" \"$gogsetup\"",
          "file": "$CACHE/innoextract"
        }
      },
      {
        "execute": {
          "command": "cd \"$GAMEDIR\"; rm -f -r tmp __support __redist DOSBOX commonappdata app goggame-1207661313.* ;"
        }
      }
    ]
  },
  "content": "custom-name: Quest for Glory I - So You Want To Be A Hero - VGA remake - GOG - ScummVM\nfiles:\n- gogsetup: N/A:Please select the game Windows install file, available for  download\n    from your GOG account page.\n- inno: https://constexpr.org/innoextract/files/innoextract-1.9/innoextract-1.9-linux.tar.xz\ngame:\n  game_id: qfg1vga\n  path: $GAMEDIR\n  subtitles: true\ninstaller:\n- extract:\n    dst: $CACHE\n    file: $inno\n- execute:\n    args: -d \"$GAMEDIR\" \"$gogsetup\"\n    file: $CACHE/innoextract\n- execute:\n    command: cd \"$GAMEDIR\"; rm -f -r tmp __support __redist DOSBOX commonappdata app\n      goggame-1207661313.* ;\n",
  "discord_id": null
}