{
  "id": 268165,
  "name": "Yukikoi Melt",
  "slug": "yukikoi-melt",
  "year": 2020,
  "banner_url": "",
  "icon_url": "",
  "coverart": null,
  "platforms": [],
  "provider_games": [],
  "aliases": [],
  "shaders": [],
  "discord_id": "",
  "change_for": null
}