{
  "id": 166127,
  "name": "Taoyuan Adventure",
  "slug": "taoyuan-adventure",
  "year": null,
  "banner_url": "",
  "icon_url": "",
  "coverart": "https://lutris.net/media/igdb/cover_big/co42xl.jpg",
  "platforms": [],
  "provider_games": [
    {
      "name": "Taoyuan Adventure",
      "slug": "taoyuan-adventure",
      "service": "igdb"
    }
  ],
  "aliases": [],
  "shaders": [],
  "discord_id": "",
  "change_for": null
}