{
  "id": 224709,
  "name": "Team Force 2",
  "slug": "team-force-2",
  "year": null,
  "banner_url": "",
  "icon_url": "",
  "coverart": "https://lutris.net/media/igdb/cover_big/co5mfo.jpg",
  "platforms": [],
  "provider_games": [
    {
      "name": "Team Force 2",
      "slug": "team-force-2",
      "service": "igdb"
    }
  ],
  "aliases": [],
  "shaders": [],
  "discord_id": "",
  "change_for": null
}