{
  "id": 214150,
  "name": "Singularity",
  "slug": "singularity--3",
  "year": null,
  "banner_url": "",
  "icon_url": "",
  "coverart": "https://lutris.net/media/igdb/cover_big/co5t3c.jpg",
  "platforms": [],
  "provider_games": [
    {
      "name": "Singularity",
      "slug": "singularity--3",
      "service": "igdb"
    }
  ],
  "aliases": [],
  "shaders": [],
  "discord_id": "",
  "change_for": null
}