{
  "id": 20277,
  "name": "Bullet Sorrow VR",
  "slug": "bullet-sorrow-vr",
  "year": 2017,
  "banner_url": "https://lutris.net/games/banner/bullet-sorrow-vr.jpg",
  "icon_url": "https://lutris.net/games/icon/bullet-sorrow-vr.png",
  "coverart": "https://lutris.net/media/igdb/cover_big/co2a16.jpg",
  "platforms": [
    {
      "name": "Windows"
    }
  ],
  "provider_games": [
    {
      "name": "Bullet Sorrow VR",
      "slug": "521950",
      "service": "steam"
    },
    {
      "name": "Bullet Sorrow VR",
      "slug": "bullet-sorrow-vr",
      "service": "igdb"
    }
  ],
  "aliases": [],
  "shaders": [],
  "discord_id": "",
  "change_for": null
}