{
  "id": 173038,
  "name": "Xenoblade Chronicles: Definitive Edition",
  "slug": "xenoblade-chronicles-definitive-edition",
  "year": 2020,
  "banner_url": "",
  "icon_url": "",
  "coverart": "https://lutris.net/media/igdb/cover_big/co27kt.jpg",
  "platforms": [
    {
      "name": "Nintendo Switch"
    }
  ],
  "provider_games": [
    {
      "name": "Xenoblade Chronicles: Definitive Edition",
      "slug": "xenoblade-chronicles-definitive-edition",
      "service": "igdb"
    }
  ],
  "aliases": [],
  "shaders": [],
  "discord_id": "",
  "change_for": null
}