{
  "id": 98701,
  "name": "Edo Bunka Rekishi Kentei",
  "slug": "edo-bunka-rekishi-kentei",
  "year": null,
  "banner_url": "",
  "icon_url": "",
  "coverart": null,
  "platforms": [],
  "provider_games": [
    {
      "name": "Edo Bunka Rekishi Kentei",
      "slug": "edo-bunka-rekishi-kentei",
      "service": "igdb"
    }
  ],
  "aliases": [],
  "shaders": [],
  "discord_id": "",
  "change_for": null
}