{
  "id": 261567,
  "name": "Ufight",
  "slug": "ufight",
  "year": null,
  "banner_url": "",
  "icon_url": "",
  "coverart": "https://lutris.net/media/igdb/cover_big/co7yyn.jpg",
  "platforms": [],
  "provider_games": [
    {
      "name": "Ufight",
      "slug": "ufight",
      "service": "igdb"
    }
  ],
  "aliases": [],
  "shaders": [],
  "discord_id": "",
  "change_for": null
}