{
  "id": 277416,
  "name": "Croak Croak On The Sea",
  "slug": "croak-croak-on-the-sea",
  "year": null,
  "banner_url": "",
  "icon_url": "",
  "coverart": "https://lutris.net/media/igdb/cover_big/co7w1r.jpg",
  "platforms": [],
  "provider_games": [
    {
      "name": "Croak Croak On The Sea",
      "slug": "croak-croak-on-the-sea",
      "service": "igdb"
    }
  ],
  "aliases": [],
  "shaders": [],
  "discord_id": "",
  "change_for": null
}