{
  "id": 304992,
  "name": "Thor: Bring the Thunder",
  "slug": "thor-bring-the-thunder",
  "year": 2011,
  "banner_url": "",
  "icon_url": "",
  "coverart": "https://lutris.net/media/igdb/cover_big/co98vf.jpg",
  "platforms": [
    {
      "name": "Browser"
    }
  ],
  "provider_games": [
    {
      "name": "Thor: Bring the Thunder",
      "slug": "thor-bring-the-thunder",
      "service": "igdb"
    }
  ],
  "aliases": [],
  "shaders": [],
  "discord_id": "",
  "change_for": null
}