{
  "id": 289950,
  "name": "Tan-Tan-Tanuki",
  "slug": "tan-tan-tanuki",
  "year": 2020,
  "banner_url": "",
  "icon_url": "",
  "coverart": "https://lutris.net/media/igdb/cover_big/co8eze.jpg",
  "platforms": [
    {
      "name": "Windows"
    }
  ],
  "provider_games": [
    {
      "name": "Tan-Tan-Tanuki",
      "slug": "tan-tan-tanuki",
      "service": "igdb"
    }
  ],
  "aliases": [],
  "shaders": [],
  "discord_id": "",
  "change_for": null
}