{
  "id": 201788,
  "name": "Deadman Diaries",
  "slug": "deadman-diaries",
  "year": 2016,
  "banner_url": "",
  "icon_url": "",
  "coverart": null,
  "platforms": [],
  "provider_games": [
    {
      "name": "Deadman Diaries",
      "slug": "deadman-diaries",
      "service": "igdb"
    }
  ],
  "aliases": [],
  "shaders": [],
  "discord_id": "",
  "change_for": null
}