{
  "id": 236491,
  "name": "The Adventures of Mr. Willickers the Rotting Mule",
  "slug": "the-adventures-of-mr-willickers-the-rotting-mule",
  "year": null,
  "banner_url": "",
  "icon_url": "",
  "coverart": "https://lutris.net/media/igdb/cover_big/co665e.jpg",
  "platforms": [],
  "provider_games": [
    {
      "name": "The Adventures of Mr. Willickers the Rotting Mule",
      "slug": "the-adventures-of-mr-willickers-the-rotting-mule",
      "service": "igdb"
    }
  ],
  "aliases": [],
  "shaders": [],
  "discord_id": "",
  "change_for": null
}