{
  "id": 88771,
  "name": "Backgammon Masters Online",
  "slug": "backgammon-masters-online",
  "year": null,
  "banner_url": "",
  "icon_url": "",
  "coverart": null,
  "platforms": [],
  "provider_games": [
    {
      "name": "Backgammon Masters Online",
      "slug": "backgammon-masters-online",
      "service": "igdb"
    }
  ],
  "aliases": [],
  "shaders": [],
  "discord_id": "",
  "change_for": null
}