{
  "id": 293723,
  "name": "Roads Construction Sim",
  "slug": "roads-construction-sim--1",
  "year": null,
  "banner_url": "",
  "icon_url": "",
  "coverart": "https://lutris.net/media/igdb/cover_big/co8n2s.jpg",
  "platforms": [],
  "provider_games": [
    {
      "name": "Roads Construction Sim",
      "slug": "roads-construction-sim--1",
      "service": "igdb"
    }
  ],
  "aliases": [],
  "shaders": [],
  "discord_id": "",
  "change_for": null
}