{
  "id": 145715,
  "name": "Teddy The Wanderer: Mountain Hike",
  "slug": "teddy-the-wanderer-mountain-hike",
  "year": 2019,
  "banner_url": "",
  "icon_url": "",
  "coverart": "https://lutris.net/media/igdb/cover_big/co4jce.jpg",
  "platforms": [
    {
      "name": "Nintendo Switch"
    }
  ],
  "provider_games": [
    {
      "name": "Teddy The Wanderer: Mountain Hike",
      "slug": "teddy-the-wanderer-mountain-hike",
      "service": "igdb"
    }
  ],
  "aliases": [],
  "shaders": [],
  "discord_id": "",
  "change_for": null
}