{
  "id": 115432,
  "name": "CJ in the USA",
  "slug": "cj-in-the-usa",
  "year": 1991,
  "banner_url": "",
  "icon_url": "",
  "coverart": "https://lutris.net/media/igdb/cover_big/mtxepjvxfpaq7qkh2oqv.jpg",
  "platforms": [
    {
      "name": "Amiga"
    },
    {
      "name": "Commodore C64/128"
    }
  ],
  "provider_games": [
    {
      "name": "CJ in the USA",
      "slug": "cj-in-the-usa",
      "service": "igdb"
    }
  ],
  "aliases": [],
  "shaders": [],
  "discord_id": "",
  "change_for": null
}