{
  "id": 34793,
  "name": "Magic Card II",
  "slug": "magic-card-ii",
  "year": 1996,
  "banner_url": "",
  "icon_url": "https://lutris.net/games/icon/magic-card-ii.png",
  "coverart": null,
  "platforms": [
    {
      "name": "Arcade"
    }
  ],
  "provider_games": [
    {
      "name": "Magic Card II",
      "slug": "magicrd2",
      "service": "mame"
    }
  ],
  "aliases": [],
  "shaders": [],
  "discord_id": "",
  "change_for": null
}