{
  "id": 53023,
  "name": "Hataraku Chocobo",
  "slug": "hataraku-chocobo",
  "year": 2000,
  "banner_url": "",
  "icon_url": "",
  "coverart": "https://lutris.net/media/igdb/cover_big/mubqyof8sgic2zvv66l3.jpg",
  "platforms": [
    {
      "name": "WonderSwan Color"
    }
  ],
  "provider_games": [
    {
      "name": "Hataraku Chocobo",
      "slug": "hataraku-chocobo",
      "service": "igdb"
    }
  ],
  "aliases": [],
  "shaders": [],
  "discord_id": "",
  "change_for": null
}