{
  "id": 138742,
  "name": "Heroes of Kalevala",
  "slug": "heroes-of-kalevala",
  "year": null,
  "banner_url": "",
  "icon_url": "",
  "coverart": "https://lutris.net/media/igdb/cover_big/bmkftkbgdkviuihayhtn.jpg",
  "platforms": [],
  "provider_games": [
    {
      "name": "Heroes of Kalevala",
      "slug": "heroes-of-kalevala",
      "service": "igdb"
    }
  ],
  "aliases": [],
  "shaders": [],
  "discord_id": "",
  "change_for": null
}