{
  "id": 202225,
  "name": "Déjà-vu VR",
  "slug": "deja-vu-vr",
  "year": null,
  "banner_url": "",
  "icon_url": "",
  "coverart": "https://lutris.net/media/igdb/cover_big/co4m5h.jpg",
  "platforms": [],
  "provider_games": [
    {
      "name": "Déjà-Vu VR",
      "slug": "deja-vu-vr",
      "service": "igdb"
    }
  ],
  "aliases": [],
  "shaders": [],
  "discord_id": "",
  "change_for": null
}