{
  "id": 137916,
  "name": "Persona 5: 20th Anniversary Edition",
  "slug": "persona-5-20th-anniversary-edition",
  "year": 2016,
  "banner_url": "",
  "icon_url": "",
  "coverart": "https://lutris.net/media/igdb/cover_big/co2ouq.jpg",
  "platforms": [
    {
      "name": "Sony Playstation 4"
    }
  ],
  "provider_games": [
    {
      "name": "Persona 5: 20th Anniversary Edition",
      "slug": "persona-5-20th-anniversary-edition",
      "service": "igdb"
    }
  ],
  "aliases": [],
  "shaders": [],
  "discord_id": "",
  "change_for": null
}