{
  "id": 251533,
  "name": "Xuan-Yuan Sword: Mists Beyond the Mountains",
  "slug": "xuan-yuan-sword-mists-beyond-the-mountains",
  "year": 1999,
  "banner_url": "",
  "icon_url": "",
  "coverart": null,
  "platforms": [
    {
      "name": "Nintendo Switch"
    },
    {
      "name": "Windows"
    }
  ],
  "provider_games": [
    {
      "name": "Xuan-Yuan Sword: Mists Beyond the Mountains",
      "slug": "xuan-yuan-sword-mists-beyond-the-mountains",
      "service": "igdb"
    }
  ],
  "aliases": [],
  "shaders": [],
  "discord_id": "",
  "change_for": null
}