{
  "id": 8941,
  "game_id": 15948,
  "game_slug": "destinys-princess-a-war-story-a-love-story",
  "name": "Destiny's Princess: A War Story, A Love Story",
  "year": 2016,
  "user": "kimchitea",
  "runner": "steam",
  "slug": "destinys-princess-a-war-story-proton",
  "version": "Proton",
  "description": null,
  "notes": "",
  "credits": "",
  "created_at": "2018-06-28T16:49:40.106000Z",
  "updated_at": "2021-05-04T02:43:08.728391Z",
  "draft": false,
  "published": true,
  "published_by": null,
  "rating": "",
  "is_playable": null,
  "steamid": 447170,
  "gogid": null,
  "gogslug": "",
  "humbleid": "",
  "humblestoreid": "",
  "humblestoreid_real": "",
  "script": {
    "game": {
      "appid": 447170
    }
  },
  "content": "game:\n  appid: 447170\n",
  "discord_id": ""
}