{
  "id": 283614,
  "name": "The Fate of Wonderland",
  "slug": "the-fate-of-wonderland",
  "year": null,
  "banner_url": "",
  "icon_url": "",
  "coverart": null,
  "platforms": [
    {
      "name": "Android"
    }
  ],
  "provider_games": [
    {
      "name": "The Fate of Wonderland",
      "slug": "the-fate-of-wonderland",
      "service": "igdb"
    }
  ],
  "aliases": [],
  "shaders": [],
  "discord_id": "",
  "change_for": null
}