{
  "id": 184448,
  "name": "A credit card",
  "slug": "a-credit-card",
  "year": null,
  "banner_url": "",
  "icon_url": "",
  "coverart": null,
  "platforms": [],
  "provider_games": [
    {
      "name": "A credit card",
      "slug": "a-credit-card",
      "service": "igdb"
    }
  ],
  "aliases": [],
  "shaders": [],
  "discord_id": "",
  "change_for": null
}