{
  "id": 68667,
  "name": "Cocoto Tennis Master",
  "slug": "cocoto-tennis-master",
  "year": null,
  "banner_url": "",
  "icon_url": "",
  "coverart": "https://lutris.net/media/igdb/cover_big/htzaol3ptgd6ckg3yioe.jpg",
  "platforms": [],
  "provider_games": [
    {
      "name": "Cocoto Tennis Master",
      "slug": "cocoto-tennis-master",
      "service": "igdb"
    }
  ],
  "aliases": [],
  "shaders": [],
  "discord_id": "",
  "change_for": null
}