{
  "id": 87154,
  "name": "Brick Shot 2",
  "slug": "brick-shot-2",
  "year": null,
  "banner_url": "",
  "icon_url": "",
  "coverart": null,
  "platforms": [],
  "provider_games": [
    {
      "name": "Brick Shot 2",
      "slug": "brick-shot-2",
      "service": "igdb"
    }
  ],
  "aliases": [],
  "shaders": [],
  "discord_id": "",
  "change_for": null
}