{
  "id": 117313,
  "name": "Japanese Rail Sim 3D Journey to Kyoto",
  "slug": "japanese-rail-sim-3d-journey-to-kyoto",
  "year": 2015,
  "banner_url": "",
  "icon_url": "",
  "coverart": "https://lutris.net/media/igdb/cover_big/iicupb7fx6kigzbaptxu.jpg",
  "platforms": [
    {
      "name": "Nintendo 3DS"
    }
  ],
  "provider_games": [
    {
      "name": "Japanese Rail Sim 3D Journey to Kyoto",
      "slug": "japanese-rail-sim-3d-journey-to-kyoto",
      "service": "igdb"
    }
  ],
  "aliases": [],
  "shaders": [],
  "discord_id": "",
  "change_for": null
}