{
  "id": 38458,
  "game_id": 278386,
  "game_slug": "ballbastic",
  "name": "BallBastic!",
  "year": null,
  "user": "vanstaveren",
  "runner": "steam",
  "slug": "ballbastic-steam",
  "version": "steam",
  "description": "",
  "notes": "",
  "credits": "",
  "created_at": "2024-05-19T21:45:25.764537Z",
  "updated_at": "2024-05-19T21:45:25.764564Z",
  "draft": false,
  "published": true,
  "published_by": null,
  "rating": "",
  "is_playable": null,
  "steamid": null,
  "gogid": null,
  "gogslug": "",
  "humbleid": "",
  "humblestoreid": "",
  "humblestoreid_real": "",
  "script": {
    "game": {
      "appid": 2428170
    }
  },
  "content": "game:\n  appid: 2428170\n",
  "discord_id": ""
}