{
  "id": 48637,
  "name": "Skiing",
  "slug": "skiing",
  "year": 1980,
  "banner_url": "",
  "icon_url": "",
  "coverart": "https://lutris.net/media/igdb/cover_big/co1pgk.jpg",
  "platforms": [
    {
      "name": "Intellivision"
    }
  ],
  "provider_games": [
    {
      "name": "Skiing",
      "slug": "skiing",
      "service": "igdb"
    }
  ],
  "aliases": [],
  "shaders": [],
  "discord_id": "",
  "change_for": null
}