{
  "id": 4362,
  "name": "10 Years After",
  "slug": "10-years-after",
  "year": 2015,
  "banner_url": "https://lutris.net/games/banner/10-years-after.jpg",
  "icon_url": "https://lutris.net/games/icon/10-years-after.png",
  "coverart": "https://lutris.net/media/igdb/cover_big/g1g8s2smplq4kgon7lvt.jpg",
  "platforms": [
    {
      "name": "Windows"
    }
  ],
  "provider_games": [
    {
      "name": "10 Years After",
      "slug": "339240",
      "service": "steam"
    },
    {
      "name": "10 Years After",
      "slug": "10-years-after",
      "service": "igdb"
    }
  ],
  "aliases": [],
  "shaders": [],
  "discord_id": "",
  "change_for": null
}