{
  "id": 302322,
  "name": "Top Sellers: Ecommerce Simulator",
  "slug": "top-sellers-ecommerce-simulator",
  "year": 2024,
  "banner_url": "",
  "icon_url": "",
  "coverart": "https://lutris.net/media/igdb/cover_big/co9497.jpg",
  "platforms": [
    {
      "name": "Windows"
    }
  ],
  "provider_games": [
    {
      "name": "Top Sellers: Ecommerce Simulator",
      "slug": "top-sellers-ecommerce-simulator",
      "service": "igdb"
    }
  ],
  "aliases": [],
  "shaders": [],
  "discord_id": "",
  "change_for": null
}