{
  "id": 11377,
  "name": "Hell Girls",
  "slug": "hell-girls",
  "year": 2017,
  "banner_url": "https://lutris.net/games/banner/hell-girls.jpg",
  "icon_url": "https://lutris.net/games/icon/hell-girls.png",
  "coverart": "https://lutris.net/media/igdb/cover_big/co1yik.jpg",
  "platforms": [
    {
      "name": "Mac"
    },
    {
      "name": "Windows"
    }
  ],
  "provider_games": [
    {
      "name": "Hell Girls",
      "slug": "575550",
      "service": "steam"
    },
    {
      "name": "Hell Girls",
      "slug": "hell-girls",
      "service": "igdb"
    }
  ],
  "aliases": [],
  "shaders": [],
  "discord_id": "",
  "change_for": null
}