{
  "id": 50486,
  "name": "World of Tanks Roll Out Collector's Edition",
  "slug": "world-of-tanks-roll-out-collectors-edition",
  "year": 2016,
  "banner_url": "",
  "icon_url": "",
  "coverart": "https://lutris.net/media/igdb/cover_big/co1r06.jpg",
  "platforms": [
    {
      "name": "Sony Playstation 4"
    },
    {
      "name": "Windows"
    }
  ],
  "provider_games": [
    {
      "name": "World of Tanks: Roll Out Collector's Edition",
      "slug": "world-of-tanks-roll-out-collectors-edition",
      "service": "igdb"
    }
  ],
  "aliases": [],
  "shaders": [],
  "discord_id": "",
  "change_for": null
}