{
  "id": 289042,
  "name": "Rocket Car: Ultimate Ball League Machines - Premium Edition",
  "slug": "rocket-car-ultimate-ball-league-machines-premium-edition",
  "year": 2024,
  "banner_url": "",
  "icon_url": "",
  "coverart": null,
  "platforms": [
    {
      "name": "Nintendo Switch"
    }
  ],
  "provider_games": [
    {
      "name": "Rocket Car: Ultimate Ball League Machines - Premium Edition",
      "slug": "rocket-car-ultimate-ball-league-machines-premium-edition",
      "service": "igdb"
    }
  ],
  "aliases": [],
  "shaders": [],
  "discord_id": "",
  "change_for": null
}