{
  "id": 4713,
  "name": "RollerCoaster Tycoon 2",
  "slug": "rollercoaster-tycoon-2",
  "year": 2002,
  "banner_url": "https://lutris.net/games/banner/rollercoaster-tycoon-2.jpg",
  "icon_url": "https://lutris.net/games/icon/rollercoaster-tycoon-2.png",
  "coverart": "https://lutris.net/media/igdb/cover_big/co2dws.jpg",
  "platforms": [
    {
      "name": "Linux"
    },
    {
      "name": "Windows"
    }
  ],
  "provider_games": [
    {
      "name": "RollerCoaster Tycoon® 2: Triple Thrill Pack",
      "slug": "1207658957",
      "service": "gog"
    },
    {
      "name": "RollerCoaster Tycoon 2: Triple Thrill Pack",
      "slug": "285330",
      "service": "steam"
    },
    {
      "name": "RollerCoaster Tycoon 2",
      "slug": "rollercoaster-tycoon-2",
      "service": "igdb"
    }
  ],
  "aliases": [
    {
      "slug": "openrct2",
      "name": "OpenRCT2"
    }
  ],
  "shaders": [],
  "discord_id": "",
  "change_for": null
}