{
  "id": 215977,
  "name": "Rustystreet",
  "slug": "rustystreet",
  "year": null,
  "banner_url": "",
  "icon_url": "",
  "coverart": "https://lutris.net/media/igdb/cover_big/co58hy.jpg",
  "platforms": [],
  "provider_games": [
    {
      "name": "Rustystreet",
      "slug": "rustystreet",
      "service": "igdb"
    }
  ],
  "aliases": [],
  "shaders": [],
  "discord_id": "",
  "change_for": null
}