{
  "id": 142127,
  "name": "Devil's Gold",
  "slug": "devils-gold",
  "year": null,
  "banner_url": "https://lutris.net/games/banner/devils-gold.jpg",
  "icon_url": "",
  "coverart": "https://lutris.net/media/igdb/cover_big/co3r86.jpg",
  "platforms": [],
  "provider_games": [
    {
      "name": "Devil's Gold",
      "slug": "devils-gold",
      "service": "igdb"
    },
    {
      "name": "Devils Gold",
      "slug": "1670880",
      "service": "steam"
    }
  ],
  "aliases": [],
  "shaders": [],
  "discord_id": "",
  "change_for": null
}