{
  "id": 59541,
  "name": "Riftlight",
  "slug": "riftlight",
  "year": null,
  "banner_url": "",
  "icon_url": "",
  "coverart": "https://lutris.net/media/igdb/cover_big/coongye4n9zevw7swhth.jpg",
  "platforms": [],
  "provider_games": [
    {
      "name": "Riftlight",
      "slug": "riftlight",
      "service": "igdb"
    }
  ],
  "aliases": [],
  "shaders": [],
  "discord_id": "",
  "change_for": null
}