{
  "id": 198274,
  "name": "Spooky Bricks",
  "slug": "spooky-bricks",
  "year": null,
  "banner_url": "",
  "icon_url": "",
  "coverart": "https://lutris.net/media/igdb/cover_big/co4j0g.jpg",
  "platforms": [],
  "provider_games": [
    {
      "name": "Spooky Bricks",
      "slug": "spooky-bricks",
      "service": "igdb"
    }
  ],
  "aliases": [],
  "shaders": [],
  "discord_id": "",
  "change_for": null
}