{
  "id": 267850,
  "name": "Vector Zone",
  "slug": "vector-zone",
  "year": null,
  "banner_url": "",
  "icon_url": "",
  "coverart": "https://lutris.net/media/igdb/cover_big/co7fm6.jpg",
  "platforms": [],
  "provider_games": [
    {
      "name": "Vector Zone",
      "slug": "vector-zone",
      "service": "igdb"
    }
  ],
  "aliases": [],
  "shaders": [],
  "discord_id": "",
  "change_for": null
}