{
  "id": 237801,
  "name": "Cooking Papa: Cookstar",
  "slug": "cooking-papa-cookstar",
  "year": null,
  "banner_url": "",
  "icon_url": "",
  "coverart": null,
  "platforms": [],
  "provider_games": [
    {
      "name": "Cooking Papa: Cookstar",
      "slug": "cooking-papa-cookstar",
      "service": "igdb"
    }
  ],
  "aliases": [],
  "shaders": [],
  "discord_id": "",
  "change_for": null
}