{
  "id": 197687,
  "name": "Re:Zero - Infinity",
  "slug": "re-zero-infinity",
  "year": null,
  "banner_url": "",
  "icon_url": "",
  "coverart": null,
  "platforms": [],
  "provider_games": [
    {
      "name": "Re:Zero - Infinity",
      "slug": "re-zero-infinity",
      "service": "igdb"
    }
  ],
  "aliases": [],
  "shaders": [],
  "discord_id": "",
  "change_for": null
}