{
  "id": 143104,
  "name": "Dragon Ball: Tap Battle",
  "slug": "dragon-ball-tap-battle",
  "year": 2013,
  "banner_url": "",
  "icon_url": "",
  "coverart": "https://lutris.net/media/igdb/cover_big/lm0zxxaohy1dnemunhct.jpg",
  "platforms": [
    {
      "name": "Android"
    }
  ],
  "provider_games": [
    {
      "name": "Dragon Ball: Tap Battle",
      "slug": "dragon-ball-tap-battle",
      "service": "igdb"
    }
  ],
  "aliases": [],
  "shaders": [],
  "discord_id": "",
  "change_for": null
}