{
  "id": 90675,
  "name": "Popscene (Backstage Pass)",
  "slug": "popscene-backstage-pass",
  "year": null,
  "banner_url": "",
  "icon_url": "",
  "coverart": null,
  "platforms": [],
  "provider_games": [
    {
      "name": "Popscene (Backstage Pass)",
      "slug": "popscene-backstage-pass",
      "service": "igdb"
    }
  ],
  "aliases": [],
  "shaders": [],
  "discord_id": "",
  "change_for": null
}