{
  "id": 15491,
  "game_id": 16721,
  "game_slug": "starship-titanic",
  "name": "Starship Titanic",
  "year": 1998,
  "user": "appoloin",
  "runner": "scummvm",
  "slug": "starship-titanic-dvd",
  "version": "DVD",
  "description": "The game is played using ScummVm,  but WINE is used to run the installer as some necessary files are contained within the setup.exe.",
  "notes": "",
  "credits": "",
  "created_at": "2019-09-12T18:18:44.009000Z",
  "updated_at": "2021-12-12T02:37:53.168352Z",
  "draft": false,
  "published": true,
  "published_by": 51687,
  "rating": "",
  "is_playable": null,
  "steamid": 467290,
  "gogid": 1441102382,
  "gogslug": "starship_titanic",
  "humbleid": "",
  "humblestoreid": "",
  "humblestoreid_real": "",
  "script": {
    "game": {
      "game_id": "Titanic",
      "path": "$GAMEDIR"
    },
    "installer": [
      {
        "insert-disc": {
          "description": "Please insert disc",
          "requires": "setup.exe"
        }
      },
      {
        "copy": {
          "dst": "$GAMEDIR/assets",
          "src": "$DISC/Assets"
        }
      },
      {
        "execute": {
          "args": "-R 775  \"$GAMEDIR/assets\"",
          "file": "/bin/chmod"
        }
      },
      {
        "task": {
          "arch": "win32",
          "install_mono": false,
          "name": "wine.create_prefix",
          "prefix": "$GAMEDIR"
        }
      },
      {
        "task": {
          "arch": "win32",
          "executable": "$DISC/SETUP.EXE",
          "name": "wine.wineexec",
          "prefix": "$GAMEDIR"
        }
      },
      {
        "copy": {
          "dst": "$GAMEDIR",
          "src": "$GAMEDIR/drive_c/Program Files/The Digital Village/Starship Titanic/newgame.st"
        }
      },
      {
        "copy": {
          "dst": "$GAMEDIR/assets",
          "src": "$GAMEDIR/drive_c/Program Files/The Digital Village/Starship Titanic/Assets"
        }
      },
      {
        "execute": {
          "args": "-r $GAMEDIR/drive_c",
          "file": "/bin/rm"
        }
      },
      {
        "execute": {
          "args": "-r $GAMEDIR/dosdevices",
          "file": "/bin/rm"
        }
      },
      {
        "execute": {
          "args": "-r $GAMEDIR/system.reg",
          "file": "/bin/rm"
        }
      },
      {
        "execute": {
          "args": "-r $GAMEDIR/user.reg",
          "file": "/bin/rm"
        }
      },
      {
        "execute": {
          "args": "-r $GAMEDIR/userdef.reg",
          "file": "/bin/rm"
        }
      }
    ]
  },
  "content": "game:\n  game_id: Titanic\n  path: $GAMEDIR\ninstaller:\n- insert-disc:\n    description: Please insert disc\n    requires: setup.exe\n- copy:\n    dst: $GAMEDIR/assets\n    src: $DISC/Assets\n- execute:\n    args: -R 775  \"$GAMEDIR/assets\"\n    file: /bin/chmod\n- task:\n    arch: win32\n    install_mono: false\n    name: wine.create_prefix\n    prefix: $GAMEDIR\n- task:\n    arch: win32\n    executable: $DISC/SETUP.EXE\n    name: wine.wineexec\n    prefix: $GAMEDIR\n- copy:\n    dst: $GAMEDIR\n    src: $GAMEDIR/drive_c/Program Files/The Digital Village/Starship Titanic/newgame.st\n- copy:\n    dst: $GAMEDIR/assets\n    src: $GAMEDIR/drive_c/Program Files/The Digital Village/Starship Titanic/Assets\n- execute:\n    args: -r $GAMEDIR/drive_c\n    file: /bin/rm\n- execute:\n    args: -r $GAMEDIR/dosdevices\n    file: /bin/rm\n- execute:\n    args: -r $GAMEDIR/system.reg\n    file: /bin/rm\n- execute:\n    args: -r $GAMEDIR/user.reg\n    file: /bin/rm\n- execute:\n    args: -r $GAMEDIR/userdef.reg\n    file: /bin/rm\n",
  "discord_id": ""
}