{
  "id": 110501,
  "name": "Raiders Sphere 4th",
  "slug": "raiders-sphere-4th",
  "year": null,
  "banner_url": "",
  "icon_url": "",
  "coverart": "https://lutris.net/media/igdb/cover_big/co2z67.jpg",
  "platforms": [],
  "provider_games": [
    {
      "name": "Raiders Sphere 4th",
      "slug": "raiders-sphere-4th",
      "service": "igdb"
    }
  ],
  "aliases": [],
  "shaders": [],
  "discord_id": "",
  "change_for": null
}