{
  "id": 156730,
  "name": "Yume Nikki: Dream Diary",
  "slug": "yume-nikki-dream-diary",
  "year": 2018,
  "banner_url": "",
  "icon_url": "",
  "coverart": "https://lutris.net/media/igdb/cover_big/co26aw.jpg",
  "platforms": [
    {
      "name": "Nintendo Switch"
    },
    {
      "name": "Windows"
    }
  ],
  "provider_games": [
    {
      "name": "Yume Nikki: Dream Diary",
      "slug": "yume-nikki-dream-diary",
      "service": "igdb"
    }
  ],
  "aliases": [],
  "shaders": [],
  "discord_id": "",
  "change_for": null
}