{
  "id": 145203,
  "name": "SpongeBob's Atlantis Squarepantis",
  "slug": "spongebobs-atlantis-squarepantis",
  "year": 2007,
  "banner_url": "",
  "icon_url": "",
  "coverart": "https://lutris.net/media/igdb/cover_big/co3vm1.jpg",
  "platforms": [
    {
      "name": "Nintendo DS"
    },
    {
      "name": "Nintendo Game Boy Advance"
    },
    {
      "name": "Nintendo Wii"
    },
    {
      "name": "Sony PlayStation 2"
    }
  ],
  "provider_games": [
    {
      "name": "SpongeBob's Atlantis Squarepantis",
      "slug": "spongebobs-atlantis-squarepantis",
      "service": "igdb"
    }
  ],
  "aliases": [],
  "shaders": [],
  "discord_id": "",
  "change_for": null
}