{
  "id": 113627,
  "name": "Pokonyan! Henpokorin Adventure",
  "slug": "pokonyan-henpokorin-adventure",
  "year": 1995,
  "banner_url": "",
  "icon_url": "",
  "coverart": "https://lutris.net/media/igdb/cover_big/co39pd.jpg",
  "platforms": [
    {
      "name": "Super Nintendo"
    }
  ],
  "provider_games": [
    {
      "name": "Pokonyan! Henpokorin Adventure",
      "slug": "pokonyan-henpokorin-adventure",
      "service": "igdb"
    }
  ],
  "aliases": [],
  "shaders": [],
  "discord_id": "",
  "change_for": null
}