{
  "id": 203089,
  "name": "Circa Infinity: Ultimate Edition",
  "slug": "circa-infinity-ultimate-edition",
  "year": 2021,
  "banner_url": "",
  "icon_url": "",
  "coverart": "https://lutris.net/media/igdb/cover_big/co4clt.jpg",
  "platforms": [
    {
      "name": "Nintendo Switch"
    }
  ],
  "provider_games": [
    {
      "name": "Circa Infinity: Ultimate Edition",
      "slug": "circa-infinity-ultimate-edition",
      "service": "igdb"
    }
  ],
  "aliases": [],
  "shaders": [],
  "discord_id": "",
  "change_for": null
}