{
  "id": 6381,
  "name": "Danganronpa 2: Goodbye Despair",
  "slug": "danganronpa-2-goodbye-despair",
  "year": 2012,
  "banner_url": "https://lutris.net/games/banner/danganronpa-2-goodbye-despair.jpg",
  "icon_url": "https://lutris.net/games/icon/danganronpa-2-goodbye-despair.png",
  "coverart": "https://lutris.net/media/igdb/cover_big/co2h6j.jpg",
  "platforms": [
    {
      "name": "Linux"
    },
    {
      "name": "Mac"
    },
    {
      "name": "Nintendo Switch"
    },
    {
      "name": "PlayStation Vita"
    },
    {
      "name": "Sony PSP"
    },
    {
      "name": "Windows"
    }
  ],
  "provider_games": [
    {
      "name": "Danganronpa 2: Goodbye Despair",
      "slug": "413420",
      "service": "steam"
    },
    {
      "name": "Danganronpa 2: Goodbye Despair",
      "slug": "danganronpa-2-goodbye-despair",
      "service": "igdb"
    }
  ],
  "aliases": [],
  "shaders": [],
  "discord_id": "",
  "change_for": null
}