{
  "id": 26600,
  "name": "Unknown Fate",
  "slug": "unknown-fate",
  "year": 2018,
  "banner_url": "https://lutris.net/games/banner/unknown-fate.jpg",
  "icon_url": "https://lutris.net/games/icon/unknown-fate.png",
  "coverart": "https://lutris.net/media/igdb/cover_big/co249o.jpg",
  "platforms": [
    {
      "name": "Android"
    },
    {
      "name": "Mac"
    },
    {
      "name": "Nintendo Switch"
    },
    {
      "name": "Sony Playstation 4"
    },
    {
      "name": "Windows"
    },
    {
      "name": "Xbox One"
    }
  ],
  "provider_games": [
    {
      "name": "Unknown Fate",
      "slug": "510390",
      "service": "steam"
    },
    {
      "name": "Unknown Fate",
      "slug": "unknown-fate",
      "service": "igdb"
    }
  ],
  "aliases": [],
  "shaders": [],
  "discord_id": "",
  "change_for": null
}