{
  "id": 41085,
  "name": "B2B Branding",
  "slug": "b2b-branding",
  "year": null,
  "banner_url": "https://lutris.net/games/banner/b2b-branding.jpg",
  "icon_url": "",
  "coverart": null,
  "platforms": [],
  "provider_games": [],
  "aliases": [],
  "shaders": [],
  "discord_id": "",
  "change_for": null
}