{
  "id": 301195,
  "name": "Pyun Pyun Heart Throbbing Endless Love Bakery",
  "slug": "pyun-pyun-heart-throbbing-endless-love-bakery",
  "year": null,
  "banner_url": "",
  "icon_url": "",
  "coverart": "https://lutris.net/media/igdb/cover_big/co9265.jpg",
  "platforms": [],
  "provider_games": [
    {
      "name": "Pyun Pyun Heart Throbbing Endless Love Bakery",
      "slug": "pyun-pyun-heart-throbbing-endless-love-bakery",
      "service": "igdb"
    }
  ],
  "aliases": [],
  "shaders": [],
  "discord_id": "",
  "change_for": null
}