{
  "id": 245366,
  "name": "Battery Samurai",
  "slug": "battery-samurai",
  "year": null,
  "banner_url": "",
  "icon_url": "",
  "coverart": "https://lutris.net/media/igdb/cover_big/co6e4e.jpg",
  "platforms": [],
  "provider_games": [
    {
      "name": "Battery Samurai",
      "slug": "battery-samurai",
      "service": "igdb"
    }
  ],
  "aliases": [],
  "shaders": [],
  "discord_id": "",
  "change_for": null
}