{
  "id": 73428,
  "name": "Burn Ban",
  "slug": "burn-ban",
  "year": null,
  "banner_url": "",
  "icon_url": "",
  "coverart": null,
  "platforms": [],
  "provider_games": [
    {
      "name": "Burn Ban",
      "slug": "burn-ban",
      "service": "igdb"
    }
  ],
  "aliases": [],
  "shaders": [],
  "discord_id": "",
  "change_for": null
}