{
  "id": 75321,
  "name": "Legions Masters",
  "slug": "legions-masters",
  "year": null,
  "banner_url": "",
  "icon_url": "",
  "coverart": null,
  "platforms": [],
  "provider_games": [
    {
      "name": "Legions Masters",
      "slug": "legions-masters",
      "service": "igdb"
    }
  ],
  "aliases": [],
  "shaders": [],
  "discord_id": "",
  "change_for": null
}