{
  "id": 300468,
  "name": "Wake Up Before You Get Killed, Minions!",
  "slug": "wake-up-before-you-get-killed-minions",
  "year": 2014,
  "banner_url": "",
  "icon_url": "",
  "coverart": null,
  "platforms": [
    {
      "name": "Windows"
    }
  ],
  "provider_games": [
    {
      "name": "Wake Up Before You Get Killed, Minions!",
      "slug": "wake-up-before-you-get-killed-minions",
      "service": "igdb"
    }
  ],
  "aliases": [],
  "shaders": [],
  "discord_id": "",
  "change_for": null
}