{
  "id": 48707,
  "name": "Chaotic: Shadow Warriors",
  "slug": "chaotic-shadow-warriors",
  "year": 2009,
  "banner_url": "",
  "icon_url": "",
  "coverart": "https://lutris.net/media/igdb/cover_big/p3fctqyphcovuxno5d0y.jpg",
  "platforms": [
    {
      "name": "Sony Playstation 3"
    },
    {
      "name": "Xbox 360"
    }
  ],
  "provider_games": [
    {
      "name": "Chaotic: Shadow Warriors",
      "slug": "chaotic-shadow-warriors",
      "service": "igdb"
    }
  ],
  "aliases": [],
  "shaders": [],
  "discord_id": "",
  "change_for": null
}