{
  "id": 305349,
  "name": "Dragon Ball Z: Earth Defender",
  "slug": "dragon-ball-z-earth-defender",
  "year": null,
  "banner_url": "",
  "icon_url": "",
  "coverart": null,
  "platforms": [
    {
      "name": "Browser"
    }
  ],
  "provider_games": [
    {
      "name": "Dragon Ball Z: Earth Defender",
      "slug": "dragon-ball-z-earth-defender",
      "service": "igdb"
    }
  ],
  "aliases": [],
  "shaders": [],
  "discord_id": "",
  "change_for": null
}