{
  "id": 245351,
  "name": "Bubble Bubbling",
  "slug": "bubble-bubbling",
  "year": null,
  "banner_url": "",
  "icon_url": "",
  "coverart": null,
  "platforms": [],
  "provider_games": [
    {
      "name": "Bubble Bubbling",
      "slug": "bubble-bubbling",
      "service": "igdb"
    }
  ],
  "aliases": [],
  "shaders": [],
  "discord_id": "",
  "change_for": null
}