{
  "id": 228340,
  "name": "Kingdom Under Fire: Avalanche",
  "slug": "kingdom-under-fire-avalanche",
  "year": null,
  "banner_url": "",
  "icon_url": "",
  "coverart": "https://lutris.net/media/igdb/cover_big/co4w11.jpg",
  "platforms": [
    {
      "name": "Windows"
    }
  ],
  "provider_games": [
    {
      "name": "Kingdom Under Fire: Avalanche",
      "slug": "kingdom-under-fire-avalanche",
      "service": "igdb"
    }
  ],
  "aliases": [],
  "shaders": [],
  "discord_id": "",
  "change_for": null
}