{
  "id": 35525,
  "name": "Ripper Ribbit",
  "slug": "ripper-ribbit",
  "year": 1997,
  "banner_url": "",
  "icon_url": "https://lutris.net/games/icon/ripper-ribbit.png",
  "coverart": null,
  "platforms": [
    {
      "name": "Arcade"
    }
  ],
  "provider_games": [
    {
      "name": "Ripper Ribbit",
      "slug": "ripribit",
      "service": "mame"
    },
    {
      "name": "Ripper Ribbit",
      "slug": "ripper-ribbit",
      "service": "igdb"
    }
  ],
  "aliases": [],
  "shaders": [],
  "discord_id": "",
  "change_for": null
}