{
  "id": 168935,
  "name": "Lone Archer",
  "slug": "lone-archer",
  "year": null,
  "banner_url": "",
  "icon_url": "",
  "coverart": "https://lutris.net/media/igdb/cover_big/co45e2.jpg",
  "platforms": [],
  "provider_games": [
    {
      "name": "Lone Archer",
      "slug": "lone-archer",
      "service": "igdb"
    }
  ],
  "aliases": [],
  "shaders": [],
  "discord_id": "",
  "change_for": null
}