{
  "id": 226637,
  "name": "I'm Keyboardman",
  "slug": "im-keyboardman",
  "year": null,
  "banner_url": "",
  "icon_url": "",
  "coverart": null,
  "platforms": [],
  "provider_games": [
    {
      "name": "I'm Keyboardman",
      "slug": "im-keyboardman",
      "service": "igdb"
    }
  ],
  "aliases": [],
  "shaders": [],
  "discord_id": "",
  "change_for": null
}