{
  "id": 198608,
  "name": "Ganbare Goemon: Tengu-tou no Gyakushuu!",
  "slug": "ganbare-goemon-tengu-tou-no-gyakushuu",
  "year": 1999,
  "banner_url": "",
  "icon_url": "",
  "coverart": null,
  "platforms": [
    {
      "name": "Nintendo Game Boy Color"
    }
  ],
  "provider_games": [
    {
      "name": "Ganbare Goemon: Tengu-tou no Gyakushuu!",
      "slug": "ganbare-goemon-tengu-tou-no-gyakushuu",
      "service": "igdb"
    }
  ],
  "aliases": [],
  "shaders": [],
  "discord_id": "",
  "change_for": null
}