{
  "id": 140242,
  "name": "Fluffy Bastards",
  "slug": "fluffy-bastards",
  "year": null,
  "banner_url": "",
  "icon_url": "",
  "coverart": "https://lutris.net/media/igdb/cover_big/co3scc.jpg",
  "platforms": [],
  "provider_games": [
    {
      "name": "Fluffy Bastards",
      "slug": "fluffy-bastards",
      "service": "igdb"
    }
  ],
  "aliases": [],
  "shaders": [],
  "discord_id": "",
  "change_for": null
}