{
  "id": 14523,
  "name": "Bishi Bashi Special",
  "slug": "bishi-bashi-special",
  "year": 1998,
  "banner_url": "https://lutris.net/games/banner/bishi-bashi-special.jpg",
  "icon_url": "",
  "coverart": "https://lutris.net/media/igdb/cover_big/q1pprgesbvnqqxidhnlp.jpg",
  "platforms": [
    {
      "name": "Sony PlayStation"
    },
    {
      "name": "Sony PSP"
    }
  ],
  "provider_games": [
    {
      "name": "Bishi Bashi Special",
      "slug": "bishi-bashi-special",
      "service": "igdb"
    }
  ],
  "aliases": [],
  "shaders": [],
  "discord_id": "",
  "change_for": null
}