{
  "id": 252740,
  "name": "Celeste Classic 2: Lani's Trek",
  "slug": "celeste-classic-2-lanis-trek",
  "year": 2021,
  "banner_url": "",
  "icon_url": "",
  "coverart": null,
  "platforms": [
    {
      "name": "Browser"
    },
    {
      "name": "Linux"
    },
    {
      "name": "Mac"
    },
    {
      "name": "Windows"
    }
  ],
  "provider_games": [
    {
      "name": "Celeste Classic 2: Lani's Trek",
      "slug": "celeste-classic-2-lanis-trek",
      "service": "igdb"
    }
  ],
  "aliases": [],
  "shaders": [],
  "discord_id": "",
  "change_for": null
}