{
  "id": 164509,
  "name": "Greetings From Krampus!",
  "slug": "greetings-from-krampus",
  "year": null,
  "banner_url": "",
  "icon_url": "",
  "coverart": "https://lutris.net/media/igdb/cover_big/co41gs.jpg",
  "platforms": [],
  "provider_games": [
    {
      "name": "Greetings From Krampus!",
      "slug": "greetings-from-krampus",
      "service": "igdb"
    }
  ],
  "aliases": [],
  "shaders": [],
  "discord_id": "",
  "change_for": null
}