{
  "id": 280108,
  "name": "Starseed: Asnia Trigger",
  "slug": "starseed-asnia-trigger",
  "year": 2024,
  "banner_url": "",
  "icon_url": "",
  "coverart": "https://lutris.net/media/igdb/cover_big/co807s.jpg",
  "platforms": [
    {
      "name": "Android"
    }
  ],
  "provider_games": [
    {
      "name": "Starseed: Asnia Trigger",
      "slug": "starseed-asnia-trigger",
      "service": "igdb"
    }
  ],
  "aliases": [],
  "shaders": [],
  "discord_id": "",
  "change_for": null
}