{
  "id": 242919,
  "name": "Neon City",
  "slug": "neon-city--1",
  "year": null,
  "banner_url": "",
  "icon_url": "",
  "coverart": "https://lutris.net/media/igdb/cover_big/co6h8j.jpg",
  "platforms": [],
  "provider_games": [
    {
      "name": "Neon City",
      "slug": "neon-city--1",
      "service": "igdb"
    }
  ],
  "aliases": [],
  "shaders": [],
  "discord_id": "",
  "change_for": null
}