{
  "id": 304604,
  "name": "101 Cats Hidden in Istanbul",
  "slug": "101-cats-hidden-in-istanbul",
  "year": null,
  "banner_url": "",
  "icon_url": "",
  "coverart": "https://lutris.net/media/igdb/cover_big/co9a0p.jpg",
  "platforms": [],
  "provider_games": [
    {
      "name": "101 Cats Hidden in Istanbul",
      "slug": "101-cats-hidden-in-istanbul",
      "service": "igdb"
    }
  ],
  "aliases": [],
  "shaders": [],
  "discord_id": "",
  "change_for": null
}