{
  "id": 65451,
  "name": "Minna de Asobo: Shanghai DS 2",
  "slug": "minna-de-asobo-shanghai-ds-2",
  "year": null,
  "banner_url": "",
  "icon_url": "",
  "coverart": "https://lutris.net/media/igdb/cover_big/ddd1xcyxbvq2mw0p8tqa.jpg",
  "platforms": [],
  "provider_games": [
    {
      "name": "Minna de Asobo: Shanghai DS 2",
      "slug": "minna-de-asobo-shanghai-ds-2",
      "service": "igdb"
    }
  ],
  "aliases": [],
  "shaders": [],
  "discord_id": "",
  "change_for": null
}