{
  "id": 247871,
  "name": "Stardust Defenders",
  "slug": "stardust-defenders",
  "year": null,
  "banner_url": "",
  "icon_url": "",
  "coverart": "https://lutris.net/media/igdb/cover_big/co6kyg.jpg",
  "platforms": [],
  "provider_games": [
    {
      "name": "Stardust Defenders",
      "slug": "stardust-defenders",
      "service": "igdb"
    }
  ],
  "aliases": [],
  "shaders": [],
  "discord_id": "",
  "change_for": null
}