{
  "id": 118359,
  "name": "Touhou Shinreibyou: Ten Desires",
  "slug": "touhou-shinreibyou-ten-desires",
  "year": 2011,
  "banner_url": "",
  "icon_url": "",
  "coverart": "https://lutris.net/media/igdb/cover_big/co2vti.jpg",
  "platforms": [
    {
      "name": "Windows"
    }
  ],
  "provider_games": [
    {
      "name": "Touhou Shinreibyou: Ten Desires",
      "slug": "touhou-shinreibyou-ten-desires",
      "service": "igdb"
    }
  ],
  "aliases": [],
  "shaders": [],
  "discord_id": "",
  "change_for": null
}