{
  "id": 22143,
  "name": "Ocean Rift",
  "slug": "ocean-rift",
  "year": 2017,
  "banner_url": "https://lutris.net/games/banner/ocean-rift.jpg",
  "icon_url": "https://lutris.net/games/icon/ocean-rift.png",
  "coverart": "https://lutris.net/media/igdb/cover_big/co70bh.jpg",
  "platforms": [
    {
      "name": "Windows"
    }
  ],
  "provider_games": [
    {
      "name": "Ocean Rift",
      "slug": "422760",
      "service": "steam"
    },
    {
      "name": "Ocean Rift",
      "slug": "ocean-rift",
      "service": "igdb"
    }
  ],
  "aliases": [],
  "shaders": [],
  "discord_id": "",
  "change_for": null
}