{
  "id": 195348,
  "name": "Our Ninja World",
  "slug": "our-ninja-world",
  "year": null,
  "banner_url": "",
  "icon_url": "",
  "coverart": "https://lutris.net/media/igdb/cover_big/co4pej.jpg",
  "platforms": [],
  "provider_games": [
    {
      "name": "Our Ninja World",
      "slug": "our-ninja-world",
      "service": "igdb"
    }
  ],
  "aliases": [],
  "shaders": [],
  "discord_id": "",
  "change_for": null
}