{
  "id": 46427,
  "name": "Nymphomania Paradox",
  "slug": "nymphomania-paradox",
  "year": null,
  "banner_url": "",
  "icon_url": "",
  "coverart": "https://lutris.net/media/igdb/cover_big/qgrsvkwx8arxi6rcf2bw.jpg",
  "platforms": [],
  "provider_games": [
    {
      "name": "Nymphomania Paradox",
      "slug": "nymphomania-paradox",
      "service": "igdb"
    }
  ],
  "aliases": [],
  "shaders": [],
  "discord_id": "",
  "change_for": null
}