{
  "id": 233892,
  "name": "The Island: Brave Heart",
  "slug": "the-island-brave-heart",
  "year": null,
  "banner_url": "",
  "icon_url": "",
  "coverart": null,
  "platforms": [],
  "provider_games": [
    {
      "name": "The Island: Brave Heart",
      "slug": "the-island-brave-heart",
      "service": "igdb"
    }
  ],
  "aliases": [],
  "shaders": [],
  "discord_id": "",
  "change_for": null
}