{
  "id": 199262,
  "name": "Maze Art: Blue",
  "slug": "maze-art-blue",
  "year": null,
  "banner_url": "",
  "icon_url": "",
  "coverart": "https://lutris.net/media/igdb/cover_big/co4g6b.jpg",
  "platforms": [],
  "provider_games": [
    {
      "name": "Maze Art: Blue",
      "slug": "maze-art-blue",
      "service": "igdb"
    }
  ],
  "aliases": [],
  "shaders": [],
  "discord_id": "",
  "change_for": null
}