{
  "id": 93790,
  "name": "Solitaire Retro",
  "slug": "solitaire-retro",
  "year": null,
  "banner_url": "",
  "icon_url": "",
  "coverart": null,
  "platforms": [],
  "provider_games": [
    {
      "name": "Solitaire Retro",
      "slug": "solitaire-retro",
      "service": "igdb"
    }
  ],
  "aliases": [],
  "shaders": [],
  "discord_id": "",
  "change_for": null
}