{
  "id": 232385,
  "name": "I Was Dead, But…",
  "slug": "i-was-dead-but-dot-dot-dot",
  "year": null,
  "banner_url": "",
  "icon_url": "",
  "coverart": "https://lutris.net/media/igdb/cover_big/co827w.jpg",
  "platforms": [],
  "provider_games": [
    {
      "name": "I Was Dead, But…",
      "slug": "i-was-dead-but-dot-dot-dot",
      "service": "igdb"
    }
  ],
  "aliases": [],
  "shaders": [],
  "discord_id": "",
  "change_for": null
}