{
  "id": 21288,
  "name": "Simple Golfing",
  "slug": "simple-golfing",
  "year": null,
  "banner_url": "https://lutris.net/games/banner/simple-golfing.jpg",
  "icon_url": "https://lutris.net/games/icon/simple-golfing.png",
  "coverart": "https://lutris.net/media/igdb/cover_big/co54hw.jpg",
  "platforms": [],
  "provider_games": [
    {
      "name": "Simple Golfing",
      "slug": "simple-golfing",
      "service": "igdb"
    }
  ],
  "aliases": [],
  "shaders": [],
  "discord_id": "",
  "change_for": null
}