{
  "id": 79302,
  "name": "Rugby League Live 4: World Cup Edition",
  "slug": "rugby-league-live-4-world-cup-edition",
  "year": 2017,
  "banner_url": "",
  "icon_url": "",
  "coverart": "https://lutris.net/media/igdb/cover_big/co27w7.jpg",
  "platforms": [
    {
      "name": "Xbox One"
    }
  ],
  "provider_games": [
    {
      "name": "Rugby League Live 4: World Cup Edition",
      "slug": "rugby-league-live-4-world-cup-edition",
      "service": "igdb"
    }
  ],
  "aliases": [],
  "shaders": [],
  "discord_id": "",
  "change_for": null
}