{
  "id": 56626,
  "name": "Combat Mission Afghanistan",
  "slug": "combat-mission-afghanistan",
  "year": null,
  "banner_url": "",
  "icon_url": "",
  "coverart": "https://lutris.net/media/igdb/cover_big/ctsqwebjwablbpmicslp.jpg",
  "platforms": [],
  "provider_games": [
    {
      "name": "Combat Mission Afghanistan",
      "slug": "combat-mission-afghanistan",
      "service": "igdb"
    }
  ],
  "aliases": [],
  "shaders": [],
  "discord_id": "",
  "change_for": null
}