{
  "id": 248753,
  "name": "Completely Fictional Story About a City Inside a Whale",
  "slug": "completely-fictional-story-about-a-city-inside-a-whale",
  "year": null,
  "banner_url": "",
  "icon_url": "",
  "coverart": "https://lutris.net/media/igdb/cover_big/co6n7g.jpg",
  "platforms": [],
  "provider_games": [
    {
      "name": "Completely Fictional Story About a City Inside a Whale",
      "slug": "completely-fictional-story-about-a-city-inside-a-whale",
      "service": "igdb"
    }
  ],
  "aliases": [],
  "shaders": [],
  "discord_id": "",
  "change_for": null
}