{
  "id": 66142,
  "name": "Empire of Sports",
  "slug": "empire-of-sports",
  "year": null,
  "banner_url": "",
  "icon_url": "",
  "coverart": "https://lutris.net/media/igdb/cover_big/dwaif5ah7fr1dn7rp6pb.jpg",
  "platforms": [],
  "provider_games": [
    {
      "name": "Empire of Sports",
      "slug": "empire-of-sports",
      "service": "igdb"
    }
  ],
  "aliases": [],
  "shaders": [],
  "discord_id": "",
  "change_for": null
}