{
  "id": 224511,
  "name": "Alpha Pairs",
  "slug": "alpha-pairs",
  "year": null,
  "banner_url": "",
  "icon_url": "",
  "coverart": "https://lutris.net/media/igdb/cover_big/co5795.jpg",
  "platforms": [],
  "provider_games": [
    {
      "name": "Alpha Pairs",
      "slug": "alpha-pairs",
      "service": "igdb"
    }
  ],
  "aliases": [],
  "shaders": [],
  "discord_id": "",
  "change_for": null
}