{
  "id": 261994,
  "name": "4x4 Mud: Offroad Car Simulator & Truck",
  "slug": "4x4-mud-offroad-car-simulator-and-truck",
  "year": null,
  "banner_url": "",
  "icon_url": "",
  "coverart": null,
  "platforms": [],
  "provider_games": [
    {
      "name": "4x4 Mud: Offroad Car Simulator & Truck",
      "slug": "4x4-mud-offroad-car-simulator-and-truck",
      "service": "igdb"
    }
  ],
  "aliases": [],
  "shaders": [],
  "discord_id": "",
  "change_for": null
}