{
  "id": 167278,
  "name": "The Living Remain",
  "slug": "the-living-remain",
  "year": null,
  "banner_url": "https://lutris.net/games/banner/the-living-remain.jpg",
  "icon_url": "",
  "coverart": "https://lutris.net/media/igdb/cover_big/co43xs.jpg",
  "platforms": [],
  "provider_games": [
    {
      "name": "The Living Remain",
      "slug": "594220",
      "service": "steam"
    },
    {
      "name": "The Living Remain",
      "slug": "the-living-remain",
      "service": "igdb"
    }
  ],
  "aliases": [],
  "shaders": [],
  "discord_id": "",
  "change_for": null
}