{
  "id": 207411,
  "name": "Shall we date?: Magic Sword",
  "slug": "shall-we-date-magic-sword",
  "year": 2013,
  "banner_url": "",
  "icon_url": "",
  "coverart": "https://lutris.net/media/igdb/cover_big/co5rcz.jpg",
  "platforms": [
    {
      "name": "Android"
    }
  ],
  "provider_games": [
    {
      "name": "Shall we date?: Magic Sword",
      "slug": "shall-we-date-magic-sword",
      "service": "igdb"
    }
  ],
  "aliases": [],
  "shaders": [],
  "discord_id": "",
  "change_for": null
}