{
  "id": 69195,
  "name": "Kisaragi's Dangerously Erotic Certification Exam! Resistance Is Futile",
  "slug": "kisaragis-dangerously-erotic-certification-exam-resistance-is-futile",
  "year": null,
  "banner_url": "",
  "icon_url": "",
  "coverart": "https://lutris.net/media/igdb/cover_big/kogqxfdcvofmyaxtphvf.jpg",
  "platforms": [],
  "provider_games": [
    {
      "name": "Kisaragi's Dangerously Erotic Certification Exam! Resistance Is Futile",
      "slug": "kisaragis-dangerously-erotic-certification-exam-resistance-is-futile",
      "service": "igdb"
    }
  ],
  "aliases": [],
  "shaders": [],
  "discord_id": "",
  "change_for": null
}