{
  "id": 143750,
  "name": "Swordsman 3: Xie Yun Liu Chuan",
  "slug": "swordsman-3-xie-yun-liu-chuan",
  "year": null,
  "banner_url": "",
  "icon_url": "",
  "coverart": "https://lutris.net/media/igdb/cover_big/co3uiw.jpg",
  "platforms": [
    {
      "name": "Windows"
    }
  ],
  "provider_games": [
    {
      "name": "Swordsman 3: Xie Yun Liu Chuan",
      "slug": "swordsman-3-xie-yun-liu-chuan",
      "service": "igdb"
    }
  ],
  "aliases": [],
  "shaders": [],
  "discord_id": "",
  "change_for": null
}