{
  "id": 158925,
  "name": "Ribby Rocket",
  "slug": "ribby-rocket",
  "year": null,
  "banner_url": "",
  "icon_url": "",
  "coverart": "https://lutris.net/media/igdb/cover_big/co3yiv.jpg",
  "platforms": [],
  "provider_games": [
    {
      "name": "Ribby Rocket",
      "slug": "ribby-rocket",
      "service": "igdb"
    }
  ],
  "aliases": [],
  "shaders": [],
  "discord_id": "",
  "change_for": null
}