{
  "id": 1656,
  "name": "Jack Orlando Director's Cut",
  "slug": "jack-orlando-directors-cut",
  "year": 2013,
  "banner_url": "https://lutris.net/games/banner/jack-orlando-directors-cut.jpg",
  "icon_url": "https://lutris.net/games/icon/jack-orlando-directors-cut.png",
  "coverart": "https://lutris.net/media/igdb/cover_big/co449t.jpg",
  "platforms": [
    {
      "name": "Linux"
    },
    {
      "name": "Mac"
    },
    {
      "name": "Windows"
    }
  ],
  "provider_games": [
    {
      "name": "Jack Orlando Director's Cut",
      "slug": "253960",
      "service": "steam"
    },
    {
      "name": "Jack Orlando: Director's Cut",
      "slug": "jack-orlando-directors-cut",
      "service": "igdb"
    }
  ],
  "aliases": [],
  "shaders": [],
  "discord_id": "",
  "change_for": null
}