{
  "id": 196214,
  "name": "Lifecraft",
  "slug": "lifecraft",
  "year": null,
  "banner_url": "",
  "icon_url": "",
  "coverart": "https://lutris.net/media/igdb/cover_big/co4npy.jpg",
  "platforms": [],
  "provider_games": [
    {
      "name": "Lifecraft",
      "slug": "lifecraft",
      "service": "igdb"
    },
    {
      "name": "Lifecraft",
      "slug": "1878398964",
      "service": "gog"
    }
  ],
  "aliases": [],
  "shaders": [],
  "discord_id": "",
  "change_for": null
}