{
  "id": 271035,
  "name": "Elf Adventure",
  "slug": "elf-adventure",
  "year": null,
  "banner_url": "",
  "icon_url": "",
  "coverart": "https://lutris.net/media/igdb/cover_big/co7mnl.jpg",
  "platforms": [],
  "provider_games": [
    {
      "name": "Elf Adventure",
      "slug": "elf-adventure",
      "service": "igdb"
    }
  ],
  "aliases": [],
  "shaders": [],
  "discord_id": "",
  "change_for": null
}