{
  "id": 166932,
  "name": "Infinite Dungeon Crawler",
  "slug": "infinite-dungeon-crawler",
  "year": 2021,
  "banner_url": "",
  "icon_url": "",
  "coverart": "https://lutris.net/media/igdb/cover_big/co43kv.jpg",
  "platforms": [
    {
      "name": "Windows"
    }
  ],
  "provider_games": [
    {
      "name": "Infinite Dungeon Crawler",
      "slug": "infinite-dungeon-crawler",
      "service": "igdb"
    }
  ],
  "aliases": [],
  "shaders": [],
  "discord_id": "",
  "change_for": null
}