{
  "id": 237494,
  "name": "Doctor Who: Daleks v Cybermen",
  "slug": "doctor-who-daleks-v-cybermen",
  "year": 2006,
  "banner_url": "",
  "icon_url": "",
  "coverart": "https://lutris.net/media/igdb/cover_big/co65wv.jpg",
  "platforms": [
    {
      "name": "Browser"
    }
  ],
  "provider_games": [
    {
      "name": "Doctor Who: Daleks v Cybermen",
      "slug": "doctor-who-daleks-v-cybermen",
      "service": "igdb"
    }
  ],
  "aliases": [],
  "shaders": [],
  "discord_id": "",
  "change_for": null
}