{
  "id": 65829,
  "name": "Pete Rose Pennant Fever",
  "slug": "pete-rose-pennant-fever",
  "year": null,
  "banner_url": "",
  "icon_url": "",
  "coverart": "https://lutris.net/media/igdb/cover_big/ggdxtagnb9ce2syb6cdz.jpg",
  "platforms": [],
  "provider_games": [
    {
      "name": "Pete Rose Pennant Fever",
      "slug": "pete-rose-pennant-fever",
      "service": "igdb"
    }
  ],
  "aliases": [],
  "shaders": [],
  "discord_id": "",
  "change_for": null
}