{
  "id": 45842,
  "name": "Repton",
  "slug": "repton",
  "year": 1985,
  "banner_url": "",
  "icon_url": "",
  "coverart": "https://lutris.net/media/igdb/cover_big/li1g9uxsfd1j3bho2hhk.jpg",
  "platforms": [
    {
      "name": "Acorn Electron"
    },
    {
      "name": "BBC Microcomputer System"
    }
  ],
  "provider_games": [
    {
      "name": "Repton",
      "slug": "repton",
      "service": "igdb"
    }
  ],
  "aliases": [],
  "shaders": [],
  "discord_id": "",
  "change_for": null
}