{
  "id": 24416,
  "game_id": 40196,
  "game_slug": "summer-games-heroes",
  "name": "Summer Games Heroes",
  "year": 2020,
  "user": "vanstaveren",
  "runner": "steam",
  "slug": "summer-games-heroes-steam",
  "version": "steam",
  "description": null,
  "notes": "",
  "credits": "",
  "created_at": "2020-11-09T02:19:26.391484Z",
  "updated_at": "2021-12-13T19:10:37.325892Z",
  "draft": false,
  "published": true,
  "published_by": null,
  "rating": "",
  "is_playable": null,
  "steamid": null,
  "gogid": null,
  "gogslug": "",
  "humbleid": "",
  "humblestoreid": "",
  "humblestoreid_real": "",
  "script": {
    "game": {
      "appid": 1178430
    }
  },
  "content": "game:\n  appid: 1178430\n",
  "discord_id": ""
}