{
  "id": 15384,
  "name": "Super",
  "slug": "super",
  "year": 2017,
  "banner_url": "https://lutris.net/games/banner/super.jpg",
  "icon_url": "https://lutris.net/games/icon/super.png",
  "coverart": null,
  "platforms": [
    {
      "name": "Windows"
    }
  ],
  "provider_games": [
    {
      "name": "Super",
      "slug": "598170",
      "service": "steam"
    },
    {
      "name": "Super",
      "slug": "super",
      "service": "igdb"
    }
  ],
  "aliases": [],
  "shaders": [],
  "discord_id": "",
  "change_for": null
}