{
  "id": 8033,
  "game_id": 11631,
  "game_slug": "marvel-ultimate-alliance-2",
  "name": "Marvel: Ultimate Alliance 2",
  "year": 2016,
  "user": "TuiorGames",
  "runner": "steam",
  "slug": "marvel-ultimate-alliance-2-proton",
  "version": "Proton",
  "description": null,
  "notes": "",
  "credits": "",
  "created_at": "2018-05-01T22:40:29.287242Z",
  "updated_at": "2021-05-04T02:43:08.214069Z",
  "draft": false,
  "published": true,
  "published_by": null,
  "rating": "",
  "is_playable": null,
  "steamid": 433320,
  "gogid": null,
  "gogslug": "",
  "humbleid": "",
  "humblestoreid": "",
  "humblestoreid_real": "",
  "script": {
    "game": {
      "appid": 433320
    }
  },
  "content": "game:\n  appid: 433320\n",
  "discord_id": ""
}