{
  "id": 258974,
  "name": "Unheard - Voices of Crime",
  "slug": "unheard-voices-of-crime",
  "year": 2023,
  "banner_url": "",
  "icon_url": "",
  "coverart": null,
  "platforms": [],
  "provider_games": [
    {
      "name": "Unheard - Voices of Crime",
      "slug": "1221558384",
      "service": "gog"
    }
  ],
  "aliases": [],
  "shaders": [],
  "discord_id": "",
  "change_for": null
}