{
  "id": 84785,
  "name": "Elf Wor",
  "slug": "elf-wor",
  "year": null,
  "banner_url": "",
  "icon_url": "",
  "coverart": "https://lutris.net/media/igdb/cover_big/co9au6.jpg",
  "platforms": [],
  "provider_games": [
    {
      "name": "Elf Wor",
      "slug": "elf-wor",
      "service": "igdb"
    }
  ],
  "aliases": [],
  "shaders": [],
  "discord_id": "",
  "change_for": null
}