{
  "id": 257644,
  "name": "Latmos Explorer",
  "slug": "latmos-explorer",
  "year": null,
  "banner_url": "",
  "icon_url": "",
  "coverart": "https://lutris.net/media/igdb/cover_big/co707e.jpg",
  "platforms": [],
  "provider_games": [
    {
      "name": "Latmos Explorer",
      "slug": "latmos-explorer",
      "service": "igdb"
    }
  ],
  "aliases": [],
  "shaders": [],
  "discord_id": "",
  "change_for": null
}