{
  "id": 55207,
  "name": "Hi no Ouji: Yamato Takeru",
  "slug": "hi-no-ouji-yamato-takeru",
  "year": 1995,
  "banner_url": "",
  "icon_url": "",
  "coverart": "https://lutris.net/media/igdb/cover_big/zokeaqsq7nazglrinbrp.jpg",
  "platforms": [
    {
      "name": "Super Nintendo"
    }
  ],
  "provider_games": [
    {
      "name": "Hi no Ouji: Yamato Takeru",
      "slug": "hi-no-ouji-yamato-takeru",
      "service": "igdb"
    }
  ],
  "aliases": [],
  "shaders": [],
  "discord_id": "",
  "change_for": null
}