{
  "id": 38744,
  "name": "Dungeons & Lesbians",
  "slug": "dungeons-lesbians",
  "year": 2018,
  "banner_url": "https://lutris.net/games/banner/dungeons-lesbians.jpg",
  "icon_url": "",
  "coverart": null,
  "platforms": [
    {
      "name": "Linux"
    },
    {
      "name": "Windows"
    }
  ],
  "provider_games": [],
  "aliases": [],
  "shaders": [],
  "discord_id": "",
  "change_for": null
}