{
  "id": 251489,
  "name": "Continent of the Ninth Golden",
  "slug": "continent-of-the-ninth-golden",
  "year": 2023,
  "banner_url": "https://lutris.net/games/banner/continent-of-the-ninth-golden.jpg",
  "icon_url": "",
  "coverart": "https://lutris.net/media/igdb/cover_big/co6qff.jpg",
  "platforms": [
    {
      "name": "Windows"
    }
  ],
  "provider_games": [
    {
      "name": "Continent of the Ninth Golden",
      "slug": "2356310",
      "service": "steam"
    },
    {
      "name": "Continent of the Ninth Golden",
      "slug": "continent-of-the-ninth-golden",
      "service": "igdb"
    }
  ],
  "aliases": [],
  "shaders": [],
  "discord_id": "",
  "change_for": null
}