{
  "id": 3579,
  "game_id": 810,
  "game_slug": "stalker-clear-sky",
  "name": "S.T.A.L.K.E.R.: Clear Sky",
  "year": 2008,
  "user": "schaap137",
  "runner": "steam",
  "slug": "stalker-clear-sky-proton",
  "version": "Proton",
  "description": "",
  "notes": "",
  "credits": "",
  "created_at": "2017-04-27T22:11:10.595788Z",
  "updated_at": "2021-05-04T02:43:17.057940Z",
  "draft": false,
  "published": true,
  "published_by": null,
  "rating": "",
  "is_playable": null,
  "steamid": 20510,
  "gogid": 1207660603,
  "gogslug": "stalker_clear_sky",
  "humbleid": "",
  "humblestoreid": "",
  "humblestoreid_real": "",
  "script": {
    "game": {
      "appid": 20510
    }
  },
  "content": "game:\n  appid: 20510\n",
  "discord_id": ""
}