{
  "id": 247917,
  "name": "Castaway II: Isle of the Titans",
  "slug": "castaway-ii-isle-of-the-titans",
  "year": 2011,
  "banner_url": "",
  "icon_url": "",
  "coverart": null,
  "platforms": [
    {
      "name": "Browser"
    }
  ],
  "provider_games": [
    {
      "name": "Castaway II: Isle of the Titans",
      "slug": "castaway-ii-isle-of-the-titans",
      "service": "igdb"
    }
  ],
  "aliases": [],
  "shaders": [],
  "discord_id": "",
  "change_for": null
}