{
  "id": 166376,
  "name": "Suzumiya Haruhi no Yakusoku",
  "slug": "suzumiya-haruhi-no-yakusoku",
  "year": 2007,
  "banner_url": "",
  "icon_url": "",
  "coverart": "https://lutris.net/media/igdb/cover_big/co1q8b.jpg",
  "platforms": [
    {
      "name": "Sony PSP"
    }
  ],
  "provider_games": [
    {
      "name": "Suzumiya Haruhi no Yakusoku",
      "slug": "suzumiya-haruhi-no-yakusoku",
      "service": "igdb"
    }
  ],
  "aliases": [],
  "shaders": [],
  "discord_id": "",
  "change_for": null
}