{
  "id": 202114,
  "name": "Chaos Law",
  "slug": "chaos-law",
  "year": null,
  "banner_url": "",
  "icon_url": "",
  "coverart": "https://lutris.net/media/igdb/cover_big/co4mnx.jpg",
  "platforms": [],
  "provider_games": [
    {
      "name": "Chaos Law",
      "slug": "chaos-law",
      "service": "igdb"
    }
  ],
  "aliases": [],
  "shaders": [],
  "discord_id": "",
  "change_for": null
}