{
  "id": 226264,
  "name": "Fantasy Fighters",
  "slug": "fantasy-fighters",
  "year": null,
  "banner_url": "",
  "icon_url": "",
  "coverart": "https://lutris.net/media/igdb/cover_big/co4qu3.jpg",
  "platforms": [],
  "provider_games": [
    {
      "name": "Fantasy Fighters",
      "slug": "fantasy-fighters",
      "service": "igdb"
    }
  ],
  "aliases": [],
  "shaders": [],
  "discord_id": "",
  "change_for": null
}