{
  "id": 55204,
  "name": "Anti-Cast",
  "slug": "anti-cast",
  "year": null,
  "banner_url": "",
  "icon_url": "",
  "coverart": "https://lutris.net/media/igdb/cover_big/xozqlacs58yuwmyzdq4p.jpg",
  "platforms": [],
  "provider_games": [
    {
      "name": "Anti-Cast",
      "slug": "anti-cast",
      "service": "igdb"
    }
  ],
  "aliases": [],
  "shaders": [],
  "discord_id": "",
  "change_for": null
}