{
  "id": 46369,
  "name": "Dragon Knight & Graffiti",
  "slug": "dragon-knight-and-graffiti",
  "year": null,
  "banner_url": "",
  "icon_url": "",
  "coverart": "https://lutris.net/media/igdb/cover_big/uarbmmmv1jkahtzcw0j6.jpg",
  "platforms": [],
  "provider_games": [
    {
      "name": "Dragon Knight & Graffiti",
      "slug": "dragon-knight-and-graffiti",
      "service": "igdb"
    }
  ],
  "aliases": [],
  "shaders": [],
  "discord_id": "",
  "change_for": null
}