{
  "id": 140974,
  "name": "Big Klondike: Classic Solitaire",
  "slug": "big-klondike-classic-solitaire",
  "year": null,
  "banner_url": "",
  "icon_url": "",
  "coverart": "https://lutris.net/media/igdb/cover_big/co3sqi.jpg",
  "platforms": [],
  "provider_games": [
    {
      "name": "Big Klondike: Classic Solitaire",
      "slug": "big-klondike-classic-solitaire",
      "service": "igdb"
    }
  ],
  "aliases": [],
  "shaders": [],
  "discord_id": "",
  "change_for": null
}