{
  "id": 81599,
  "name": "Leaderboard Tournament",
  "slug": "leaderboard-tournament",
  "year": null,
  "banner_url": "",
  "icon_url": "",
  "coverart": null,
  "platforms": [],
  "provider_games": [
    {
      "name": "Leaderboard Tournament",
      "slug": "leaderboard-tournament",
      "service": "igdb"
    }
  ],
  "aliases": [],
  "shaders": [],
  "discord_id": "",
  "change_for": null
}