{
  "id": 295132,
  "name": "Olympic 2024 Journey",
  "slug": "olympic-2024-journey",
  "year": null,
  "banner_url": "",
  "icon_url": "",
  "coverart": "https://lutris.net/media/igdb/cover_big/co8s7i.jpg",
  "platforms": [],
  "provider_games": [
    {
      "name": "Olympic 2024 Journey",
      "slug": "olympic-2024-journey",
      "service": "igdb"
    }
  ],
  "aliases": [],
  "shaders": [],
  "discord_id": "",
  "change_for": null
}