{
  "id": 7261,
  "game_id": 6417,
  "game_slug": "khimera-destroy-all-monster-girls",
  "name": "Khimera: Destroy All Monster Girls",
  "year": 2016,
  "user": "Barachel",
  "runner": "steam",
  "slug": "khimera-destroy-all-monster-g-proton",
  "version": "Proton",
  "description": null,
  "notes": "Can't connect online",
  "credits": "",
  "created_at": "2018-02-07T02:12:56.356606Z",
  "updated_at": "2021-05-04T02:43:06.215248Z",
  "draft": false,
  "published": true,
  "published_by": null,
  "rating": "",
  "is_playable": null,
  "steamid": 467380,
  "gogid": null,
  "gogslug": "",
  "humbleid": "",
  "humblestoreid": "",
  "humblestoreid_real": "",
  "script": {
    "game": {
      "appid": 467380
    }
  },
  "content": "game:\n  appid: 467380\n",
  "discord_id": ""
}