{
  "id": 14171,
  "name": "Alpha Mission II",
  "slug": "alpha-mission-ii",
  "year": 1991,
  "banner_url": "https://lutris.net/games/banner/alpha-mission-ii.jpg",
  "icon_url": "",
  "coverart": "https://lutris.net/media/igdb/cover_big/co2ku8.jpg",
  "platforms": [
    {
      "name": "Neo Geo AES"
    },
    {
      "name": "Neo Geo CD"
    },
    {
      "name": "Neo Geo MVS"
    },
    {
      "name": "Nintendo Switch"
    },
    {
      "name": "Sony Playstation 4"
    },
    {
      "name": "Sony PSP"
    }
  ],
  "provider_games": [
    {
      "name": "Alpha Mission II",
      "slug": "alpha-mission-ii",
      "service": "igdb"
    },
    {
      "name": "ALPHA MISSION II",
      "slug": "1630900859",
      "service": "gog"
    }
  ],
  "aliases": [],
  "shaders": [],
  "discord_id": "",
  "change_for": null
}