{
  "id": 199368,
  "name": "Donut Dodo",
  "slug": "donut-dodo",
  "year": null,
  "banner_url": "https://lutris.net/games/banner/donut-dodo.jpg",
  "icon_url": "",
  "coverart": "https://lutris.net/media/igdb/cover_big/co4exw.jpg",
  "platforms": [],
  "provider_games": [
    {
      "name": "Donut Dodo",
      "slug": "donut-dodo",
      "service": "igdb"
    },
    {
      "name": "Donut Dodo",
      "slug": "1779560",
      "service": "steam"
    },
    {
      "name": "Donut Dodo",
      "slug": "1878239119",
      "service": "gog"
    }
  ],
  "aliases": [],
  "shaders": [],
  "discord_id": "",
  "change_for": null
}