{
  "id": 229847,
  "name": "Across the Valley",
  "slug": "across-the-valley",
  "year": 2023,
  "banner_url": "",
  "icon_url": "",
  "coverart": "https://lutris.net/media/igdb/cover_big/co5z5w.jpg",
  "platforms": [
    {
      "name": "SteamVR"
    }
  ],
  "provider_games": [
    {
      "name": "Across the Valley",
      "slug": "across-the-valley",
      "service": "igdb"
    }
  ],
  "aliases": [],
  "shaders": [],
  "discord_id": "",
  "change_for": null
}