{
  "id": 201573,
  "name": "Kiss Kara Hajimaru Gyaru no Koi: Kurumi no Uwasa to Honto no Kimochi",
  "slug": "kiss-kara-hajimaru-gyaru-no-koi-kurumi-no-uwasa-to-honto-no-kimochi",
  "year": 2022,
  "banner_url": "",
  "icon_url": "",
  "coverart": "https://lutris.net/media/igdb/cover_big/co4oug.jpg",
  "platforms": [
    {
      "name": "Nintendo Switch"
    },
    {
      "name": "Sony Playstation 4"
    }
  ],
  "provider_games": [
    {
      "name": "Kiss Kara Hajimaru Gyaru no Koi: Kurumi no Uwasa to Honto no Kimochi",
      "slug": "kiss-kara-hajimaru-gyaru-no-koi-kurumi-no-uwasa-to-honto-no-kimochi",
      "service": "igdb"
    }
  ],
  "aliases": [],
  "shaders": [],
  "discord_id": "",
  "change_for": null
}