{
  "id": 259024,
  "name": "Telegraphist 1920: Beats of War",
  "slug": "telegraphist-1920-beats-of-war",
  "year": null,
  "banner_url": "",
  "icon_url": "",
  "coverart": "https://lutris.net/media/igdb/cover_big/co73e6.jpg",
  "platforms": [],
  "provider_games": [
    {
      "name": "Telegraphist 1920: Beats of War",
      "slug": "telegraphist-1920-beats-of-war",
      "service": "igdb"
    }
  ],
  "aliases": [],
  "shaders": [],
  "discord_id": "",
  "change_for": null
}