{
  "id": 195191,
  "name": "Monochrome Mobius: Rights and Wrongs Forgotten",
  "slug": "monochrome-mobius-rights-and-wrongs-forgotten",
  "year": 2022,
  "banner_url": "https://lutris.net/games/banner/monochrome-mobius-rights-and-wrongs-forgotten.jpg",
  "icon_url": "",
  "coverart": "https://lutris.net/media/igdb/cover_big/co4oxm.jpg",
  "platforms": [
    {
      "name": "Sony Playstation 4"
    },
    {
      "name": "Sony PlayStation 5"
    },
    {
      "name": "Windows"
    }
  ],
  "provider_games": [
    {
      "name": "Monochrome Mobius: Rights and Wrongs Forgotten",
      "slug": "monochrome-mobius-rights-and-wrongs-forgotten",
      "service": "igdb"
    },
    {
      "name": "Monochrome Mobius: Rights and Wrongs Forgotten",
      "slug": "1962430",
      "service": "steam"
    }
  ],
  "aliases": [],
  "shaders": [],
  "discord_id": "",
  "change_for": null
}