{
  "id": 272908,
  "name": "Sensei, Issho ni Kitekuremasu ka?",
  "slug": "sensei-issho-ni-kitekuremasu-ka",
  "year": 2019,
  "banner_url": "",
  "icon_url": "",
  "coverart": "https://lutris.net/media/igdb/cover_big/co7qjc.jpg",
  "platforms": [
    {
      "name": "Windows"
    }
  ],
  "provider_games": [
    {
      "name": "Sensei, Issho ni Kitekuremasu ka?",
      "slug": "sensei-issho-ni-kitekuremasu-ka",
      "service": "igdb"
    }
  ],
  "aliases": [],
  "shaders": [],
  "discord_id": "",
  "change_for": null
}