{
  "id": 19840,
  "name": "Monumental Failure",
  "slug": "monumental-failure",
  "year": 2017,
  "banner_url": "https://lutris.net/games/banner/monumental-failure.jpg",
  "icon_url": "https://lutris.net/games/icon/monumental-failure.png",
  "coverart": "https://lutris.net/media/igdb/cover_big/co2d9j.jpg",
  "platforms": [
    {
      "name": "Linux"
    },
    {
      "name": "Mac"
    },
    {
      "name": "Windows"
    }
  ],
  "provider_games": [
    {
      "name": "Monumental Failure",
      "slug": "573300",
      "service": "steam"
    },
    {
      "name": "Monumental Failure",
      "slug": "monumental-failure",
      "service": "igdb"
    }
  ],
  "aliases": [],
  "shaders": [],
  "discord_id": "",
  "change_for": null
}