{
  "id": 3662,
  "name": "Carmageddon TDR 2000",
  "slug": "carmageddon-tdr-2000",
  "year": 2000,
  "banner_url": "https://lutris.net/games/banner/carmageddon-tdr-2000.jpg",
  "icon_url": "https://lutris.net/games/icon/carmageddon-tdr-2000.png",
  "coverart": "https://lutris.net/media/igdb/cover_big/co1zoo.jpg",
  "platforms": [
    {
      "name": "Windows"
    }
  ],
  "provider_games": [
    {
      "name": "Carmageddon TDR 2000",
      "slug": "1146738698",
      "service": "gog"
    },
    {
      "name": "Carmageddon TDR 2000",
      "slug": "331650",
      "service": "steam"
    },
    {
      "name": "Carmageddon TDR 2000",
      "slug": "carmageddon-tdr-2000",
      "service": "igdb"
    }
  ],
  "aliases": [],
  "shaders": [],
  "discord_id": "",
  "change_for": null
}