{
  "id": 94581,
  "name": "Jen Burger Restaurant",
  "slug": "jen-burger-restaurant",
  "year": null,
  "banner_url": "",
  "icon_url": "",
  "coverart": null,
  "platforms": [],
  "provider_games": [
    {
      "name": "Jen Burger Restaurant",
      "slug": "jen-burger-restaurant",
      "service": "igdb"
    }
  ],
  "aliases": [],
  "shaders": [],
  "discord_id": "",
  "change_for": null
}