{
  "id": 260932,
  "name": "Angel of Death",
  "slug": "angel-of-death",
  "year": null,
  "banner_url": "",
  "icon_url": "",
  "coverart": null,
  "platforms": [],
  "provider_games": [
    {
      "name": "Angel of Death",
      "slug": "angel-of-death",
      "service": "igdb"
    }
  ],
  "aliases": [],
  "shaders": [],
  "discord_id": "",
  "change_for": null
}