{
  "id": 87467,
  "name": "Ali Baba",
  "slug": "ali-baba",
  "year": 2000,
  "banner_url": "",
  "icon_url": "",
  "coverart": null,
  "platforms": [
    {
      "name": "Amiga"
    }
  ],
  "provider_games": [
    {
      "name": "Ali Baba",
      "slug": "ali-baba",
      "service": "igdb"
    }
  ],
  "aliases": [],
  "shaders": [],
  "discord_id": "",
  "change_for": null
}