{
  "id": 10771,
  "name": "Babel: Tower to the Gods",
  "slug": "babel-tower-to-the-gods",
  "year": 2016,
  "banner_url": "https://lutris.net/games/banner/babel-tower-to-the-gods.jpg",
  "icon_url": "https://lutris.net/games/icon/babel-tower-to-the-gods.png",
  "coverart": "https://lutris.net/media/igdb/cover_big/iv8lirtgp2yibfsl4rct.jpg",
  "platforms": [
    {
      "name": "Windows"
    }
  ],
  "provider_games": [
    {
      "name": "Babel: Tower to the Gods",
      "slug": "441230",
      "service": "steam"
    },
    {
      "name": "Babel: Tower to the Gods",
      "slug": "babel-tower-to-the-gods",
      "service": "igdb"
    }
  ],
  "aliases": [],
  "shaders": [],
  "discord_id": "",
  "change_for": null
}