{
  "id": 149487,
  "name": "Cat Way Domino",
  "slug": "cat-way-domino",
  "year": null,
  "banner_url": "",
  "icon_url": "",
  "coverart": "https://lutris.net/media/igdb/cover_big/co3myk.jpg",
  "platforms": [],
  "provider_games": [
    {
      "name": "Cat Way Domino",
      "slug": "cat-way-domino",
      "service": "igdb"
    }
  ],
  "aliases": [],
  "shaders": [],
  "discord_id": "",
  "change_for": null
}