{
  "id": 97966,
  "name": "Woodland Rush - Domino",
  "slug": "woodland-rush-domino",
  "year": 2019,
  "banner_url": "",
  "icon_url": "",
  "coverart": "https://lutris.net/media/igdb/cover_big/co1ki9.jpg",
  "platforms": [
    {
      "name": "Android"
    }
  ],
  "provider_games": [
    {
      "name": "Woodland Rush - Domino",
      "slug": "woodland-rush-domino",
      "service": "igdb"
    }
  ],
  "aliases": [],
  "shaders": [],
  "discord_id": "",
  "change_for": null
}