{
  "id": 224627,
  "name": "Hallowlands",
  "slug": "hallowlands",
  "year": null,
  "banner_url": "",
  "icon_url": "",
  "coverart": "https://lutris.net/media/igdb/cover_big/co5e2b.jpg",
  "platforms": [],
  "provider_games": [
    {
      "name": "Hallowlands",
      "slug": "hallowlands",
      "service": "igdb"
    }
  ],
  "aliases": [],
  "shaders": [],
  "discord_id": "",
  "change_for": null
}