{
  "id": 230138,
  "name": "The Alchemist of Nafiljar",
  "slug": "the-alchemist-of-nafiljar",
  "year": null,
  "banner_url": "",
  "icon_url": "",
  "coverart": "https://lutris.net/media/igdb/cover_big/co6da5.jpg",
  "platforms": [],
  "provider_games": [
    {
      "name": "The Alchemist of Nafiljar",
      "slug": "the-alchemist-of-nafiljar",
      "service": "igdb"
    }
  ],
  "aliases": [],
  "shaders": [],
  "discord_id": "",
  "change_for": null
}