{
  "id": 169467,
  "name": "Analog Party Sim",
  "slug": "analog-party-sim",
  "year": null,
  "banner_url": "",
  "icon_url": "",
  "coverart": "https://lutris.net/media/igdb/cover_big/co45sx.jpg",
  "platforms": [],
  "provider_games": [
    {
      "name": "Analog Party Sim",
      "slug": "analog-party-sim",
      "service": "igdb"
    }
  ],
  "aliases": [],
  "shaders": [],
  "discord_id": "",
  "change_for": null
}