{
  "id": 57249,
  "name": "Tentis",
  "slug": "tentis",
  "year": null,
  "banner_url": "",
  "icon_url": "",
  "coverart": "https://lutris.net/media/igdb/cover_big/ap8ylonz7kskbhqianix.jpg",
  "platforms": [],
  "provider_games": [
    {
      "name": "Tentis",
      "slug": "tentis",
      "service": "igdb"
    }
  ],
  "aliases": [],
  "shaders": [],
  "discord_id": "",
  "change_for": null
}