{
  "id": 162641,
  "name": "New Star Soccer",
  "slug": "new-star-soccer--1",
  "year": 2012,
  "banner_url": "",
  "icon_url": "",
  "coverart": "https://lutris.net/media/igdb/cover_big/co1m3i.jpg",
  "platforms": [
    {
      "name": "Android"
    }
  ],
  "provider_games": [
    {
      "name": "New Star Soccer",
      "slug": "new-star-soccer--1",
      "service": "igdb"
    }
  ],
  "aliases": [],
  "shaders": [],
  "discord_id": "",
  "change_for": null
}