{
  "id": 47775,
  "name": "Kamihime Project R",
  "slug": "kamihime-project-r",
  "year": null,
  "banner_url": "",
  "icon_url": "",
  "coverart": null,
  "platforms": [],
  "provider_games": [
    {
      "name": "Kamihime Project R",
      "slug": "kamihime-project-r",
      "service": "igdb"
    }
  ],
  "aliases": [],
  "shaders": [],
  "discord_id": "",
  "change_for": null
}