{
  "id": 176435,
  "name": "Mystery Box: Hidden Secrets",
  "slug": "mystery-box-hidden-secrets",
  "year": 2021,
  "banner_url": "",
  "icon_url": "",
  "coverart": "https://lutris.net/media/igdb/cover_big/co3xmd.jpg",
  "platforms": [
    {
      "name": "Mac"
    },
    {
      "name": "Windows"
    }
  ],
  "provider_games": [
    {
      "name": "Mystery Box: Hidden Secrets",
      "slug": "mystery-box-hidden-secrets",
      "service": "igdb"
    }
  ],
  "aliases": [],
  "shaders": [],
  "discord_id": "",
  "change_for": null
}