{
  "id": 239331,
  "name": "Hentai Girlfriend Simulator",
  "slug": "hentai-girlfriend-simulator",
  "year": 2020,
  "banner_url": "",
  "icon_url": "",
  "coverart": "https://lutris.net/media/igdb/cover_big/co63be.jpg",
  "platforms": [
    {
      "name": "Windows"
    }
  ],
  "provider_games": [
    {
      "name": "Hentai Girlfriend Simulator",
      "slug": "hentai-girlfriend-simulator",
      "service": "igdb"
    }
  ],
  "aliases": [],
  "shaders": [],
  "discord_id": "",
  "change_for": null
}