{
  "id": 222111,
  "name": "Heal: Pocket Edition",
  "slug": "heal-pocket-edition",
  "year": null,
  "banner_url": "",
  "icon_url": "",
  "coverart": null,
  "platforms": [],
  "provider_games": [
    {
      "name": "Heal: Pocket Edition",
      "slug": "heal-pocket-edition",
      "service": "igdb"
    }
  ],
  "aliases": [],
  "shaders": [],
  "discord_id": "",
  "change_for": null
}