{
  "id": 31660,
  "name": "Zombie Commander",
  "slug": "zombie-commander",
  "year": null,
  "banner_url": "https://lutris.net/games/banner/zombie-commander.jpg",
  "icon_url": "https://lutris.net/games/icon/zombie-commander.png",
  "coverart": null,
  "platforms": [],
  "provider_games": [
    {
      "name": "Zombie Commander",
      "slug": "847240",
      "service": "steam"
    },
    {
      "name": "Zombie Commander",
      "slug": "zombie-commander",
      "service": "igdb"
    }
  ],
  "aliases": [],
  "shaders": [],
  "discord_id": "",
  "change_for": null
}