{
  "id": 84016,
  "name": "World Class Poker with T.J. Cloutier",
  "slug": "world-class-poker-with-tj-cloutier",
  "year": null,
  "banner_url": "",
  "icon_url": "",
  "coverart": null,
  "platforms": [],
  "provider_games": [
    {
      "name": "World Class Poker with T.J. Cloutier",
      "slug": "world-class-poker-with-tj-cloutier",
      "service": "igdb"
    }
  ],
  "aliases": [],
  "shaders": [],
  "discord_id": "",
  "change_for": null
}