{
  "id": 291098,
  "name": "Femdom Farm",
  "slug": "femdom-farm",
  "year": null,
  "banner_url": "",
  "icon_url": "",
  "coverart": "https://lutris.net/media/igdb/cover_big/co8lan.jpg",
  "platforms": [],
  "provider_games": [
    {
      "name": "Femdom Farm",
      "slug": "femdom-farm",
      "service": "igdb"
    }
  ],
  "aliases": [],
  "shaders": [],
  "discord_id": "",
  "change_for": null
}