{
  "id": 582,
  "name": "Cry of Fear",
  "slug": "cry-of-fear",
  "year": 2013,
  "banner_url": "https://lutris.net/games/banner/cry-of-fear.jpg",
  "icon_url": "https://lutris.net/games/icon/cry-of-fear.png",
  "coverart": "https://lutris.net/media/igdb/cover_big/co1uz9.jpg",
  "platforms": [
    {
      "name": "Windows"
    }
  ],
  "provider_games": [
    {
      "name": "Cry of Fear",
      "slug": "223710",
      "service": "steam"
    },
    {
      "name": "Cry of Fear",
      "slug": "cry-of-fear",
      "service": "igdb"
    }
  ],
  "aliases": [],
  "shaders": [],
  "discord_id": "425748259408183306",
  "change_for": null
}