{
  "id": 121055,
  "name": "7 Soccer: a sci-fi soccer tale",
  "slug": "7-soccer-a-sci-fi-soccer-tale",
  "year": 2018,
  "banner_url": "",
  "icon_url": "",
  "coverart": "https://lutris.net/media/igdb/cover_big/co28rg.jpg",
  "platforms": [
    {
      "name": "Windows"
    }
  ],
  "provider_games": [
    {
      "name": "7 Soccer: a sci-fi soccer tale",
      "slug": "7-soccer-a-sci-fi-soccer-tale",
      "service": "igdb"
    }
  ],
  "aliases": [],
  "shaders": [],
  "discord_id": "",
  "change_for": null
}