{
  "id": 215903,
  "name": "Geranium",
  "slug": "geranium",
  "year": null,
  "banner_url": "",
  "icon_url": "",
  "coverart": "https://lutris.net/media/igdb/cover_big/co58l5.jpg",
  "platforms": [],
  "provider_games": [
    {
      "name": "Geranium",
      "slug": "geranium",
      "service": "igdb"
    }
  ],
  "aliases": [],
  "shaders": [],
  "discord_id": "",
  "change_for": null
}