{
  "id": 246797,
  "name": "Shell of a King",
  "slug": "shell-of-a-king",
  "year": null,
  "banner_url": "",
  "icon_url": "",
  "coverart": "https://lutris.net/media/igdb/cover_big/co6jo0.jpg",
  "platforms": [],
  "provider_games": [
    {
      "name": "Shell of a King",
      "slug": "shell-of-a-king",
      "service": "igdb"
    }
  ],
  "aliases": [],
  "shaders": [],
  "discord_id": "",
  "change_for": null
}