{
  "id": 42769,
  "name": "Halloween Chronicles: Evil Behind a Mask Collector's Edition",
  "slug": "halloween-chronicles-evil-behind-a-mask-collectors",
  "year": null,
  "banner_url": "https://lutris.net/games/banner/halloween-chronicles-evil-behind-a-mask-collectors.jpg",
  "icon_url": "https://lutris.net/games/icon/halloween-chronicles-evil-behind-a-mask-collectors.png",
  "coverart": null,
  "platforms": [],
  "provider_games": [
    {
      "name": "Halloween Chronicles: Evil Behind a Mask Collector's Edition",
      "slug": "1181910",
      "service": "steam"
    }
  ],
  "aliases": [],
  "shaders": [],
  "discord_id": "",
  "change_for": null
}