{
  "id": 133522,
  "name": "All Hit All Her",
  "slug": "all-hit-all-her",
  "year": null,
  "banner_url": "",
  "icon_url": "",
  "coverart": "https://lutris.net/media/igdb/cover_big/co3lcy.jpg",
  "platforms": [],
  "provider_games": [
    {
      "name": "All Hit All Her",
      "slug": "all-hit-all-her",
      "service": "igdb"
    }
  ],
  "aliases": [],
  "shaders": [],
  "discord_id": "",
  "change_for": null
}