{
  "id": 278621,
  "name": "Dinosaur Crossing: Unravel and Discover",
  "slug": "dinosaur-crossing-unravel-and-discover",
  "year": 2024,
  "banner_url": "",
  "icon_url": "",
  "coverart": "https://lutris.net/media/igdb/cover_big/co7xzx.jpg",
  "platforms": [
    {
      "name": "Nintendo Switch"
    }
  ],
  "provider_games": [
    {
      "name": "Dinosaur Crossing: Unravel and Discover",
      "slug": "dinosaur-crossing-unravel-and-discover",
      "service": "igdb"
    }
  ],
  "aliases": [],
  "shaders": [],
  "discord_id": "",
  "change_for": null
}