{
  "id": 85181,
  "name": "RPG Maker: Zonderland",
  "slug": "rpg-maker-zonderland",
  "year": null,
  "banner_url": "",
  "icon_url": "",
  "coverart": null,
  "platforms": [],
  "provider_games": [
    {
      "name": "RPG Maker: Zonderland",
      "slug": "rpg-maker-zonderland",
      "service": "igdb"
    }
  ],
  "aliases": [],
  "shaders": [],
  "discord_id": "",
  "change_for": null
}