{
  "id": 2042,
  "game_id": 5996,
  "game_slug": "doom-open-beta",
  "name": "DOOM Open Beta",
  "year": 2016,
  "user": "strider",
  "runner": "winesteam",
  "slug": "doom-open-beta-steam",
  "version": "Steam",
  "description": "",
  "notes": "The game isn't currently playable due to a missing feature in Wine. Follow https://bugs.winehq.org/show_bug.cgi?id=40418 to know when this will be fixed.",
  "credits": "",
  "created_at": "2016-04-16T18:52:02.968991Z",
  "updated_at": "2023-06-13T01:36:40.438787Z",
  "draft": false,
  "published": true,
  "published_by": null,
  "rating": "",
  "is_playable": null,
  "steamid": 350470,
  "gogid": null,
  "gogslug": "",
  "humbleid": "",
  "humblestoreid": "",
  "humblestoreid_real": "",
  "script": {
    "game": {
      "appid": 350470,
      "arch": "64bit",
      "prefix": "$GAMEDIR/prefix"
    },
    "installer": [
      {
        "task": {
          "app": "xact",
          "description": "Installing Xact",
          "name": "winetricks",
          "prefix": "$GAMEDIR/prefix",
          "silent": true
        }
      }
    ]
  },
  "content": "game:\n  appid: 350470\n  arch: 64bit\n  prefix: $GAMEDIR/prefix\ninstaller:\n- task:\n    app: xact\n    description: Installing Xact\n    name: winetricks\n    prefix: $GAMEDIR/prefix\n    silent: true\n",
  "discord_id": ""
}