{
  "id": 35256,
  "name": "Pepper II",
  "slug": "pepper-ii",
  "year": 1982,
  "banner_url": "https://lutris.net/games/banner/pepper-ii.jpg",
  "icon_url": "https://lutris.net/games/icon/pepper-ii.png",
  "coverart": "https://lutris.net/media/igdb/cover_big/lhcujqynzpwefod1t4a7.jpg",
  "platforms": [
    {
      "name": "Arcade"
    },
    {
      "name": "Colecovision"
    }
  ],
  "provider_games": [
    {
      "name": "Pepper II",
      "slug": "pepper2",
      "service": "mame"
    },
    {
      "name": "Pepper II",
      "slug": "pepper-ii",
      "service": "igdb"
    }
  ],
  "aliases": [],
  "shaders": [],
  "discord_id": "",
  "change_for": null
}