{
  "id": 24488,
  "name": "The Crown of Leaves",
  "slug": "the-crown-of-leaves",
  "year": 2018,
  "banner_url": "https://lutris.net/games/banner/the-crown-of-leaves.jpg",
  "icon_url": "https://lutris.net/games/icon/the-crown-of-leaves.png",
  "coverart": "https://lutris.net/media/igdb/cover_big/co26z3.jpg",
  "platforms": [
    {
      "name": "Linux"
    },
    {
      "name": "Windows"
    }
  ],
  "provider_games": [
    {
      "name": "The Crown of Leaves",
      "slug": "604330",
      "service": "steam"
    },
    {
      "name": "The Crown of Leaves",
      "slug": "the-crown-of-leaves",
      "service": "igdb"
    }
  ],
  "aliases": [],
  "shaders": [],
  "discord_id": "",
  "change_for": null
}