{
  "id": 263700,
  "name": "Moci Over It",
  "slug": "moci-over-it",
  "year": null,
  "banner_url": "",
  "icon_url": "",
  "coverart": "https://lutris.net/media/igdb/cover_big/co794t.jpg",
  "platforms": [],
  "provider_games": [
    {
      "name": "Moci Over It",
      "slug": "moci-over-it",
      "service": "igdb"
    }
  ],
  "aliases": [],
  "shaders": [],
  "discord_id": "",
  "change_for": null
}