{
  "id": 291703,
  "name": "Super Drift Blade",
  "slug": "super-drift-blade",
  "year": null,
  "banner_url": "",
  "icon_url": "",
  "coverart": "https://lutris.net/media/igdb/cover_big/co8kac.jpg",
  "platforms": [],
  "provider_games": [
    {
      "name": "Super Drift Blade",
      "slug": "super-drift-blade",
      "service": "igdb"
    }
  ],
  "aliases": [],
  "shaders": [],
  "discord_id": "",
  "change_for": null
}