{
  "id": 232437,
  "name": "Draw and Color: Kawaii - Complete Edition",
  "slug": "draw-and-color-kawaii-complete-edition",
  "year": 2023,
  "banner_url": "",
  "icon_url": "",
  "coverart": "https://lutris.net/media/igdb/cover_big/co6b8u.jpg",
  "platforms": [
    {
      "name": "Nintendo Switch"
    }
  ],
  "provider_games": [
    {
      "name": "Draw and Color: Kawaii - Complete Edition",
      "slug": "draw-and-color-kawaii-complete-edition",
      "service": "igdb"
    }
  ],
  "aliases": [],
  "shaders": [],
  "discord_id": "",
  "change_for": null
}