{
  "id": 162241,
  "name": "The Burning Locks",
  "slug": "the-burning-locks",
  "year": null,
  "banner_url": "",
  "icon_url": "",
  "coverart": null,
  "platforms": [],
  "provider_games": [
    {
      "name": "The Burning Locks",
      "slug": "the-burning-locks",
      "service": "igdb"
    }
  ],
  "aliases": [],
  "shaders": [],
  "discord_id": "",
  "change_for": null
}