{
  "id": 260975,
  "name": "Fareast Four Season: Hello World",
  "slug": "fareast-four-season-hello-world",
  "year": null,
  "banner_url": "",
  "icon_url": "",
  "coverart": "https://lutris.net/media/igdb/cover_big/co75dn.jpg",
  "platforms": [],
  "provider_games": [
    {
      "name": "Fareast Four Season: Hello World",
      "slug": "fareast-four-season-hello-world",
      "service": "igdb"
    }
  ],
  "aliases": [],
  "shaders": [],
  "discord_id": "",
  "change_for": null
}