{
  "id": 115643,
  "name": "Free Balling",
  "slug": "free-balling",
  "year": 2016,
  "banner_url": "https://lutris.net/games/banner/free-balling.jpg",
  "icon_url": "",
  "coverart": "https://lutris.net/media/igdb/cover_big/co6ujq.jpg",
  "platforms": [
    {
      "name": "Nintendo Wii U"
    },
    {
      "name": "Windows"
    }
  ],
  "provider_games": [
    {
      "name": "Free Balling",
      "slug": "495770",
      "service": "steam"
    },
    {
      "name": "Free Balling",
      "slug": "free-balling",
      "service": "igdb"
    }
  ],
  "aliases": [],
  "shaders": [],
  "discord_id": "",
  "change_for": null
}