{
  "id": 20855,
  "game_id": 36582,
  "game_slug": "elon-simulator-2019",
  "name": "Elon Simulator 2019",
  "year": null,
  "user": "vanstaveren",
  "runner": "steam",
  "slug": "elon-simulator-2019-steam",
  "version": "steam",
  "description": null,
  "notes": "",
  "credits": "",
  "created_at": "2020-05-28T06:20:21.902287Z",
  "updated_at": "2021-12-13T19:10:39.084157Z",
  "draft": false,
  "published": true,
  "published_by": null,
  "rating": "",
  "is_playable": null,
  "steamid": null,
  "gogid": null,
  "gogslug": "",
  "humbleid": "",
  "humblestoreid": "",
  "humblestoreid_real": "",
  "script": {
    "game": {
      "appid": 1116550
    }
  },
  "content": "game:\n  appid: 1116550\n",
  "discord_id": ""
}