{
  "id": 263570,
  "name": "Xatrom Command",
  "slug": "xatrom-command",
  "year": null,
  "banner_url": "",
  "icon_url": "",
  "coverart": "https://lutris.net/media/igdb/cover_big/co79a3.jpg",
  "platforms": [],
  "provider_games": [
    {
      "name": "Xatrom Command",
      "slug": "xatrom-command",
      "service": "igdb"
    }
  ],
  "aliases": [],
  "shaders": [],
  "discord_id": "",
  "change_for": null
}