{
  "id": 140411,
  "name": "Ancient Souls",
  "slug": "ancient-souls",
  "year": null,
  "banner_url": "",
  "icon_url": "",
  "coverart": "https://lutris.net/media/igdb/cover_big/co3sh4.jpg",
  "platforms": [],
  "provider_games": [
    {
      "name": "Ancient Souls",
      "slug": "ancient-souls",
      "service": "igdb"
    }
  ],
  "aliases": [],
  "shaders": [],
  "discord_id": "",
  "change_for": null
}