{
  "id": 223411,
  "name": "World of Farming",
  "slug": "world-of-farming",
  "year": null,
  "banner_url": "",
  "icon_url": "",
  "coverart": null,
  "platforms": [],
  "provider_games": [
    {
      "name": "World of Farming",
      "slug": "world-of-farming",
      "service": "igdb"
    }
  ],
  "aliases": [],
  "shaders": [],
  "discord_id": "",
  "change_for": null
}