{
  "id": 53144,
  "name": "Kart Krashers",
  "slug": "kart-krashers",
  "year": 2012,
  "banner_url": "",
  "icon_url": "",
  "coverart": "https://lutris.net/media/igdb/cover_big/kc9ty4fp8qngbe3kldbw.jpg",
  "platforms": [
    {
      "name": "Nintendo DSi"
    }
  ],
  "provider_games": [
    {
      "name": "Kart Krashers",
      "slug": "kart-krashers",
      "service": "igdb"
    }
  ],
  "aliases": [],
  "shaders": [],
  "discord_id": "",
  "change_for": null
}