{
  "id": 125950,
  "name": "Way Of The Orb",
  "slug": "way-of-the-orb",
  "year": null,
  "banner_url": "",
  "icon_url": "",
  "coverart": null,
  "platforms": [],
  "provider_games": [
    {
      "name": "Way of the Orb",
      "slug": "way-of-the-orb",
      "service": "igdb"
    }
  ],
  "aliases": [],
  "shaders": [],
  "discord_id": "",
  "change_for": null
}