{
  "id": 267072,
  "name": "Sakusei Byoutou Fighters: Zen Nenrei Ban",
  "slug": "sakusei-byoutou-fighters-zen-nenrei-ban",
  "year": 2023,
  "banner_url": "",
  "icon_url": "",
  "coverart": "https://lutris.net/media/igdb/cover_big/co7fhu.jpg",
  "platforms": [
    {
      "name": "Windows"
    }
  ],
  "provider_games": [
    {
      "name": "Sakusei Byoutou Fighters: Zen Nenrei-ban",
      "slug": "sakusei-byoutou-fighters-zen-nenrei-ban",
      "service": "igdb"
    }
  ],
  "aliases": [],
  "shaders": [],
  "discord_id": "",
  "change_for": null
}