{
  "id": 190602,
  "name": "Cryptographer",
  "slug": "cryptographer",
  "year": null,
  "banner_url": "",
  "icon_url": "",
  "coverart": "https://lutris.net/media/igdb/cover_big/co4at9.jpg",
  "platforms": [],
  "provider_games": [
    {
      "name": "Cryptographer",
      "slug": "cryptographer",
      "service": "igdb"
    }
  ],
  "aliases": [],
  "shaders": [],
  "discord_id": "",
  "change_for": null
}