{
  "id": 271608,
  "name": "Bitty Knight",
  "slug": "bitty-knight",
  "year": null,
  "banner_url": "",
  "icon_url": "",
  "coverart": "https://lutris.net/media/igdb/cover_big/co7o8i.jpg",
  "platforms": [],
  "provider_games": [
    {
      "name": "Bitty Knight",
      "slug": "bitty-knight",
      "service": "igdb"
    }
  ],
  "aliases": [],
  "shaders": [],
  "discord_id": "",
  "change_for": null
}