{
  "id": 168781,
  "name": "LemWars",
  "slug": "lemwars",
  "year": null,
  "banner_url": "",
  "icon_url": "",
  "coverart": "https://lutris.net/media/igdb/cover_big/co458p.jpg",
  "platforms": [],
  "provider_games": [
    {
      "name": "LemWars",
      "slug": "lemwars",
      "service": "igdb"
    }
  ],
  "aliases": [],
  "shaders": [],
  "discord_id": "",
  "change_for": null
}