{
  "id": 212081,
  "name": "Shuffled Words",
  "slug": "shuffled-words",
  "year": null,
  "banner_url": "",
  "icon_url": "",
  "coverart": "https://lutris.net/media/igdb/cover_big/co5exg.jpg",
  "platforms": [],
  "provider_games": [
    {
      "name": "Shuffled Words",
      "slug": "shuffled-words",
      "service": "igdb"
    }
  ],
  "aliases": [],
  "shaders": [],
  "discord_id": "",
  "change_for": null
}