{
  "id": 295293,
  "name": "The Cummunist Manifesto: Dommy Mommy Commie Adventure",
  "slug": "the-cummunist-manifesto-dommy-mommy-commie-adventure",
  "year": 2024,
  "banner_url": "",
  "icon_url": "",
  "coverart": "https://lutris.net/media/igdb/cover_big/co8rc4.jpg",
  "platforms": [
    {
      "name": "Linux"
    },
    {
      "name": "Mac"
    },
    {
      "name": "Windows"
    }
  ],
  "provider_games": [
    {
      "name": "The Cummunist Manifesto: Dommy Mommy Commie Adventure",
      "slug": "the-cummunist-manifesto-dommy-mommy-commie-adventure",
      "service": "igdb"
    }
  ],
  "aliases": [],
  "shaders": [],
  "discord_id": "",
  "change_for": null
}