{
  "id": 232408,
  "name": "1001 Jigsaw: Cute Cats 4",
  "slug": "1001-jigsaw-cute-cats-4",
  "year": 2023,
  "banner_url": "",
  "icon_url": "",
  "coverart": "https://lutris.net/media/igdb/cover_big/co6b9w.jpg",
  "platforms": [
    {
      "name": "Windows"
    }
  ],
  "provider_games": [
    {
      "name": "1001 Jigsaw: Cute Cats 4",
      "slug": "1001-jigsaw-cute-cats-4",
      "service": "igdb"
    }
  ],
  "aliases": [],
  "shaders": [],
  "discord_id": "",
  "change_for": null
}