{
  "id": 233746,
  "name": "Enter the Cyberjungle",
  "slug": "enter-the-cyberjungle",
  "year": null,
  "banner_url": "",
  "icon_url": "",
  "coverart": "https://lutris.net/media/igdb/cover_big/co69jg.jpg",
  "platforms": [],
  "provider_games": [
    {
      "name": "Enter the Cyberjungle",
      "slug": "enter-the-cyberjungle",
      "service": "igdb"
    }
  ],
  "aliases": [],
  "shaders": [],
  "discord_id": "",
  "change_for": null
}