{
  "id": 185217,
  "name": "God Opens the Door",
  "slug": "god-opens-the-door",
  "year": null,
  "banner_url": "",
  "icon_url": "",
  "coverart": "https://lutris.net/media/igdb/cover_big/co6hof.jpg",
  "platforms": [],
  "provider_games": [
    {
      "name": "God Opens the Door",
      "slug": "god-opens-the-door",
      "service": "igdb"
    }
  ],
  "aliases": [],
  "shaders": [],
  "discord_id": "",
  "change_for": null
}