{
  "id": 184851,
  "name": "Get Off My Planet",
  "slug": "get-off-my-planet",
  "year": null,
  "banner_url": "",
  "icon_url": "",
  "coverart": null,
  "platforms": [],
  "provider_games": [
    {
      "name": "Get Off My Planet",
      "slug": "get-off-my-planet",
      "service": "igdb"
    }
  ],
  "aliases": [],
  "shaders": [],
  "discord_id": "",
  "change_for": null
}