{
  "id": 39255,
  "name": "GUNPIG: Firepower For Hire",
  "slug": "gunpig-firepower-for-hire",
  "year": 2020,
  "banner_url": "https://lutris.net/games/banner/gunpig-firepower-for-hire.jpg",
  "icon_url": "",
  "coverart": "https://lutris.net/media/igdb/cover_big/co2c70.jpg",
  "platforms": [
    {
      "name": "Nintendo Switch"
    },
    {
      "name": "Windows"
    }
  ],
  "provider_games": [
    {
      "name": "Gunpig: Firepower For Hire",
      "slug": "gunpig-firepower-for-hire",
      "service": "igdb"
    }
  ],
  "aliases": [],
  "shaders": [],
  "discord_id": "",
  "change_for": null
}