{
  "id": 275207,
  "name": "Foot Serve",
  "slug": "foot-serve",
  "year": null,
  "banner_url": "",
  "icon_url": "",
  "coverart": "https://lutris.net/media/igdb/cover_big/co7ttu.jpg",
  "platforms": [],
  "provider_games": [
    {
      "name": "Foot Serve",
      "slug": "foot-serve",
      "service": "igdb"
    }
  ],
  "aliases": [],
  "shaders": [],
  "discord_id": "",
  "change_for": null
}