{
  "id": 49895,
  "name": "1 Ball 1 Cup",
  "slug": "1-ball-1-cup",
  "year": 2015,
  "banner_url": "",
  "icon_url": "",
  "coverart": "https://lutris.net/media/igdb/cover_big/otnew828iqaosypbazms.jpg",
  "platforms": [],
  "provider_games": [
    {
      "name": "1 Ball 1 Cup",
      "slug": "1-ball-1-cup",
      "service": "igdb"
    }
  ],
  "aliases": [],
  "shaders": [],
  "discord_id": "",
  "change_for": null
}