{
  "id": 286030,
  "name": "Doctor Who: Monster Invasion - Maze of the Dead",
  "slug": "doctor-who-monster-invasion-maze-of-the-dead",
  "year": 2011,
  "banner_url": "",
  "icon_url": "",
  "coverart": "https://lutris.net/media/igdb/cover_big/co88ei.jpg",
  "platforms": [
    {
      "name": "Browser"
    }
  ],
  "provider_games": [
    {
      "name": "Doctor Who: Monster Invasion - Maze of the Dead",
      "slug": "doctor-who-monster-invasion-maze-of-the-dead",
      "service": "igdb"
    }
  ],
  "aliases": [],
  "shaders": [],
  "discord_id": "",
  "change_for": null
}