{
  "id": 102764,
  "name": "Odd Bot Out",
  "slug": "odd-bot-out",
  "year": null,
  "banner_url": "",
  "icon_url": "",
  "coverart": "https://lutris.net/media/igdb/cover_big/fz7s1pd7z69jwjvg0gof.jpg",
  "platforms": [],
  "provider_games": [
    {
      "name": "Odd Bot Out",
      "slug": "odd-bot-out",
      "service": "igdb"
    }
  ],
  "aliases": [],
  "shaders": [],
  "discord_id": "",
  "change_for": null
}