{
  "id": 120041,
  "name": "Wasteland Survival",
  "slug": "wasteland-survival",
  "year": null,
  "banner_url": "https://lutris.net/games/banner/wasteland-survival.jpg",
  "icon_url": "",
  "coverart": null,
  "platforms": [],
  "provider_games": [
    {
      "name": "Wasteland Survival",
      "slug": "1044200",
      "service": "steam"
    },
    {
      "name": "Wasteland Survival",
      "slug": "wasteland-survival",
      "service": "igdb"
    }
  ],
  "aliases": [],
  "shaders": [],
  "discord_id": "",
  "change_for": null
}