{
  "id": 85450,
  "name": "Crazy Chase",
  "slug": "crazy-chase",
  "year": 2002,
  "banner_url": "",
  "icon_url": "",
  "coverart": "https://lutris.net/media/igdb/cover_big/doxqktnfom9bjdgxhkf8.jpg",
  "platforms": [
    {
      "name": "Nintendo Game Boy Advance"
    }
  ],
  "provider_games": [
    {
      "name": "Crazy Chase",
      "slug": "crazy-chase",
      "service": "igdb"
    }
  ],
  "aliases": [],
  "shaders": [],
  "discord_id": "",
  "change_for": null
}