{
  "id": 30817,
  "name": "Megamania",
  "slug": "megamania",
  "year": 1983,
  "banner_url": "https://lutris.net/games/banner/megamania.jpg",
  "icon_url": "",
  "coverart": "https://lutris.net/media/igdb/cover_big/vpamt2aqtk9p3fuiqmhl.jpg",
  "platforms": [
    {
      "name": "Atari 2600"
    },
    {
      "name": "Atari 5200"
    }
  ],
  "provider_games": [
    {
      "name": "Megamania",
      "slug": "megamania",
      "service": "igdb"
    }
  ],
  "aliases": [],
  "shaders": [],
  "discord_id": "",
  "change_for": null
}