{
  "id": 122927,
  "name": "Blame him",
  "slug": "blame-him",
  "year": 2019,
  "banner_url": "https://lutris.net/games/banner/blame-him.jpg",
  "icon_url": "",
  "coverart": "https://lutris.net/media/igdb/cover_big/co1yby.jpg",
  "platforms": [
    {
      "name": "Windows"
    }
  ],
  "provider_games": [
    {
      "name": "Blame him",
      "slug": "950400",
      "service": "steam"
    },
    {
      "name": "Blame him",
      "slug": "blame-him",
      "service": "igdb"
    }
  ],
  "aliases": [],
  "shaders": [],
  "discord_id": "",
  "change_for": null
}