{
  "id": 192336,
  "name": "Neonimo",
  "slug": "neonimo",
  "year": 2020,
  "banner_url": "",
  "icon_url": "",
  "coverart": null,
  "platforms": [],
  "provider_games": [
    {
      "name": "Neonimo",
      "slug": "neonimo",
      "service": "igdb"
    }
  ],
  "aliases": [],
  "shaders": [],
  "discord_id": "",
  "change_for": null
}