{
  "id": 185948,
  "name": "Super/Human Identity",
  "slug": "super-slash-human-identity",
  "year": null,
  "banner_url": "",
  "icon_url": "",
  "coverart": "https://lutris.net/media/igdb/cover_big/co42nn.jpg",
  "platforms": [],
  "provider_games": [
    {
      "name": "Super/Human Identity",
      "slug": "super-slash-human-identity",
      "service": "igdb"
    }
  ],
  "aliases": [],
  "shaders": [],
  "discord_id": "",
  "change_for": null
}