{
  "id": 273782,
  "name": "We Are Football 2024",
  "slug": "we-are-football-2024",
  "year": 2024,
  "banner_url": "",
  "icon_url": "",
  "coverart": "https://lutris.net/media/igdb/cover_big/co7tr3.jpg",
  "platforms": [
    {
      "name": "Windows"
    }
  ],
  "provider_games": [
    {
      "name": "WE ARE FOOTBALL 2024",
      "slug": "1284467179",
      "service": "gog"
    },
    {
      "name": "We are Football 2024",
      "slug": "we-are-football-2024",
      "service": "igdb"
    }
  ],
  "aliases": [],
  "shaders": [],
  "discord_id": "",
  "change_for": null
}