{
  "id": 267543,
  "name": "Rilakkuma na Mainichi",
  "slug": "rilakkuma-na-mainichi--1",
  "year": 2005,
  "banner_url": "",
  "icon_url": "",
  "coverart": null,
  "platforms": [
    {
      "name": "Nintendo Game Boy Advance"
    }
  ],
  "provider_games": [
    {
      "name": "Rilakkuma na Mainichi",
      "slug": "rilakkuma-na-mainichi--1",
      "service": "igdb"
    }
  ],
  "aliases": [],
  "shaders": [],
  "discord_id": "",
  "change_for": null
}