{
  "id": 8147,
  "game_id": 4722,
  "game_slug": "rollers-of-the-realm",
  "name": "Rollers of the Realm",
  "year": 2014,
  "user": "soredake",
  "runner": "steam",
  "slug": "rollers-of-the-realm-proton",
  "version": "Proton",
  "description": null,
  "notes": "",
  "credits": "",
  "created_at": "2018-05-09T06:41:34.692271Z",
  "updated_at": "2021-05-04T02:43:08.501948Z",
  "draft": false,
  "published": true,
  "published_by": null,
  "rating": "",
  "is_playable": null,
  "steamid": 262470,
  "gogid": null,
  "gogslug": "",
  "humbleid": "",
  "humblestoreid": "",
  "humblestoreid_real": "",
  "script": {
    "game": {
      "appid": 262470
    }
  },
  "content": "game:\n  appid: 262470\n",
  "discord_id": ""
}