{
  "id": 43042,
  "name": "Sniper Elite VR",
  "slug": "sniper-elite-vr",
  "year": 2021,
  "banner_url": "https://lutris.net/games/banner/sniper-elite-vr.jpg",
  "icon_url": "https://lutris.net/games/icon/sniper-elite-vr.png",
  "coverart": "https://lutris.net/media/igdb/cover_big/co3dd5.jpg",
  "platforms": [
    {
      "name": "Oculus Quest"
    },
    {
      "name": "Oculus Quest 2"
    },
    {
      "name": "PlayStation VR"
    },
    {
      "name": "SteamVR"
    },
    {
      "name": "Windows"
    }
  ],
  "provider_games": [
    {
      "name": "Sniper Elite VR",
      "slug": "sniper-elite-vr",
      "service": "igdb"
    },
    {
      "name": "Sniper Elite VR",
      "slug": "752480",
      "service": "steam"
    }
  ],
  "aliases": [],
  "shaders": [],
  "discord_id": "",
  "change_for": null
}