{
  "id": 106009,
  "name": "Mad Dog 2: The Lost Gold",
  "slug": "mad-dog-2-the-lost-gold",
  "year": 2013,
  "banner_url": "",
  "icon_url": "",
  "coverart": "https://lutris.net/media/igdb/cover_big/nimvv3jxfvf154sloqhj.jpg",
  "platforms": [
    {
      "name": "Sony Playstation 3"
    }
  ],
  "provider_games": [
    {
      "name": "Mad Dog 2: The Lost Gold",
      "slug": "mad-dog-2-the-lost-gold",
      "service": "igdb"
    }
  ],
  "aliases": [],
  "shaders": [],
  "discord_id": "",
  "change_for": null
}