{
  "id": 255588,
  "name": "A Murder of Crows",
  "slug": "a-murder-of-crows",
  "year": null,
  "banner_url": "",
  "icon_url": "",
  "coverart": "https://lutris.net/media/igdb/cover_big/co6y3y.jpg",
  "platforms": [],
  "provider_games": [
    {
      "name": "A Murder of Crows",
      "slug": "a-murder-of-crows",
      "service": "igdb"
    }
  ],
  "aliases": [],
  "shaders": [],
  "discord_id": "",
  "change_for": null
}