{
  "id": 128864,
  "name": "The Hunt - Rebuilt",
  "slug": "the-hunt-rebuilt--1",
  "year": null,
  "banner_url": "",
  "icon_url": "",
  "coverart": null,
  "platforms": [],
  "provider_games": [
    {
      "name": "The Hunt - Rebuilt",
      "slug": "the-hunt-rebuilt--1",
      "service": "igdb"
    }
  ],
  "aliases": [],
  "shaders": [],
  "discord_id": "",
  "change_for": null
}