{
  "id": 91251,
  "name": "Sniper 3D Gun Shooter",
  "slug": "sniper-3d-gun-shooter",
  "year": null,
  "banner_url": "",
  "icon_url": "",
  "coverart": null,
  "platforms": [],
  "provider_games": [
    {
      "name": "Sniper 3D Gun Shooter",
      "slug": "sniper-3d-gun-shooter",
      "service": "igdb"
    }
  ],
  "aliases": [],
  "shaders": [],
  "discord_id": "",
  "change_for": null
}