{
  "id": 63183,
  "name": "Bishoujo Shashinkan Part III: Photo Club - Kyoufu no Kan Hen",
  "slug": "bishoujo-shashinkan-part-iii-photo-club-kyoufu-no-kan-hen",
  "year": null,
  "banner_url": "",
  "icon_url": "",
  "coverart": "https://lutris.net/media/igdb/cover_big/dje5facsr6iqnrkdlst1.jpg",
  "platforms": [],
  "provider_games": [
    {
      "name": "Bishoujo Shashinkan Part III: Photo Club - Kyoufu no Kan Hen",
      "slug": "bishoujo-shashinkan-part-iii-photo-club-kyoufu-no-kan-hen",
      "service": "igdb"
    }
  ],
  "aliases": [],
  "shaders": [],
  "discord_id": "",
  "change_for": null
}