{
  "id": 3871,
  "name": "bit Dungeon II",
  "slug": "bit-dungeon-ii",
  "year": 2014,
  "banner_url": "https://lutris.net/games/banner/bit-dungeon-ii.jpg",
  "icon_url": "https://lutris.net/games/icon/bit-dungeon-ii.png",
  "coverart": "https://lutris.net/media/igdb/cover_big/co3mb3.jpg",
  "platforms": [
    {
      "name": "Mac"
    },
    {
      "name": "Windows"
    }
  ],
  "provider_games": [
    {
      "name": "bit Dungeon II",
      "slug": "331440",
      "service": "steam"
    },
    {
      "name": "Bit Dungeon II",
      "slug": "bit-dungeon-ii",
      "service": "igdb"
    }
  ],
  "aliases": [],
  "shaders": [],
  "discord_id": "",
  "change_for": null
}