{
  "id": 31389,
  "name": "Constricted VR",
  "slug": "constricted-vr",
  "year": 2017,
  "banner_url": "https://lutris.net/games/banner/constricted-vr.jpg",
  "icon_url": "https://lutris.net/games/icon/constricted-vr.png",
  "coverart": "https://lutris.net/media/igdb/cover_big/co2akz.jpg",
  "platforms": [
    {
      "name": "Windows"
    }
  ],
  "provider_games": [
    {
      "name": "Constricted VR",
      "slug": "589110",
      "service": "steam"
    },
    {
      "name": "Constricted VR",
      "slug": "constricted-vr",
      "service": "igdb"
    }
  ],
  "aliases": [],
  "shaders": [],
  "discord_id": "",
  "change_for": null
}