{
  "id": 108581,
  "name": "Green Green: Overdrive Edition",
  "slug": "green-green-overdrive-edition",
  "year": 2013,
  "banner_url": "",
  "icon_url": "",
  "coverart": "https://lutris.net/media/igdb/cover_big/co2mzp.jpg",
  "platforms": [
    {
      "name": "OOParts"
    },
    {
      "name": "Windows"
    }
  ],
  "provider_games": [
    {
      "name": "Green Green: Overdrive Edition",
      "slug": "green-green-overdrive-edition",
      "service": "igdb"
    }
  ],
  "aliases": [],
  "shaders": [],
  "discord_id": "",
  "change_for": null
}