{
  "id": 290256,
  "name": "Puzzle Dungeon!!: Earthmage Erin",
  "slug": "puzzle-dungeon-earthmage-erin",
  "year": null,
  "banner_url": "",
  "icon_url": "",
  "coverart": "https://lutris.net/media/igdb/cover_big/co8i5w.jpg",
  "platforms": [
    {
      "name": "Windows"
    }
  ],
  "provider_games": [
    {
      "name": "Puzzle Dungeon!!: Earthmage Erin",
      "slug": "puzzle-dungeon-earthmage-erin",
      "service": "igdb"
    }
  ],
  "aliases": [],
  "shaders": [],
  "discord_id": "",
  "change_for": null
}