{
  "id": 82784,
  "name": "Mr. TNT telco",
  "slug": "mr-tnt-telco",
  "year": null,
  "banner_url": "",
  "icon_url": "",
  "coverart": null,
  "platforms": [],
  "provider_games": [
    {
      "name": "Mr. TNT telco",
      "slug": "mr-tnt-telco",
      "service": "igdb"
    }
  ],
  "aliases": [],
  "shaders": [],
  "discord_id": "",
  "change_for": null
}