{
  "id": 201632,
  "name": "Top Stars Football",
  "slug": "top-stars-football",
  "year": null,
  "banner_url": "",
  "icon_url": "",
  "coverart": "https://lutris.net/media/igdb/cover_big/co4ocl.jpg",
  "platforms": [],
  "provider_games": [
    {
      "name": "Top Stars Football",
      "slug": "top-stars-football",
      "service": "igdb"
    }
  ],
  "aliases": [],
  "shaders": [],
  "discord_id": "",
  "change_for": null
}