{
  "id": 254576,
  "name": "Alien Land",
  "slug": "alien-land",
  "year": null,
  "banner_url": "",
  "icon_url": "",
  "coverart": "https://lutris.net/media/igdb/cover_big/co6wkl.jpg",
  "platforms": [],
  "provider_games": [
    {
      "name": "Alien Land",
      "slug": "alien-land",
      "service": "igdb"
    }
  ],
  "aliases": [],
  "shaders": [],
  "discord_id": "",
  "change_for": null
}