{
  "id": 107847,
  "name": "Man of War II: Chains of Command",
  "slug": "man-of-war-ii-chains-of-command",
  "year": 1999,
  "banner_url": "",
  "icon_url": "",
  "coverart": "https://lutris.net/media/igdb/cover_big/co2vv6.jpg",
  "platforms": [
    {
      "name": "Windows"
    }
  ],
  "provider_games": [
    {
      "name": "Man of War II: Chains of Command",
      "slug": "man-of-war-ii-chains-of-command",
      "service": "igdb"
    }
  ],
  "aliases": [],
  "shaders": [],
  "discord_id": "",
  "change_for": null
}