{
  "id": 27200,
  "name": "Krunker",
  "slug": "krunker",
  "year": 2018,
  "banner_url": "https://lutris.net/games/banner/krunker.jpg",
  "icon_url": "https://lutris.net/games/icon/krunker.png",
  "coverart": "https://lutris.net/media/igdb/cover_big/co1u1u.jpg",
  "platforms": [
    {
      "name": "Browser"
    },
    {
      "name": "Linux"
    }
  ],
  "provider_games": [
    {
      "name": "Krunker",
      "slug": "krunker",
      "service": "igdb"
    },
    {
      "name": "Krunker",
      "slug": "1408720",
      "service": "steam"
    }
  ],
  "aliases": [],
  "shaders": [],
  "discord_id": "",
  "change_for": null
}