{
  "id": 37259,
  "game_id": 229234,
  "game_slug": "ranger-quest-the-adventure-begins",
  "name": "Ranger Quest: The Adventure Begins",
  "year": 2022,
  "user": "vanstaveren",
  "runner": "steam",
  "slug": "ranger-quest-the-adventure-be-steam",
  "version": "steam",
  "description": "",
  "notes": "",
  "credits": "",
  "created_at": "2023-03-26T05:13:22.865245Z",
  "updated_at": "2023-03-26T05:13:22.865270Z",
  "draft": false,
  "published": true,
  "published_by": null,
  "rating": "",
  "is_playable": null,
  "steamid": null,
  "gogid": null,
  "gogslug": "",
  "humbleid": "",
  "humblestoreid": "",
  "humblestoreid_real": "",
  "script": {
    "game": {
      "appid": 2208000
    }
  },
  "content": "game:\n  appid: 2208000\n",
  "discord_id": ""
}