{
  "id": 114098,
  "name": "Gex: Return of the Gecko",
  "slug": "gex-return-of-the-gecko",
  "year": 1998,
  "banner_url": "",
  "icon_url": "",
  "coverart": "https://lutris.net/media/igdb/cover_big/co3a6o.jpg",
  "platforms": [
    {
      "name": "Sony PlayStation"
    }
  ],
  "provider_games": [
    {
      "name": "Gex: Return of the Gecko",
      "slug": "gex-return-of-the-gecko",
      "service": "igdb"
    }
  ],
  "aliases": [],
  "shaders": [],
  "discord_id": "",
  "change_for": null
}