{
  "id": 51830,
  "name": "Steve Davis World Snooker",
  "slug": "steve-davis-world-snooker",
  "year": 1989,
  "banner_url": "",
  "icon_url": "",
  "coverart": "https://lutris.net/media/igdb/cover_big/ivxo5swexhwxljjvmaqo.jpg",
  "platforms": [
    {
      "name": "Amiga"
    },
    {
      "name": "Atari ST"
    }
  ],
  "provider_games": [
    {
      "name": "Steve Davis World Snooker",
      "slug": "steve-davis-world-snooker",
      "service": "igdb"
    }
  ],
  "aliases": [],
  "shaders": [],
  "discord_id": "",
  "change_for": null
}