{
  "id": 98225,
  "name": "The Virtual Mirror",
  "slug": "the-virtual-mirror",
  "year": null,
  "banner_url": "",
  "icon_url": "",
  "coverart": null,
  "platforms": [],
  "provider_games": [
    {
      "name": "The Virtual Mirror",
      "slug": "the-virtual-mirror",
      "service": "igdb"
    }
  ],
  "aliases": [],
  "shaders": [],
  "discord_id": "",
  "change_for": null
}