{
  "id": 65681,
  "name": "Dr Carter and the Wheels of Salvation",
  "slug": "dr-carter-and-the-wheels-of-salvation",
  "year": null,
  "banner_url": "",
  "icon_url": "",
  "coverart": "https://lutris.net/media/igdb/cover_big/fgdqetygrnwfdluukqia.jpg",
  "platforms": [],
  "provider_games": [
    {
      "name": "Dr Carter and the Wheels of Salvation",
      "slug": "dr-carter-and-the-wheels-of-salvation",
      "service": "igdb"
    }
  ],
  "aliases": [],
  "shaders": [],
  "discord_id": "",
  "change_for": null
}