{
  "id": 205397,
  "name": "I Wanna be The Guy (Remastered)",
  "slug": "i-wanna-be-the-guy-remastered",
  "year": 2020,
  "banner_url": "https://lutris.net/games/banner/i-wanna-be-the-guy-remastered.jpg",
  "icon_url": "",
  "coverart": null,
  "platforms": [
    {
      "name": "Windows"
    }
  ],
  "provider_games": [],
  "aliases": [],
  "shaders": [],
  "discord_id": "",
  "change_for": null
}