{
  "id": 72132,
  "name": "SLAP-SHOT! Hockey",
  "slug": "slap-shot-hockey",
  "year": null,
  "banner_url": "",
  "icon_url": "",
  "coverart": null,
  "platforms": [],
  "provider_games": [
    {
      "name": "Slap-Shot! Hockey",
      "slug": "slap-shot-hockey",
      "service": "igdb"
    }
  ],
  "aliases": [],
  "shaders": [],
  "discord_id": "",
  "change_for": null
}