{
  "id": 41947,
  "name": "Mirage",
  "slug": "mirage",
  "year": 2018,
  "banner_url": "https://lutris.net/games/banner/mirage.jpg",
  "icon_url": "https://lutris.net/games/icon/mirage.png",
  "coverart": "https://lutris.net/media/igdb/cover_big/scbodcsbeprnlsoy44eh.jpg",
  "platforms": [
    {
      "name": "Windows"
    }
  ],
  "provider_games": [
    {
      "name": "Mirage",
      "slug": "1245780",
      "service": "steam"
    },
    {
      "name": "Mirage",
      "slug": "mirage",
      "service": "igdb"
    }
  ],
  "aliases": [],
  "shaders": [],
  "discord_id": "",
  "change_for": null
}