{
  "id": 91791,
  "name": "School Life Simulator",
  "slug": "school-life-simulator",
  "year": null,
  "banner_url": "",
  "icon_url": "",
  "coverart": null,
  "platforms": [],
  "provider_games": [
    {
      "name": "School Life Simulator",
      "slug": "school-life-simulator",
      "service": "igdb"
    }
  ],
  "aliases": [],
  "shaders": [],
  "discord_id": "",
  "change_for": null
}