{
  "id": 255578,
  "name": "RobloxTale: Noob Fight",
  "slug": "robloxtale-noob-fight",
  "year": 2020,
  "banner_url": "",
  "icon_url": "",
  "coverart": "https://lutris.net/media/igdb/cover_big/co6yji.jpg",
  "platforms": [
    {
      "name": "Windows"
    }
  ],
  "provider_games": [
    {
      "name": "RobloxTale: Noob Fight",
      "slug": "robloxtale-noob-fight",
      "service": "igdb"
    }
  ],
  "aliases": [],
  "shaders": [],
  "discord_id": "",
  "change_for": null
}