{
  "id": 63869,
  "name": "Ultimate Hangman HD",
  "slug": "ultimate-hangman-hd",
  "year": null,
  "banner_url": "",
  "icon_url": "",
  "coverart": "https://lutris.net/media/igdb/cover_big/atovckj7sptj2cmouvtb.jpg",
  "platforms": [],
  "provider_games": [
    {
      "name": "Ultimate Hangman HD",
      "slug": "ultimate-hangman-hd",
      "service": "igdb"
    }
  ],
  "aliases": [],
  "shaders": [],
  "discord_id": "",
  "change_for": null
}