{
  "id": 241721,
  "name": "Hello Kitty Birthday Party",
  "slug": "hello-kitty-birthday-party",
  "year": null,
  "banner_url": "",
  "icon_url": "",
  "coverart": "https://lutris.net/media/igdb/cover_big/co6058.jpg",
  "platforms": [],
  "provider_games": [
    {
      "name": "Hello Kitty Birthday Party",
      "slug": "hello-kitty-birthday-party",
      "service": "igdb"
    }
  ],
  "aliases": [],
  "shaders": [],
  "discord_id": "",
  "change_for": null
}