{
  "id": 226678,
  "name": "Butterfly's Poison: Blood Chains",
  "slug": "butterflys-poison-blood-chains",
  "year": 2014,
  "banner_url": "",
  "icon_url": "",
  "coverart": null,
  "platforms": [
    {
      "name": "Android"
    },
    {
      "name": "Nintendo Switch"
    },
    {
      "name": "PlayStation Vita"
    },
    {
      "name": "Sony PSP"
    }
  ],
  "provider_games": [
    {
      "name": "Butterfly's Poison: Blood Chains",
      "slug": "butterflys-poison-blood-chains",
      "service": "igdb"
    }
  ],
  "aliases": [],
  "shaders": [],
  "discord_id": "",
  "change_for": null
}