{
  "id": 246961,
  "name": "Paradise Nowhere",
  "slug": "paradise-nowhere",
  "year": null,
  "banner_url": "",
  "icon_url": "",
  "coverart": "https://lutris.net/media/igdb/cover_big/co6jfz.jpg",
  "platforms": [],
  "provider_games": [
    {
      "name": "Paradise Nowhere",
      "slug": "paradise-nowhere",
      "service": "igdb"
    }
  ],
  "aliases": [],
  "shaders": [],
  "discord_id": "",
  "change_for": null
}