{
  "id": 262967,
  "name": "Unispies: Chapter 1 - Havana Cuba",
  "slug": "unispies-chapter-1-havana-cuba",
  "year": null,
  "banner_url": "",
  "icon_url": "",
  "coverart": "https://lutris.net/media/igdb/cover_big/co77fv.jpg",
  "platforms": [],
  "provider_games": [
    {
      "name": "Unispies: Chapter 1 - Havana Cuba",
      "slug": "unispies-chapter-1-havana-cuba",
      "service": "igdb"
    }
  ],
  "aliases": [],
  "shaders": [],
  "discord_id": "",
  "change_for": null
}