{
  "id": 134414,
  "name": "Bloom: The Forest Burns",
  "slug": "bloom-the-forest-burns",
  "year": null,
  "banner_url": "",
  "icon_url": "",
  "coverart": "https://lutris.net/media/igdb/cover_big/co3mfj.jpg",
  "platforms": [],
  "provider_games": [
    {
      "name": "Bloom: The Forest Burns",
      "slug": "bloom-the-forest-burns",
      "service": "igdb"
    }
  ],
  "aliases": [],
  "shaders": [],
  "discord_id": "",
  "change_for": null
}