{
  "id": 80175,
  "name": "Powerpuff Girls: Mojo Jojo's Clone Zone",
  "slug": "powerpuff-girls-mojo-jojos-clone-zone",
  "year": 2003,
  "banner_url": "",
  "icon_url": "",
  "coverart": "https://lutris.net/media/igdb/cover_big/ssyowy7xf5fg0lfktvvy.jpg",
  "platforms": [
    {
      "name": "Mac"
    },
    {
      "name": "Windows"
    }
  ],
  "provider_games": [
    {
      "name": "Powerpuff Girls: Mojo Jojo's Clone Zone",
      "slug": "powerpuff-girls-mojo-jojos-clone-zone",
      "service": "igdb"
    }
  ],
  "aliases": [],
  "shaders": [],
  "discord_id": "",
  "change_for": null
}