{
  "id": 243553,
  "name": "Green Squares",
  "slug": "green-squares",
  "year": null,
  "banner_url": "",
  "icon_url": "",
  "coverart": "https://lutris.net/media/igdb/cover_big/co6dw1.jpg",
  "platforms": [],
  "provider_games": [
    {
      "name": "Green Squares",
      "slug": "green-squares",
      "service": "igdb"
    }
  ],
  "aliases": [],
  "shaders": [],
  "discord_id": "",
  "change_for": null
}