{
  "id": 92093,
  "name": "Shopping Zone City Driver",
  "slug": "shopping-zone-city-driver",
  "year": null,
  "banner_url": "",
  "icon_url": "",
  "coverart": null,
  "platforms": [],
  "provider_games": [
    {
      "name": "Shopping Zone City Driver",
      "slug": "shopping-zone-city-driver",
      "service": "igdb"
    }
  ],
  "aliases": [],
  "shaders": [],
  "discord_id": "",
  "change_for": null
}