{
  "id": 265115,
  "name": "Touch Force",
  "slug": "touch-force",
  "year": null,
  "banner_url": "",
  "icon_url": "",
  "coverart": "https://lutris.net/media/igdb/cover_big/co7bca.jpg",
  "platforms": [],
  "provider_games": [
    {
      "name": "Touch Force",
      "slug": "touch-force",
      "service": "igdb"
    }
  ],
  "aliases": [],
  "shaders": [],
  "discord_id": "",
  "change_for": null
}