{
  "id": 111219,
  "name": "Alien: Blackout",
  "slug": "alien-blackout",
  "year": 2019,
  "banner_url": "",
  "icon_url": "",
  "coverart": "https://lutris.net/media/igdb/cover_big/co1u3u.jpg",
  "platforms": [
    {
      "name": "Android"
    },
    {
      "name": "Mac"
    }
  ],
  "provider_games": [
    {
      "name": "Alien: Blackout",
      "slug": "alien-blackout",
      "service": "igdb"
    }
  ],
  "aliases": [],
  "shaders": [],
  "discord_id": "",
  "change_for": null
}