{
  "id": 76810,
  "name": "Nomark Baku Haitou: Shijou Saikyou no Jakushi Tatsu",
  "slug": "nomark-baku-haitou-shijou-saikyou-no-jakushi-tatsu",
  "year": 1995,
  "banner_url": "",
  "icon_url": "",
  "coverart": "https://lutris.net/media/igdb/cover_big/co6v0g.jpg",
  "platforms": [
    {
      "name": "Super Nintendo"
    }
  ],
  "provider_games": [
    {
      "name": "Nomark Baku Haitou: Shijou Saikyou no Jakushi Tatsu",
      "slug": "nomark-baku-haitou-shijou-saikyou-no-jakushi-tatsu",
      "service": "igdb"
    }
  ],
  "aliases": [],
  "shaders": [],
  "discord_id": "",
  "change_for": null
}