{
  "id": 5470,
  "name": "Wipeout Pulse",
  "slug": "wipeout-pulse",
  "year": 2007,
  "banner_url": "https://lutris.net/games/banner/wipeout-pulse.jpg",
  "icon_url": "",
  "coverart": "https://lutris.net/media/igdb/cover_big/co2z2n.jpg",
  "platforms": [
    {
      "name": "Sony PlayStation 2"
    },
    {
      "name": "Sony PSP"
    }
  ],
  "provider_games": [
    {
      "name": "Wipeout Pulse",
      "slug": "wipeout-pulse",
      "service": "igdb"
    }
  ],
  "aliases": [],
  "shaders": [],
  "discord_id": "",
  "change_for": null
}