{
  "id": 83870,
  "name": "Dragon World II",
  "slug": "dragon-world-ii",
  "year": 1997,
  "banner_url": "",
  "icon_url": "",
  "coverart": "https://lutris.net/media/igdb/cover_big/co6hpl.jpg",
  "platforms": [],
  "provider_games": [
    {
      "name": "Dragon World II",
      "slug": "dragon-world-ii",
      "service": "igdb"
    }
  ],
  "aliases": [],
  "shaders": [],
  "discord_id": "",
  "change_for": null
}