{
  "id": 59372,
  "name": "Gridrunner++",
  "slug": "gridrunner-plus-plus",
  "year": null,
  "banner_url": "",
  "icon_url": "",
  "coverart": "https://lutris.net/media/igdb/cover_big/xua1s1fplee9cn9fokfg.jpg",
  "platforms": [],
  "provider_games": [
    {
      "name": "Gridrunner++",
      "slug": "gridrunner-plus-plus",
      "service": "igdb"
    }
  ],
  "aliases": [],
  "shaders": [],
  "discord_id": "",
  "change_for": null
}