{
  "id": 148510,
  "name": "Gratuitous Zombie Cannon",
  "slug": "gratuitous-zombie-cannon",
  "year": null,
  "banner_url": "",
  "icon_url": "",
  "coverart": null,
  "platforms": [],
  "provider_games": [
    {
      "name": "Gratuitous Zombie Cannon",
      "slug": "gratuitous-zombie-cannon",
      "service": "igdb"
    }
  ],
  "aliases": [],
  "shaders": [],
  "discord_id": "",
  "change_for": null
}