{
  "id": 188193,
  "name": "Symposium of Grief",
  "slug": "symposium-of-grief",
  "year": null,
  "banner_url": "",
  "icon_url": "",
  "coverart": null,
  "platforms": [],
  "provider_games": [
    {
      "name": "Symposium of Grief",
      "slug": "symposium-of-grief",
      "service": "igdb"
    }
  ],
  "aliases": [],
  "shaders": [],
  "discord_id": "",
  "change_for": null
}