{
  "id": 214386,
  "name": "Sega Yon-nin Uchi Mahjong MJ",
  "slug": "sega-yon-nin-uchi-mahjong-mj",
  "year": 2002,
  "banner_url": "",
  "icon_url": "",
  "coverart": null,
  "platforms": [
    {
      "name": "Arcade"
    }
  ],
  "provider_games": [
    {
      "name": "Sega Yon-nin Uchi Mahjong MJ",
      "slug": "sega-yon-nin-uchi-mahjong-mj",
      "service": "igdb"
    }
  ],
  "aliases": [],
  "shaders": [],
  "discord_id": "",
  "change_for": null
}