{
  "id": 125900,
  "name": "The Skeleton",
  "slug": "the-skeleton",
  "year": null,
  "banner_url": "",
  "icon_url": "",
  "coverart": null,
  "platforms": [],
  "provider_games": [
    {
      "name": "The Skeleton",
      "slug": "the-skeleton",
      "service": "igdb"
    }
  ],
  "aliases": [],
  "shaders": [],
  "discord_id": "",
  "change_for": null
}