{
  "id": 66316,
  "name": "King Cribbage",
  "slug": "king-cribbage--1",
  "year": null,
  "banner_url": "",
  "icon_url": "",
  "coverart": "https://lutris.net/media/igdb/cover_big/riuz68oy32ncawbn4eyv.jpg",
  "platforms": [],
  "provider_games": [
    {
      "name": "King Cribbage",
      "slug": "king-cribbage--1",
      "service": "igdb"
    }
  ],
  "aliases": [],
  "shaders": [],
  "discord_id": "",
  "change_for": null
}