{
  "id": 51618,
  "name": "Butcher Hill",
  "slug": "butcher-hill",
  "year": 1989,
  "banner_url": "",
  "icon_url": "",
  "coverart": "https://lutris.net/media/igdb/cover_big/uoviz2caxadzgxka6kzn.jpg",
  "platforms": [
    {
      "name": "Amiga"
    },
    {
      "name": "Amstrad CPC"
    },
    {
      "name": "Atari ST"
    },
    {
      "name": "Commodore C64/128"
    },
    {
      "name": "ZX Spectrum"
    }
  ],
  "provider_games": [
    {
      "name": "Butcher Hill",
      "slug": "butcher-hill",
      "service": "igdb"
    }
  ],
  "aliases": [],
  "shaders": [],
  "discord_id": "",
  "change_for": null
}