{
  "id": 267977,
  "name": "Unline",
  "slug": "unline",
  "year": null,
  "banner_url": "",
  "icon_url": "",
  "coverart": "https://lutris.net/media/igdb/cover_big/co7fdy.jpg",
  "platforms": [],
  "provider_games": [
    {
      "name": "Unline",
      "slug": "unline",
      "service": "igdb"
    }
  ],
  "aliases": [],
  "shaders": [],
  "discord_id": "",
  "change_for": null
}