{
  "id": 142423,
  "name": "Candy Box",
  "slug": "candy-box",
  "year": 2013,
  "banner_url": "",
  "icon_url": "",
  "coverart": "https://lutris.net/media/igdb/cover_big/co3tql.jpg",
  "platforms": [
    {
      "name": "Browser"
    },
    {
      "name": "Linux"
    },
    {
      "name": "Mac"
    },
    {
      "name": "Windows"
    }
  ],
  "provider_games": [
    {
      "name": "Candy Box",
      "slug": "candy-box",
      "service": "igdb"
    }
  ],
  "aliases": [],
  "shaders": [],
  "discord_id": "",
  "change_for": null
}