{
  "id": 127035,
  "name": "Bustafellows: Deluxe Edition",
  "slug": "bustafellows-deluxe-edition",
  "year": 2019,
  "banner_url": "",
  "icon_url": "",
  "coverart": "https://lutris.net/media/igdb/cover_big/co3adh.jpg",
  "platforms": [
    {
      "name": "Nintendo Switch"
    }
  ],
  "provider_games": [
    {
      "name": "Bustafellows: Deluxe Edition",
      "slug": "bustafellows-deluxe-edition",
      "service": "igdb"
    }
  ],
  "aliases": [],
  "shaders": [],
  "discord_id": "",
  "change_for": null
}