{
  "id": 11258,
  "name": "Dream Catcher Chronicles: Manitou",
  "slug": "dream-catcher-chronicles-manitou",
  "year": 2016,
  "banner_url": "https://lutris.net/games/banner/dream-catcher-chronicles-manitou.jpg",
  "icon_url": "https://lutris.net/games/icon/dream-catcher-chronicles-manitou.png",
  "coverart": null,
  "platforms": [
    {
      "name": "Windows"
    }
  ],
  "provider_games": [
    {
      "name": "Dream Catcher Chronicles: Manitou",
      "slug": "432780",
      "service": "steam"
    },
    {
      "name": "Dream Catcher Chronicles: Manitou",
      "slug": "dream-catcher-chronicles-manitou",
      "service": "igdb"
    }
  ],
  "aliases": [],
  "shaders": [],
  "discord_id": "",
  "change_for": null
}