{
  "id": 100941,
  "name": "Quest of Yipe! III",
  "slug": "quest-of-yipe-iii",
  "year": 1998,
  "banner_url": "",
  "icon_url": "",
  "coverart": null,
  "platforms": [
    {
      "name": "Mac"
    }
  ],
  "provider_games": [
    {
      "name": "Quest of Yipe! III",
      "slug": "quest-of-yipe-iii",
      "service": "igdb"
    }
  ],
  "aliases": [],
  "shaders": [],
  "discord_id": "",
  "change_for": null
}