{
  "id": 32372,
  "name": "Magnificent Ships: Volume 1",
  "slug": "magnificent-ships-volume-1",
  "year": 2016,
  "banner_url": "https://lutris.net/games/banner/magnificent-ships-volume-1.jpg",
  "icon_url": "https://lutris.net/games/icon/magnificent-ships-volume-1.png",
  "coverart": "https://lutris.net/media/igdb/cover_big/co3mt0.jpg",
  "platforms": [
    {
      "name": "Windows"
    }
  ],
  "provider_games": [
    {
      "name": "Magnificent Ships: Volume 1",
      "slug": "557850",
      "service": "steam"
    },
    {
      "name": "Magnificent Ships: Volume 1",
      "slug": "magnificent-ships-volume-1",
      "service": "igdb"
    }
  ],
  "aliases": [],
  "shaders": [],
  "discord_id": "",
  "change_for": null
}