{
  "id": 289606,
  "name": "BlueTooth BiPlanes",
  "slug": "bluetooth-biplanes",
  "year": null,
  "banner_url": "",
  "icon_url": "",
  "coverart": "https://lutris.net/media/igdb/cover_big/co8cz8.jpg",
  "platforms": [],
  "provider_games": [
    {
      "name": "BlueTooth BiPlanes",
      "slug": "bluetooth-biplanes",
      "service": "igdb"
    }
  ],
  "aliases": [],
  "shaders": [],
  "discord_id": "",
  "change_for": null
}