{
  "id": 175877,
  "name": "Bakushou Mondai no Totsugeki Star Pirates",
  "slug": "bakushou-mondai-no-totsugeki-star-pirates",
  "year": 1997,
  "banner_url": "",
  "icon_url": "",
  "coverart": "https://lutris.net/media/igdb/cover_big/co43ny.jpg",
  "platforms": [
    {
      "name": "Satellaview"
    }
  ],
  "provider_games": [
    {
      "name": "Bakushou Mondai no Totsugeki Star Pirates",
      "slug": "bakushou-mondai-no-totsugeki-star-pirates",
      "service": "igdb"
    }
  ],
  "aliases": [],
  "shaders": [],
  "discord_id": "",
  "change_for": null
}