{
  "id": 36997,
  "game_id": 186042,
  "game_slug": "frostbite-deadly-climate",
  "name": "FROSTBITE: Deadly Climate",
  "year": 2017,
  "user": "vanstaveren",
  "runner": "steam",
  "slug": "frostbite-deadly-climate-steam",
  "version": "steam",
  "description": "",
  "notes": "",
  "credits": "",
  "created_at": "2023-01-28T21:43:46.540461Z",
  "updated_at": "2023-01-28T21:43:46.540485Z",
  "draft": false,
  "published": true,
  "published_by": null,
  "rating": "",
  "is_playable": null,
  "steamid": null,
  "gogid": null,
  "gogslug": "",
  "humbleid": "",
  "humblestoreid": "",
  "humblestoreid_real": "",
  "script": {
    "game": {
      "appid": 890880
    }
  },
  "content": "game:\n  appid: 890880\n",
  "discord_id": ""
}