{
  "id": 138045,
  "name": "Tales of Berseria: Collector's Edition",
  "slug": "tales-of-berseria-collectors-edition",
  "year": 2017,
  "banner_url": "",
  "icon_url": "",
  "coverart": "https://lutris.net/media/igdb/cover_big/co27ru.jpg",
  "platforms": [
    {
      "name": "Sony Playstation 4"
    }
  ],
  "provider_games": [
    {
      "name": "Tales of Berseria: Collector's Edition",
      "slug": "tales-of-berseria-collectors-edition",
      "service": "igdb"
    }
  ],
  "aliases": [],
  "shaders": [],
  "discord_id": "",
  "change_for": null
}