{
  "id": 270887,
  "name": "Degu Squad",
  "slug": "degu-squad",
  "year": null,
  "banner_url": "",
  "icon_url": "",
  "coverart": "https://lutris.net/media/igdb/cover_big/co7lj2.jpg",
  "platforms": [],
  "provider_games": [
    {
      "name": "Degu Squad",
      "slug": "degu-squad",
      "service": "igdb"
    }
  ],
  "aliases": [],
  "shaders": [],
  "discord_id": "",
  "change_for": null
}