{
  "id": 7296,
  "name": "Forced: Showdown",
  "slug": "forced-showdown",
  "year": 2016,
  "banner_url": "https://lutris.net/games/banner/forced-showdown.jpg",
  "icon_url": "https://lutris.net/games/icon/forced-showdown.png",
  "coverart": "https://lutris.net/media/igdb/cover_big/co1ii2.jpg",
  "platforms": [
    {
      "name": "Linux"
    },
    {
      "name": "Mac"
    },
    {
      "name": "Windows"
    }
  ],
  "provider_games": [
    {
      "name": "FORCED SHOWDOWN",
      "slug": "1453126104",
      "service": "gog"
    },
    {
      "name": "FORCED SHOWDOWN",
      "slug": "265000",
      "service": "steam"
    },
    {
      "name": "Forced Showdown",
      "slug": "forced-showdown",
      "service": "igdb"
    }
  ],
  "aliases": [],
  "shaders": [],
  "discord_id": "",
  "change_for": null
}