{
  "id": 179389,
  "name": "Asterix: Operation Getafix",
  "slug": "asterix-operation-getafix",
  "year": 1989,
  "banner_url": "",
  "icon_url": "",
  "coverart": "https://lutris.net/media/igdb/cover_big/t0dnazeahibyx0zem1gy.jpg",
  "platforms": [
    {
      "name": "Amiga"
    },
    {
      "name": "Atari ST"
    }
  ],
  "provider_games": [
    {
      "name": "Asterix: Operation Getafix",
      "slug": "asterix-operation-getafix",
      "service": "igdb"
    }
  ],
  "aliases": [],
  "shaders": [],
  "discord_id": "",
  "change_for": null
}