{
  "id": 12380,
  "game_id": 21890,
  "game_slug": "openra-dune-2000",
  "name": "OpenRA Dune 2000",
  "year": 2007,
  "user": "rregeer",
  "runner": "linux",
  "slug": "openra-dune-2000-appimage",
  "version": "AppImage",
  "description": "Installs the latest AppImage version from GitHub.",
  "notes": "",
  "credits": "",
  "created_at": "2019-03-14T20:18:56.036000Z",
  "updated_at": "2023-09-19T20:20:37.036933Z",
  "draft": false,
  "published": true,
  "published_by": 1,
  "rating": "",
  "is_playable": null,
  "steamid": null,
  "gogid": null,
  "gogslug": "",
  "humbleid": "",
  "humblestoreid": "",
  "humblestoreid_real": "",
  "script": {
    "files": [
      {
        "openra": "https://github.com/OpenRA/OpenRA/releases/latest/download/OpenRA-Dune-2000-x86_64.AppImage"
      }
    ],
    "game": {
      "exe": "OpenRA-Dune-2000-x86_64.AppImage"
    },
    "installer": [
      {
        "chmodx": "openra"
      },
      {
        "move": {
          "dst": "$GAMEDIR",
          "src": "openra"
        }
      }
    ],
    "system": {
      "env": {
        "APPIMAGELAUNCHER_DISABLE": true
      }
    }
  },
  "content": "files:\n- openra: https://github.com/OpenRA/OpenRA/releases/latest/download/OpenRA-Dune-2000-x86_64.AppImage\ngame:\n  exe: OpenRA-Dune-2000-x86_64.AppImage\ninstaller:\n- chmodx: openra\n- move:\n    dst: $GAMEDIR\n    src: openra\nsystem:\n  env:\n    APPIMAGELAUNCHER_DISABLE: true\n",
  "discord_id": ""
}