{
  "id": 91187,
  "name": "My Boris Neighbor",
  "slug": "my-boris-neighbor",
  "year": null,
  "banner_url": "",
  "icon_url": "",
  "coverart": null,
  "platforms": [],
  "provider_games": [
    {
      "name": "My Boris Neighbor",
      "slug": "my-boris-neighbor",
      "service": "igdb"
    }
  ],
  "aliases": [],
  "shaders": [],
  "discord_id": "",
  "change_for": null
}