{
  "id": 143652,
  "name": "Last Ninja 3",
  "slug": "last-ninja-3",
  "year": 1991,
  "banner_url": "",
  "icon_url": "",
  "coverart": "https://lutris.net/media/igdb/cover_big/co1p6r.jpg",
  "platforms": [
    {
      "name": "Amiga"
    },
    {
      "name": "Amiga CD32"
    },
    {
      "name": "Atari ST"
    },
    {
      "name": "Commodore C64/128"
    },
    {
      "name": "Nintendo Wii"
    }
  ],
  "provider_games": [
    {
      "name": "Last Ninja 3",
      "slug": "last-ninja-3",
      "service": "igdb"
    }
  ],
  "aliases": [],
  "shaders": [],
  "discord_id": "",
  "change_for": null
}