{
  "id": 219753,
  "name": "A Forever Solitude",
  "slug": "a-forever-solitude",
  "year": null,
  "banner_url": "",
  "icon_url": "",
  "coverart": "https://lutris.net/media/igdb/cover_big/co571a.jpg",
  "platforms": [],
  "provider_games": [
    {
      "name": "A Forever Solitude",
      "slug": "a-forever-solitude",
      "service": "igdb"
    }
  ],
  "aliases": [],
  "shaders": [],
  "discord_id": "",
  "change_for": null
}