{
  "id": 22704,
  "name": "Balloon",
  "slug": "balloon",
  "year": null,
  "banner_url": "https://lutris.net/games/banner/balloon.jpg",
  "icon_url": "https://lutris.net/games/icon/balloon.png",
  "coverart": null,
  "platforms": [],
  "provider_games": [
    {
      "name": "Balloon",
      "slug": "792810",
      "service": "steam"
    },
    {
      "name": "Balloon",
      "slug": "balloon",
      "service": "igdb"
    }
  ],
  "aliases": [],
  "shaders": [],
  "discord_id": "",
  "change_for": null
}