{
  "id": 172517,
  "name": "Motteke Oh! Dorobou",
  "slug": "motteke-oh-dorobou",
  "year": 1995,
  "banner_url": "",
  "icon_url": "",
  "coverart": "https://lutris.net/media/igdb/cover_big/dy8vs10junw93euv4qvv.jpg",
  "platforms": [
    {
      "name": "Satellaview"
    },
    {
      "name": "Super Nintendo"
    }
  ],
  "provider_games": [
    {
      "name": "Motteke Oh! Dorobou",
      "slug": "motteke-oh-dorobou",
      "service": "igdb"
    }
  ],
  "aliases": [],
  "shaders": [],
  "discord_id": "",
  "change_for": null
}