{
  "id": 58814,
  "name": "Six",
  "slug": "six",
  "year": null,
  "banner_url": "",
  "icon_url": "",
  "coverart": "https://lutris.net/media/igdb/cover_big/bhhsepj3ei1ctdsuoufk.jpg",
  "platforms": [],
  "provider_games": [
    {
      "name": "Six",
      "slug": "six",
      "service": "igdb"
    }
  ],
  "aliases": [],
  "shaders": [],
  "discord_id": "",
  "change_for": null
}