{
  "id": 301540,
  "name": "Kirby: Cosmic Chaos",
  "slug": "kirby-cosmic-chaos",
  "year": null,
  "banner_url": "",
  "icon_url": "",
  "coverart": "https://lutris.net/media/igdb/cover_big/co9486.jpg",
  "platforms": [
    {
      "name": "Windows"
    }
  ],
  "provider_games": [
    {
      "name": "Kirby: Cosmic Chaos",
      "slug": "kirby-cosmic-chaos",
      "service": "igdb"
    }
  ],
  "aliases": [],
  "shaders": [],
  "discord_id": "",
  "change_for": null
}