{
  "id": 228390,
  "name": "Remnants of a Beautiful Day",
  "slug": "remnants-of-a-beautiful-day--1",
  "year": 2012,
  "banner_url": "",
  "icon_url": "",
  "coverart": null,
  "platforms": [
    {
      "name": "Windows"
    }
  ],
  "provider_games": [
    {
      "name": "Remnants of a Beautiful Day",
      "slug": "remnants-of-a-beautiful-day--1",
      "service": "igdb"
    }
  ],
  "aliases": [],
  "shaders": [],
  "discord_id": "",
  "change_for": null
}