{
  "id": 198746,
  "name": "GB Pachio-kun 3",
  "slug": "gb-pachio-kun-3",
  "year": 1995,
  "banner_url": "",
  "icon_url": "",
  "coverart": null,
  "platforms": [
    {
      "name": "Game Boy"
    }
  ],
  "provider_games": [
    {
      "name": "GB Pachio-kun 3",
      "slug": "gb-pachio-kun-3",
      "service": "igdb"
    }
  ],
  "aliases": [],
  "shaders": [],
  "discord_id": "",
  "change_for": null
}