{
  "id": 111634,
  "name": "Valkyria Chronicles 4: Launch Edition",
  "slug": "valkyria-chronicles-4-launch-edition",
  "year": 2011,
  "banner_url": "",
  "icon_url": "",
  "coverart": "https://lutris.net/media/igdb/cover_big/co2ga8.jpg",
  "platforms": [
    {
      "name": "Nintendo Switch"
    },
    {
      "name": "Sony Playstation 4"
    },
    {
      "name": "Xbox One"
    }
  ],
  "provider_games": [
    {
      "name": "Valkyria Chronicles 4: Launch Edition",
      "slug": "valkyria-chronicles-4-launch-edition",
      "service": "igdb"
    }
  ],
  "aliases": [],
  "shaders": [],
  "discord_id": "",
  "change_for": null
}