{
  "id": 250098,
  "name": "Nightsteel Survivors",
  "slug": "nightsteel-survivors",
  "year": null,
  "banner_url": "",
  "icon_url": "",
  "coverart": "https://lutris.net/media/igdb/cover_big/co6p38.jpg",
  "platforms": [],
  "provider_games": [
    {
      "name": "Nightsteel Survivors",
      "slug": "nightsteel-survivors",
      "service": "igdb"
    }
  ],
  "aliases": [],
  "shaders": [],
  "discord_id": "",
  "change_for": null
}