{
  "id": 5898,
  "game_id": 6334,
  "game_slug": "bloody-roar-2",
  "name": "Bloody Roar 2",
  "year": 1999,
  "user": "Noxes",
  "runner": "libretro",
  "slug": "bloody-roar-2-playstation",
  "version": "Playstation",
  "description": "",
  "notes": "",
  "credits": "",
  "created_at": "2017-10-05T05:40:51.388000Z",
  "updated_at": "2017-10-08T18:13:30.401560Z",
  "draft": false,
  "published": true,
  "published_by": null,
  "rating": "",
  "is_playable": null,
  "steamid": null,
  "gogid": null,
  "gogslug": "",
  "humbleid": "",
  "humblestoreid": "",
  "humblestoreid_real": "",
  "script": {
    "files": [
      {
        "iso_file": "N/A:Please select the PlayStation ISO file."
      }
    ],
    "game": {
      "core": "pcsx_rearmed",
      "main_file": "iso_file"
    },
    "installer": [
      {
        "merge": {
          "dst": "$GAMEDIR",
          "src": "iso_file"
        }
      }
    ]
  },
  "content": "files:\n- iso_file: N/A:Please select the PlayStation ISO file.\ngame:\n  core: pcsx_rearmed\n  main_file: iso_file\ninstaller:\n- merge:\n    dst: $GAMEDIR\n    src: iso_file\n",
  "discord_id": ""
}