{
  "id": 286692,
  "name": "Roku and Rei",
  "slug": "roku-and-rei",
  "year": null,
  "banner_url": "",
  "icon_url": "",
  "coverart": "https://lutris.net/media/igdb/cover_big/co8a3n.jpg",
  "platforms": [],
  "provider_games": [
    {
      "name": "Roku and Rei",
      "slug": "roku-and-rei",
      "service": "igdb"
    }
  ],
  "aliases": [],
  "shaders": [],
  "discord_id": "",
  "change_for": null
}