{
  "id": 231269,
  "name": "Yesterday",
  "slug": "yesterday--2",
  "year": 2017,
  "banner_url": "",
  "icon_url": "",
  "coverart": null,
  "platforms": [
    {
      "name": "Windows"
    }
  ],
  "provider_games": [
    {
      "name": "Yesterday",
      "slug": "yesterday--2",
      "service": "igdb"
    }
  ],
  "aliases": [],
  "shaders": [],
  "discord_id": "",
  "change_for": null
}