{
  "id": 234758,
  "name": "Acronia",
  "slug": "acronia",
  "year": null,
  "banner_url": "",
  "icon_url": "",
  "coverart": "https://lutris.net/media/igdb/cover_big/co68em.jpg",
  "platforms": [],
  "provider_games": [
    {
      "name": "Acronia",
      "slug": "acronia",
      "service": "igdb"
    }
  ],
  "aliases": [],
  "shaders": [],
  "discord_id": "",
  "change_for": null
}