{
  "id": 165485,
  "name": "Hero.EXE",
  "slug": "hero-dot-exe",
  "year": null,
  "banner_url": "",
  "icon_url": "",
  "coverart": "https://lutris.net/media/igdb/cover_big/co42d7.jpg",
  "platforms": [],
  "provider_games": [
    {
      "name": "Hero.EXE",
      "slug": "hero-dot-exe",
      "service": "igdb"
    }
  ],
  "aliases": [],
  "shaders": [],
  "discord_id": "",
  "change_for": null
}