{
  "id": 53684,
  "name": "Lila's Tale",
  "slug": "lilas-tale",
  "year": null,
  "banner_url": "",
  "icon_url": "",
  "coverart": null,
  "platforms": [],
  "provider_games": [
    {
      "name": "Lila's Tale",
      "slug": "lilas-tale",
      "service": "igdb"
    }
  ],
  "aliases": [],
  "shaders": [],
  "discord_id": "",
  "change_for": null
}