{
  "id": 89896,
  "name": "The Island Castaway 2",
  "slug": "the-island-castaway-2",
  "year": null,
  "banner_url": "",
  "icon_url": "",
  "coverart": "https://lutris.net/media/igdb/cover_big/rsp7lpy5ra996tk1az7i.jpg",
  "platforms": [],
  "provider_games": [
    {
      "name": "The Island Castaway 2",
      "slug": "the-island-castaway-2",
      "service": "igdb"
    }
  ],
  "aliases": [],
  "shaders": [],
  "discord_id": "",
  "change_for": null
}