{
  "id": 197221,
  "name": "Ben Pixel 10: Raging Fist",
  "slug": "ben-pixel-10-raging-fist",
  "year": null,
  "banner_url": "",
  "icon_url": "",
  "coverart": null,
  "platforms": [],
  "provider_games": [
    {
      "name": "Ben Pixel 10: Raging Fist",
      "slug": "ben-pixel-10-raging-fist",
      "service": "igdb"
    }
  ],
  "aliases": [],
  "shaders": [],
  "discord_id": "",
  "change_for": null
}