{
  "id": 19195,
  "name": "Archon: The Light and the Dark",
  "slug": "archon-the-light-and-the-dark",
  "year": 1984,
  "banner_url": "https://lutris.net/games/banner/archon-the-light-and-the-dark.jpg",
  "icon_url": "",
  "coverart": null,
  "platforms": [
    {
      "name": "Commodore 64"
    }
  ],
  "provider_games": [],
  "aliases": [],
  "shaders": [],
  "discord_id": "",
  "change_for": null
}