{
  "id": 25786,
  "name": "Trucker 2",
  "slug": "trucker-2",
  "year": 2015,
  "banner_url": "https://lutris.net/games/banner/trucker-2.jpg",
  "icon_url": "https://lutris.net/games/icon/trucker-2.png",
  "coverart": "https://lutris.net/media/igdb/cover_big/jckzi6batrosuhyt7iwm.jpg",
  "platforms": [
    {
      "name": "Windows"
    }
  ],
  "provider_games": [
    {
      "name": "Trucker 2",
      "slug": "392890",
      "service": "steam"
    },
    {
      "name": "Trucker 2",
      "slug": "trucker-2",
      "service": "igdb"
    }
  ],
  "aliases": [],
  "shaders": [],
  "discord_id": "",
  "change_for": null
}