{
  "id": 29297,
  "game_id": 43665,
  "game_slug": "snapshot-madeleine-chai",
  "name": "Snapshot Madeleine Chai",
  "year": 2021,
  "user": "vanstaveren",
  "runner": "steam",
  "slug": "snapshot-madeleine-chai-steam",
  "version": "steam",
  "description": "",
  "notes": "",
  "credits": "",
  "created_at": "2021-09-02T18:56:47.245162Z",
  "updated_at": "2021-12-13T19:10:33.228944Z",
  "draft": false,
  "published": true,
  "published_by": null,
  "rating": "",
  "is_playable": null,
  "steamid": null,
  "gogid": null,
  "gogslug": "",
  "humbleid": "",
  "humblestoreid": "",
  "humblestoreid_real": "",
  "script": {
    "game": {
      "appid": 1569690
    }
  },
  "content": "game:\n  appid: 1569690\n",
  "discord_id": ""
}