{
  "id": 195368,
  "name": "Pretty Girls Rivers",
  "slug": "pretty-girls-rivers",
  "year": 2021,
  "banner_url": "",
  "icon_url": "",
  "coverart": "https://lutris.net/media/igdb/cover_big/co4ip3.jpg",
  "platforms": [
    {
      "name": "Nintendo Switch"
    },
    {
      "name": "Sony Playstation 4"
    },
    {
      "name": "Sony PlayStation 5"
    },
    {
      "name": "Windows"
    }
  ],
  "provider_games": [
    {
      "name": "Pretty Girls Rivers",
      "slug": "pretty-girls-rivers",
      "service": "igdb"
    }
  ],
  "aliases": [],
  "shaders": [],
  "discord_id": "",
  "change_for": null
}