{
  "id": 31348,
  "game_id": 19481,
  "game_slug": "star-trek-armada",
  "name": "Star Trek - Armada",
  "year": 2000,
  "user": "tfk",
  "runner": "wine",
  "slug": "star-trek-armada-gog",
  "version": "GOG",
  "description": "",
  "notes": "Bink video won't play yet.\r\nPatch 1.2 is part of the GOG release.\r\nPatch 1.3 is needed for widescreen support. Find it at moddb.com.",
  "credits": "",
  "created_at": "2022-01-14T14:16:11.565000Z",
  "updated_at": "2022-01-15T14:35:44.947509Z",
  "draft": false,
  "published": true,
  "published_by": 64834,
  "rating": "",
  "is_playable": null,
  "steamid": null,
  "gogid": null,
  "gogslug": "",
  "humbleid": "",
  "humblestoreid": "",
  "humblestoreid_real": "",
  "script": {
    "files": [
      {
        "installer": "N/A:Select the game's setup file"
      }
    ],
    "game": {
      "exe": "$GAMEDIR/drive_c/game/Armada.exe",
      "gogid": 1582325353,
      "prefix": "$GAMEDIR",
      "working_dir": "$GAMEDIR/drive_c/game"
    },
    "installer": [
      {
        "task": {
          "args": "/SILENT /LANG=en /SP- /NOCANCEL /SUPPRESSMSGBOXES /NOGUI /DIR=\"C:\\game\"",
          "executable": "installer",
          "name": "wineexec"
        }
      }
    ]
  },
  "content": "files:\n- installer: N/A:Select the game's setup file\ngame:\n  exe: $GAMEDIR/drive_c/game/Armada.exe\n  gogid: 1582325353\n  prefix: $GAMEDIR\n  working_dir: $GAMEDIR/drive_c/game\ninstaller:\n- task:\n    args: /SILENT /LANG=en /SP- /NOCANCEL /SUPPRESSMSGBOXES /NOGUI /DIR=\"C:\\game\"\n    executable: installer\n    name: wineexec\n",
  "discord_id": ""
}