{
  "id": 244535,
  "name": "DR2 Night Janki",
  "slug": "dr2-night-janki",
  "year": 1995,
  "banner_url": "",
  "icon_url": "",
  "coverart": "https://lutris.net/media/igdb/cover_big/co6ffl.jpg",
  "platforms": [
    {
      "name": "PC-98"
    }
  ],
  "provider_games": [
    {
      "name": "DR2 Night Janki",
      "slug": "dr2-night-janki",
      "service": "igdb"
    }
  ],
  "aliases": [],
  "shaders": [],
  "discord_id": "",
  "change_for": null
}