{
  "id": 99020,
  "name": "The Quest Trio",
  "slug": "the-quest-trio",
  "year": null,
  "banner_url": "",
  "icon_url": "",
  "coverart": null,
  "platforms": [],
  "provider_games": [
    {
      "name": "The Quest Trio",
      "slug": "the-quest-trio",
      "service": "igdb"
    }
  ],
  "aliases": [],
  "shaders": [],
  "discord_id": "",
  "change_for": null
}