{
  "id": 54988,
  "name": "Agent Hugo: Hula Holiday",
  "slug": "agent-hugo-hula-holiday",
  "year": 2009,
  "banner_url": "",
  "icon_url": "",
  "coverart": "https://lutris.net/media/igdb/cover_big/blnxd32cjfq2wncoyixp.jpg",
  "platforms": [
    {
      "name": "Sony PlayStation 2"
    }
  ],
  "provider_games": [
    {
      "name": "Agent Hugo: Hula Holiday",
      "slug": "agent-hugo-hula-holiday",
      "service": "igdb"
    }
  ],
  "aliases": [],
  "shaders": [],
  "discord_id": "",
  "change_for": null
}