{
  "id": 255829,
  "name": "Cactus",
  "slug": "cactus",
  "year": null,
  "banner_url": "",
  "icon_url": "",
  "coverart": "https://lutris.net/media/igdb/cover_big/co6xxr.jpg",
  "platforms": [],
  "provider_games": [
    {
      "name": "Cactus",
      "slug": "cactus",
      "service": "igdb"
    }
  ],
  "aliases": [],
  "shaders": [],
  "discord_id": "",
  "change_for": null
}