{
  "id": 184419,
  "name": "Back Four Seconds",
  "slug": "back-four-seconds",
  "year": null,
  "banner_url": "",
  "icon_url": "",
  "coverart": null,
  "platforms": [],
  "provider_games": [
    {
      "name": "Back Four Seconds",
      "slug": "back-four-seconds",
      "service": "igdb"
    }
  ],
  "aliases": [],
  "shaders": [],
  "discord_id": "",
  "change_for": null
}