{
  "id": 263082,
  "name": "A Tale of Two Lovers",
  "slug": "a-tale-of-two-lovers",
  "year": null,
  "banner_url": "",
  "icon_url": "",
  "coverart": "https://lutris.net/media/igdb/cover_big/co77mf.jpg",
  "platforms": [],
  "provider_games": [
    {
      "name": "A Tale of Two Lovers",
      "slug": "a-tale-of-two-lovers",
      "service": "igdb"
    }
  ],
  "aliases": [],
  "shaders": [],
  "discord_id": "",
  "change_for": null
}