{
  "id": 106659,
  "name": "Hubert the Teddy Bear: Winter Games",
  "slug": "hubert-the-teddy-bear-winter-games",
  "year": 2010,
  "banner_url": "",
  "icon_url": "",
  "coverart": "https://lutris.net/media/igdb/cover_big/sexqqhczukj8bemvqzbv.jpg",
  "platforms": [
    {
      "name": "Nintendo Wii"
    }
  ],
  "provider_games": [
    {
      "name": "Hubert the Teddy Bear: Winter Games",
      "slug": "hubert-the-teddy-bear-winter-games",
      "service": "igdb"
    }
  ],
  "aliases": [],
  "shaders": [],
  "discord_id": "",
  "change_for": null
}