{
  "id": 293824,
  "name": "Mystery Trackers: Darkwater Bay",
  "slug": "mystery-trackers-darkwater-bay",
  "year": 2018,
  "banner_url": "",
  "icon_url": "",
  "coverart": "https://lutris.net/media/igdb/cover_big/co8oc8.jpg",
  "platforms": [
    {
      "name": "Android"
    },
    {
      "name": "Mac"
    },
    {
      "name": "Windows"
    }
  ],
  "provider_games": [
    {
      "name": "Mystery Trackers: Darkwater Bay",
      "slug": "mystery-trackers-darkwater-bay",
      "service": "igdb"
    }
  ],
  "aliases": [],
  "shaders": [],
  "discord_id": "",
  "change_for": null
}