{
  "id": 30950,
  "name": "Sled Storm",
  "slug": "sled-storm",
  "year": 1999,
  "banner_url": "https://lutris.net/games/banner/sled-storm.jpg",
  "icon_url": "",
  "coverart": "https://lutris.net/media/igdb/cover_big/co2rbp.jpg",
  "platforms": [
    {
      "name": "Sony PlayStation"
    },
    {
      "name": "Sony PlayStation 2"
    }
  ],
  "provider_games": [
    {
      "name": "Sled Storm",
      "slug": "sled-storm",
      "service": "igdb"
    }
  ],
  "aliases": [],
  "shaders": [],
  "discord_id": "",
  "change_for": null
}