{
  "id": 289833,
  "name": "Secret of the Solstice",
  "slug": "secret-of-the-solstice",
  "year": null,
  "banner_url": "",
  "icon_url": "",
  "coverart": "https://lutris.net/media/igdb/cover_big/co8fgu.jpg",
  "platforms": [],
  "provider_games": [
    {
      "name": "Secret of the Solstice",
      "slug": "secret-of-the-solstice",
      "service": "igdb"
    }
  ],
  "aliases": [],
  "shaders": [],
  "discord_id": "",
  "change_for": null
}