{
  "id": 200577,
  "name": "Peculiar Fables: The Werebed",
  "slug": "peculiar-fables-the-werebed",
  "year": 2020,
  "banner_url": "",
  "icon_url": "",
  "coverart": "https://lutris.net/media/igdb/cover_big/co4c2v.jpg",
  "platforms": [
    {
      "name": "Windows"
    }
  ],
  "provider_games": [
    {
      "name": "Peculiar Fables: The Werebed",
      "slug": "peculiar-fables-the-werebed",
      "service": "igdb"
    }
  ],
  "aliases": [],
  "shaders": [],
  "discord_id": "",
  "change_for": null
}