{
  "id": 112762,
  "name": "Growlanser IV: Overreloaded",
  "slug": "growlanser-iv-overreloaded",
  "year": 2011,
  "banner_url": "",
  "icon_url": "",
  "coverart": "https://lutris.net/media/igdb/cover_big/co1pt5.jpg",
  "platforms": [
    {
      "name": "Sony PSP"
    }
  ],
  "provider_games": [
    {
      "name": "Growlanser IV: Overreloaded",
      "slug": "growlanser-iv-overreloaded",
      "service": "igdb"
    }
  ],
  "aliases": [],
  "shaders": [],
  "discord_id": "",
  "change_for": null
}