{
  "id": 110574,
  "name": "Hanagumi Taisen Columns 2",
  "slug": "hanagumi-taisen-columns-2",
  "year": 2000,
  "banner_url": "",
  "icon_url": "",
  "coverart": "https://lutris.net/media/igdb/cover_big/co2zab.jpg",
  "platforms": [
    {
      "name": "Dreamcast"
    }
  ],
  "provider_games": [
    {
      "name": "Hanagumi Taisen Columns 2",
      "slug": "hanagumi-taisen-columns-2",
      "service": "igdb"
    }
  ],
  "aliases": [],
  "shaders": [],
  "discord_id": "",
  "change_for": null
}