{
  "id": 154128,
  "name": "Legeclo: Legend Clover",
  "slug": "legeclo-legend-clover",
  "year": null,
  "banner_url": "https://lutris.net/games/banner/legeclo-legend-clover.jpg",
  "icon_url": "",
  "coverart": "https://lutris.net/media/igdb/cover_big/co3wze.jpg",
  "platforms": [
    {
      "name": "Android"
    }
  ],
  "provider_games": [
    {
      "name": "Legeclo: Legend Clover",
      "slug": "legeclo-legend-clover",
      "service": "igdb"
    },
    {
      "name": "Legeclo: Legend Clover",
      "slug": "2634990",
      "service": "steam"
    }
  ],
  "aliases": [],
  "shaders": [],
  "discord_id": "",
  "change_for": null
}