{
  "id": 55077,
  "name": "Expert",
  "slug": "expert",
  "year": 1996,
  "banner_url": "",
  "icon_url": "",
  "coverart": "https://lutris.net/media/igdb/cover_big/cht2ynjedcclmbvgnrkm.jpg",
  "platforms": [
    {
      "name": "Sony PlayStation"
    },
    {
      "name": "Windows"
    }
  ],
  "provider_games": [
    {
      "name": "Expert",
      "slug": "expert",
      "service": "igdb"
    }
  ],
  "aliases": [],
  "shaders": [],
  "discord_id": "",
  "change_for": null
}