{
  "id": 1288,
  "game_id": 443,
  "game_slug": "star-wars-jedi-knight-jedi-academy",
  "name": "Star Wars Jedi Knight: Jedi Academy",
  "year": 2003,
  "user": "strider",
  "runner": "linux",
  "slug": "star-wars-jedi-knight-jedi-ac-nativesteam-data",
  "version": "Native+steam data",
  "description": "NO LONGER MAINTAINED, INSTEAD USE LUXTORPEDA WITH THE STEAM VERSION: https://github.com/luxtorpeda-dev/luxtorpeda",
  "notes": "",
  "credits": "",
  "created_at": "2015-02-09T12:55:34.435000Z",
  "updated_at": "2024-04-03T05:34:42.459951Z",
  "draft": false,
  "published": true,
  "published_by": 494,
  "rating": "",
  "is_playable": null,
  "steamid": 6020,
  "gogid": 1428935726,
  "gogslug": "star_wars_jedi_knight_jedi_academy",
  "humbleid": "",
  "humblestoreid": "",
  "humblestoreid_real": "",
  "script": {
    "files": [
      {
        "openjk": "https://github.com/dhollinger/lutris_installers/releases/download/v1.0.0/openjk_ja_linux.tar.gz"
      },
      {
        "exec": "https://raw.githubusercontent.com/dhollinger/lutris_installers/master/scripts/jedi-academy.sh"
      },
      {
        "jediacademy-data": "$STEAM:6020:GameData"
      }
    ],
    "game": {
      "exe": "start.sh"
    },
    "installer": [
      {
        "move": {
          "dst": "$GAMEDIR/start.sh",
          "src": "exec"
        }
      },
      {
        "chmodx": "$GAMEDIR/start.sh"
      },
      {
        "extract": {
          "dst": "$GAMEDIR/GameData",
          "file": "openjk"
        }
      },
      {
        "merge": {
          "dst": "$GAMEDIR/GameData",
          "src": "jediacademy-data"
        }
      }
    ]
  },
  "content": "files:\n- openjk: https://github.com/dhollinger/lutris_installers/releases/download/v1.0.0/openjk_ja_linux.tar.gz\n- exec: https://raw.githubusercontent.com/dhollinger/lutris_installers/master/scripts/jedi-academy.sh\n- jediacademy-data: $STEAM:6020:GameData\ngame:\n  exe: start.sh\ninstaller:\n- move:\n    dst: $GAMEDIR/start.sh\n    src: exec\n- chmodx: $GAMEDIR/start.sh\n- extract:\n    dst: $GAMEDIR/GameData\n    file: openjk\n- merge:\n    dst: $GAMEDIR/GameData\n    src: jediacademy-data\n",
  "discord_id": ""
}