{
  "id": 190174,
  "name": "The Gap",
  "slug": "the-gap",
  "year": null,
  "banner_url": "",
  "icon_url": "",
  "coverart": "https://lutris.net/media/igdb/cover_big/co43t1.jpg",
  "platforms": [
    {
      "name": "Windows"
    }
  ],
  "provider_games": [
    {
      "name": "The Gap",
      "slug": "the-gap",
      "service": "igdb"
    },
    {
      "name": "The Gap",
      "slug": "1881988145",
      "service": "gog"
    }
  ],
  "aliases": [],
  "shaders": [],
  "discord_id": "",
  "change_for": null
}