{
  "id": 206247,
  "name": "Orna: the GPS RPG",
  "slug": "orna-the-gps-rpg",
  "year": 2019,
  "banner_url": "",
  "icon_url": "",
  "coverart": null,
  "platforms": [
    {
      "name": "Android"
    },
    {
      "name": "Legacy Cellphone"
    }
  ],
  "provider_games": [
    {
      "name": "Orna: the GPS RPG",
      "slug": "orna-the-gps-rpg",
      "service": "igdb"
    }
  ],
  "aliases": [],
  "shaders": [],
  "discord_id": "",
  "change_for": null
}