{
  "id": 193812,
  "name": "Hunter Legends of Dungeon",
  "slug": "hunter-legends-of-dungeon",
  "year": null,
  "banner_url": "",
  "icon_url": "",
  "coverart": null,
  "platforms": [],
  "provider_games": [
    {
      "name": "Hunter Legends of Dungeon",
      "slug": "hunter-legends-of-dungeon",
      "service": "igdb"
    }
  ],
  "aliases": [],
  "shaders": [],
  "discord_id": "",
  "change_for": null
}