{
  "id": 238149,
  "name": "Eternal Seas",
  "slug": "eternal-seas",
  "year": null,
  "banner_url": "",
  "icon_url": "",
  "coverart": "https://lutris.net/media/igdb/cover_big/co64mg.jpg",
  "platforms": [],
  "provider_games": [
    {
      "name": "Eternal Seas",
      "slug": "eternal-seas",
      "service": "igdb"
    }
  ],
  "aliases": [],
  "shaders": [],
  "discord_id": "",
  "change_for": null
}