{
  "id": 94083,
  "name": "Cash Register Toy",
  "slug": "cash-register-toy",
  "year": null,
  "banner_url": "",
  "icon_url": "",
  "coverart": null,
  "platforms": [],
  "provider_games": [
    {
      "name": "Cash Register Toy",
      "slug": "cash-register-toy",
      "service": "igdb"
    }
  ],
  "aliases": [],
  "shaders": [],
  "discord_id": "",
  "change_for": null
}