{
  "id": 111378,
  "name": "Wizardry Xth: Mugen no Gakuto (Unlimited Students)",
  "slug": "wizardry-xth-mugen-no-gakuto-unlimited-students",
  "year": 2006,
  "banner_url": "",
  "icon_url": "",
  "coverart": "https://lutris.net/media/igdb/cover_big/co30ax.jpg",
  "platforms": [
    {
      "name": "Sony PlayStation 2"
    }
  ],
  "provider_games": [
    {
      "name": "Wizardry Xth: Mugen no Gakuto - Unlimited Students",
      "slug": "wizardry-xth-mugen-no-gakuto-unlimited-students",
      "service": "igdb"
    }
  ],
  "aliases": [],
  "shaders": [],
  "discord_id": "",
  "change_for": null
}