{
  "id": 224257,
  "name": "Teen Titans Go! Drillionaire",
  "slug": "teen-titans-go-drillionaire",
  "year": 2015,
  "banner_url": "",
  "icon_url": "",
  "coverart": "https://lutris.net/media/igdb/cover_big/co4ucz.jpg",
  "platforms": [
    {
      "name": "Browser"
    }
  ],
  "provider_games": [
    {
      "name": "Teen Titans Go! Drillionaire",
      "slug": "teen-titans-go-drillionaire",
      "service": "igdb"
    }
  ],
  "aliases": [],
  "shaders": [],
  "discord_id": "",
  "change_for": null
}