{
  "id": 67310,
  "name": "Jimmy's Soccer Manager",
  "slug": "jimmys-soccer-manager",
  "year": null,
  "banner_url": "",
  "icon_url": "",
  "coverart": null,
  "platforms": [],
  "provider_games": [
    {
      "name": "Jimmy's Soccer Manager",
      "slug": "jimmys-soccer-manager",
      "service": "igdb"
    }
  ],
  "aliases": [],
  "shaders": [],
  "discord_id": "",
  "change_for": null
}