{
  "id": 58977,
  "name": "Morphicle",
  "slug": "morphicle",
  "year": 1987,
  "banner_url": "",
  "icon_url": "",
  "coverart": "https://lutris.net/media/igdb/cover_big/kdeqe4ppznkabzmwhxwg.jpg",
  "platforms": [
    {
      "name": "Commodore C64/128"
    }
  ],
  "provider_games": [
    {
      "name": "Morphicle",
      "slug": "morphicle",
      "service": "igdb"
    }
  ],
  "aliases": [],
  "shaders": [],
  "discord_id": "",
  "change_for": null
}