{
  "id": 260313,
  "name": "Microgames Jam Pack",
  "slug": "microgames-jam-pack",
  "year": 2022,
  "banner_url": "",
  "icon_url": "",
  "coverart": null,
  "platforms": [
    {
      "name": "Game Boy"
    }
  ],
  "provider_games": [
    {
      "name": "Microgames Jam Pack",
      "slug": "microgames-jam-pack",
      "service": "igdb"
    }
  ],
  "aliases": [],
  "shaders": [],
  "discord_id": "",
  "change_for": null
}