{
  "id": 5086,
  "name": "Blake Stone: Aliens of Gold",
  "slug": "blake-stone-aliens-of-gold",
  "year": 1993,
  "banner_url": "https://lutris.net/games/banner/blake-stone-aliens-of-gold.jpg",
  "icon_url": "https://lutris.net/games/icon/blake-stone-aliens-of-gold.png",
  "coverart": "https://lutris.net/media/igdb/cover_big/co2hlx.jpg",
  "platforms": [],
  "provider_games": [
    {
      "name": "Blake Stone: Aliens of Gold",
      "slug": "1207658728",
      "service": "gog"
    },
    {
      "name": "Blake Stone: Aliens of Gold",
      "slug": "358190",
      "service": "steam"
    },
    {
      "name": "Blake Stone: Aliens of Gold",
      "slug": "blake-stone-aliens-of-gold",
      "service": "igdb"
    }
  ],
  "aliases": [],
  "shaders": [],
  "discord_id": "",
  "change_for": null
}