{
  "id": 42763,
  "name": "Avalon Legends Solitaire 3",
  "slug": "avalon-legends-solitaire-3",
  "year": 2018,
  "banner_url": "https://lutris.net/games/banner/avalon-legends-solitaire-3.jpg",
  "icon_url": "https://lutris.net/games/icon/avalon-legends-solitaire-3.png",
  "coverart": null,
  "platforms": [
    {
      "name": "Windows"
    }
  ],
  "provider_games": [
    {
      "name": "Avalon Legends Solitaire 3",
      "slug": "841980",
      "service": "steam"
    },
    {
      "name": "Avalon Legends Solitaire 3",
      "slug": "avalon-legends-solitaire-3",
      "service": "igdb"
    }
  ],
  "aliases": [],
  "shaders": [],
  "discord_id": "",
  "change_for": null
}