{
  "id": 285807,
  "name": "Clawpido",
  "slug": "clawpido",
  "year": null,
  "banner_url": "",
  "icon_url": "",
  "coverart": "https://lutris.net/media/igdb/cover_big/co88t0.jpg",
  "platforms": [],
  "provider_games": [
    {
      "name": "Clawpido",
      "slug": "clawpido",
      "service": "igdb"
    }
  ],
  "aliases": [],
  "shaders": [],
  "discord_id": "",
  "change_for": null
}