{
  "id": 280203,
  "name": "Time Avarice",
  "slug": "time-avarice",
  "year": null,
  "banner_url": "",
  "icon_url": "",
  "coverart": "https://lutris.net/media/igdb/cover_big/co80uq.jpg",
  "platforms": [],
  "provider_games": [
    {
      "name": "Time Avarice",
      "slug": "time-avarice",
      "service": "igdb"
    }
  ],
  "aliases": [],
  "shaders": [],
  "discord_id": "",
  "change_for": null
}