{
  "id": 34852,
  "name": "Muscle Bomber Duo: Ultimate Team Battle",
  "slug": "muscle-bomber-duo-ultimate-team-battle",
  "year": 1993,
  "banner_url": "https://lutris.net/games/banner/muscle-bomber-duo-ultimate-team-battle.jpg",
  "icon_url": "https://lutris.net/games/icon/muscle-bomber-duo-ultimate-team-battle.png",
  "coverart": "https://lutris.net/media/igdb/cover_big/wx6nwqdtfvtkyotjysja.jpg",
  "platforms": [
    {
      "name": "Arcade"
    }
  ],
  "provider_games": [
    {
      "name": "Muscle Bomber Duo: Ultimate Team Battle",
      "slug": "mbombrd",
      "service": "mame"
    },
    {
      "name": "Muscle Bomber Duo: Ultimate Team Battle",
      "slug": "muscle-bomber-duo-ultimate-team-battle",
      "service": "igdb"
    }
  ],
  "aliases": [],
  "shaders": [],
  "discord_id": "",
  "change_for": null
}