{
  "id": 57053,
  "name": "Automakhan",
  "slug": "automakhan",
  "year": null,
  "banner_url": "",
  "icon_url": "",
  "coverart": "https://lutris.net/media/igdb/cover_big/jcotcapfcbtnmdxlwclc.jpg",
  "platforms": [],
  "provider_games": [
    {
      "name": "Automakhan",
      "slug": "automakhan",
      "service": "igdb"
    }
  ],
  "aliases": [],
  "shaders": [],
  "discord_id": "",
  "change_for": null
}