{
  "id": 222151,
  "name": "Battle of S Fighters",
  "slug": "battle-of-s-fighters",
  "year": null,
  "banner_url": "",
  "icon_url": "",
  "coverart": null,
  "platforms": [],
  "provider_games": [
    {
      "name": "Battle of S Fighters",
      "slug": "battle-of-s-fighters",
      "service": "igdb"
    }
  ],
  "aliases": [],
  "shaders": [],
  "discord_id": "",
  "change_for": null
}