{
  "id": 55074,
  "name": "Imadoki no Vampire: Bloody Bride",
  "slug": "imadoki-no-vampire-bloody-bride",
  "year": 1997,
  "banner_url": "",
  "icon_url": "",
  "coverart": "https://lutris.net/media/igdb/cover_big/jpvkpx0xpewvpfs54y3e.jpg",
  "platforms": [
    {
      "name": "Sony PlayStation"
    }
  ],
  "provider_games": [
    {
      "name": "Imadoki no Vampire: Bloody Bride",
      "slug": "imadoki-no-vampire-bloody-bride",
      "service": "igdb"
    }
  ],
  "aliases": [],
  "shaders": [],
  "discord_id": "",
  "change_for": null
}