{
  "id": 236937,
  "name": "Word Cafe 21",
  "slug": "word-cafe-21",
  "year": null,
  "banner_url": "",
  "icon_url": "",
  "coverart": null,
  "platforms": [],
  "provider_games": [
    {
      "name": "Word Cafe 21",
      "slug": "word-cafe-21",
      "service": "igdb"
    }
  ],
  "aliases": [],
  "shaders": [],
  "discord_id": "",
  "change_for": null
}