{
  "id": 203896,
  "name": "The Game About People",
  "slug": "the-game-about-people",
  "year": 2021,
  "banner_url": "",
  "icon_url": "",
  "coverart": null,
  "platforms": [],
  "provider_games": [
    {
      "name": "The Game About People",
      "slug": "the-game-about-people",
      "service": "igdb"
    }
  ],
  "aliases": [],
  "shaders": [],
  "discord_id": "",
  "change_for": null
}