{
  "id": 16522,
  "name": "Vampires!",
  "slug": "vampires",
  "year": 2017,
  "banner_url": "https://lutris.net/games/banner/vampires.jpg",
  "icon_url": "https://lutris.net/games/icon/vampires.png",
  "coverart": "https://lutris.net/media/igdb/cover_big/qmcmdznql0dgc17zyorp.jpg",
  "platforms": [
    {
      "name": "Linux"
    },
    {
      "name": "Mac"
    },
    {
      "name": "Windows"
    }
  ],
  "provider_games": [
    {
      "name": "Vampires!",
      "slug": "713050",
      "service": "steam"
    },
    {
      "name": "Vampires!",
      "slug": "vampires",
      "service": "igdb"
    }
  ],
  "aliases": [],
  "shaders": [],
  "discord_id": "",
  "change_for": null
}