{
  "id": 19052,
  "name": "Coregrounds",
  "slug": "coregrounds",
  "year": 2018,
  "banner_url": "https://lutris.net/games/banner/coregrounds.jpg",
  "icon_url": "https://lutris.net/games/icon/coregrounds.png",
  "coverart": "https://lutris.net/media/igdb/cover_big/z2v178b731sez1ipxqya.jpg",
  "platforms": [
    {
      "name": "Linux"
    },
    {
      "name": "Mac"
    },
    {
      "name": "Windows"
    }
  ],
  "provider_games": [
    {
      "name": "Coregrounds",
      "slug": "649770",
      "service": "steam"
    },
    {
      "name": "Coregrounds",
      "slug": "coregrounds",
      "service": "igdb"
    }
  ],
  "aliases": [],
  "shaders": [],
  "discord_id": "",
  "change_for": null
}