{
  "id": 18922,
  "name": "The Parallax Effect",
  "slug": "the-parallax-effect",
  "year": 2017,
  "banner_url": "https://lutris.net/games/banner/the-parallax-effect.jpg",
  "icon_url": "https://lutris.net/games/icon/the-parallax-effect.png",
  "coverart": "https://lutris.net/media/igdb/cover_big/co23dt.jpg",
  "platforms": [
    {
      "name": "Mac"
    },
    {
      "name": "Windows"
    }
  ],
  "provider_games": [
    {
      "name": "The Parallax Effect",
      "slug": "738500",
      "service": "steam"
    },
    {
      "name": "The Parallax Effect",
      "slug": "the-parallax-effect",
      "service": "igdb"
    }
  ],
  "aliases": [],
  "shaders": [],
  "discord_id": "",
  "change_for": null
}