{
  "id": 115527,
  "name": "Assault Spy: Elite Spy Edition",
  "slug": "assault-spy-elite-spy-edition",
  "year": null,
  "banner_url": "",
  "icon_url": "",
  "coverart": "https://lutris.net/media/igdb/cover_big/co3cae.jpg",
  "platforms": [],
  "provider_games": [
    {
      "name": "Assault Spy: Elite Spy Edition",
      "slug": "assault-spy-elite-spy-edition",
      "service": "igdb"
    }
  ],
  "aliases": [],
  "shaders": [],
  "discord_id": "",
  "change_for": null
}