{
  "id": 4104,
  "game_id": 11549,
  "game_slug": "hellmouth",
  "name": "Hellmouth",
  "year": 2014,
  "user": "FakeShemp",
  "runner": "linux",
  "slug": "hellmouth-humble",
  "version": "Humble",
  "description": "",
  "notes": "",
  "credits": "",
  "created_at": "2017-06-04T18:23:42.294911Z",
  "updated_at": "2024-04-03T05:34:31.234769Z",
  "draft": false,
  "published": true,
  "published_by": null,
  "rating": "",
  "is_playable": null,
  "steamid": null,
  "gogid": null,
  "gogslug": "",
  "humbleid": "",
  "humblestoreid": "",
  "humblestoreid_real": "",
  "script": {
    "files": [
      {
        "file1": "N/A:Please select the Humble archive"
      }
    ],
    "game": {
      "exe": "Hellmouth"
    },
    "installer": [
      {
        "extract": {
          "file": "$file1"
        }
      }
    ]
  },
  "content": "files:\n- file1: N/A:Please select the Humble archive\ngame:\n  exe: Hellmouth\ninstaller:\n- extract:\n    file: $file1\n",
  "discord_id": ""
}