{
  "id": 273607,
  "name": "PvPillman",
  "slug": "pvpillman",
  "year": null,
  "banner_url": "",
  "icon_url": "",
  "coverart": "https://lutris.net/media/igdb/cover_big/co7q2s.jpg",
  "platforms": [],
  "provider_games": [
    {
      "name": "PvPillman",
      "slug": "pvpillman",
      "service": "igdb"
    }
  ],
  "aliases": [],
  "shaders": [],
  "discord_id": "",
  "change_for": null
}