{
  "id": 213689,
  "name": "Century: Age of Ashes - Strength of Jaarlandt Edition",
  "slug": "century-age-of-ashes-strength-of-jaarlandt-edition",
  "year": 2022,
  "banner_url": "",
  "icon_url": "",
  "coverart": "https://lutris.net/media/igdb/cover_big/co5w51.jpg",
  "platforms": [
    {
      "name": "Xbox One"
    },
    {
      "name": "Xbox Series X|S"
    }
  ],
  "provider_games": [
    {
      "name": "Century: Age of Ashes - Strength of Jaarlandt Edition",
      "slug": "century-age-of-ashes-strength-of-jaarlandt-edition",
      "service": "igdb"
    }
  ],
  "aliases": [],
  "shaders": [],
  "discord_id": "",
  "change_for": null
}