{
  "id": 138892,
  "name": "Monster Shooter",
  "slug": "monster-shooter--2",
  "year": null,
  "banner_url": "",
  "icon_url": "",
  "coverart": "https://lutris.net/media/igdb/cover_big/co3rfd.jpg",
  "platforms": [],
  "provider_games": [
    {
      "name": "Monster Shooter",
      "slug": "monster-shooter--2",
      "service": "igdb"
    }
  ],
  "aliases": [],
  "shaders": [],
  "discord_id": "",
  "change_for": null
}