{
  "id": 238018,
  "name": "Keeping It Shrimple",
  "slug": "keeping-it-shrimple",
  "year": null,
  "banner_url": "",
  "icon_url": "",
  "coverart": "https://lutris.net/media/igdb/cover_big/co64ni.jpg",
  "platforms": [],
  "provider_games": [
    {
      "name": "Keeping It Shrimple",
      "slug": "keeping-it-shrimple",
      "service": "igdb"
    }
  ],
  "aliases": [],
  "shaders": [],
  "discord_id": "",
  "change_for": null
}