{
  "id": 280609,
  "name": "Starship Home",
  "slug": "starship-home",
  "year": null,
  "banner_url": "",
  "icon_url": "",
  "coverart": "https://lutris.net/media/igdb/cover_big/co7z1o.jpg",
  "platforms": [],
  "provider_games": [
    {
      "name": "Starship Home",
      "slug": "starship-home",
      "service": "igdb"
    }
  ],
  "aliases": [],
  "shaders": [],
  "discord_id": "",
  "change_for": null
}