{
  "id": 173130,
  "name": "Forza Motorsport 6: APEX",
  "slug": "forza-motorsport-6-apex",
  "year": 2016,
  "banner_url": "",
  "icon_url": "",
  "coverart": "https://lutris.net/media/igdb/cover_big/co1o6b.jpg",
  "platforms": [
    {
      "name": "Windows"
    }
  ],
  "provider_games": [
    {
      "name": "Forza Motorsport 6: Apex",
      "slug": "forza-motorsport-6-apex",
      "service": "igdb"
    }
  ],
  "aliases": [],
  "shaders": [],
  "discord_id": "",
  "change_for": null
}