{
  "id": 19926,
  "name": "Save the Date",
  "slug": "save-the-date",
  "year": 2013,
  "banner_url": "https://lutris.net/games/banner/save-the-date.jpg",
  "icon_url": "",
  "coverart": "https://lutris.net/media/igdb/cover_big/gmrhe4zbn81f8i3ax0jp.jpg",
  "platforms": [
    {
      "name": "Linux"
    },
    {
      "name": "Windows"
    }
  ],
  "provider_games": [
    {
      "name": "Save the Date",
      "slug": "save-the-date",
      "service": "igdb"
    }
  ],
  "aliases": [],
  "shaders": [],
  "discord_id": "",
  "change_for": null
}