{
  "id": 100927,
  "name": "Planet Rescue: Animal Emergency",
  "slug": "planet-rescue-animal-emergency",
  "year": 2008,
  "banner_url": "",
  "icon_url": "",
  "coverart": "https://lutris.net/media/igdb/cover_big/co2h6x.jpg",
  "platforms": [
    {
      "name": "Nintendo DS"
    }
  ],
  "provider_games": [
    {
      "name": "Planet Rescue: Animal Emergency",
      "slug": "planet-rescue-animal-emergency",
      "service": "igdb"
    }
  ],
  "aliases": [],
  "shaders": [],
  "discord_id": "",
  "change_for": null
}