{
  "id": 29140,
  "name": "Rhem 3: The Secret Library",
  "slug": "rhem-3-the-secret-library",
  "year": 2007,
  "banner_url": "https://lutris.net/games/banner/rhem-3-the-secret-library.jpg",
  "icon_url": "",
  "coverart": "https://lutris.net/media/igdb/cover_big/co3yil.jpg",
  "platforms": [
    {
      "name": "Windows"
    }
  ],
  "provider_games": [
    {
      "name": "Rhem 3: The Secret Library",
      "slug": "rhem-3-the-secret-library",
      "service": "igdb"
    }
  ],
  "aliases": [],
  "shaders": [],
  "discord_id": "",
  "change_for": null
}