{
  "id": 46584,
  "name": "The Agency of Anomalies: Mystic Hospital",
  "slug": "the-agency-of-anomalies-mystic-hospital",
  "year": null,
  "banner_url": "",
  "icon_url": "",
  "coverart": "https://lutris.net/media/igdb/cover_big/jswdcintgewwn9kojt9q.jpg",
  "platforms": [],
  "provider_games": [
    {
      "name": "The Agency of Anomalies: Mystic Hospital",
      "slug": "the-agency-of-anomalies-mystic-hospital",
      "service": "igdb"
    }
  ],
  "aliases": [],
  "shaders": [],
  "discord_id": "",
  "change_for": null
}