{
  "id": 284981,
  "name": "Endless Casual Drive",
  "slug": "endless-casual-drive",
  "year": null,
  "banner_url": "",
  "icon_url": "",
  "coverart": "https://lutris.net/media/igdb/cover_big/co87kl.jpg",
  "platforms": [],
  "provider_games": [
    {
      "name": "Endless Casual Drive",
      "slug": "endless-casual-drive",
      "service": "igdb"
    }
  ],
  "aliases": [],
  "shaders": [],
  "discord_id": "",
  "change_for": null
}