{
  "id": 44195,
  "name": "Mystic Pillars",
  "slug": "mystic-pillars",
  "year": 2020,
  "banner_url": "https://lutris.net/games/banner/mystic-pillars.jpg",
  "icon_url": "https://lutris.net/games/icon/mystic-pillars.png",
  "coverart": "https://lutris.net/media/igdb/cover_big/co3wor.jpg",
  "platforms": [
    {
      "name": "Android"
    },
    {
      "name": "Nintendo Switch"
    },
    {
      "name": "Windows"
    }
  ],
  "provider_games": [
    {
      "name": "Mystic Pillars",
      "slug": "1197030",
      "service": "steam"
    },
    {
      "name": "Mystic Pillars",
      "slug": "mystic-pillars",
      "service": "igdb"
    }
  ],
  "aliases": [],
  "shaders": [],
  "discord_id": "",
  "change_for": null
}