{
  "id": 8331,
  "name": "Tom Clancy's The Division PTS",
  "slug": "tom-clancys-the-division-pts",
  "year": null,
  "banner_url": "https://lutris.net/games/banner/tom-clancys-the-division-pts.jpg",
  "icon_url": "https://lutris.net/games/icon/tom-clancys-the-division-pts.png",
  "coverart": null,
  "platforms": [],
  "provider_games": [
    {
      "name": "Tom Clancy's The Division PTS",
      "slug": "524440",
      "service": "steam"
    }
  ],
  "aliases": [],
  "shaders": [],
  "discord_id": "",
  "change_for": null
}