{
  "id": 156259,
  "name": "Yaku: Yuujou Dangi",
  "slug": "yaku-yuujou-dangi",
  "year": 1996,
  "banner_url": "",
  "icon_url": "",
  "coverart": "https://lutris.net/media/igdb/cover_big/co3h1u.jpg",
  "platforms": [
    {
      "name": "Sony PlayStation"
    }
  ],
  "provider_games": [
    {
      "name": "Yaku: Yuujou Dangi",
      "slug": "yaku-yuujou-dangi",
      "service": "igdb"
    }
  ],
  "aliases": [],
  "shaders": [],
  "discord_id": "",
  "change_for": null
}