{
  "id": 110520,
  "name": "void tRrLM();++ //Void Terrarium++ - Deluxe Edition",
  "slug": "void-trrlm-plus-plus-slash-slash-void-terrarium-plus-plus-deluxe-edition",
  "year": 2021,
  "banner_url": "",
  "icon_url": "",
  "coverart": "https://lutris.net/media/igdb/cover_big/co2z8j.jpg",
  "platforms": [
    {
      "name": "Sony PlayStation 5"
    }
  ],
  "provider_games": [
    {
      "name": "void tRrLM();++ //Void Terrarium++ - Deluxe Edition",
      "slug": "void-trrlm-plus-plus-slash-slash-void-terrarium-plus-plus-deluxe-edition",
      "service": "igdb"
    }
  ],
  "aliases": [],
  "shaders": [],
  "discord_id": "",
  "change_for": null
}