{
  "id": 65798,
  "name": "Pika Pop",
  "slug": "pika-pop",
  "year": null,
  "banner_url": "",
  "icon_url": "",
  "coverart": "https://lutris.net/media/igdb/cover_big/vjw0pl8ljamh5wvs4wlf.jpg",
  "platforms": [],
  "provider_games": [
    {
      "name": "Pika Pop",
      "slug": "pika-pop",
      "service": "igdb"
    }
  ],
  "aliases": [],
  "shaders": [],
  "discord_id": "",
  "change_for": null
}