{
  "id": 99122,
  "name": "Die drei ??? - Das Geheimnis des Magiers",
  "slug": "die-drei-das-geheimnis-des-magiers",
  "year": 2000,
  "banner_url": "",
  "icon_url": "",
  "coverart": "https://lutris.net/media/igdb/cover_big/co1s77.jpg",
  "platforms": [
    {
      "name": "Windows"
    }
  ],
  "provider_games": [
    {
      "name": "Die drei ??? - Das Geheimnis des Magiers",
      "slug": "die-drei-das-geheimnis-des-magiers",
      "service": "igdb"
    }
  ],
  "aliases": [],
  "shaders": [],
  "discord_id": "",
  "change_for": null
}