{
  "id": 266063,
  "name": "Pool Pro 2022",
  "slug": "pool-pro-2022",
  "year": null,
  "banner_url": "",
  "icon_url": "",
  "coverart": null,
  "platforms": [],
  "provider_games": [
    {
      "name": "Pool Pro 2022",
      "slug": "pool-pro-2022",
      "service": "igdb"
    }
  ],
  "aliases": [],
  "shaders": [],
  "discord_id": "",
  "change_for": null
}