{
  "id": 224911,
  "name": "Gumball: School House Rush",
  "slug": "gumball-school-house-rush",
  "year": 2012,
  "banner_url": "",
  "icon_url": "",
  "coverart": "https://lutris.net/media/igdb/cover_big/co4t5u.jpg",
  "platforms": [
    {
      "name": "Browser"
    }
  ],
  "provider_games": [
    {
      "name": "Gumball: School House Rush",
      "slug": "gumball-school-house-rush",
      "service": "igdb"
    }
  ],
  "aliases": [],
  "shaders": [],
  "discord_id": "",
  "change_for": null
}