{
  "id": 257600,
  "name": "Hook&Loop",
  "slug": "hook-and-loop",
  "year": 2022,
  "banner_url": "",
  "icon_url": "",
  "coverart": null,
  "platforms": [
    {
      "name": "Windows"
    }
  ],
  "provider_games": [
    {
      "name": "Hook&Loop",
      "slug": "hook-and-loop",
      "service": "igdb"
    }
  ],
  "aliases": [],
  "shaders": [],
  "discord_id": "",
  "change_for": null
}