{
  "id": 101079,
  "name": "Dark Parables: Rise of the Snow Queen",
  "slug": "dark-parables-rise-of-the-snow-queen",
  "year": null,
  "banner_url": "",
  "icon_url": "",
  "coverart": "https://lutris.net/media/igdb/cover_big/co7hjq.jpg",
  "platforms": [],
  "provider_games": [
    {
      "name": "Dark Parables: Rise of the Snow Queen",
      "slug": "dark-parables-rise-of-the-snow-queen",
      "service": "igdb"
    }
  ],
  "aliases": [],
  "shaders": [],
  "discord_id": "",
  "change_for": null
}