{
  "id": 10543,
  "game_id": 20982,
  "game_slug": "sables-grimoire",
  "name": "Sable's Grimoire",
  "year": 2018,
  "user": "kimchitea",
  "runner": "steam",
  "slug": "sables-grimoire-demo",
  "version": "Demo",
  "description": null,
  "notes": "",
  "credits": "",
  "created_at": "2018-10-17T20:42:29.025866Z",
  "updated_at": "2018-10-19T07:40:49.942449Z",
  "draft": false,
  "published": true,
  "published_by": null,
  "rating": "",
  "is_playable": null,
  "steamid": 717850,
  "gogid": null,
  "gogslug": "",
  "humbleid": "",
  "humblestoreid": "",
  "humblestoreid_real": "",
  "script": {
    "game": {
      "appid": 804340
    }
  },
  "content": "game:\n  appid: 804340\n",
  "discord_id": ""
}