{
  "id": 220568,
  "name": "Kien",
  "slug": "kien",
  "year": 2004,
  "banner_url": "",
  "icon_url": "",
  "coverart": "https://lutris.net/media/igdb/cover_big/co8gb2.jpg",
  "platforms": [
    {
      "name": "Nintendo Game Boy Advance"
    }
  ],
  "provider_games": [
    {
      "name": "Kien",
      "slug": "kien",
      "service": "igdb"
    }
  ],
  "aliases": [],
  "shaders": [],
  "discord_id": "",
  "change_for": null
}