{
  "id": 197040,
  "name": "Wind Angel Challenge",
  "slug": "wind-angel-challenge",
  "year": null,
  "banner_url": "",
  "icon_url": "",
  "coverart": "https://lutris.net/media/igdb/cover_big/co4lm2.jpg",
  "platforms": [],
  "provider_games": [
    {
      "name": "Wind Angel Challenge",
      "slug": "wind-angel-challenge",
      "service": "igdb"
    }
  ],
  "aliases": [],
  "shaders": [],
  "discord_id": "",
  "change_for": null
}