{
  "id": 290672,
  "name": "The Legend of GEML: Awakening",
  "slug": "the-legend-of-geml-awakening",
  "year": 2022,
  "banner_url": "",
  "icon_url": "",
  "coverart": null,
  "platforms": [
    {
      "name": "Browser"
    }
  ],
  "provider_games": [
    {
      "name": "The Legend of GEML: Awakening",
      "slug": "the-legend-of-geml-awakening",
      "service": "igdb"
    }
  ],
  "aliases": [],
  "shaders": [],
  "discord_id": "",
  "change_for": null
}