{
  "id": 8608,
  "game_id": 845,
  "game_slug": "far-cry-3-blood-dragon",
  "name": "Far Cry 3 - Blood Dragon",
  "year": 2013,
  "user": "cxf",
  "runner": "winesteam",
  "slug": "far-cry-3-blood-dragon-steam-w-dxvk",
  "version": "Steam w/ DXVK",
  "description": null,
  "notes": "",
  "credits": "",
  "created_at": "2018-06-09T00:23:22.260000Z",
  "updated_at": "2023-06-13T01:34:39.959302Z",
  "draft": false,
  "published": true,
  "published_by": 19464,
  "rating": "",
  "is_playable": null,
  "steamid": 233270,
  "gogid": null,
  "gogslug": "",
  "humbleid": "",
  "humblestoreid": "",
  "humblestoreid_real": "",
  "script": {
    "game": {
      "appid": 233270,
      "arch": "win64",
      "prefix": "$GAMEDIR/prefix"
    },
    "installer": [
      {
        "task": {
          "arch": "win64",
          "name": "create_prefix",
          "prefix": "$GAMEDIR/prefix"
        }
      },
      {
        "task": {
          "app": "corefonts",
          "arch": "win64",
          "name": "winetricks",
          "prefix": "$GAMEDIR/prefix"
        }
      }
    ],
    "system": {
      "env": {
        "DXVK_HUD": 0
      }
    },
    "winesteam": {
      "overrides": {
        "xaudio2_7": "native,builtin"
      }
    }
  },
  "content": "game:\n  appid: 233270\n  arch: win64\n  prefix: $GAMEDIR/prefix\ninstaller:\n- task:\n    arch: win64\n    name: create_prefix\n    prefix: $GAMEDIR/prefix\n- task:\n    app: corefonts\n    arch: win64\n    name: winetricks\n    prefix: $GAMEDIR/prefix\nsystem:\n  env:\n    DXVK_HUD: 0\nwinesteam:\n  overrides:\n    xaudio2_7: native,builtin\n",
  "discord_id": "425454019205529600"
}