{
  "id": 260989,
  "name": "Eternal King",
  "slug": "eternal-king",
  "year": null,
  "banner_url": "",
  "icon_url": "",
  "coverart": "https://lutris.net/media/igdb/cover_big/co75dm.jpg",
  "platforms": [],
  "provider_games": [
    {
      "name": "Eternal King",
      "slug": "eternal-king",
      "service": "igdb"
    }
  ],
  "aliases": [],
  "shaders": [],
  "discord_id": "",
  "change_for": null
}