{
  "id": 6236,
  "name": "Spellweaver",
  "slug": "spellweaver",
  "year": 2016,
  "banner_url": "https://lutris.net/games/banner/spellweaver.jpg",
  "icon_url": "https://lutris.net/games/icon/spellweaver.png",
  "coverart": "https://lutris.net/media/igdb/cover_big/co2rdk.jpg",
  "platforms": [
    {
      "name": "Windows"
    }
  ],
  "provider_games": [
    {
      "name": "Spellweaver",
      "slug": "429680",
      "service": "steam"
    },
    {
      "name": "Spellweaver",
      "slug": "spellweaver",
      "service": "igdb"
    }
  ],
  "aliases": [],
  "shaders": [],
  "discord_id": "",
  "change_for": null
}