{
  "id": 284744,
  "name": "Pot Pot Seeds",
  "slug": "pot-pot-seeds",
  "year": 2023,
  "banner_url": "",
  "icon_url": "",
  "coverart": null,
  "platforms": [
    {
      "name": "Amazon Fire TV"
    }
  ],
  "provider_games": [],
  "aliases": [],
  "shaders": [],
  "discord_id": "",
  "change_for": null
}