{
  "id": 92214,
  "name": "Mini Legend - Mini 4WD Racing",
  "slug": "mini-legend-mini-4wd-racing",
  "year": null,
  "banner_url": "",
  "icon_url": "",
  "coverart": "https://lutris.net/media/igdb/cover_big/co86zz.jpg",
  "platforms": [],
  "provider_games": [
    {
      "name": "Mini Legend - Mini 4WD Racing",
      "slug": "mini-legend-mini-4wd-racing",
      "service": "igdb"
    }
  ],
  "aliases": [],
  "shaders": [],
  "discord_id": "",
  "change_for": null
}