{
  "id": 157162,
  "name": "Rimelands: Hammer of Thor",
  "slug": "rimelands-hammer-of-thor",
  "year": 2010,
  "banner_url": "",
  "icon_url": "",
  "coverart": "https://lutris.net/media/igdb/cover_big/co2o2x.jpg",
  "platforms": [
    {
      "name": "Nintendo Switch"
    }
  ],
  "provider_games": [
    {
      "name": "Rimelands: Hammer of Thor",
      "slug": "rimelands-hammer-of-thor",
      "service": "igdb"
    }
  ],
  "aliases": [],
  "shaders": [],
  "discord_id": "",
  "change_for": null
}