{
  "id": 31588,
  "name": "GyroShooter",
  "slug": "gyroshooter",
  "year": null,
  "banner_url": "https://lutris.net/games/banner/gyroshooter.jpg",
  "icon_url": "https://lutris.net/games/icon/gyroshooter.png",
  "coverart": "https://lutris.net/media/igdb/cover_big/co41jq.jpg",
  "platforms": [],
  "provider_games": [
    {
      "name": "GyroShooter",
      "slug": "752770",
      "service": "steam"
    },
    {
      "name": "GyroShooter",
      "slug": "gyroshooter",
      "service": "igdb"
    }
  ],
  "aliases": [],
  "shaders": [],
  "discord_id": "",
  "change_for": null
}