{
  "id": 25420,
  "game_id": 24,
  "game_slug": "starcraft-brood-war",
  "name": "Starcraft: Brood War",
  "year": 1998,
  "user": "legluondunet",
  "runner": "wine",
  "slug": "starcraft-brood-war-cd-cnc-draw",
  "version": "CD + cnc-draw",
  "description": "Play \"Starcraft - Brood War\" CD edition on Linux!",
  "notes": "- Before to launch this script installer, you have to install \"Starcraft - CD + cnc-draw version\" from https://lutris.net/games/starcraft\r\n- Do not launch \"Starcraft Brood War\" during install process\r\n- Game will be updated to version 1.16.1\r\n- You will need \"Starcraft Brood War\" CD only one time during install",
  "credits": "- cnc-ddraw: https://github.com/FunkyFr3sh/cnc-ddraw\r\n- Lutris script maintained by legluondunet: https://github.com/legluondunet/MyLittleLutrisScripts",
  "created_at": "2020-12-31T14:33:36.800000Z",
  "updated_at": "2024-06-06T05:36:31.704704Z",
  "draft": false,
  "published": true,
  "published_by": 494,
  "rating": "",
  "is_playable": null,
  "steamid": null,
  "gogid": null,
  "gogslug": "",
  "humbleid": "",
  "humblestoreid": "",
  "humblestoreid_real": "",
  "script": {
    "files": [
      {
        "patch": "https://github.com/legluondunet/MyLittleLutrisScripts/raw/master/Starcraft/SC-1161.7z"
      }
    ],
    "installer": [
      {
        "insert-disc": {
          "requires": "bw.ico"
        }
      },
      {
        "task": {
          "description": "Installing Starcraft Brood War...",
          "executable": "$DISC/setup.exe",
          "name": "wineexec"
        }
      },
      {
        "extract": {
          "dst": "$CACHE",
          "file": "$patch"
        }
      },
      {
        "task": {
          "args": "/desktop=StarCraftupdate,640x480 \"$CACHE/SC-1161.exe\"",
          "description": "Updating Starcraft to 1.16.1...",
          "executable": "$GAMEDIR/drive_c/windows/explorer.exe",
          "include_processes": "explorer.exe",
          "name": "wineexec"
        }
      },
      {
        "execute": {
          "command": "unset LD_LIBRARY_PATH; cd \"$GAMEDIR/drive_c/Program Files (x86)/Starcraft\"; find \"$DISC/\"* -iname install.exe -type f -not -ipath '*mindspr*' | xargs -I {} cp \"{}\" BroodWar.mpq; chmod +rw BroodWar.mpq;"
        }
      }
    ],
    "requires": "starcraft-cd-cnc-draw"
  },
  "content": "files:\n- patch: https://github.com/legluondunet/MyLittleLutrisScripts/raw/master/Starcraft/SC-1161.7z\ninstaller:\n- insert-disc:\n    requires: bw.ico\n- task:\n    description: Installing Starcraft Brood War...\n    executable: $DISC/setup.exe\n    name: wineexec\n- extract:\n    dst: $CACHE\n    file: $patch\n- task:\n    args: /desktop=StarCraftupdate,640x480 \"$CACHE/SC-1161.exe\"\n    description: Updating Starcraft to 1.16.1...\n    executable: $GAMEDIR/drive_c/windows/explorer.exe\n    include_processes: explorer.exe\n    name: wineexec\n- execute:\n    command: unset LD_LIBRARY_PATH; cd \"$GAMEDIR/drive_c/Program Files (x86)/Starcraft\";\n      find \"$DISC/\"* -iname install.exe -type f -not -ipath '*mindspr*' | xargs -I\n      {} cp \"{}\" BroodWar.mpq; chmod +rw BroodWar.mpq;\nrequires: starcraft-cd-cnc-draw\n",
  "discord_id": ""
}