{
  "id": 248485,
  "name": "Majoneko",
  "slug": "majoneko",
  "year": null,
  "banner_url": "",
  "icon_url": "",
  "coverart": "https://lutris.net/media/igdb/cover_big/co6lg9.jpg",
  "platforms": [],
  "provider_games": [
    {
      "name": "Majoneko",
      "slug": "majoneko",
      "service": "igdb"
    }
  ],
  "aliases": [],
  "shaders": [],
  "discord_id": "",
  "change_for": null
}