{
  "id": 9274,
  "game_id": 388,
  "game_slug": "the-witcher-enhanced-edition",
  "name": "The Witcher: Enhanced Edition",
  "year": 2007,
  "user": "cxf",
  "runner": "wine",
  "slug": "the-witcher-enhanced-edition-rise-of-the-white-wo",
  "version": "Rise of the White Wolf Mod",
  "description": "Requires game files from GOG.\r\n\r\nDownload here: <a href=\"https://www.gog.com/downloads/the_witcher/en1installer1\">1 of 4</a>, <a href=\"https://www.gog.com/downloads/the_witcher/en1installer2\">2 of 4</a>, <a href=\"https://www.gog.com/downloads/the_witcher/en1installer3\">3 of 4</a>, <a href=\"https://www.gog.com/downloads/the_witcher/en1installer4\">4 of 4</a>\r\n\r\nAlso requires the Rise of the White Wolf mod downloaded from moddb or Nexus Mods. This installer requires the .exe, NOT the .zip file.",
  "notes": "The game installer will have several errors upon completion. Exit the game's installer and the mod will install next. You will have to point the installer to your Witcher directory.",
  "credits": "",
  "created_at": "2018-07-19T00:38:56.486000Z",
  "updated_at": "2020-03-21T08:28:07.501360Z",
  "draft": false,
  "published": true,
  "published_by": 20548,
  "rating": "",
  "is_playable": null,
  "steamid": 20900,
  "gogid": 1207658924,
  "gogslug": "the_witcher",
  "humbleid": "",
  "humblestoreid": "",
  "humblestoreid_real": "",
  "script": {
    "files": [
      {
        "game": "N/A:Select the Windows setup exe file downloaded from GOG"
      },
      {
        "mod": "N/A:Select the Mod installer exe"
      }
    ],
    "game": {
      "arch": "win32",
      "exe": "drive_c/GOG Games/The Witcher Enhanced Edition/launcher.exe",
      "prefix": "$GAMEDIR"
    },
    "installer": [
      {
        "task": {
          "arch": "win32",
          "name": "create_prefix",
          "prefix": "$GAMEDIR"
        }
      },
      {
        "task": {
          "arch": "win32",
          "executable": "game",
          "name": "wineexec",
          "prefix": "$GAMEDIR"
        }
      },
      {
        "task": {
          "app": "d3dx9_35",
          "arch": "win32",
          "name": "winetricks",
          "prefix": "$GAMEDIR"
        }
      },
      {
        "task": {
          "arch": "win32",
          "key": "CheckFloatConstants",
          "name": "set_regedit",
          "path": "HKEY_CURRENT_USER\\Software\\Wine\\Direct3D",
          "prefix": "$GAMEDIR",
          "value": "enabled"
        }
      },
      {
        "execute": {
          "command": "mkdir -p \"$GAMEDIR/drive_c/GOG Games/The Witcher Enhanced Edition/backup/System\""
        }
      },
      {
        "move": {
          "dst": "$GAMEDIR/drive_c/GOG Games/The Witcher Enhanced Edition/backup",
          "src": "$GAMEDIR/drive_c/GOG Games/The Witcher Enhanced Edition/Launcher"
        }
      },
      {
        "move": {
          "dst": "$GAMEDIR/drive_c/GOG Games/The Witcher Enhanced Edition/backup/System",
          "src": "$GAMEDIR/drive_c/GOG Games/The Witcher Enhanced Edition/System/witcher.exe"
        }
      },
      {
        "move": {
          "dst": "$GAMEDIR/drive_c/GOG Games/The Witcher Enhanced Edition/backup",
          "src": "$GAMEDIR/drive_c/GOG Games/The Witcher Enhanced Edition/launcher.exe"
        }
      },
      {
        "task": {
          "arch": "win32",
          "executable": "mod",
          "name": "wineexec",
          "prefix": "$GAMEDIR"
        }
      }
    ]
  },
  "content": "files:\n- game: N/A:Select the Windows setup exe file downloaded from GOG\n- mod: N/A:Select the Mod installer exe\ngame:\n  arch: win32\n  exe: drive_c/GOG Games/The Witcher Enhanced Edition/launcher.exe\n  prefix: $GAMEDIR\ninstaller:\n- task:\n    arch: win32\n    name: create_prefix\n    prefix: $GAMEDIR\n- task:\n    arch: win32\n    executable: game\n    name: wineexec\n    prefix: $GAMEDIR\n- task:\n    app: d3dx9_35\n    arch: win32\n    name: winetricks\n    prefix: $GAMEDIR\n- task:\n    arch: win32\n    key: CheckFloatConstants\n    name: set_regedit\n    path: HKEY_CURRENT_USER\\Software\\Wine\\Direct3D\n    prefix: $GAMEDIR\n    value: enabled\n- execute:\n    command: mkdir -p \"$GAMEDIR/drive_c/GOG Games/The Witcher Enhanced Edition/backup/System\"\n- move:\n    dst: $GAMEDIR/drive_c/GOG Games/The Witcher Enhanced Edition/backup\n    src: $GAMEDIR/drive_c/GOG Games/The Witcher Enhanced Edition/Launcher\n- move:\n    dst: $GAMEDIR/drive_c/GOG Games/The Witcher Enhanced Edition/backup/System\n    src: $GAMEDIR/drive_c/GOG Games/The Witcher Enhanced Edition/System/witcher.exe\n- move:\n    dst: $GAMEDIR/drive_c/GOG Games/The Witcher Enhanced Edition/backup\n    src: $GAMEDIR/drive_c/GOG Games/The Witcher Enhanced Edition/launcher.exe\n- task:\n    arch: win32\n    executable: mod\n    name: wineexec\n    prefix: $GAMEDIR\n",
  "discord_id": ""
}