{
  "id": 271486,
  "name": "World of Dark",
  "slug": "world-of-dark",
  "year": null,
  "banner_url": "",
  "icon_url": "",
  "coverart": "https://lutris.net/media/igdb/cover_big/co7o4w.jpg",
  "platforms": [],
  "provider_games": [
    {
      "name": "World of Dark",
      "slug": "world-of-dark",
      "service": "igdb"
    }
  ],
  "aliases": [],
  "shaders": [],
  "discord_id": "",
  "change_for": null
}