{
  "id": 63278,
  "name": "Central Park",
  "slug": "central-park",
  "year": null,
  "banner_url": "",
  "icon_url": "",
  "coverart": "https://lutris.net/media/igdb/cover_big/tr45fpbmbv7vpprudrt2.jpg",
  "platforms": [],
  "provider_games": [
    {
      "name": "Central Park",
      "slug": "central-park",
      "service": "igdb"
    }
  ],
  "aliases": [],
  "shaders": [],
  "discord_id": "",
  "change_for": null
}