{
  "id": 239626,
  "name": "World Baseball Stars",
  "slug": "world-baseball-stars",
  "year": null,
  "banner_url": "",
  "icon_url": "",
  "coverart": null,
  "platforms": [],
  "provider_games": [
    {
      "name": "World Baseball Stars",
      "slug": "world-baseball-stars",
      "service": "igdb"
    }
  ],
  "aliases": [],
  "shaders": [],
  "discord_id": "",
  "change_for": null
}