{
  "id": 90847,
  "name": "3D Deer Sniper Hunting Game 2017",
  "slug": "3d-deer-sniper-hunting-game-2017",
  "year": 2016,
  "banner_url": "",
  "icon_url": "",
  "coverart": "https://lutris.net/media/igdb/cover_big/fjrhhnp46ovchcoohrky.jpg",
  "platforms": [],
  "provider_games": [
    {
      "name": "3D Deer Sniper Hunting Game 2017",
      "slug": "3d-deer-sniper-hunting-game-2017",
      "service": "igdb"
    }
  ],
  "aliases": [],
  "shaders": [],
  "discord_id": "",
  "change_for": null
}