{
  "id": 234392,
  "name": "Gluttony Monster",
  "slug": "gluttony-monster",
  "year": null,
  "banner_url": "",
  "icon_url": "",
  "coverart": null,
  "platforms": [],
  "provider_games": [
    {
      "name": "Gluttony Monster",
      "slug": "gluttony-monster",
      "service": "igdb"
    }
  ],
  "aliases": [],
  "shaders": [],
  "discord_id": "",
  "change_for": null
}