{
  "id": 47198,
  "name": "Buzz!: Pop Quiz",
  "slug": "buzz-pop-quiz",
  "year": 2008,
  "banner_url": "",
  "icon_url": "",
  "coverart": "https://lutris.net/media/igdb/cover_big/fhejcgwdtsuyrl0twakq.jpg",
  "platforms": [
    {
      "name": "Sony PlayStation 2"
    }
  ],
  "provider_games": [
    {
      "name": "Buzz!: Pop Quiz",
      "slug": "buzz-pop-quiz",
      "service": "igdb"
    }
  ],
  "aliases": [],
  "shaders": [],
  "discord_id": "",
  "change_for": null
}