{
  "id": 271422,
  "name": "101 Cats Hidden",
  "slug": "101-cats-hidden",
  "year": null,
  "banner_url": "",
  "icon_url": "",
  "coverart": "https://lutris.net/media/igdb/cover_big/co7n8j.jpg",
  "platforms": [],
  "provider_games": [
    {
      "name": "101 Cats Hidden",
      "slug": "101-cats-hidden",
      "service": "igdb"
    }
  ],
  "aliases": [],
  "shaders": [],
  "discord_id": "",
  "change_for": null
}