{
  "id": 276218,
  "name": "The Last Camp 1990",
  "slug": "the-last-camp-1990",
  "year": null,
  "banner_url": "",
  "icon_url": "",
  "coverart": "https://lutris.net/media/igdb/cover_big/co7uwh.jpg",
  "platforms": [],
  "provider_games": [
    {
      "name": "The Last Camp 1990",
      "slug": "the-last-camp-1990",
      "service": "igdb"
    }
  ],
  "aliases": [],
  "shaders": [],
  "discord_id": "",
  "change_for": null
}