{
  "id": 24356,
  "name": "Equilinox",
  "slug": "equilinox",
  "year": 2018,
  "banner_url": "https://lutris.net/games/banner/equilinox.jpg",
  "icon_url": "https://lutris.net/games/icon/equilinox.png",
  "coverart": "https://lutris.net/media/igdb/cover_big/co27r1.jpg",
  "platforms": [
    {
      "name": "Linux"
    },
    {
      "name": "Mac"
    },
    {
      "name": "Windows"
    }
  ],
  "provider_games": [
    {
      "name": "Equilinox",
      "slug": "853550",
      "service": "steam"
    },
    {
      "name": "Equilinox",
      "slug": "equilinox",
      "service": "igdb"
    }
  ],
  "aliases": [],
  "shaders": [],
  "discord_id": "",
  "change_for": null
}