{
  "id": 36510,
  "name": "Trials of Mana",
  "slug": "trials-of-mana",
  "year": 2019,
  "banner_url": "https://lutris.net/games/banner/trials-of-mana.jpg",
  "icon_url": "",
  "coverart": "https://lutris.net/media/igdb/cover_big/co1lzw.jpg",
  "platforms": [
    {
      "name": "Android"
    },
    {
      "name": "Nintendo Switch"
    },
    {
      "name": "Sony Playstation 4"
    },
    {
      "name": "Super Nintendo"
    },
    {
      "name": "Windows"
    }
  ],
  "provider_games": [
    {
      "name": "Trials of Mana",
      "slug": "924980",
      "service": "steam"
    },
    {
      "name": "Trials of Mana",
      "slug": "trials-of-mana",
      "service": "igdb"
    }
  ],
  "aliases": [],
  "shaders": [],
  "discord_id": "",
  "change_for": null
}