{
  "id": 48598,
  "name": "DJMAX Technika 3",
  "slug": "djmax-technika-3",
  "year": null,
  "banner_url": "",
  "icon_url": "",
  "coverart": "https://lutris.net/media/igdb/cover_big/co1nld.jpg",
  "platforms": [],
  "provider_games": [
    {
      "name": "DJMax Technika 3",
      "slug": "djmax-technika-3",
      "service": "igdb"
    }
  ],
  "aliases": [],
  "shaders": [],
  "discord_id": "",
  "change_for": null
}