{
  "id": 37018,
  "game_id": 228966,
  "game_slug": "short-horror-story",
  "name": "Short Horror Story",
  "year": 2022,
  "user": "vanstaveren",
  "runner": "steam",
  "slug": "short-horror-story-steam",
  "version": "steam",
  "description": "",
  "notes": "",
  "credits": "",
  "created_at": "2023-02-05T17:48:56.403439Z",
  "updated_at": "2023-02-05T17:48:56.403470Z",
  "draft": false,
  "published": true,
  "published_by": null,
  "rating": "",
  "is_playable": null,
  "steamid": null,
  "gogid": null,
  "gogslug": "",
  "humbleid": "",
  "humblestoreid": "",
  "humblestoreid_real": "",
  "script": {
    "game": {
      "appid": 2225970
    }
  },
  "content": "game:\n  appid: 2225970\n",
  "discord_id": null
}