{
  "id": 37786,
  "game_id": 257855,
  "game_slug": "grand-chase-history",
  "name": "Grand Chase History",
  "year": 2015,
  "user": "gcarlos",
  "runner": "wine",
  "slug": "grand-chase-history-vulkan-default",
  "version": "Vulkan (default)",
  "description": "",
  "notes": "This game doesn't work with the Wine default DirectX implementation, so this installer use of DXVK, which with the game runs perfectly. However, this implies that your graphics card must have Vulkan support. If it doesn't, see the Galium Nine version.\r\n\r\nDuring the installation, you must keep the default install path and uncheck the \"Launch Chase History \" box.\r\n\r\nAt the first start of the game, the launcher seems to close itself at some time on the mid of the game download. If so, just reopen the game and the launcher will continue to do its job.",
  "credits": "",
  "created_at": "2023-09-11T22:48:43.189411Z",
  "updated_at": "2023-09-11T22:48:43.189434Z",
  "draft": false,
  "published": true,
  "published_by": null,
  "rating": "",
  "is_playable": null,
  "steamid": null,
  "gogid": null,
  "gogslug": "",
  "humbleid": "",
  "humblestoreid": "",
  "humblestoreid_real": "",
  "script": {
    "files": [
      {
        "gc_installer": "https://chasehistory.net/downloads/setup_20230727.exe"
      }
    ],
    "game": {
      "arch": "win32",
      "exe": "$GAMEDIR/drive_c/Program Files/Chase History/GrandChase.exe",
      "prefix": "$GAMEDIR",
      "working_dir": "$GAMEDIR/drive_c/Program Files/Chase History/"
    },
    "installer": [
      {
        "task": {
          "executable": "gc_installer",
          "name": "wineexec"
        }
      },
      {
        "task": {
          "app": "cjkfonts",
          "name": "winetricks"
        }
      }
    ]
  },
  "content": "files:\n- gc_installer: https://chasehistory.net/downloads/setup_20230727.exe\ngame:\n  arch: win32\n  exe: $GAMEDIR/drive_c/Program Files/Chase History/GrandChase.exe\n  prefix: $GAMEDIR\n  working_dir: $GAMEDIR/drive_c/Program Files/Chase History/\ninstaller:\n- task:\n    executable: gc_installer\n    name: wineexec\n- task:\n    app: cjkfonts\n    name: winetricks\n",
  "discord_id": ""
}