{
  "id": 29466,
  "name": "SoulHunt",
  "slug": "soulhunt",
  "year": 2016,
  "banner_url": "https://lutris.net/games/banner/soulhunt.jpg",
  "icon_url": "https://lutris.net/games/icon/soulhunt.png",
  "coverart": "https://lutris.net/media/igdb/cover_big/co2rd0.jpg",
  "platforms": [
    {
      "name": "Linux"
    },
    {
      "name": "Mac"
    },
    {
      "name": "Windows"
    }
  ],
  "provider_games": [
    {
      "name": "SoulHunt",
      "slug": "500420",
      "service": "steam"
    },
    {
      "name": "SoulHunt",
      "slug": "soulhunt",
      "service": "igdb"
    }
  ],
  "aliases": [],
  "shaders": [],
  "discord_id": "",
  "change_for": null
}