{
  "id": 175924,
  "name": "Mobile Suit Gundam: Battle Operation Code Fairy - Vol. 3",
  "slug": "mobile-suit-gundam-battle-operation-code-fairy-vol-3",
  "year": 2021,
  "banner_url": "",
  "icon_url": "",
  "coverart": "https://lutris.net/media/igdb/cover_big/co4937.jpg",
  "platforms": [
    {
      "name": "Sony Playstation 4"
    },
    {
      "name": "Sony PlayStation 5"
    }
  ],
  "provider_games": [
    {
      "name": "Mobile Suit Gundam: Battle Operation Code Fairy - Vol. 3",
      "slug": "mobile-suit-gundam-battle-operation-code-fairy-vol-3",
      "service": "igdb"
    }
  ],
  "aliases": [],
  "shaders": [],
  "discord_id": "",
  "change_for": null
}