{
  "id": 283140,
  "name": "The Public Domain: The Game",
  "slug": "the-public-domain-the-game",
  "year": null,
  "banner_url": "",
  "icon_url": "",
  "coverart": "https://lutris.net/media/igdb/cover_big/co83p4.jpg",
  "platforms": [],
  "provider_games": [
    {
      "name": "The Public Domain: The Game",
      "slug": "the-public-domain-the-game",
      "service": "igdb"
    }
  ],
  "aliases": [],
  "shaders": [],
  "discord_id": "",
  "change_for": null
}