{
  "id": 31304,
  "name": "Isle of Skye",
  "slug": "isle-of-skye",
  "year": 2018,
  "banner_url": "https://lutris.net/games/banner/isle-of-skye.jpg",
  "icon_url": "https://lutris.net/games/icon/isle-of-skye.png",
  "coverart": "https://lutris.net/media/igdb/cover_big/co448z.jpg",
  "platforms": [
    {
      "name": "Windows"
    }
  ],
  "provider_games": [
    {
      "name": "Isle of Skye",
      "slug": "873980",
      "service": "steam"
    },
    {
      "name": "Isle of Skye",
      "slug": "isle-of-skye",
      "service": "igdb"
    }
  ],
  "aliases": [],
  "shaders": [],
  "discord_id": "",
  "change_for": null
}