{
  "id": 107260,
  "name": "Bare Knuckle II",
  "slug": "bare-knuckle-ii",
  "year": 1993,
  "banner_url": "",
  "icon_url": "",
  "coverart": "https://lutris.net/media/igdb/cover_big/co2uz7.jpg",
  "platforms": [
    {
      "name": "Sega Genesis / Mega Drive"
    }
  ],
  "provider_games": [
    {
      "name": "Bare Knuckle II",
      "slug": "bare-knuckle-ii",
      "service": "igdb"
    }
  ],
  "aliases": [],
  "shaders": [],
  "discord_id": "",
  "change_for": null
}