{
  "id": 25038,
  "game_id": 40577,
  "game_slug": "assassins-creed-chronices-russia",
  "name": "Assassin's Creed® Chronices: Russia",
  "year": 2015,
  "user": "TheLostWindsurfer",
  "runner": "wine",
  "slug": "assassins-creed-chronices-rus-uplay",
  "version": "Uplay",
  "description": "This should install UPlay to allow you to download the game and play.",
  "notes": "32bit game. Need virtual desktop not start on the right monitor.\r\nWill likely start in 1280*720. Can be changed in game. Note that Esc key is not mapped. Use BackSpace instead. \r\n\r\nTODO: check if the following is needed\r\noverrides:\r\n    nvapi,nvapi64: disabled",
  "credits": "",
  "created_at": "2020-12-13T16:40:36.677000Z",
  "updated_at": "2021-01-10T05:08:59.756282Z",
  "draft": false,
  "published": true,
  "published_by": 1,
  "rating": "",
  "is_playable": null,
  "steamid": null,
  "gogid": null,
  "gogslug": "",
  "humbleid": "",
  "humblestoreid": "",
  "humblestoreid_real": "",
  "script": {
    "files": [
      {
        "uplay": "https://ubistatic3-a.akamaihd.net/orbit/launcher_installer/UbisoftConnectInstaller.exe"
      }
    ],
    "game": {
      "args": "uplay://launch/1848/0",
      "exe": "drive_c/Program Files (x86)/Ubisoft/Ubisoft Game Launcher/UbisoftConnect.exe",
      "prefix": "$GAMEDIR"
    },
    "installer": [
      {
        "task": {
          "name": "create_prefix",
          "prefix": "$GAMEDIR"
        }
      },
      {
        "write_file": {
          "content": "overlay:\n  enabled: false\n  forceunhookgame: false\n  fps_enabled: false\n  warning_enabled: false\nuser:\n  closebehavior: CloseBehavior_Close",
          "file": "$GAMEDIR/drive_c/users/$USER/Local Settings/Application Data/Ubisoft Game Launcher/settings.yml"
        }
      },
      {
        "task": {
          "app": "arial d3dcompiler_43 d3dcompiler_47 d3dx9",
          "name": "winetricks",
          "prefix": "$GAMEDIR"
        }
      },
      {
        "task": {
          "args": "/S",
          "executable": "uplay",
          "name": "wineexec",
          "prefix": "$GAMEDIR"
        }
      }
    ],
    "wine": {
      "Desktop": true,
      "WineDesktop": "1920x1080",
      "overrides": {
        "nvapi,nvapi64": "disabled"
      }
    }
  },
  "content": "files:\n- uplay: https://ubistatic3-a.akamaihd.net/orbit/launcher_installer/UbisoftConnectInstaller.exe\ngame:\n  args: uplay://launch/1848/0\n  exe: drive_c/Program Files (x86)/Ubisoft/Ubisoft Game Launcher/UbisoftConnect.exe\n  prefix: $GAMEDIR\ninstaller:\n- task:\n    name: create_prefix\n    prefix: $GAMEDIR\n- write_file:\n    content: \"overlay:\\n  enabled: false\\n  forceunhookgame: false\\n  fps_enabled:\\\n      \\ false\\n  warning_enabled: false\\nuser:\\n  closebehavior: CloseBehavior_Close\"\n    file: $GAMEDIR/drive_c/users/$USER/Local Settings/Application Data/Ubisoft Game\n      Launcher/settings.yml\n- task:\n    app: arial d3dcompiler_43 d3dcompiler_47 d3dx9\n    name: winetricks\n    prefix: $GAMEDIR\n- task:\n    args: /S\n    executable: uplay\n    name: wineexec\n    prefix: $GAMEDIR\nwine:\n  Desktop: true\n  WineDesktop: 1920x1080\n  overrides:\n    nvapi,nvapi64: disabled\n",
  "discord_id": ""
}