{
  "id": 57548,
  "name": "Beanotown Racing",
  "slug": "beanotown-racing",
  "year": 2009,
  "banner_url": "",
  "icon_url": "",
  "coverart": "https://lutris.net/media/igdb/cover_big/cwl25zpfyevc9htoxoor.jpg",
  "platforms": [
    {
      "name": "Windows"
    }
  ],
  "provider_games": [
    {
      "name": "Beanotown Racing",
      "slug": "beanotown-racing",
      "service": "igdb"
    }
  ],
  "aliases": [],
  "shaders": [],
  "discord_id": "",
  "change_for": null
}