{
  "id": 74950,
  "name": "Aimstar.gg",
  "slug": "aimstar-dot-gg",
  "year": null,
  "banner_url": "",
  "icon_url": "",
  "coverart": null,
  "platforms": [],
  "provider_games": [
    {
      "name": "Aimstar.gg",
      "slug": "aimstar-dot-gg",
      "service": "igdb"
    }
  ],
  "aliases": [],
  "shaders": [],
  "discord_id": "",
  "change_for": null
}