{
  "id": 246189,
  "name": "Mornin' Joe!",
  "slug": "mornin-joe",
  "year": null,
  "banner_url": "",
  "icon_url": "",
  "coverart": null,
  "platforms": [],
  "provider_games": [
    {
      "name": "Mornin' Joe!",
      "slug": "mornin-joe",
      "service": "igdb"
    }
  ],
  "aliases": [],
  "shaders": [],
  "discord_id": "",
  "change_for": null
}