{
  "id": 68357,
  "name": "Mensch ärgere Dich!",
  "slug": "mensch-argere-dich",
  "year": null,
  "banner_url": "",
  "icon_url": "",
  "coverart": null,
  "platforms": [],
  "provider_games": [
    {
      "name": "Mensch Ärgere Dich!",
      "slug": "mensch-argere-dich",
      "service": "igdb"
    }
  ],
  "aliases": [],
  "shaders": [],
  "discord_id": "",
  "change_for": null
}