{
  "id": 166775,
  "name": "How to Become a Ninja: Part 1",
  "slug": "how-to-become-a-ninja-part-1",
  "year": 2019,
  "banner_url": "",
  "icon_url": "",
  "coverart": "https://lutris.net/media/igdb/cover_big/co43e3.jpg",
  "platforms": [
    {
      "name": "Windows"
    }
  ],
  "provider_games": [
    {
      "name": "How to Become a Ninja: Part 1",
      "slug": "how-to-become-a-ninja-part-1",
      "service": "igdb"
    }
  ],
  "aliases": [],
  "shaders": [],
  "discord_id": "",
  "change_for": null
}