{
  "id": 286441,
  "name": "Aerial Cleaner",
  "slug": "aerial-cleaner",
  "year": null,
  "banner_url": "",
  "icon_url": "",
  "coverart": "https://lutris.net/media/igdb/cover_big/co883e.jpg",
  "platforms": [],
  "provider_games": [
    {
      "name": "Aerial Cleaner",
      "slug": "aerial-cleaner",
      "service": "igdb"
    }
  ],
  "aliases": [],
  "shaders": [],
  "discord_id": "",
  "change_for": null
}