{
  "id": 254462,
  "name": "Under Night In-Birth II Sys:Celes",
  "slug": "under-night-in-birth-ii-sys-celes",
  "year": 2024,
  "banner_url": "",
  "icon_url": "",
  "coverart": "https://lutris.net/media/igdb/cover_big/co6w3y.jpg",
  "platforms": [
    {
      "name": "Nintendo Switch"
    },
    {
      "name": "Sony Playstation 4"
    },
    {
      "name": "Sony PlayStation 5"
    },
    {
      "name": "Windows"
    }
  ],
  "provider_games": [
    {
      "name": "Under Night In-Birth II Sys:Celes",
      "slug": "under-night-in-birth-ii-sys-celes",
      "service": "igdb"
    }
  ],
  "aliases": [],
  "shaders": [],
  "discord_id": "",
  "change_for": null
}