{
  "id": 18849,
  "name": "Space Leprechaun",
  "slug": "space-leprechaun",
  "year": 2017,
  "banner_url": "https://lutris.net/games/banner/space-leprechaun.jpg",
  "icon_url": "https://lutris.net/games/icon/space-leprechaun.png",
  "coverart": null,
  "platforms": [
    {
      "name": "Windows"
    }
  ],
  "provider_games": [
    {
      "name": "Space Leprechaun",
      "slug": "space-leprechaun",
      "service": "igdb"
    }
  ],
  "aliases": [],
  "shaders": [],
  "discord_id": "",
  "change_for": null
}