{
  "id": 2864,
  "name": "Masterspace",
  "slug": "masterspace",
  "year": 2015,
  "banner_url": "https://lutris.net/games/banner/masterspace.jpg",
  "icon_url": "https://lutris.net/games/icon/masterspace.png",
  "coverart": "https://lutris.net/media/igdb/cover_big/co86er.jpg",
  "platforms": [
    {
      "name": "Windows"
    }
  ],
  "provider_games": [
    {
      "name": "Masterspace",
      "slug": "282860",
      "service": "steam"
    },
    {
      "name": "Masterspace",
      "slug": "masterspace",
      "service": "igdb"
    }
  ],
  "aliases": [],
  "shaders": [],
  "discord_id": "",
  "change_for": null
}