{
  "id": 26810,
  "game_id": 41640,
  "game_slug": "castlevania-simons-destiny",
  "name": "Castlevania : Simon's Destiny",
  "year": 2017,
  "user": "strider",
  "runner": "zdoom",
  "slug": "castlevania-simons-destiny-v14",
  "version": "V1.4",
  "description": null,
  "notes": "",
  "credits": "",
  "created_at": "2021-03-08T05:57:28.746736Z",
  "updated_at": "2021-03-08T05:57:37.433589Z",
  "draft": false,
  "published": true,
  "published_by": null,
  "rating": "",
  "is_playable": null,
  "steamid": null,
  "gogid": null,
  "gogslug": "",
  "humbleid": "",
  "humblestoreid": "",
  "humblestoreid_real": "",
  "script": {
    "files": [
      {
        "simonsdestiny": "https://lutris.nyc3.digitaloceanspaces.com/games/castlevania-simons-destiny/SimonDestiny_v1.4.zip"
      }
    ],
    "game": {
      "main_file": "Castlevania.ipk3"
    },
    "installer": [
      {
        "extract": {
          "dst": "$GAMEDIR",
          "file": "simonsdestiny"
        }
      }
    ]
  },
  "content": "files:\n- simonsdestiny: https://lutris.nyc3.digitaloceanspaces.com/games/castlevania-simons-destiny/SimonDestiny_v1.4.zip\ngame:\n  main_file: Castlevania.ipk3\ninstaller:\n- extract:\n    dst: $GAMEDIR\n    file: simonsdestiny\n",
  "discord_id": ""
}