{
  "id": 150610,
  "name": "In Your Realm",
  "slug": "in-your-realm",
  "year": null,
  "banner_url": "",
  "icon_url": "",
  "coverart": null,
  "platforms": [],
  "provider_games": [
    {
      "name": "In Your Realm",
      "slug": "in-your-realm",
      "service": "igdb"
    }
  ],
  "aliases": [],
  "shaders": [],
  "discord_id": "",
  "change_for": null
}