{
  "id": 289874,
  "name": "Deimos' Endless Pursuit of Becoming Deimos: Part One",
  "slug": "deimos-endless-pursuit-of-becoming-deimos-part-one",
  "year": 2023,
  "banner_url": "",
  "icon_url": "",
  "coverart": "https://lutris.net/media/igdb/cover_big/co8f7q.jpg",
  "platforms": [
    {
      "name": "Browser"
    }
  ],
  "provider_games": [
    {
      "name": "Deimos' Endless Pursuit of Becoming Deimos: Part One",
      "slug": "deimos-endless-pursuit-of-becoming-deimos-part-one",
      "service": "igdb"
    }
  ],
  "aliases": [],
  "shaders": [],
  "discord_id": "",
  "change_for": null
}