{
  "id": 28651,
  "name": "Kirby's Return to Dream Land",
  "slug": "kirbys-return-to-dream-land",
  "year": 2011,
  "banner_url": "https://lutris.net/games/banner/kirbys-return-to-dream-land.jpg",
  "icon_url": "",
  "coverart": "https://lutris.net/media/igdb/cover_big/co1w9v.jpg",
  "platforms": [
    {
      "name": "Nintendo Wii"
    },
    {
      "name": "Nintendo Wii U"
    }
  ],
  "provider_games": [
    {
      "name": "Kirby's Return to Dream Land",
      "slug": "kirbys-return-to-dream-land",
      "service": "igdb"
    }
  ],
  "aliases": [],
  "shaders": [],
  "discord_id": "",
  "change_for": null
}