{
  "id": 114959,
  "name": "Taekwondo Grand Prix",
  "slug": "taekwondo-grand-prix",
  "year": 2018,
  "banner_url": "",
  "icon_url": "",
  "coverart": "https://lutris.net/media/igdb/cover_big/co2ris.jpg",
  "platforms": [
    {
      "name": "Windows"
    }
  ],
  "provider_games": [
    {
      "name": "Taekwondo Grand Prix",
      "slug": "taekwondo-grand-prix",
      "service": "igdb"
    }
  ],
  "aliases": [],
  "shaders": [],
  "discord_id": "",
  "change_for": null
}