{
  "id": 211418,
  "name": "Llama the Farm Drama",
  "slug": "llama-the-farm-drama",
  "year": null,
  "banner_url": "",
  "icon_url": "",
  "coverart": "https://lutris.net/media/igdb/cover_big/co5fej.jpg",
  "platforms": [],
  "provider_games": [
    {
      "name": "Llama the Farm Drama",
      "slug": "llama-the-farm-drama",
      "service": "igdb"
    }
  ],
  "aliases": [],
  "shaders": [],
  "discord_id": "",
  "change_for": null
}