{
  "id": 244673,
  "name": "Andy Volcano: Tile Match Story",
  "slug": "andy-volcano-tile-match-story",
  "year": 2022,
  "banner_url": "",
  "icon_url": "",
  "coverart": null,
  "platforms": [
    {
      "name": "Android"
    }
  ],
  "provider_games": [
    {
      "name": "Andy Volcano: Tile Match Story",
      "slug": "andy-volcano-tile-match-story",
      "service": "igdb"
    }
  ],
  "aliases": [],
  "shaders": [],
  "discord_id": "",
  "change_for": null
}