{
  "id": 26205,
  "name": "Eternal Fantasy",
  "slug": "eternal-fantasy",
  "year": 2018,
  "banner_url": "https://lutris.net/games/banner/eternal-fantasy.jpg",
  "icon_url": "https://lutris.net/games/icon/eternal-fantasy.png",
  "coverart": null,
  "platforms": [
    {
      "name": "Windows"
    }
  ],
  "provider_games": [
    {
      "name": "Eternal Fantasy",
      "slug": "844950",
      "service": "steam"
    },
    {
      "name": "Eternal Fantasy",
      "slug": "eternal-fantasy",
      "service": "igdb"
    }
  ],
  "aliases": [],
  "shaders": [],
  "discord_id": "",
  "change_for": null
}