{
  "id": 72044,
  "name": "dress",
  "slug": "dress",
  "year": null,
  "banner_url": "",
  "icon_url": "",
  "coverart": "https://lutris.net/media/igdb/cover_big/co8gic.jpg",
  "platforms": [],
  "provider_games": [
    {
      "name": "Dress",
      "slug": "dress",
      "service": "igdb"
    }
  ],
  "aliases": [],
  "shaders": [],
  "discord_id": "",
  "change_for": null
}