{
  "id": 277098,
  "name": "Sustained",
  "slug": "sustained",
  "year": null,
  "banner_url": "",
  "icon_url": "",
  "coverart": "https://lutris.net/media/igdb/cover_big/co7wky.jpg",
  "platforms": [],
  "provider_games": [
    {
      "name": "Sustained",
      "slug": "sustained",
      "service": "igdb"
    }
  ],
  "aliases": [],
  "shaders": [],
  "discord_id": "",
  "change_for": null
}