{
  "id": 301975,
  "name": "Coloring Book for Adults 2",
  "slug": "coloring-book-for-adults-2",
  "year": 2024,
  "banner_url": "",
  "icon_url": "",
  "coverart": "https://lutris.net/media/igdb/cover_big/co93eh.jpg",
  "platforms": [
    {
      "name": "Mac"
    },
    {
      "name": "Windows"
    }
  ],
  "provider_games": [
    {
      "name": "Coloring Book for Adults 2",
      "slug": "coloring-book-for-adults-2",
      "service": "igdb"
    }
  ],
  "aliases": [],
  "shaders": [],
  "discord_id": "",
  "change_for": null
}