{
  "id": 3658,
  "game_id": 4356,
  "game_slug": "lost-planet-3",
  "name": "Lost Planet 3",
  "year": 2013,
  "user": "strider",
  "runner": "steam",
  "slug": "lost-planet-3-proton",
  "version": "Proton",
  "description": "",
  "notes": "",
  "credits": "",
  "created_at": "2017-05-10T02:56:39.132614Z",
  "updated_at": "2021-05-04T02:43:03.378839Z",
  "draft": false,
  "published": true,
  "published_by": null,
  "rating": "",
  "is_playable": null,
  "steamid": 226720,
  "gogid": null,
  "gogslug": "",
  "humbleid": "",
  "humblestoreid": "",
  "humblestoreid_real": "",
  "script": {
    "game": {
      "appid": 226720
    }
  },
  "content": "game:\n  appid: 226720\n",
  "discord_id": ""
}