{
  "id": 137482,
  "name": "Outcasts of Orion",
  "slug": "outcasts-of-orion",
  "year": null,
  "banner_url": "",
  "icon_url": "",
  "coverart": "https://lutris.net/media/igdb/cover_big/co3qpp.jpg",
  "platforms": [],
  "provider_games": [
    {
      "name": "Outcasts of Orion",
      "slug": "outcasts-of-orion",
      "service": "igdb"
    }
  ],
  "aliases": [],
  "shaders": [],
  "discord_id": "",
  "change_for": null
}