{
  "id": 38302,
  "name": "迷雾之夏",
  "slug": "mi-wu-zhi-xia",
  "year": null,
  "banner_url": "https://lutris.net/games/banner/mi-wu-zhi-xia.jpg",
  "icon_url": "https://lutris.net/games/icon/mi-wu-zhi-xia.png",
  "coverart": null,
  "platforms": [],
  "provider_games": [
    {
      "name": "迷雾之夏",
      "slug": "1254900",
      "service": "steam"
    }
  ],
  "aliases": [],
  "shaders": [],
  "discord_id": "",
  "change_for": null
}