{
  "id": 234248,
  "name": "Cat Jigsaw Puzzle Games",
  "slug": "cat-jigsaw-puzzle-games",
  "year": null,
  "banner_url": "",
  "icon_url": "",
  "coverart": "https://lutris.net/media/igdb/cover_big/co91rq.jpg",
  "platforms": [],
  "provider_games": [
    {
      "name": "Cat Jigsaw Puzzle Games",
      "slug": "cat-jigsaw-puzzle-games",
      "service": "igdb"
    }
  ],
  "aliases": [],
  "shaders": [],
  "discord_id": "",
  "change_for": null
}