{
  "id": 252203,
  "name": "3D Tan",
  "slug": "3d-tan",
  "year": null,
  "banner_url": "",
  "icon_url": "",
  "coverart": null,
  "platforms": [],
  "provider_games": [
    {
      "name": "3D Tan",
      "slug": "3d-tan",
      "service": "igdb"
    }
  ],
  "aliases": [],
  "shaders": [],
  "discord_id": "",
  "change_for": null
}