{
  "id": 140959,
  "name": "Suite PreCure♪: Melody Collection",
  "slug": "suite-precure-melody-collection",
  "year": 2011,
  "banner_url": "",
  "icon_url": "",
  "coverart": "https://lutris.net/media/igdb/cover_big/co3sq7.jpg",
  "platforms": [
    {
      "name": "Nintendo DS"
    }
  ],
  "provider_games": [
    {
      "name": "Suite PreCure: Melody Collection",
      "slug": "suite-precure-melody-collection",
      "service": "igdb"
    }
  ],
  "aliases": [],
  "shaders": [],
  "discord_id": "",
  "change_for": null
}