{
  "id": 197991,
  "name": "Escape From Hard Drive",
  "slug": "escape-from-hard-drive",
  "year": null,
  "banner_url": "",
  "icon_url": "",
  "coverart": "https://lutris.net/media/igdb/cover_big/co4jf6.jpg",
  "platforms": [],
  "provider_games": [
    {
      "name": "Escape From Hard Drive",
      "slug": "escape-from-hard-drive",
      "service": "igdb"
    }
  ],
  "aliases": [],
  "shaders": [],
  "discord_id": "",
  "change_for": null
}