{
  "id": 125521,
  "name": "The Tower of Five Hearts",
  "slug": "the-tower-of-five-hearts",
  "year": 2018,
  "banner_url": "",
  "icon_url": "",
  "coverart": "https://lutris.net/media/igdb/cover_big/co2z5u.jpg",
  "platforms": [
    {
      "name": "Linux"
    },
    {
      "name": "Mac"
    },
    {
      "name": "Windows"
    }
  ],
  "provider_games": [
    {
      "name": "The Tower of Five Hearts",
      "slug": "the-tower-of-five-hearts",
      "service": "igdb"
    }
  ],
  "aliases": [],
  "shaders": [],
  "discord_id": "",
  "change_for": null
}