{
  "id": 72685,
  "name": "Moraff's MahJongg XIV International",
  "slug": "moraffs-mahjongg-xiv-international",
  "year": null,
  "banner_url": "",
  "icon_url": "",
  "coverart": null,
  "platforms": [],
  "provider_games": [
    {
      "name": "Moraff's MahJongg XIV International",
      "slug": "moraffs-mahjongg-xiv-international",
      "service": "igdb"
    }
  ],
  "aliases": [],
  "shaders": [],
  "discord_id": "",
  "change_for": null
}