{
  "id": 40602,
  "name": "Blue's Journey",
  "slug": "blues-journey",
  "year": 1991,
  "banner_url": "https://lutris.net/games/banner/blues-journey.jpg",
  "icon_url": "",
  "coverart": "https://lutris.net/media/igdb/cover_big/co22yj.jpg",
  "platforms": [
    {
      "name": "Arcade"
    },
    {
      "name": "Neo Geo AES"
    },
    {
      "name": "Neo Geo CD"
    },
    {
      "name": "Neo Geo MVS"
    },
    {
      "name": "Nintendo Switch"
    },
    {
      "name": "Nintendo Wii"
    }
  ],
  "provider_games": [
    {
      "name": "Blue's Journey",
      "slug": "blues-journey",
      "service": "igdb"
    }
  ],
  "aliases": [],
  "shaders": [],
  "discord_id": "",
  "change_for": null
}