{
  "id": 199674,
  "name": "Idle Research",
  "slug": "idle-research",
  "year": null,
  "banner_url": "https://lutris.net/games/banner/idle-research.jpg",
  "icon_url": "",
  "coverart": "https://lutris.net/media/igdb/cover_big/co4fos.jpg",
  "platforms": [],
  "provider_games": [
    {
      "name": "Idle Research",
      "slug": "idle-research",
      "service": "igdb"
    },
    {
      "name": "Idle Research",
      "slug": "1482860",
      "service": "steam"
    }
  ],
  "aliases": [],
  "shaders": [],
  "discord_id": "",
  "change_for": null
}