{
  "id": 252804,
  "name": "Epic Cards Battle 3",
  "slug": "epic-cards-battle-3",
  "year": null,
  "banner_url": "",
  "icon_url": "",
  "coverart": "https://lutris.net/media/igdb/cover_big/co6uo8.jpg",
  "platforms": [],
  "provider_games": [
    {
      "name": "Epic Cards Battle 3",
      "slug": "epic-cards-battle-3",
      "service": "igdb"
    }
  ],
  "aliases": [],
  "shaders": [],
  "discord_id": "",
  "change_for": null
}