{
  "id": 186408,
  "name": "​ARZA: Adrenaline Rush Zombie Assault",
  "slug": "arza-adrenaline-rush-zombie-assault",
  "year": null,
  "banner_url": "",
  "icon_url": "",
  "coverart": null,
  "platforms": [],
  "provider_games": [
    {
      "name": "​ARZA: Adrenaline Rush Zombie Assault",
      "slug": "arza-adrenaline-rush-zombie-assault",
      "service": "igdb"
    }
  ],
  "aliases": [],
  "shaders": [],
  "discord_id": "",
  "change_for": null
}