{
  "id": 80625,
  "name": "Boinggg!",
  "slug": "boinggg",
  "year": null,
  "banner_url": "",
  "icon_url": "",
  "coverart": null,
  "platforms": [
    {
      "name": "Amstrad CPC"
    }
  ],
  "provider_games": [
    {
      "name": "Boinggg!",
      "slug": "boinggg",
      "service": "igdb"
    }
  ],
  "aliases": [],
  "shaders": [],
  "discord_id": "",
  "change_for": null
}