{
  "id": 53131,
  "name": "World of Battles: Morningstar",
  "slug": "world-of-battles-morningstar",
  "year": null,
  "banner_url": "",
  "icon_url": "",
  "coverart": "https://lutris.net/media/igdb/cover_big/bcr6dgxf89z7bcaxsrxv.jpg",
  "platforms": [],
  "provider_games": [
    {
      "name": "World of Battles: Morningstar",
      "slug": "world-of-battles-morningstar",
      "service": "igdb"
    }
  ],
  "aliases": [],
  "shaders": [],
  "discord_id": "",
  "change_for": null
}