{
  "id": 10084,
  "name": "STAR WARS™: Rebel Assault I + II",
  "slug": "star-warstm-rebel-assault-i-ii",
  "year": 1993,
  "banner_url": "https://lutris.net/games/banner/star-warstm-rebel-assault-i-ii.jpg",
  "icon_url": "https://lutris.net/games/icon/star-warstm-rebel-assault-i-ii.png",
  "coverart": null,
  "platforms": [
    {
      "name": "Linux"
    },
    {
      "name": "MS-DOS"
    }
  ],
  "provider_games": [
    {
      "name": "STAR WARS™: Rebel Assault I + II",
      "slug": "456540",
      "service": "steam"
    }
  ],
  "aliases": [],
  "shaders": [],
  "discord_id": "",
  "change_for": null
}