{
  "id": 1393,
  "game_id": 3972,
  "game_slug": "neocolonialism",
  "name": "Neocolonialism",
  "year": 2013,
  "user": "Xodetaetl",
  "runner": "steam",
  "slug": "neocolonialism-steam",
  "version": "Steam",
  "description": "",
  "notes": "",
  "credits": "",
  "created_at": "2015-03-11T10:59:02.931000Z",
  "updated_at": "2015-03-11T11:37:40.218000Z",
  "draft": false,
  "published": true,
  "published_by": null,
  "rating": "",
  "is_playable": null,
  "steamid": 333540,
  "gogid": null,
  "gogslug": "",
  "humbleid": "",
  "humblestoreid": "",
  "humblestoreid_real": "",
  "script": {
    "game": {
      "appid": 333540
    }
  },
  "content": "game:\n  appid: 333540\n",
  "discord_id": ""
}