{
  "id": 1394,
  "name": "Painkiller: Gold Edition",
  "slug": "painkiller-gold-edition",
  "year": null,
  "banner_url": "https://lutris.net/games/banner/painkiller-gold-edition.jpg",
  "icon_url": "https://lutris.net/games/icon/painkiller-gold-edition.png",
  "coverart": null,
  "platforms": [],
  "provider_games": [
    {
      "name": "Painkiller: Gold Edition",
      "slug": "3200",
      "service": "steam"
    }
  ],
  "aliases": [],
  "shaders": [],
  "discord_id": "",
  "change_for": null
}