{
  "id": 53156,
  "name": "Wakeboarding Unleashed Featuring Shaun Murray",
  "slug": "wakeboarding-unleashed-featuring-shaun-murray",
  "year": 2003,
  "banner_url": "",
  "icon_url": "",
  "coverart": "https://lutris.net/media/igdb/cover_big/co1onw.jpg",
  "platforms": [
    {
      "name": "Nintendo Game Boy Advance"
    },
    {
      "name": "Sony PlayStation 2"
    }
  ],
  "provider_games": [
    {
      "name": "Wakeboarding Unleashed Featuring Shaun Murray",
      "slug": "wakeboarding-unleashed-featuring-shaun-murray",
      "service": "igdb"
    }
  ],
  "aliases": [],
  "shaders": [],
  "discord_id": "",
  "change_for": null
}