{
  "id": 258464,
  "name": "The World's Hardest Game 3D Nostalgia 2",
  "slug": "the-worlds-hardest-game-3d-nostalgia-2",
  "year": null,
  "banner_url": "",
  "icon_url": "",
  "coverart": "https://lutris.net/media/igdb/cover_big/co71n2.jpg",
  "platforms": [],
  "provider_games": [
    {
      "name": "The World's Hardest Game 3D Nostalgia 2",
      "slug": "the-worlds-hardest-game-3d-nostalgia-2",
      "service": "igdb"
    }
  ],
  "aliases": [],
  "shaders": [],
  "discord_id": "",
  "change_for": null
}