{
  "id": 290488,
  "name": "Bolo",
  "slug": "bolo--2",
  "year": 1987,
  "banner_url": "",
  "icon_url": "",
  "coverart": "https://lutris.net/media/igdb/cover_big/co8g8d.jpg",
  "platforms": [
    {
      "name": "Atari ST"
    }
  ],
  "provider_games": [
    {
      "name": "Bolo",
      "slug": "bolo--2",
      "service": "igdb"
    }
  ],
  "aliases": [],
  "shaders": [],
  "discord_id": "",
  "change_for": null
}