{
  "id": 99198,
  "name": "Film Fatale: Lights, Camera, Madness!",
  "slug": "film-fatale-lights-camera-madness",
  "year": null,
  "banner_url": "",
  "icon_url": "",
  "coverart": "https://lutris.net/media/igdb/cover_big/co1t6b.jpg",
  "platforms": [],
  "provider_games": [
    {
      "name": "Film Fatale: Lights, Camera, Madness!",
      "slug": "film-fatale-lights-camera-madness",
      "service": "igdb"
    }
  ],
  "aliases": [],
  "shaders": [],
  "discord_id": "",
  "change_for": null
}