{
  "id": 78790,
  "name": "Farming Simulator 15: Gold Edition",
  "slug": "farming-simulator-15-gold-edition",
  "year": null,
  "banner_url": "",
  "icon_url": "",
  "coverart": null,
  "platforms": [],
  "provider_games": [
    {
      "name": "Farming Simulator 15: Gold Edition",
      "slug": "farming-simulator-15-gold-edition",
      "service": "igdb"
    }
  ],
  "aliases": [],
  "shaders": [],
  "discord_id": "",
  "change_for": null
}