{
  "id": 47908,
  "name": "Flick Arena",
  "slug": "flick-arena",
  "year": null,
  "banner_url": "",
  "icon_url": "",
  "coverart": null,
  "platforms": [],
  "provider_games": [
    {
      "name": "Flick Arena",
      "slug": "flick-arena",
      "service": "igdb"
    }
  ],
  "aliases": [],
  "shaders": [],
  "discord_id": "",
  "change_for": null
}