{
  "id": 252333,
  "name": "Ned: Iron Outlaw",
  "slug": "ned-iron-outlaw",
  "year": null,
  "banner_url": "",
  "icon_url": "",
  "coverart": "https://lutris.net/media/igdb/cover_big/co6s1n.jpg",
  "platforms": [
    {
      "name": "Windows"
    }
  ],
  "provider_games": [
    {
      "name": "Ned: Iron Outlaw",
      "slug": "ned-iron-outlaw",
      "service": "igdb"
    }
  ],
  "aliases": [],
  "shaders": [],
  "discord_id": "",
  "change_for": null
}