{
  "id": 66701,
  "name": "Loader Larry",
  "slug": "loader-larry",
  "year": 1992,
  "banner_url": "",
  "icon_url": "",
  "coverart": "https://lutris.net/media/igdb/cover_big/pnofwqisluypho9y4pn2.jpg",
  "platforms": [],
  "provider_games": [
    {
      "name": "Loader Larry",
      "slug": "loader-larry",
      "service": "igdb"
    }
  ],
  "aliases": [],
  "shaders": [],
  "discord_id": "",
  "change_for": null
}