{
  "id": 29533,
  "name": "Chao Resort Island",
  "slug": "chao-resort-island",
  "year": 2017,
  "banner_url": "https://lutris.net/games/banner/chao-resort-island.jpg",
  "icon_url": "",
  "coverart": "https://lutris.net/media/igdb/cover_big/co30yy.jpg",
  "platforms": [
    {
      "name": "Windows"
    }
  ],
  "provider_games": [
    {
      "name": "Chao Resort Island",
      "slug": "chao-resort-island",
      "service": "igdb"
    }
  ],
  "aliases": [],
  "shaders": [],
  "discord_id": "",
  "change_for": null
}