{
  "id": 292557,
  "name": "Kamigoroshi",
  "slug": "kamigoroshi",
  "year": null,
  "banner_url": "",
  "icon_url": "",
  "coverart": "https://lutris.net/media/igdb/cover_big/co8mu3.jpg",
  "platforms": [],
  "provider_games": [
    {
      "name": "Kamigoroshi",
      "slug": "kamigoroshi",
      "service": "igdb"
    }
  ],
  "aliases": [],
  "shaders": [],
  "discord_id": "",
  "change_for": null
}