{
  "id": 49706,
  "name": "Arc Rise Fantasia",
  "slug": "arc-rise-fantasia",
  "year": 2009,
  "banner_url": "",
  "icon_url": "",
  "coverart": "https://lutris.net/media/igdb/cover_big/co1uh7.jpg",
  "platforms": [
    {
      "name": "Nintendo Wii"
    }
  ],
  "provider_games": [
    {
      "name": "Arc Rise Fantasia",
      "slug": "arc-rise-fantasia",
      "service": "igdb"
    }
  ],
  "aliases": [],
  "shaders": [],
  "discord_id": "",
  "change_for": null
}