{
  "id": 6872,
  "name": "The Minotaur",
  "slug": "the-minotaur",
  "year": 2016,
  "banner_url": "https://lutris.net/games/banner/the-minotaur.jpg",
  "icon_url": "https://lutris.net/games/icon/the-minotaur.png",
  "coverart": "https://lutris.net/media/igdb/cover_big/by7fhhwxm2e7yfdkcy2w.jpg",
  "platforms": [
    {
      "name": "Mac"
    },
    {
      "name": "Windows"
    }
  ],
  "provider_games": [
    {
      "name": "The Minotaur",
      "slug": "412540",
      "service": "steam"
    },
    {
      "name": "The Minotaur",
      "slug": "the-minotaur",
      "service": "igdb"
    }
  ],
  "aliases": [],
  "shaders": [],
  "discord_id": "",
  "change_for": null
}