{
  "id": 101862,
  "name": "Pop Breaker",
  "slug": "pop-breaker",
  "year": 1991,
  "banner_url": "",
  "icon_url": "",
  "coverart": "https://lutris.net/media/igdb/cover_big/xf6jxapcjued9dqbqsy1.jpg",
  "platforms": [
    {
      "name": "Sega Game Gear"
    }
  ],
  "provider_games": [
    {
      "name": "Pop Breaker",
      "slug": "pop-breaker",
      "service": "igdb"
    }
  ],
  "aliases": [],
  "shaders": [],
  "discord_id": "",
  "change_for": null
}