{
  "id": 226024,
  "name": "Drone Tinkerer",
  "slug": "drone-tinkerer",
  "year": null,
  "banner_url": "",
  "icon_url": "",
  "coverart": "https://lutris.net/media/igdb/cover_big/co5hly.jpg",
  "platforms": [],
  "provider_games": [
    {
      "name": "Drone Tinkerer",
      "slug": "drone-tinkerer",
      "service": "igdb"
    }
  ],
  "aliases": [],
  "shaders": [],
  "discord_id": "",
  "change_for": null
}