{
  "id": 49161,
  "name": "Arslan Senki",
  "slug": "arslan-senki",
  "year": 1993,
  "banner_url": "",
  "icon_url": "",
  "coverart": "https://lutris.net/media/igdb/cover_big/epz9tdr5gagsvhrbedpt.jpg",
  "platforms": [],
  "provider_games": [
    {
      "name": "Arslan Senki",
      "slug": "arslan-senki",
      "service": "igdb"
    }
  ],
  "aliases": [],
  "shaders": [],
  "discord_id": "",
  "change_for": null
}