{
  "id": 196031,
  "name": "X-Plane Flight Simulator",
  "slug": "x-plane-flight-simulator",
  "year": null,
  "banner_url": "",
  "icon_url": "",
  "coverart": "https://lutris.net/media/igdb/cover_big/co4rtw.jpg",
  "platforms": [],
  "provider_games": [
    {
      "name": "X-Plane Flight Simulator",
      "slug": "x-plane-flight-simulator",
      "service": "igdb"
    }
  ],
  "aliases": [],
  "shaders": [],
  "discord_id": "",
  "change_for": null
}