{
  "id": 194643,
  "name": "Palmas",
  "slug": "palmas",
  "year": null,
  "banner_url": "",
  "icon_url": "",
  "coverart": "https://lutris.net/media/igdb/cover_big/co4qip.jpg",
  "platforms": [],
  "provider_games": [
    {
      "name": "Palmas",
      "slug": "palmas",
      "service": "igdb"
    }
  ],
  "aliases": [],
  "shaders": [],
  "discord_id": "",
  "change_for": null
}