{
  "id": 283002,
  "name": "Peppa Pig: Laptop Infantil",
  "slug": "peppa-pig-laptop-infantil",
  "year": null,
  "banner_url": "",
  "icon_url": "",
  "coverart": null,
  "platforms": [],
  "provider_games": [
    {
      "name": "Peppa Pig: Laptop Infantil",
      "slug": "peppa-pig-laptop-infantil",
      "service": "igdb"
    }
  ],
  "aliases": [],
  "shaders": [],
  "discord_id": "",
  "change_for": null
}