{
  "id": 31910,
  "name": "The Walking Dead: Saints & Sinners",
  "slug": "the-walking-dead-saints-sinners",
  "year": null,
  "banner_url": "https://lutris.net/games/banner/the-walking-dead-saints-sinners.jpg",
  "icon_url": "https://lutris.net/games/icon/the-walking-dead-saints-sinners.png",
  "coverart": null,
  "platforms": [],
  "provider_games": [
    {
      "name": "The Walking Dead: Saints & Sinners",
      "slug": "916840",
      "service": "steam"
    }
  ],
  "aliases": [],
  "shaders": [],
  "discord_id": "",
  "change_for": null
}