{
  "id": 190126,
  "name": "Skeleton Crew",
  "slug": "skeleton-crew",
  "year": null,
  "banner_url": "https://lutris.net/games/banner/skeleton-crew.jpg",
  "icon_url": "",
  "coverart": "https://lutris.net/media/igdb/cover_big/co29rp.jpg",
  "platforms": [
    {
      "name": "Windows"
    }
  ],
  "provider_games": [
    {
      "name": "Skeleton Crew",
      "slug": "1145330",
      "service": "steam"
    },
    {
      "name": "Skeleton Crew",
      "slug": "skeleton-crew",
      "service": "igdb"
    }
  ],
  "aliases": [],
  "shaders": [],
  "discord_id": "",
  "change_for": null
}