{
  "id": 140103,
  "name": "Dokuganryu Masamune",
  "slug": "dokuganryu-masamune",
  "year": 1988,
  "banner_url": "",
  "icon_url": "",
  "coverart": "https://lutris.net/media/igdb/cover_big/afgxzwiwqcbxxdt8m4uh.jpg",
  "platforms": [
    {
      "name": "Family Computer"
    }
  ],
  "provider_games": [
    {
      "name": "Dokuganryu Masamune",
      "slug": "dokuganryu-masamune",
      "service": "igdb"
    }
  ],
  "aliases": [],
  "shaders": [],
  "discord_id": "",
  "change_for": null
}