{
  "id": 78934,
  "name": "Tales of Vesperia: Special Edition",
  "slug": "tales-of-vesperia-special-edition",
  "year": 2008,
  "banner_url": "",
  "icon_url": "",
  "coverart": null,
  "platforms": [
    {
      "name": "Xbox 360"
    }
  ],
  "provider_games": [
    {
      "name": "Tales of Vesperia: Special Edition",
      "slug": "tales-of-vesperia-special-edition",
      "service": "igdb"
    }
  ],
  "aliases": [],
  "shaders": [],
  "discord_id": "",
  "change_for": null
}