{
  "id": 119750,
  "name": "Tango: The Adventure Game",
  "slug": "tango-the-adventure-game",
  "year": null,
  "banner_url": "",
  "icon_url": "",
  "coverart": "https://lutris.net/media/igdb/cover_big/co7hov.jpg",
  "platforms": [],
  "provider_games": [
    {
      "name": "Tango: The Adventure Game",
      "slug": "tango-the-adventure-game",
      "service": "igdb"
    }
  ],
  "aliases": [],
  "shaders": [],
  "discord_id": "",
  "change_for": null
}