{
  "id": 9238,
  "name": "Grand Pigeon's Duty",
  "slug": "grand-pigeons-duty",
  "year": 2016,
  "banner_url": "https://lutris.net/games/banner/grand-pigeons-duty.jpg",
  "icon_url": "https://lutris.net/games/icon/grand-pigeons-duty.png",
  "coverart": "https://lutris.net/media/igdb/cover_big/co41fe.jpg",
  "platforms": [
    {
      "name": "Windows"
    }
  ],
  "provider_games": [
    {
      "name": "Grand Pigeon's Duty",
      "slug": "449530",
      "service": "steam"
    },
    {
      "name": "Grand Pigeon's Duty",
      "slug": "grand-pigeons-duty",
      "service": "igdb"
    }
  ],
  "aliases": [],
  "shaders": [],
  "discord_id": "",
  "change_for": null
}