{
  "id": 269497,
  "name": "First Hand",
  "slug": "first-hand--2",
  "year": 2023,
  "banner_url": "",
  "icon_url": "",
  "coverart": "https://lutris.net/media/igdb/cover_big/co7j7i.jpg",
  "platforms": [
    {
      "name": "Oculus Quest 2"
    }
  ],
  "provider_games": [
    {
      "name": "First Hand",
      "slug": "first-hand--2",
      "service": "igdb"
    }
  ],
  "aliases": [],
  "shaders": [],
  "discord_id": "",
  "change_for": null
}