{
  "id": 206168,
  "name": "Detective Conan Skateboard Run: Kaitou Kid to Shinpi no Hihou",
  "slug": "detective-conan-skateboard-run-kaitou-kid-to-shinpi-no-hihou",
  "year": 2020,
  "banner_url": "",
  "icon_url": "",
  "coverart": null,
  "platforms": [
    {
      "name": "Nintendo Switch"
    }
  ],
  "provider_games": [
    {
      "name": "Detective Conan Skateboard Run: Kaitou Kid to Shinpi no Hihou",
      "slug": "detective-conan-skateboard-run-kaitou-kid-to-shinpi-no-hihou",
      "service": "igdb"
    }
  ],
  "aliases": [],
  "shaders": [],
  "discord_id": "",
  "change_for": null
}