{
  "id": 38313,
  "game_id": 270227,
  "game_slug": "supreme-fighters",
  "name": "Supreme Fighters",
  "year": null,
  "user": "vanstaveren",
  "runner": "steam",
  "slug": "supreme-fighters-steam",
  "version": "steam",
  "description": "",
  "notes": "",
  "credits": "",
  "created_at": "2024-02-26T23:14:05.968082Z",
  "updated_at": "2024-02-26T23:14:05.968101Z",
  "draft": false,
  "published": true,
  "published_by": null,
  "rating": "",
  "is_playable": null,
  "steamid": null,
  "gogid": null,
  "gogslug": "",
  "humbleid": "",
  "humblestoreid": "",
  "humblestoreid_real": "",
  "script": {
    "game": {
      "appid": 1393680
    }
  },
  "content": "game:\n  appid: 1393680\n",
  "discord_id": ""
}