{
  "id": 260848,
  "name": "2003 Toshi Kaimaku: Ganbare Kyuukaiou",
  "slug": "2003-toshi-kaimaku-ganbare-kyuukaiou",
  "year": 2003,
  "banner_url": "",
  "icon_url": "",
  "coverart": "https://lutris.net/media/igdb/cover_big/co75pe.jpg",
  "platforms": [
    {
      "name": "Sony PlayStation 2"
    }
  ],
  "provider_games": [
    {
      "name": "2003 Toshi Kaimaku: Ganbare Kyuukaiou",
      "slug": "2003-toshi-kaimaku-ganbare-kyuukaiou",
      "service": "igdb"
    }
  ],
  "aliases": [],
  "shaders": [],
  "discord_id": "",
  "change_for": null
}