{
  "id": 6867,
  "name": "Message Quest",
  "slug": "message-quest",
  "year": 2015,
  "banner_url": "https://lutris.net/games/banner/message-quest.jpg",
  "icon_url": "https://lutris.net/games/icon/message-quest.png",
  "coverart": "https://lutris.net/media/igdb/cover_big/ce49waiudfvixiftffkd.jpg",
  "platforms": [
    {
      "name": "Linux"
    },
    {
      "name": "Mac"
    },
    {
      "name": "Windows"
    }
  ],
  "provider_games": [
    {
      "name": "Message Quest",
      "slug": "408280",
      "service": "steam"
    },
    {
      "name": "Message Quest",
      "slug": "message-quest",
      "service": "igdb"
    }
  ],
  "aliases": [],
  "shaders": [],
  "discord_id": "",
  "change_for": null
}