{
  "id": 62459,
  "name": "After Armageddon",
  "slug": "after-armageddon",
  "year": null,
  "banner_url": "",
  "icon_url": "",
  "coverart": "https://lutris.net/media/igdb/cover_big/ifqixioonfjfrq0rcbdp.jpg",
  "platforms": [],
  "provider_games": [
    {
      "name": "After Armageddon",
      "slug": "after-armageddon",
      "service": "igdb"
    }
  ],
  "aliases": [],
  "shaders": [],
  "discord_id": "",
  "change_for": null
}