{
  "id": 12422,
  "name": "Dungeons & Robots",
  "slug": "dungeons-robots",
  "year": null,
  "banner_url": "https://lutris.net/games/banner/dungeons-robots.jpg",
  "icon_url": "https://lutris.net/games/icon/dungeons-robots.png",
  "coverart": null,
  "platforms": [],
  "provider_games": [
    {
      "name": "Dungeons & Robots",
      "slug": "386650",
      "service": "steam"
    }
  ],
  "aliases": [],
  "shaders": [],
  "discord_id": "",
  "change_for": null
}