{
  "id": 58600,
  "name": "The Mystery of Nile",
  "slug": "the-mystery-of-nile",
  "year": null,
  "banner_url": "",
  "icon_url": "",
  "coverart": "https://lutris.net/media/igdb/cover_big/bshxfzycyhmkmd5t7fb5.jpg",
  "platforms": [],
  "provider_games": [
    {
      "name": "The Mystery of Nile",
      "slug": "the-mystery-of-nile",
      "service": "igdb"
    }
  ],
  "aliases": [],
  "shaders": [],
  "discord_id": "",
  "change_for": null
}