{
  "id": 159895,
  "name": "Space Moguls",
  "slug": "space-moguls",
  "year": 2018,
  "banner_url": "",
  "icon_url": "",
  "coverart": "https://lutris.net/media/igdb/cover_big/co3yvo.jpg",
  "platforms": [
    {
      "name": "Commodore C64/128"
    }
  ],
  "provider_games": [
    {
      "name": "Space Moguls",
      "slug": "space-moguls",
      "service": "igdb"
    }
  ],
  "aliases": [],
  "shaders": [],
  "discord_id": "",
  "change_for": null
}