{
  "id": 11691,
  "name": "voxelands",
  "slug": "voxelands",
  "year": 2013,
  "banner_url": "https://lutris.net/games/banner/voxelands.jpg",
  "icon_url": "",
  "coverart": null,
  "platforms": [
    {
      "name": "Linux"
    }
  ],
  "provider_games": [],
  "aliases": [],
  "shaders": [],
  "discord_id": "",
  "change_for": null
}