{
  "id": 11155,
  "name": "Christmas Adventure: Candy Storm",
  "slug": "christmas-adventure-candy-storm",
  "year": 2016,
  "banner_url": "https://lutris.net/games/banner/christmas-adventure-candy-storm.jpg",
  "icon_url": "https://lutris.net/games/icon/christmas-adventure-candy-storm.png",
  "coverart": "https://lutris.net/media/igdb/cover_big/co3n3j.jpg",
  "platforms": [
    {
      "name": "Windows"
    }
  ],
  "provider_games": [
    {
      "name": "Christmas Adventure: Candy Storm",
      "slug": "456430",
      "service": "steam"
    },
    {
      "name": "Christmas Adventure: Candy Storm",
      "slug": "christmas-adventure-candy-storm",
      "service": "igdb"
    }
  ],
  "aliases": [],
  "shaders": [],
  "discord_id": "",
  "change_for": null
}