{
  "id": 64250,
  "name": "Inhabitants",
  "slug": "inhabitants",
  "year": null,
  "banner_url": "",
  "icon_url": "",
  "coverart": "https://lutris.net/media/igdb/cover_big/deb82p3dbcwbmzbbbwkw.jpg",
  "platforms": [],
  "provider_games": [
    {
      "name": "Inhabitants",
      "slug": "inhabitants",
      "service": "igdb"
    }
  ],
  "aliases": [],
  "shaders": [],
  "discord_id": "",
  "change_for": null
}