{
  "id": 152634,
  "name": "BEAR, VODKA, FALL OF BERLIN!",
  "slug": "bear-vodka-fall-of-berlin",
  "year": 2020,
  "banner_url": "https://lutris.net/games/banner/bear-vodka-fall-of-berlin.jpg",
  "icon_url": "",
  "coverart": "https://lutris.net/media/igdb/cover_big/co20o1.jpg",
  "platforms": [
    {
      "name": "Windows"
    }
  ],
  "provider_games": [
    {
      "name": "BEAR, VODKA, FALL OF BERLIN! 🐻",
      "slug": "1258710",
      "service": "steam"
    },
    {
      "name": "Bear, Vodka, Fall of Berlin!",
      "slug": "bear-vodka-fall-of-berlin",
      "service": "igdb"
    }
  ],
  "aliases": [],
  "shaders": [],
  "discord_id": "",
  "change_for": null
}