{
  "id": 7660,
  "name": "Urban Chaos",
  "slug": "urban-chaos",
  "year": 1999,
  "banner_url": "https://lutris.net/games/banner/urban-chaos.jpg",
  "icon_url": "https://lutris.net/games/icon/urban-chaos.png",
  "coverart": "https://lutris.net/media/igdb/cover_big/co2b6v.jpg",
  "platforms": [
    {
      "name": "Dreamcast"
    },
    {
      "name": "Sony PlayStation"
    },
    {
      "name": "Windows"
    }
  ],
  "provider_games": [
    {
      "name": "Urban Chaos",
      "slug": "1207659106",
      "service": "gog"
    },
    {
      "name": "Urban Chaos",
      "slug": "243060",
      "service": "steam"
    },
    {
      "name": "Urban Chaos",
      "slug": "urban-chaos",
      "service": "igdb"
    }
  ],
  "aliases": [],
  "shaders": [],
  "discord_id": "",
  "change_for": null
}