{
  "id": 81303,
  "name": "Monster Truck Wars",
  "slug": "monster-truck-wars",
  "year": 1994,
  "banner_url": "",
  "icon_url": "",
  "coverart": "https://lutris.net/media/igdb/cover_big/co2e3e.jpg",
  "platforms": [
    {
      "name": "Game Boy"
    },
    {
      "name": "Sega Game Gear"
    }
  ],
  "provider_games": [
    {
      "name": "Monster Truck Wars",
      "slug": "monster-truck-wars",
      "service": "igdb"
    }
  ],
  "aliases": [],
  "shaders": [],
  "discord_id": "",
  "change_for": null
}