{
  "id": 46183,
  "name": "Baby Maker Extreme",
  "slug": "baby-maker-extreme",
  "year": null,
  "banner_url": "",
  "icon_url": "",
  "coverart": "https://lutris.net/media/igdb/cover_big/wxeupl2szwoepw8151qd.jpg",
  "platforms": [],
  "provider_games": [
    {
      "name": "Baby Maker Extreme",
      "slug": "baby-maker-extreme",
      "service": "igdb"
    }
  ],
  "aliases": [],
  "shaders": [],
  "discord_id": "",
  "change_for": null
}