{
  "id": 14839,
  "name": "Date Treat",
  "slug": "date-treat",
  "year": 2016,
  "banner_url": "https://lutris.net/games/banner/date-treat.jpg",
  "icon_url": "https://lutris.net/games/icon/date-treat.png",
  "coverart": "https://lutris.net/media/igdb/cover_big/co2yy8.jpg",
  "platforms": [
    {
      "name": "Linux"
    },
    {
      "name": "Mac"
    },
    {
      "name": "Windows"
    }
  ],
  "provider_games": [
    {
      "name": "Date Treat",
      "slug": "date-treat",
      "service": "igdb"
    }
  ],
  "aliases": [],
  "shaders": [],
  "discord_id": "",
  "change_for": null
}