{
  "id": 5014,
  "name": "Mardek RPG: Chapter 3",
  "slug": "mardek-rpg-chapter-3",
  "year": 2015,
  "banner_url": "https://lutris.net/games/banner/mardek-rpg-chapter-3.jpg",
  "icon_url": "",
  "coverart": "https://lutris.net/media/igdb/cover_big/clujnpxn8tvfqehresxp.jpg",
  "platforms": [
    {
      "name": "Browser"
    }
  ],
  "provider_games": [
    {
      "name": "Mardek RPG: Chapter 3",
      "slug": "mardek-rpg-chapter-3",
      "service": "igdb"
    }
  ],
  "aliases": [],
  "shaders": [],
  "discord_id": "",
  "change_for": null
}