{
  "id": 253160,
  "name": "Shred the Undead",
  "slug": "shred-the-undead",
  "year": null,
  "banner_url": "",
  "icon_url": "",
  "coverart": "https://lutris.net/media/igdb/cover_big/co6tzq.jpg",
  "platforms": [],
  "provider_games": [
    {
      "name": "Shred the Undead",
      "slug": "shred-the-undead",
      "service": "igdb"
    }
  ],
  "aliases": [],
  "shaders": [],
  "discord_id": "",
  "change_for": null
}