{
  "id": 204740,
  "name": " Armies of Riddle CLASSIC",
  "slug": "armies-of-riddle-classic",
  "year": null,
  "banner_url": "https://lutris.net/games/banner/armies-of-riddle-classic.jpg",
  "icon_url": "https://lutris.net/games/icon/armies-of-riddle-classic.png",
  "coverart": null,
  "platforms": [],
  "provider_games": [
    {
      "name": " Armies of Riddle CLASSIC",
      "slug": "527040",
      "service": "steam"
    }
  ],
  "aliases": [],
  "shaders": [],
  "discord_id": "",
  "change_for": null
}