{
  "id": 62252,
  "name": "Team Innocent: The Point of No Return",
  "slug": "team-innocent-the-point-of-no-return",
  "year": null,
  "banner_url": "",
  "icon_url": "",
  "coverart": "https://lutris.net/media/igdb/cover_big/uobofxskvd8bmjqezbpw.jpg",
  "platforms": [],
  "provider_games": [
    {
      "name": "Team Innocent: The Point of No Return",
      "slug": "team-innocent-the-point-of-no-return",
      "service": "igdb"
    }
  ],
  "aliases": [],
  "shaders": [],
  "discord_id": "",
  "change_for": null
}