{
  "id": 54202,
  "name": "Battle Tycoon: Flash Hiders SFX",
  "slug": "battle-tycoon-flash-hiders-sfx",
  "year": 1995,
  "banner_url": "",
  "icon_url": "",
  "coverart": "https://lutris.net/media/igdb/cover_big/p3bpp6qt7mbtil0vdyzf.jpg",
  "platforms": [
    {
      "name": "Super Nintendo"
    }
  ],
  "provider_games": [
    {
      "name": "Battle Tycoon: Flash Hiders SFX",
      "slug": "battle-tycoon-flash-hiders-sfx",
      "service": "igdb"
    }
  ],
  "aliases": [],
  "shaders": [],
  "discord_id": "",
  "change_for": null
}