{
  "id": 77364,
  "name": "Imagine: Animal Doctor",
  "slug": "imagine-animal-doctor",
  "year": 2007,
  "banner_url": "",
  "icon_url": "",
  "coverart": "https://lutris.net/media/igdb/cover_big/co83r5.jpg",
  "platforms": [
    {
      "name": "Nintendo DS"
    }
  ],
  "provider_games": [
    {
      "name": "Imagine: Animal Doctor",
      "slug": "imagine-animal-doctor",
      "service": "igdb"
    }
  ],
  "aliases": [],
  "shaders": [],
  "discord_id": "",
  "change_for": null
}