{
  "id": 260709,
  "name": "Silk Road 2",
  "slug": "silk-road-2",
  "year": 1995,
  "banner_url": "",
  "icon_url": "",
  "coverart": null,
  "platforms": [
    {
      "name": "X68000"
    }
  ],
  "provider_games": [
    {
      "name": "Silk Road 2",
      "slug": "silk-road-2",
      "service": "igdb"
    }
  ],
  "aliases": [],
  "shaders": [],
  "discord_id": "",
  "change_for": null
}