{
  "id": 4325,
  "name": "Satellite Reign",
  "slug": "satellite-reign",
  "year": 2015,
  "banner_url": "https://lutris.net/games/banner/satellite-reign.jpg",
  "icon_url": "https://lutris.net/games/icon/satellite-reign.png",
  "coverart": "https://lutris.net/media/igdb/cover_big/co1u4t.jpg",
  "platforms": [
    {
      "name": "Linux"
    },
    {
      "name": "Mac"
    },
    {
      "name": "Windows"
    }
  ],
  "provider_games": [
    {
      "name": "Satellite Reign",
      "slug": "1428054996",
      "service": "gog"
    },
    {
      "name": "Satellite Reign",
      "slug": "satellitereign",
      "service": "humblebundle"
    },
    {
      "name": "Satellite Reign",
      "slug": "268870",
      "service": "steam"
    },
    {
      "name": "Satellite Reign",
      "slug": "satellite-reign",
      "service": "igdb"
    }
  ],
  "aliases": [],
  "shaders": [],
  "discord_id": "443198577687134218",
  "change_for": null
}