{
  "id": 270649,
  "name": "Changeable Guardian Estique",
  "slug": "changeable-guardian-estique",
  "year": 2024,
  "banner_url": "",
  "icon_url": "",
  "coverart": "https://lutris.net/media/igdb/cover_big/co7ngu.jpg",
  "platforms": [
    {
      "name": "Family Computer"
    },
    {
      "name": "NES"
    }
  ],
  "provider_games": [
    {
      "name": "Changeable Guardian Estique",
      "slug": "changeable-guardian-estique",
      "service": "igdb"
    }
  ],
  "aliases": [],
  "shaders": [],
  "discord_id": "",
  "change_for": null
}