{
  "id": 53040,
  "name": "International Cricket Captain 2006",
  "slug": "international-cricket-captain-2006",
  "year": null,
  "banner_url": "",
  "icon_url": "",
  "coverart": "https://lutris.net/media/igdb/cover_big/yzgxaxabhzyoq3ixa83a.jpg",
  "platforms": [],
  "provider_games": [
    {
      "name": "International Cricket Captain 2006",
      "slug": "international-cricket-captain-2006",
      "service": "igdb"
    }
  ],
  "aliases": [],
  "shaders": [],
  "discord_id": "",
  "change_for": null
}