{
  "id": 113035,
  "name": "Human Baseball",
  "slug": "human-baseball",
  "year": 1993,
  "banner_url": "",
  "icon_url": "",
  "coverart": "https://lutris.net/media/igdb/cover_big/co38s6.jpg",
  "platforms": [
    {
      "name": "Satellaview"
    },
    {
      "name": "Super Nintendo"
    }
  ],
  "provider_games": [
    {
      "name": "Human Baseball",
      "slug": "human-baseball",
      "service": "igdb"
    }
  ],
  "aliases": [],
  "shaders": [],
  "discord_id": "",
  "change_for": null
}