{
  "id": 11271,
  "name": "Miko Mole",
  "slug": "miko-mole",
  "year": 2015,
  "banner_url": "https://lutris.net/games/banner/miko-mole.jpg",
  "icon_url": "https://lutris.net/games/icon/miko-mole.png",
  "coverart": "https://lutris.net/media/igdb/cover_big/qmcxuuxosdojxwmeoyxo.jpg",
  "platforms": [
    {
      "name": "Nintendo Wii U"
    },
    {
      "name": "Sony Playstation 4"
    },
    {
      "name": "Windows"
    }
  ],
  "provider_games": [
    {
      "name": "Miko Mole",
      "slug": "473480",
      "service": "steam"
    },
    {
      "name": "Miko Mole",
      "slug": "miko-mole",
      "service": "igdb"
    }
  ],
  "aliases": [],
  "shaders": [],
  "discord_id": "",
  "change_for": null
}