{
  "id": 27905,
  "game_id": 9657,
  "game_slug": "into-the-unknown",
  "name": "Into The Unknown",
  "year": 2016,
  "user": "vanstaveren",
  "runner": "steam",
  "slug": "into-the-unknown-steam",
  "version": "Steam",
  "description": null,
  "notes": "",
  "credits": "",
  "created_at": "2021-05-17T20:21:07.725883Z",
  "updated_at": "2021-12-13T19:10:34.405490Z",
  "draft": false,
  "published": true,
  "published_by": null,
  "rating": "",
  "is_playable": null,
  "steamid": 553130,
  "gogid": null,
  "gogslug": "",
  "humbleid": "",
  "humblestoreid": "",
  "humblestoreid_real": "",
  "script": {
    "game": {
      "appid": 553130
    }
  },
  "content": "game:\n  appid: 553130\n",
  "discord_id": ""
}