{
  "id": 265111,
  "name": "Death & Tactics",
  "slug": "death-and-tactics",
  "year": null,
  "banner_url": "",
  "icon_url": "",
  "coverart": "https://lutris.net/media/igdb/cover_big/co7bc5.jpg",
  "platforms": [],
  "provider_games": [
    {
      "name": "Death & Tactics",
      "slug": "death-and-tactics",
      "service": "igdb"
    }
  ],
  "aliases": [],
  "shaders": [],
  "discord_id": "",
  "change_for": null
}