{
  "id": 63996,
  "name": "Rain Drops",
  "slug": "rain-drops",
  "year": null,
  "banner_url": "",
  "icon_url": "",
  "coverart": "https://lutris.net/media/igdb/cover_big/asxsmtynazh2oeibs9j6.jpg",
  "platforms": [],
  "provider_games": [
    {
      "name": "Rain Drops",
      "slug": "rain-drops",
      "service": "igdb"
    }
  ],
  "aliases": [],
  "shaders": [],
  "discord_id": "",
  "change_for": null
}