{
  "id": 7073,
  "name": "Age of Steel: Recharge",
  "slug": "age-of-steel-recharge",
  "year": 2016,
  "banner_url": "https://lutris.net/games/banner/age-of-steel-recharge.jpg",
  "icon_url": "https://lutris.net/games/icon/age-of-steel-recharge.png",
  "coverart": "https://lutris.net/media/igdb/cover_big/co2y2g.jpg",
  "platforms": [
    {
      "name": "Windows"
    }
  ],
  "provider_games": [
    {
      "name": "Age of Steel: Recharge",
      "slug": "421060",
      "service": "steam"
    },
    {
      "name": "Age of Steel: Recharge",
      "slug": "age-of-steel-recharge",
      "service": "igdb"
    }
  ],
  "aliases": [],
  "shaders": [],
  "discord_id": "",
  "change_for": null
}