{
  "id": 73630,
  "name": "Space Barnacle",
  "slug": "space-barnacle",
  "year": null,
  "banner_url": "",
  "icon_url": "",
  "coverart": "https://lutris.net/media/igdb/cover_big/co5qj7.jpg",
  "platforms": [],
  "provider_games": [
    {
      "name": "Space Barnacle",
      "slug": "space-barnacle",
      "service": "igdb"
    }
  ],
  "aliases": [],
  "shaders": [],
  "discord_id": "",
  "change_for": null
}