{
  "id": 25106,
  "name": "Farming Simulator 19",
  "slug": "farming-simulator-19",
  "year": 2018,
  "banner_url": "https://lutris.net/games/banner/farming-simulator-19.jpg",
  "icon_url": "https://lutris.net/games/icon/farming-simulator-19.png",
  "coverart": "https://lutris.net/media/igdb/cover_big/co20uu.jpg",
  "platforms": [
    {
      "name": "Windows"
    }
  ],
  "provider_games": [
    {
      "name": "Farming Simulator 19",
      "slug": "787860",
      "service": "steam"
    },
    {
      "name": "Farming Simulator 19",
      "slug": "farming-simulator-19",
      "service": "igdb"
    }
  ],
  "aliases": [],
  "shaders": [],
  "discord_id": "542474758835535872",
  "change_for": null
}