{
  "id": 294817,
  "name": "Stargate SG-1: Unleashed - Episode 1",
  "slug": "stargate-sg-1-unleashed-episode-1",
  "year": 2013,
  "banner_url": "",
  "icon_url": "",
  "coverart": null,
  "platforms": [
    {
      "name": "Android"
    }
  ],
  "provider_games": [
    {
      "name": "Stargate SG-1: Unleashed - Episode 1",
      "slug": "stargate-sg-1-unleashed-episode-1",
      "service": "igdb"
    }
  ],
  "aliases": [],
  "shaders": [],
  "discord_id": "",
  "change_for": null
}