{
  "id": 13854,
  "name": "Pro Gamer Manager 2",
  "slug": "pro-gamer-manager-2",
  "year": 2018,
  "banner_url": "https://lutris.net/games/banner/pro-gamer-manager-2.jpg",
  "icon_url": "https://lutris.net/games/icon/pro-gamer-manager-2.png",
  "coverart": "https://lutris.net/media/igdb/cover_big/lbknx1yqdihmnzr2yaje.jpg",
  "platforms": [
    {
      "name": "Linux"
    },
    {
      "name": "Mac"
    },
    {
      "name": "Windows"
    }
  ],
  "provider_games": [
    {
      "name": "Pro Gamer Manager 2",
      "slug": "656530",
      "service": "steam"
    },
    {
      "name": "Pro Gamer Manager 2",
      "slug": "pro-gamer-manager-2",
      "service": "igdb"
    }
  ],
  "aliases": [],
  "shaders": [],
  "discord_id": "",
  "change_for": null
}