{
  "id": 32757,
  "name": "Raging Justice",
  "slug": "raging-justice",
  "year": 2018,
  "banner_url": "https://lutris.net/games/banner/raging-justice.jpg",
  "icon_url": "https://lutris.net/games/icon/raging-justice.png",
  "coverart": "https://lutris.net/media/igdb/cover_big/co27ez.jpg",
  "platforms": [
    {
      "name": "Mac"
    },
    {
      "name": "Nintendo Switch"
    },
    {
      "name": "Sony Playstation 4"
    },
    {
      "name": "Windows"
    },
    {
      "name": "Xbox One"
    }
  ],
  "provider_games": [
    {
      "name": "Raging Justice",
      "slug": "384200",
      "service": "steam"
    },
    {
      "name": "Raging Justice",
      "slug": "raging-justice",
      "service": "igdb"
    }
  ],
  "aliases": [],
  "shaders": [],
  "discord_id": "",
  "change_for": null
}