{
  "id": 239932,
  "name": "Swing Home Run",
  "slug": "swing-home-run",
  "year": null,
  "banner_url": "",
  "icon_url": "",
  "coverart": null,
  "platforms": [],
  "provider_games": [
    {
      "name": "Swing Home Run",
      "slug": "swing-home-run",
      "service": "igdb"
    }
  ],
  "aliases": [],
  "shaders": [],
  "discord_id": "",
  "change_for": null
}