{
  "id": 18901,
  "name": "Mover",
  "slug": "mover",
  "year": 2017,
  "banner_url": "https://lutris.net/games/banner/mover.jpg",
  "icon_url": "https://lutris.net/games/icon/mover.png",
  "coverart": null,
  "platforms": [
    {
      "name": "Windows"
    }
  ],
  "provider_games": [
    {
      "name": "Mover",
      "slug": "733250",
      "service": "steam"
    },
    {
      "name": "Mover",
      "slug": "mover",
      "service": "igdb"
    }
  ],
  "aliases": [],
  "shaders": [],
  "discord_id": "",
  "change_for": null
}