{
  "id": 179465,
  "name": "Dungeon Trader",
  "slug": "dungeon-trader",
  "year": null,
  "banner_url": "",
  "icon_url": "",
  "coverart": null,
  "platforms": [],
  "provider_games": [
    {
      "name": "Dungeon Trader",
      "slug": "dungeon-trader",
      "service": "igdb"
    }
  ],
  "aliases": [],
  "shaders": [],
  "discord_id": "",
  "change_for": null
}