{
  "id": 172943,
  "name": "Astral Ascent",
  "slug": "astral-ascent",
  "year": null,
  "banner_url": "https://lutris.net/games/banner/astral-ascent.jpg",
  "icon_url": "",
  "coverart": "https://lutris.net/media/igdb/cover_big/co2wvs.jpg",
  "platforms": [
    {
      "name": "Windows"
    }
  ],
  "provider_games": [
    {
      "name": "Astral Ascent",
      "slug": "1280930",
      "service": "steam"
    },
    {
      "name": "Astral Ascent",
      "slug": "astral-ascent",
      "service": "igdb"
    },
    {
      "name": "Astral Ascent",
      "slug": "1258111216",
      "service": "gog"
    }
  ],
  "aliases": [],
  "shaders": [],
  "discord_id": "",
  "change_for": null
}