{
  "id": 106738,
  "name": "Pyramid Solitaire Mummy Curse",
  "slug": "pyramid-solitaire-mummy-curse",
  "year": null,
  "banner_url": "",
  "icon_url": "",
  "coverart": "https://lutris.net/media/igdb/cover_big/obvkdivzuxerk4kwpmdz.jpg",
  "platforms": [],
  "provider_games": [
    {
      "name": "Pyramid Solitaire Mummy Curse",
      "slug": "pyramid-solitaire-mummy-curse",
      "service": "igdb"
    }
  ],
  "aliases": [],
  "shaders": [],
  "discord_id": "",
  "change_for": null
}