{
  "id": 102353,
  "name": "Zenses: Ocean",
  "slug": "zenses-ocean",
  "year": 2008,
  "banner_url": "",
  "icon_url": "",
  "coverart": "https://lutris.net/media/igdb/cover_big/x5lkixnqflju4f1g2ncd.jpg",
  "platforms": [
    {
      "name": "Nintendo DS"
    }
  ],
  "provider_games": [
    {
      "name": "Zenses: Ocean",
      "slug": "zenses-ocean",
      "service": "igdb"
    }
  ],
  "aliases": [],
  "shaders": [],
  "discord_id": "",
  "change_for": null
}