{
  "id": 175939,
  "name": "Love of Renai Koutei of Love!",
  "slug": "love-of-renai-koutei-of-love",
  "year": 2013,
  "banner_url": "",
  "icon_url": "",
  "coverart": "https://lutris.net/media/igdb/cover_big/co3wh8.jpg",
  "platforms": [
    {
      "name": "PlayStation Vita"
    },
    {
      "name": "Windows"
    }
  ],
  "provider_games": [
    {
      "name": "Love of Renai Koutei of Love!",
      "slug": "love-of-renai-koutei-of-love",
      "service": "igdb"
    }
  ],
  "aliases": [],
  "shaders": [],
  "discord_id": "",
  "change_for": null
}