{
  "id": 33948,
  "name": "Dream Ball",
  "slug": "dream-ball",
  "year": 1993,
  "banner_url": "",
  "icon_url": "https://lutris.net/games/icon/dream-ball.png",
  "coverart": null,
  "platforms": [
    {
      "name": "Arcade"
    }
  ],
  "provider_games": [
    {
      "name": "Dream Ball",
      "slug": "dreambal",
      "service": "mame"
    }
  ],
  "aliases": [],
  "shaders": [],
  "discord_id": "",
  "change_for": null
}