{
  "id": 118999,
  "name": "One Of The Last",
  "slug": "one-of-the-last",
  "year": 2016,
  "banner_url": "https://lutris.net/games/banner/one-of-the-last.jpg",
  "icon_url": "",
  "coverart": "https://lutris.net/media/igdb/cover_big/i3ajej0lxdcth2dnq6fl.jpg",
  "platforms": [
    {
      "name": "Windows"
    }
  ],
  "provider_games": [
    {
      "name": "One Of The Last",
      "slug": "550360",
      "service": "steam"
    },
    {
      "name": "One of the Last",
      "slug": "one-of-the-last",
      "service": "igdb"
    }
  ],
  "aliases": [],
  "shaders": [],
  "discord_id": "",
  "change_for": null
}