{
  "id": 53058,
  "name": "Cowboy vs UFOs",
  "slug": "cowboy-vs-ufos",
  "year": null,
  "banner_url": "",
  "icon_url": "",
  "coverart": "https://lutris.net/media/igdb/cover_big/gw6vbydmgp289uyzyt4p.jpg",
  "platforms": [],
  "provider_games": [
    {
      "name": "Cowboy vs. UFOs",
      "slug": "cowboy-vs-ufos",
      "service": "igdb"
    }
  ],
  "aliases": [],
  "shaders": [],
  "discord_id": "",
  "change_for": null
}