{
  "id": 269385,
  "name": "镇邪 Zhenxie",
  "slug": "zhenxie",
  "year": null,
  "banner_url": "https://lutris.net/games/banner/zhenxie.jpg",
  "icon_url": "https://lutris.net/games/icon/zhenxie.png",
  "coverart": null,
  "platforms": [],
  "provider_games": [
    {
      "name": "镇邪 Zhenxie",
      "slug": "1939560",
      "service": "steam"
    }
  ],
  "aliases": [],
  "shaders": [],
  "discord_id": "",
  "change_for": null
}