{
  "id": 45628,
  "name": "Call of Combat",
  "slug": "call-of-combat",
  "year": null,
  "banner_url": "",
  "icon_url": "",
  "coverart": null,
  "platforms": [],
  "provider_games": [
    {
      "name": "Call of Combat",
      "slug": "call-of-combat",
      "service": "igdb"
    }
  ],
  "aliases": [],
  "shaders": [],
  "discord_id": "",
  "change_for": null
}