{
  "id": 15266,
  "name": "ARKADIANAX",
  "slug": "arkadianax",
  "year": 2013,
  "banner_url": "https://lutris.net/games/banner/arkadianax.jpg",
  "icon_url": "",
  "coverart": "https://lutris.net/media/igdb/cover_big/wif7r3hjfhn558guixgm.jpg",
  "platforms": [
    {
      "name": "Windows"
    }
  ],
  "provider_games": [
    {
      "name": "Arkadianax",
      "slug": "arkadianax",
      "service": "igdb"
    }
  ],
  "aliases": [],
  "shaders": [],
  "discord_id": "",
  "change_for": null
}