{
  "id": 45168,
  "name": "Bomb Disposer",
  "slug": "bomb-disposer",
  "year": null,
  "banner_url": "",
  "icon_url": "",
  "coverart": null,
  "platforms": [],
  "provider_games": [
    {
      "name": "Bomb Disposer",
      "slug": "bomb-disposer",
      "service": "igdb"
    }
  ],
  "aliases": [],
  "shaders": [],
  "discord_id": "",
  "change_for": null
}