{
  "id": 273052,
  "name": "Desolar",
  "slug": "desolar",
  "year": null,
  "banner_url": "",
  "icon_url": "",
  "coverart": "https://lutris.net/media/igdb/cover_big/co7qvp.jpg",
  "platforms": [],
  "provider_games": [
    {
      "name": "Desolar",
      "slug": "desolar",
      "service": "igdb"
    }
  ],
  "aliases": [],
  "shaders": [],
  "discord_id": "",
  "change_for": null
}