{
  "id": 20715,
  "game_id": 33159,
  "game_slug": "helltaker",
  "name": "Helltaker",
  "year": 2020,
  "user": "jazzyArsonist",
  "runner": "steam",
  "slug": "helltaker-steam",
  "version": "Steam",
  "description": null,
  "notes": "",
  "credits": "",
  "created_at": "2020-05-22T22:09:54.895000Z",
  "updated_at": "2020-05-23T09:20:54.941375Z",
  "draft": false,
  "published": true,
  "published_by": 20548,
  "rating": "",
  "is_playable": null,
  "steamid": 1289310,
  "gogid": null,
  "gogslug": "",
  "humbleid": "",
  "humblestoreid": "",
  "humblestoreid_real": "",
  "script": {
    "game": {
      "appid": 1289310
    }
  },
  "content": "game:\n  appid: 1289310\n",
  "discord_id": ""
}