{
  "id": 264468,
  "name": "Spread Out! Hold Naar' Havok",
  "slug": "spread-out-hold-naar-havok",
  "year": null,
  "banner_url": "",
  "icon_url": "",
  "coverart": "https://lutris.net/media/igdb/cover_big/co7a40.jpg",
  "platforms": [],
  "provider_games": [
    {
      "name": "Spread Out! Hold Naar' Havok",
      "slug": "spread-out-hold-naar-havok",
      "service": "igdb"
    }
  ],
  "aliases": [],
  "shaders": [],
  "discord_id": "",
  "change_for": null
}