{
  "id": 240345,
  "name": "8 Bit Fighters",
  "slug": "8-bit-fighters",
  "year": null,
  "banner_url": "",
  "icon_url": "",
  "coverart": "https://lutris.net/media/igdb/cover_big/co6rbm.jpg",
  "platforms": [],
  "provider_games": [
    {
      "name": "8 Bit Fighters",
      "slug": "8-bit-fighters",
      "service": "igdb"
    }
  ],
  "aliases": [],
  "shaders": [],
  "discord_id": "",
  "change_for": null
}