{
  "id": 34746,
  "name": "Lot Lot",
  "slug": "lot-lot",
  "year": 1985,
  "banner_url": "",
  "icon_url": "https://lutris.net/games/icon/lot-lot.png",
  "coverart": "https://lutris.net/media/igdb/cover_big/fqhntz523lxxcil36xwo.jpg",
  "platforms": [
    {
      "name": "Arcade"
    }
  ],
  "provider_games": [
    {
      "name": "Lot Lot",
      "slug": "lotlot",
      "service": "mame"
    },
    {
      "name": "Lot Lot",
      "slug": "lot-lot",
      "service": "igdb"
    }
  ],
  "aliases": [],
  "shaders": [],
  "discord_id": "",
  "change_for": null
}