{
  "id": 89940,
  "name": "Stone Age: The Board Game",
  "slug": "stone-age-the-board-game",
  "year": null,
  "banner_url": "",
  "icon_url": "",
  "coverart": null,
  "platforms": [],
  "provider_games": [
    {
      "name": "Stone Age: The Board Game",
      "slug": "stone-age-the-board-game",
      "service": "igdb"
    }
  ],
  "aliases": [],
  "shaders": [],
  "discord_id": "",
  "change_for": null
}