{
  "id": 133690,
  "name": "Android Helipad",
  "slug": "android-helipad",
  "year": null,
  "banner_url": "",
  "icon_url": "",
  "coverart": "https://lutris.net/media/igdb/cover_big/co3lhq.jpg",
  "platforms": [],
  "provider_games": [
    {
      "name": "Android Helipad",
      "slug": "android-helipad",
      "service": "igdb"
    }
  ],
  "aliases": [],
  "shaders": [],
  "discord_id": "",
  "change_for": null
}