{
  "id": 261556,
  "name": "Tales From The Unending Void: Season 1",
  "slug": "tales-from-the-unending-void-season-1",
  "year": 2022,
  "banner_url": "",
  "icon_url": "",
  "coverart": null,
  "platforms": [],
  "provider_games": [
    {
      "name": "Tales From The Unending Void: Season 1",
      "slug": "1400088970",
      "service": "gog"
    }
  ],
  "aliases": [],
  "shaders": [],
  "discord_id": "",
  "change_for": null
}