{
  "id": 159647,
  "name": "Final Fantasy II: Pixel Remaster",
  "slug": "final-fantasy-ii-pixel-remaster",
  "year": 2021,
  "banner_url": "https://lutris.net/games/banner/final-fantasy-ii-pixel-remaster.jpg",
  "icon_url": "",
  "coverart": "https://lutris.net/media/igdb/cover_big/co3gbs.jpg",
  "platforms": [
    {
      "name": "Android"
    },
    {
      "name": "Windows"
    }
  ],
  "provider_games": [
    {
      "name": "Final Fantasy II: Pixel Remaster",
      "slug": "final-fantasy-ii-pixel-remaster",
      "service": "igdb"
    }
  ],
  "aliases": [],
  "shaders": [],
  "discord_id": "",
  "change_for": null
}