{
  "id": 71564,
  "name": "EZ-Talk Shokyuuhen 1-6 Kan Set",
  "slug": "ez-talk-shokyuuhen-1-6-kan-set",
  "year": null,
  "banner_url": "",
  "icon_url": "",
  "coverart": null,
  "platforms": [],
  "provider_games": [
    {
      "name": "EZ-Talk Shokyuuhen 1-6 Kan Set",
      "slug": "ez-talk-shokyuuhen-1-6-kan-set",
      "service": "igdb"
    }
  ],
  "aliases": [],
  "shaders": [],
  "discord_id": "",
  "change_for": null
}