{
  "id": 150012,
  "name": "Other Submarine",
  "slug": "other-submarine",
  "year": null,
  "banner_url": "",
  "icon_url": "",
  "coverart": "https://lutris.net/media/igdb/cover_big/co3qp2.jpg",
  "platforms": [],
  "provider_games": [
    {
      "name": "Other Submarine",
      "slug": "other-submarine",
      "service": "igdb"
    }
  ],
  "aliases": [],
  "shaders": [],
  "discord_id": "",
  "change_for": null
}