{
  "id": 104041,
  "name": "Spectrobes: Beyond the Portals",
  "slug": "spectrobes-beyond-the-portals",
  "year": 2008,
  "banner_url": "",
  "icon_url": "",
  "coverart": "https://lutris.net/media/igdb/cover_big/co28s4.jpg",
  "platforms": [
    {
      "name": "Nintendo DS"
    }
  ],
  "provider_games": [
    {
      "name": "Spectrobes: Beyond the Portals",
      "slug": "spectrobes-beyond-the-portals",
      "service": "igdb"
    }
  ],
  "aliases": [],
  "shaders": [],
  "discord_id": "",
  "change_for": null
}