{
  "id": 141914,
  "name": "Spinning Kid 2",
  "slug": "spinning-kid-2",
  "year": null,
  "banner_url": "",
  "icon_url": "",
  "coverart": "https://lutris.net/media/igdb/cover_big/co3tcw.jpg",
  "platforms": [],
  "provider_games": [
    {
      "name": "Spinning Kid 2",
      "slug": "spinning-kid-2",
      "service": "igdb"
    }
  ],
  "aliases": [],
  "shaders": [],
  "discord_id": "",
  "change_for": null
}