{
  "id": 194880,
  "name": "Disco Road",
  "slug": "disco-road",
  "year": 2018,
  "banner_url": "",
  "icon_url": "",
  "coverart": null,
  "platforms": [],
  "provider_games": [
    {
      "name": "Disco Road",
      "slug": "disco-road",
      "service": "igdb"
    }
  ],
  "aliases": [],
  "shaders": [],
  "discord_id": "",
  "change_for": null
}