{
  "id": 145811,
  "name": "Ghost of a Tale: Collector's Edition",
  "slug": "ghost-of-a-tale-collectors-edition",
  "year": null,
  "banner_url": "",
  "icon_url": "",
  "coverart": null,
  "platforms": [],
  "provider_games": [
    {
      "name": "Ghost of a Tale: Collector's Edition",
      "slug": "ghost-of-a-tale-collectors-edition",
      "service": "igdb"
    }
  ],
  "aliases": [],
  "shaders": [],
  "discord_id": "",
  "change_for": null
}