{
  "id": 137378,
  "name": "OnlyGame: Gamer Girls",
  "slug": "onlygame-gamer-girls",
  "year": null,
  "banner_url": "",
  "icon_url": "",
  "coverart": "https://lutris.net/media/igdb/cover_big/co3qma.jpg",
  "platforms": [],
  "provider_games": [
    {
      "name": "OnlyGame: Gamer Girls",
      "slug": "onlygame-gamer-girls",
      "service": "igdb"
    }
  ],
  "aliases": [],
  "shaders": [],
  "discord_id": "",
  "change_for": null
}