{
  "id": 52233,
  "name": "Singstar: '80s",
  "slug": "singstar-80s",
  "year": 2005,
  "banner_url": "https://lutris.net/games/banner/singstar-80s.jpg",
  "icon_url": "",
  "coverart": "https://lutris.net/media/igdb/cover_big/co1p0i.jpg",
  "platforms": [
    {
      "name": "Sony PlayStation 2"
    }
  ],
  "provider_games": [
    {
      "name": "Singstar: '80s",
      "slug": "singstar-80s",
      "service": "igdb"
    }
  ],
  "aliases": [],
  "shaders": [],
  "discord_id": "",
  "change_for": null
}