{
  "id": 13900,
  "game_id": 15973,
  "game_slug": "con-amore",
  "name": "Con Amore",
  "year": 2015,
  "user": "kimchitea",
  "runner": "steam",
  "slug": "con-amore-steam-demo",
  "version": "Steam Demo",
  "description": null,
  "notes": "",
  "credits": "",
  "created_at": "2019-06-03T04:19:14.352470Z",
  "updated_at": "2019-06-13T06:23:38.970667Z",
  "draft": false,
  "published": true,
  "published_by": null,
  "rating": "",
  "is_playable": null,
  "steamid": 486230,
  "gogid": null,
  "gogslug": "",
  "humbleid": "",
  "humblestoreid": "",
  "humblestoreid_real": "",
  "script": {
    "game": {
      "appid": 498010
    }
  },
  "content": "game:\n  appid: 498010\n",
  "discord_id": ""
}