{
  "id": 34305,
  "name": "Golden Tee 3D Golf",
  "slug": "golden-tee-3d-golf",
  "year": 1995,
  "banner_url": "https://lutris.net/games/banner/golden-tee-3d-golf.jpg",
  "icon_url": "https://lutris.net/games/icon/golden-tee-3d-golf.png",
  "coverart": null,
  "platforms": [
    {
      "name": "Arcade"
    }
  ],
  "provider_games": [
    {
      "name": "Golden Tee 3D Golf",
      "slug": "gt3d",
      "service": "mame"
    }
  ],
  "aliases": [],
  "shaders": [],
  "discord_id": "",
  "change_for": null
}