{
  "id": 187818,
  "name": "Super Bash Goats",
  "slug": "super-bash-goats",
  "year": null,
  "banner_url": "",
  "icon_url": "",
  "coverart": null,
  "platforms": [],
  "provider_games": [
    {
      "name": "Super Bash Goats",
      "slug": "super-bash-goats",
      "service": "igdb"
    }
  ],
  "aliases": [],
  "shaders": [],
  "discord_id": "",
  "change_for": null
}