{
  "id": 5957,
  "game_id": 14267,
  "game_slug": "chook-sosig-hit-the-club",
  "name": "Chook & Sosig: Hit the Club",
  "year": 2017,
  "user": "FakeShemp",
  "runner": "linux",
  "slug": "chook-sosig-hit-the-club-itchio",
  "version": "itch.io",
  "description": "",
  "notes": "",
  "credits": "",
  "created_at": "2017-10-15T14:32:32.240228Z",
  "updated_at": "2024-04-03T05:34:37.825225Z",
  "draft": false,
  "published": true,
  "published_by": null,
  "rating": "",
  "is_playable": null,
  "steamid": null,
  "gogid": null,
  "gogslug": "",
  "humbleid": "",
  "humblestoreid": "",
  "humblestoreid_real": "",
  "script": {
    "files": [
      {
        "file1": "N/A:Please select the itch.io archive"
      }
    ],
    "game": {
      "exe": "start"
    },
    "installer": [
      {
        "extract": {
          "file": "$file1"
        }
      },
      {
        "chmodx": "$GAMEDIR/start"
      },
      {
        "chmodx": "$GAMEDIR/visplayer"
      }
    ]
  },
  "content": "files:\n- file1: N/A:Please select the itch.io archive\ngame:\n  exe: start\ninstaller:\n- extract:\n    file: $file1\n- chmodx: $GAMEDIR/start\n- chmodx: $GAMEDIR/visplayer\n",
  "discord_id": ""
}