{
  "id": 38770,
  "game_id": 294755,
  "game_slug": "floor-9-prologue",
  "name": "Floor 9: Prologue",
  "year": 2024,
  "user": "vanstaveren",
  "runner": "steam",
  "slug": "floor-9-prologue-steam",
  "version": "steam",
  "description": "",
  "notes": "",
  "credits": "",
  "created_at": "2024-09-08T23:47:42.699300Z",
  "updated_at": "2024-09-08T23:47:42.699319Z",
  "draft": false,
  "published": true,
  "published_by": null,
  "rating": "",
  "is_playable": null,
  "steamid": null,
  "gogid": null,
  "gogslug": "",
  "humbleid": "",
  "humblestoreid": "",
  "humblestoreid_real": "",
  "script": {
    "game": {
      "appid": 3110330
    }
  },
  "content": "game:\n  appid: 3110330\n",
  "discord_id": ""
}