{
  "id": 213287,
  "name": "Windstorm: An Unexpected Arrival",
  "slug": "windstorm-an-unexpected-arrival",
  "year": 2023,
  "banner_url": "https://lutris.net/games/banner/windstorm-an-unexpected-arrival.jpg",
  "icon_url": "",
  "coverart": "https://lutris.net/media/igdb/cover_big/co5zc9.jpg",
  "platforms": [
    {
      "name": "Nintendo Switch"
    },
    {
      "name": "Sony Playstation 4"
    }
  ],
  "provider_games": [
    {
      "name": "Windstorm: An Unexpected Arrival",
      "slug": "899200",
      "service": "steam"
    },
    {
      "name": "Windstorm: An Unexpected Arrival",
      "slug": "windstorm-an-unexpected-arrival",
      "service": "igdb"
    }
  ],
  "aliases": [],
  "shaders": [],
  "discord_id": "",
  "change_for": null
}