{
  "id": 201422,
  "name": "Piofiore: Episodio 1926",
  "slug": "piofiore-episodio-1926",
  "year": 2020,
  "banner_url": "",
  "icon_url": "",
  "coverart": null,
  "platforms": [
    {
      "name": "Nintendo Switch"
    }
  ],
  "provider_games": [
    {
      "name": "Piofiore: Episodio 1926",
      "slug": "piofiore-episodio-1926",
      "service": "igdb"
    }
  ],
  "aliases": [],
  "shaders": [],
  "discord_id": "",
  "change_for": null
}