{
  "id": 56742,
  "name": "Guardian Kingdoms",
  "slug": "guardian-kingdoms",
  "year": null,
  "banner_url": "",
  "icon_url": "",
  "coverart": "https://lutris.net/media/igdb/cover_big/dtmzsaeikoiwwprxz6ch.jpg",
  "platforms": [],
  "provider_games": [
    {
      "name": "Guardian Kingdoms",
      "slug": "guardian-kingdoms",
      "service": "igdb"
    }
  ],
  "aliases": [],
  "shaders": [],
  "discord_id": "",
  "change_for": null
}