{
  "id": 185274,
  "name": "Last Minute Love",
  "slug": "last-minute-love",
  "year": null,
  "banner_url": "",
  "icon_url": "",
  "coverart": "https://lutris.net/media/igdb/cover_big/co6aor.jpg",
  "platforms": [],
  "provider_games": [
    {
      "name": "Last Minute Love",
      "slug": "last-minute-love",
      "service": "igdb"
    }
  ],
  "aliases": [],
  "shaders": [],
  "discord_id": "",
  "change_for": null
}