{
  "id": 217824,
  "name": "Spam Text",
  "slug": "spam-text",
  "year": null,
  "banner_url": "",
  "icon_url": "",
  "coverart": "https://lutris.net/media/igdb/cover_big/co53yr.jpg",
  "platforms": [],
  "provider_games": [
    {
      "name": "Spam Text",
      "slug": "spam-text",
      "service": "igdb"
    }
  ],
  "aliases": [],
  "shaders": [],
  "discord_id": "",
  "change_for": null
}