{
  "id": 688,
  "game_id": 2329,
  "game_slug": "robot-roller-derby-disco-dodgeball",
  "name": "Robot Roller-Derby Disco Dodgeball",
  "year": 2015,
  "user": "Xodetaetl",
  "runner": "steam",
  "slug": "robot-roller-derby-disco-dodge-steam",
  "version": "steam",
  "description": "",
  "notes": "",
  "credits": "",
  "created_at": "2014-09-15T13:00:42.145000Z",
  "updated_at": "2014-09-15T13:26:54.800000Z",
  "draft": false,
  "published": true,
  "published_by": null,
  "rating": "",
  "is_playable": null,
  "steamid": 270450,
  "gogid": null,
  "gogslug": "",
  "humbleid": "",
  "humblestoreid": "",
  "humblestoreid_real": "",
  "script": {
    "game": {
      "appid": 270450
    }
  },
  "content": "game:\n  appid: 270450\n",
  "discord_id": "460909130140614656"
}