{
  "id": 151282,
  "name": "Cat's Life Jigsaw Puzzles",
  "slug": "cats-life-jigsaw-puzzles",
  "year": null,
  "banner_url": "",
  "icon_url": "",
  "coverart": "https://lutris.net/media/igdb/cover_big/co3myg.jpg",
  "platforms": [],
  "provider_games": [
    {
      "name": "Cat's Life Jigsaw Puzzles",
      "slug": "cats-life-jigsaw-puzzles",
      "service": "igdb"
    }
  ],
  "aliases": [],
  "shaders": [],
  "discord_id": "",
  "change_for": null
}