{
  "id": 222271,
  "name": "Anvillage",
  "slug": "anvillage",
  "year": null,
  "banner_url": "",
  "icon_url": "",
  "coverart": "https://lutris.net/media/igdb/cover_big/co57yq.jpg",
  "platforms": [],
  "provider_games": [
    {
      "name": "Anvillage",
      "slug": "anvillage",
      "service": "igdb"
    }
  ],
  "aliases": [],
  "shaders": [],
  "discord_id": "",
  "change_for": null
}