{
  "id": 22510,
  "name": "Kingdom Watcher",
  "slug": "kingdom-watcher",
  "year": null,
  "banner_url": "https://lutris.net/games/banner/kingdom-watcher.jpg",
  "icon_url": "https://lutris.net/games/icon/kingdom-watcher.png",
  "coverart": null,
  "platforms": [],
  "provider_games": [
    {
      "name": "Kingdom Watcher",
      "slug": "680970",
      "service": "steam"
    },
    {
      "name": "Kingdom Watcher",
      "slug": "kingdom-watcher",
      "service": "igdb"
    }
  ],
  "aliases": [],
  "shaders": [],
  "discord_id": "",
  "change_for": null
}