{
  "id": 27265,
  "name": "If My Heart Had Wings -Flight Diary-",
  "slug": "if-my-heart-had-wings-flight-diary-",
  "year": null,
  "banner_url": "https://lutris.net/games/banner/if-my-heart-had-wings-flight-diary-.jpg",
  "icon_url": "https://lutris.net/games/icon/if-my-heart-had-wings-flight-diary-.png",
  "coverart": null,
  "platforms": [],
  "provider_games": [
    {
      "name": "If My Heart Had Wings -Flight Diary-",
      "slug": "923810",
      "service": "steam"
    }
  ],
  "aliases": [],
  "shaders": [],
  "discord_id": "",
  "change_for": null
}