{
  "id": 113007,
  "name": "Tetris",
  "slug": "tetris--3",
  "year": 2010,
  "banner_url": "",
  "icon_url": "",
  "coverart": "https://lutris.net/media/igdb/cover_big/co25k4.jpg",
  "platforms": [
    {
      "name": "Sony Playstation 3"
    }
  ],
  "provider_games": [
    {
      "name": "Tetris",
      "slug": "tetris--3",
      "service": "igdb"
    }
  ],
  "aliases": [],
  "shaders": [],
  "discord_id": "",
  "change_for": null
}