{
  "id": 4520,
  "game_id": 346,
  "game_slug": "hector-ep-1",
  "name": "Hector: Badge of Carnage – Episode 1: We Negotiate with Terrorists",
  "year": 2010,
  "user": "FakeShemp",
  "runner": "wine",
  "slug": "hector-badge-of-carnage-episo-humble-1",
  "version": "Humble",
  "description": "",
  "notes": "",
  "credits": "",
  "created_at": "2017-06-20T20:08:38.419000Z",
  "updated_at": "2018-05-19T03:41:50.393809Z",
  "draft": false,
  "published": true,
  "published_by": null,
  "rating": "",
  "is_playable": null,
  "steamid": 94600,
  "gogid": 1441711248,
  "gogslug": "hector_badge_of_carnage",
  "humbleid": "",
  "humblestoreid": "",
  "humblestoreid_real": "",
  "script": {
    "files": [
      {
        "file1": "N/A:Please select the Humble archive"
      }
    ],
    "game": {
      "arch": "win32",
      "exe": "drive_c/Program Files/Telltale Games/Hector - Badge of Carnage/Hector Episode 1/Hector101.exe",
      "prefix": "$GAMEDIR"
    },
    "installer": [
      {
        "extract": {
          "dst": "$CACHE",
          "file": "$file1"
        }
      },
      {
        "task": {
          "executable": "$CACHE/Hector101_full_nodrm.exe",
          "name": "wineexec",
          "prefix": "$GAMEDIR"
        }
      }
    ]
  },
  "content": "files:\n- file1: N/A:Please select the Humble archive\ngame:\n  arch: win32\n  exe: drive_c/Program Files/Telltale Games/Hector - Badge of Carnage/Hector Episode\n    1/Hector101.exe\n  prefix: $GAMEDIR\ninstaller:\n- extract:\n    dst: $CACHE\n    file: $file1\n- task:\n    executable: $CACHE/Hector101_full_nodrm.exe\n    name: wineexec\n    prefix: $GAMEDIR\n",
  "discord_id": ""
}