{
  "id": 198784,
  "name": "RPG Tsukuuru Advance",
  "slug": "rpg-tsukuuru-advance",
  "year": 2003,
  "banner_url": "",
  "icon_url": "",
  "coverart": null,
  "platforms": [
    {
      "name": "Nintendo 3DS"
    },
    {
      "name": "Nintendo Game Boy Advance"
    }
  ],
  "provider_games": [
    {
      "name": "RPG Tsukuuru Advance",
      "slug": "rpg-tsukuuru-advance",
      "service": "igdb"
    }
  ],
  "aliases": [],
  "shaders": [],
  "discord_id": "",
  "change_for": null
}