{
  "id": 13121,
  "name": "GORB",
  "slug": "gorb",
  "year": 2017,
  "banner_url": "https://lutris.net/games/banner/gorb.jpg",
  "icon_url": "https://lutris.net/games/icon/gorb.png",
  "coverart": "https://lutris.net/media/igdb/cover_big/co2bif.jpg",
  "platforms": [
    {
      "name": "Linux"
    },
    {
      "name": "Mac"
    },
    {
      "name": "Windows"
    }
  ],
  "provider_games": [
    {
      "name": "GORB",
      "slug": "612310",
      "service": "steam"
    },
    {
      "name": "Gorb",
      "slug": "gorb",
      "service": "igdb"
    }
  ],
  "aliases": [],
  "shaders": [],
  "discord_id": "",
  "change_for": null
}