{
  "id": 27553,
  "name": "Love Room VR",
  "slug": "love-room-vr",
  "year": null,
  "banner_url": "https://lutris.net/games/banner/love-room-vr.jpg",
  "icon_url": "https://lutris.net/games/icon/love-room-vr.png",
  "coverart": "https://lutris.net/media/igdb/cover_big/co8smc.jpg",
  "platforms": [],
  "provider_games": [
    {
      "name": "Love Room VR",
      "slug": "975760",
      "service": "steam"
    },
    {
      "name": "Love Room VR",
      "slug": "love-room-vr",
      "service": "igdb"
    }
  ],
  "aliases": [],
  "shaders": [],
  "discord_id": "",
  "change_for": null
}