{
  "id": 165492,
  "name": "Hero or Villain: Genesis",
  "slug": "hero-or-villain-genesis",
  "year": null,
  "banner_url": "",
  "icon_url": "",
  "coverart": "https://lutris.net/media/igdb/cover_big/co42df.jpg",
  "platforms": [],
  "provider_games": [
    {
      "name": "Hero or Villain: Genesis",
      "slug": "hero-or-villain-genesis",
      "service": "igdb"
    }
  ],
  "aliases": [],
  "shaders": [],
  "discord_id": "",
  "change_for": null
}