{
  "id": 243702,
  "name": "Two of Swords",
  "slug": "two-of-swords",
  "year": 2017,
  "banner_url": "",
  "icon_url": "",
  "coverart": null,
  "platforms": [
    {
      "name": "Mac"
    },
    {
      "name": "Windows"
    }
  ],
  "provider_games": [
    {
      "name": "Two of Swords",
      "slug": "two-of-swords",
      "service": "igdb"
    }
  ],
  "aliases": [],
  "shaders": [],
  "discord_id": "",
  "change_for": null
}