{
  "id": 119742,
  "name": "InstaCondo Limited",
  "slug": "instacondo-limited",
  "year": null,
  "banner_url": "",
  "icon_url": "",
  "coverart": null,
  "platforms": [],
  "provider_games": [
    {
      "name": "InstaCondo Limited",
      "slug": "instacondo-limited",
      "service": "igdb"
    }
  ],
  "aliases": [],
  "shaders": [],
  "discord_id": "",
  "change_for": null
}