{
  "id": 32778,
  "name": "Sins of a Solar Empire",
  "slug": "sins-of-a-solar-empire",
  "year": 2008,
  "banner_url": "https://lutris.net/games/banner/sins-of-a-solar-empire.jpg",
  "icon_url": "",
  "coverart": "https://lutris.net/media/igdb/cover_big/co2rb5.jpg",
  "platforms": [
    {
      "name": "Windows"
    }
  ],
  "provider_games": [
    {
      "name": "Sins of a Solar Empire",
      "slug": "sins-of-a-solar-empire",
      "service": "igdb"
    }
  ],
  "aliases": [],
  "shaders": [],
  "discord_id": "",
  "change_for": null
}