{
  "id": 12682,
  "name": "Wooden House",
  "slug": "wooden-house",
  "year": 2016,
  "banner_url": "https://lutris.net/games/banner/wooden-house.jpg",
  "icon_url": "https://lutris.net/games/icon/wooden-house.png",
  "coverart": "https://lutris.net/media/igdb/cover_big/co3ndb.jpg",
  "platforms": [
    {
      "name": "Windows"
    }
  ],
  "provider_games": [
    {
      "name": "Wooden House",
      "slug": "513570",
      "service": "steam"
    },
    {
      "name": "Wooden House",
      "slug": "wooden-house",
      "service": "igdb"
    }
  ],
  "aliases": [],
  "shaders": [],
  "discord_id": "",
  "change_for": null
}