{
  "id": 103521,
  "name": "Tales of the World: Radiant Mythology 2",
  "slug": "tales-of-the-world-radiant-mythology-2",
  "year": 2009,
  "banner_url": "",
  "icon_url": "",
  "coverart": "https://lutris.net/media/igdb/cover_big/co2nzu.jpg",
  "platforms": [
    {
      "name": "Sony PSP"
    }
  ],
  "provider_games": [
    {
      "name": "Tales of the World: Radiant Mythology 2",
      "slug": "tales-of-the-world-radiant-mythology-2",
      "service": "igdb"
    }
  ],
  "aliases": [],
  "shaders": [],
  "discord_id": "",
  "change_for": null
}