{
  "id": 183746,
  "name": "Mainframe Defenders: Metldown",
  "slug": "mainframe-defenders-metldown",
  "year": null,
  "banner_url": "",
  "icon_url": "",
  "coverart": null,
  "platforms": [],
  "provider_games": [
    {
      "name": "Mainframe Defenders: Metldown",
      "slug": "mainframe-defenders-metldown",
      "service": "igdb"
    }
  ],
  "aliases": [],
  "shaders": [],
  "discord_id": "",
  "change_for": null
}