{
  "id": 125452,
  "name": "Starfighter X",
  "slug": "starfighter-x",
  "year": null,
  "banner_url": "",
  "icon_url": "",
  "coverart": null,
  "platforms": [],
  "provider_games": [
    {
      "name": "Starfighter X",
      "slug": "starfighter-x",
      "service": "igdb"
    }
  ],
  "aliases": [],
  "shaders": [],
  "discord_id": "",
  "change_for": null
}