{
  "id": 214827,
  "name": "Crab and Fish",
  "slug": "crab-and-fish",
  "year": null,
  "banner_url": "",
  "icon_url": "",
  "coverart": null,
  "platforms": [],
  "provider_games": [
    {
      "name": "Crab and Fish",
      "slug": "crab-and-fish",
      "service": "igdb"
    }
  ],
  "aliases": [],
  "shaders": [],
  "discord_id": "",
  "change_for": null
}