{
  "id": 153125,
  "name": "No Fair Play",
  "slug": "no-fair-play",
  "year": null,
  "banner_url": "https://lutris.net/games/banner/no-fair-play.jpg",
  "icon_url": "",
  "coverart": "https://lutris.net/media/igdb/cover_big/co3wqe.jpg",
  "platforms": [
    {
      "name": "Windows"
    }
  ],
  "provider_games": [
    {
      "name": "No Fair Play",
      "slug": "no-fair-play",
      "service": "igdb"
    },
    {
      "name": "No Fair Play",
      "slug": "1771180",
      "service": "steam"
    }
  ],
  "aliases": [],
  "shaders": [],
  "discord_id": "",
  "change_for": null
}