{
  "id": 94669,
  "name": "VR - Talk to her",
  "slug": "vr-talk-to-her",
  "year": null,
  "banner_url": "",
  "icon_url": "",
  "coverart": null,
  "platforms": [],
  "provider_games": [
    {
      "name": "VR - Talk to her",
      "slug": "vr-talk-to-her",
      "service": "igdb"
    }
  ],
  "aliases": [],
  "shaders": [],
  "discord_id": "",
  "change_for": null
}