{
  "id": 61954,
  "name": "Stolen in 60 Seconds",
  "slug": "stolen-in-60-seconds",
  "year": null,
  "banner_url": "",
  "icon_url": "",
  "coverart": "https://lutris.net/media/igdb/cover_big/xmeihxycmpae1cngfalz.jpg",
  "platforms": [],
  "provider_games": [
    {
      "name": "Stolen in 60 Seconds",
      "slug": "stolen-in-60-seconds",
      "service": "igdb"
    }
  ],
  "aliases": [],
  "shaders": [],
  "discord_id": "",
  "change_for": null
}