{
  "id": 62362,
  "name": "Pinky and the Brain: World Conquest",
  "slug": "pinky-and-the-brain-world-conquest",
  "year": null,
  "banner_url": "",
  "icon_url": "",
  "coverart": "https://lutris.net/media/igdb/cover_big/odjfxuvndt84txfvc23w.jpg",
  "platforms": [],
  "provider_games": [
    {
      "name": "Pinky and the Brain: World Conquest",
      "slug": "pinky-and-the-brain-world-conquest",
      "service": "igdb"
    }
  ],
  "aliases": [],
  "shaders": [],
  "discord_id": "",
  "change_for": null
}