{
  "id": 182203,
  "name": "Good Night, Rowan",
  "slug": "good-night-rowan",
  "year": null,
  "banner_url": "",
  "icon_url": "",
  "coverart": null,
  "platforms": [],
  "provider_games": [
    {
      "name": "Good Night, Rowan",
      "slug": "good-night-rowan",
      "service": "igdb"
    }
  ],
  "aliases": [],
  "shaders": [],
  "discord_id": "",
  "change_for": null
}