{
  "id": 188454,
  "name": "Space to Investigate",
  "slug": "space-to-investigate",
  "year": null,
  "banner_url": "",
  "icon_url": "",
  "coverart": "https://lutris.net/media/igdb/cover_big/co7bpd.jpg",
  "platforms": [],
  "provider_games": [
    {
      "name": "Space to Investigate",
      "slug": "space-to-investigate",
      "service": "igdb"
    }
  ],
  "aliases": [],
  "shaders": [],
  "discord_id": "",
  "change_for": null
}