{
  "id": 62550,
  "name": "Dragon Master Silk: Ryuu Shoukan Musume Episode II",
  "slug": "dragon-master-silk-ryuu-shoukan-musume-episode-ii",
  "year": null,
  "banner_url": "",
  "icon_url": "",
  "coverart": "https://lutris.net/media/igdb/cover_big/ldmzhu9rxvsgscqxo5gt.jpg",
  "platforms": [],
  "provider_games": [
    {
      "name": "Dragon Master Silk: Ryuu Shoukan Musume Episode II",
      "slug": "dragon-master-silk-ryuu-shoukan-musume-episode-ii",
      "service": "igdb"
    }
  ],
  "aliases": [],
  "shaders": [],
  "discord_id": "",
  "change_for": null
}