{
  "id": 84598,
  "name": "JoJo no Kimyou na Bouken: Eyes of Heaven",
  "slug": "jojo-no-kimyou-na-bouken-eyes-of-heaven",
  "year": 2016,
  "banner_url": "",
  "icon_url": "",
  "coverart": "https://lutris.net/media/igdb/cover_big/owjxj7esbcx0st4porbl.jpg",
  "platforms": [
    {
      "name": "Sony Playstation 3"
    }
  ],
  "provider_games": [
    {
      "name": "JoJo no Kimyou na Bouken: Eyes of Heaven",
      "slug": "jojo-no-kimyou-na-bouken-eyes-of-heaven",
      "service": "igdb"
    }
  ],
  "aliases": [],
  "shaders": [],
  "discord_id": "",
  "change_for": null
}