{
  "id": 17478,
  "game_id": 25389,
  "game_slug": "microsoft-powerpoint",
  "name": "Microsoft PowerPoint",
  "year": 1987,
  "user": "Soerensen",
  "runner": "wine",
  "slug": "microsoft-powerpoint-2010-32bit",
  "version": "2010 32bit",
  "description": null,
  "notes": "It needs winbind(from samba) installed.",
  "credits": "",
  "created_at": "2019-12-22T00:11:20.323000Z",
  "updated_at": "2020-03-20T10:43:51.339348Z",
  "draft": false,
  "published": true,
  "published_by": 20548,
  "rating": "",
  "is_playable": null,
  "steamid": null,
  "gogid": null,
  "gogslug": "",
  "humbleid": "",
  "humblestoreid": "",
  "humblestoreid_real": "",
  "script": {
    "files": [
      {
        "installer": "N/A:Please select the setup.exe located on the installation DVD."
      }
    ],
    "game": {
      "arch": "win32",
      "exe": "drive_c/Program Files/Microsoft Office/Office14/POWERPNT.EXE",
      "prefix": "$GAMEDIR"
    },
    "installer": [
      {
        "task": {
          "arch": "win32",
          "description": "Creating Wine prefix",
          "name": "create_prefix",
          "prefix": "$GAMEDIR"
        }
      },
      {
        "task": {
          "app": "dotnet20 riched20 msxml6 corefonts",
          "arch": "win32",
          "description": "Installing needed libs",
          "name": "winetricks",
          "prefix": "$CACHE/prefix"
        }
      },
      {
        "task": {
          "arch": "win32",
          "description": "Running setup",
          "executable": "installer",
          "name": "wineexec",
          "prefix": "$GAMEDIR"
        }
      }
    ]
  },
  "content": "files:\n- installer: N/A:Please select the setup.exe located on the installation DVD.\ngame:\n  arch: win32\n  exe: drive_c/Program Files/Microsoft Office/Office14/POWERPNT.EXE\n  prefix: $GAMEDIR\ninstaller:\n- task:\n    arch: win32\n    description: Creating Wine prefix\n    name: create_prefix\n    prefix: $GAMEDIR\n- task:\n    app: dotnet20 riched20 msxml6 corefonts\n    arch: win32\n    description: Installing needed libs\n    name: winetricks\n    prefix: $CACHE/prefix\n- task:\n    arch: win32\n    description: Running setup\n    executable: installer\n    name: wineexec\n    prefix: $GAMEDIR\n",
  "discord_id": ""
}