{
  "id": 62333,
  "name": "Pinball Lizard",
  "slug": "pinball-lizard",
  "year": null,
  "banner_url": "",
  "icon_url": "",
  "coverart": "https://lutris.net/media/igdb/cover_big/mhaor4mp0sszwp1zrdg0.jpg",
  "platforms": [],
  "provider_games": [
    {
      "name": "Pinball Lizard",
      "slug": "pinball-lizard",
      "service": "igdb"
    }
  ],
  "aliases": [],
  "shaders": [],
  "discord_id": "",
  "change_for": null
}