{
  "id": 211623,
  "name": "Idle Train Empire",
  "slug": "idle-train-empire",
  "year": null,
  "banner_url": "",
  "icon_url": "",
  "coverart": null,
  "platforms": [],
  "provider_games": [
    {
      "name": "Idle Train Empire",
      "slug": "idle-train-empire",
      "service": "igdb"
    }
  ],
  "aliases": [],
  "shaders": [],
  "discord_id": "",
  "change_for": null
}