{
  "id": 14755,
  "name": "Mission to Planet X",
  "slug": "mission-to-planet-x",
  "year": 2014,
  "banner_url": "https://lutris.net/games/banner/mission-to-planet-x.jpg",
  "icon_url": "",
  "coverart": null,
  "platforms": [
    {
      "name": "Browser"
    }
  ],
  "provider_games": [],
  "aliases": [],
  "shaders": [],
  "discord_id": "",
  "change_for": null
}