{
  "id": 292119,
  "name": "Young Detectives: Holidays",
  "slug": "young-detectives-holidays",
  "year": null,
  "banner_url": "",
  "icon_url": "",
  "coverart": "https://lutris.net/media/igdb/cover_big/co8jm3.jpg",
  "platforms": [],
  "provider_games": [
    {
      "name": "Young Detectives: Holidays",
      "slug": "young-detectives-holidays",
      "service": "igdb"
    }
  ],
  "aliases": [],
  "shaders": [],
  "discord_id": "",
  "change_for": null
}