{
  "id": 187037,
  "name": "The Ribbon Club ch1: Tea and Cake",
  "slug": "the-ribbon-club-ch1-tea-and-cake",
  "year": null,
  "banner_url": "",
  "icon_url": "",
  "coverart": null,
  "platforms": [],
  "provider_games": [
    {
      "name": "The Ribbon Club ch1: Tea and Cake",
      "slug": "the-ribbon-club-ch1-tea-and-cake",
      "service": "igdb"
    }
  ],
  "aliases": [],
  "shaders": [],
  "discord_id": "",
  "change_for": null
}