{
  "id": 224953,
  "name": "Simple Characters 2000 Series Vol. 07: Ikkyuu-san - The Quiz",
  "slug": "simple-characters-2000-series-vol-07-ikkyuu-san-the-quiz",
  "year": 2002,
  "banner_url": "",
  "icon_url": "",
  "coverart": "https://lutris.net/media/igdb/cover_big/co4t0s.jpg",
  "platforms": [
    {
      "name": "Sony PlayStation"
    }
  ],
  "provider_games": [
    {
      "name": "Simple Characters 2000 Series Vol. 07: Ikkyuu-san - The Quiz",
      "slug": "simple-characters-2000-series-vol-07-ikkyuu-san-the-quiz",
      "service": "igdb"
    }
  ],
  "aliases": [],
  "shaders": [],
  "discord_id": "",
  "change_for": null
}