{
  "id": 28463,
  "name": "Cosmoteer",
  "slug": "cosmoteer",
  "year": 2015,
  "banner_url": "https://lutris.net/games/banner/cosmoteer.jpg",
  "icon_url": "",
  "coverart": "https://lutris.net/media/igdb/cover_big/co1xlv.jpg",
  "platforms": [
    {
      "name": "Windows"
    }
  ],
  "provider_games": [
    {
      "name": "Cosmoteer",
      "slug": "cosmoteer",
      "service": "igdb"
    }
  ],
  "aliases": [],
  "shaders": [],
  "discord_id": "",
  "change_for": null
}