{
  "id": 35642,
  "name": "SAR - Search And Rescue",
  "slug": "sar-search-and-rescue",
  "year": 1989,
  "banner_url": "https://lutris.net/games/banner/sar-search-and-rescue.jpg",
  "icon_url": "https://lutris.net/games/icon/sar-search-and-rescue.png",
  "coverart": "https://lutris.net/media/igdb/cover_big/hxi5a79dmhs7kpidqhbl.jpg",
  "platforms": [
    {
      "name": "Arcade"
    }
  ],
  "provider_games": [
    {
      "name": "SAR - Search And Rescue",
      "slug": "searchar",
      "service": "mame"
    },
    {
      "name": "SAR: Search and Rescue",
      "slug": "sar-search-and-rescue",
      "service": "igdb"
    }
  ],
  "aliases": [],
  "shaders": [],
  "discord_id": "",
  "change_for": null
}