{
  "id": 20213,
  "name": "Army Men II",
  "slug": "army-men-ii",
  "year": 1999,
  "banner_url": "https://lutris.net/games/banner/army-men-ii.jpg",
  "icon_url": "https://lutris.net/games/icon/army-men-ii.png",
  "coverart": "https://lutris.net/media/igdb/cover_big/co3lnu.jpg",
  "platforms": [
    {
      "name": "Windows"
    }
  ],
  "provider_games": [
    {
      "name": "Army Men II",
      "slug": "1913968552",
      "service": "gog"
    },
    {
      "name": "Army Men II",
      "slug": "549170",
      "service": "steam"
    },
    {
      "name": "Army Men II",
      "slug": "army-men-ii",
      "service": "igdb"
    }
  ],
  "aliases": [],
  "shaders": [],
  "discord_id": "",
  "change_for": null
}