{
  "id": 87195,
  "name": "Wintersport",
  "slug": "wintersport",
  "year": 1979,
  "banner_url": "",
  "icon_url": "",
  "coverart": "https://lutris.net/media/igdb/cover_big/oaoz02ty5dox6hnsdckc.jpg",
  "platforms": [
    {
      "name": "VC 4000"
    }
  ],
  "provider_games": [
    {
      "name": "Wintersport",
      "slug": "wintersport",
      "service": "igdb"
    }
  ],
  "aliases": [],
  "shaders": [],
  "discord_id": "",
  "change_for": null
}