{
  "id": 293631,
  "name": "Velvet Bite: Softly, With Teeth",
  "slug": "velvet-bite-softly-with-teeth",
  "year": 2024,
  "banner_url": "",
  "icon_url": "",
  "coverart": null,
  "platforms": [
    {
      "name": "Mac"
    },
    {
      "name": "Nintendo Switch"
    },
    {
      "name": "Windows"
    }
  ],
  "provider_games": [
    {
      "name": "Velvet Bite: Softly, With Teeth",
      "slug": "velvet-bite-softly-with-teeth",
      "service": "igdb"
    }
  ],
  "aliases": [],
  "shaders": [],
  "discord_id": "",
  "change_for": null
}