{
  "id": 15550,
  "game_id": 23671,
  "game_slug": "timequest",
  "name": "Timequest",
  "year": 1991,
  "user": "appoloin",
  "runner": "dosbox",
  "slug": "timequest-ms-dos",
  "version": "MS-DOS",
  "description": null,
  "notes": "",
  "credits": "",
  "created_at": "2019-09-14T20:41:35.772510Z",
  "updated_at": "2020-04-04T11:16:50.426446Z",
  "draft": false,
  "published": true,
  "published_by": null,
  "rating": "",
  "is_playable": null,
  "steamid": 1297560,
  "gogid": 1501698573,
  "gogslug": "retro_first_friday_collection_2",
  "humbleid": "",
  "humblestoreid": "",
  "humblestoreid_real": "",
  "script": {
    "files": [
      {
        "game": "N/A:Select the file TQ.EXE"
      }
    ],
    "game": {
      "main_file": "$GAMEDIR/timequest.conf"
    },
    "installer": [
      {
        "execute": {
          "args": "$GAMEDIR/HDD $GAMEDIR/HDD/time",
          "file": "mkdir"
        }
      },
      {
        "write_file": {
          "content": "#!/bin/bash\nsrc=$1\ndst=$2\nsrc_path=$(echo \"$1\" | sed -r \"s/(.+)\\/.+/\\1/\")\ncp -avr \"$src_path/.\"  \"$dst\"",
          "file": "$CACHE/bulkcopy.sh"
        }
      },
      {
        "chmodx": "$CACHE/bulkcopy.sh"
      },
      {
        "execute": {
          "args": "$game $GAMEDIR/HDD/time",
          "file": "$CACHE/bulkcopy.sh"
        }
      },
      {
        "write_file": {
          "content": "[sdl]\nsensitivity=20\n[autoexec]\nmount C \"$GAMEDIR/HDD\" -t dir\nC:\ncd time\ntq.EXE mt32\nexit",
          "file": "$GAMEDIR/timequest.conf"
        }
      }
    ]
  },
  "content": "files:\n- game: N/A:Select the file TQ.EXE\ngame:\n  main_file: $GAMEDIR/timequest.conf\ninstaller:\n- execute:\n    args: $GAMEDIR/HDD $GAMEDIR/HDD/time\n    file: mkdir\n- write_file:\n    content: '#!/bin/bash\n\n      src=$1\n\n      dst=$2\n\n      src_path=$(echo \"$1\" | sed -r \"s/(.+)\\/.+/\\1/\")\n\n      cp -avr \"$src_path/.\"  \"$dst\"'\n    file: $CACHE/bulkcopy.sh\n- chmodx: $CACHE/bulkcopy.sh\n- execute:\n    args: $game $GAMEDIR/HDD/time\n    file: $CACHE/bulkcopy.sh\n- write_file:\n    content: '[sdl]\n\n      sensitivity=20\n\n      [autoexec]\n\n      mount C \"$GAMEDIR/HDD\" -t dir\n\n      C:\n\n      cd time\n\n      tq.EXE mt32\n\n      exit'\n    file: $GAMEDIR/timequest.conf\n",
  "discord_id": ""
}