{
  "id": 36569,
  "name": "Narcos: Rise of the Cartels",
  "slug": "narcos-rise-of-the-cartels",
  "year": 2019,
  "banner_url": "https://lutris.net/games/banner/narcos-rise-of-the-cartels.jpg",
  "icon_url": "https://lutris.net/games/icon/narcos-rise-of-the-cartels.png",
  "coverart": "https://lutris.net/media/igdb/cover_big/co24d6.jpg",
  "platforms": [
    {
      "name": "Nintendo Switch"
    },
    {
      "name": "Sony Playstation 4"
    },
    {
      "name": "Windows"
    },
    {
      "name": "Xbox One"
    }
  ],
  "provider_games": [
    {
      "name": "Narcos: Rise of the Cartels",
      "slug": "914110",
      "service": "steam"
    },
    {
      "name": "Narcos: Rise of the Cartels",
      "slug": "narcos-rise-of-the-cartels",
      "service": "igdb"
    }
  ],
  "aliases": [],
  "shaders": [],
  "discord_id": "",
  "change_for": null
}