{
  "id": 5402,
  "name": "The Labyrinth of Time",
  "slug": "the-labyrinth-of-time",
  "year": 1993,
  "banner_url": "https://lutris.net/games/banner/the-labyrinth-of-time.jpg",
  "icon_url": "https://lutris.net/games/icon/the-labyrinth-of-time.png",
  "coverart": "https://lutris.net/media/igdb/cover_big/co43vu.jpg",
  "platforms": [
    {
      "name": "Amiga"
    },
    {
      "name": "Linux"
    }
  ],
  "provider_games": [
    {
      "name": "The Labyrinth of Time",
      "slug": "1207664313",
      "service": "gog"
    },
    {
      "name": "The Labyrinth of Time",
      "slug": "266980",
      "service": "steam"
    },
    {
      "name": "The Labyrinth of Time",
      "slug": "the-labyrinth-of-time",
      "service": "igdb"
    }
  ],
  "aliases": [],
  "shaders": [],
  "discord_id": "",
  "change_for": null
}