{
  "id": 20412,
  "name": "MY 1980's DASHBOARD",
  "slug": "my-1980s-dashboard",
  "year": 2018,
  "banner_url": "https://lutris.net/games/banner/my-1980s-dashboard.jpg",
  "icon_url": "https://lutris.net/games/icon/my-1980s-dashboard.png",
  "coverart": "https://lutris.net/media/igdb/cover_big/co241k.jpg",
  "platforms": [
    {
      "name": "Windows"
    }
  ],
  "provider_games": [
    {
      "name": "MY 1980's DASHBOARD",
      "slug": "786630",
      "service": "steam"
    },
    {
      "name": "My 1980's Dashboard",
      "slug": "my-1980-s-dashboard",
      "service": "igdb"
    }
  ],
  "aliases": [
    {
      "slug": "my-1980-s-dashboard",
      "name": "MY 1980's DASHBOARD"
    }
  ],
  "shaders": [],
  "discord_id": "",
  "change_for": null
}