{
  "id": 7364,
  "game_id": 16566,
  "game_slug": "play-papa-pear-saga",
  "name": "Play Papa Pear Saga",
  "year": 2013,
  "user": "TuiorGames",
  "runner": "web",
  "slug": "play-papa-pear-saga-facebook",
  "version": "Facebook",
  "description": null,
  "notes": "",
  "credits": "",
  "created_at": "2018-02-20T10:48:38.942678Z",
  "updated_at": "2024-04-03T05:59:21.682810Z",
  "draft": false,
  "published": true,
  "published_by": null,
  "rating": "",
  "is_playable": null,
  "steamid": null,
  "gogid": null,
  "gogslug": "",
  "humbleid": "",
  "humblestoreid": "",
  "humblestoreid_real": "",
  "script": {
    "game": {
      "main_file": "https://apps.facebook.com/papapear/"
    }
  },
  "content": "game:\n  main_file: https://apps.facebook.com/papapear/\n",
  "discord_id": ""
}