{
  "id": 258586,
  "name": "Break Arts III",
  "slug": "break-arts-iii--1",
  "year": null,
  "banner_url": "",
  "icon_url": "",
  "coverart": "https://lutris.net/media/igdb/cover_big/co71e7.jpg",
  "platforms": [],
  "provider_games": [
    {
      "name": "Break Arts III",
      "slug": "break-arts-iii--1",
      "service": "igdb"
    }
  ],
  "aliases": [],
  "shaders": [],
  "discord_id": "",
  "change_for": null
}