{
  "id": 97447,
  "name": "Dreadland",
  "slug": "dreadland",
  "year": null,
  "banner_url": "",
  "icon_url": "",
  "coverart": "https://lutris.net/media/igdb/cover_big/co7577.jpg",
  "platforms": [],
  "provider_games": [
    {
      "name": "Dreadland",
      "slug": "dreadland",
      "service": "igdb"
    }
  ],
  "aliases": [],
  "shaders": [],
  "discord_id": "",
  "change_for": null
}