{
  "id": 268345,
  "name": "Twilight Story: A Quiet House",
  "slug": "twilight-story-a-quiet-house",
  "year": null,
  "banner_url": "",
  "icon_url": "",
  "coverart": "https://lutris.net/media/igdb/cover_big/co7g5t.jpg",
  "platforms": [],
  "provider_games": [
    {
      "name": "Twilight Story: A Quiet House",
      "slug": "twilight-story-a-quiet-house",
      "service": "igdb"
    }
  ],
  "aliases": [],
  "shaders": [],
  "discord_id": "",
  "change_for": null
}