{
  "id": 281868,
  "name": "Railway Life",
  "slug": "railway-life",
  "year": null,
  "banner_url": "",
  "icon_url": "",
  "coverart": "https://lutris.net/media/igdb/cover_big/co82sc.jpg",
  "platforms": [],
  "provider_games": [
    {
      "name": "Railway Life",
      "slug": "railway-life",
      "service": "igdb"
    }
  ],
  "aliases": [],
  "shaders": [],
  "discord_id": "",
  "change_for": null
}