{
  "id": 8421,
  "game_id": 4777,
  "game_slug": "discouraged-workers",
  "name": "Discouraged Workers",
  "year": 2015,
  "user": "ricke00",
  "runner": "steam",
  "slug": "discouraged-workers-steam",
  "version": "Steam",
  "description": null,
  "notes": "",
  "credits": "",
  "created_at": "2018-05-26T01:05:50.437810Z",
  "updated_at": "2018-05-26T08:01:02.184308Z",
  "draft": false,
  "published": true,
  "published_by": null,
  "rating": "",
  "is_playable": null,
  "steamid": 371120,
  "gogid": null,
  "gogslug": "",
  "humbleid": "",
  "humblestoreid": "",
  "humblestoreid_real": "",
  "script": {
    "game": {
      "appid": 371120
    }
  },
  "content": "game:\n  appid: 371120\n",
  "discord_id": ""
}