{
  "id": 158829,
  "name": "Renegade Grounds: Episode 2",
  "slug": "renegade-grounds-episode-2",
  "year": null,
  "banner_url": "",
  "icon_url": "",
  "coverart": "https://lutris.net/media/igdb/cover_big/co3yfd.jpg",
  "platforms": [],
  "provider_games": [
    {
      "name": "Renegade Grounds: Episode 2",
      "slug": "renegade-grounds-episode-2",
      "service": "igdb"
    }
  ],
  "aliases": [],
  "shaders": [],
  "discord_id": "",
  "change_for": null
}