{
  "id": 12160,
  "name": "Mario Superstar Baseball",
  "slug": "mario-superstar-baseball",
  "year": 2005,
  "banner_url": "https://lutris.net/games/banner/mario-superstar-baseball.jpg",
  "icon_url": "",
  "coverart": "https://lutris.net/media/igdb/cover_big/co1tml.jpg",
  "platforms": [
    {
      "name": "GameCube"
    },
    {
      "name": "Nintendo GameCube"
    }
  ],
  "provider_games": [
    {
      "name": "Mario Superstar Baseball",
      "slug": "mario-superstar-baseball",
      "service": "igdb"
    }
  ],
  "aliases": [],
  "shaders": [],
  "discord_id": "",
  "change_for": null
}