{
  "id": 14742,
  "name": "Alex the Allegator 4",
  "slug": "alex-the-allegator-4",
  "year": 2003,
  "banner_url": "https://lutris.net/games/banner/alex-the-allegator-4.jpg",
  "icon_url": "https://lutris.net/games/icon/alex-the-allegator-4.png",
  "coverart": "https://lutris.net/media/igdb/cover_big/co1l4d.jpg",
  "platforms": [
    {
      "name": "Linux"
    }
  ],
  "provider_games": [
    {
      "name": "Alex the Allegator 4",
      "slug": "alex-the-allegator-4",
      "service": "igdb"
    }
  ],
  "aliases": [],
  "shaders": [],
  "discord_id": "",
  "change_for": null
}