{
  "id": 140268,
  "name": "Arkos",
  "slug": "arkos--1",
  "year": null,
  "banner_url": "",
  "icon_url": "",
  "coverart": "https://lutris.net/media/igdb/cover_big/co3scr.jpg",
  "platforms": [],
  "provider_games": [
    {
      "name": "Arkos",
      "slug": "arkos--1",
      "service": "igdb"
    }
  ],
  "aliases": [],
  "shaders": [],
  "discord_id": "",
  "change_for": null
}