{
  "id": 10756,
  "name": "Pierhead Arcade",
  "slug": "pierhead-arcade",
  "year": 2016,
  "banner_url": "https://lutris.net/games/banner/pierhead-arcade.jpg",
  "icon_url": "https://lutris.net/games/icon/pierhead-arcade.png",
  "coverart": "https://lutris.net/media/igdb/cover_big/co3vb1.jpg",
  "platforms": [
    {
      "name": "Windows"
    }
  ],
  "provider_games": [
    {
      "name": "Pierhead Arcade",
      "slug": "435490",
      "service": "steam"
    },
    {
      "name": "Pierhead Arcade",
      "slug": "pierhead-arcade",
      "service": "igdb"
    }
  ],
  "aliases": [],
  "shaders": [],
  "discord_id": "",
  "change_for": null
}