{
  "id": 234751,
  "name": "Red Knight: Light RPG",
  "slug": "red-knight-light-rpg",
  "year": null,
  "banner_url": "",
  "icon_url": "",
  "coverart": "https://lutris.net/media/igdb/cover_big/co68fp.jpg",
  "platforms": [],
  "provider_games": [
    {
      "name": "Red Knight: Light RPG",
      "slug": "red-knight-light-rpg",
      "service": "igdb"
    }
  ],
  "aliases": [],
  "shaders": [],
  "discord_id": "",
  "change_for": null
}