{
  "id": 239326,
  "name": "Cubic Crush: Streamer Showdown",
  "slug": "cubic-crush-streamer-showdown",
  "year": 2023,
  "banner_url": "",
  "icon_url": "",
  "coverart": "https://lutris.net/media/igdb/cover_big/co5z90.jpg",
  "platforms": [
    {
      "name": "Windows"
    }
  ],
  "provider_games": [
    {
      "name": "Cubic Crush: Streamer Showdown",
      "slug": "cubic-crush-streamer-showdown",
      "service": "igdb"
    }
  ],
  "aliases": [],
  "shaders": [],
  "discord_id": "",
  "change_for": null
}