{
  "id": 178142,
  "name": "Touhou Gouyoku Ibun ~ Suibotsushita Chinshuu Jigoku",
  "slug": "touhou-gouyoku-ibun-suibotsushita-chinshuu-jigoku",
  "year": 2021,
  "banner_url": "",
  "icon_url": "",
  "coverart": "https://lutris.net/media/igdb/cover_big/co2uxu.jpg",
  "platforms": [
    {
      "name": "Windows"
    }
  ],
  "provider_games": [
    {
      "name": "Touhou Gouyoku Ibun ~ Suibotsushita Chinshuu Jigoku",
      "slug": "touhou-gouyoku-ibun-suibotsushita-chinshuu-jigoku",
      "service": "igdb"
    }
  ],
  "aliases": [],
  "shaders": [],
  "discord_id": "",
  "change_for": null
}