{
  "id": 30948,
  "name": "Ben 10",
  "slug": "ben-10",
  "year": 2017,
  "banner_url": "https://lutris.net/games/banner/ben-10.jpg",
  "icon_url": "https://lutris.net/games/icon/ben-10.png",
  "coverart": "https://lutris.net/media/igdb/cover_big/co26x5.jpg",
  "platforms": [
    {
      "name": "Nintendo Switch"
    },
    {
      "name": "Sony Playstation 4"
    },
    {
      "name": "Windows"
    },
    {
      "name": "Xbox One"
    }
  ],
  "provider_games": [
    {
      "name": "Ben 10",
      "slug": "703180",
      "service": "steam"
    },
    {
      "name": "Ben 10",
      "slug": "ben-10",
      "service": "igdb"
    }
  ],
  "aliases": [],
  "shaders": [],
  "discord_id": "",
  "change_for": null
}