{
  "id": 56983,
  "name": "Taco Run",
  "slug": "taco-run",
  "year": null,
  "banner_url": "",
  "icon_url": "",
  "coverart": "https://lutris.net/media/igdb/cover_big/hwlj0dquqy3uchcpi0gw.jpg",
  "platforms": [],
  "provider_games": [
    {
      "name": "Taco Run",
      "slug": "taco-run",
      "service": "igdb"
    }
  ],
  "aliases": [],
  "shaders": [],
  "discord_id": "",
  "change_for": null
}