{
  "id": 20018,
  "name": "VoiceWarrior",
  "slug": "voicewarrior",
  "year": null,
  "banner_url": "https://lutris.net/games/banner/voicewarrior.jpg",
  "icon_url": "https://lutris.net/games/icon/voicewarrior.png",
  "coverart": null,
  "platforms": [],
  "provider_games": [
    {
      "name": "VoiceWarrior",
      "slug": "601780",
      "service": "steam"
    }
  ],
  "aliases": [],
  "shaders": [],
  "discord_id": "",
  "change_for": null
}