{
  "id": 270387,
  "name": "Mouskattack",
  "slug": "mouskattack",
  "year": 1982,
  "banner_url": "",
  "icon_url": "",
  "coverart": "https://lutris.net/media/igdb/cover_big/co7llr.jpg",
  "platforms": [
    {
      "name": "Apple II"
    },
    {
      "name": "Atari 8-bit"
    }
  ],
  "provider_games": [
    {
      "name": "Mouskattack",
      "slug": "mouskattack",
      "service": "igdb"
    }
  ],
  "aliases": [],
  "shaders": [],
  "discord_id": "",
  "change_for": null
}