{
  "id": 84332,
  "name": "Fate/unlimited codes Portable",
  "slug": "fate-slash-unlimited-codes-portable",
  "year": 2009,
  "banner_url": "",
  "icon_url": "",
  "coverart": "https://lutris.net/media/igdb/cover_big/co1pst.jpg",
  "platforms": [
    {
      "name": "Sony PSP"
    }
  ],
  "provider_games": [
    {
      "name": "Fate/unlimited codes Portable",
      "slug": "fate-slash-unlimited-codes-portable",
      "service": "igdb"
    }
  ],
  "aliases": [],
  "shaders": [],
  "discord_id": "",
  "change_for": null
}