{
  "id": 200921,
  "name": "Mystery of Fortune 2",
  "slug": "mystery-of-fortune-2",
  "year": 2016,
  "banner_url": "",
  "icon_url": "",
  "coverart": "https://lutris.net/media/igdb/cover_big/co9flr.jpg",
  "platforms": [],
  "provider_games": [
    {
      "name": "Mystery of Fortune 2",
      "slug": "mystery-of-fortune-2",
      "service": "igdb"
    }
  ],
  "aliases": [],
  "shaders": [],
  "discord_id": "",
  "change_for": null
}