{
  "id": 290268,
  "name": "Cats Hidden in Magic Places",
  "slug": "cats-hidden-in-magic-places",
  "year": 2024,
  "banner_url": "",
  "icon_url": "",
  "coverart": "https://lutris.net/media/igdb/cover_big/co8jhi.jpg",
  "platforms": [
    {
      "name": "Nintendo Switch"
    }
  ],
  "provider_games": [
    {
      "name": "Cats Hidden in Magic Places",
      "slug": "cats-hidden-in-magic-places",
      "service": "igdb"
    }
  ],
  "aliases": [],
  "shaders": [],
  "discord_id": "",
  "change_for": null
}