{
  "id": 65606,
  "name": "Batty",
  "slug": "batty",
  "year": null,
  "banner_url": "",
  "icon_url": "",
  "coverart": "https://lutris.net/media/igdb/cover_big/oapg5fyibnkikjiuffxq.jpg",
  "platforms": [],
  "provider_games": [
    {
      "name": "Batty",
      "slug": "batty",
      "service": "igdb"
    }
  ],
  "aliases": [],
  "shaders": [],
  "discord_id": "",
  "change_for": null
}