{
  "id": 11787,
  "game_id": 1645,
  "game_slug": "duke-nukem-2",
  "name": "Duke Nukem II",
  "year": 1993,
  "user": "soredake",
  "runner": "steam",
  "slug": "duke-nukem-ii-proton",
  "version": "Proton",
  "description": null,
  "notes": "",
  "credits": "",
  "created_at": "2019-01-31T10:49:29.809823Z",
  "updated_at": "2021-05-04T02:43:13.847859Z",
  "draft": false,
  "published": true,
  "published_by": 19464,
  "rating": "",
  "is_playable": null,
  "steamid": 240180,
  "gogid": 1207664973,
  "gogslug": "ultra_pack_deluxe_turbo_hd_remix_vol2",
  "humbleid": "",
  "humblestoreid": "",
  "humblestoreid_real": "",
  "script": {
    "game": {
      "appid": 240180
    }
  },
  "content": "game:\n  appid: 240180\n",
  "discord_id": ""
}