{
  "id": 252609,
  "name": "Red Genie: An Eidola Tale",
  "slug": "red-genie-an-eidola-tale--1",
  "year": null,
  "banner_url": "",
  "icon_url": "",
  "coverart": "https://lutris.net/media/igdb/cover_big/co6ua4.jpg",
  "platforms": [],
  "provider_games": [
    {
      "name": "Red Genie: An Eidola Tale",
      "slug": "red-genie-an-eidola-tale--1",
      "service": "igdb"
    }
  ],
  "aliases": [],
  "shaders": [],
  "discord_id": "",
  "change_for": null
}