{
  "id": 253387,
  "name": "Deconstruction Simulator",
  "slug": "deconstruction-simulator",
  "year": null,
  "banner_url": "",
  "icon_url": "",
  "coverart": "https://lutris.net/media/igdb/cover_big/co6u5f.jpg",
  "platforms": [],
  "provider_games": [
    {
      "name": "Deconstruction Simulator",
      "slug": "deconstruction-simulator",
      "service": "igdb"
    }
  ],
  "aliases": [],
  "shaders": [],
  "discord_id": "",
  "change_for": null
}