{
  "id": 256154,
  "name": "Helix",
  "slug": "helix--4",
  "year": null,
  "banner_url": "",
  "icon_url": "",
  "coverart": "https://lutris.net/media/igdb/cover_big/co6zrq.jpg",
  "platforms": [],
  "provider_games": [
    {
      "name": "Helix",
      "slug": "helix--4",
      "service": "igdb"
    }
  ],
  "aliases": [],
  "shaders": [],
  "discord_id": "",
  "change_for": null
}