{
  "id": 197964,
  "name": "Play: An Interactive Piece",
  "slug": "play-an-interactive-piece",
  "year": null,
  "banner_url": "",
  "icon_url": "",
  "coverart": "https://lutris.net/media/igdb/cover_big/co4jgw.jpg",
  "platforms": [],
  "provider_games": [
    {
      "name": "Play: An Interactive Piece",
      "slug": "play-an-interactive-piece",
      "service": "igdb"
    }
  ],
  "aliases": [],
  "shaders": [],
  "discord_id": "",
  "change_for": null
}