{
  "id": 291410,
  "name": "Cubiti Dash 'n' Dodge",
  "slug": "cubiti-dash-n-dodge",
  "year": null,
  "banner_url": "",
  "icon_url": "",
  "coverart": null,
  "platforms": [],
  "provider_games": [
    {
      "name": "Cubiti Dash 'n' Dodge",
      "slug": "cubiti-dash-n-dodge",
      "service": "igdb"
    }
  ],
  "aliases": [],
  "shaders": [],
  "discord_id": "",
  "change_for": null
}