{
  "id": 244135,
  "name": "Food Truck Tycoon: Co-op Edition",
  "slug": "food-truck-tycoon-co-op-edition",
  "year": 2023,
  "banner_url": "",
  "icon_url": "",
  "coverart": "https://lutris.net/media/igdb/cover_big/co6rze.jpg",
  "platforms": [
    {
      "name": "Nintendo Switch"
    }
  ],
  "provider_games": [
    {
      "name": "Food Truck Tycoon: Co-op Edition",
      "slug": "food-truck-tycoon-co-op-edition",
      "service": "igdb"
    }
  ],
  "aliases": [],
  "shaders": [],
  "discord_id": "",
  "change_for": null
}