{
  "id": 17156,
  "name": "Hellmut: The Badass from Hell",
  "slug": "hellmut-the-badass-from-hell",
  "year": 2018,
  "banner_url": "https://lutris.net/games/banner/hellmut-the-badass-from-hell.jpg",
  "icon_url": "https://lutris.net/games/icon/hellmut-the-badass-from-hell.png",
  "coverart": "https://lutris.net/media/igdb/cover_big/co1l1u.jpg",
  "platforms": [
    {
      "name": "Nintendo Switch"
    },
    {
      "name": "Sony Playstation 4"
    },
    {
      "name": "Windows"
    },
    {
      "name": "Xbox One"
    }
  ],
  "provider_games": [
    {
      "name": "Hellmut: The Badass from Hell",
      "slug": "1991525900",
      "service": "gog"
    },
    {
      "name": "Hellmut: The Badass from Hell",
      "slug": "705620",
      "service": "steam"
    },
    {
      "name": "Hellmut: The Badass from Hell",
      "slug": "hellmut-the-badass-from-hell",
      "service": "igdb"
    }
  ],
  "aliases": [],
  "shaders": [],
  "discord_id": "",
  "change_for": null
}