{
  "id": 139789,
  "name": "Wing of Alnam: Shouchiri No Sora No Achira He",
  "slug": "wing-of-alnam-shouchiri-no-sora-no-achira-he",
  "year": 1997,
  "banner_url": "",
  "icon_url": "",
  "coverart": "https://lutris.net/media/igdb/cover_big/co3s4b.jpg",
  "platforms": [
    {
      "name": "Sony PlayStation"
    }
  ],
  "provider_games": [
    {
      "name": "Wing of Alnam: Shouchiri no Sora no Achira he",
      "slug": "wing-of-alnam-shouchiri-no-sora-no-achira-he",
      "service": "igdb"
    }
  ],
  "aliases": [],
  "shaders": [],
  "discord_id": "",
  "change_for": null
}