{
  "id": 51444,
  "name": "Fantasyche: Mike",
  "slug": "fantasyche-mike",
  "year": null,
  "banner_url": "",
  "icon_url": "",
  "coverart": null,
  "platforms": [],
  "provider_games": [
    {
      "name": "Fantasyche: Mike",
      "slug": "fantasyche-mike",
      "service": "igdb"
    }
  ],
  "aliases": [],
  "shaders": [],
  "discord_id": "",
  "change_for": null
}