{
  "id": 154346,
  "name": "Retro Classix: Two Crude",
  "slug": "retro-classix-two-crude",
  "year": 2021,
  "banner_url": "https://lutris.net/games/banner/retro-classix-two-crude.jpg",
  "icon_url": "",
  "coverart": "https://lutris.net/media/igdb/cover_big/co3wwr.jpg",
  "platforms": [
    {
      "name": "Windows"
    }
  ],
  "provider_games": [
    {
      "name": "Retro Classix: Two Crude",
      "slug": "retro-classix-two-crude",
      "service": "igdb"
    },
    {
      "name": "Retro Classix: Two Crude",
      "slug": "1540450",
      "service": "steam"
    },
    {
      "name": "Retro Classix: Two Crude",
      "slug": "1368331738",
      "service": "gog"
    }
  ],
  "aliases": [],
  "shaders": [],
  "discord_id": "",
  "change_for": null
}