{
  "id": 293074,
  "name": "Penguin Panic!",
  "slug": "penguin-panic--1",
  "year": null,
  "banner_url": "",
  "icon_url": "",
  "coverart": "https://lutris.net/media/igdb/cover_big/co8lx1.jpg",
  "platforms": [],
  "provider_games": [
    {
      "name": "Penguin Panic!",
      "slug": "penguin-panic--1",
      "service": "igdb"
    }
  ],
  "aliases": [],
  "shaders": [],
  "discord_id": "",
  "change_for": null
}