{
  "id": 246313,
  "name": "Crazy Lakitu DX",
  "slug": "crazy-lakitu-dx",
  "year": 2012,
  "banner_url": "",
  "icon_url": "",
  "coverart": null,
  "platforms": [
    {
      "name": "Windows"
    }
  ],
  "provider_games": [
    {
      "name": "Crazy Lakitu DX",
      "slug": "crazy-lakitu-dx",
      "service": "igdb"
    }
  ],
  "aliases": [],
  "shaders": [],
  "discord_id": "",
  "change_for": null
}