{
  "id": 83493,
  "name": "Nanako Descends To Hell",
  "slug": "nanako-descends-to-hell",
  "year": null,
  "banner_url": "",
  "icon_url": "",
  "coverart": "https://lutris.net/media/igdb/cover_big/co87zr.jpg",
  "platforms": [],
  "provider_games": [
    {
      "name": "Nanako Descends to Hell",
      "slug": "nanako-descends-to-hell",
      "service": "igdb"
    }
  ],
  "aliases": [],
  "shaders": [],
  "discord_id": "",
  "change_for": null
}