{
  "id": 177793,
  "name": "Sega Ages 2500 Vol. 24: Last Bronx -Tokyo Bangaichi-",
  "slug": "sega-ages-2500-vol-24-last-bronx-tokyo-bangaichi",
  "year": 2006,
  "banner_url": "",
  "icon_url": "",
  "coverart": "https://lutris.net/media/igdb/cover_big/co48th.jpg",
  "platforms": [
    {
      "name": "Sony PlayStation 2"
    }
  ],
  "provider_games": [
    {
      "name": "Sega Ages 2500 Vol. 24: Last Bronx - Tokyo Bangaichi",
      "slug": "sega-ages-2500-vol-24-last-bronx-tokyo-bangaichi",
      "service": "igdb"
    }
  ],
  "aliases": [],
  "shaders": [],
  "discord_id": "",
  "change_for": null
}