{
  "id": 144867,
  "name": "Henry Stickmin: Completing the Mission",
  "slug": "henry-stickmin-completing-the-mission",
  "year": 2020,
  "banner_url": "",
  "icon_url": "",
  "coverart": "https://lutris.net/media/igdb/cover_big/co3v58.jpg",
  "platforms": [
    {
      "name": "Mac"
    },
    {
      "name": "Windows"
    }
  ],
  "provider_games": [
    {
      "name": "Henry Stickmin: Completing the Mission",
      "slug": "henry-stickmin-completing-the-mission",
      "service": "igdb"
    }
  ],
  "aliases": [],
  "shaders": [],
  "discord_id": "",
  "change_for": null
}