{
  "id": 122720,
  "name": "Voxel Scavenger",
  "slug": "voxel-scavenger",
  "year": 2019,
  "banner_url": "",
  "icon_url": "",
  "coverart": "https://lutris.net/media/igdb/cover_big/co269x.jpg",
  "platforms": [
    {
      "name": "Windows"
    }
  ],
  "provider_games": [
    {
      "name": "Voxel Scavenger",
      "slug": "voxel-scavenger",
      "service": "igdb"
    }
  ],
  "aliases": [],
  "shaders": [],
  "discord_id": "",
  "change_for": null
}