{
  "id": 184162,
  "name": "Does Money Grow on Trees",
  "slug": "does-money-grow-on-trees",
  "year": null,
  "banner_url": "",
  "icon_url": "",
  "coverart": null,
  "platforms": [],
  "provider_games": [
    {
      "name": "Does Money Grow on Trees",
      "slug": "does-money-grow-on-trees",
      "service": "igdb"
    }
  ],
  "aliases": [],
  "shaders": [],
  "discord_id": "",
  "change_for": null
}