{
  "id": 38878,
  "name": "Thou Shalt Be Brave",
  "slug": "thou-shalt-be-brave",
  "year": 2016,
  "banner_url": "https://lutris.net/games/banner/thou-shalt-be-brave.jpg",
  "icon_url": "",
  "coverart": "https://lutris.net/media/igdb/cover_big/co29g2.jpg",
  "platforms": [
    {
      "name": "Linux"
    },
    {
      "name": "Mac"
    },
    {
      "name": "Windows"
    }
  ],
  "provider_games": [
    {
      "name": "Thou Shalt Be Brave",
      "slug": "thou-shalt-be-brave",
      "service": "igdb"
    }
  ],
  "aliases": [],
  "shaders": [],
  "discord_id": "",
  "change_for": null
}