{
  "id": 279037,
  "name": "Find Him",
  "slug": "find-him",
  "year": null,
  "banner_url": "",
  "icon_url": "",
  "coverart": "https://lutris.net/media/igdb/cover_big/co7xmv.jpg",
  "platforms": [],
  "provider_games": [
    {
      "name": "Find Him",
      "slug": "find-him",
      "service": "igdb"
    }
  ],
  "aliases": [],
  "shaders": [],
  "discord_id": "",
  "change_for": null
}