{
  "id": 60229,
  "name": "Trisector",
  "slug": "trisector",
  "year": null,
  "banner_url": "",
  "icon_url": "",
  "coverart": "https://lutris.net/media/igdb/cover_big/a68307dhpgvgc9z5kmrd.jpg",
  "platforms": [],
  "provider_games": [
    {
      "name": "Trisector",
      "slug": "trisector",
      "service": "igdb"
    }
  ],
  "aliases": [],
  "shaders": [],
  "discord_id": "",
  "change_for": null
}