{
  "id": 18436,
  "name": "From Village to Empire",
  "slug": "from-village-to-empire",
  "year": 2018,
  "banner_url": "https://lutris.net/games/banner/from-village-to-empire.jpg",
  "icon_url": "",
  "coverart": "https://lutris.net/media/igdb/cover_big/co3zzl.jpg",
  "platforms": [
    {
      "name": "Linux"
    },
    {
      "name": "Windows"
    }
  ],
  "provider_games": [
    {
      "name": "From Village to Empire",
      "slug": "791400",
      "service": "steam"
    },
    {
      "name": "From Village to Empire",
      "slug": "from-village-to-empire",
      "service": "igdb"
    }
  ],
  "aliases": [],
  "shaders": [],
  "discord_id": "",
  "change_for": null
}