{
  "id": 194884,
  "name": "Call of Duty: Modern Warfare II",
  "slug": "call-of-duty-modern-warfare-ii",
  "year": 2022,
  "banner_url": "https://lutris.net/games/banner/call-of-duty-modern-warfare-ii.jpg",
  "icon_url": "",
  "coverart": "https://lutris.net/media/igdb/cover_big/co4q4c.jpg",
  "platforms": [
    {
      "name": "Sony PlayStation 5"
    },
    {
      "name": "Windows"
    },
    {
      "name": "Xbox Series X|S"
    }
  ],
  "provider_games": [
    {
      "name": "Call of Duty: Modern Warfare II",
      "slug": "call-of-duty-modern-warfare-ii",
      "service": "igdb"
    },
    {
      "name": "Call of Duty®",
      "slug": "1938090",
      "service": "steam"
    }
  ],
  "aliases": [],
  "shaders": [],
  "discord_id": "",
  "change_for": null
}