{
  "id": 307682,
  "name": "Total War: PHARAOH DYNASTIES",
  "slug": "total-war-pharaoh-dynasties",
  "year": null,
  "banner_url": "https://lutris.net/games/banner/total-war-pharaoh-dynasties.jpg",
  "icon_url": "https://lutris.net/games/icon/total-war-pharaoh-dynasties.png",
  "coverart": null,
  "platforms": [],
  "provider_games": [],
  "aliases": [],
  "shaders": [],
  "discord_id": "",
  "change_for": null
}