{
  "id": 283681,
  "name": "Mortal Kombat II",
  "slug": "mortal-kombat-ii--5",
  "year": 1994,
  "banner_url": "",
  "icon_url": "",
  "coverart": "https://lutris.net/media/igdb/cover_big/co84o0.jpg",
  "platforms": [
    {
      "name": "Family Computer"
    }
  ],
  "provider_games": [
    {
      "name": "Mortal Kombat II",
      "slug": "mortal-kombat-ii--5",
      "service": "igdb"
    }
  ],
  "aliases": [],
  "shaders": [],
  "discord_id": "",
  "change_for": null
}