{
  "id": 218755,
  "name": "Ashkeep",
  "slug": "ashkeep",
  "year": null,
  "banner_url": "",
  "icon_url": "",
  "coverart": "https://lutris.net/media/igdb/cover_big/co585a.jpg",
  "platforms": [],
  "provider_games": [
    {
      "name": "Ashkeep",
      "slug": "ashkeep",
      "service": "igdb"
    }
  ],
  "aliases": [],
  "shaders": [],
  "discord_id": "",
  "change_for": null
}