{
  "id": 51308,
  "name": "Formula One 99",
  "slug": "formula-one-99",
  "year": 1999,
  "banner_url": "https://lutris.net/games/banner/formula-one-99.jpg",
  "icon_url": "",
  "coverart": "https://lutris.net/media/igdb/cover_big/lowfslrzgrrra3hebri4.jpg",
  "platforms": [
    {
      "name": "Sony PlayStation"
    },
    {
      "name": "Windows"
    }
  ],
  "provider_games": [
    {
      "name": "Formula One 99",
      "slug": "formula-one-99",
      "service": "igdb"
    }
  ],
  "aliases": [],
  "shaders": [],
  "discord_id": "",
  "change_for": null
}