{
  "id": 22751,
  "name": "Zombie Murder",
  "slug": "zombie-murder",
  "year": null,
  "banner_url": "https://lutris.net/games/banner/zombie-murder.jpg",
  "icon_url": "https://lutris.net/games/icon/zombie-murder.png",
  "coverart": null,
  "platforms": [],
  "provider_games": [
    {
      "name": "Zombie Murder",
      "slug": "810680",
      "service": "steam"
    },
    {
      "name": "Zombie Murder",
      "slug": "zombie-murder",
      "service": "igdb"
    }
  ],
  "aliases": [],
  "shaders": [],
  "discord_id": "",
  "change_for": null
}