{
  "id": 1236,
  "name": "The Path - Prologue",
  "slug": "the-path-prologue",
  "year": null,
  "banner_url": "https://lutris.net/games/banner/the-path-prologue.jpg",
  "icon_url": "https://lutris.net/games/icon/the-path-prologue.png",
  "coverart": null,
  "platforms": [],
  "provider_games": [
    {
      "name": "The Path - Prologue",
      "slug": "27040",
      "service": "steam"
    }
  ],
  "aliases": [],
  "shaders": [],
  "discord_id": "",
  "change_for": null
}