{
  "id": 152643,
  "name": "Chess Destroyer",
  "slug": "chess-destroyer",
  "year": null,
  "banner_url": "",
  "icon_url": "",
  "coverart": "https://lutris.net/media/igdb/cover_big/co3n18.jpg",
  "platforms": [],
  "provider_games": [
    {
      "name": "Chess Destroyer",
      "slug": "chess-destroyer",
      "service": "igdb"
    }
  ],
  "aliases": [],
  "shaders": [],
  "discord_id": "",
  "change_for": null
}