{
  "id": 240793,
  "name": "Galapagos: Mendel's Escape",
  "slug": "galapagos-mendels-escape",
  "year": 1997,
  "banner_url": "",
  "icon_url": "",
  "coverart": null,
  "platforms": [
    {
      "name": "Mac"
    },
    {
      "name": "Windows"
    }
  ],
  "provider_games": [
    {
      "name": "Galapagos: Mendel's Escape",
      "slug": "galapagos-mendels-escape",
      "service": "igdb"
    }
  ],
  "aliases": [],
  "shaders": [],
  "discord_id": "",
  "change_for": null
}