{
  "id": 202425,
  "name": "Sillage",
  "slug": "sillage",
  "year": null,
  "banner_url": "",
  "icon_url": "",
  "coverart": "https://lutris.net/media/igdb/cover_big/co4li0.jpg",
  "platforms": [],
  "provider_games": [
    {
      "name": "Sillage",
      "slug": "sillage",
      "service": "igdb"
    }
  ],
  "aliases": [],
  "shaders": [],
  "discord_id": "",
  "change_for": null
}