{
  "id": 36214,
  "name": "Trivial Pursuit",
  "slug": "trivial-pursuit-2",
  "year": 1996,
  "banner_url": "",
  "icon_url": "https://lutris.net/games/icon/trivial-pursuit-2.png",
  "coverart": null,
  "platforms": [
    {
      "name": "Arcade"
    }
  ],
  "provider_games": [
    {
      "name": "Trivial Pursuit",
      "slug": "trivialp",
      "service": "mame"
    }
  ],
  "aliases": [],
  "shaders": [],
  "discord_id": "",
  "change_for": null
}