{
  "id": 27391,
  "game_id": 10544,
  "game_slug": "the-house-in-fata-morgana",
  "name": "The House in Fata Morgana",
  "year": 2016,
  "user": "prrg",
  "runner": "steam",
  "slug": "the-house-in-fata-morgana-steam-proton",
  "version": "Steam (Proton)",
  "description": "Runs the game through native Steam using Proton.",
  "notes": "",
  "credits": "",
  "created_at": "2021-04-11T22:23:37.484306Z",
  "updated_at": "2021-12-13T19:18:33.279146Z",
  "draft": false,
  "published": true,
  "published_by": null,
  "rating": "",
  "is_playable": null,
  "steamid": 303310,
  "gogid": 1469088725,
  "gogslug": "the_house_in_fata_morgana",
  "humbleid": "",
  "humblestoreid": "",
  "humblestoreid_real": "",
  "script": {
    "game": {
      "appid": 303310
    }
  },
  "content": "game:\n  appid: 303310\n",
  "discord_id": ""
}