{
  "id": 265576,
  "name": "Our Life on Water",
  "slug": "our-life-on-water",
  "year": null,
  "banner_url": "",
  "icon_url": "",
  "coverart": "https://lutris.net/media/igdb/cover_big/co7cwq.jpg",
  "platforms": [],
  "provider_games": [
    {
      "name": "Our Life on Water",
      "slug": "our-life-on-water",
      "service": "igdb"
    }
  ],
  "aliases": [],
  "shaders": [],
  "discord_id": "",
  "change_for": null
}