{
  "id": 286619,
  "name": "Vribyss Refuge The Escape",
  "slug": "vribyss-refuge-the-escape",
  "year": null,
  "banner_url": "",
  "icon_url": "",
  "coverart": "https://lutris.net/media/igdb/cover_big/co8a9c.jpg",
  "platforms": [],
  "provider_games": [
    {
      "name": "Vribyss Refuge The Escape",
      "slug": "vribyss-refuge-the-escape",
      "service": "igdb"
    }
  ],
  "aliases": [],
  "shaders": [],
  "discord_id": "",
  "change_for": null
}