{
  "id": 128248,
  "name": "Titanic: Challenge of Discovery",
  "slug": "titanic-challenge-of-discovery",
  "year": 1998,
  "banner_url": "",
  "icon_url": "",
  "coverart": "https://lutris.net/media/igdb/cover_big/w8o7crdeaxlytmmtwaph.jpg",
  "platforms": [
    {
      "name": "Windows"
    }
  ],
  "provider_games": [
    {
      "name": "Titanic: Challenge of Discovery",
      "slug": "titanic-challenge-of-discovery",
      "service": "igdb"
    }
  ],
  "aliases": [],
  "shaders": [],
  "discord_id": "",
  "change_for": null
}