{
  "id": 286827,
  "name": "Honor Battle",
  "slug": "honor-battle",
  "year": null,
  "banner_url": "",
  "icon_url": "",
  "coverart": "https://lutris.net/media/igdb/cover_big/co89xl.jpg",
  "platforms": [],
  "provider_games": [
    {
      "name": "Honor Battle",
      "slug": "honor-battle",
      "service": "igdb"
    }
  ],
  "aliases": [],
  "shaders": [],
  "discord_id": "",
  "change_for": null
}