{
  "id": 269309,
  "name": "Desert Island in Summer?",
  "slug": "desert-island-in-summer",
  "year": null,
  "banner_url": "",
  "icon_url": "",
  "coverart": "https://lutris.net/media/igdb/cover_big/co7hrh.jpg",
  "platforms": [],
  "provider_games": [
    {
      "name": "Desert Island in Summer?",
      "slug": "desert-island-in-summer",
      "service": "igdb"
    }
  ],
  "aliases": [],
  "shaders": [],
  "discord_id": "",
  "change_for": null
}