{
  "id": 83239,
  "name": "Shin Nippon Pro Wrestling '95: Tokyo Dome Battle",
  "slug": "shin-nippon-pro-wrestling-95-tokyo-dome-battle",
  "year": 1995,
  "banner_url": "",
  "icon_url": "",
  "coverart": null,
  "platforms": [
    {
      "name": "Super Nintendo"
    }
  ],
  "provider_games": [
    {
      "name": "Shin Nippon Pro Wrestling '95: Tokyo Dome Battle",
      "slug": "shin-nippon-pro-wrestling-95-tokyo-dome-battle",
      "service": "igdb"
    }
  ],
  "aliases": [],
  "shaders": [],
  "discord_id": "",
  "change_for": null
}