{
  "id": 170700,
  "name": "Sunset Shapes",
  "slug": "sunset-shapes",
  "year": null,
  "banner_url": "",
  "icon_url": "",
  "coverart": "https://lutris.net/media/igdb/cover_big/co46uo.jpg",
  "platforms": [],
  "provider_games": [
    {
      "name": "Sunset Shapes",
      "slug": "sunset-shapes",
      "service": "igdb"
    }
  ],
  "aliases": [],
  "shaders": [],
  "discord_id": "",
  "change_for": null
}