{
  "id": 287487,
  "name": "Everchained",
  "slug": "everchained",
  "year": null,
  "banner_url": "",
  "icon_url": "",
  "coverart": "https://lutris.net/media/igdb/cover_big/co8b4d.jpg",
  "platforms": [],
  "provider_games": [
    {
      "name": "Everchained",
      "slug": "everchained",
      "service": "igdb"
    }
  ],
  "aliases": [],
  "shaders": [],
  "discord_id": "",
  "change_for": null
}