{
  "id": 249999,
  "name": "Love or Passion",
  "slug": "love-or-passion",
  "year": null,
  "banner_url": "",
  "icon_url": "",
  "coverart": null,
  "platforms": [],
  "provider_games": [
    {
      "name": "Love or Passion",
      "slug": "love-or-passion",
      "service": "igdb"
    }
  ],
  "aliases": [],
  "shaders": [],
  "discord_id": "",
  "change_for": null
}