{
  "id": 116200,
  "name": "California Pro Golf",
  "slug": "california-pro-golf",
  "year": 1989,
  "banner_url": "",
  "icon_url": "",
  "coverart": "https://lutris.net/media/igdb/cover_big/co4k88.jpg",
  "platforms": [
    {
      "name": "Commodore C64/128"
    },
    {
      "name": "Windows"
    }
  ],
  "provider_games": [
    {
      "name": "California Pro Golf",
      "slug": "california-pro-golf",
      "service": "igdb"
    }
  ],
  "aliases": [],
  "shaders": [],
  "discord_id": "",
  "change_for": null
}