{
  "id": 62310,
  "name": "Fighting For One Piece",
  "slug": "fighting-for-one-piece",
  "year": 2005,
  "banner_url": "",
  "icon_url": "",
  "coverart": "https://lutris.net/media/igdb/cover_big/hvuvn6sa4jwra12ci3i2.jpg",
  "platforms": [
    {
      "name": "Sony PlayStation 2"
    }
  ],
  "provider_games": [
    {
      "name": "Fighting For One Piece",
      "slug": "fighting-for-one-piece",
      "service": "igdb"
    }
  ],
  "aliases": [],
  "shaders": [],
  "discord_id": "",
  "change_for": null
}