{
  "id": 246861,
  "name": "Unsheltered",
  "slug": "unsheltered",
  "year": null,
  "banner_url": "",
  "icon_url": "",
  "coverart": "https://lutris.net/media/igdb/cover_big/co6jix.jpg",
  "platforms": [],
  "provider_games": [
    {
      "name": "Unsheltered",
      "slug": "unsheltered",
      "service": "igdb"
    }
  ],
  "aliases": [],
  "shaders": [],
  "discord_id": "",
  "change_for": null
}