{
  "id": 26033,
  "game_id": 41149,
  "game_slug": "trikaya",
  "name": "Trikaya",
  "year": 2021,
  "user": "vanstaveren",
  "runner": "steam",
  "slug": "trikaya-steam",
  "version": "steam",
  "description": null,
  "notes": "",
  "credits": "",
  "created_at": "2021-01-26T00:39:11.328037Z",
  "updated_at": "2021-12-13T19:10:36.161600Z",
  "draft": false,
  "published": true,
  "published_by": null,
  "rating": "",
  "is_playable": null,
  "steamid": null,
  "gogid": null,
  "gogslug": "",
  "humbleid": "",
  "humblestoreid": "",
  "humblestoreid_real": "",
  "script": {
    "game": {
      "appid": 1410870
    }
  },
  "content": "game:\n  appid: 1410870\n",
  "discord_id": ""
}