{
  "id": 294789,
  "name": "De:Lithe Last Memories",
  "slug": "de-lithe-last-memories",
  "year": 2024,
  "banner_url": "",
  "icon_url": "",
  "coverart": "https://lutris.net/media/igdb/cover_big/co8qaq.jpg",
  "platforms": [
    {
      "name": "Android"
    },
    {
      "name": "Windows"
    }
  ],
  "provider_games": [
    {
      "name": "De:Lithe Last Memories",
      "slug": "de-lithe-last-memories",
      "service": "igdb"
    }
  ],
  "aliases": [],
  "shaders": [],
  "discord_id": "",
  "change_for": null
}