{
  "id": 215832,
  "name": "Made Beaver",
  "slug": "made-beaver",
  "year": null,
  "banner_url": "",
  "icon_url": "",
  "coverart": "https://lutris.net/media/igdb/cover_big/co58lq.jpg",
  "platforms": [],
  "provider_games": [
    {
      "name": "Made Beaver",
      "slug": "made-beaver",
      "service": "igdb"
    }
  ],
  "aliases": [],
  "shaders": [],
  "discord_id": "",
  "change_for": null
}