{
  "id": 196254,
  "name": "Monster",
  "slug": "monster--1",
  "year": null,
  "banner_url": "",
  "icon_url": "",
  "coverart": "https://lutris.net/media/igdb/cover_big/co4nnu.jpg",
  "platforms": [],
  "provider_games": [
    {
      "name": "Monster",
      "slug": "monster--1",
      "service": "igdb"
    }
  ],
  "aliases": [],
  "shaders": [],
  "discord_id": "",
  "change_for": null
}