{
  "id": 95110,
  "name": "Lost & Shrunk: Giantess Horror",
  "slug": "lost-and-shrunk-giantess-horror",
  "year": null,
  "banner_url": "",
  "icon_url": "",
  "coverart": "https://lutris.net/media/igdb/cover_big/co71l3.jpg",
  "platforms": [],
  "provider_games": [
    {
      "name": "Lost & Shrunk: Giantess Horror",
      "slug": "lost-and-shrunk-giantess-horror",
      "service": "igdb"
    }
  ],
  "aliases": [],
  "shaders": [],
  "discord_id": "",
  "change_for": null
}