{
  "id": 9820,
  "game_id": 1402,
  "game_slug": "aion",
  "name": "Aion",
  "year": 2009,
  "user": "aakos",
  "runner": "wine",
  "slug": "aion-aion-eu",
  "version": "Aion EU",
  "description": "Aion EU with gameforge launcher.",
  "notes": "",
  "credits": "",
  "created_at": "2018-08-20T12:41:32.313000Z",
  "updated_at": "2021-12-10T02:13:24.508858Z",
  "draft": false,
  "published": true,
  "published_by": 51687,
  "rating": "",
  "is_playable": null,
  "steamid": 29640,
  "gogid": null,
  "gogslug": "",
  "humbleid": "",
  "humblestoreid": "",
  "humblestoreid_real": "",
  "script": {
    "files": [
      {
        "aion": "https://gf1.geo.gfsrv.net/static/aion/client/20180104/20180103_AION_Setup.exe"
      },
      {
        "dx2010": "https://lutris.net/files/tools/directx-2010.tar.gz"
      }
    ],
    "game": {
      "args": "/LauncherID:\"GameForge\" /CompanyID:\"11\" /GameID:\"AION-LIVE\" /LUpdateAddr:\"update.aion.gfsrv.net\"",
      "exe": "$GAMEDIR/drive_c/Program Files (x86)/Gameforge/NCLauncher/NCLauncher.exe",
      "prefix": "$GAMEDIR"
    },
    "installer": [
      {
        "extract": {
          "dst": "$CACHE/dxsetup",
          "file": "dx2010"
        }
      },
      {
        "task": {
          "name": "create_prefix",
          "prefix": "$GAMEDIR"
        }
      },
      {
        "task": {
          "args": "/silent",
          "executable": "$CACHE/dxsetup/DXSETUP.exe",
          "name": "wineexec",
          "prefix": "$GAMEDIR"
        }
      },
      {
        "task": {
          "name": "winekill",
          "prefix": "$GAMEDIR"
        }
      },
      {
        "task": {
          "app": "vcrun2008 vcrun2013 physx corefonts win7",
          "name": "winetricks",
          "prefix": "$GAMEDIR"
        }
      },
      {
        "task": {
          "executable": "aion",
          "name": "wineexec",
          "prefix": "$GAMEDIR"
        }
      }
    ]
  },
  "content": "files:\n- aion: https://gf1.geo.gfsrv.net/static/aion/client/20180104/20180103_AION_Setup.exe\n- dx2010: https://lutris.net/files/tools/directx-2010.tar.gz\ngame:\n  args: /LauncherID:\"GameForge\" /CompanyID:\"11\" /GameID:\"AION-LIVE\" /LUpdateAddr:\"update.aion.gfsrv.net\"\n  exe: $GAMEDIR/drive_c/Program Files (x86)/Gameforge/NCLauncher/NCLauncher.exe\n  prefix: $GAMEDIR\ninstaller:\n- extract:\n    dst: $CACHE/dxsetup\n    file: dx2010\n- task:\n    name: create_prefix\n    prefix: $GAMEDIR\n- task:\n    args: /silent\n    executable: $CACHE/dxsetup/DXSETUP.exe\n    name: wineexec\n    prefix: $GAMEDIR\n- task:\n    name: winekill\n    prefix: $GAMEDIR\n- task:\n    app: vcrun2008 vcrun2013 physx corefonts win7\n    name: winetricks\n    prefix: $GAMEDIR\n- task:\n    executable: aion\n    name: wineexec\n    prefix: $GAMEDIR\n",
  "discord_id": "451543892358201393"
}