{
  "id": 60415,
  "name": "The Jelly Bean Factory",
  "slug": "the-jelly-bean-factory",
  "year": 1993,
  "banner_url": "",
  "icon_url": "",
  "coverart": "https://lutris.net/media/igdb/cover_big/wsmuuk5ieemnanifjby9.jpg",
  "platforms": [],
  "provider_games": [
    {
      "name": "The Jelly Bean Factory",
      "slug": "the-jelly-bean-factory",
      "service": "igdb"
    }
  ],
  "aliases": [],
  "shaders": [],
  "discord_id": "",
  "change_for": null
}