{
  "id": 292138,
  "name": "Herta's Chess Game",
  "slug": "hertas-chess-game",
  "year": null,
  "banner_url": "",
  "icon_url": "",
  "coverart": "https://lutris.net/media/igdb/cover_big/co8jli.jpg",
  "platforms": [],
  "provider_games": [
    {
      "name": "Herta's Chess Game",
      "slug": "hertas-chess-game",
      "service": "igdb"
    }
  ],
  "aliases": [],
  "shaders": [],
  "discord_id": "",
  "change_for": null
}