{
  "id": 197639,
  "name": "Baki: King of Souls",
  "slug": "baki-king-of-souls",
  "year": null,
  "banner_url": "",
  "icon_url": "",
  "coverart": null,
  "platforms": [],
  "provider_games": [
    {
      "name": "Baki: King of Souls",
      "slug": "baki-king-of-souls",
      "service": "igdb"
    }
  ],
  "aliases": [],
  "shaders": [],
  "discord_id": "",
  "change_for": null
}