{
  "id": 21638,
  "name": "Cereal Soup",
  "slug": "cereal-soup",
  "year": 2015,
  "banner_url": "https://lutris.net/games/banner/cereal-soup.jpg",
  "icon_url": "https://lutris.net/games/icon/cereal-soup.png",
  "coverart": "https://lutris.net/media/igdb/cover_big/co3mzh.jpg",
  "platforms": [
    {
      "name": "Windows"
    }
  ],
  "provider_games": [
    {
      "name": "Cereal Soup",
      "slug": "838900",
      "service": "steam"
    },
    {
      "name": "Cereal Soup",
      "slug": "cereal-soup",
      "service": "igdb"
    }
  ],
  "aliases": [],
  "shaders": [],
  "discord_id": "",
  "change_for": null
}