{
  "id": 293282,
  "name": "Burn",
  "slug": "burn--4",
  "year": null,
  "banner_url": "",
  "icon_url": "",
  "coverart": "https://lutris.net/media/igdb/cover_big/co8lhp.jpg",
  "platforms": [],
  "provider_games": [
    {
      "name": "Burn",
      "slug": "burn--4",
      "service": "igdb"
    }
  ],
  "aliases": [],
  "shaders": [],
  "discord_id": "",
  "change_for": null
}