{
  "id": 306050,
  "name": "Heroes Lore: Wind of Soltia",
  "slug": "heroes-lore-wind-of-soltia",
  "year": 2008,
  "banner_url": "",
  "icon_url": "",
  "coverart": "https://lutris.net/media/igdb/cover_big/co93cx.jpg",
  "platforms": [
    {
      "name": "Legacy Cellphone"
    }
  ],
  "provider_games": [
    {
      "name": "Heroes Lore: Wind of Soltia",
      "slug": "heroes-lore-wind-of-soltia",
      "service": "igdb"
    }
  ],
  "aliases": [],
  "shaders": [],
  "discord_id": "",
  "change_for": null
}