{
  "id": 206603,
  "name": "Aiza: New Generation",
  "slug": "aiza-new-generation",
  "year": 1991,
  "banner_url": "",
  "icon_url": "",
  "coverart": "https://lutris.net/media/igdb/cover_big/co5uyk.jpg",
  "platforms": [
    {
      "name": "PC-98"
    }
  ],
  "provider_games": [
    {
      "name": "Aiza: New Generation",
      "slug": "aiza-new-generation",
      "service": "igdb"
    }
  ],
  "aliases": [],
  "shaders": [],
  "discord_id": "",
  "change_for": null
}