{
  "id": 228397,
  "name": "Starswirl Academy",
  "slug": "starswirl-academy",
  "year": null,
  "banner_url": "",
  "icon_url": "",
  "coverart": "https://lutris.net/media/igdb/cover_big/co4u2i.jpg",
  "platforms": [],
  "provider_games": [
    {
      "name": "Starswirl Academy",
      "slug": "starswirl-academy",
      "service": "igdb"
    }
  ],
  "aliases": [],
  "shaders": [],
  "discord_id": "",
  "change_for": null
}