{
  "id": 176412,
  "name": "Inukari - Chase of Deception",
  "slug": "inukari-chase-of-deception",
  "year": 2021,
  "banner_url": "",
  "icon_url": "",
  "coverart": "https://lutris.net/media/igdb/cover_big/co2tpu.jpg",
  "platforms": [
    {
      "name": "Windows"
    }
  ],
  "provider_games": [
    {
      "name": "Inukari: Chase of Deception",
      "slug": "inukari-chase-of-deception",
      "service": "igdb"
    }
  ],
  "aliases": [],
  "shaders": [],
  "discord_id": "",
  "change_for": null
}