{
  "id": 257157,
  "name": "Virago: Reality New",
  "slug": "virago-reality-new",
  "year": null,
  "banner_url": "",
  "icon_url": "",
  "coverart": "https://lutris.net/media/igdb/cover_big/co70ui.jpg",
  "platforms": [],
  "provider_games": [
    {
      "name": "Virago: Reality New",
      "slug": "virago-reality-new",
      "service": "igdb"
    }
  ],
  "aliases": [],
  "shaders": [],
  "discord_id": "",
  "change_for": null
}