{
  "id": 266863,
  "name": "Dirty House",
  "slug": "dirty-house",
  "year": null,
  "banner_url": "",
  "icon_url": "",
  "coverart": "https://lutris.net/media/igdb/cover_big/co7ezb.jpg",
  "platforms": [],
  "provider_games": [
    {
      "name": "Dirty House",
      "slug": "dirty-house",
      "service": "igdb"
    }
  ],
  "aliases": [],
  "shaders": [],
  "discord_id": "",
  "change_for": null
}