{
  "id": 68909,
  "name": "Time Zone Pinball",
  "slug": "time-zone-pinball",
  "year": null,
  "banner_url": "",
  "icon_url": "",
  "coverart": null,
  "platforms": [],
  "provider_games": [
    {
      "name": "Time Zone Pinball",
      "slug": "time-zone-pinball",
      "service": "igdb"
    }
  ],
  "aliases": [],
  "shaders": [],
  "discord_id": "",
  "change_for": null
}