{
  "id": 37083,
  "name": "Happy Song Prototype",
  "slug": "happy-song-prototype",
  "year": null,
  "banner_url": "",
  "icon_url": "",
  "coverart": null,
  "platforms": [
    {
      "name": "Windows"
    }
  ],
  "provider_games": [
    {
      "name": "Happy Song Prototype",
      "slug": "happysong_prototype",
      "service": "humblebundle"
    }
  ],
  "aliases": [],
  "shaders": [],
  "discord_id": "",
  "change_for": null
}