{
  "id": 262377,
  "name": "FeatherCall",
  "slug": "feathercall",
  "year": null,
  "banner_url": "",
  "icon_url": "",
  "coverart": "https://lutris.net/media/igdb/cover_big/co78e7.jpg",
  "platforms": [],
  "provider_games": [
    {
      "name": "FeatherCall",
      "slug": "feathercall",
      "service": "igdb"
    }
  ],
  "aliases": [],
  "shaders": [],
  "discord_id": "",
  "change_for": null
}