{
  "id": 299381,
  "name": "Basketball Legends 24",
  "slug": "basketball-legends-24",
  "year": null,
  "banner_url": "",
  "icon_url": "",
  "coverart": "https://lutris.net/media/igdb/cover_big/co8z9y.jpg",
  "platforms": [],
  "provider_games": [
    {
      "name": "Basketball Legends 24",
      "slug": "basketball-legends-24",
      "service": "igdb"
    }
  ],
  "aliases": [],
  "shaders": [],
  "discord_id": "",
  "change_for": null
}