{
  "id": 150311,
  "name": "Lock Her Up: The Trump Supremacy",
  "slug": "lock-her-up-the-trump-supremacy",
  "year": null,
  "banner_url": "",
  "icon_url": "",
  "coverart": null,
  "platforms": [],
  "provider_games": [
    {
      "name": "Lock Her Up: The Trump Supremacy",
      "slug": "lock-her-up-the-trump-supremacy",
      "service": "igdb"
    }
  ],
  "aliases": [],
  "shaders": [],
  "discord_id": "",
  "change_for": null
}