{
  "id": 6467,
  "name": "Stacks TNT",
  "slug": "stacks-tnt",
  "year": 2019,
  "banner_url": "https://lutris.net/games/banner/stacks-tnt.jpg",
  "icon_url": "https://lutris.net/games/icon/stacks-tnt.png",
  "coverart": "https://lutris.net/media/igdb/cover_big/co86k5.jpg",
  "platforms": [
    {
      "name": "Windows"
    }
  ],
  "provider_games": [
    {
      "name": "Stacks TNT",
      "slug": "403840",
      "service": "steam"
    },
    {
      "name": "Stacks TNT",
      "slug": "stacks-tnt",
      "service": "igdb"
    }
  ],
  "aliases": [],
  "shaders": [],
  "discord_id": "",
  "change_for": null
}