{
  "id": 49201,
  "name": "Ziggurat",
  "slug": "ziggurat--2",
  "year": 2012,
  "banner_url": "",
  "icon_url": "",
  "coverart": "https://lutris.net/media/igdb/cover_big/jfz7h6qeacdyxqtlljyx.jpg",
  "platforms": [],
  "provider_games": [
    {
      "name": "Ziggurat",
      "slug": "ziggurat--2",
      "service": "igdb"
    }
  ],
  "aliases": [],
  "shaders": [],
  "discord_id": "",
  "change_for": null
}