{
  "id": 35057,
  "name": "US AAF Mustang",
  "slug": "us-aaf-mustang",
  "year": 1990,
  "banner_url": "https://lutris.net/games/banner/us-aaf-mustang.jpg",
  "icon_url": "https://lutris.net/games/icon/us-aaf-mustang.png",
  "coverart": null,
  "platforms": [
    {
      "name": "Arcade"
    }
  ],
  "provider_games": [
    {
      "name": "US AAF Mustang",
      "slug": "mustang",
      "service": "mame"
    },
    {
      "name": "US AAF Mustang",
      "slug": "us-aaf-mustang",
      "service": "igdb"
    }
  ],
  "aliases": [],
  "shaders": [],
  "discord_id": "",
  "change_for": null
}