{
  "id": 88372,
  "name": "Eagle Simulator",
  "slug": "eagle-simulator",
  "year": 2014,
  "banner_url": "",
  "icon_url": "",
  "coverart": "https://lutris.net/media/igdb/cover_big/hy2ptginu0emr5tmldlh.jpg",
  "platforms": [
    {
      "name": "Mac"
    }
  ],
  "provider_games": [
    {
      "name": "Eagle Simulator",
      "slug": "eagle-simulator",
      "service": "igdb"
    }
  ],
  "aliases": [],
  "shaders": [],
  "discord_id": "",
  "change_for": null
}