{
  "id": 48066,
  "name": "Megido 72",
  "slug": "megido-72",
  "year": null,
  "banner_url": "",
  "icon_url": "",
  "coverart": "https://lutris.net/media/igdb/cover_big/co848v.jpg",
  "platforms": [],
  "provider_games": [
    {
      "name": "Megido 72",
      "slug": "megido-72",
      "service": "igdb"
    }
  ],
  "aliases": [],
  "shaders": [],
  "discord_id": "",
  "change_for": null
}