{
  "id": 9833,
  "game_id": 21146,
  "game_slug": "jumpai",
  "name": "Jumpaï",
  "year": 2018,
  "user": "cxf",
  "runner": "linux",
  "slug": "jumpai-042-64-bit",
  "version": "0.4.2 64-bit",
  "description": null,
  "notes": "Download <b>Jumpaï 0.4.2 for Linux 64 bit</b> from icth.io first: <a href=\"https://beartrapstudio.itch.io/jumpai\">https://beartrapstudio.itch.io/jumpai</a>",
  "credits": "",
  "created_at": "2018-08-21T06:37:56.977000Z",
  "updated_at": "2019-01-15T09:55:56.203133Z",
  "draft": false,
  "published": true,
  "published_by": 19464,
  "rating": "",
  "is_playable": null,
  "steamid": null,
  "gogid": null,
  "gogslug": "",
  "humbleid": "",
  "humblestoreid": "",
  "humblestoreid_real": "",
  "script": {
    "files": [
      {
        "itchio": "N/A:Select the Jumpai tar.gz file"
      }
    ],
    "game": {
      "args": "-jar Jumpai.jar",
      "exe": "jre/bin/java",
      "working_dir": "$GAMEDIR"
    },
    "installer": [
      {
        "extract": {
          "dst": "$GAMEDIR",
          "file": "itchio"
        }
      }
    ]
  },
  "content": "files:\n- itchio: N/A:Select the Jumpai tar.gz file\ngame:\n  args: -jar Jumpai.jar\n  exe: jre/bin/java\n  working_dir: $GAMEDIR\ninstaller:\n- extract:\n    dst: $GAMEDIR\n    file: itchio\n",
  "discord_id": ""
}