{
  "id": 27432,
  "game_id": 42065,
  "game_slug": "thibalryn",
  "name": "Thibalryn",
  "year": 2019,
  "user": "vanstaveren",
  "runner": "steam",
  "slug": "thibalryn-steam",
  "version": "steam",
  "description": null,
  "notes": "",
  "credits": "",
  "created_at": "2021-04-15T17:04:57.501663Z",
  "updated_at": "2021-12-13T19:10:35.001752Z",
  "draft": false,
  "published": true,
  "published_by": null,
  "rating": "",
  "is_playable": null,
  "steamid": null,
  "gogid": null,
  "gogslug": "",
  "humbleid": "",
  "humblestoreid": "",
  "humblestoreid_real": "",
  "script": {
    "game": {
      "appid": 926450
    }
  },
  "content": "game:\n  appid: 926450\n",
  "discord_id": ""
}