{
  "id": 23166,
  "name": "Brigador: Up-Armored Edition",
  "slug": "brigador-up-armored-edition",
  "year": 2016,
  "banner_url": "https://lutris.net/games/banner/brigador-up-armored-edition.jpg",
  "icon_url": "",
  "coverart": "https://lutris.net/media/igdb/cover_big/co3cpn.jpg",
  "platforms": [
    {
      "name": "Linux"
    },
    {
      "name": "Mac"
    },
    {
      "name": "Windows"
    }
  ],
  "provider_games": [
    {
      "name": "Brigador: Up-Armored Edition",
      "slug": "1356485086",
      "service": "gog"
    },
    {
      "name": "Brigador: Up-Armored Edition",
      "slug": "brigador-up-armored-edition",
      "service": "igdb"
    }
  ],
  "aliases": [],
  "shaders": [],
  "discord_id": "",
  "change_for": null
}