{
  "id": 46632,
  "name": "The Speaker",
  "slug": "the-speaker",
  "year": null,
  "banner_url": "",
  "icon_url": "",
  "coverart": "https://lutris.net/media/igdb/cover_big/ervl4ztwvnnrnmldlz4f.jpg",
  "platforms": [],
  "provider_games": [
    {
      "name": "The Speaker",
      "slug": "the-speaker",
      "service": "igdb"
    }
  ],
  "aliases": [],
  "shaders": [],
  "discord_id": "",
  "change_for": null
}