{
  "id": 254753,
  "name": "Harvest on Jupiter",
  "slug": "harvest-on-jupiter",
  "year": null,
  "banner_url": "",
  "icon_url": "",
  "coverart": null,
  "platforms": [],
  "provider_games": [
    {
      "name": "Harvest on Jupiter",
      "slug": "harvest-on-jupiter",
      "service": "igdb"
    }
  ],
  "aliases": [],
  "shaders": [],
  "discord_id": "",
  "change_for": null
}