{
  "id": 166378,
  "name": "Suzumiya Haruhi no Gekido",
  "slug": "suzumiya-haruhi-no-gekido",
  "year": 2009,
  "banner_url": "",
  "icon_url": "",
  "coverart": "https://lutris.net/media/igdb/cover_big/mca8x5ys1lzopo3ythxr.jpg",
  "platforms": [
    {
      "name": "Nintendo Wii"
    }
  ],
  "provider_games": [
    {
      "name": "Suzumiya Haruhi no Gekido",
      "slug": "suzumiya-haruhi-no-gekido",
      "service": "igdb"
    }
  ],
  "aliases": [],
  "shaders": [],
  "discord_id": "",
  "change_for": null
}