{
  "id": 61946,
  "name": "Strata Scavenger",
  "slug": "strata-scavenger",
  "year": null,
  "banner_url": "",
  "icon_url": "",
  "coverart": "https://lutris.net/media/igdb/cover_big/yselt6h3m3s5h7raaovr.jpg",
  "platforms": [],
  "provider_games": [
    {
      "name": "Strata Scavenger",
      "slug": "strata-scavenger",
      "service": "igdb"
    }
  ],
  "aliases": [],
  "shaders": [],
  "discord_id": "",
  "change_for": null
}