{
  "id": 305909,
  "name": "Siren Head: The Hunt Continues",
  "slug": "siren-head-the-hunt-continues",
  "year": 2020,
  "banner_url": "",
  "icon_url": "",
  "coverart": "https://lutris.net/media/igdb/cover_big/co97ie.jpg",
  "platforms": [
    {
      "name": "Android"
    },
    {
      "name": "Windows"
    }
  ],
  "provider_games": [
    {
      "name": "Siren Head: The Hunt Continues",
      "slug": "siren-head-the-hunt-continues",
      "service": "igdb"
    }
  ],
  "aliases": [],
  "shaders": [],
  "discord_id": "",
  "change_for": null
}