{
  "id": 295236,
  "name": "High Speed Race: Need for Asphalt Racing",
  "slug": "high-speed-race-need-for-asphalt-racing--1",
  "year": 2014,
  "banner_url": "",
  "icon_url": "",
  "coverart": null,
  "platforms": [
    {
      "name": "Android"
    }
  ],
  "provider_games": [
    {
      "name": "High Speed Race: Need for Asphalt Racing",
      "slug": "high-speed-race-need-for-asphalt-racing--1",
      "service": "igdb"
    }
  ],
  "aliases": [],
  "shaders": [],
  "discord_id": "",
  "change_for": null
}