{
  "id": 268478,
  "name": "OG Memory: Kira Maus",
  "slug": "og-memory-kira-maus",
  "year": null,
  "banner_url": "",
  "icon_url": "",
  "coverart": "https://lutris.net/media/igdb/cover_big/co7h1o.jpg",
  "platforms": [],
  "provider_games": [
    {
      "name": "OG Memory: Kira Maus",
      "slug": "og-memory-kira-maus",
      "service": "igdb"
    }
  ],
  "aliases": [],
  "shaders": [],
  "discord_id": "",
  "change_for": null
}