{
  "id": 196393,
  "name": "Hard Ball Wikie",
  "slug": "hard-ball-wikie",
  "year": null,
  "banner_url": "",
  "icon_url": "",
  "coverart": "https://lutris.net/media/igdb/cover_big/co4nbd.jpg",
  "platforms": [],
  "provider_games": [
    {
      "name": "Hard Ball Wikie",
      "slug": "hard-ball-wikie",
      "service": "igdb"
    }
  ],
  "aliases": [],
  "shaders": [],
  "discord_id": "",
  "change_for": null
}