{
  "id": 293117,
  "name": "Lots of Cats in Every Moment",
  "slug": "lots-of-cats-in-every-moment",
  "year": 2024,
  "banner_url": "",
  "icon_url": "",
  "coverart": "https://lutris.net/media/igdb/cover_big/co8lxi.jpg",
  "platforms": [
    {
      "name": "Mac"
    },
    {
      "name": "Windows"
    }
  ],
  "provider_games": [
    {
      "name": "Lots of Cats in Every Moment",
      "slug": "lots-of-cats-in-every-moment",
      "service": "igdb"
    }
  ],
  "aliases": [],
  "shaders": [],
  "discord_id": "",
  "change_for": null
}