{
  "id": 39839,
  "name": "FIFA Street",
  "slug": "fifa-street",
  "year": 2005,
  "banner_url": "https://lutris.net/games/banner/fifa-street.jpg",
  "icon_url": "",
  "coverart": "https://lutris.net/media/igdb/cover_big/co20b8.jpg",
  "platforms": [
    {
      "name": "GameCube"
    },
    {
      "name": "Nintendo GameCube"
    },
    {
      "name": "Sony PlayStation 2"
    },
    {
      "name": "Sony Playstation 3"
    }
  ],
  "provider_games": [
    {
      "name": "FIFA Street",
      "slug": "fifa-street",
      "service": "igdb"
    }
  ],
  "aliases": [],
  "shaders": [],
  "discord_id": "",
  "change_for": null
}