{
  "id": 216646,
  "name": "Zombie Poly",
  "slug": "zombie-poly",
  "year": null,
  "banner_url": "",
  "icon_url": "",
  "coverart": null,
  "platforms": [],
  "provider_games": [
    {
      "name": "Zombie Poly",
      "slug": "zombie-poly",
      "service": "igdb"
    }
  ],
  "aliases": [],
  "shaders": [],
  "discord_id": "",
  "change_for": null
}