{
  "id": 117874,
  "name": "Carly and the Reaperman: Escape from the Underworld",
  "slug": "carly-and-the-reaperman-escape-from-the-underworld",
  "year": 2018,
  "banner_url": "",
  "icon_url": "",
  "coverart": "https://lutris.net/media/igdb/cover_big/co20e5.jpg",
  "platforms": [
    {
      "name": "PlayStation VR"
    },
    {
      "name": "SteamVR"
    },
    {
      "name": "Windows"
    }
  ],
  "provider_games": [
    {
      "name": "Carly and the Reaperman: Escape from the Underworld",
      "slug": "carly-and-the-reaperman-escape-from-the-underworld",
      "service": "igdb"
    }
  ],
  "aliases": [],
  "shaders": [],
  "discord_id": "",
  "change_for": null
}