{
  "id": 167166,
  "name": "The Ghost of Joe Papp: 101 Ways To Kill Writer's Block",
  "slug": "the-ghost-of-joe-papp-101-ways-to-kill-writers-block",
  "year": null,
  "banner_url": "",
  "icon_url": "",
  "coverart": "https://lutris.net/media/igdb/cover_big/co43t2.jpg",
  "platforms": [],
  "provider_games": [
    {
      "name": "The Ghost of Joe Papp: 101 Ways to Kill Writer's Block",
      "slug": "the-ghost-of-joe-papp-101-ways-to-kill-writers-block",
      "service": "igdb"
    }
  ],
  "aliases": [],
  "shaders": [],
  "discord_id": "",
  "change_for": null
}