{
  "id": 65357,
  "name": "Sensible Massacre",
  "slug": "sensible-massacre",
  "year": null,
  "banner_url": "",
  "icon_url": "",
  "coverart": null,
  "platforms": [],
  "provider_games": [
    {
      "name": "Sensible Massacre",
      "slug": "sensible-massacre",
      "service": "igdb"
    }
  ],
  "aliases": [],
  "shaders": [],
  "discord_id": "",
  "change_for": null
}