{
  "id": 110527,
  "name": "Pokédex 3D Pro",
  "slug": "pokedex-3d-pro",
  "year": 2012,
  "banner_url": "",
  "icon_url": "",
  "coverart": "https://lutris.net/media/igdb/cover_big/co1zw2.jpg",
  "platforms": [
    {
      "name": "Nintendo 3DS"
    }
  ],
  "provider_games": [
    {
      "name": "Pokédex 3D Pro",
      "slug": "pokedex-3d-pro",
      "service": "igdb"
    }
  ],
  "aliases": [],
  "shaders": [],
  "discord_id": "",
  "change_for": null
}