{
  "id": 170509,
  "name": "Whiskers & Tail",
  "slug": "whiskers-and-tail",
  "year": null,
  "banner_url": "",
  "icon_url": "",
  "coverart": "https://lutris.net/media/igdb/cover_big/co46pj.jpg",
  "platforms": [],
  "provider_games": [
    {
      "name": "Whiskers & Tail",
      "slug": "whiskers-and-tail",
      "service": "igdb"
    }
  ],
  "aliases": [],
  "shaders": [],
  "discord_id": "",
  "change_for": null
}