{
  "id": 307273,
  "name": "Marine Survivors",
  "slug": "marine-survivors--1",
  "year": 2025,
  "banner_url": "",
  "icon_url": "",
  "coverart": "https://lutris.net/media/igdb/cover_big/co9e2z.jpg",
  "platforms": [
    {
      "name": "Xbox One"
    }
  ],
  "provider_games": [
    {
      "name": "Marine Survivors",
      "slug": "marine-survivors--1",
      "service": "igdb"
    }
  ],
  "aliases": [],
  "shaders": [],
  "discord_id": "",
  "change_for": null
}