{
  "id": 64662,
  "name": "Abmis the Lion",
  "slug": "abmis-the-lion",
  "year": 1996,
  "banner_url": "",
  "icon_url": "",
  "coverart": "https://lutris.net/media/igdb/cover_big/co229v.jpg",
  "platforms": [],
  "provider_games": [
    {
      "name": "Abmis the Lion",
      "slug": "abmis-the-lion",
      "service": "igdb"
    }
  ],
  "aliases": [],
  "shaders": [],
  "discord_id": "",
  "change_for": null
}