{
  "id": 133686,
  "name": "Angel Made",
  "slug": "angel-made",
  "year": null,
  "banner_url": "",
  "icon_url": "",
  "coverart": "https://lutris.net/media/igdb/cover_big/co3lhx.jpg",
  "platforms": [],
  "provider_games": [
    {
      "name": "Angel Made",
      "slug": "angel-made",
      "service": "igdb"
    }
  ],
  "aliases": [],
  "shaders": [],
  "discord_id": "",
  "change_for": null
}