{
  "id": 80673,
  "name": "DJ Puff",
  "slug": "dj-puff",
  "year": null,
  "banner_url": "",
  "icon_url": "",
  "coverart": null,
  "platforms": [
    {
      "name": "Amstrad CPC"
    }
  ],
  "provider_games": [
    {
      "name": "DJ Puff",
      "slug": "dj-puff",
      "service": "igdb"
    }
  ],
  "aliases": [],
  "shaders": [],
  "discord_id": "",
  "change_for": null
}