{
  "id": 73358,
  "name": "Puzzle Party: 10 Games",
  "slug": "puzzle-party-10-games",
  "year": null,
  "banner_url": "",
  "icon_url": "",
  "coverart": null,
  "platforms": [],
  "provider_games": [
    {
      "name": "Puzzle Party: 10 Games",
      "slug": "puzzle-party-10-games",
      "service": "igdb"
    }
  ],
  "aliases": [],
  "shaders": [],
  "discord_id": "",
  "change_for": null
}