{
  "id": 916,
  "game_id": 3069,
  "game_slug": "magicite",
  "name": "Magicite",
  "year": 2014,
  "user": "Xodetaetl",
  "runner": "steam",
  "slug": "magicite-steam",
  "version": "steam",
  "description": "",
  "notes": "",
  "credits": "",
  "created_at": "2014-10-01T17:54:30.573000Z",
  "updated_at": "2014-10-01T17:54:34.653000Z",
  "draft": false,
  "published": true,
  "published_by": null,
  "rating": "",
  "is_playable": null,
  "steamid": 268750,
  "gogid": null,
  "gogslug": "",
  "humbleid": "",
  "humblestoreid": "",
  "humblestoreid_real": "",
  "script": {
    "game": {
      "appid": 268750
    }
  },
  "content": "game:\n  appid: 268750\n",
  "discord_id": "451559209893363712"
}