{
  "id": 296521,
  "name": "Tom Cruise's Kissing History",
  "slug": "tom-cruises-kissing-history",
  "year": 2009,
  "banner_url": "",
  "icon_url": "",
  "coverart": "https://lutris.net/media/igdb/cover_big/co8tue.jpg",
  "platforms": [
    {
      "name": "Browser"
    }
  ],
  "provider_games": [
    {
      "name": "Tom Cruise's Kissing History",
      "slug": "tom-cruises-kissing-history",
      "service": "igdb"
    }
  ],
  "aliases": [],
  "shaders": [],
  "discord_id": "",
  "change_for": null
}