{
  "id": 138583,
  "name": "Pokemon: Fool's Gold",
  "slug": "pokemon-fools-gold",
  "year": 2020,
  "banner_url": "",
  "icon_url": "",
  "coverart": "https://lutris.net/media/igdb/cover_big/co2f5b.jpg",
  "platforms": [
    {
      "name": "Nintendo Game Boy Color"
    }
  ],
  "provider_games": [
    {
      "name": "Pokémon: Fool's Gold",
      "slug": "pokemon-fools-gold",
      "service": "igdb"
    }
  ],
  "aliases": [],
  "shaders": [],
  "discord_id": "",
  "change_for": null
}