{
  "id": 274082,
  "name": "Koguma-Chan no Daibouken",
  "slug": "koguma-chan-no-daibouken",
  "year": 1998,
  "banner_url": "",
  "icon_url": "",
  "coverart": "https://lutris.net/media/igdb/cover_big/co7r5f.jpg",
  "platforms": [
    {
      "name": "Sony PlayStation"
    }
  ],
  "provider_games": [
    {
      "name": "Koguma-Chan no Daibouken",
      "slug": "koguma-chan-no-daibouken",
      "service": "igdb"
    }
  ],
  "aliases": [],
  "shaders": [],
  "discord_id": "",
  "change_for": null
}