{
  "id": 175472,
  "name": "RP7",
  "slug": "rp7",
  "year": 2022,
  "banner_url": "",
  "icon_url": "",
  "coverart": "https://lutris.net/media/igdb/cover_big/co48uu.jpg",
  "platforms": [
    {
      "name": "Android"
    },
    {
      "name": "Mac"
    },
    {
      "name": "Nintendo Switch"
    },
    {
      "name": "Windows"
    },
    {
      "name": "Xbox One"
    }
  ],
  "provider_games": [
    {
      "name": "RP7",
      "slug": "rp7",
      "service": "igdb"
    }
  ],
  "aliases": [],
  "shaders": [],
  "discord_id": "",
  "change_for": null
}