{
  "id": 24785,
  "name": "Putinoids VS Navalnyats - Путиноиды Против Навальнят",
  "slug": "putinoids-vs-navalnyats-",
  "year": null,
  "banner_url": "https://lutris.net/games/banner/putinoids-vs-navalnyats-.jpg",
  "icon_url": "https://lutris.net/games/icon/putinoids-vs-navalnyats-.png",
  "coverart": null,
  "platforms": [],
  "provider_games": [
    {
      "name": "Putinoids VS Navalnyats - Путиноиды Против Навальнят",
      "slug": "857020",
      "service": "steam"
    }
  ],
  "aliases": [],
  "shaders": [],
  "discord_id": "",
  "change_for": null
}