{
  "id": 6885,
  "name": "Anomaly 1729",
  "slug": "anomaly-1729",
  "year": 2015,
  "banner_url": "https://lutris.net/games/banner/anomaly-1729.jpg",
  "icon_url": "https://lutris.net/games/icon/anomaly-1729.png",
  "coverart": null,
  "platforms": [
    {
      "name": "Windows"
    }
  ],
  "provider_games": [
    {
      "name": "Anomaly 1729",
      "slug": "424320",
      "service": "steam"
    },
    {
      "name": "Anomaly 1729",
      "slug": "anomaly-1729",
      "service": "igdb"
    }
  ],
  "aliases": [],
  "shaders": [],
  "discord_id": "",
  "change_for": null
}