{
  "id": 87799,
  "name": "Chimpuzzle Pro",
  "slug": "chimpuzzle-pro",
  "year": 2014,
  "banner_url": "",
  "icon_url": "",
  "coverart": "https://lutris.net/media/igdb/cover_big/ym6jocxrwf9xgssnybn4.jpg",
  "platforms": [
    {
      "name": "Nintendo Wii U"
    }
  ],
  "provider_games": [
    {
      "name": "Chimpuzzle Pro",
      "slug": "chimpuzzle-pro",
      "service": "igdb"
    }
  ],
  "aliases": [],
  "shaders": [],
  "discord_id": "",
  "change_for": null
}