{
  "id": 101731,
  "name": "Turtle Bay",
  "slug": "turtle-bay",
  "year": null,
  "banner_url": "",
  "icon_url": "",
  "coverart": "https://lutris.net/media/igdb/cover_big/co2koq.jpg",
  "platforms": [],
  "provider_games": [
    {
      "name": "Turtle Bay",
      "slug": "turtle-bay",
      "service": "igdb"
    }
  ],
  "aliases": [],
  "shaders": [],
  "discord_id": "",
  "change_for": null
}