{
  "id": 198768,
  "name": "RPG Tsukuuru 4",
  "slug": "rpg-tsukuuru-4",
  "year": 2000,
  "banner_url": "",
  "icon_url": "",
  "coverart": null,
  "platforms": [
    {
      "name": "Sony PlayStation"
    }
  ],
  "provider_games": [
    {
      "name": "RPG Tsukuuru 4",
      "slug": "rpg-tsukuuru-4",
      "service": "igdb"
    }
  ],
  "aliases": [],
  "shaders": [],
  "discord_id": "",
  "change_for": null
}