{
  "id": 189142,
  "name": "90 Minutes: Sega Championship Football",
  "slug": "90-minutes-sega-championship-football",
  "year": 2001,
  "banner_url": "",
  "icon_url": "",
  "coverart": "https://lutris.net/media/igdb/cover_big/co40dj.jpg",
  "platforms": [
    {
      "name": "Dreamcast"
    }
  ],
  "provider_games": [
    {
      "name": "90 Minutes: Sega Championship Football",
      "slug": "90-minutes-sega-championship-football",
      "service": "igdb"
    }
  ],
  "aliases": [],
  "shaders": [],
  "discord_id": "",
  "change_for": null
}