{
  "id": 30655,
  "name": "ArcheAge: Unchained",
  "slug": "archeage-unchained",
  "year": 2019,
  "banner_url": "https://lutris.net/games/banner/archeage-unchained.jpg",
  "icon_url": "https://lutris.net/games/icon/archeage-unchained.png",
  "coverart": "https://lutris.net/media/igdb/cover_big/co3xte.jpg",
  "platforms": [
    {
      "name": "Windows"
    }
  ],
  "provider_games": [
    {
      "name": "ArcheAge: Unchained",
      "slug": "1147660",
      "service": "steam"
    },
    {
      "name": "ArcheAge: Unchained",
      "slug": "archeage-unchained",
      "service": "igdb"
    }
  ],
  "aliases": [],
  "shaders": [],
  "discord_id": "",
  "change_for": null
}