{
  "id": 6309,
  "game_id": 14735,
  "game_slug": "planet-blupi",
  "name": "Planet Blupi",
  "year": 1997,
  "user": "fanotriel",
  "runner": "linux",
  "slug": "planet-blupi-1140-64bit",
  "version": "1.14.0 64bit",
  "description": null,
  "notes": "",
  "credits": "",
  "created_at": "2017-11-12T14:31:10.464000Z",
  "updated_at": "2024-04-03T05:34:05.646011Z",
  "draft": false,
  "published": true,
  "published_by": 1,
  "rating": "",
  "is_playable": null,
  "steamid": null,
  "gogid": null,
  "gogslug": "",
  "humbleid": "",
  "humblestoreid": "",
  "humblestoreid_real": "",
  "script": {
    "files": [
      {
        "game": "https://github.com/blupi-games/planetblupi-dev/releases/download/v1.14.0/planetblupi.AppImage"
      }
    ],
    "game": {
      "exe": "planetblupi.AppImage"
    },
    "installer": [
      {
        "merge": {
          "dst": "$GAMEDIR/",
          "src": "game"
        }
      },
      {
        "chmodx": "$GAMEDIR/planetblupi.AppImage"
      }
    ]
  },
  "content": "files:\n- game: https://github.com/blupi-games/planetblupi-dev/releases/download/v1.14.0/planetblupi.AppImage\ngame:\n  exe: planetblupi.AppImage\ninstaller:\n- merge:\n    dst: $GAMEDIR/\n    src: game\n- chmodx: $GAMEDIR/planetblupi.AppImage\n",
  "discord_id": ""
}