{
  "id": 1359,
  "game_id": 794,
  "game_slug": "commandos-beyond-the-call-of-duty",
  "name": "Commandos: Beyond the Call of Duty",
  "year": 1999,
  "user": "Xodetaetl",
  "runner": "wine",
  "slug": "commandos-beyond-the-call-of-gog",
  "version": "GOG",
  "description": "",
  "notes": "- Recent GOG installer required (v2.1 or above).\r\n- The game may leave fullscreen when movies play.\r\n- The mouse may not be captured well initially, just move it around until the cursor appears and avoid clicking until then.",
  "credits": "",
  "created_at": "2015-02-27T12:06:17.591000Z",
  "updated_at": "2024-04-03T05:34:20.862115Z",
  "draft": false,
  "published": true,
  "published_by": null,
  "rating": "",
  "is_playable": null,
  "steamid": 6810,
  "gogid": 1207662203,
  "gogslug": "commandos_ammo_pack",
  "humbleid": "",
  "humblestoreid": "",
  "humblestoreid_real": "",
  "script": {
    "files": [
      {
        "game": "N/A:Select the Commandos expansion's installer provided by GOG"
      }
    ],
    "game": {
      "exe": "drive_c/GOG Games/Commandos BCD/coman_mp.exe",
      "prefix": "$GAMEDIR"
    },
    "installer": [
      {
        "task": {
          "args": "/silent /nogui /suppressmsgboxes",
          "description": "Installing Commandos",
          "executable": "game",
          "name": "wineexec",
          "prefix": "$GAMEDIR"
        }
      }
    ]
  },
  "content": "files:\n- game: N/A:Select the Commandos expansion's installer provided by GOG\ngame:\n  exe: drive_c/GOG Games/Commandos BCD/coman_mp.exe\n  prefix: $GAMEDIR\ninstaller:\n- task:\n    args: /silent /nogui /suppressmsgboxes\n    description: Installing Commandos\n    executable: game\n    name: wineexec\n    prefix: $GAMEDIR\n",
  "discord_id": ""
}