{
  "id": 89304,
  "name": "Motorbike Racing",
  "slug": "motorbike-racing",
  "year": null,
  "banner_url": "",
  "icon_url": "",
  "coverart": "https://lutris.net/media/igdb/cover_big/co66qt.jpg",
  "platforms": [],
  "provider_games": [
    {
      "name": "Motorbike Racing",
      "slug": "motorbike-racing",
      "service": "igdb"
    }
  ],
  "aliases": [],
  "shaders": [],
  "discord_id": "",
  "change_for": null
}