{
  "id": 284483,
  "name": "Uno Free Fall",
  "slug": "uno-free-fall--2",
  "year": 2006,
  "banner_url": "",
  "icon_url": "",
  "coverart": null,
  "platforms": [
    {
      "name": "Legacy Cellphone"
    }
  ],
  "provider_games": [
    {
      "name": "Uno Free Fall",
      "slug": "uno-free-fall--2",
      "service": "igdb"
    }
  ],
  "aliases": [],
  "shaders": [],
  "discord_id": "",
  "change_for": null
}