{
  "id": 240551,
  "name": "Spell Caster: Puzzle RPG",
  "slug": "spell-caster-puzzle-rpg",
  "year": null,
  "banner_url": "",
  "icon_url": "",
  "coverart": null,
  "platforms": [],
  "provider_games": [
    {
      "name": "Spell Caster: Puzzle RPG",
      "slug": "spell-caster-puzzle-rpg",
      "service": "igdb"
    }
  ],
  "aliases": [],
  "shaders": [],
  "discord_id": "",
  "change_for": null
}