{
  "id": 198256,
  "name": "Zero Chastity: A Sultry Summer Holiday",
  "slug": "zero-chastity-a-sultry-summer-holiday",
  "year": null,
  "banner_url": "",
  "icon_url": "",
  "coverart": "https://lutris.net/media/igdb/cover_big/co4j00.jpg",
  "platforms": [],
  "provider_games": [
    {
      "name": "Zero Chastity: A Sultry Summer Holiday",
      "slug": "zero-chastity-a-sultry-summer-holiday",
      "service": "igdb"
    },
    {
      "name": "Zero Chastity: A Sultry Summer Holiday",
      "slug": "1330660262",
      "service": "gog"
    }
  ],
  "aliases": [],
  "shaders": [],
  "discord_id": "",
  "change_for": null
}