{
  "id": 35062,
  "name": "Mighty Warriors",
  "slug": "mighty-warriors",
  "year": 1990,
  "banner_url": "",
  "icon_url": "https://lutris.net/games/icon/mighty-warriors.png",
  "coverart": "https://lutris.net/media/igdb/cover_big/co7e8p.jpg",
  "platforms": [
    {
      "name": "Arcade"
    }
  ],
  "provider_games": [
    {
      "name": "Mighty Warriors",
      "slug": "mwarr",
      "service": "mame"
    },
    {
      "name": "Mighty Warriors",
      "slug": "mighty-warriors",
      "service": "igdb"
    }
  ],
  "aliases": [],
  "shaders": [],
  "discord_id": "",
  "change_for": null
}