{
  "id": 248768,
  "name": "DPS Idle 2",
  "slug": "dps-idle-2",
  "year": null,
  "banner_url": "",
  "icon_url": "",
  "coverart": "https://lutris.net/media/igdb/cover_big/co6n6y.jpg",
  "platforms": [],
  "provider_games": [
    {
      "name": "DPS Idle 2",
      "slug": "dps-idle-2",
      "service": "igdb"
    }
  ],
  "aliases": [],
  "shaders": [],
  "discord_id": "",
  "change_for": null
}