{
  "id": 240506,
  "name": "Brave",
  "slug": "brave--3",
  "year": null,
  "banner_url": "",
  "icon_url": "",
  "coverart": "https://lutris.net/media/igdb/cover_big/co5ypd.jpg",
  "platforms": [],
  "provider_games": [
    {
      "name": "Brave",
      "slug": "brave--3",
      "service": "igdb"
    }
  ],
  "aliases": [],
  "shaders": [],
  "discord_id": "",
  "change_for": null
}