{
  "id": 15978,
  "name": "Wild Romance",
  "slug": "wild-romance",
  "year": 2016,
  "banner_url": "https://lutris.net/games/banner/wild-romance.jpg",
  "icon_url": "https://lutris.net/games/icon/wild-romance.png",
  "coverart": "https://lutris.net/media/igdb/cover_big/co3n8t.jpg",
  "platforms": [
    {
      "name": "Windows"
    }
  ],
  "provider_games": [
    {
      "name": "Wild Romance",
      "slug": "493450",
      "service": "steam"
    },
    {
      "name": "Wild Romance",
      "slug": "wild-romance",
      "service": "igdb"
    }
  ],
  "aliases": [],
  "shaders": [],
  "discord_id": "",
  "change_for": null
}