{
  "id": 210921,
  "name": "Number 99",
  "slug": "number-99",
  "year": null,
  "banner_url": "",
  "icon_url": "",
  "coverart": "https://lutris.net/media/igdb/cover_big/co5gcv.jpg",
  "platforms": [],
  "provider_games": [
    {
      "name": "Number 99",
      "slug": "number-99",
      "service": "igdb"
    }
  ],
  "aliases": [],
  "shaders": [],
  "discord_id": "",
  "change_for": null
}