{
  "id": 297566,
  "name": "Demonology: Incubus: Chapter 4",
  "slug": "demonology-incubus-chapter-4",
  "year": 2024,
  "banner_url": "",
  "icon_url": "",
  "coverart": "https://lutris.net/media/igdb/cover_big/co8r8g.jpg",
  "platforms": [
    {
      "name": "Linux"
    },
    {
      "name": "Mac"
    },
    {
      "name": "Windows"
    }
  ],
  "provider_games": [
    {
      "name": "Demonology: Incubus: Chapter 4",
      "slug": "demonology-incubus-chapter-4",
      "service": "igdb"
    }
  ],
  "aliases": [],
  "shaders": [],
  "discord_id": "",
  "change_for": null
}