{
  "id": 211134,
  "name": "Christmas",
  "slug": "christmas",
  "year": 2019,
  "banner_url": "",
  "icon_url": "",
  "coverart": "https://lutris.net/media/igdb/cover_big/co5viv.jpg",
  "platforms": [
    {
      "name": "SteamVR"
    }
  ],
  "provider_games": [
    {
      "name": "Christmas",
      "slug": "christmas",
      "service": "igdb"
    }
  ],
  "aliases": [],
  "shaders": [],
  "discord_id": "",
  "change_for": null
}