{
  "id": 196937,
  "name": "King of the Savage Realms",
  "slug": "king-of-the-savage-realms",
  "year": null,
  "banner_url": "",
  "icon_url": "",
  "coverart": "https://lutris.net/media/igdb/cover_big/co4lrq.jpg",
  "platforms": [],
  "provider_games": [
    {
      "name": "King of the Savage Realms",
      "slug": "king-of-the-savage-realms",
      "service": "igdb"
    }
  ],
  "aliases": [],
  "shaders": [],
  "discord_id": "",
  "change_for": null
}