{
  "id": 268126,
  "name": "Block 'Em",
  "slug": "block-em",
  "year": null,
  "banner_url": "",
  "icon_url": "",
  "coverart": "https://lutris.net/media/igdb/cover_big/co7f11.jpg",
  "platforms": [],
  "provider_games": [
    {
      "name": "Block 'Em",
      "slug": "block-em",
      "service": "igdb"
    }
  ],
  "aliases": [],
  "shaders": [],
  "discord_id": "",
  "change_for": null
}