{
  "id": 303327,
  "name": "Elon and the Divine Proof",
  "slug": "elon-and-the-divine-proof",
  "year": 2024,
  "banner_url": "",
  "icon_url": "",
  "coverart": "https://lutris.net/media/igdb/cover_big/co96i3.jpg",
  "platforms": [
    {
      "name": "Windows"
    },
    {
      "name": "Xbox One"
    },
    {
      "name": "Xbox Series X|S"
    }
  ],
  "provider_games": [
    {
      "name": "Elon and the Divine Proof",
      "slug": "elon-and-the-divine-proof",
      "service": "igdb"
    }
  ],
  "aliases": [],
  "shaders": [],
  "discord_id": "",
  "change_for": null
}