{
  "id": 148714,
  "name": "My Safe House",
  "slug": "my-safe-house",
  "year": 2018,
  "banner_url": "https://lutris.net/games/banner/my-safe-house.jpg",
  "icon_url": "",
  "coverart": "https://lutris.net/media/igdb/cover_big/co1l0c.jpg",
  "platforms": [
    {
      "name": "Windows"
    }
  ],
  "provider_games": [
    {
      "name": "My Safe House",
      "slug": "805980",
      "service": "steam"
    },
    {
      "name": "My Safe House",
      "slug": "my-safe-house",
      "service": "igdb"
    }
  ],
  "aliases": [],
  "shaders": [],
  "discord_id": "",
  "change_for": null
}