{
  "id": 4508,
  "name": "Reassembly",
  "slug": "reassembly",
  "year": 2015,
  "banner_url": "https://lutris.net/games/banner/reassembly.jpg",
  "icon_url": "https://lutris.net/games/icon/reassembly.png",
  "coverart": "https://lutris.net/media/igdb/cover_big/co3ybx.jpg",
  "platforms": [
    {
      "name": "Linux"
    },
    {
      "name": "Windows"
    }
  ],
  "provider_games": [
    {
      "name": "Reassembly",
      "slug": "1487278562",
      "service": "gog"
    },
    {
      "name": "Reassembly",
      "slug": "329130",
      "service": "steam"
    },
    {
      "name": "Reassembly",
      "slug": "reassembly",
      "service": "igdb"
    }
  ],
  "aliases": [],
  "shaders": [],
  "discord_id": "498997425965367313",
  "change_for": null
}