{
  "id": 295943,
  "name": "Super Orbital Mega Drift II",
  "slug": "super-orbital-mega-drift-ii",
  "year": 2024,
  "banner_url": "",
  "icon_url": "",
  "coverart": null,
  "platforms": [],
  "provider_games": [],
  "aliases": [],
  "shaders": [],
  "discord_id": "",
  "change_for": null
}