{
  "id": 58550,
  "name": "A Princess To Save Me",
  "slug": "a-princess-to-save-me",
  "year": null,
  "banner_url": "",
  "icon_url": "",
  "coverart": "https://lutris.net/media/igdb/cover_big/i7p3y49osiv6qypyu8lm.jpg",
  "platforms": [],
  "provider_games": [
    {
      "name": "A Princess to Save Me",
      "slug": "a-princess-to-save-me",
      "service": "igdb"
    }
  ],
  "aliases": [],
  "shaders": [],
  "discord_id": "",
  "change_for": null
}