{
  "id": 287446,
  "name": "Space Gray X",
  "slug": "space-gray-x",
  "year": null,
  "banner_url": "",
  "icon_url": "",
  "coverart": "https://lutris.net/media/igdb/cover_big/co8bbn.jpg",
  "platforms": [],
  "provider_games": [
    {
      "name": "Space Gray X",
      "slug": "space-gray-x",
      "service": "igdb"
    }
  ],
  "aliases": [],
  "shaders": [],
  "discord_id": "",
  "change_for": null
}