{
  "id": 242744,
  "name": "Tennis Manager 2023",
  "slug": "tennis-manager-2023",
  "year": null,
  "banner_url": "https://lutris.net/games/banner/tennis-manager-2023.jpg",
  "icon_url": "",
  "coverart": "https://lutris.net/media/igdb/cover_big/co6ebu.jpg",
  "platforms": [],
  "provider_games": [
    {
      "name": "Tennis Manager 2023",
      "slug": "2280390",
      "service": "steam"
    },
    {
      "name": "Tennis Manager 2023",
      "slug": "tennis-manager-2023",
      "service": "igdb"
    },
    {
      "name": "Tennis Manager 2023",
      "slug": "1264662960",
      "service": "gog"
    }
  ],
  "aliases": [],
  "shaders": [],
  "discord_id": "",
  "change_for": null
}