{
  "id": 125187,
  "name": "Discovr Egypt: King Tut's Tomb",
  "slug": "discovr-egypt-king-tuts-tomb",
  "year": 2016,
  "banner_url": "",
  "icon_url": "",
  "coverart": "https://lutris.net/media/igdb/cover_big/co7lj1.jpg",
  "platforms": [
    {
      "name": "Windows"
    }
  ],
  "provider_games": [
    {
      "name": "Discovr Egypt: King Tut's Tomb",
      "slug": "discovr-egypt-king-tuts-tomb",
      "service": "igdb"
    }
  ],
  "aliases": [],
  "shaders": [],
  "discord_id": "",
  "change_for": null
}