{
  "id": 72464,
  "name": "Heiwa Parlor! Pro: Tsunatori Monogatari Special",
  "slug": "heiwa-parlor-pro-tsunatori-monogatari-special",
  "year": null,
  "banner_url": "",
  "icon_url": "",
  "coverart": null,
  "platforms": [],
  "provider_games": [
    {
      "name": "Heiwa Parlor! Pro: Tsunatori Monogatari Special",
      "slug": "heiwa-parlor-pro-tsunatori-monogatari-special",
      "service": "igdb"
    }
  ],
  "aliases": [],
  "shaders": [],
  "discord_id": "",
  "change_for": null
}