{
  "id": 45093,
  "name": "Le Fantabulous Game",
  "slug": "le-fantabulous-game",
  "year": null,
  "banner_url": "",
  "icon_url": "",
  "coverart": "https://lutris.net/media/igdb/cover_big/sxuwytvzqn6ff3rwlrwm.jpg",
  "platforms": [],
  "provider_games": [
    {
      "name": "Le Fantabulous Game",
      "slug": "le-fantabulous-game",
      "service": "igdb"
    }
  ],
  "aliases": [],
  "shaders": [],
  "discord_id": "",
  "change_for": null
}