{
  "id": 36754,
  "name": "The 13th Doll: A Fan Game of The 7th Guest",
  "slug": "the-13th-doll-a-fan-game-of-the-7th-guest",
  "year": 2019,
  "banner_url": "https://lutris.net/games/banner/the-13th-doll-a-fan-game-of-the-7th-guest.jpg",
  "icon_url": "",
  "coverart": "https://lutris.net/media/igdb/cover_big/co1s9z.jpg",
  "platforms": [
    {
      "name": "Linux"
    },
    {
      "name": "Mac"
    },
    {
      "name": "Windows"
    }
  ],
  "provider_games": [
    {
      "name": "The 13th Doll: A Fan Game of The 7th Guest",
      "slug": "1365954542",
      "service": "gog"
    },
    {
      "name": "The 13th Doll: A Fan Game of The 7th Guest",
      "slug": "1107230",
      "service": "steam"
    },
    {
      "name": "The 13th Doll: A Fan Game of The 7th Guest",
      "slug": "the-13th-doll-a-fan-game-of-the-7th-guest",
      "service": "igdb"
    }
  ],
  "aliases": [],
  "shaders": [],
  "discord_id": "",
  "change_for": null
}