{
  "id": 268403,
  "name": "Wipeout 2600",
  "slug": "wipeout-2600",
  "year": 2015,
  "banner_url": "",
  "icon_url": "",
  "coverart": "https://lutris.net/media/igdb/cover_big/co7h6v.jpg",
  "platforms": [],
  "provider_games": [
    {
      "name": "Wipeout 2600",
      "slug": "wipeout-2600",
      "service": "igdb"
    }
  ],
  "aliases": [],
  "shaders": [],
  "discord_id": "",
  "change_for": null
}