{
  "id": 184417,
  "name": "Captain Rixot: Lost on Enceladus",
  "slug": "captain-rixot-lost-on-enceladus",
  "year": null,
  "banner_url": "",
  "icon_url": "",
  "coverart": null,
  "platforms": [],
  "provider_games": [
    {
      "name": "Captain Rixot: Lost on Enceladus",
      "slug": "captain-rixot-lost-on-enceladus",
      "service": "igdb"
    }
  ],
  "aliases": [],
  "shaders": [],
  "discord_id": "",
  "change_for": null
}