{
  "id": 37183,
  "game_id": 25879,
  "game_slug": "praey-for-the-gods",
  "name": "Praey for the Gods",
  "year": 2021,
  "user": "sr98vn",
  "runner": "steam",
  "slug": "praey-for-the-gods-steam",
  "version": "Steam",
  "description": "",
  "notes": "",
  "credits": "",
  "created_at": "2023-03-14T21:30:07.916182Z",
  "updated_at": "2023-03-14T21:30:07.916207Z",
  "draft": false,
  "published": true,
  "published_by": null,
  "rating": "",
  "is_playable": null,
  "steamid": 494430,
  "gogid": null,
  "gogslug": "",
  "humbleid": "",
  "humblestoreid": "",
  "humblestoreid_real": "",
  "script": {
    "game": {
      "appid": 494430
    }
  },
  "content": "game:\n  appid: 494430\n",
  "discord_id": ""
}