{
  "id": 236098,
  "name": "Sinner's Tavern",
  "slug": "sinners-tavern",
  "year": null,
  "banner_url": "",
  "icon_url": "",
  "coverart": "https://lutris.net/media/igdb/cover_big/co63xj.jpg",
  "platforms": [],
  "provider_games": [
    {
      "name": "Sinner's Tavern",
      "slug": "sinners-tavern",
      "service": "igdb"
    }
  ],
  "aliases": [],
  "shaders": [],
  "discord_id": "",
  "change_for": null
}