{
  "id": 194504,
  "name": "Skull Maze: Tiny Roguelike",
  "slug": "skull-maze-tiny-roguelike",
  "year": 2015,
  "banner_url": "",
  "icon_url": "",
  "coverart": "https://lutris.net/media/igdb/cover_big/co4qn7.jpg",
  "platforms": [
    {
      "name": "Mac"
    }
  ],
  "provider_games": [
    {
      "name": "Skull Maze: Tiny Roguelike",
      "slug": "skull-maze-tiny-roguelike",
      "service": "igdb"
    }
  ],
  "aliases": [],
  "shaders": [],
  "discord_id": "",
  "change_for": null
}