{
  "id": 211635,
  "name": "Arcade Classics Volume One",
  "slug": "arcade-classics-volume-one",
  "year": null,
  "banner_url": "",
  "icon_url": "",
  "coverart": null,
  "platforms": [
    {
      "name": "Sony PlayStation 2"
    }
  ],
  "provider_games": [
    {
      "name": "Arcade Classics: Volume One",
      "slug": "arcade-classics-volume-one",
      "service": "igdb"
    }
  ],
  "aliases": [],
  "shaders": [],
  "discord_id": "",
  "change_for": null
}