{
  "id": 147147,
  "name": "Knightly Passions: Episode 1",
  "slug": "knightly-passions-episode-1",
  "year": null,
  "banner_url": "https://lutris.net/games/banner/knightly-passions-episode-1.jpg",
  "icon_url": "",
  "coverart": "https://lutris.net/media/igdb/cover_big/co3u9t.jpg",
  "platforms": [
    {
      "name": "Windows"
    }
  ],
  "provider_games": [
    {
      "name": "Knightly Passions: Episode 1",
      "slug": "knightly-passions-episode-1",
      "service": "igdb"
    }
  ],
  "aliases": [],
  "shaders": [],
  "discord_id": "",
  "change_for": null
}