{
  "id": 239717,
  "name": "Ningyou Tsukai 2",
  "slug": "ningyou-tsukai-2",
  "year": 1996,
  "banner_url": "",
  "icon_url": "",
  "coverart": null,
  "platforms": [
    {
      "name": "PC-98"
    },
    {
      "name": "Windows"
    }
  ],
  "provider_games": [
    {
      "name": "Ningyou Tsukai 2",
      "slug": "ningyou-tsukai-2",
      "service": "igdb"
    }
  ],
  "aliases": [],
  "shaders": [],
  "discord_id": "",
  "change_for": null
}