{
  "id": 186027,
  "name": "The Morgue: Hospital Escape",
  "slug": "the-morgue-hospital-escape",
  "year": null,
  "banner_url": "",
  "icon_url": "",
  "coverart": null,
  "platforms": [],
  "provider_games": [
    {
      "name": "The Morgue: Hospital Escape",
      "slug": "the-morgue-hospital-escape",
      "service": "igdb"
    }
  ],
  "aliases": [],
  "shaders": [],
  "discord_id": "",
  "change_for": null
}