{
  "id": 201096,
  "name": "My Furry Maid",
  "slug": "my-furry-maid",
  "year": null,
  "banner_url": "",
  "icon_url": "",
  "coverart": "https://lutris.net/media/igdb/cover_big/co4pnr.jpg",
  "platforms": [],
  "provider_games": [
    {
      "name": "My Furry Maid",
      "slug": "my-furry-maid",
      "service": "igdb"
    }
  ],
  "aliases": [],
  "shaders": [],
  "discord_id": "",
  "change_for": null
}