{
  "id": 53331,
  "name": "Quest of the Space Beagle",
  "slug": "quest-of-the-space-beagle",
  "year": 1984,
  "banner_url": "",
  "icon_url": "",
  "coverart": "https://lutris.net/media/igdb/cover_big/wh4cyrczigt1amjhgsto.jpg",
  "platforms": [
    {
      "name": "Atari 8-bit"
    },
    {
      "name": "Commodore C64/128"
    }
  ],
  "provider_games": [
    {
      "name": "Quest of the Space Beagle",
      "slug": "quest-of-the-space-beagle",
      "service": "igdb"
    }
  ],
  "aliases": [],
  "shaders": [],
  "discord_id": "",
  "change_for": null
}