{
  "id": 93221,
  "name": "Operation Z - For Zombies",
  "slug": "operation-z-for-zombies",
  "year": null,
  "banner_url": "",
  "icon_url": "",
  "coverart": null,
  "platforms": [],
  "provider_games": [
    {
      "name": "Operation Z - For Zombies",
      "slug": "operation-z-for-zombies",
      "service": "igdb"
    }
  ],
  "aliases": [],
  "shaders": [],
  "discord_id": "",
  "change_for": null
}