{
  "id": 25488,
  "name": "Shadow of the Black Dragon",
  "slug": "shadow-of-the-black-dragon",
  "year": 2018,
  "banner_url": "https://lutris.net/games/banner/shadow-of-the-black-dragon.jpg",
  "icon_url": "https://lutris.net/games/icon/shadow-of-the-black-dragon.png",
  "coverart": null,
  "platforms": [
    {
      "name": "Windows"
    }
  ],
  "provider_games": [
    {
      "name": "Shadow of the Black Dragon",
      "slug": "799420",
      "service": "steam"
    },
    {
      "name": "Shadow of the Black Dragon",
      "slug": "shadow-of-the-black-dragon",
      "service": "igdb"
    }
  ],
  "aliases": [],
  "shaders": [],
  "discord_id": "",
  "change_for": null
}