{
  "id": 236983,
  "name": "Tour de Force",
  "slug": "tour-de-force",
  "year": null,
  "banner_url": "",
  "icon_url": "",
  "coverart": "https://lutris.net/media/igdb/cover_big/co66a0.jpg",
  "platforms": [],
  "provider_games": [
    {
      "name": "Tour de Force",
      "slug": "tour-de-force",
      "service": "igdb"
    }
  ],
  "aliases": [],
  "shaders": [],
  "discord_id": "",
  "change_for": null
}