{
  "id": 145592,
  "name": "Causality",
  "slug": "causality--1",
  "year": null,
  "banner_url": "",
  "icon_url": "",
  "coverart": "https://lutris.net/media/igdb/cover_big/co3vzv.jpg",
  "platforms": [],
  "provider_games": [
    {
      "name": "Causality",
      "slug": "causality--1",
      "service": "igdb"
    }
  ],
  "aliases": [],
  "shaders": [],
  "discord_id": "",
  "change_for": null
}