{
  "id": 10121,
  "game_id": 21661,
  "game_slug": "ancient-aliens",
  "name": "Ancient Aliens",
  "year": 2016,
  "user": "miky_kr5",
  "runner": "zdoom",
  "slug": "ancient-aliens-doomworld",
  "version": "Doomworld",
  "description": "Pwad file from Doomworld. Requires either the DOOM 2 or the Freedoom phase 2 iwad to play.",
  "notes": "",
  "credits": "",
  "created_at": "2018-09-08T23:48:42.687749Z",
  "updated_at": "2024-02-26T23:34:25.287241Z",
  "draft": false,
  "published": true,
  "published_by": 1,
  "rating": "",
  "is_playable": null,
  "steamid": null,
  "gogid": null,
  "gogslug": "",
  "humbleid": "",
  "humblestoreid": "",
  "humblestoreid_real": "",
  "script": {
    "files": [
      {
        "doom2": "N/A:Please select either the DOOM 2 or Freedoom phase 2 iwad file."
      },
      {
        "aaliens": "http://youfailit.net/pub/idgames/levels/doom2/Ports/megawads/aaliens.zip"
      }
    ],
    "game": {
      "files": [
        "aaliens_v1_2.wad"
      ],
      "main_file": "$doom2"
    },
    "installer": [
      {
        "extract": {
          "dst": "$CACHE",
          "src": "$aaliens"
        }
      },
      {
        "merge": {
          "dst": "$GAMEDIR",
          "src": "$doom2"
        }
      },
      {
        "merge": {
          "dst": "$GAMEDIR",
          "src": "$CACHE/aaliens_v1_2.wad"
        }
      }
    ]
  },
  "content": "files:\n- doom2: N/A:Please select either the DOOM 2 or Freedoom phase 2 iwad file.\n- aaliens: http://youfailit.net/pub/idgames/levels/doom2/Ports/megawads/aaliens.zip\ngame:\n  files:\n  - aaliens_v1_2.wad\n  main_file: $doom2\ninstaller:\n- extract:\n    dst: $CACHE\n    src: $aaliens\n- merge:\n    dst: $GAMEDIR\n    src: $doom2\n- merge:\n    dst: $GAMEDIR\n    src: $CACHE/aaliens_v1_2.wad\n",
  "discord_id": ""
}