{
  "id": 264785,
  "name": "Niwa: Japanese Garden Simulator",
  "slug": "niwa-japanese-garden-simulator",
  "year": null,
  "banner_url": "",
  "icon_url": "",
  "coverart": "https://lutris.net/media/igdb/cover_big/co7bu5.jpg",
  "platforms": [],
  "provider_games": [
    {
      "name": "Niwa: Japanese Garden Simulator",
      "slug": "niwa-japanese-garden-simulator",
      "service": "igdb"
    }
  ],
  "aliases": [],
  "shaders": [],
  "discord_id": "",
  "change_for": null
}