{
  "id": 295525,
  "name": "Pangea: Return to Planet Earth",
  "slug": "pangea-return-to-planet-earth",
  "year": 1993,
  "banner_url": "",
  "icon_url": "",
  "coverart": "https://lutris.net/media/igdb/cover_big/co8okb.jpg",
  "platforms": [],
  "provider_games": [
    {
      "name": "Pangea: Return to Planet Earth",
      "slug": "pangea-return-to-planet-earth",
      "service": "igdb"
    }
  ],
  "aliases": [],
  "shaders": [],
  "discord_id": "",
  "change_for": null
}