{
  "id": 98203,
  "name": "本格AI搭載 銀星麻雀",
  "slug": "ben-ge-aida-zai-yin-xing-ma-que",
  "year": null,
  "banner_url": "",
  "icon_url": "",
  "coverart": "https://lutris.net/media/igdb/cover_big/co4ke3.jpg",
  "platforms": [],
  "provider_games": [
    {
      "name": "本格AI搭載 銀星麻雀",
      "slug": "ben-ge-aida-zai-yin-xing-ma-que",
      "service": "igdb"
    }
  ],
  "aliases": [],
  "shaders": [],
  "discord_id": "",
  "change_for": null
}