{
  "id": 216369,
  "name": "Zeltoid X1",
  "slug": "zeltoid-x1",
  "year": null,
  "banner_url": "",
  "icon_url": "",
  "coverart": "https://lutris.net/media/igdb/cover_big/co57yi.jpg",
  "platforms": [],
  "provider_games": [
    {
      "name": "Zeltoid X1",
      "slug": "zeltoid-x1",
      "service": "igdb"
    }
  ],
  "aliases": [],
  "shaders": [],
  "discord_id": "",
  "change_for": null
}