{
  "id": 224558,
  "name": "Crush Them!",
  "slug": "crush-them",
  "year": null,
  "banner_url": "",
  "icon_url": "",
  "coverart": "https://lutris.net/media/igdb/cover_big/co5d95.jpg",
  "platforms": [],
  "provider_games": [
    {
      "name": "Crush Them!",
      "slug": "crush-them",
      "service": "igdb"
    }
  ],
  "aliases": [],
  "shaders": [],
  "discord_id": "",
  "change_for": null
}