{
  "id": 266628,
  "name": "Cyber Puncake",
  "slug": "cyber-puncake",
  "year": null,
  "banner_url": "",
  "icon_url": "",
  "coverart": "https://lutris.net/media/igdb/cover_big/co7dd7.jpg",
  "platforms": [],
  "provider_games": [
    {
      "name": "Cyber Puncake",
      "slug": "cyber-puncake",
      "service": "igdb"
    }
  ],
  "aliases": [],
  "shaders": [],
  "discord_id": "",
  "change_for": null
}