{
  "id": 143271,
  "name": "Wisper",
  "slug": "wisper--1",
  "year": null,
  "banner_url": "",
  "icon_url": "",
  "coverart": "https://lutris.net/media/igdb/cover_big/co3u9q.jpg",
  "platforms": [],
  "provider_games": [
    {
      "name": "Wisper",
      "slug": "wisper--1",
      "service": "igdb"
    }
  ],
  "aliases": [],
  "shaders": [],
  "discord_id": "",
  "change_for": null
}