{
  "id": 190426,
  "name": "Wild West Dynasty",
  "slug": "wild-west-dynasty",
  "year": 2022,
  "banner_url": "https://lutris.net/games/banner/wild-west-dynasty.jpg",
  "icon_url": "",
  "coverart": "https://lutris.net/media/igdb/cover_big/co396e.jpg",
  "platforms": [
    {
      "name": "Windows"
    }
  ],
  "provider_games": [
    {
      "name": "Wild West Dynasty",
      "slug": "1329880",
      "service": "steam"
    },
    {
      "name": "Wild West Dynasty",
      "slug": "1116990124",
      "service": "gog"
    },
    {
      "name": "Wild West Dynasty",
      "slug": "wild-west-dynasty",
      "service": "igdb"
    }
  ],
  "aliases": [],
  "shaders": [],
  "discord_id": "",
  "change_for": null
}