{
  "id": 244142,
  "name": "Foresia: The Cursed Oath",
  "slug": "foresia-the-cursed-oath",
  "year": null,
  "banner_url": "",
  "icon_url": "",
  "coverart": "https://lutris.net/media/igdb/cover_big/co6fqu.jpg",
  "platforms": [],
  "provider_games": [
    {
      "name": "Foresia: The Cursed Oath",
      "slug": "foresia-the-cursed-oath",
      "service": "igdb"
    }
  ],
  "aliases": [],
  "shaders": [],
  "discord_id": "",
  "change_for": null
}