{
  "id": 35022,
  "name": "Mr. Kicker",
  "slug": "mr-kicker",
  "year": 2001,
  "banner_url": "",
  "icon_url": "https://lutris.net/games/icon/mr-kicker.png",
  "coverart": null,
  "platforms": [
    {
      "name": "Arcade"
    }
  ],
  "provider_games": [
    {
      "name": "Mr. Kicker",
      "slug": "mrkicker",
      "service": "mame"
    }
  ],
  "aliases": [],
  "shaders": [],
  "discord_id": "",
  "change_for": null
}