{
  "id": 47154,
  "name": "Cabela's Dangerous Hunts",
  "slug": "cabela-s-dangerous-hunts",
  "year": 2003,
  "banner_url": "",
  "icon_url": "",
  "coverart": "https://lutris.net/media/igdb/cover_big/jjz8a89x3dxrqttsdoc6.jpg",
  "platforms": [
    {
      "name": "Sony PlayStation 2"
    },
    {
      "name": "Windows"
    }
  ],
  "provider_games": [
    {
      "name": "Cabela's Dangerous Hunts",
      "slug": "cabela-s-dangerous-hunts",
      "service": "igdb"
    }
  ],
  "aliases": [],
  "shaders": [],
  "discord_id": "",
  "change_for": null
}