{
  "id": 159508,
  "name": "Crusaders Quest",
  "slug": "crusaders-quest",
  "year": null,
  "banner_url": "",
  "icon_url": "",
  "coverart": "https://lutris.net/media/igdb/cover_big/co2ptr.jpg",
  "platforms": [],
  "provider_games": [
    {
      "name": "Crusaders Quest",
      "slug": "crusaders-quest",
      "service": "igdb"
    }
  ],
  "aliases": [],
  "shaders": [],
  "discord_id": "",
  "change_for": null
}