{
  "id": 16682,
  "game_id": 1933,
  "game_slug": "3dmark",
  "name": "3DMark",
  "year": null,
  "user": "vanstaveren",
  "runner": "steam",
  "slug": "3dmark-proton",
  "version": "Proton",
  "description": null,
  "notes": "",
  "credits": "",
  "created_at": "2019-11-07T11:49:00.251000Z",
  "updated_at": "2021-05-04T02:43:13.886827Z",
  "draft": false,
  "published": true,
  "published_by": 20548,
  "rating": "",
  "is_playable": null,
  "steamid": 223850,
  "gogid": null,
  "gogslug": "",
  "humbleid": "",
  "humblestoreid": "",
  "humblestoreid_real": "",
  "script": {
    "game": {
      "appid": 223850
    }
  },
  "content": "game:\n  appid: 223850\n",
  "discord_id": ""
}