{
  "id": 185111,
  "name": "Food of Fortune",
  "slug": "food-of-fortune",
  "year": null,
  "banner_url": "",
  "icon_url": "",
  "coverart": null,
  "platforms": [],
  "provider_games": [
    {
      "name": "Food of Fortune",
      "slug": "food-of-fortune",
      "service": "igdb"
    }
  ],
  "aliases": [],
  "shaders": [],
  "discord_id": "",
  "change_for": null
}