{
  "id": 223569,
  "name": "Star Wars: Episode I - Podracer Game",
  "slug": "star-wars-episode-i-podracer-game",
  "year": 1999,
  "banner_url": "",
  "icon_url": "",
  "coverart": "https://lutris.net/media/igdb/cover_big/co4w1n.jpg",
  "platforms": [],
  "provider_games": [
    {
      "name": "Star Wars: Episode I - Podracer Game",
      "slug": "star-wars-episode-i-podracer-game",
      "service": "igdb"
    }
  ],
  "aliases": [],
  "shaders": [],
  "discord_id": "",
  "change_for": null
}