{
  "id": 248352,
  "name": "Wallace & Gromit: The Grand Getaway",
  "slug": "wallace-and-gromit-the-grand-getaway",
  "year": 2023,
  "banner_url": "",
  "icon_url": "",
  "coverart": "https://lutris.net/media/igdb/cover_big/co6lw0.jpg",
  "platforms": [
    {
      "name": "Oculus Quest 2"
    }
  ],
  "provider_games": [
    {
      "name": "Wallace & Gromit: The Grand Getaway",
      "slug": "wallace-and-gromit-the-grand-getaway",
      "service": "igdb"
    }
  ],
  "aliases": [],
  "shaders": [],
  "discord_id": "",
  "change_for": null
}