{
  "id": 247599,
  "name": "Puzzle by Nikoli W Yajilin",
  "slug": "puzzle-by-nikoli-w-yajilin",
  "year": 2023,
  "banner_url": "",
  "icon_url": "",
  "coverart": "https://lutris.net/media/igdb/cover_big/co6kie.jpg",
  "platforms": [
    {
      "name": "Xbox One"
    }
  ],
  "provider_games": [
    {
      "name": "Puzzle by Nikoli W Yajilin",
      "slug": "puzzle-by-nikoli-w-yajilin",
      "service": "igdb"
    }
  ],
  "aliases": [],
  "shaders": [],
  "discord_id": "",
  "change_for": null
}