{
  "id": 103489,
  "name": "Osomatsu-kun Hachamecha Gekijou",
  "slug": "osomatsu-kun-hachamecha-gekijou--1",
  "year": 1988,
  "banner_url": "",
  "icon_url": "",
  "coverart": "https://lutris.net/media/igdb/cover_big/oerqgj5jgvp4x5sptkzl.jpg",
  "platforms": [
    {
      "name": "Sega Genesis / Mega Drive"
    }
  ],
  "provider_games": [
    {
      "name": "Osomatsu-kun Hachamecha Gekijou",
      "slug": "osomatsu-kun-hachamecha-gekijou--1",
      "service": "igdb"
    }
  ],
  "aliases": [],
  "shaders": [],
  "discord_id": "",
  "change_for": null
}