{
  "id": 100285,
  "name": "Discsphere",
  "slug": "discsphere",
  "year": null,
  "banner_url": "",
  "icon_url": "",
  "coverart": "https://lutris.net/media/igdb/cover_big/co2bbe.jpg",
  "platforms": [],
  "provider_games": [
    {
      "name": "Discsphere",
      "slug": "discsphere",
      "service": "igdb"
    }
  ],
  "aliases": [],
  "shaders": [],
  "discord_id": "",
  "change_for": null
}