{
  "id": 112509,
  "name": "Harpoon & Battleset 2",
  "slug": "harpoon-and-battleset-2",
  "year": 1989,
  "banner_url": "",
  "icon_url": "",
  "coverart": null,
  "platforms": [
    {
      "name": "Amiga"
    }
  ],
  "provider_games": [
    {
      "name": "Harpoon & Battleset 2",
      "slug": "harpoon-and-battleset-2",
      "service": "igdb"
    }
  ],
  "aliases": [],
  "shaders": [],
  "discord_id": "",
  "change_for": null
}