{
  "id": 41146,
  "name": "Atlantis: Evolution",
  "slug": "atlantis-evolution",
  "year": 2004,
  "banner_url": "https://lutris.net/games/banner/atlantis-evolution.jpg",
  "icon_url": "",
  "coverart": "https://lutris.net/media/igdb/cover_big/co2fz2.jpg",
  "platforms": [
    {
      "name": "Mac"
    },
    {
      "name": "Windows"
    }
  ],
  "provider_games": [
    {
      "name": "Atlantis Evolution",
      "slug": "atlantis-evolution",
      "service": "igdb"
    }
  ],
  "aliases": [],
  "shaders": [],
  "discord_id": "",
  "change_for": null
}