{
  "id": 147613,
  "name": "Deadly Stigma",
  "slug": "deadly-stigma",
  "year": null,
  "banner_url": "",
  "icon_url": "",
  "coverart": "https://lutris.net/media/igdb/cover_big/co3o8z.jpg",
  "platforms": [],
  "provider_games": [
    {
      "name": "Deadly Stigma",
      "slug": "deadly-stigma",
      "service": "igdb"
    }
  ],
  "aliases": [],
  "shaders": [],
  "discord_id": "",
  "change_for": null
}