{
  "id": 80413,
  "name": "Moero Crystal",
  "slug": "moero-crystal",
  "year": 2015,
  "banner_url": "",
  "icon_url": "",
  "coverart": "https://lutris.net/media/igdb/cover_big/qniguciotg9pzesqfnze.jpg",
  "platforms": [
    {
      "name": "PlayStation Vita"
    }
  ],
  "provider_games": [
    {
      "name": "Moero Crystal",
      "slug": "moero-crystal",
      "service": "igdb"
    }
  ],
  "aliases": [],
  "shaders": [],
  "discord_id": "",
  "change_for": null
}