{
  "id": 16850,
  "name": "Into the Belly of the Beast",
  "slug": "into-the-belly-of-the-beast",
  "year": 2016,
  "banner_url": "https://lutris.net/games/banner/into-the-belly-of-the-beast.jpg",
  "icon_url": "https://lutris.net/games/icon/into-the-belly-of-the-beast.png",
  "coverart": "https://lutris.net/media/igdb/cover_big/r7ny0qjlisdcpkeobxpr.jpg",
  "platforms": [
    {
      "name": "Mac"
    },
    {
      "name": "Windows"
    },
    {
      "name": "Xbox One"
    }
  ],
  "provider_games": [
    {
      "name": "Into the Belly of the Beast",
      "slug": "428930",
      "service": "steam"
    },
    {
      "name": "Into the Belly of the Beast",
      "slug": "into-the-belly-of-the-beast",
      "service": "igdb"
    }
  ],
  "aliases": [],
  "shaders": [],
  "discord_id": "",
  "change_for": null
}