{
  "id": 306573,
  "name": "Badminton World",
  "slug": "badminton-world",
  "year": 2015,
  "banner_url": "",
  "icon_url": "",
  "coverart": "https://lutris.net/media/igdb/cover_big/co92qr.jpg",
  "platforms": [
    {
      "name": "Android"
    }
  ],
  "provider_games": [
    {
      "name": "Badminton World",
      "slug": "badminton-world",
      "service": "igdb"
    }
  ],
  "aliases": [],
  "shaders": [],
  "discord_id": "",
  "change_for": null
}