{
  "id": 115685,
  "name": "Snow Moto Racing 3D",
  "slug": "snow-moto-racing-3d",
  "year": 2013,
  "banner_url": "",
  "icon_url": "",
  "coverart": "https://lutris.net/media/igdb/cover_big/szcyul7bbq4vumx7kxvq.jpg",
  "platforms": [
    {
      "name": "Nintendo 3DS"
    }
  ],
  "provider_games": [
    {
      "name": "Snow Moto Racing 3D",
      "slug": "snow-moto-racing-3d",
      "service": "igdb"
    }
  ],
  "aliases": [],
  "shaders": [],
  "discord_id": "",
  "change_for": null
}