{
  "id": 208605,
  "name": "Jewel Match Twilight",
  "slug": "jewel-match-twilight",
  "year": 2022,
  "banner_url": "",
  "icon_url": "",
  "coverart": "https://lutris.net/media/igdb/cover_big/co5q7s.jpg",
  "platforms": [
    {
      "name": "Windows"
    }
  ],
  "provider_games": [
    {
      "name": "Jewel Match Twilight",
      "slug": "jewel-match-twilight",
      "service": "igdb"
    }
  ],
  "aliases": [],
  "shaders": [],
  "discord_id": "",
  "change_for": null
}