{
  "id": 2311,
  "game_id": 1095,
  "game_slug": "neo-scavenger",
  "name": "NEO Scavenger",
  "year": 2014,
  "user": "Lulu",
  "runner": "linux",
  "slug": "neo-scavenger-humble-bundle",
  "version": "Humble Bundle",
  "description": null,
  "notes": "",
  "credits": "",
  "created_at": "2016-07-19T06:44:58.772096Z",
  "updated_at": "2024-04-03T04:45:08.829171Z",
  "draft": false,
  "published": true,
  "published_by": null,
  "rating": "",
  "is_playable": null,
  "steamid": 248860,
  "gogid": 1207667263,
  "gogslug": "neo_scavenger",
  "humbleid": "",
  "humblestoreid": "",
  "humblestoreid_real": "",
  "script": {
    "game": {
      "exe": "NEOScavenger"
    },
    "files": [
      {
        "neo-scavenger-game": "N/A: Please select the .tar.gz install file downloaded from humblebundle.com"
      }
    ],
    "installer": [
      {
        "extract": {
          "file": "neo-scavenger-game"
        }
      },
      {
        "chmodx": "$GAMEDIR/NEOScavenger"
      }
    ]
  },
  "content": "game:\r\n  exe: NEOScavenger\r\nfiles:\r\n- neo-scavenger-game: 'N/A: Please select the .tar.gz install file downloaded from\r\n    humblebundle.com'\r\ninstaller:\r\n- extract:\r\n    file: neo-scavenger-game\r\n- chmodx: $GAMEDIR/NEOScavenger",
  "discord_id": "498971609764200478"
}