{
  "id": 35649,
  "name": "Second Chance",
  "slug": "second-chance",
  "year": 1985,
  "banner_url": "",
  "icon_url": "https://lutris.net/games/icon/second-chance.png",
  "coverart": "https://lutris.net/media/igdb/cover_big/co2zig.jpg",
  "platforms": [
    {
      "name": "Arcade"
    },
    {
      "name": "Windows"
    }
  ],
  "provider_games": [
    {
      "name": "Second Chance",
      "slug": "secondch",
      "service": "mame"
    },
    {
      "name": "Second Chance",
      "slug": "second-chance",
      "service": "igdb"
    }
  ],
  "aliases": [],
  "shaders": [],
  "discord_id": "",
  "change_for": null
}