{
  "id": 294001,
  "name": "War Job",
  "slug": "war-job",
  "year": null,
  "banner_url": "",
  "icon_url": "",
  "coverart": "https://lutris.net/media/igdb/cover_big/co8olg.jpg",
  "platforms": [],
  "provider_games": [
    {
      "name": "War Job",
      "slug": "war-job",
      "service": "igdb"
    }
  ],
  "aliases": [],
  "shaders": [],
  "discord_id": "",
  "change_for": null
}