{
  "id": 103196,
  "name": "Drive Ahead! Sports",
  "slug": "drive-ahead-sports",
  "year": 2016,
  "banner_url": "",
  "icon_url": "",
  "coverart": "https://lutris.net/media/igdb/cover_big/pfug7bpknrdk1snojd3m.jpg",
  "platforms": [],
  "provider_games": [
    {
      "name": "Drive Ahead! Sports",
      "slug": "drive-ahead-sports",
      "service": "igdb"
    }
  ],
  "aliases": [],
  "shaders": [],
  "discord_id": "",
  "change_for": null
}