{
  "id": 295226,
  "name": "DanLab's Golf",
  "slug": "danlabs-golf",
  "year": null,
  "banner_url": "",
  "icon_url": "",
  "coverart": "https://lutris.net/media/igdb/cover_big/co8s3l.jpg",
  "platforms": [],
  "provider_games": [
    {
      "name": "DanLab's Golf",
      "slug": "danlabs-golf",
      "service": "igdb"
    }
  ],
  "aliases": [],
  "shaders": [],
  "discord_id": "",
  "change_for": null
}