{
  "id": 12506,
  "name": "SnakEscape",
  "slug": "snakescape",
  "year": 2016,
  "banner_url": "https://lutris.net/games/banner/snakescape.jpg",
  "icon_url": "https://lutris.net/games/icon/snakescape.png",
  "coverart": "https://lutris.net/media/igdb/cover_big/co46xr.jpg",
  "platforms": [
    {
      "name": "Linux"
    },
    {
      "name": "Mac"
    },
    {
      "name": "Windows"
    }
  ],
  "provider_games": [
    {
      "name": "SnakEscape",
      "slug": "snakescape",
      "service": "igdb"
    }
  ],
  "aliases": [],
  "shaders": [],
  "discord_id": "",
  "change_for": null
}