{
  "id": 16938,
  "name": "Solaria Moon",
  "slug": "solaria-moon",
  "year": 2017,
  "banner_url": "https://lutris.net/games/banner/solaria-moon.jpg",
  "icon_url": "https://lutris.net/games/icon/solaria-moon.png",
  "coverart": "https://lutris.net/media/igdb/cover_big/co225i.jpg",
  "platforms": [
    {
      "name": "Windows"
    }
  ],
  "provider_games": [
    {
      "name": "Solaria Moon",
      "slug": "623930",
      "service": "steam"
    },
    {
      "name": "Solaria Moon",
      "slug": "solaria-moon",
      "service": "igdb"
    }
  ],
  "aliases": [],
  "shaders": [],
  "discord_id": "",
  "change_for": null
}