{
  "id": 52899,
  "name": "2K Drive",
  "slug": "2k-drive",
  "year": 2013,
  "banner_url": "",
  "icon_url": "",
  "coverart": "https://lutris.net/media/igdb/cover_big/qsjenenhirjx3ro0vvwn.jpg",
  "platforms": [],
  "provider_games": [
    {
      "name": "2K Drive",
      "slug": "2k-drive",
      "service": "igdb"
    }
  ],
  "aliases": [],
  "shaders": [],
  "discord_id": "",
  "change_for": null
}