{
  "id": 92084,
  "name": "Unblock Ball ✪ Slide Puzzle",
  "slug": "unblock-ball-slide-puzzle",
  "year": null,
  "banner_url": "",
  "icon_url": "",
  "coverart": null,
  "platforms": [],
  "provider_games": [
    {
      "name": "Unblock Ball: Slide Puzzle",
      "slug": "unblock-ball-slide-puzzle",
      "service": "igdb"
    }
  ],
  "aliases": [],
  "shaders": [],
  "discord_id": "",
  "change_for": null
}