{
  "id": 281419,
  "name": "Avoid Falls!",
  "slug": "avoid-falls",
  "year": null,
  "banner_url": "",
  "icon_url": "",
  "coverart": "https://lutris.net/media/igdb/cover_big/co7z2e.jpg",
  "platforms": [],
  "provider_games": [
    {
      "name": "Avoid Falls!",
      "slug": "avoid-falls",
      "service": "igdb"
    }
  ],
  "aliases": [],
  "shaders": [],
  "discord_id": "",
  "change_for": null
}