{
  "id": 46022,
  "name": "Angel Senki",
  "slug": "angel-senki",
  "year": null,
  "banner_url": "",
  "icon_url": "",
  "coverart": null,
  "platforms": [],
  "provider_games": [
    {
      "name": "Angel Senki",
      "slug": "angel-senki",
      "service": "igdb"
    }
  ],
  "aliases": [],
  "shaders": [],
  "discord_id": "",
  "change_for": null
}