{
  "id": 300108,
  "name": "Nine Hours, Nine Persons, Nine Doors",
  "slug": "nine-hours-nine-persons-nine-doors",
  "year": 2009,
  "banner_url": "",
  "icon_url": "",
  "coverart": null,
  "platforms": [
    {
      "name": "Nintendo DS"
    }
  ],
  "provider_games": [
    {
      "name": "Nine Hours, Nine Persons, Nine Doors",
      "slug": "nine-hours-nine-persons-nine-doors",
      "service": "igdb"
    }
  ],
  "aliases": [],
  "shaders": [],
  "discord_id": "",
  "change_for": null
}