{
  "id": 64525,
  "name": "1Key Rocket Launcher",
  "slug": "1key-rocket-launcher",
  "year": null,
  "banner_url": "",
  "icon_url": "",
  "coverart": "https://lutris.net/media/igdb/cover_big/oyo76cm0dh1mjihtdse8.jpg",
  "platforms": [],
  "provider_games": [
    {
      "name": "1Key Rocket Launcher",
      "slug": "1key-rocket-launcher",
      "service": "igdb"
    }
  ],
  "aliases": [],
  "shaders": [],
  "discord_id": "",
  "change_for": null
}