{
  "id": 86767,
  "name": "Sky Taxi: Top Secret",
  "slug": "sky-taxi-top-secret",
  "year": null,
  "banner_url": "",
  "icon_url": "",
  "coverart": "https://lutris.net/media/igdb/cover_big/co83w4.jpg",
  "platforms": [],
  "provider_games": [
    {
      "name": "Sky Taxi: Top Secret",
      "slug": "sky-taxi-top-secret",
      "service": "igdb"
    }
  ],
  "aliases": [],
  "shaders": [],
  "discord_id": "",
  "change_for": null
}