{
  "id": 44554,
  "name": "Grand Theft Auto: The Trilogy – The Definitive Edition",
  "slug": "gta-trilogy-definitive-edition",
  "year": 2021,
  "banner_url": "https://lutris.net/games/banner/gta-trilogy-definitive-edition.jpg",
  "icon_url": "",
  "coverart": null,
  "platforms": [
    {
      "name": "Windows"
    }
  ],
  "provider_games": [],
  "aliases": [],
  "shaders": [],
  "discord_id": "",
  "change_for": null
}