{
  "id": 275152,
  "name": "Toonsouls",
  "slug": "toonsouls",
  "year": null,
  "banner_url": "",
  "icon_url": "",
  "coverart": "https://lutris.net/media/igdb/cover_big/co7tgv.jpg",
  "platforms": [],
  "provider_games": [
    {
      "name": "Toonsouls",
      "slug": "toonsouls",
      "service": "igdb"
    }
  ],
  "aliases": [],
  "shaders": [],
  "discord_id": "",
  "change_for": null
}