{
  "id": 285741,
  "name": "Cop Officers: Police Simulator of NYPD City",
  "slug": "cop-officers-police-simulator-of-nypd-city",
  "year": null,
  "banner_url": "",
  "icon_url": "",
  "coverart": "https://lutris.net/media/igdb/cover_big/co88p1.jpg",
  "platforms": [],
  "provider_games": [
    {
      "name": "Cop Officers: Police Simulator of NYPD City",
      "slug": "cop-officers-police-simulator-of-nypd-city",
      "service": "igdb"
    }
  ],
  "aliases": [],
  "shaders": [],
  "discord_id": "",
  "change_for": null
}