{
  "id": 293418,
  "name": "Who Wants to Be a Millionaire",
  "slug": "who-wants-to-be-a-millionaire--8",
  "year": 2020,
  "banner_url": "",
  "icon_url": "",
  "coverart": "https://lutris.net/media/igdb/cover_big/co8kv4.jpg",
  "platforms": [
    {
      "name": "Mac"
    }
  ],
  "provider_games": [
    {
      "name": "Who Wants to Be a Millionaire",
      "slug": "who-wants-to-be-a-millionaire--8",
      "service": "igdb"
    }
  ],
  "aliases": [],
  "shaders": [],
  "discord_id": "",
  "change_for": null
}