{
  "id": 89110,
  "name": "Pony Rotation Puzzles",
  "slug": "pony-rotation-puzzles",
  "year": null,
  "banner_url": "",
  "icon_url": "",
  "coverart": null,
  "platforms": [],
  "provider_games": [
    {
      "name": "Pony Rotation Puzzles",
      "slug": "pony-rotation-puzzles",
      "service": "igdb"
    }
  ],
  "aliases": [],
  "shaders": [],
  "discord_id": "",
  "change_for": null
}