{
  "id": 7597,
  "name": "Throne Rushers",
  "slug": "throne-rushers",
  "year": 2016,
  "banner_url": "https://lutris.net/games/banner/throne-rushers.jpg",
  "icon_url": "https://lutris.net/games/icon/throne-rushers.png",
  "coverart": null,
  "platforms": [
    {
      "name": "Windows"
    }
  ],
  "provider_games": [
    {
      "name": "Throne Rushers",
      "slug": "492830",
      "service": "steam"
    },
    {
      "name": "Throne Rushers",
      "slug": "throne-rushers",
      "service": "igdb"
    }
  ],
  "aliases": [],
  "shaders": [],
  "discord_id": "",
  "change_for": null
}