{
  "id": 234313,
  "name": "Fishjong",
  "slug": "fishjong",
  "year": null,
  "banner_url": "",
  "icon_url": "",
  "coverart": "https://lutris.net/media/igdb/cover_big/co67en.jpg",
  "platforms": [],
  "provider_games": [
    {
      "name": "Fishjong",
      "slug": "fishjong",
      "service": "igdb"
    }
  ],
  "aliases": [],
  "shaders": [],
  "discord_id": "",
  "change_for": null
}