{
  "id": 29820,
  "name": "Hello Neighbor Alpha 3",
  "slug": "hello-neighbor-alpha-3",
  "year": null,
  "banner_url": "https://lutris.net/games/banner/hello-neighbor-alpha-3.jpg",
  "icon_url": "https://lutris.net/games/icon/hello-neighbor-alpha-3.png",
  "coverart": null,
  "platforms": [],
  "provider_games": [
    {
      "name": "Hello Neighbor Alpha 3",
      "slug": "1092730",
      "service": "steam"
    }
  ],
  "aliases": [],
  "shaders": [],
  "discord_id": "",
  "change_for": null
}