{
  "id": 71846,
  "name": "Club Football 2005",
  "slug": "club-football-2005",
  "year": null,
  "banner_url": "",
  "icon_url": "",
  "coverart": "https://lutris.net/media/igdb/cover_big/co74ag.jpg",
  "platforms": [],
  "provider_games": [
    {
      "name": "Club Football 2005",
      "slug": "club-football-2005",
      "service": "igdb"
    }
  ],
  "aliases": [],
  "shaders": [],
  "discord_id": "",
  "change_for": null
}