{
  "id": 126299,
  "name": "An Occurrence at Owl Creek Bridge",
  "slug": "an-occurrence-at-owl-creek-bridge--1",
  "year": 2013,
  "banner_url": "",
  "icon_url": "",
  "coverart": "https://lutris.net/media/igdb/cover_big/co1swn.jpg",
  "platforms": [
    {
      "name": "Windows"
    }
  ],
  "provider_games": [
    {
      "name": "An Occurrence at Owl Creek Bridge",
      "slug": "an-occurrence-at-owl-creek-bridge--1",
      "service": "igdb"
    }
  ],
  "aliases": [],
  "shaders": [],
  "discord_id": "",
  "change_for": null
}