{
  "id": 23398,
  "name": "Car Puzzler",
  "slug": "car-puzzler",
  "year": 2018,
  "banner_url": "https://lutris.net/games/banner/car-puzzler.jpg",
  "icon_url": "https://lutris.net/games/icon/car-puzzler.png",
  "coverart": "https://lutris.net/media/igdb/cover_big/co3mwb.jpg",
  "platforms": [
    {
      "name": "Linux"
    },
    {
      "name": "Mac"
    },
    {
      "name": "Windows"
    }
  ],
  "provider_games": [
    {
      "name": "Car Puzzler",
      "slug": "774191",
      "service": "steam"
    },
    {
      "name": "Car Puzzler",
      "slug": "car-puzzler",
      "service": "igdb"
    }
  ],
  "aliases": [],
  "shaders": [],
  "discord_id": "",
  "change_for": null
}