{
  "id": 276092,
  "name": "Evil Eyes",
  "slug": "evil-eyes",
  "year": null,
  "banner_url": "",
  "icon_url": "",
  "coverart": "https://lutris.net/media/igdb/cover_big/co8edn.jpg",
  "platforms": [],
  "provider_games": [
    {
      "name": "Evil Eyes",
      "slug": "evil-eyes",
      "service": "igdb"
    }
  ],
  "aliases": [],
  "shaders": [],
  "discord_id": "",
  "change_for": null
}