{
  "id": 59772,
  "name": "Akatsuki: Shisei Ichigo",
  "slug": "akatsuki-shisei-ichigo",
  "year": null,
  "banner_url": "",
  "icon_url": "",
  "coverart": "https://lutris.net/media/igdb/cover_big/cxt9o1z6jnym4dnpnjm7.jpg",
  "platforms": [],
  "provider_games": [
    {
      "name": "Akatsuki: Shisei Ichigo",
      "slug": "akatsuki-shisei-ichigo",
      "service": "igdb"
    }
  ],
  "aliases": [],
  "shaders": [],
  "discord_id": "",
  "change_for": null
}