{
  "id": 194106,
  "name": "Joutsen Ara",
  "slug": "joutsen-ara",
  "year": null,
  "banner_url": "",
  "icon_url": "",
  "coverart": "https://lutris.net/media/igdb/cover_big/co4ixg.jpg",
  "platforms": [],
  "provider_games": [
    {
      "name": "Joutsen Ara",
      "slug": "joutsen-ara",
      "service": "igdb"
    }
  ],
  "aliases": [],
  "shaders": [],
  "discord_id": "",
  "change_for": null
}