{
  "id": 197893,
  "name": "Push the Sheep",
  "slug": "push-the-sheep",
  "year": null,
  "banner_url": "",
  "icon_url": "",
  "coverart": "https://lutris.net/media/igdb/cover_big/co4jsi.jpg",
  "platforms": [],
  "provider_games": [
    {
      "name": "Push the Sheep",
      "slug": "push-the-sheep",
      "service": "igdb"
    }
  ],
  "aliases": [],
  "shaders": [],
  "discord_id": "",
  "change_for": null
}