{
  "id": 25805,
  "name": "Pure Heart",
  "slug": "pure-heart",
  "year": null,
  "banner_url": "https://lutris.net/games/banner/pure-heart.jpg",
  "icon_url": "https://lutris.net/games/icon/pure-heart.png",
  "coverart": null,
  "platforms": [],
  "provider_games": [
    {
      "name": "Pure Heart",
      "slug": "552190",
      "service": "steam"
    }
  ],
  "aliases": [],
  "shaders": [],
  "discord_id": "",
  "change_for": null
}