{
  "id": 193271,
  "name": "Puzzmagic",
  "slug": "puzzmagic",
  "year": 2016,
  "banner_url": "",
  "icon_url": "",
  "coverart": null,
  "platforms": [],
  "provider_games": [
    {
      "name": "Puzzmagic",
      "slug": "puzzmagic",
      "service": "igdb"
    }
  ],
  "aliases": [],
  "shaders": [],
  "discord_id": "",
  "change_for": null
}