{
  "id": 107719,
  "name": "Transworld Surf: Next Wave",
  "slug": "transworld-surf-next-wave",
  "year": 2003,
  "banner_url": "",
  "icon_url": "",
  "coverart": "https://lutris.net/media/igdb/cover_big/co29pg.jpg",
  "platforms": [
    {
      "name": "Nintendo GameCube"
    }
  ],
  "provider_games": [
    {
      "name": "Transworld Surf: Next Wave",
      "slug": "transworld-surf-next-wave",
      "service": "igdb"
    }
  ],
  "aliases": [],
  "shaders": [],
  "discord_id": "",
  "change_for": null
}