{
  "id": 192822,
  "name": "Ultimate Zombie Death Ball",
  "slug": "ultimate-zombie-death-ball",
  "year": 2021,
  "banner_url": "",
  "icon_url": "",
  "coverart": "https://lutris.net/media/igdb/cover_big/co4tbk.jpg",
  "platforms": [
    {
      "name": "Windows"
    }
  ],
  "provider_games": [
    {
      "name": "Ultimate Zombie Death Ball",
      "slug": "ultimate-zombie-death-ball",
      "service": "igdb"
    }
  ],
  "aliases": [],
  "shaders": [],
  "discord_id": "",
  "change_for": null
}