{
  "id": 262720,
  "name": "Gourmet Race",
  "slug": "gourmet-race",
  "year": 1996,
  "banner_url": "",
  "icon_url": "",
  "coverart": "https://lutris.net/media/igdb/cover_big/co78pd.jpg",
  "platforms": [
    {
      "name": "Super Famicom"
    },
    {
      "name": "Super Nintendo"
    }
  ],
  "provider_games": [
    {
      "name": "Gourmet Race",
      "slug": "gourmet-race",
      "service": "igdb"
    }
  ],
  "aliases": [],
  "shaders": [],
  "discord_id": "",
  "change_for": null
}