{
  "id": 24925,
  "name": "Zen Chess: Mate in One",
  "slug": "zen-chess-mate-in-one",
  "year": 2018,
  "banner_url": "https://lutris.net/games/banner/zen-chess-mate-in-one.jpg",
  "icon_url": "https://lutris.net/games/icon/zen-chess-mate-in-one.png",
  "coverart": "https://lutris.net/media/igdb/cover_big/co2vli.jpg",
  "platforms": [
    {
      "name": "Windows"
    }
  ],
  "provider_games": [
    {
      "name": "Zen Chess: Mate in One",
      "slug": "748970",
      "service": "steam"
    },
    {
      "name": "Zen Chess: Mate in One",
      "slug": "zen-chess-mate-in-one",
      "service": "igdb"
    }
  ],
  "aliases": [],
  "shaders": [],
  "discord_id": "",
  "change_for": null
}