{
  "id": 4225,
  "name": "Rift's Cave",
  "slug": "rifts-cave",
  "year": 2014,
  "banner_url": "https://lutris.net/games/banner/rifts-cave.jpg",
  "icon_url": "https://lutris.net/games/icon/rifts-cave.png",
  "coverart": "https://lutris.net/media/igdb/cover_big/co6q0i.jpg",
  "platforms": [
    {
      "name": "Linux"
    },
    {
      "name": "Mac"
    },
    {
      "name": "Windows"
    }
  ],
  "provider_games": [
    {
      "name": "Rift's Cave",
      "slug": "335210",
      "service": "steam"
    },
    {
      "name": "Rift's Cave",
      "slug": "rifts-cave",
      "service": "igdb"
    }
  ],
  "aliases": [],
  "shaders": [],
  "discord_id": "",
  "change_for": null
}