{
  "id": 164749,
  "name": "Slime Sprint",
  "slug": "slime-sprint",
  "year": null,
  "banner_url": "",
  "icon_url": "",
  "coverart": "https://lutris.net/media/igdb/cover_big/co41nt.jpg",
  "platforms": [],
  "provider_games": [
    {
      "name": "Slime Sprint",
      "slug": "slime-sprint",
      "service": "igdb"
    }
  ],
  "aliases": [],
  "shaders": [],
  "discord_id": "",
  "change_for": null
}