{
  "id": 2363,
  "name": "Nicolas Eymerich The Inquisitor",
  "slug": "nicolas-eymerich-the-inquisitor",
  "year": 2014,
  "banner_url": "https://lutris.net/games/banner/nicolas-eymerich-the-inquisitor.jpg",
  "icon_url": "https://lutris.net/games/icon/nicolas-eymerich-the-inquisitor.png",
  "coverart": "https://lutris.net/media/igdb/cover_big/co1zcs.jpg",
  "platforms": [
    {
      "name": "Mac"
    },
    {
      "name": "Windows"
    }
  ],
  "provider_games": [
    {
      "name": "Nicolas Eymerich The Inquisitor",
      "slug": "279500",
      "service": "steam"
    },
    {
      "name": "Nicolas Eymerich the Inquisitor",
      "slug": "nicolas-eymerich-the-inquisitor",
      "service": "igdb"
    }
  ],
  "aliases": [],
  "shaders": [],
  "discord_id": "",
  "change_for": null
}