{
  "id": 23890,
  "name": "Empire Earth 3",
  "slug": "empire-earth-3",
  "year": 2007,
  "banner_url": "https://lutris.net/games/banner/empire-earth-3.jpg",
  "icon_url": "",
  "coverart": null,
  "platforms": [
    {
      "name": "Windows"
    }
  ],
  "provider_games": [
    {
      "name": "Empire Earth 3",
      "slug": "1207658859",
      "service": "gog"
    }
  ],
  "aliases": [],
  "shaders": [],
  "discord_id": "",
  "change_for": null
}