{
  "id": 209180,
  "name": "Little Nemo and the Nightmare Fiends",
  "slug": "little-nemo-and-the-nightmare-fiends",
  "year": null,
  "banner_url": "",
  "icon_url": "",
  "coverart": "https://lutris.net/media/igdb/cover_big/co4yhk.jpg",
  "platforms": [
    {
      "name": "Nintendo Switch"
    },
    {
      "name": "Windows"
    }
  ],
  "provider_games": [
    {
      "name": "Little Nemo and the Nightmare Fiends",
      "slug": "little-nemo-and-the-nightmare-fiends",
      "service": "igdb"
    }
  ],
  "aliases": [],
  "shaders": [],
  "discord_id": "",
  "change_for": null
}