{
  "id": 228167,
  "name": "Five Nights at Freddy's Cleaning Simulator",
  "slug": "five-nights-at-freddys-cleaning-simulator",
  "year": null,
  "banner_url": "",
  "icon_url": "",
  "coverart": "https://lutris.net/media/igdb/cover_big/co6dcw.jpg",
  "platforms": [
    {
      "name": "Windows"
    }
  ],
  "provider_games": [
    {
      "name": "Five Nights at Freddy's Cleaning Simulator",
      "slug": "five-nights-at-freddys-cleaning-simulator",
      "service": "igdb"
    }
  ],
  "aliases": [],
  "shaders": [],
  "discord_id": "",
  "change_for": null
}