{
  "id": 173364,
  "name": "Adventure Island",
  "slug": "adventure-island--2",
  "year": 1992,
  "banner_url": "",
  "icon_url": "",
  "coverart": "https://lutris.net/media/igdb/cover_big/co47rm.jpg",
  "platforms": [
    {
      "name": "Game Boy"
    },
    {
      "name": "Nintendo 3DS"
    }
  ],
  "provider_games": [
    {
      "name": "Adventure Island",
      "slug": "adventure-island--2",
      "service": "igdb"
    }
  ],
  "aliases": [],
  "shaders": [],
  "discord_id": "",
  "change_for": null
}