{
  "id": 115192,
  "name": "Mini-Yonku Let's & Go!! Power WGP 2",
  "slug": "mini-yonku-lets-and-go-power-wgp-2",
  "year": 1998,
  "banner_url": "",
  "icon_url": "",
  "coverart": "https://lutris.net/media/igdb/cover_big/co3c28.jpg",
  "platforms": [
    {
      "name": "Super Nintendo"
    }
  ],
  "provider_games": [
    {
      "name": "Mini-Yonku Let's & Go!! Power WGP 2",
      "slug": "mini-yonku-lets-and-go-power-wgp-2",
      "service": "igdb"
    }
  ],
  "aliases": [],
  "shaders": [],
  "discord_id": "",
  "change_for": null
}