{
  "id": 199812,
  "name": "Froggerty Arcade 2",
  "slug": "froggerty-arcade-2",
  "year": null,
  "banner_url": "",
  "icon_url": "",
  "coverart": "https://lutris.net/media/igdb/cover_big/co4f9u.jpg",
  "platforms": [],
  "provider_games": [
    {
      "name": "Froggerty Arcade 2",
      "slug": "froggerty-arcade-2",
      "service": "igdb"
    }
  ],
  "aliases": [],
  "shaders": [],
  "discord_id": "",
  "change_for": null
}