{
  "id": 3980,
  "name": "Ninja Guy",
  "slug": "ninja-guy",
  "year": 2015,
  "banner_url": "https://lutris.net/games/banner/ninja-guy.jpg",
  "icon_url": "https://lutris.net/games/icon/ninja-guy.png",
  "coverart": "https://lutris.net/media/igdb/cover_big/u6i5jxb49oc8uxla5dgi.jpg",
  "platforms": [
    {
      "name": "Linux"
    },
    {
      "name": "Mac"
    },
    {
      "name": "Windows"
    }
  ],
  "provider_games": [
    {
      "name": "Ninja Guy",
      "slug": "340630",
      "service": "steam"
    },
    {
      "name": "Ninja Guy",
      "slug": "ninja-guy",
      "service": "igdb"
    }
  ],
  "aliases": [],
  "shaders": [],
  "discord_id": "",
  "change_for": null
}