{
  "id": 8204,
  "game_id": 7376,
  "game_slug": "eternal-winter",
  "name": "Eternal Winter",
  "year": 2014,
  "user": "soredake",
  "runner": "steam",
  "slug": "eternal-winter-proton",
  "version": "Proton",
  "description": null,
  "notes": "",
  "credits": "",
  "created_at": "2018-05-09T07:09:44.394083Z",
  "updated_at": "2021-05-04T02:43:11.984318Z",
  "draft": false,
  "published": true,
  "published_by": null,
  "rating": "",
  "is_playable": null,
  "steamid": 325210,
  "gogid": null,
  "gogslug": "",
  "humbleid": "",
  "humblestoreid": "",
  "humblestoreid_real": "",
  "script": {
    "game": {
      "appid": 325210
    }
  },
  "content": "game:\n  appid: 325210\n",
  "discord_id": ""
}