{
  "id": 273141,
  "name": "Fisherman's Palace",
  "slug": "fishermans-palace",
  "year": null,
  "banner_url": "",
  "icon_url": "",
  "coverart": "https://lutris.net/media/igdb/cover_big/co7qnm.jpg",
  "platforms": [],
  "provider_games": [
    {
      "name": "Fisherman's Palace",
      "slug": "fishermans-palace",
      "service": "igdb"
    }
  ],
  "aliases": [],
  "shaders": [],
  "discord_id": "",
  "change_for": null
}