{
  "id": 195891,
  "name": "Crazy Pong",
  "slug": "crazy-pong",
  "year": 2018,
  "banner_url": "",
  "icon_url": "",
  "coverart": null,
  "platforms": [],
  "provider_games": [
    {
      "name": "Crazy Pong",
      "slug": "crazy-pong",
      "service": "igdb"
    }
  ],
  "aliases": [],
  "shaders": [],
  "discord_id": "",
  "change_for": null
}