{
  "id": 110031,
  "name": "Hana to Otome ni Shukufuku wo Royal Bouquet",
  "slug": "hana-to-otome-ni-shukufuku-wo-royal-bouquet",
  "year": 2010,
  "banner_url": "",
  "icon_url": "",
  "coverart": "https://lutris.net/media/igdb/cover_big/co2v65.jpg",
  "platforms": [
    {
      "name": "Windows"
    }
  ],
  "provider_games": [
    {
      "name": "Hana to Otome ni Shukufuku wo Royal Bouquet",
      "slug": "hana-to-otome-ni-shukufuku-wo-royal-bouquet",
      "service": "igdb"
    }
  ],
  "aliases": [],
  "shaders": [],
  "discord_id": "",
  "change_for": null
}