{
  "id": 221686,
  "name": "Moonrakers: Luminor",
  "slug": "moonrakers-luminor",
  "year": null,
  "banner_url": "",
  "icon_url": "",
  "coverart": "https://lutris.net/media/igdb/cover_big/co5ljz.jpg",
  "platforms": [],
  "provider_games": [
    {
      "name": "Moonrakers: Luminor",
      "slug": "moonrakers-luminor",
      "service": "igdb"
    }
  ],
  "aliases": [],
  "shaders": [],
  "discord_id": "",
  "change_for": null
}