{
  "id": 25546,
  "game_id": 29356,
  "game_slug": "blasphemous",
  "name": "Blasphemous",
  "year": 2019,
  "user": "cenouro",
  "runner": "steam",
  "slug": "blasphemous-steam",
  "version": "Steam",
  "description": null,
  "notes": "",
  "credits": "",
  "created_at": "2021-01-05T14:14:38.026179Z",
  "updated_at": "2023-01-11T06:08:01.901213Z",
  "draft": true,
  "published": true,
  "published_by": null,
  "rating": "",
  "is_playable": null,
  "steamid": 774361,
  "gogid": 2068474256,
  "gogslug": "blasphemous_digital_deluxe_edition",
  "humbleid": "",
  "humblestoreid": "",
  "humblestoreid_real": "",
  "script": {
    "game": {
      "appid": 774361
    }
  },
  "content": "game:\n  appid: 774361\n",
  "discord_id": ""
}