{
  "id": 195193,
  "name": "Aetheris",
  "slug": "aetheris",
  "year": null,
  "banner_url": "",
  "icon_url": "",
  "coverart": "https://lutris.net/media/igdb/cover_big/co4pmq.jpg",
  "platforms": [],
  "provider_games": [
    {
      "name": "Aetheris",
      "slug": "aetheris",
      "service": "igdb"
    }
  ],
  "aliases": [],
  "shaders": [],
  "discord_id": "",
  "change_for": null
}