{
  "id": 196685,
  "name": "After the Fall: Launch Edition",
  "slug": "after-the-fall-launch-edition",
  "year": 2021,
  "banner_url": "",
  "icon_url": "",
  "coverart": "https://lutris.net/media/igdb/cover_big/co4mm5.jpg",
  "platforms": [
    {
      "name": "Oculus Quest 2"
    }
  ],
  "provider_games": [
    {
      "name": "After the Fall: Launch Edition",
      "slug": "after-the-fall-launch-edition",
      "service": "igdb"
    }
  ],
  "aliases": [],
  "shaders": [],
  "discord_id": "",
  "change_for": null
}