{
  "id": 3365,
  "name": "XMoto",
  "slug": "xmoto",
  "year": 2005,
  "banner_url": "https://lutris.net/games/banner/xmoto.jpg",
  "icon_url": "https://lutris.net/games/icon/xmoto.png",
  "coverart": null,
  "platforms": [
    {
      "name": "Linux"
    }
  ],
  "provider_games": [],
  "aliases": [],
  "shaders": [],
  "discord_id": "",
  "change_for": null
}