{
  "id": 83491,
  "name": "Rock_N_Wrestle",
  "slug": "rock-n-wrestle",
  "year": null,
  "banner_url": "",
  "icon_url": "",
  "coverart": "https://lutris.net/media/igdb/cover_big/co4r1d.jpg",
  "platforms": [],
  "provider_games": [
    {
      "name": "Rock_N_Wrestle",
      "slug": "rock-n-wrestle",
      "service": "igdb"
    }
  ],
  "aliases": [],
  "shaders": [],
  "discord_id": "",
  "change_for": null
}