{
  "id": 74356,
  "name": "Ruins Climber",
  "slug": "ruins-climber",
  "year": null,
  "banner_url": "",
  "icon_url": "",
  "coverart": null,
  "platforms": [],
  "provider_games": [
    {
      "name": "Ruins Climber",
      "slug": "ruins-climber",
      "service": "igdb"
    }
  ],
  "aliases": [],
  "shaders": [],
  "discord_id": "",
  "change_for": null
}