{
  "id": 89904,
  "name": "Boom Fighters",
  "slug": "boom-fighters",
  "year": null,
  "banner_url": "",
  "icon_url": "",
  "coverart": null,
  "platforms": [],
  "provider_games": [
    {
      "name": "Boom Fighters",
      "slug": "boom-fighters",
      "service": "igdb"
    }
  ],
  "aliases": [],
  "shaders": [],
  "discord_id": "",
  "change_for": null
}