{
  "id": 172497,
  "name": "Fire Pro Wrestling",
  "slug": "fire-pro-wrestling",
  "year": 2001,
  "banner_url": "",
  "icon_url": "",
  "coverart": "https://lutris.net/media/igdb/cover_big/ziabz9meyocmriowlqux.jpg",
  "platforms": [
    {
      "name": "Nintendo Game Boy Advance"
    }
  ],
  "provider_games": [
    {
      "name": "Fire Pro Wrestling",
      "slug": "fire-pro-wrestling",
      "service": "igdb"
    }
  ],
  "aliases": [],
  "shaders": [],
  "discord_id": "",
  "change_for": null
}