{
  "id": 137144,
  "name": "Nullptr",
  "slug": "nullptr",
  "year": null,
  "banner_url": "",
  "icon_url": "",
  "coverart": "https://lutris.net/media/igdb/cover_big/co3q96.jpg",
  "platforms": [],
  "provider_games": [
    {
      "name": "Nullptr",
      "slug": "nullptr",
      "service": "igdb"
    }
  ],
  "aliases": [],
  "shaders": [],
  "discord_id": "",
  "change_for": null
}