{
  "id": 165208,
  "name": "stepbystep",
  "slug": "stepbystep",
  "year": null,
  "banner_url": "",
  "icon_url": "",
  "coverart": "https://lutris.net/media/igdb/cover_big/co423r.jpg",
  "platforms": [],
  "provider_games": [
    {
      "name": "Stepbystep",
      "slug": "stepbystep",
      "service": "igdb"
    }
  ],
  "aliases": [],
  "shaders": [],
  "discord_id": "",
  "change_for": null
}