{
  "id": 12733,
  "name": "Inevitable Path",
  "slug": "inevitable-path",
  "year": 2016,
  "banner_url": "https://lutris.net/games/banner/inevitable-path.jpg",
  "icon_url": "https://lutris.net/games/icon/inevitable-path.png",
  "coverart": null,
  "platforms": [
    {
      "name": "Windows"
    }
  ],
  "provider_games": [
    {
      "name": "Inevitable Path",
      "slug": "inevitable-path",
      "service": "igdb"
    }
  ],
  "aliases": [],
  "shaders": [],
  "discord_id": "",
  "change_for": null
}