{
  "id": 240020,
  "name": "Onamae nan dakke? Otona mo Kodomo mo Kantan Tanoshii Namae Ate Quiz Game",
  "slug": "onamae-nan-dakke-otona-mo-kodomo-mo-kantan-tanoshii-namae-ate-quiz-game",
  "year": null,
  "banner_url": "",
  "icon_url": "",
  "coverart": null,
  "platforms": [],
  "provider_games": [
    {
      "name": "Onamae nan dakke? Otona mo Kodomo mo Kantan Tanoshii Namae Ate Quiz Game",
      "slug": "onamae-nan-dakke-otona-mo-kodomo-mo-kantan-tanoshii-namae-ate-quiz-game",
      "service": "igdb"
    }
  ],
  "aliases": [],
  "shaders": [],
  "discord_id": "",
  "change_for": null
}