{
  "id": 36540,
  "game_id": 205643,
  "game_slug": "aviator-air-combat",
  "name": "Aviator: Air Combat",
  "year": 2022,
  "user": "vanstaveren",
  "runner": "steam",
  "slug": "aviator-air-combat-steam",
  "version": "steam",
  "description": "",
  "notes": "",
  "credits": "",
  "created_at": "2022-12-11T21:32:50.230974Z",
  "updated_at": "2023-01-05T21:07:14.292163Z",
  "draft": false,
  "published": true,
  "published_by": 1,
  "rating": "",
  "is_playable": null,
  "steamid": null,
  "gogid": null,
  "gogslug": "",
  "humbleid": "",
  "humblestoreid": "",
  "humblestoreid_real": "",
  "script": {
    "game": {
      "appid": 2209610
    }
  },
  "content": "game:\n  appid: 2209610",
  "discord_id": ""
}