{
  "id": 67597,
  "name": "Yurameku Kokoro ni Michita Sekai de, Kimi no Yume to Yokubou wa Kanau ka",
  "slug": "yurameku-kokoro-ni-michita-sekai-de-kimi-no-yume-to-yokubou-wa-kanau-ka",
  "year": null,
  "banner_url": "",
  "icon_url": "",
  "coverart": "https://lutris.net/media/igdb/cover_big/lmbqqve9qfiqb1peck4u.jpg",
  "platforms": [],
  "provider_games": [
    {
      "name": "Yurameku Kokoro ni Michita Sekai de, Kimi no Yume to Yokubou wa Kanau ka",
      "slug": "yurameku-kokoro-ni-michita-sekai-de-kimi-no-yume-to-yokubou-wa-kanau-ka",
      "service": "igdb"
    }
  ],
  "aliases": [],
  "shaders": [],
  "discord_id": "",
  "change_for": null
}