{
  "id": 241149,
  "name": "Mega Snake: highly addictive",
  "slug": "mega-snake-highly-addictive",
  "year": null,
  "banner_url": "",
  "icon_url": "",
  "coverart": null,
  "platforms": [],
  "provider_games": [
    {
      "name": "Mega Snake: highly addictive",
      "slug": "mega-snake-highly-addictive",
      "service": "igdb"
    }
  ],
  "aliases": [],
  "shaders": [],
  "discord_id": "",
  "change_for": null
}