{
  "id": 266358,
  "name": "Circle Hitter",
  "slug": "circle-hitter",
  "year": null,
  "banner_url": "",
  "icon_url": "",
  "coverart": "https://lutris.net/media/igdb/cover_big/co7dqy.jpg",
  "platforms": [],
  "provider_games": [
    {
      "name": "Circle Hitter",
      "slug": "circle-hitter",
      "service": "igdb"
    }
  ],
  "aliases": [],
  "shaders": [],
  "discord_id": "",
  "change_for": null
}