{
  "id": 119358,
  "name": "Simple Dot",
  "slug": "simple-dot",
  "year": null,
  "banner_url": "",
  "icon_url": "",
  "coverart": null,
  "platforms": [],
  "provider_games": [
    {
      "name": "Simple Dot",
      "slug": "simple-dot",
      "service": "igdb"
    }
  ],
  "aliases": [],
  "shaders": [],
  "discord_id": "",
  "change_for": null
}