{
  "id": 289954,
  "name": "Tanuki Thief",
  "slug": "tanuki-thief",
  "year": 2023,
  "banner_url": "",
  "icon_url": "",
  "coverart": "https://lutris.net/media/igdb/cover_big/co8ez5.jpg",
  "platforms": [
    {
      "name": "Browser"
    }
  ],
  "provider_games": [
    {
      "name": "Tanuki Thief",
      "slug": "tanuki-thief",
      "service": "igdb"
    }
  ],
  "aliases": [],
  "shaders": [],
  "discord_id": "",
  "change_for": null
}