{
  "id": 39397,
  "name": "FROG",
  "slug": "frog",
  "year": 2020,
  "banner_url": "https://lutris.net/games/banner/frog.jpg",
  "icon_url": "",
  "coverart": "https://lutris.net/media/igdb/cover_big/oskxqw1brhhcblbcfz8s.jpg",
  "platforms": [
    {
      "name": "Linux"
    },
    {
      "name": "TRS-80"
    },
    {
      "name": "Windows"
    }
  ],
  "provider_games": [
    {
      "name": "Frog",
      "slug": "frog",
      "service": "igdb"
    }
  ],
  "aliases": [],
  "shaders": [],
  "discord_id": "",
  "change_for": null
}