{
  "id": 37302,
  "game_id": 229328,
  "game_slug": "midnight-memories-first-chapter",
  "name": "Midnight Memories: First Chapter",
  "year": 2022,
  "user": "vanstaveren",
  "runner": "steam",
  "slug": "midnight-memories-first-chapt-steam",
  "version": "steam",
  "description": "",
  "notes": "",
  "credits": "",
  "created_at": "2023-04-13T06:41:06.548573Z",
  "updated_at": "2023-04-13T06:41:06.548599Z",
  "draft": false,
  "published": true,
  "published_by": null,
  "rating": "",
  "is_playable": null,
  "steamid": null,
  "gogid": null,
  "gogslug": "",
  "humbleid": "",
  "humblestoreid": "",
  "humblestoreid_real": "",
  "script": {
    "game": {
      "appid": 2057370
    }
  },
  "content": "game:\n  appid: 2057370\n",
  "discord_id": ""
}