{
  "id": 279748,
  "name": "Gero-Gero",
  "slug": "gero-gero",
  "year": null,
  "banner_url": "",
  "icon_url": "",
  "coverart": "https://lutris.net/media/igdb/cover_big/co81c8.jpg",
  "platforms": [],
  "provider_games": [
    {
      "name": "Gero-Gero",
      "slug": "gero-gero",
      "service": "igdb"
    }
  ],
  "aliases": [],
  "shaders": [],
  "discord_id": "",
  "change_for": null
}