{
  "id": 51484,
  "name": "Remington Super Slam Hunting Africa",
  "slug": "remington-super-slam-hunting-africa",
  "year": 2010,
  "banner_url": "",
  "icon_url": "",
  "coverart": "https://lutris.net/media/igdb/cover_big/ytni0iywf9wu5cmfizin.jpg",
  "platforms": [
    {
      "name": "Nintendo Wii"
    }
  ],
  "provider_games": [
    {
      "name": "Remington Super Slam Hunting Africa",
      "slug": "remington-super-slam-hunting-africa",
      "service": "igdb"
    }
  ],
  "aliases": [],
  "shaders": [],
  "discord_id": "",
  "change_for": null
}