{
  "id": 98786,
  "name": "LEGO Hidden Side",
  "slug": "lego-hidden-side",
  "year": 2019,
  "banner_url": "",
  "icon_url": "",
  "coverart": "https://lutris.net/media/igdb/cover_big/co1qet.jpg",
  "platforms": [
    {
      "name": "Android"
    }
  ],
  "provider_games": [
    {
      "name": "LEGO Hidden Side",
      "slug": "lego-hidden-side",
      "service": "igdb"
    }
  ],
  "aliases": [],
  "shaders": [],
  "discord_id": "",
  "change_for": null
}