{
  "id": 17228,
  "name": "102 Dalmatians: Puppies to the Rescue",
  "slug": "102-dalmatians-puppies-to-the-rescue",
  "year": 2000,
  "banner_url": "https://lutris.net/games/banner/102-dalmatians-puppies-to-the-rescue.jpg",
  "icon_url": "",
  "coverart": null,
  "platforms": [
    {
      "name": "Nintendo Game Boy Color"
    },
    {
      "name": "Sega Dreamcast"
    },
    {
      "name": "Sony PlayStation"
    },
    {
      "name": "Windows"
    }
  ],
  "provider_games": [],
  "aliases": [],
  "shaders": [],
  "discord_id": "",
  "change_for": null
}