{
  "id": 104600,
  "name": "Mana Khemia: Alchemists of Al-Revis",
  "slug": "mana-khemia-alchemists-of-al-revis",
  "year": 2007,
  "banner_url": "",
  "icon_url": "",
  "coverart": "https://lutris.net/media/igdb/cover_big/co2qn0.jpg",
  "platforms": [
    {
      "name": "Sony PlayStation 2"
    },
    {
      "name": "Sony PSP"
    }
  ],
  "provider_games": [
    {
      "name": "Mana Khemia: Alchemists of Al-Revis",
      "slug": "mana-khemia-alchemists-of-al-revis",
      "service": "igdb"
    }
  ],
  "aliases": [],
  "shaders": [],
  "discord_id": "",
  "change_for": null
}