{
  "id": 4214,
  "game_id": 11617,
  "game_slug": "journey-the-heart-of-gaia",
  "name": "Journey: The Heart of Gaia",
  "year": 2012,
  "user": "FakeShemp",
  "runner": "wine",
  "slug": "journey-the-heart-of-gaia-humble",
  "version": "Humble",
  "description": "",
  "notes": "",
  "credits": "",
  "created_at": "2017-06-08T13:35:16.046000Z",
  "updated_at": "2018-05-19T03:41:50.827604Z",
  "draft": false,
  "published": true,
  "published_by": null,
  "rating": "",
  "is_playable": null,
  "steamid": null,
  "gogid": null,
  "gogslug": "",
  "humbleid": "",
  "humblestoreid": "",
  "humblestoreid_real": "",
  "script": {
    "files": [
      {
        "file1": "N/A:Please select the Humble installer"
      }
    ],
    "game": {
      "arch": "win32",
      "exe": "drive_c/Program Files/Waterlily Games/Journey - The Heart of Gaia/Journey_TheHeartofGaia.exe",
      "prefix": "$GAMEDIR"
    },
    "installer": [
      {
        "task": {
          "executable": "$file1",
          "name": "wineexec",
          "prefix": "$GAMEDIR"
        }
      }
    ]
  },
  "content": "files:\n- file1: N/A:Please select the Humble installer\ngame:\n  arch: win32\n  exe: drive_c/Program Files/Waterlily Games/Journey - The Heart of Gaia/Journey_TheHeartofGaia.exe\n  prefix: $GAMEDIR\ninstaller:\n- task:\n    executable: $file1\n    name: wineexec\n    prefix: $GAMEDIR\n",
  "discord_id": ""
}