{
  "id": 259951,
  "name": "Shikinjou",
  "slug": "shikinjou--1",
  "year": 1990,
  "banner_url": "",
  "icon_url": "",
  "coverart": null,
  "platforms": [
    {
      "name": "MSX"
    },
    {
      "name": "PC-8801"
    },
    {
      "name": "PC-98"
    },
    {
      "name": "X68000"
    }
  ],
  "provider_games": [
    {
      "name": "Shikinjou",
      "slug": "shikinjou--1",
      "service": "igdb"
    }
  ],
  "aliases": [],
  "shaders": [],
  "discord_id": "",
  "change_for": null
}