{
  "id": 295813,
  "name": "Klonoa: Project Moonlight",
  "slug": "klonoa-project-moonlight",
  "year": null,
  "banner_url": "",
  "icon_url": "",
  "coverart": "https://lutris.net/media/igdb/cover_big/co8sxw.jpg",
  "platforms": [
    {
      "name": "Browser"
    },
    {
      "name": "Windows"
    }
  ],
  "provider_games": [
    {
      "name": "Klonoa: Project Moonlight",
      "slug": "klonoa-project-moonlight",
      "service": "igdb"
    }
  ],
  "aliases": [],
  "shaders": [],
  "discord_id": "",
  "change_for": null
}