{
  "id": 111537,
  "name": "Mission Impossible / Programmed Trip",
  "slug": "mission-impossible-slash-programmed-trip",
  "year": 2006,
  "banner_url": "",
  "icon_url": "",
  "coverart": "https://lutris.net/media/igdb/cover_big/co30i8.jpg",
  "platforms": [
    {
      "name": "Philips Videopac G7000"
    }
  ],
  "provider_games": [
    {
      "name": "Mission Impossible / Programmed Trip",
      "slug": "mission-impossible-slash-programmed-trip",
      "service": "igdb"
    }
  ],
  "aliases": [],
  "shaders": [],
  "discord_id": "",
  "change_for": null
}