{
  "id": 47163,
  "name": "Mickey's Space Adventure",
  "slug": "mickeys-space-adventure",
  "year": 1984,
  "banner_url": "",
  "icon_url": "",
  "coverart": "https://lutris.net/media/igdb/cover_big/f5wqgwxzunb7nrsxgz8x.jpg",
  "platforms": [
    {
      "name": "Apple II"
    },
    {
      "name": "Commodore C64/128"
    },
    {
      "name": "TRS-80 Color Computer"
    }
  ],
  "provider_games": [
    {
      "name": "Mickey's Space Adventure",
      "slug": "mickeys-space-adventure",
      "service": "igdb"
    }
  ],
  "aliases": [],
  "shaders": [],
  "discord_id": "",
  "change_for": null
}