{
  "id": 78554,
  "name": "Deluxe Ski Jump 4",
  "slug": "deluxe-ski-jump-4",
  "year": 2014,
  "banner_url": "",
  "icon_url": "",
  "coverart": "https://lutris.net/media/igdb/cover_big/y32rogvfqcxsuliuoxbj.jpg",
  "platforms": [
    {
      "name": "Windows"
    }
  ],
  "provider_games": [
    {
      "name": "Deluxe Ski Jump 4",
      "slug": "deluxe-ski-jump-4",
      "service": "igdb"
    }
  ],
  "aliases": [],
  "shaders": [],
  "discord_id": "",
  "change_for": null
}