{
  "id": 11920,
  "name": "NEXT JUMP: Shmup Tactics",
  "slug": "next-jump-shmup-tactics",
  "year": 2017,
  "banner_url": "https://lutris.net/games/banner/next-jump-shmup-tactics.jpg",
  "icon_url": "https://lutris.net/games/icon/next-jump-shmup-tactics.png",
  "coverart": "https://lutris.net/media/igdb/cover_big/co250o.jpg",
  "platforms": [
    {
      "name": "Linux"
    },
    {
      "name": "Mac"
    },
    {
      "name": "Windows"
    }
  ],
  "provider_games": [
    {
      "name": "NEXT JUMP: Shmup Tactics",
      "slug": "624690",
      "service": "steam"
    },
    {
      "name": "Next jump: Shmup Tactics",
      "slug": "next-jump-shmup-tactics",
      "service": "igdb"
    }
  ],
  "aliases": [],
  "shaders": [],
  "discord_id": "",
  "change_for": null
}