{
  "id": 13102,
  "game_id": 13271,
  "game_slug": "lily-of-the-valley",
  "name": "Lily of the Valley",
  "year": 2017,
  "user": "kimchitea",
  "runner": "steam",
  "slug": "lily-of-the-valley-steam",
  "version": "Steam",
  "description": null,
  "notes": "",
  "credits": "",
  "created_at": "2019-04-25T21:27:42.190454Z",
  "updated_at": "2019-04-26T07:07:18.701890Z",
  "draft": false,
  "published": true,
  "published_by": null,
  "rating": "",
  "is_playable": null,
  "steamid": 628460,
  "gogid": null,
  "gogslug": "",
  "humbleid": "",
  "humblestoreid": "",
  "humblestoreid_real": "",
  "script": {
    "game": {
      "appid": 628460
    }
  },
  "content": "game:\n  appid: 628460\n",
  "discord_id": ""
}