{
  "id": 247610,
  "name": "Sabaku no Kuni no bouken-ki: Aru to Chitei no Meikyuu",
  "slug": "sabaku-no-kuni-no-bouken-ki-aru-to-chitei-no-meikyuu",
  "year": 2022,
  "banner_url": "",
  "icon_url": "",
  "coverart": "https://lutris.net/media/igdb/cover_big/co6ktl.jpg",
  "platforms": [
    {
      "name": "Windows"
    }
  ],
  "provider_games": [
    {
      "name": "Sabaku no Kuni no bouken-ki: Aru to Chitei no Meikyuu",
      "slug": "sabaku-no-kuni-no-bouken-ki-aru-to-chitei-no-meikyuu",
      "service": "igdb"
    }
  ],
  "aliases": [],
  "shaders": [],
  "discord_id": "",
  "change_for": null
}