{
  "id": 195298,
  "name": "Past Particles",
  "slug": "past-particles",
  "year": null,
  "banner_url": "",
  "icon_url": "",
  "coverart": "https://lutris.net/media/igdb/cover_big/co4ph0.jpg",
  "platforms": [],
  "provider_games": [
    {
      "name": "Past Particles",
      "slug": "past-particles",
      "service": "igdb"
    }
  ],
  "aliases": [],
  "shaders": [],
  "discord_id": "",
  "change_for": null
}