{
  "id": 183423,
  "name": "Limsod",
  "slug": "limsod",
  "year": null,
  "banner_url": "",
  "icon_url": "",
  "coverart": "https://lutris.net/media/igdb/cover_big/co7fyx.jpg",
  "platforms": [],
  "provider_games": [
    {
      "name": "Limsod",
      "slug": "limsod",
      "service": "igdb"
    }
  ],
  "aliases": [],
  "shaders": [],
  "discord_id": "",
  "change_for": null
}