{
  "id": 6120,
  "name": "War of the Vikings",
  "slug": "war-of-the-vikings",
  "year": 2013,
  "banner_url": "https://lutris.net/games/banner/war-of-the-vikings.jpg",
  "icon_url": "https://lutris.net/games/icon/war-of-the-vikings.png",
  "coverart": "https://lutris.net/media/igdb/cover_big/co2ruf.jpg",
  "platforms": [
    {
      "name": "Windows"
    }
  ],
  "provider_games": [
    {
      "name": "War of the Vikings",
      "slug": "234530",
      "service": "steam"
    },
    {
      "name": "War of the Vikings",
      "slug": "war-of-the-vikings",
      "service": "igdb"
    }
  ],
  "aliases": [],
  "shaders": [],
  "discord_id": "",
  "change_for": null
}