{
  "id": 14624,
  "name": "Ra²",
  "slug": "ra2",
  "year": 2017,
  "banner_url": "https://lutris.net/games/banner/ra2.jpg",
  "icon_url": "https://lutris.net/games/icon/ra2.png",
  "coverart": "https://lutris.net/media/igdb/cover_big/buryr3lauek0gjxzmlrm.jpg",
  "platforms": [
    {
      "name": "Linux"
    },
    {
      "name": "Mac"
    },
    {
      "name": "Windows"
    }
  ],
  "provider_games": [
    {
      "name": "Radium 2",
      "slug": "562460",
      "service": "steam"
    },
    {
      "name": "Ra²",
      "slug": "ra2",
      "service": "igdb"
    }
  ],
  "aliases": [],
  "shaders": [],
  "discord_id": "",
  "change_for": null
}