{
  "id": 225779,
  "name": "Groovy",
  "slug": "groovy--1",
  "year": null,
  "banner_url": "",
  "icon_url": "",
  "coverart": "https://lutris.net/media/igdb/cover_big/co4rhv.jpg",
  "platforms": [],
  "provider_games": [
    {
      "name": "Groovy",
      "slug": "groovy--1",
      "service": "igdb"
    }
  ],
  "aliases": [],
  "shaders": [],
  "discord_id": "",
  "change_for": null
}