{
  "id": 301714,
  "name": "Nothing Beyond This Point",
  "slug": "nothing-beyond-this-point",
  "year": null,
  "banner_url": "",
  "icon_url": "",
  "coverart": "https://lutris.net/media/igdb/cover_big/co935z.jpg",
  "platforms": [],
  "provider_games": [
    {
      "name": "Nothing Beyond This Point",
      "slug": "nothing-beyond-this-point",
      "service": "igdb"
    }
  ],
  "aliases": [],
  "shaders": [],
  "discord_id": "",
  "change_for": null
}