{
  "id": 253476,
  "name": "Stay Alive",
  "slug": "stay-alive--4",
  "year": null,
  "banner_url": "",
  "icon_url": "",
  "coverart": "https://lutris.net/media/igdb/cover_big/co6u1g.jpg",
  "platforms": [],
  "provider_games": [
    {
      "name": "Stay Alive",
      "slug": "stay-alive--4",
      "service": "igdb"
    }
  ],
  "aliases": [],
  "shaders": [],
  "discord_id": "",
  "change_for": null
}