{
  "id": 44379,
  "name": "Just Act Natural",
  "slug": "just-act-natural",
  "year": 2021,
  "banner_url": "https://lutris.net/games/banner/just-act-natural.jpg",
  "icon_url": "https://lutris.net/games/icon/just-act-natural.png",
  "coverart": "https://lutris.net/media/igdb/cover_big/co3p6b.jpg",
  "platforms": [
    {
      "name": "Windows"
    }
  ],
  "provider_games": [
    {
      "name": "Just Act Natural",
      "slug": "just-act-natural",
      "service": "igdb"
    },
    {
      "name": "Just Act Natural",
      "slug": "1485080",
      "service": "steam"
    }
  ],
  "aliases": [],
  "shaders": [],
  "discord_id": "",
  "change_for": null
}