{
  "id": 30468,
  "name": "食用系少女 Food Girls",
  "slug": "food-girls",
  "year": 2019,
  "banner_url": "https://lutris.net/games/banner/food-girls.jpg",
  "icon_url": "https://lutris.net/games/icon/food-girls.png",
  "coverart": "https://lutris.net/media/igdb/cover_big/co2he9.jpg",
  "platforms": [
    {
      "name": "Nintendo Switch"
    },
    {
      "name": "Windows"
    }
  ],
  "provider_games": [
    {
      "name": "食用系少女 Food Girls",
      "slug": "985080",
      "service": "steam"
    },
    {
      "name": "Food Girls",
      "slug": "food-girls",
      "service": "igdb"
    }
  ],
  "aliases": [],
  "shaders": [],
  "discord_id": "",
  "change_for": null
}