{
  "id": 211460,
  "name": "Backrooms Hide and Seek",
  "slug": "backrooms-hide-and-seek",
  "year": null,
  "banner_url": "",
  "icon_url": "",
  "coverart": "https://lutris.net/media/igdb/cover_big/co5fde.jpg",
  "platforms": [],
  "provider_games": [
    {
      "name": "Backrooms Hide and Seek",
      "slug": "backrooms-hide-and-seek",
      "service": "igdb"
    }
  ],
  "aliases": [],
  "shaders": [],
  "discord_id": "",
  "change_for": null
}