{
  "id": 175799,
  "name": "Les Dictées de Rayman",
  "slug": "les-dictees-de-rayman",
  "year": 1998,
  "banner_url": "",
  "icon_url": "",
  "coverart": "https://lutris.net/media/igdb/cover_big/co491c.jpg",
  "platforms": [],
  "provider_games": [
    {
      "name": "Les Dictées de Rayman",
      "slug": "les-dictees-de-rayman",
      "service": "igdb"
    }
  ],
  "aliases": [],
  "shaders": [],
  "discord_id": "",
  "change_for": null
}