{
  "id": 36153,
  "name": "Toffy",
  "slug": "toffy",
  "year": 1993,
  "banner_url": "",
  "icon_url": "https://lutris.net/games/icon/toffy.png",
  "coverart": null,
  "platforms": [
    {
      "name": "Arcade"
    }
  ],
  "provider_games": [
    {
      "name": "Toffy",
      "slug": "toffy",
      "service": "mame"
    },
    {
      "name": "Toffy",
      "slug": "toffy",
      "service": "igdb"
    }
  ],
  "aliases": [],
  "shaders": [],
  "discord_id": "",
  "change_for": null
}