{
  "id": 12555,
  "name": "The Atomy",
  "slug": "the-atomy",
  "year": 2016,
  "banner_url": "https://lutris.net/games/banner/the-atomy.jpg",
  "icon_url": "https://lutris.net/games/icon/the-atomy.png",
  "coverart": null,
  "platforms": [
    {
      "name": "Windows"
    }
  ],
  "provider_games": [
    {
      "name": "The Atomy",
      "slug": "the-atomy",
      "service": "igdb"
    }
  ],
  "aliases": [],
  "shaders": [],
  "discord_id": "",
  "change_for": null
}