{
  "id": 25353,
  "name": "Mirage of Dragon",
  "slug": "mirage-of-dragon",
  "year": 2018,
  "banner_url": "https://lutris.net/games/banner/mirage-of-dragon.jpg",
  "icon_url": "https://lutris.net/games/icon/mirage-of-dragon.png",
  "coverart": "https://lutris.net/media/igdb/cover_big/co2p0n.jpg",
  "platforms": [
    {
      "name": "Windows"
    }
  ],
  "provider_games": [
    {
      "name": "Mirage of Dragon",
      "slug": "782380",
      "service": "steam"
    },
    {
      "name": "Mirage of Dragon",
      "slug": "mirage-of-dragon",
      "service": "igdb"
    }
  ],
  "aliases": [],
  "shaders": [],
  "discord_id": "",
  "change_for": null
}