{
  "id": 37440,
  "game_id": 40298,
  "game_slug": "altv-multiplayer",
  "name": "alt:V Multiplayer",
  "year": 2019,
  "user": "Samdvich",
  "runner": "wine",
  "slug": "altv-multiplayer-altv-launcher",
  "version": "alt:V Launcher",
  "description": "Rockstar Games and Epic Games Launchers. Only installs alt:V you will need Grand Theft Auto V already installed in Lutris.",
  "notes": "Requires grand-theft-auto-v install. When in the installer, only install in the recommended location.",
  "credits": "authors: lolsniperftw, ownedbynico",
  "created_at": "2023-05-11T21:39:14.056776Z",
  "updated_at": "2023-05-11T21:39:14.056803Z",
  "draft": false,
  "published": true,
  "published_by": null,
  "rating": "",
  "is_playable": null,
  "steamid": null,
  "gogid": null,
  "gogslug": "",
  "humbleid": "",
  "humblestoreid": "",
  "humblestoreid_real": "",
  "script": {
    "files": [
      {
        "altv": {
          "filename": "altv.zip",
          "referer": "www.altv.mp",
          "url": "https://cdn.alt-mp.com/launcher/release/x64_win32/altv.zip"
        }
      }
    ],
    "game": {
      "exe": "$GAMEDIR/drive_c/users/$USER/AppData/Local/altv/altv.exe",
      "prefix": "$GAMEDIR"
    },
    "installer": [
      {
        "extract": {
          "description": "(1/4) Extracting archive",
          "dst": "$CACHE",
          "file": "altv"
        }
      },
      {
        "task": {
          "arch": "win64",
          "description": "(2/4) Installing Alt:V, after installation is done please press Exit inside the Alt:V installer.",
          "executable": "$CACHE/altv.exe",
          "name": "wineexec"
        }
      },
      {
        "execute": {
          "command": "ln -svf '$GAMEDIR/drive_c/users/$USER/AppData/Local/altv/libs/libce2.dll' '$GAMEDIR/drive_c/users/$USER/AppData/Local/altv/cef/libce2.dll' && ln -svf '$GAMEDIR/drive_c/users/$USER/AppData/Local/altv/libs/icudtl.dat' '$GAMEDIR/drive_c/users/$USER/AppData/Local/altv/cef/icudtl.dat' && ln -svf '$GAMEDIR/drive_c/users/$USER/AppData/Local/altv/libs/snapshot_blob.bin' '$GAMEDIR/drive_c/users/$USER/AppData/Local/altv/cef/snapshot_blob.bin' && ln -svf '$GAMEDIR/drive_c/users/$USER/AppData/Local/altv/libs/chrome_elf.dll' '$GAMEDIR/drive_c/users/$USER/AppData/Local/altv/cef/chrome_elf.dll' && ln -svf '$GAMEDIR/drive_c/users/$USER/AppData/Local/altv/libs/v8_context_snapshot.bin' '$GAMEDIR/drive_c/users/$USER/AppData/Local/altv/cef/v8_context_snapshot.bin' && ln -svf '$GAMEDIR/drive_c/users/$USER/AppData/Local/altv/libs/libEGL.dll' '$GAMEDIR/drive_c/users/$USER/AppData/Local/altv/cef/libEGL.dll' && ln -svf '$GAMEDIR/drive_c/users/$USER/AppData/Local/altv/libs/libGLESv2.dll' '$GAMEDIR/drive_c/users/$USER/AppData/Local/altv/cef/libGLESv2.dll' && ln -svf '$GAMEDIR/drive_c/users/$USER/AppData/Local/altv/libs/vk_swiftshader.dll' '$GAMEDIR/drive_c/users/$USER/AppData/Local/altv/cef/vk_swiftshader.dll' && ln -svf '$GAMEDIR/drive_c/users/$USER/AppData/Local/altv/libs/vulkan-1.dll' '$GAMEDIR/drive_c/users/$USER/AppData/Local/altv/cef/vulkan-1.dll' && ln -svf '$GAMEDIR/drive_c/users/$USER/AppData/Local/altv/libs/vk_swiftshader_icd.json' '$GAMEDIR/drive_c/users/$USER/AppData/Local/altv/cef/vk_swiftshader_icd.json'",
          "description": "(3/4) Creating Symlinks to fix CEF bug"
        }
      },
      {
        "execute": {
          "command": "echo -e \"\\nlinuxCompatibility = true\" >> $GAMEDIR/drive_c/users/$USER/AppData/Local/altv/altv.toml",
          "description": "(4/4) Adding linuxCompatibility flag to config."
        }
      }
    ],
    "requires": "grand-theft-auto-v"
  },
  "content": "files:\n- altv:\n    filename: altv.zip\n    referer: www.altv.mp\n    url: https://cdn.alt-mp.com/launcher/release/x64_win32/altv.zip\ngame:\n  exe: $GAMEDIR/drive_c/users/$USER/AppData/Local/altv/altv.exe\n  prefix: $GAMEDIR\ninstaller:\n- extract:\n    description: (1/4) Extracting archive\n    dst: $CACHE\n    file: altv\n- task:\n    arch: win64\n    description: (2/4) Installing Alt:V, after installation is done please press Exit\n      inside the Alt:V installer.\n    executable: $CACHE/altv.exe\n    name: wineexec\n- execute:\n    command: ln -svf '$GAMEDIR/drive_c/users/$USER/AppData/Local/altv/libs/libce2.dll'\n      '$GAMEDIR/drive_c/users/$USER/AppData/Local/altv/cef/libce2.dll' && ln -svf\n      '$GAMEDIR/drive_c/users/$USER/AppData/Local/altv/libs/icudtl.dat' '$GAMEDIR/drive_c/users/$USER/AppData/Local/altv/cef/icudtl.dat'\n      && ln -svf '$GAMEDIR/drive_c/users/$USER/AppData/Local/altv/libs/snapshot_blob.bin'\n      '$GAMEDIR/drive_c/users/$USER/AppData/Local/altv/cef/snapshot_blob.bin' && ln\n      -svf '$GAMEDIR/drive_c/users/$USER/AppData/Local/altv/libs/chrome_elf.dll' '$GAMEDIR/drive_c/users/$USER/AppData/Local/altv/cef/chrome_elf.dll'\n      && ln -svf '$GAMEDIR/drive_c/users/$USER/AppData/Local/altv/libs/v8_context_snapshot.bin'\n      '$GAMEDIR/drive_c/users/$USER/AppData/Local/altv/cef/v8_context_snapshot.bin'\n      && ln -svf '$GAMEDIR/drive_c/users/$USER/AppData/Local/altv/libs/libEGL.dll'\n      '$GAMEDIR/drive_c/users/$USER/AppData/Local/altv/cef/libEGL.dll' && ln -svf\n      '$GAMEDIR/drive_c/users/$USER/AppData/Local/altv/libs/libGLESv2.dll' '$GAMEDIR/drive_c/users/$USER/AppData/Local/altv/cef/libGLESv2.dll'\n      && ln -svf '$GAMEDIR/drive_c/users/$USER/AppData/Local/altv/libs/vk_swiftshader.dll'\n      '$GAMEDIR/drive_c/users/$USER/AppData/Local/altv/cef/vk_swiftshader.dll' &&\n      ln -svf '$GAMEDIR/drive_c/users/$USER/AppData/Local/altv/libs/vulkan-1.dll'\n      '$GAMEDIR/drive_c/users/$USER/AppData/Local/altv/cef/vulkan-1.dll' && ln -svf\n      '$GAMEDIR/drive_c/users/$USER/AppData/Local/altv/libs/vk_swiftshader_icd.json'\n      '$GAMEDIR/drive_c/users/$USER/AppData/Local/altv/cef/vk_swiftshader_icd.json'\n    description: (3/4) Creating Symlinks to fix CEF bug\n- execute:\n    command: echo -e \"\\nlinuxCompatibility = true\" >> $GAMEDIR/drive_c/users/$USER/AppData/Local/altv/altv.toml\n    description: (4/4) Adding linuxCompatibility flag to config.\nrequires: grand-theft-auto-v\n",
  "discord_id": ""
}