{
  "id": 70175,
  "name": "Sharkey's Shootout",
  "slug": "sharkeys-shootout",
  "year": null,
  "banner_url": "",
  "icon_url": "",
  "coverart": null,
  "platforms": [],
  "provider_games": [
    {
      "name": "Sharkey's Shootout",
      "slug": "sharkeys-shootout",
      "service": "igdb"
    }
  ],
  "aliases": [],
  "shaders": [],
  "discord_id": "",
  "change_for": null
}