{
  "id": 61260,
  "name": "The Path of Kara",
  "slug": "the-path-of-kara",
  "year": null,
  "banner_url": "",
  "icon_url": "",
  "coverart": "https://lutris.net/media/igdb/cover_big/lpdnykuntazc0rlktieb.jpg",
  "platforms": [],
  "provider_games": [
    {
      "name": "The Path of Kara",
      "slug": "the-path-of-kara",
      "service": "igdb"
    }
  ],
  "aliases": [],
  "shaders": [],
  "discord_id": "",
  "change_for": null
}