{
  "id": 234937,
  "name": "Doctor Who: Thirteen",
  "slug": "doctor-who-thirteen",
  "year": 2020,
  "banner_url": "",
  "icon_url": "",
  "coverart": "https://lutris.net/media/igdb/cover_big/co684y.jpg",
  "platforms": [
    {
      "name": "Browser"
    }
  ],
  "provider_games": [
    {
      "name": "Doctor Who: Thirteen",
      "slug": "doctor-who-thirteen",
      "service": "igdb"
    }
  ],
  "aliases": [],
  "shaders": [],
  "discord_id": "",
  "change_for": null
}