{
  "id": 10643,
  "name": "Rotastic",
  "slug": "rotastic",
  "year": 2012,
  "banner_url": "https://lutris.net/games/banner/rotastic.jpg",
  "icon_url": "https://lutris.net/games/icon/rotastic.png",
  "coverart": "https://lutris.net/media/igdb/cover_big/co3j8v.jpg",
  "platforms": [
    {
      "name": "Sony Playstation 3"
    },
    {
      "name": "Windows"
    }
  ],
  "provider_games": [
    {
      "name": "Rotastic",
      "slug": "204580",
      "service": "steam"
    },
    {
      "name": "Rotastic",
      "slug": "rotastic",
      "service": "igdb"
    }
  ],
  "aliases": [],
  "shaders": [],
  "discord_id": "",
  "change_for": null
}