{
  "id": 39363,
  "name": "Cotrio",
  "slug": "cotrio",
  "year": 2018,
  "banner_url": "https://lutris.net/games/banner/cotrio.jpg",
  "icon_url": "",
  "coverart": "https://lutris.net/media/igdb/cover_big/co1iwp.jpg",
  "platforms": [
    {
      "name": "Android"
    },
    {
      "name": "Mac"
    },
    {
      "name": "Windows"
    }
  ],
  "provider_games": [
    {
      "name": "Cotrio",
      "slug": "cotrio",
      "service": "igdb"
    }
  ],
  "aliases": [],
  "shaders": [],
  "discord_id": "",
  "change_for": null
}