{
  "id": 250434,
  "name": "Bounty Hunting Time",
  "slug": "bounty-hunting-time",
  "year": null,
  "banner_url": "",
  "icon_url": "",
  "coverart": "https://lutris.net/media/igdb/cover_big/co6ooi.jpg",
  "platforms": [],
  "provider_games": [
    {
      "name": "Bounty Hunting Time",
      "slug": "bounty-hunting-time",
      "service": "igdb"
    }
  ],
  "aliases": [],
  "shaders": [],
  "discord_id": "",
  "change_for": null
}