{
  "id": 4950,
  "game_id": 12192,
  "game_slug": "catapult-punishment",
  "name": "Catapult Punishment",
  "year": 2016,
  "user": "FakeShemp",
  "runner": "wine",
  "slug": "catapult-punishment-groupees",
  "version": "Groupees",
  "description": "",
  "notes": "",
  "credits": "",
  "created_at": "2017-07-10T18:49:00.350802Z",
  "updated_at": "2018-05-19T03:41:56.028211Z",
  "draft": false,
  "published": true,
  "published_by": null,
  "rating": "",
  "is_playable": null,
  "steamid": null,
  "gogid": null,
  "gogslug": "",
  "humbleid": "",
  "humblestoreid": "",
  "humblestoreid_real": "",
  "script": {
    "files": [
      {
        "file1": "N/A:Please select the Groupees archive"
      }
    ],
    "game": {
      "arch": "win32",
      "exe": "drive_c/Program Files/Catapult Punishment/CatapultPunishment.exe",
      "prefix": "$GAMEDIR"
    },
    "installer": [
      {
        "extract": {
          "dst": "$GAMEDIR/drive_c/Program Files/Catapult Punishment",
          "file": "$file1"
        }
      }
    ]
  },
  "content": "files:\n- file1: N/A:Please select the Groupees archive\ngame:\n  arch: win32\n  exe: drive_c/Program Files/Catapult Punishment/CatapultPunishment.exe\n  prefix: $GAMEDIR\ninstaller:\n- extract:\n    dst: $GAMEDIR/drive_c/Program Files/Catapult Punishment\n    file: $file1\n",
  "discord_id": ""
}