{
  "id": 9145,
  "name": "Don't Starve Together",
  "slug": "dont-starve-together",
  "year": 2016,
  "banner_url": "https://lutris.net/games/banner/dont-starve-together.jpg",
  "icon_url": "",
  "coverart": "https://lutris.net/media/igdb/cover_big/co1yg3.jpg",
  "platforms": [
    {
      "name": "Linux"
    },
    {
      "name": "Mac"
    },
    {
      "name": "Nintendo Switch"
    },
    {
      "name": "Sony Playstation 4"
    },
    {
      "name": "Windows"
    },
    {
      "name": "Xbox One"
    },
    {
      "name": "Xbox Series X|S"
    }
  ],
  "provider_games": [
    {
      "name": "Don't Starve Together",
      "slug": "322330",
      "service": "steam"
    },
    {
      "name": "Don't Starve Together",
      "slug": "dont-starve-together",
      "service": "igdb"
    }
  ],
  "aliases": [
    {
      "slug": "dont-starve-together-beta",
      "name": "Don't Starve Together"
    }
  ],
  "shaders": [],
  "discord_id": "",
  "change_for": null
}