{
  "id": 46694,
  "name": "Delightful Wallpaper",
  "slug": "delightful-wallpaper",
  "year": null,
  "banner_url": "",
  "icon_url": "",
  "coverart": "https://lutris.net/media/igdb/cover_big/hxi2lsvicinnu3jso31h.jpg",
  "platforms": [],
  "provider_games": [
    {
      "name": "Delightful Wallpaper",
      "slug": "delightful-wallpaper",
      "service": "igdb"
    }
  ],
  "aliases": [],
  "shaders": [],
  "discord_id": "",
  "change_for": null
}