{
  "id": 200222,
  "name": "Bob The Robber 5",
  "slug": "bob-the-robber-5",
  "year": null,
  "banner_url": "",
  "icon_url": "",
  "coverart": null,
  "platforms": [],
  "provider_games": [
    {
      "name": "Bob the Robber 5",
      "slug": "bob-the-robber-5",
      "service": "igdb"
    }
  ],
  "aliases": [],
  "shaders": [],
  "discord_id": "",
  "change_for": null
}