{
  "id": 124820,
  "name": "Chilie: The First Encounter",
  "slug": "chilie-the-first-encounter",
  "year": 2016,
  "banner_url": "",
  "icon_url": "",
  "coverart": null,
  "platforms": [
    {
      "name": "Windows"
    }
  ],
  "provider_games": [
    {
      "name": "Chilie: The First Encounter",
      "slug": "chilie-the-first-encounter",
      "service": "igdb"
    }
  ],
  "aliases": [],
  "shaders": [],
  "discord_id": "",
  "change_for": null
}