{
  "id": 124021,
  "name": "Hero Soul: I Want to be a Hero!",
  "slug": "hero-soul-i-want-to-be-a-hero",
  "year": 2020,
  "banner_url": "",
  "icon_url": "",
  "coverart": "https://lutris.net/media/igdb/cover_big/co2jsj.jpg",
  "platforms": [
    {
      "name": "Windows"
    }
  ],
  "provider_games": [
    {
      "name": "Hero Soul: I Want to be a Hero!",
      "slug": "hero-soul-i-want-to-be-a-hero",
      "service": "igdb"
    }
  ],
  "aliases": [],
  "shaders": [],
  "discord_id": "",
  "change_for": null
}