{
  "id": 199393,
  "name": "Color Slots",
  "slug": "color-slots",
  "year": null,
  "banner_url": "",
  "icon_url": "",
  "coverart": "https://lutris.net/media/igdb/cover_big/co4g03.jpg",
  "platforms": [],
  "provider_games": [
    {
      "name": "Color Slots",
      "slug": "color-slots",
      "service": "igdb"
    }
  ],
  "aliases": [],
  "shaders": [],
  "discord_id": "",
  "change_for": null
}