{
  "id": 46775,
  "name": "BHU",
  "slug": "bhu",
  "year": null,
  "banner_url": "",
  "icon_url": "",
  "coverart": "https://lutris.net/media/igdb/cover_big/zssjbmr7knpht7tafn09.jpg",
  "platforms": [],
  "provider_games": [
    {
      "name": "BHU",
      "slug": "bhu",
      "service": "igdb"
    }
  ],
  "aliases": [],
  "shaders": [],
  "discord_id": "",
  "change_for": null
}