{
  "id": 277234,
  "name": "Protect The Town: Armageddon",
  "slug": "protect-the-town-armageddon",
  "year": 2016,
  "banner_url": "",
  "icon_url": "",
  "coverart": null,
  "platforms": [
    {
      "name": "Android"
    }
  ],
  "provider_games": [
    {
      "name": "Protect The Town: Armageddon",
      "slug": "protect-the-town-armageddon",
      "service": "igdb"
    }
  ],
  "aliases": [],
  "shaders": [],
  "discord_id": "",
  "change_for": null
}