{
  "id": 121020,
  "name": "Mahjong Secrets",
  "slug": "mahjong-secrets",
  "year": null,
  "banner_url": "",
  "icon_url": "",
  "coverart": null,
  "platforms": [
    {
      "name": "Windows"
    }
  ],
  "provider_games": [
    {
      "name": "Mahjong Secrets",
      "slug": "947400",
      "service": "steam"
    },
    {
      "name": "Mahjong Secrets",
      "slug": "mahjong-secrets",
      "service": "igdb"
    }
  ],
  "aliases": [],
  "shaders": [],
  "discord_id": "",
  "change_for": null
}