{
  "id": 259515,
  "name": "Wet Girls",
  "slug": "wet-girls",
  "year": null,
  "banner_url": "",
  "icon_url": "",
  "coverart": "https://lutris.net/media/igdb/cover_big/co74ma.jpg",
  "platforms": [],
  "provider_games": [
    {
      "name": "Wet Girls",
      "slug": "wet-girls",
      "service": "igdb"
    }
  ],
  "aliases": [],
  "shaders": [],
  "discord_id": "",
  "change_for": null
}