{
  "id": 15540,
  "game_id": 13867,
  "game_slug": "the-journeyman-project-1-pegasus-prime",
  "name": "The Journeyman Project 1: Pegasus Prime",
  "year": 1997,
  "user": "appoloin",
  "runner": "scummvm",
  "slug": "the-journeyman-project-1-pega-mac",
  "version": "Mac",
  "description": "HOWTO-Extract Pegasus Prime\r\n\r\nhttps://wiki.scummvm.org/index.php?title=HOWTO-Extract_Pegasus_Prime",
  "notes": "",
  "credits": "",
  "created_at": "2019-09-14T13:52:01.008226Z",
  "updated_at": "2020-04-19T07:29:07.034589Z",
  "draft": false,
  "published": true,
  "published_by": null,
  "rating": "",
  "is_playable": null,
  "steamid": 359420,
  "gogid": 1207664213,
  "gogslug": "journeyman_project_1_pegasus_prime_the",
  "humbleid": "",
  "humblestoreid": "",
  "humblestoreid_real": "",
  "script": {
    "files": [
      {
        "game": "N/A:Select the file JMP PP Resources.bin"
      }
    ],
    "game": {
      "game_id": "pegasus",
      "path": "$GAMEDIR"
    },
    "installer": [
      {
        "write_file": {
          "content": "#!/bin/bash\nsrc=$1\ndst=$2\nsrc_path=$(echo \"$1\" | sed -r \"s/(.+)\\/.+/\\1/\")\ncp -avr \"$src_path/.\"  \"$dst\"",
          "file": "$CACHE/bulkcopy.sh"
        }
      },
      {
        "chmodx": "$CACHE/bulkcopy.sh"
      },
      {
        "execute": {
          "args": "$game $GAMEDIR",
          "file": "$CACHE/bulkcopy.sh"
        }
      }
    ]
  },
  "content": "files:\n- game: N/A:Select the file JMP PP Resources.bin\ngame:\n  game_id: pegasus\n  path: $GAMEDIR\ninstaller:\n- write_file:\n    content: '#!/bin/bash\n\n      src=$1\n\n      dst=$2\n\n      src_path=$(echo \"$1\" | sed -r \"s/(.+)\\/.+/\\1/\")\n\n      cp -avr \"$src_path/.\"  \"$dst\"'\n    file: $CACHE/bulkcopy.sh\n- chmodx: $CACHE/bulkcopy.sh\n- execute:\n    args: $game $GAMEDIR\n    file: $CACHE/bulkcopy.sh\n",
  "discord_id": ""
}