{
  "id": 17180,
  "name": "ZAMBI 2 KIL",
  "slug": "zambi-2-kil",
  "year": 2017,
  "banner_url": "https://lutris.net/games/banner/zambi-2-kil.jpg",
  "icon_url": "https://lutris.net/games/icon/zambi-2-kil.png",
  "coverart": "https://lutris.net/media/igdb/cover_big/co2ky9.jpg",
  "platforms": [
    {
      "name": "Windows"
    }
  ],
  "provider_games": [
    {
      "name": "Zambi 2 Kil",
      "slug": "zambi-2-kil",
      "service": "igdb"
    }
  ],
  "aliases": [],
  "shaders": [],
  "discord_id": "",
  "change_for": null
}