{
  "id": 96620,
  "name": "Cat Demon Island",
  "slug": "cat-demon-island",
  "year": null,
  "banner_url": "",
  "icon_url": "",
  "coverart": null,
  "platforms": [],
  "provider_games": [
    {
      "name": "Cat Demon Island",
      "slug": "cat-demon-island",
      "service": "igdb"
    }
  ],
  "aliases": [],
  "shaders": [],
  "discord_id": "",
  "change_for": null
}