{
  "id": 221652,
  "name": "Spirits Chronicles: Flower Of Hope - Collector's Edition",
  "slug": "spirits-chronicles-flower-of-hope-collectors-edition",
  "year": 2022,
  "banner_url": "",
  "icon_url": "",
  "coverart": "https://lutris.net/media/igdb/cover_big/co5nw5.jpg",
  "platforms": [
    {
      "name": "Windows"
    }
  ],
  "provider_games": [
    {
      "name": "Spirits Chronicles: Flower of Hope - Collector's Edition",
      "slug": "spirits-chronicles-flower-of-hope-collectors-edition",
      "service": "igdb"
    }
  ],
  "aliases": [],
  "shaders": [],
  "discord_id": "",
  "change_for": null
}