{
  "id": 24913,
  "game_id": 40493,
  "game_slug": "almost-my-floor-prologue",
  "name": "Almost My Floor: Prologue",
  "year": 2020,
  "user": "vanstaveren",
  "runner": "steam",
  "slug": "almost-my-floor-prologue-steam",
  "version": "steam",
  "description": null,
  "notes": "",
  "credits": "",
  "created_at": "2020-12-06T17:08:12.619300Z",
  "updated_at": "2021-12-13T19:10:37.037046Z",
  "draft": false,
  "published": true,
  "published_by": null,
  "rating": "",
  "is_playable": null,
  "steamid": null,
  "gogid": null,
  "gogslug": "",
  "humbleid": "",
  "humblestoreid": "",
  "humblestoreid_real": "",
  "script": {
    "game": {
      "appid": 1395230
    }
  },
  "content": "game:\n  appid: 1395230\n",
  "discord_id": ""
}