{
  "id": 258388,
  "name": "Telmari",
  "slug": "telmari",
  "year": null,
  "banner_url": "",
  "icon_url": "",
  "coverart": "https://lutris.net/media/igdb/cover_big/co71py.jpg",
  "platforms": [],
  "provider_games": [
    {
      "name": "Telmari",
      "slug": "telmari",
      "service": "igdb"
    }
  ],
  "aliases": [],
  "shaders": [],
  "discord_id": "",
  "change_for": null
}