{
  "id": 245001,
  "name": "Touhou xià yèjì: Shining Shooting Star",
  "slug": "touhou-xia-yeji-shining-shooting-star",
  "year": 2016,
  "banner_url": "",
  "icon_url": "",
  "coverart": "https://lutris.net/media/igdb/cover_big/co6esm.jpg",
  "platforms": [
    {
      "name": "Windows"
    }
  ],
  "provider_games": [
    {
      "name": "Touhou xià yèjì: Shining Shooting Star",
      "slug": "touhou-xia-yeji-shining-shooting-star",
      "service": "igdb"
    }
  ],
  "aliases": [],
  "shaders": [],
  "discord_id": "",
  "change_for": null
}