{
  "id": 217144,
  "name": "Hammer & Potion",
  "slug": "hammer-and-potion",
  "year": null,
  "banner_url": "",
  "icon_url": "",
  "coverart": "https://lutris.net/media/igdb/cover_big/co55vg.jpg",
  "platforms": [],
  "provider_games": [
    {
      "name": "Hammer & Potion",
      "slug": "hammer-and-potion",
      "service": "igdb"
    }
  ],
  "aliases": [],
  "shaders": [],
  "discord_id": "",
  "change_for": null
}