{
  "id": 63575,
  "name": "Charm Girls Club: My Fashion Show",
  "slug": "charm-girls-club-my-fashion-show",
  "year": null,
  "banner_url": "",
  "icon_url": "",
  "coverart": null,
  "platforms": [],
  "provider_games": [
    {
      "name": "Charm Girls Club: My Fashion Show",
      "slug": "charm-girls-club-my-fashion-show",
      "service": "igdb"
    }
  ],
  "aliases": [],
  "shaders": [],
  "discord_id": "",
  "change_for": null
}