{
  "id": 159529,
  "name": "Mirrors of Grimaldi",
  "slug": "mirrors-of-grimaldi",
  "year": null,
  "banner_url": "",
  "icon_url": "",
  "coverart": null,
  "platforms": [],
  "provider_games": [
    {
      "name": "Mirrors of Grimaldi",
      "slug": "mirrors-of-grimaldi",
      "service": "igdb"
    }
  ],
  "aliases": [],
  "shaders": [],
  "discord_id": "",
  "change_for": null
}