{
  "id": 150446,
  "name": "Nucvivor",
  "slug": "nucvivor",
  "year": null,
  "banner_url": "",
  "icon_url": "",
  "coverart": "https://lutris.net/media/igdb/cover_big/co3q94.jpg",
  "platforms": [],
  "provider_games": [
    {
      "name": "Nucvivor",
      "slug": "nucvivor",
      "service": "igdb"
    }
  ],
  "aliases": [],
  "shaders": [],
  "discord_id": "",
  "change_for": null
}