{
  "id": 50480,
  "name": "Dead Alliance: Day One Edition",
  "slug": "dead-alliance-day-one-edition",
  "year": null,
  "banner_url": "",
  "icon_url": "",
  "coverart": "https://lutris.net/media/igdb/cover_big/czhsyam2ihel0ge3wxaa.jpg",
  "platforms": [],
  "provider_games": [
    {
      "name": "Dead Alliance: Day One Edition",
      "slug": "dead-alliance-day-one-edition",
      "service": "igdb"
    }
  ],
  "aliases": [],
  "shaders": [],
  "discord_id": "",
  "change_for": null
}