{
  "id": 277988,
  "name": "Reign",
  "slug": "reign",
  "year": null,
  "banner_url": "",
  "icon_url": "",
  "coverart": "https://lutris.net/media/igdb/cover_big/co7vj6.jpg",
  "platforms": [],
  "provider_games": [
    {
      "name": "Reign",
      "slug": "reign",
      "service": "igdb"
    }
  ],
  "aliases": [],
  "shaders": [],
  "discord_id": "",
  "change_for": null
}