{
  "id": 137949,
  "name": "Yoake Mae yori Ruri-iro na: Brighter than Dawning Blue",
  "slug": "yoake-mae-yori-ruri-iro-na-brighter-than-dawning-blue",
  "year": 2006,
  "banner_url": "",
  "icon_url": "",
  "coverart": "https://lutris.net/media/igdb/cover_big/co3r3b.jpg",
  "platforms": [
    {
      "name": "Sony PlayStation 2"
    }
  ],
  "provider_games": [
    {
      "name": "Yoake Mae yori Ruri-iro na: Brighter than Dawning Blue",
      "slug": "yoake-mae-yori-ruri-iro-na-brighter-than-dawning-blue",
      "service": "igdb"
    }
  ],
  "aliases": [],
  "shaders": [],
  "discord_id": "",
  "change_for": null
}