{
  "id": 140247,
  "name": "Project Hunter",
  "slug": "project-hunter",
  "year": null,
  "banner_url": "",
  "icon_url": "",
  "coverart": "https://lutris.net/media/igdb/cover_big/co3sb8.jpg",
  "platforms": [],
  "provider_games": [
    {
      "name": "Project Hunter",
      "slug": "project-hunter",
      "service": "igdb"
    }
  ],
  "aliases": [],
  "shaders": [],
  "discord_id": "",
  "change_for": null
}