{
  "id": 303028,
  "name": "El Lacasito de Gandalf",
  "slug": "el-lacasito-de-gandalf",
  "year": 2001,
  "banner_url": "",
  "icon_url": "",
  "coverart": "https://lutris.net/media/igdb/cover_big/co8zmc.jpg",
  "platforms": [
    {
      "name": "Windows"
    }
  ],
  "provider_games": [
    {
      "name": "El Lacasito de Gandalf",
      "slug": "el-lacasito-de-gandalf",
      "service": "igdb"
    }
  ],
  "aliases": [],
  "shaders": [],
  "discord_id": "",
  "change_for": null
}