{
  "id": 103428,
  "name": "Euro Truck Simulator 2: Legendary Edition",
  "slug": "euro-truck-simulator-2-legendary-edition",
  "year": 2013,
  "banner_url": "",
  "icon_url": "",
  "coverart": "https://lutris.net/media/igdb/cover_big/co2nql.jpg",
  "platforms": [
    {
      "name": "Windows"
    }
  ],
  "provider_games": [
    {
      "name": "Euro Truck Simulator 2: Legendary Edition",
      "slug": "euro-truck-simulator-2-legendary-edition",
      "service": "igdb"
    }
  ],
  "aliases": [],
  "shaders": [],
  "discord_id": "",
  "change_for": null
}