{
  "id": 301580,
  "name": "Pokemon Battle Online",
  "slug": "pokemon-battle-online",
  "year": null,
  "banner_url": "",
  "icon_url": "",
  "coverart": null,
  "platforms": [
    {
      "name": "Windows"
    }
  ],
  "provider_games": [
    {
      "name": "Pokemon Battle Online",
      "slug": "pokemon-battle-online",
      "service": "igdb"
    }
  ],
  "aliases": [],
  "shaders": [],
  "discord_id": "",
  "change_for": null
}