{
  "id": 77801,
  "name": "Party Pigs: Farmyard Games",
  "slug": "party-pigs-farmyard-games",
  "year": 2009,
  "banner_url": "",
  "icon_url": "",
  "coverart": "https://lutris.net/media/igdb/cover_big/co74ke.jpg",
  "platforms": [
    {
      "name": "Nintendo Wii"
    }
  ],
  "provider_games": [
    {
      "name": "Party Pigs: Farmyard Games",
      "slug": "party-pigs-farmyard-games",
      "service": "igdb"
    }
  ],
  "aliases": [],
  "shaders": [],
  "discord_id": "",
  "change_for": null
}