{
  "id": 160100,
  "name": "Lyrica",
  "slug": "lyrica",
  "year": 2017,
  "banner_url": "",
  "icon_url": "",
  "coverart": "https://lutris.net/media/igdb/cover_big/g1dwr2vf0up02u9neilm.jpg",
  "platforms": [
    {
      "name": "Android"
    },
    {
      "name": "Nintendo Switch"
    }
  ],
  "provider_games": [
    {
      "name": "Lyrica",
      "slug": "lyrica",
      "service": "igdb"
    }
  ],
  "aliases": [],
  "shaders": [],
  "discord_id": "",
  "change_for": null
}