{
  "id": 10120,
  "name": "Morphblade",
  "slug": "morphblade",
  "year": 2017,
  "banner_url": "https://lutris.net/games/banner/morphblade.jpg",
  "icon_url": "https://lutris.net/games/icon/morphblade.png",
  "coverart": "https://lutris.net/media/igdb/cover_big/co2509.jpg",
  "platforms": [
    {
      "name": "Windows"
    }
  ],
  "provider_games": [
    {
      "name": "Morphblade",
      "slug": "494720",
      "service": "steam"
    },
    {
      "name": "Morphblade",
      "slug": "morphblade",
      "service": "igdb"
    }
  ],
  "aliases": [],
  "shaders": [],
  "discord_id": "",
  "change_for": null
}