{
  "id": 101826,
  "name": "Cosmic Crisis",
  "slug": "cosmic-crisis",
  "year": 1983,
  "banner_url": "",
  "icon_url": "",
  "coverart": "https://lutris.net/media/igdb/cover_big/co2kvy.jpg",
  "platforms": [
    {
      "name": "Colecovision"
    }
  ],
  "provider_games": [
    {
      "name": "Cosmic Crisis",
      "slug": "cosmic-crisis",
      "service": "igdb"
    }
  ],
  "aliases": [],
  "shaders": [],
  "discord_id": "",
  "change_for": null
}