{
  "id": 163120,
  "name": "Spear of Destiny: The Final Journey",
  "slug": "spear-of-destiny-the-final-journey",
  "year": null,
  "banner_url": "",
  "icon_url": "",
  "coverart": "https://lutris.net/media/igdb/cover_big/co40ig.jpg",
  "platforms": [],
  "provider_games": [
    {
      "name": "Spear of Destiny: The Final Journey",
      "slug": "spear-of-destiny-the-final-journey",
      "service": "igdb"
    }
  ],
  "aliases": [],
  "shaders": [],
  "discord_id": "",
  "change_for": null
}