{
  "id": 189141,
  "name": "90 Minutes European Prime Goal",
  "slug": "90-minutes-european-prime-goal",
  "year": 1995,
  "banner_url": "https://lutris.net/games/banner/90-minutes-european-prime-goal.jpg",
  "icon_url": "",
  "coverart": "https://lutris.net/media/igdb/cover_big/co2kvv.jpg",
  "platforms": [
    {
      "name": "Super Famicom"
    },
    {
      "name": "Super Nintendo"
    }
  ],
  "provider_games": [
    {
      "name": "90 Minutes European Prime Goal",
      "slug": "90-minutes-european-prime-goal",
      "service": "igdb"
    }
  ],
  "aliases": [],
  "shaders": [],
  "discord_id": "",
  "change_for": null
}