{
  "id": 26912,
  "name": "Path to the Sky",
  "slug": "path-to-the-sky",
  "year": 2016,
  "banner_url": "https://lutris.net/games/banner/path-to-the-sky.jpg",
  "icon_url": "https://lutris.net/games/icon/path-to-the-sky.png",
  "coverart": "https://lutris.net/media/igdb/cover_big/co2qxo.jpg",
  "platforms": [
    {
      "name": "Mac"
    },
    {
      "name": "Windows"
    }
  ],
  "provider_games": [
    {
      "name": "Path to the Sky",
      "slug": "370390",
      "service": "steam"
    },
    {
      "name": "Path to the Sky",
      "slug": "path-to-the-sky",
      "service": "igdb"
    }
  ],
  "aliases": [],
  "shaders": [],
  "discord_id": "",
  "change_for": null
}