{
  "id": 244012,
  "name": "West Country Mayhem",
  "slug": "west-country-mayhem",
  "year": null,
  "banner_url": "",
  "icon_url": "",
  "coverart": "https://lutris.net/media/igdb/cover_big/co6g27.jpg",
  "platforms": [],
  "provider_games": [
    {
      "name": "West Country Mayhem",
      "slug": "west-country-mayhem",
      "service": "igdb"
    }
  ],
  "aliases": [],
  "shaders": [],
  "discord_id": "",
  "change_for": null
}