{
  "id": 238378,
  "name": "Defaced",
  "slug": "defaced",
  "year": null,
  "banner_url": "",
  "icon_url": "",
  "coverart": "https://lutris.net/media/igdb/cover_big/co64gw.jpg",
  "platforms": [],
  "provider_games": [
    {
      "name": "Defaced",
      "slug": "defaced",
      "service": "igdb"
    }
  ],
  "aliases": [],
  "shaders": [],
  "discord_id": "",
  "change_for": null
}