{
  "id": 292896,
  "name": "Guntris",
  "slug": "guntris",
  "year": null,
  "banner_url": "",
  "icon_url": "",
  "coverart": "https://lutris.net/media/igdb/cover_big/co8m5j.jpg",
  "platforms": [],
  "provider_games": [
    {
      "name": "Guntris",
      "slug": "guntris",
      "service": "igdb"
    }
  ],
  "aliases": [],
  "shaders": [],
  "discord_id": "",
  "change_for": null
}