{
  "id": 145929,
  "name": "Tornado Baseball",
  "slug": "tornado-baseball",
  "year": 1976,
  "banner_url": "",
  "icon_url": "",
  "coverart": "https://lutris.net/media/igdb/cover_big/u8ks9ta5n8o36pctyztc.jpg",
  "platforms": [],
  "provider_games": [
    {
      "name": "Tornado Baseball",
      "slug": "tornado-baseball",
      "service": "igdb"
    }
  ],
  "aliases": [],
  "shaders": [],
  "discord_id": "",
  "change_for": null
}