{
  "id": 16872,
  "name": "Eldritch Hunter",
  "slug": "eldritch-hunter",
  "year": 2017,
  "banner_url": "https://lutris.net/games/banner/eldritch-hunter.jpg",
  "icon_url": "https://lutris.net/games/icon/eldritch-hunter.png",
  "coverart": "https://lutris.net/media/igdb/cover_big/co2b0v.jpg",
  "platforms": [
    {
      "name": "Windows"
    }
  ],
  "provider_games": [
    {
      "name": "Eldritch Hunter",
      "slug": "514810",
      "service": "steam"
    },
    {
      "name": "Eldritch Hunter",
      "slug": "eldritch-hunter",
      "service": "igdb"
    }
  ],
  "aliases": [],
  "shaders": [],
  "discord_id": "",
  "change_for": null
}