{
  "id": 219251,
  "name": "Harry Is A Porter",
  "slug": "harry-is-a-porter",
  "year": null,
  "banner_url": "",
  "icon_url": "",
  "coverart": "https://lutris.net/media/igdb/cover_big/co5e3q.jpg",
  "platforms": [],
  "provider_games": [
    {
      "name": "Harry Is A Porter",
      "slug": "harry-is-a-porter",
      "service": "igdb"
    }
  ],
  "aliases": [],
  "shaders": [],
  "discord_id": "",
  "change_for": null
}