{
  "id": 299066,
  "name": "The Harmony Chronicles: Chaos Realm - Collector's Edition",
  "slug": "the-harmony-chronicles-chaos-realm-collectors-edition",
  "year": null,
  "banner_url": "",
  "icon_url": "",
  "coverart": "https://lutris.net/media/igdb/cover_big/co8xux.jpg",
  "platforms": [],
  "provider_games": [
    {
      "name": "The Harmony Chronicles: Chaos Realm - Collector's Edition",
      "slug": "the-harmony-chronicles-chaos-realm-collectors-edition",
      "service": "igdb"
    }
  ],
  "aliases": [],
  "shaders": [],
  "discord_id": "",
  "change_for": null
}