{
  "id": 14535,
  "game_id": 9714,
  "game_slug": "naev",
  "name": "Naev",
  "year": 2017,
  "user": "skyace65",
  "runner": "steam",
  "slug": "naev-steam",
  "version": "Steam",
  "description": null,
  "notes": "",
  "credits": "",
  "created_at": "2019-07-12T03:56:18.447954Z",
  "updated_at": "2019-08-18T16:50:48.259648Z",
  "draft": false,
  "published": true,
  "published_by": null,
  "rating": "",
  "is_playable": null,
  "steamid": 598530,
  "gogid": null,
  "gogslug": "",
  "humbleid": "",
  "humblestoreid": "",
  "humblestoreid_real": "",
  "script": {
    "game": {
      "appid": 598530
    }
  },
  "content": "game:\n  appid: 598530\n",
  "discord_id": ""
}