{
  "id": 135920,
  "name": "Directive Nine",
  "slug": "directive-nine",
  "year": null,
  "banner_url": "",
  "icon_url": "",
  "coverart": "https://lutris.net/media/igdb/cover_big/co3omy.jpg",
  "platforms": [],
  "provider_games": [
    {
      "name": "Directive Nine",
      "slug": "directive-nine",
      "service": "igdb"
    }
  ],
  "aliases": [],
  "shaders": [],
  "discord_id": "",
  "change_for": null
}