{
  "id": 21597,
  "name": "Brew-Ha",
  "slug": "brew-ha",
  "year": null,
  "banner_url": "https://lutris.net/games/banner/brew-ha.jpg",
  "icon_url": "https://lutris.net/games/icon/brew-ha.png",
  "coverart": null,
  "platforms": [],
  "provider_games": [
    {
      "name": "Brew-Ha",
      "slug": "786490",
      "service": "steam"
    },
    {
      "name": "Brew-Ha",
      "slug": "brew-ha",
      "service": "igdb"
    }
  ],
  "aliases": [],
  "shaders": [],
  "discord_id": "",
  "change_for": null
}