{
  "id": 244112,
  "name": "Hidden Epee",
  "slug": "hidden-epee",
  "year": null,
  "banner_url": "",
  "icon_url": "",
  "coverart": "https://lutris.net/media/igdb/cover_big/co6fxz.jpg",
  "platforms": [
    {
      "name": "Android"
    },
    {
      "name": "Windows"
    }
  ],
  "provider_games": [
    {
      "name": "Hidden Epee",
      "slug": "hidden-epee",
      "service": "igdb"
    }
  ],
  "aliases": [],
  "shaders": [],
  "discord_id": "",
  "change_for": null
}