{
  "id": 131063,
  "name": "Daiakuji",
  "slug": "daiakuji",
  "year": 2001,
  "banner_url": "",
  "icon_url": "",
  "coverart": "https://lutris.net/media/igdb/cover_big/co3jeb.jpg",
  "platforms": [
    {
      "name": "OOParts"
    },
    {
      "name": "Windows"
    }
  ],
  "provider_games": [
    {
      "name": "Daiakuji",
      "slug": "daiakuji",
      "service": "igdb"
    }
  ],
  "aliases": [],
  "shaders": [],
  "discord_id": "",
  "change_for": null
}