{
  "id": 48613,
  "name": "Flipnic: Ultimate Pinball",
  "slug": "flipnic-ultimate-pinball",
  "year": 2003,
  "banner_url": "",
  "icon_url": "",
  "coverart": "https://lutris.net/media/igdb/cover_big/co1ov9.jpg",
  "platforms": [
    {
      "name": "Sony PlayStation 2"
    }
  ],
  "provider_games": [
    {
      "name": "Flipnic: Ultimate Pinball",
      "slug": "flipnic-ultimate-pinball",
      "service": "igdb"
    }
  ],
  "aliases": [],
  "shaders": [],
  "discord_id": "",
  "change_for": null
}