{
  "id": 79016,
  "name": "Wii Party: World Edition",
  "slug": "wii-party-world-edition",
  "year": null,
  "banner_url": "",
  "icon_url": "",
  "coverart": null,
  "platforms": [],
  "provider_games": [
    {
      "name": "Wii Party: World Edition",
      "slug": "wii-party-world-edition",
      "service": "igdb"
    }
  ],
  "aliases": [],
  "shaders": [],
  "discord_id": "",
  "change_for": null
}