{
  "id": 23853,
  "game_id": 4132,
  "game_slug": "transformice",
  "name": "Transformice",
  "year": 2010,
  "user": "vanstaveren",
  "runner": "steam",
  "slug": "transformice-proton",
  "version": "proton",
  "description": null,
  "notes": "",
  "credits": "",
  "created_at": "2020-10-11T19:19:13.497828Z",
  "updated_at": "2021-12-13T19:14:46.095880Z",
  "draft": false,
  "published": true,
  "published_by": null,
  "rating": "",
  "is_playable": null,
  "steamid": 335240,
  "gogid": null,
  "gogslug": "",
  "humbleid": "",
  "humblestoreid": "",
  "humblestoreid_real": "",
  "script": {
    "game": {
      "appid": 335240
    }
  },
  "content": "game:\n  appid: 335240\n",
  "discord_id": "425748744810659841"
}