{
  "id": 53251,
  "name": "Traitors Gate 2",
  "slug": "traitors-gate-2",
  "year": 2003,
  "banner_url": "",
  "icon_url": "",
  "coverart": "https://lutris.net/media/igdb/cover_big/qo8ljvqp56ygsiia7i8a.jpg",
  "platforms": [
    {
      "name": "Windows"
    }
  ],
  "provider_games": [
    {
      "name": "Traitors Gate 2",
      "slug": "traitors-gate-2",
      "service": "igdb"
    }
  ],
  "aliases": [],
  "shaders": [],
  "discord_id": "",
  "change_for": null
}