{
  "id": 237650,
  "name": "Crazy Shoot",
  "slug": "crazy-shoot",
  "year": 1989,
  "banner_url": "",
  "icon_url": "",
  "coverart": "https://lutris.net/media/igdb/cover_big/co65u1.jpg",
  "platforms": [],
  "provider_games": [
    {
      "name": "Crazy Shoot",
      "slug": "crazy-shoot",
      "service": "igdb"
    }
  ],
  "aliases": [],
  "shaders": [],
  "discord_id": "",
  "change_for": null
}