{
  "id": 2587,
  "game_id": 2944,
  "game_slug": "tesseract",
  "name": "Tesseract",
  "year": 2014,
  "user": "ssf",
  "runner": "linux",
  "slug": "tesseract-first-edition",
  "version": "First Edition",
  "description": "",
  "notes": "",
  "credits": "",
  "created_at": "2016-08-24T17:08:21.149682Z",
  "updated_at": "2024-04-03T05:34:17.807723Z",
  "draft": false,
  "published": true,
  "published_by": null,
  "rating": "",
  "is_playable": null,
  "steamid": 304810,
  "gogid": null,
  "gogslug": "",
  "humbleid": "",
  "humblestoreid": "",
  "humblestoreid_real": "",
  "script": {
    "files": [
      {
        "game": "http://download.tuxfamily.org/tesseract/tesseract_2014_05_12_first_edition_linux.tar.xz"
      }
    ],
    "game": {
      "exe": "tesseract_unix"
    },
    "installer": [
      {
        "execute": {
          "args": "-c \"tar -xf $game -C $GAMEDIR --strip 1\"",
          "description": "extracting...",
          "file": "/bin/sh"
        }
      },
      {
        "chmodx": "$GAMEDIR/tesseract_unix"
      },
      {
        "chmodx": "$GAMEDIR/bin_unix/linux_64_client"
      },
      {
        "chmodx": "$GAMEDIR/bin_unix/linux_client"
      }
    ]
  },
  "content": "files:\n- game: http://download.tuxfamily.org/tesseract/tesseract_2014_05_12_first_edition_linux.tar.xz\ngame:\n  exe: tesseract_unix\ninstaller:\n- execute:\n    args: -c \"tar -xf $game -C $GAMEDIR --strip 1\"\n    description: extracting...\n    file: /bin/sh\n- chmodx: $GAMEDIR/tesseract_unix\n- chmodx: $GAMEDIR/bin_unix/linux_64_client\n- chmodx: $GAMEDIR/bin_unix/linux_client\n",
  "discord_id": ""
}