{
  "id": 266925,
  "name": "The Last 66 Days",
  "slug": "the-last-66-days",
  "year": null,
  "banner_url": "",
  "icon_url": "",
  "coverart": "https://lutris.net/media/igdb/cover_big/co7ey3.jpg",
  "platforms": [],
  "provider_games": [
    {
      "name": "The Last 66 Days",
      "slug": "the-last-66-days",
      "service": "igdb"
    }
  ],
  "aliases": [],
  "shaders": [],
  "discord_id": "",
  "change_for": null
}