{
  "id": 289771,
  "name": "Meteor Shower",
  "slug": "meteor-shower--1",
  "year": 2011,
  "banner_url": "",
  "icon_url": "",
  "coverart": "https://lutris.net/media/igdb/cover_big/co8e04.jpg",
  "platforms": [],
  "provider_games": [
    {
      "name": "Meteor Shower",
      "slug": "meteor-shower--1",
      "service": "igdb"
    }
  ],
  "aliases": [],
  "shaders": [],
  "discord_id": "",
  "change_for": null
}