{
  "id": 170519,
  "name": "Whone",
  "slug": "whone",
  "year": null,
  "banner_url": "",
  "icon_url": "",
  "coverart": "https://lutris.net/media/igdb/cover_big/co46ps.jpg",
  "platforms": [],
  "provider_games": [
    {
      "name": "Whone",
      "slug": "whone",
      "service": "igdb"
    }
  ],
  "aliases": [],
  "shaders": [],
  "discord_id": "",
  "change_for": null
}