{
  "id": 70235,
  "name": "Guttang Gottung",
  "slug": "guttang-gottung",
  "year": null,
  "banner_url": "",
  "icon_url": "",
  "coverart": "https://lutris.net/media/igdb/cover_big/co68ek.jpg",
  "platforms": [],
  "provider_games": [
    {
      "name": "Guttang Gottung",
      "slug": "guttang-gottung",
      "service": "igdb"
    }
  ],
  "aliases": [],
  "shaders": [],
  "discord_id": "",
  "change_for": null
}