{
  "id": 179068,
  "name": "Life of Delta",
  "slug": "life-of-delta",
  "year": null,
  "banner_url": "",
  "icon_url": "",
  "coverart": "https://lutris.net/media/igdb/cover_big/co2wec.jpg",
  "platforms": [
    {
      "name": "Windows"
    }
  ],
  "provider_games": [
    {
      "name": "Life of Delta",
      "slug": "life-of-delta",
      "service": "igdb"
    },
    {
      "name": "Life of Delta",
      "slug": "1817878585",
      "service": "gog"
    }
  ],
  "aliases": [],
  "shaders": [],
  "discord_id": "",
  "change_for": null
}