{
  "id": 295773,
  "name": "Destiny Star Girlfriend 3",
  "slug": "destiny-star-girlfriend-3--1",
  "year": 2019,
  "banner_url": "",
  "icon_url": "",
  "coverart": null,
  "platforms": [
    {
      "name": "Android"
    },
    {
      "name": "Windows"
    }
  ],
  "provider_games": [
    {
      "name": "Destiny Star Girlfriend 3",
      "slug": "destiny-star-girlfriend-3--1",
      "service": "igdb"
    }
  ],
  "aliases": [],
  "shaders": [],
  "discord_id": "",
  "change_for": null
}