{
  "id": 34170,
  "name": "Future Flash",
  "slug": "future-flash",
  "year": 1980,
  "banner_url": "",
  "icon_url": "https://lutris.net/games/icon/future-flash.png",
  "coverart": "https://lutris.net/media/igdb/cover_big/co7jsk.jpg",
  "platforms": [
    {
      "name": "Arcade"
    }
  ],
  "provider_games": [
    {
      "name": "Future Flash",
      "slug": "futflash",
      "service": "mame"
    },
    {
      "name": "Future Flash",
      "slug": "future-flash",
      "service": "igdb"
    }
  ],
  "aliases": [],
  "shaders": [],
  "discord_id": "",
  "change_for": null
}