{
  "id": 163830,
  "name": "NCAA College Football 2K2",
  "slug": "ncaa-college-football-2k2",
  "year": 2001,
  "banner_url": "",
  "icon_url": "",
  "coverart": "https://lutris.net/media/igdb/cover_big/co40rc.jpg",
  "platforms": [
    {
      "name": "Dreamcast"
    }
  ],
  "provider_games": [
    {
      "name": "NCAA College Football 2K2",
      "slug": "ncaa-college-football-2k2",
      "service": "igdb"
    }
  ],
  "aliases": [],
  "shaders": [],
  "discord_id": "",
  "change_for": null
}