{
  "id": 295912,
  "name": "Deuteros: The Next Millenium",
  "slug": "deuteros-the-next-millenium",
  "year": 1991,
  "banner_url": "https://lutris.net/games/banner/deuteros-the-next-millenium.jpg",
  "icon_url": "",
  "coverart": null,
  "platforms": [
    {
      "name": "Amiga"
    }
  ],
  "provider_games": [],
  "aliases": [],
  "shaders": [],
  "discord_id": "",
  "change_for": null
}