{
  "id": 297537,
  "name": "Rival Stars Horse Racing: Desktop Edition",
  "slug": "rival-stars-horse-racing-desktop-edition",
  "year": 2020,
  "banner_url": "",
  "icon_url": "",
  "coverart": null,
  "platforms": [
    {
      "name": "Mac"
    },
    {
      "name": "Windows"
    }
  ],
  "provider_games": [
    {
      "name": "Rival Stars Horse Racing: Desktop Edition",
      "slug": "rival-stars-horse-racing-desktop-edition",
      "service": "igdb"
    }
  ],
  "aliases": [],
  "shaders": [],
  "discord_id": "",
  "change_for": null
}