{
  "id": 33024,
  "game_id": 189077,
  "game_slug": "goose-goose-duck",
  "name": "Goose Goose Duck",
  "year": 2021,
  "user": "GamerBrush",
  "runner": "steam",
  "slug": "goose-goose-duck-proton",
  "version": "Proton",
  "description": "",
  "notes": "",
  "credits": "",
  "created_at": "2022-05-02T14:01:07.940795Z",
  "updated_at": "2023-01-11T06:01:59.354323Z",
  "draft": false,
  "published": true,
  "published_by": null,
  "rating": "",
  "is_playable": null,
  "steamid": 1568590,
  "gogid": null,
  "gogslug": "",
  "humbleid": "",
  "humblestoreid": "",
  "humblestoreid_real": "",
  "script": {
    "game": {
      "appid": 1568590
    }
  },
  "content": "game:\n  appid: 1568590\n",
  "discord_id": ""
}