{
  "id": 35278,
  "name": "Pirate 2",
  "slug": "pirate-2",
  "year": 2006,
  "banner_url": "",
  "icon_url": "https://lutris.net/games/icon/pirate-2.png",
  "coverart": null,
  "platforms": [
    {
      "name": "Arcade"
    }
  ],
  "provider_games": [
    {
      "name": "Pirate 2",
      "slug": "pirate2",
      "service": "mame"
    }
  ],
  "aliases": [],
  "shaders": [],
  "discord_id": "",
  "change_for": null
}