{
  "id": 8223,
  "name": "Sid Meier's Civilization VI",
  "slug": "sid-meiers-civilization-vi",
  "year": 2016,
  "banner_url": "https://lutris.net/games/banner/sid-meiers-civilization-vi.jpg",
  "icon_url": "https://lutris.net/games/icon/sid-meiers-civilization-vi.png",
  "coverart": "https://lutris.net/media/igdb/cover_big/co28j8.jpg",
  "platforms": [
    {
      "name": "Linux"
    },
    {
      "name": "Mac"
    },
    {
      "name": "Nintendo Switch"
    },
    {
      "name": "Sony Playstation 4"
    },
    {
      "name": "Windows"
    },
    {
      "name": "Xbox One"
    }
  ],
  "provider_games": [
    {
      "name": "Sid Meier's Civilization VI",
      "slug": "289070",
      "service": "steam"
    },
    {
      "name": "Sid Meier's Civilization VI",
      "slug": "sid-meiers-civilization-vi",
      "service": "igdb"
    }
  ],
  "aliases": [],
  "shaders": [],
  "discord_id": "",
  "change_for": null
}