{
  "id": 144835,
  "name": "Sweet Dream",
  "slug": "sweet-dream",
  "year": null,
  "banner_url": "",
  "icon_url": "",
  "coverart": "https://lutris.net/media/igdb/cover_big/co3v12.jpg",
  "platforms": [],
  "provider_games": [
    {
      "name": "Sweet Dream",
      "slug": "sweet-dream",
      "service": "igdb"
    }
  ],
  "aliases": [],
  "shaders": [],
  "discord_id": "",
  "change_for": null
}