{
  "id": 28160,
  "name": "UWT - 2. 3DS Max Modeling - Chapter 1.4",
  "slug": "uwt-2-3ds-max-modeling-chapter-14",
  "year": null,
  "banner_url": "https://lutris.net/games/banner/uwt-2-3ds-max-modeling-chapter-14.jpg",
  "icon_url": "https://lutris.net/games/icon/uwt-2-3ds-max-modeling-chapter-14.png",
  "coverart": null,
  "platforms": [],
  "provider_games": [
    {
      "name": "UWT - 2. 3DS Max Modeling - Chapter 1.4",
      "slug": "423018",
      "service": "steam"
    }
  ],
  "aliases": [],
  "shaders": [],
  "discord_id": "",
  "change_for": null
}