{
  "id": 11633,
  "name": "SWAT 3: Tactical Game of the Year Edition",
  "slug": "swat-3-tactical-game-of-the-year-edition",
  "year": 1999,
  "banner_url": "https://lutris.net/games/banner/swat-3-tactical-game-of-the-year-edition.jpg",
  "icon_url": "https://lutris.net/games/icon/swat-3-tactical-game-of-the-year-edition.png",
  "coverart": "https://lutris.net/media/igdb/cover_big/co49kx.jpg",
  "platforms": [
    {
      "name": "Windows"
    }
  ],
  "provider_games": [
    {
      "name": "SWAT 3: Tactical Game of the Year Edition",
      "slug": "1207658946",
      "service": "gog"
    },
    {
      "name": "SWAT 3: Tactical Game of the Year Edition",
      "slug": "560370",
      "service": "steam"
    },
    {
      "name": "SWAT 3: Tactical Game of the Year Edition",
      "slug": "swat-3-tactical-game-of-the-year-edition",
      "service": "igdb"
    }
  ],
  "aliases": [],
  "shaders": [],
  "discord_id": "",
  "change_for": null
}