{
  "id": 144196,
  "name": "Clap Hanz Golf",
  "slug": "clap-hanz-golf",
  "year": 2021,
  "banner_url": "",
  "icon_url": "",
  "coverart": "https://lutris.net/media/igdb/cover_big/co2xsb.jpg",
  "platforms": [],
  "provider_games": [
    {
      "name": "Clap Hanz Golf",
      "slug": "clap-hanz-golf",
      "service": "igdb"
    }
  ],
  "aliases": [],
  "shaders": [],
  "discord_id": "",
  "change_for": null
}