{
  "id": 107599,
  "name": "Lara Gates: The Lost Talisman Hidden Object Game",
  "slug": "lara-gates-the-lost-talisman-hidden-object-game",
  "year": null,
  "banner_url": "",
  "icon_url": "",
  "coverart": "https://lutris.net/media/igdb/cover_big/co2vez.jpg",
  "platforms": [],
  "provider_games": [
    {
      "name": "Lara Gates: The Lost Talisman Hidden Object Game",
      "slug": "lara-gates-the-lost-talisman-hidden-object-game",
      "service": "igdb"
    }
  ],
  "aliases": [],
  "shaders": [],
  "discord_id": "",
  "change_for": null
}