{
  "id": 299450,
  "name": "Sonar Scout",
  "slug": "sonar-scout",
  "year": null,
  "banner_url": "",
  "icon_url": "",
  "coverart": "https://lutris.net/media/igdb/cover_big/co8wpz.jpg",
  "platforms": [],
  "provider_games": [
    {
      "name": "Sonar Scout",
      "slug": "sonar-scout",
      "service": "igdb"
    }
  ],
  "aliases": [],
  "shaders": [],
  "discord_id": "",
  "change_for": null
}