{
  "id": 64398,
  "name": "Het Labyrint van Toetanchamon",
  "slug": "het-labyrint-van-toetanchamon",
  "year": null,
  "banner_url": "",
  "icon_url": "",
  "coverart": null,
  "platforms": [],
  "provider_games": [
    {
      "name": "Het Labyrint van Toetanchamon",
      "slug": "het-labyrint-van-toetanchamon",
      "service": "igdb"
    }
  ],
  "aliases": [],
  "shaders": [],
  "discord_id": "",
  "change_for": null
}