{
  "id": 17669,
  "name": "Sword Art Online: Fatal Bullet",
  "slug": "sword-art-online-fatal-bullet",
  "year": 2018,
  "banner_url": "https://lutris.net/games/banner/sword-art-online-fatal-bullet.jpg",
  "icon_url": "https://lutris.net/games/icon/sword-art-online-fatal-bullet.png",
  "coverart": "https://lutris.net/media/igdb/cover_big/co276v.jpg",
  "platforms": [
    {
      "name": "Sony Playstation 4"
    },
    {
      "name": "Windows"
    },
    {
      "name": "Xbox One"
    }
  ],
  "provider_games": [
    {
      "name": "Sword Art Online: Fatal Bullet",
      "slug": "626690",
      "service": "steam"
    },
    {
      "name": "Sword Art Online: Fatal Bullet",
      "slug": "sword-art-online-fatal-bullet",
      "service": "igdb"
    }
  ],
  "aliases": [],
  "shaders": [],
  "discord_id": "",
  "change_for": null
}