{
  "id": 199793,
  "name": "Nailed It",
  "slug": "nailed-it",
  "year": null,
  "banner_url": "",
  "icon_url": "",
  "coverart": "https://lutris.net/media/igdb/cover_big/co4f7q.jpg",
  "platforms": [],
  "provider_games": [
    {
      "name": "Nailed It",
      "slug": "nailed-it",
      "service": "igdb"
    }
  ],
  "aliases": [],
  "shaders": [],
  "discord_id": "",
  "change_for": null
}