{
  "id": 288192,
  "name": "Room Renovator: Furniture Decor Simulator",
  "slug": "room-renovator-furniture-decor-simulator",
  "year": 2024,
  "banner_url": "",
  "icon_url": "",
  "coverart": "https://lutris.net/media/igdb/cover_big/co8cz0.jpg",
  "platforms": [
    {
      "name": "Nintendo Switch"
    }
  ],
  "provider_games": [
    {
      "name": "Room Renovator: Furniture Decor Simulator",
      "slug": "room-renovator-furniture-decor-simulator",
      "service": "igdb"
    }
  ],
  "aliases": [],
  "shaders": [],
  "discord_id": "",
  "change_for": null
}