{
  "id": 159656,
  "name": "Battle Fleet: A Battleship Wargame",
  "slug": "battle-fleet-a-battleship-wargame",
  "year": 2014,
  "banner_url": "",
  "icon_url": "",
  "coverart": null,
  "platforms": [],
  "provider_games": [
    {
      "name": "Battle Fleet: A Battleship Wargame",
      "slug": "battle-fleet-a-battleship-wargame",
      "service": "igdb"
    }
  ],
  "aliases": [],
  "shaders": [],
  "discord_id": "",
  "change_for": null
}