{
  "id": 44257,
  "name": "Imperivm RTC - HD Edition \"Great Battles of Rome\"",
  "slug": "imperivm-rtc-hd-edition-great-battles-of-rome",
  "year": null,
  "banner_url": "https://lutris.net/games/banner/imperivm-rtc-hd-edition-great-battles-of-rome.jpg",
  "icon_url": "https://lutris.net/games/icon/imperivm-rtc-hd-edition-great-battles-of-rome.png",
  "coverart": null,
  "platforms": [],
  "provider_games": [
    {
      "name": "Imperivm RTC - HD Edition \"Great Battles of Rome\"",
      "slug": "752580",
      "service": "steam"
    }
  ],
  "aliases": [],
  "shaders": [],
  "discord_id": "",
  "change_for": null
}