{
  "id": 4784,
  "name": "Burgers",
  "slug": "burgers",
  "year": 2015,
  "banner_url": "https://lutris.net/games/banner/burgers.jpg",
  "icon_url": "https://lutris.net/games/icon/burgers.png",
  "coverart": "https://lutris.net/media/igdb/cover_big/ygyeafmte5d22ruzptqg.jpg",
  "platforms": [
    {
      "name": "Windows"
    }
  ],
  "provider_games": [
    {
      "name": "Burgers",
      "slug": "385830",
      "service": "steam"
    },
    {
      "name": "Burgers",
      "slug": "burgers",
      "service": "igdb"
    }
  ],
  "aliases": [],
  "shaders": [],
  "discord_id": "",
  "change_for": null
}