{
  "id": 1043,
  "game_id": 3358,
  "game_slug": "snow-light",
  "name": "Snow Light",
  "year": 2014,
  "user": "Xodetaetl",
  "runner": "steam",
  "slug": "snow-light-steam",
  "version": "steam",
  "description": "",
  "notes": "",
  "credits": "",
  "created_at": "2014-11-10T10:23:16.522000Z",
  "updated_at": "2014-11-10T10:28:28.150000Z",
  "draft": false,
  "published": true,
  "published_by": null,
  "rating": "",
  "is_playable": null,
  "steamid": 329480,
  "gogid": null,
  "gogslug": "",
  "humbleid": "",
  "humblestoreid": "",
  "humblestoreid_real": "",
  "script": {
    "game": {
      "appid": 329480
    }
  },
  "content": "game:\n  appid: 329480\n",
  "discord_id": ""
}