{
  "id": 302370,
  "name": "Pro Flight Simulator: Deluxe",
  "slug": "pro-flight-simulator-deluxe",
  "year": 2024,
  "banner_url": "",
  "icon_url": "",
  "coverart": "https://lutris.net/media/igdb/cover_big/co93wr.jpg",
  "platforms": [
    {
      "name": "Nintendo Switch"
    }
  ],
  "provider_games": [
    {
      "name": "Pro Flight Simulator: Deluxe",
      "slug": "pro-flight-simulator-deluxe",
      "service": "igdb"
    }
  ],
  "aliases": [],
  "shaders": [],
  "discord_id": "",
  "change_for": null
}