{
  "id": 11240,
  "name": "Stephen's Sausage Roll",
  "slug": "stephens-sausage-roll",
  "year": 2016,
  "banner_url": "https://lutris.net/games/banner/stephens-sausage-roll.jpg",
  "icon_url": "https://lutris.net/games/icon/stephens-sausage-roll.png",
  "coverart": "https://lutris.net/media/igdb/cover_big/co2dr4.jpg",
  "platforms": [
    {
      "name": "Linux"
    },
    {
      "name": "Mac"
    },
    {
      "name": "Windows"
    }
  ],
  "provider_games": [
    {
      "name": "Stephen's Sausage Roll",
      "slug": "353540",
      "service": "steam"
    },
    {
      "name": "Stephen's Sausage Roll",
      "slug": "stephens-sausage-roll",
      "service": "igdb"
    }
  ],
  "aliases": [],
  "shaders": [],
  "discord_id": "",
  "change_for": null
}