{
  "id": 6440,
  "name": "Reign Of Kings",
  "slug": "reign-of-kings",
  "year": 2015,
  "banner_url": "https://lutris.net/games/banner/reign-of-kings.jpg",
  "icon_url": "https://lutris.net/games/icon/reign-of-kings.png",
  "coverart": "https://lutris.net/media/igdb/cover_big/co1j4v.jpg",
  "platforms": [
    {
      "name": "Windows"
    }
  ],
  "provider_games": [
    {
      "name": "Reign Of Kings",
      "slug": "344760",
      "service": "steam"
    },
    {
      "name": "Reign of Kings",
      "slug": "reign-of-kings",
      "service": "igdb"
    }
  ],
  "aliases": [],
  "shaders": [],
  "discord_id": "",
  "change_for": null
}