{
  "id": 21054,
  "game_id": 29256,
  "game_slug": "hugo-ii-whodunit",
  "name": "Hugo II: Whodunit?",
  "year": 1991,
  "user": "appoloin",
  "runner": "scummvm",
  "slug": "hugo-ii-whodunit-ms-dos",
  "version": "MS-DOS",
  "description": null,
  "notes": "",
  "credits": "",
  "created_at": "2020-05-30T22:30:38.452000Z",
  "updated_at": "2020-05-31T08:41:12.687969Z",
  "draft": false,
  "published": true,
  "published_by": 20548,
  "rating": "",
  "is_playable": null,
  "steamid": null,
  "gogid": null,
  "gogslug": "",
  "humbleid": "",
  "humblestoreid": "",
  "humblestoreid_real": "",
  "script": {
    "files": [
      {
        "game": "N/A:Select file HUGO.exe"
      }
    ],
    "game": {
      "game_id": "hugo2",
      "path": "$GAMEDIR"
    },
    "installer": [
      {
        "write_file": {
          "content": "#!/bin/bash\nsrc=$1\ndst=$2\nsrc_path=$(echo \"$1\" | sed -r \"s/(.+)\\/.+/\\1/\")\ncp -avr \"$src_path/.\"  \"$dst\"",
          "file": "$CACHE/bulkcopy.sh"
        }
      },
      {
        "chmodx": "$CACHE/bulkcopy.sh"
      },
      {
        "execute": {
          "args": "$game $GAMEDIR",
          "file": "$CACHE/bulkcopy.sh"
        }
      }
    ]
  },
  "content": "files:\n- game: N/A:Select file HUGO.exe\ngame:\n  game_id: hugo2\n  path: $GAMEDIR\ninstaller:\n- write_file:\n    content: '#!/bin/bash\n\n      src=$1\n\n      dst=$2\n\n      src_path=$(echo \"$1\" | sed -r \"s/(.+)\\/.+/\\1/\")\n\n      cp -avr \"$src_path/.\"  \"$dst\"'\n    file: $CACHE/bulkcopy.sh\n- chmodx: $CACHE/bulkcopy.sh\n- execute:\n    args: $game $GAMEDIR\n    file: $CACHE/bulkcopy.sh\n",
  "discord_id": ""
}