{
  "id": 78850,
  "name": "El Matador: Games Convention 2006 Edition",
  "slug": "el-matador-games-convention-2006-edition",
  "year": null,
  "banner_url": "",
  "icon_url": "",
  "coverart": null,
  "platforms": [],
  "provider_games": [
    {
      "name": "El Matador: Games Convention 2006 Edition",
      "slug": "el-matador-games-convention-2006-edition",
      "service": "igdb"
    }
  ],
  "aliases": [],
  "shaders": [],
  "discord_id": "",
  "change_for": null
}