{
  "id": 58373,
  "name": "The Duckforce Rises",
  "slug": "the-duckforce-rises",
  "year": null,
  "banner_url": "",
  "icon_url": "",
  "coverart": "https://lutris.net/media/igdb/cover_big/cbqxklbyhvwvkdrwvvgz.jpg",
  "platforms": [],
  "provider_games": [
    {
      "name": "The Duckforce Rises",
      "slug": "the-duckforce-rises",
      "service": "igdb"
    }
  ],
  "aliases": [],
  "shaders": [],
  "discord_id": "",
  "change_for": null
}