{
  "id": 66489,
  "name": "Catz II: Your Virtual Petz",
  "slug": "catz-ii-your-virtual-petz",
  "year": null,
  "banner_url": "",
  "icon_url": "",
  "coverart": null,
  "platforms": [],
  "provider_games": [
    {
      "name": "Catz II: Your Virtual Petz",
      "slug": "catz-ii-your-virtual-petz",
      "service": "igdb"
    }
  ],
  "aliases": [],
  "shaders": [],
  "discord_id": "",
  "change_for": null
}