{
  "id": 80585,
  "name": "Admiral Graf Spee",
  "slug": "admiral-graf-spee",
  "year": null,
  "banner_url": "",
  "icon_url": "",
  "coverart": "https://lutris.net/media/igdb/cover_big/sgnxfpzyc5y1hnja2nqw.jpg",
  "platforms": [],
  "provider_games": [
    {
      "name": "Admiral Graf Spee",
      "slug": "admiral-graf-spee",
      "service": "igdb"
    }
  ],
  "aliases": [],
  "shaders": [],
  "discord_id": "",
  "change_for": null
}