{
  "id": 167442,
  "name": "George and the Printer",
  "slug": "george-and-the-printer",
  "year": null,
  "banner_url": "",
  "icon_url": "",
  "coverart": "https://lutris.net/media/igdb/cover_big/co7kwp.jpg",
  "platforms": [],
  "provider_games": [
    {
      "name": "George and the Printer",
      "slug": "george-and-the-printer",
      "service": "igdb"
    }
  ],
  "aliases": [],
  "shaders": [],
  "discord_id": "",
  "change_for": null
}