{
  "id": 8915,
  "game_id": 19528,
  "game_slug": "inverness-nights",
  "name": "Inverness Nights",
  "year": 2017,
  "user": "kimchitea",
  "runner": "linux",
  "slug": "inverness-nights-itchio",
  "version": "itch.io",
  "description": null,
  "notes": "",
  "credits": "",
  "created_at": "2018-06-25T23:51:27.925000Z",
  "updated_at": "2024-04-03T05:34:37.267237Z",
  "draft": false,
  "published": true,
  "published_by": null,
  "rating": "",
  "is_playable": null,
  "steamid": null,
  "gogid": null,
  "gogslug": "",
  "humbleid": "",
  "humblestoreid": "",
  "humblestoreid_real": "",
  "script": {
    "files": [
      {
        "file1": "N/A:Please select the itch.io archive"
      }
    ],
    "game": {
      "exe": "Inverness Nights.sh"
    },
    "installer": [
      {
        "extract": {
          "file": "$file1"
        }
      },
      {
        "chmodx": "$GAMEDIR/Inverness Nights.sh"
      },
      {
        "chmodx": "$GAMEDIR/lib/linux-i686/Inverness Nights"
      },
      {
        "chmodx": "$GAMEDIR/lib/linux-x86_64/Inverness Nights"
      }
    ]
  },
  "content": "files:\n- file1: N/A:Please select the itch.io archive\ngame:\n  exe: Inverness Nights.sh\ninstaller:\n- extract:\n    file: $file1\n- chmodx: $GAMEDIR/Inverness Nights.sh\n- chmodx: $GAMEDIR/lib/linux-i686/Inverness Nights\n- chmodx: $GAMEDIR/lib/linux-x86_64/Inverness Nights\n",
  "discord_id": ""
}