{
  "id": 22398,
  "name": "No70: Eye of Basir",
  "slug": "no70-eye-of-basir",
  "year": 2017,
  "banner_url": "https://lutris.net/games/banner/no70-eye-of-basir.jpg",
  "icon_url": "https://lutris.net/games/icon/no70-eye-of-basir.png",
  "coverart": "https://lutris.net/media/igdb/cover_big/qonyiu3zebuirevwtgth.jpg",
  "platforms": [
    {
      "name": "Windows"
    }
  ],
  "provider_games": [
    {
      "name": "No70: Eye of Basir",
      "slug": "370440",
      "service": "steam"
    },
    {
      "name": "No70: Eye of Basir",
      "slug": "no70-eye-of-basir",
      "service": "igdb"
    }
  ],
  "aliases": [],
  "shaders": [],
  "discord_id": "",
  "change_for": null
}