{
  "id": 114651,
  "name": "Dungeon Land",
  "slug": "dungeon-land",
  "year": null,
  "banner_url": "",
  "icon_url": "",
  "coverart": "https://lutris.net/media/igdb/cover_big/co3bcs.jpg",
  "platforms": [],
  "provider_games": [
    {
      "name": "Dungeon Land",
      "slug": "dungeon-land",
      "service": "igdb"
    }
  ],
  "aliases": [],
  "shaders": [],
  "discord_id": "",
  "change_for": null
}