{
  "id": 97460,
  "name": "Moshpit - Heavy Metal is War",
  "slug": "moshpit-heavy-metal-is-war",
  "year": null,
  "banner_url": "",
  "icon_url": "",
  "coverart": null,
  "platforms": [],
  "provider_games": [
    {
      "name": "Moshpit - Heavy Metal is War",
      "slug": "moshpit-heavy-metal-is-war",
      "service": "igdb"
    }
  ],
  "aliases": [],
  "shaders": [],
  "discord_id": "",
  "change_for": null
}