{
  "id": 39519,
  "name": "Spelunky 2",
  "slug": "spelunky-2",
  "year": 2020,
  "banner_url": "https://lutris.net/games/banner/spelunky-2.jpg",
  "icon_url": "https://lutris.net/games/icon/spelunky-2.png",
  "coverart": "https://lutris.net/media/igdb/cover_big/co2f66.jpg",
  "platforms": [
    {
      "name": "Nintendo Switch"
    },
    {
      "name": "Sony Playstation 4"
    },
    {
      "name": "Windows"
    }
  ],
  "provider_games": [
    {
      "name": "Spelunky 2",
      "slug": "418530",
      "service": "steam"
    },
    {
      "name": "Spelunky 2",
      "slug": "spelunky-2",
      "service": "igdb"
    }
  ],
  "aliases": [],
  "shaders": [],
  "discord_id": "",
  "change_for": null
}