{
  "id": 251006,
  "name": "Grandpa Rally",
  "slug": "grandpa-rally",
  "year": null,
  "banner_url": "",
  "icon_url": "",
  "coverart": null,
  "platforms": [],
  "provider_games": [
    {
      "name": "Grandpa Rally",
      "slug": "grandpa-rally",
      "service": "igdb"
    }
  ],
  "aliases": [],
  "shaders": [],
  "discord_id": "",
  "change_for": null
}