{
  "id": 181021,
  "name": "JonTron: Bird vs. Camel",
  "slug": "jontron-bird-vs-camel",
  "year": 2015,
  "banner_url": "",
  "icon_url": "",
  "coverart": "https://lutris.net/media/igdb/cover_big/co4agq.jpg",
  "platforms": [
    {
      "name": "Browser"
    }
  ],
  "provider_games": [
    {
      "name": "JonTron: Bird vs. Camel",
      "slug": "jontron-bird-vs-camel",
      "service": "igdb"
    }
  ],
  "aliases": [],
  "shaders": [],
  "discord_id": "",
  "change_for": null
}