{
  "id": 108152,
  "name": "Battle Blues",
  "slug": "battle-blues",
  "year": null,
  "banner_url": "",
  "icon_url": "",
  "coverart": "https://lutris.net/media/igdb/cover_big/co2xkh.jpg",
  "platforms": [],
  "provider_games": [
    {
      "name": "Battle Blues",
      "slug": "battle-blues",
      "service": "igdb"
    }
  ],
  "aliases": [],
  "shaders": [],
  "discord_id": "",
  "change_for": null
}