{
  "id": 277845,
  "name": "Revenge of the Antagonist",
  "slug": "revenge-of-the-antagonist",
  "year": null,
  "banner_url": "",
  "icon_url": "",
  "coverart": "https://lutris.net/media/igdb/cover_big/co7vtz.jpg",
  "platforms": [],
  "provider_games": [
    {
      "name": "Revenge of the Antagonist",
      "slug": "revenge-of-the-antagonist",
      "service": "igdb"
    }
  ],
  "aliases": [],
  "shaders": [],
  "discord_id": "",
  "change_for": null
}