{
  "id": 147732,
  "name": "HotHead",
  "slug": "hothead",
  "year": null,
  "banner_url": "",
  "icon_url": "",
  "coverart": "https://lutris.net/media/igdb/cover_big/co4n9q.jpg",
  "platforms": [],
  "provider_games": [
    {
      "name": "HotHead",
      "slug": "hothead",
      "service": "igdb"
    }
  ],
  "aliases": [],
  "shaders": [],
  "discord_id": "",
  "change_for": null
}