{
  "id": 47072,
  "name": "Hi no Tori: Gaou no Bouken",
  "slug": "hi-no-tori-gaou-no-bouken",
  "year": null,
  "banner_url": "",
  "icon_url": "",
  "coverart": "https://lutris.net/media/igdb/cover_big/hpq5nnsqqkggqs9xauj5.jpg",
  "platforms": [],
  "provider_games": [
    {
      "name": "Hi no Tori: Gaou no Bouken",
      "slug": "hi-no-tori-gaou-no-bouken",
      "service": "igdb"
    }
  ],
  "aliases": [],
  "shaders": [],
  "discord_id": "",
  "change_for": null
}