{
  "id": 116299,
  "name": "Ongeki",
  "slug": "ongeki",
  "year": 2018,
  "banner_url": "",
  "icon_url": "",
  "coverart": "https://lutris.net/media/igdb/cover_big/co3d6d.jpg",
  "platforms": [],
  "provider_games": [
    {
      "name": "Ongeki",
      "slug": "ongeki",
      "service": "igdb"
    }
  ],
  "aliases": [],
  "shaders": [],
  "discord_id": "",
  "change_for": null
}