{
  "id": 123449,
  "name": "Polymatic",
  "slug": "polymatic",
  "year": null,
  "banner_url": "",
  "icon_url": "",
  "coverart": "https://lutris.net/media/igdb/cover_big/co8x5m.jpg",
  "platforms": [],
  "provider_games": [
    {
      "name": "Polymatic",
      "slug": "polymatic",
      "service": "igdb"
    }
  ],
  "aliases": [],
  "shaders": [],
  "discord_id": "",
  "change_for": null
}