{
  "id": 263581,
  "name": "Esferibot",
  "slug": "esferibot",
  "year": null,
  "banner_url": "",
  "icon_url": "",
  "coverart": "https://lutris.net/media/igdb/cover_big/co78vx.jpg",
  "platforms": [],
  "provider_games": [
    {
      "name": "Esferibot",
      "slug": "esferibot",
      "service": "igdb"
    }
  ],
  "aliases": [],
  "shaders": [],
  "discord_id": "",
  "change_for": null
}