{
  "id": 21593,
  "name": "Car Crash Couch Party",
  "slug": "car-crash-couch-party",
  "year": null,
  "banner_url": "https://lutris.net/games/banner/car-crash-couch-party.jpg",
  "icon_url": "https://lutris.net/games/icon/car-crash-couch-party.png",
  "coverart": null,
  "platforms": [],
  "provider_games": [
    {
      "name": "Car Crash Couch Party",
      "slug": "780120",
      "service": "steam"
    },
    {
      "name": "Car Crash Couch Party",
      "slug": "car-crash-couch-party",
      "service": "igdb"
    }
  ],
  "aliases": [],
  "shaders": [],
  "discord_id": "",
  "change_for": null
}