{
  "id": 45345,
  "name": "Muppet Pinball Mayhem",
  "slug": "muppet-pinball-mayhem",
  "year": 2002,
  "banner_url": "",
  "icon_url": "",
  "coverart": "https://lutris.net/media/igdb/cover_big/gkaebcytpchgcu9uz03s.jpg",
  "platforms": [
    {
      "name": "Nintendo Game Boy Advance"
    }
  ],
  "provider_games": [
    {
      "name": "Muppet Pinball Mayhem",
      "slug": "muppet-pinball-mayhem",
      "service": "igdb"
    }
  ],
  "aliases": [],
  "shaders": [],
  "discord_id": "",
  "change_for": null
}