{
  "id": 7899,
  "name": "Siege Wars",
  "slug": "siege-wars",
  "year": 2015,
  "banner_url": "https://lutris.net/games/banner/siege-wars.jpg",
  "icon_url": "https://lutris.net/games/icon/siege-wars.png",
  "coverart": "https://lutris.net/media/igdb/cover_big/co86jg.jpg",
  "platforms": [
    {
      "name": "Linux"
    },
    {
      "name": "Mac"
    },
    {
      "name": "Windows"
    }
  ],
  "provider_games": [
    {
      "name": "Siege Wars",
      "slug": "348340",
      "service": "steam"
    },
    {
      "name": "Siege Wars",
      "slug": "siege-wars",
      "service": "igdb"
    }
  ],
  "aliases": [],
  "shaders": [],
  "discord_id": "",
  "change_for": null
}