{
  "id": 10441,
  "name": "Secrets of Deep Earth Shrine",
  "slug": "secrets-of-deep-earth-shrine",
  "year": 2016,
  "banner_url": "https://lutris.net/games/banner/secrets-of-deep-earth-shrine.jpg",
  "icon_url": "https://lutris.net/games/icon/secrets-of-deep-earth-shrine.png",
  "coverart": "https://lutris.net/media/igdb/cover_big/co2zgq.jpg",
  "platforms": [
    {
      "name": "Mac"
    },
    {
      "name": "Windows"
    }
  ],
  "provider_games": [
    {
      "name": "Secrets of Deep Earth Shrine",
      "slug": "451700",
      "service": "steam"
    },
    {
      "name": "Secrets of Deep Earth Shrine",
      "slug": "secrets-of-deep-earth-shrine",
      "service": "igdb"
    }
  ],
  "aliases": [],
  "shaders": [],
  "discord_id": "",
  "change_for": null
}