{
  "id": 84315,
  "name": "Feisty Feet",
  "slug": "feisty-feet",
  "year": null,
  "banner_url": "",
  "icon_url": "",
  "coverart": null,
  "platforms": [],
  "provider_games": [
    {
      "name": "Feisty Feet",
      "slug": "feisty-feet",
      "service": "igdb"
    }
  ],
  "aliases": [],
  "shaders": [],
  "discord_id": "",
  "change_for": null
}