{
  "id": 45550,
  "name": "Madden NFL 2005: Collector's Edition",
  "slug": "madden-nfl-2005-collectors-edition",
  "year": 2004,
  "banner_url": "",
  "icon_url": "",
  "coverart": "https://lutris.net/media/igdb/cover_big/co6bhr.jpg",
  "platforms": [
    {
      "name": "Sony PlayStation 2"
    }
  ],
  "provider_games": [
    {
      "name": "Madden NFL 2005: Collector's Edition",
      "slug": "madden-nfl-2005-collectors-edition",
      "service": "igdb"
    }
  ],
  "aliases": [],
  "shaders": [],
  "discord_id": "",
  "change_for": null
}