{
  "id": 161211,
  "name": "Farlight Commanders",
  "slug": "farlight-commanders",
  "year": null,
  "banner_url": "",
  "icon_url": "",
  "coverart": "https://lutris.net/media/igdb/cover_big/co3zkv.jpg",
  "platforms": [],
  "provider_games": [
    {
      "name": "Farlight Commanders",
      "slug": "farlight-commanders",
      "service": "igdb"
    }
  ],
  "aliases": [],
  "shaders": [],
  "discord_id": "",
  "change_for": null
}