{
  "id": 275371,
  "name": "Dump The Corpse",
  "slug": "dump-the-corpse",
  "year": null,
  "banner_url": "",
  "icon_url": "",
  "coverart": "https://lutris.net/media/igdb/cover_big/co7tpl.jpg",
  "platforms": [],
  "provider_games": [
    {
      "name": "Dump The Corpse",
      "slug": "dump-the-corpse",
      "service": "igdb"
    }
  ],
  "aliases": [],
  "shaders": [],
  "discord_id": "",
  "change_for": null
}