{
  "id": 12209,
  "game_id": 20772,
  "game_slug": "rollercoaster-tycoon-classic",
  "name": "RollerCoaster Tycoon Classic",
  "year": 2016,
  "user": "ivanaugustobd",
  "runner": "steam",
  "slug": "rollercoaster-tycoon-classic-proton",
  "version": "Proton",
  "description": null,
  "notes": "",
  "credits": "",
  "created_at": "2019-02-28T16:13:59.563000Z",
  "updated_at": "2021-05-04T02:43:16.233426Z",
  "draft": false,
  "published": true,
  "published_by": 51687,
  "rating": "",
  "is_playable": null,
  "steamid": 683900,
  "gogid": null,
  "gogslug": "",
  "humbleid": "",
  "humblestoreid": "",
  "humblestoreid_real": "",
  "script": {
    "game": {
      "appid": 683900
    }
  },
  "content": "game:\n  appid: 683900\n",
  "discord_id": ""
}