{
  "id": 170598,
  "name": "Magical Swordmaiden",
  "slug": "magical-swordmaiden",
  "year": 2020,
  "banner_url": "https://lutris.net/games/banner/magical-swordmaiden.jpg",
  "icon_url": "",
  "coverart": "https://lutris.net/media/igdb/cover_big/co46sk.jpg",
  "platforms": [
    {
      "name": "Windows"
    }
  ],
  "provider_games": [
    {
      "name": "Magical Swordmaiden",
      "slug": "1271740",
      "service": "steam"
    },
    {
      "name": "Magical Swordmaiden",
      "slug": "magical-swordmaiden",
      "service": "igdb"
    },
    {
      "name": "Magical Swordmaiden",
      "slug": "1378922940",
      "service": "gog"
    }
  ],
  "aliases": [],
  "shaders": [],
  "discord_id": "",
  "change_for": null
}