{
  "id": 104557,
  "name": "Karaoke Joysound",
  "slug": "karaoke-joysound",
  "year": null,
  "banner_url": "",
  "icon_url": "",
  "coverart": "https://lutris.net/media/igdb/cover_big/co2qh6.jpg",
  "platforms": [],
  "provider_games": [
    {
      "name": "Karaoke Joysound",
      "slug": "karaoke-joysound",
      "service": "igdb"
    }
  ],
  "aliases": [],
  "shaders": [],
  "discord_id": "",
  "change_for": null
}