{
  "id": 298031,
  "name": "Chick Room Escape: Xmas ver.",
  "slug": "chick-room-escape-xmas-ver",
  "year": 2011,
  "banner_url": "",
  "icon_url": "",
  "coverart": "https://lutris.net/media/igdb/cover_big/co8trv.jpg",
  "platforms": [
    {
      "name": "Browser"
    }
  ],
  "provider_games": [
    {
      "name": "Chick Room Escape: Xmas ver.",
      "slug": "chick-room-escape-xmas-ver",
      "service": "igdb"
    }
  ],
  "aliases": [],
  "shaders": [],
  "discord_id": "",
  "change_for": null
}