{
  "id": 261302,
  "name": "Daito Giken Koushiki Pachi-Slot Simulator: Hihouden - Ossu! Banchou: Yoshimune DS",
  "slug": "daito-giken-koushiki-pachi-slot-simulator-hihouden-ossu-banchou-yoshimune-ds",
  "year": 2007,
  "banner_url": "",
  "icon_url": "",
  "coverart": "https://lutris.net/media/igdb/cover_big/co75z4.jpg",
  "platforms": [
    {
      "name": "Nintendo DS"
    }
  ],
  "provider_games": [
    {
      "name": "Daito Giken Koushiki Pachi-Slot Simulator: Hihouden - Ossu! Banchou: Yoshimune DS",
      "slug": "daito-giken-koushiki-pachi-slot-simulator-hihouden-ossu-banchou-yoshimune-ds",
      "service": "igdb"
    }
  ],
  "aliases": [],
  "shaders": [],
  "discord_id": "",
  "change_for": null
}