{
  "id": 124412,
  "name": "ACardShooter",
  "slug": "acardshooter",
  "year": null,
  "banner_url": "",
  "icon_url": "",
  "coverart": "https://lutris.net/media/igdb/cover_big/co2pdf.jpg",
  "platforms": [],
  "provider_games": [
    {
      "name": "ACardShooter",
      "slug": "acardshooter",
      "service": "igdb"
    }
  ],
  "aliases": [],
  "shaders": [],
  "discord_id": "",
  "change_for": null
}