{
  "id": 77351,
  "name": "Shove It! The Warehouse Game",
  "slug": "shove-it-the-warehouse-game",
  "year": 1990,
  "banner_url": "",
  "icon_url": "",
  "coverart": "https://lutris.net/media/igdb/cover_big/qc1znwic8pruqt8xwpm9.jpg",
  "platforms": [
    {
      "name": "Sega Genesis / Mega Drive"
    }
  ],
  "provider_games": [
    {
      "name": "Shove It! The Warehouse Game",
      "slug": "shove-it-the-warehouse-game",
      "service": "igdb"
    }
  ],
  "aliases": [],
  "shaders": [],
  "discord_id": "",
  "change_for": null
}