{
  "id": 170037,
  "name": "The Only Master",
  "slug": "the-only-master",
  "year": null,
  "banner_url": "",
  "icon_url": "",
  "coverart": "https://lutris.net/media/igdb/cover_big/co46ab.jpg",
  "platforms": [],
  "provider_games": [
    {
      "name": "The Only Master",
      "slug": "the-only-master",
      "service": "igdb"
    }
  ],
  "aliases": [],
  "shaders": [],
  "discord_id": "",
  "change_for": null
}