{
  "id": 80634,
  "name": "Bubbler",
  "slug": "bubbler",
  "year": null,
  "banner_url": "",
  "icon_url": "",
  "coverart": "https://lutris.net/media/igdb/cover_big/mql2rjjlzjkvyxulxjbq.jpg",
  "platforms": [
    {
      "name": "Amstrad CPC"
    }
  ],
  "provider_games": [
    {
      "name": "Bubbler",
      "slug": "bubbler",
      "service": "igdb"
    }
  ],
  "aliases": [],
  "shaders": [],
  "discord_id": "",
  "change_for": null
}