{
  "id": 61609,
  "name": "Photon: The Ultimate Game on Planet Earth",
  "slug": "photon-the-ultimate-game-on-planet-earth",
  "year": null,
  "banner_url": "",
  "icon_url": "",
  "coverart": "https://lutris.net/media/igdb/cover_big/whsbtvrqbp49xgdxbhp9.jpg",
  "platforms": [],
  "provider_games": [
    {
      "name": "Photon: The Ultimate Game on Planet Earth",
      "slug": "photon-the-ultimate-game-on-planet-earth",
      "service": "igdb"
    }
  ],
  "aliases": [],
  "shaders": [],
  "discord_id": "",
  "change_for": null
}