{
  "id": 223177,
  "name": "The Great Tree",
  "slug": "the-great-tree",
  "year": null,
  "banner_url": "",
  "icon_url": "",
  "coverart": null,
  "platforms": [],
  "provider_games": [
    {
      "name": "The Great Tree",
      "slug": "the-great-tree",
      "service": "igdb"
    }
  ],
  "aliases": [],
  "shaders": [],
  "discord_id": "",
  "change_for": null
}