{
  "id": 207327,
  "name": "Snoop Dogg Cruisin'",
  "slug": "snoop-dogg-cruisin",
  "year": 2007,
  "banner_url": "",
  "icon_url": "",
  "coverart": "https://lutris.net/media/igdb/cover_big/co5ruc.jpg",
  "platforms": [
    {
      "name": "Legacy Cellphone"
    }
  ],
  "provider_games": [
    {
      "name": "Snoop Dogg Cruisin'",
      "slug": "snoop-dogg-cruisin",
      "service": "igdb"
    }
  ],
  "aliases": [],
  "shaders": [],
  "discord_id": "",
  "change_for": null
}