{
  "id": 48552,
  "name": "Airport Firefighter Simulator",
  "slug": "airport-firefighter-simulator",
  "year": null,
  "banner_url": "",
  "icon_url": "",
  "coverart": "https://lutris.net/media/igdb/cover_big/f6nj6pwzxyewcyb8mqgm.jpg",
  "platforms": [],
  "provider_games": [
    {
      "name": "Airport Firefighter Simulator",
      "slug": "airport-firefighter-simulator",
      "service": "igdb"
    }
  ],
  "aliases": [],
  "shaders": [],
  "discord_id": "",
  "change_for": null
}