{
  "id": 20120,
  "game_id": 32849,
  "game_slug": "naica",
  "name": "Naïca",
  "year": 2020,
  "user": "Elfranne",
  "runner": "wine",
  "slug": "naica-alpha",
  "version": "Alpha",
  "description": null,
  "notes": "Alt tabbing is broken (no keyboard/mouse)",
  "credits": "",
  "created_at": "2020-04-30T00:59:39.173203Z",
  "updated_at": "2020-05-20T18:14:59.306734Z",
  "draft": true,
  "published": true,
  "published_by": null,
  "rating": "",
  "is_playable": null,
  "steamid": null,
  "gogid": null,
  "gogslug": "",
  "humbleid": "",
  "humblestoreid": "",
  "humblestoreid_real": "",
  "script": {
    "files": [
      {
        "naica_installer": "https://naicaonline.com/assets/download/naicaonline.exe"
      }
    ],
    "game": {
      "exe": "$GAMEDIR/naicaonline.exe",
      "prefix": "$GAMEDIR"
    },
    "installer": [
      {
        "move": {
          "dst": "$GAMEDIR",
          "src": "naica_installer"
        }
      },
      {
        "task": {
          "arch": "win64",
          "description": "Creating Wine prefix",
          "name": "create_prefix",
          "prefix": "$GAMEDIR"
        }
      },
      {
        "execute": {
          "command": "wineserver -k",
          "prefix": "$GAMEDIR"
        }
      },
      {
        "task": {
          "app": "win7",
          "arch": "win64",
          "name": "winetricks",
          "prefix": "$GAMEDIR"
        }
      }
    ]
  },
  "content": "files:\n- naica_installer: https://naicaonline.com/assets/download/naicaonline.exe\ngame:\n  exe: $GAMEDIR/naicaonline.exe\n  prefix: $GAMEDIR\ninstaller:\n- move:\n    dst: $GAMEDIR\n    src: naica_installer\n- task:\n    arch: win64\n    description: Creating Wine prefix\n    name: create_prefix\n    prefix: $GAMEDIR\n- execute:\n    command: wineserver -k\n    prefix: $GAMEDIR\n- task:\n    app: win7\n    arch: win64\n    name: winetricks\n    prefix: $GAMEDIR\n",
  "discord_id": ""
}