{
  "id": 40068,
  "name": "Monster Energy Supercross - The Official Videogame 2",
  "slug": "monster-energy-supercross-the-official-videogame-2",
  "year": 2019,
  "banner_url": "https://lutris.net/games/banner/monster-energy-supercross-the-official-videogame-2.jpg",
  "icon_url": "https://lutris.net/games/icon/monster-energy-supercross-the-official-videogame-2.png",
  "coverart": "https://lutris.net/media/igdb/cover_big/co3p3p.jpg",
  "platforms": [
    {
      "name": "Nintendo Switch"
    },
    {
      "name": "Sony Playstation 4"
    },
    {
      "name": "Windows"
    },
    {
      "name": "Xbox One"
    }
  ],
  "provider_games": [
    {
      "name": "Monster Energy Supercross - The Official Videogame 2",
      "slug": "882020",
      "service": "steam"
    },
    {
      "name": "Monster Energy Supercross - The Official Videogame 2",
      "slug": "monster-energy-supercross-the-official-videogame-2",
      "service": "igdb"
    }
  ],
  "aliases": [],
  "shaders": [],
  "discord_id": "",
  "change_for": null
}