{
  "id": 85503,
  "name": "Ballistic: Ecks Vs. Sever 2",
  "slug": "ballistic-ecks-vs-sever-2",
  "year": 2002,
  "banner_url": "",
  "icon_url": "",
  "coverart": "https://lutris.net/media/igdb/cover_big/icz3tgfu7s7t0yw6otvd.jpg",
  "platforms": [
    {
      "name": "Nintendo Game Boy Advance"
    }
  ],
  "provider_games": [
    {
      "name": "Ballistic: Ecks Vs. Sever 2",
      "slug": "ballistic-ecks-vs-sever-2",
      "service": "igdb"
    }
  ],
  "aliases": [],
  "shaders": [],
  "discord_id": "",
  "change_for": null
}