{
  "id": 159637,
  "name": "Pictorial",
  "slug": "pictorial",
  "year": 2011,
  "banner_url": "",
  "icon_url": "",
  "coverart": null,
  "platforms": [],
  "provider_games": [
    {
      "name": "Pictorial",
      "slug": "pictorial",
      "service": "igdb"
    }
  ],
  "aliases": [],
  "shaders": [],
  "discord_id": "",
  "change_for": null
}