{
  "id": 249878,
  "name": "Refugee: The Second Hearing",
  "slug": "refugee-the-second-hearing",
  "year": 2010,
  "banner_url": "",
  "icon_url": "",
  "coverart": null,
  "platforms": [
    {
      "name": "Mac"
    },
    {
      "name": "Windows"
    }
  ],
  "provider_games": [
    {
      "name": "Refugee: The Second Hearing",
      "slug": "refugee-the-second-hearing",
      "service": "igdb"
    }
  ],
  "aliases": [],
  "shaders": [],
  "discord_id": "",
  "change_for": null
}