{
  "id": 176177,
  "name": "Super Metroid: Ancient Chozo",
  "slug": "super-metroid-ancient-chozo",
  "year": 2018,
  "banner_url": "",
  "icon_url": "",
  "coverart": "https://lutris.net/media/igdb/cover_big/co494c.jpg",
  "platforms": [
    {
      "name": "Super Nintendo"
    }
  ],
  "provider_games": [
    {
      "name": "Super Metroid: Ancient Chozo",
      "slug": "super-metroid-ancient-chozo",
      "service": "igdb"
    }
  ],
  "aliases": [],
  "shaders": [],
  "discord_id": "",
  "change_for": null
}