{
  "id": 290158,
  "name": "Rosa's Garden",
  "slug": "rosas-garden",
  "year": 2019,
  "banner_url": "",
  "icon_url": "",
  "coverart": "https://lutris.net/media/igdb/cover_big/co8e65.jpg",
  "platforms": [],
  "provider_games": [
    {
      "name": "Rosa's Garden",
      "slug": "rosas-garden",
      "service": "igdb"
    }
  ],
  "aliases": [],
  "shaders": [],
  "discord_id": "",
  "change_for": null
}