{
  "id": 31733,
  "name": "Interrogation: You will be deceived",
  "slug": "interrogation-you-will-be-deceived",
  "year": 2019,
  "banner_url": "https://lutris.net/games/banner/interrogation-you-will-be-deceived.jpg",
  "icon_url": "https://lutris.net/games/icon/interrogation-you-will-be-deceived.png",
  "coverart": "https://lutris.net/media/igdb/cover_big/co1ukp.jpg",
  "platforms": [
    {
      "name": "Linux"
    },
    {
      "name": "Mac"
    },
    {
      "name": "Nintendo Switch"
    },
    {
      "name": "Windows"
    }
  ],
  "provider_games": [
    {
      "name": "Interrogation: You Will Be Deceived",
      "slug": "1500286266",
      "service": "gog"
    },
    {
      "name": "Interrogation: You will be deceived",
      "slug": "1016770",
      "service": "steam"
    },
    {
      "name": "Interrogation: You Will Be Deceived",
      "slug": "interrogation-you-will-be-deceived",
      "service": "igdb"
    }
  ],
  "aliases": [],
  "shaders": [],
  "discord_id": "",
  "change_for": null
}