{
  "id": 157282,
  "name": "Park Inc",
  "slug": "park-inc",
  "year": 2021,
  "banner_url": "",
  "icon_url": "",
  "coverart": "https://lutris.net/media/igdb/cover_big/co2znl.jpg",
  "platforms": [
    {
      "name": "Nintendo Switch"
    }
  ],
  "provider_games": [
    {
      "name": "Park Inc",
      "slug": "park-inc",
      "service": "igdb"
    }
  ],
  "aliases": [],
  "shaders": [],
  "discord_id": "",
  "change_for": null
}