{
  "id": 42864,
  "name": "Rogue Shift Playtest",
  "slug": "rogue-shift-playtest",
  "year": null,
  "banner_url": "https://lutris.net/games/banner/rogue-shift-playtest.jpg",
  "icon_url": "https://lutris.net/games/icon/rogue-shift-playtest.png",
  "coverart": null,
  "platforms": [],
  "provider_games": [
    {
      "name": "Rogue Shift Playtest",
      "slug": "1513380",
      "service": "steam"
    }
  ],
  "aliases": [],
  "shaders": [],
  "discord_id": "",
  "change_for": null
}