{
  "id": 10979,
  "name": "FIGHTING SPACE",
  "slug": "fighting-space",
  "year": 2016,
  "banner_url": "https://lutris.net/games/banner/fighting-space.jpg",
  "icon_url": "https://lutris.net/games/icon/fighting-space.png",
  "coverart": "https://lutris.net/media/igdb/cover_big/qdrvigdm0x5ncpq81whz.jpg",
  "platforms": [
    {
      "name": "Windows"
    }
  ],
  "provider_games": [
    {
      "name": "FIGHTING SPACE",
      "slug": "556090",
      "service": "steam"
    },
    {
      "name": "Fighting Space",
      "slug": "fighting-space",
      "service": "igdb"
    }
  ],
  "aliases": [],
  "shaders": [],
  "discord_id": "",
  "change_for": null
}