{
  "id": 235565,
  "name": "Super Candy Ball: Color Clash",
  "slug": "super-candy-ball-color-clash",
  "year": null,
  "banner_url": "",
  "icon_url": "",
  "coverart": null,
  "platforms": [],
  "provider_games": [
    {
      "name": "Super Candy Ball: Color Clash",
      "slug": "super-candy-ball-color-clash",
      "service": "igdb"
    }
  ],
  "aliases": [],
  "shaders": [],
  "discord_id": "",
  "change_for": null
}