{
  "id": 34029,
  "name": "Evil Stone",
  "slug": "evil-stone",
  "year": 1990,
  "banner_url": "",
  "icon_url": "https://lutris.net/games/icon/evil-stone.png",
  "coverart": "https://lutris.net/media/igdb/cover_big/co6g1k.jpg",
  "platforms": [
    {
      "name": "Arcade"
    }
  ],
  "provider_games": [
    {
      "name": "Evil Stone",
      "slug": "evilston",
      "service": "mame"
    },
    {
      "name": "Evil Stone",
      "slug": "evil-stone",
      "service": "igdb"
    }
  ],
  "aliases": [],
  "shaders": [],
  "discord_id": "",
  "change_for": null
}