{
  "id": 8798,
  "name": "Alice's Patchwork",
  "slug": "alices-patchwork",
  "year": 2016,
  "banner_url": "https://lutris.net/games/banner/alices-patchwork.jpg",
  "icon_url": "https://lutris.net/games/icon/alices-patchwork.png",
  "coverart": "https://lutris.net/media/igdb/cover_big/co21u5.jpg",
  "platforms": [
    {
      "name": "Android"
    },
    {
      "name": "Windows"
    }
  ],
  "provider_games": [
    {
      "name": "Alice's Patchwork",
      "slug": "444280",
      "service": "steam"
    },
    {
      "name": "Alice's Patchwork",
      "slug": "alices-patchwork",
      "service": "igdb"
    }
  ],
  "aliases": [],
  "shaders": [],
  "discord_id": "",
  "change_for": null
}