{
  "id": 253313,
  "name": "Black Dragon Mage",
  "slug": "black-dragon-mage",
  "year": null,
  "banner_url": "",
  "icon_url": "",
  "coverart": "https://lutris.net/media/igdb/cover_big/co6u5n.jpg",
  "platforms": [],
  "provider_games": [
    {
      "name": "Black Dragon Mage",
      "slug": "black-dragon-mage",
      "service": "igdb"
    }
  ],
  "aliases": [],
  "shaders": [],
  "discord_id": "",
  "change_for": null
}