{
  "id": 70683,
  "name": "Buku Dominoes",
  "slug": "buku-dominoes",
  "year": null,
  "banner_url": "",
  "icon_url": "",
  "coverart": null,
  "platforms": [],
  "provider_games": [
    {
      "name": "Buku Dominoes",
      "slug": "buku-dominoes",
      "service": "igdb"
    }
  ],
  "aliases": [],
  "shaders": [],
  "discord_id": "",
  "change_for": null
}