{
  "id": 214975,
  "name": "Karate Kid",
  "slug": "karate-kid",
  "year": null,
  "banner_url": "",
  "icon_url": "",
  "coverart": "https://lutris.net/media/igdb/cover_big/co5b9n.jpg",
  "platforms": [],
  "provider_games": [
    {
      "name": "Karate Kid",
      "slug": "karate-kid",
      "service": "igdb"
    }
  ],
  "aliases": [],
  "shaders": [],
  "discord_id": "",
  "change_for": null
}