{
  "id": 74260,
  "name": "Knights in Armor",
  "slug": "knights-in-armor",
  "year": null,
  "banner_url": "",
  "icon_url": "",
  "coverart": "https://lutris.net/media/igdb/cover_big/co79ch.jpg",
  "platforms": [],
  "provider_games": [
    {
      "name": "Knights in Armor",
      "slug": "knights-in-armor",
      "service": "igdb"
    }
  ],
  "aliases": [],
  "shaders": [],
  "discord_id": "",
  "change_for": null
}