{
  "id": 133717,
  "name": "Arcade Legend",
  "slug": "arcade-legend",
  "year": null,
  "banner_url": "",
  "icon_url": "",
  "coverart": "https://lutris.net/media/igdb/cover_big/co3llh.jpg",
  "platforms": [],
  "provider_games": [
    {
      "name": "Arcade Legend",
      "slug": "arcade-legend",
      "service": "igdb"
    }
  ],
  "aliases": [],
  "shaders": [],
  "discord_id": "",
  "change_for": null
}