{
  "id": 31936,
  "name": "NOISZ",
  "slug": "noisz",
  "year": 2017,
  "banner_url": "https://lutris.net/games/banner/noisz.jpg",
  "icon_url": "https://lutris.net/games/icon/noisz.png",
  "coverart": "https://lutris.net/media/igdb/cover_big/co24zy.jpg",
  "platforms": [
    {
      "name": "Windows"
    }
  ],
  "provider_games": [
    {
      "name": "NOISZ",
      "slug": "681530",
      "service": "steam"
    },
    {
      "name": "Noisz",
      "slug": "noisz",
      "service": "igdb"
    }
  ],
  "aliases": [],
  "shaders": [],
  "discord_id": "",
  "change_for": null
}