{
  "id": 169468,
  "name": "Aliens Adventure",
  "slug": "aliens-adventure",
  "year": null,
  "banner_url": "",
  "icon_url": "",
  "coverart": "https://lutris.net/media/igdb/cover_big/co45st.jpg",
  "platforms": [],
  "provider_games": [
    {
      "name": "Aliens Adventure",
      "slug": "aliens-adventure",
      "service": "igdb"
    }
  ],
  "aliases": [],
  "shaders": [],
  "discord_id": "",
  "change_for": null
}