{
  "id": 287217,
  "name": "Save Daddy Trump 4: Maga 2024",
  "slug": "save-daddy-trump-4-maga-2024",
  "year": null,
  "banner_url": "",
  "icon_url": "",
  "coverart": "https://lutris.net/media/igdb/cover_big/co889u.jpg",
  "platforms": [],
  "provider_games": [
    {
      "name": "Save Daddy Trump 4: Maga 2024",
      "slug": "save-daddy-trump-4-maga-2024",
      "service": "igdb"
    }
  ],
  "aliases": [],
  "shaders": [],
  "discord_id": "",
  "change_for": null
}