{
  "id": 7667,
  "name": "Shardlight",
  "slug": "shardlight",
  "year": 2016,
  "banner_url": "https://lutris.net/games/banner/shardlight.jpg",
  "icon_url": "https://lutris.net/games/icon/shardlight.png",
  "coverart": "https://lutris.net/media/igdb/cover_big/co1m4n.jpg",
  "platforms": [
    {
      "name": "Windows"
    }
  ],
  "provider_games": [
    {
      "name": "Shardlight",
      "slug": "1454499527",
      "service": "gog"
    },
    {
      "name": "Shardlight",
      "slug": "336130",
      "service": "steam"
    },
    {
      "name": "Shardlight",
      "slug": "shardlight",
      "service": "igdb"
    }
  ],
  "aliases": [],
  "shaders": [],
  "discord_id": "",
  "change_for": null
}