{
  "id": 164981,
  "name": "Spare Teeth VR",
  "slug": "spare-teeth-vr",
  "year": null,
  "banner_url": "",
  "icon_url": "",
  "coverart": "https://lutris.net/media/igdb/cover_big/co41ws.jpg",
  "platforms": [],
  "provider_games": [
    {
      "name": "Spare Teeth VR",
      "slug": "spare-teeth-vr",
      "service": "igdb"
    }
  ],
  "aliases": [],
  "shaders": [],
  "discord_id": "",
  "change_for": null
}