{
  "id": 193174,
  "name": "Spheriums",
  "slug": "spheriums",
  "year": null,
  "banner_url": "",
  "icon_url": "",
  "coverart": "https://lutris.net/media/igdb/cover_big/co4fjd.jpg",
  "platforms": [],
  "provider_games": [
    {
      "name": "Spheriums",
      "slug": "spheriums",
      "service": "igdb"
    }
  ],
  "aliases": [],
  "shaders": [],
  "discord_id": "",
  "change_for": null
}