{
  "id": 11893,
  "name": "Downfall",
  "slug": "downfall",
  "year": 2016,
  "banner_url": "https://lutris.net/games/banner/downfall.jpg",
  "icon_url": "https://lutris.net/games/icon/downfall.png",
  "coverart": "https://lutris.net/media/igdb/cover_big/co1l95.jpg",
  "platforms": [
    {
      "name": "Windows"
    }
  ],
  "provider_games": [
    {
      "name": "Downfall",
      "slug": "364390",
      "service": "steam"
    },
    {
      "name": "Downfall",
      "slug": "1207660723",
      "service": "gog"
    },
    {
      "name": "Downfall",
      "slug": "downfall",
      "service": "igdb"
    }
  ],
  "aliases": [],
  "shaders": [],
  "discord_id": "",
  "change_for": null
}