{
  "id": 216076,
  "name": "WorldsKeeper",
  "slug": "worldskeeper",
  "year": null,
  "banner_url": "",
  "icon_url": "",
  "coverart": "https://lutris.net/media/igdb/cover_big/co58ey.jpg",
  "platforms": [],
  "provider_games": [
    {
      "name": "WorldsKeeper",
      "slug": "worldskeeper",
      "service": "igdb"
    }
  ],
  "aliases": [],
  "shaders": [],
  "discord_id": "",
  "change_for": null
}