{
  "id": 75936,
  "name": "Kingdoms of Amalur: Re-Reckoning - Collector's Edition",
  "slug": "kingdoms-of-amalur-re-reckoning-collectors-edition",
  "year": null,
  "banner_url": "",
  "icon_url": "",
  "coverart": "https://lutris.net/media/igdb/cover_big/co7pra.jpg",
  "platforms": [],
  "provider_games": [
    {
      "name": "Kingdoms of Amalur: Re-Reckoning - Collector's Edition",
      "slug": "kingdoms-of-amalur-re-reckoning-collectors-edition",
      "service": "igdb"
    }
  ],
  "aliases": [],
  "shaders": [],
  "discord_id": "",
  "change_for": null
}