{
  "id": 52136,
  "name": "Borobodur: The Planet of Doom",
  "slug": "borobodur-the-planet-of-doom",
  "year": 1992,
  "banner_url": "",
  "icon_url": "",
  "coverart": "https://lutris.net/media/igdb/cover_big/co6yty.jpg",
  "platforms": [
    {
      "name": "Amiga"
    }
  ],
  "provider_games": [
    {
      "name": "Borobodur: The Planet of Doom",
      "slug": "borobodur-the-planet-of-doom",
      "service": "igdb"
    }
  ],
  "aliases": [],
  "shaders": [],
  "discord_id": "",
  "change_for": null
}