{
  "id": 127938,
  "name": "墨心：波云诡船",
  "slug": "mo-xin-bo-yun-gui-chuan",
  "year": null,
  "banner_url": "",
  "icon_url": "",
  "coverart": "https://lutris.net/media/igdb/cover_big/co3evz.jpg",
  "platforms": [],
  "provider_games": [
    {
      "name": "墨心：波云诡船",
      "slug": "mo-xin-bo-yun-gui-chuan",
      "service": "igdb"
    }
  ],
  "aliases": [],
  "shaders": [],
  "discord_id": "",
  "change_for": null
}