{
  "id": 237045,
  "name": "Little Mouse's Encyclopedia: Extended Edition",
  "slug": "little-mouses-encyclopedia-extended-edition",
  "year": 2022,
  "banner_url": "",
  "icon_url": "",
  "coverart": null,
  "platforms": [
    {
      "name": "Nintendo Switch"
    }
  ],
  "provider_games": [
    {
      "name": "Little Mouse's Encyclopedia: Extended Edition",
      "slug": "little-mouses-encyclopedia-extended-edition",
      "service": "igdb"
    }
  ],
  "aliases": [],
  "shaders": [],
  "discord_id": "",
  "change_for": null
}