{
  "id": 192662,
  "name": "A Crown of Sorcery and Steel",
  "slug": "a-crown-of-sorcery-and-steel",
  "year": null,
  "banner_url": "",
  "icon_url": "",
  "coverart": "https://lutris.net/media/igdb/cover_big/co4nh4.jpg",
  "platforms": [],
  "provider_games": [
    {
      "name": "A Crown of Sorcery and Steel",
      "slug": "a-crown-of-sorcery-and-steel",
      "service": "igdb"
    }
  ],
  "aliases": [],
  "shaders": [],
  "discord_id": "",
  "change_for": null
}