{
  "id": 207555,
  "name": "The Adventures of Snacky",
  "slug": "the-adventures-of-snacky",
  "year": null,
  "banner_url": "",
  "icon_url": "",
  "coverart": "https://lutris.net/media/igdb/cover_big/co5r2d.jpg",
  "platforms": [],
  "provider_games": [
    {
      "name": "The Adventures of Snacky",
      "slug": "the-adventures-of-snacky",
      "service": "igdb"
    }
  ],
  "aliases": [],
  "shaders": [],
  "discord_id": "",
  "change_for": null
}