{
  "id": 238410,
  "name": "Twistingo: Bird Paradise - Collector's Edition",
  "slug": "twistingo-bird-paradise-collectors-edition",
  "year": null,
  "banner_url": "",
  "icon_url": "",
  "coverart": "https://lutris.net/media/igdb/cover_big/co64dw.jpg",
  "platforms": [],
  "provider_games": [
    {
      "name": "Twistingo: Bird Paradise - Collector's Edition",
      "slug": "twistingo-bird-paradise-collectors-edition",
      "service": "igdb"
    }
  ],
  "aliases": [],
  "shaders": [],
  "discord_id": "",
  "change_for": null
}