{
  "id": 45157,
  "name": "Ztype: Typing Game",
  "slug": "ztype-typing-game",
  "year": null,
  "banner_url": "",
  "icon_url": "",
  "coverart": "https://lutris.net/media/igdb/cover_big/co71r3.jpg",
  "platforms": [],
  "provider_games": [
    {
      "name": "Ztype: Typing Game",
      "slug": "ztype-typing-game",
      "service": "igdb"
    }
  ],
  "aliases": [],
  "shaders": [],
  "discord_id": "",
  "change_for": null
}