{
  "id": 137793,
  "name": "Oni Ama: Watashi ni Amaete, Onii-chan",
  "slug": "oni-ama-watashi-ni-amaete-onii-chan",
  "year": 2021,
  "banner_url": "",
  "icon_url": "",
  "coverart": "https://lutris.net/media/igdb/cover_big/co2w7g.jpg",
  "platforms": [
    {
      "name": "Sony Playstation 4"
    }
  ],
  "provider_games": [
    {
      "name": "Oni Ama: Watashi ni Amaete, Onii-chan",
      "slug": "oni-ama-watashi-ni-amaete-onii-chan",
      "service": "igdb"
    }
  ],
  "aliases": [],
  "shaders": [],
  "discord_id": "",
  "change_for": null
}