{
  "id": 113992,
  "name": "Galaxy Warrior",
  "slug": "galaxy-warrior",
  "year": 1981,
  "banner_url": "",
  "icon_url": "",
  "coverart": "https://lutris.net/media/igdb/cover_big/co39wo.jpg",
  "platforms": [
    {
      "name": "Sinclair ZX81"
    }
  ],
  "provider_games": [
    {
      "name": "Galaxy Warrior",
      "slug": "galaxy-warrior",
      "service": "igdb"
    }
  ],
  "aliases": [],
  "shaders": [],
  "discord_id": "",
  "change_for": null
}