{
  "id": 4408,
  "name": "Goscurry",
  "slug": "goscurry",
  "year": 2015,
  "banner_url": "https://lutris.net/games/banner/goscurry.jpg",
  "icon_url": "https://lutris.net/games/icon/goscurry.png",
  "coverart": "https://lutris.net/media/igdb/cover_big/klalprmyzziw5bvq1ukt.jpg",
  "platforms": [
    {
      "name": "Linux"
    },
    {
      "name": "Mac"
    },
    {
      "name": "Windows"
    }
  ],
  "provider_games": [
    {
      "name": "Goscurry",
      "slug": "335090",
      "service": "steam"
    },
    {
      "name": "Goscurry",
      "slug": "goscurry",
      "service": "igdb"
    }
  ],
  "aliases": [],
  "shaders": [],
  "discord_id": "",
  "change_for": null
}