{
  "id": 144594,
  "name": "Virtua Racing Deluxe",
  "slug": "virtua-racing-deluxe",
  "year": 1994,
  "banner_url": "",
  "icon_url": "",
  "coverart": "https://lutris.net/media/igdb/cover_big/co3uyw.jpg",
  "platforms": [
    {
      "name": "Sega 32X"
    }
  ],
  "provider_games": [
    {
      "name": "Virtua Racing Deluxe",
      "slug": "virtua-racing-deluxe",
      "service": "igdb"
    }
  ],
  "aliases": [],
  "shaders": [],
  "discord_id": "",
  "change_for": null
}