{
  "id": 206666,
  "name": "Dino Trauma",
  "slug": "dino-trauma",
  "year": null,
  "banner_url": "https://lutris.net/games/banner/dino-trauma.jpg",
  "icon_url": "",
  "coverart": "https://lutris.net/media/igdb/cover_big/co5scs.jpg",
  "platforms": [],
  "provider_games": [
    {
      "name": "Dino Trauma",
      "slug": "dino-trauma",
      "service": "igdb"
    },
    {
      "name": "Dino Trauma",
      "slug": "2149420",
      "service": "steam"
    }
  ],
  "aliases": [],
  "shaders": [],
  "discord_id": "",
  "change_for": null
}