{
  "id": 57988,
  "name": "Chimera Genesis",
  "slug": "chimera-genesis",
  "year": null,
  "banner_url": "",
  "icon_url": "",
  "coverart": "https://lutris.net/media/igdb/cover_big/kag0uuss3t02osdkvqxz.jpg",
  "platforms": [],
  "provider_games": [
    {
      "name": "Chimera Genesis",
      "slug": "chimera-genesis",
      "service": "igdb"
    }
  ],
  "aliases": [],
  "shaders": [],
  "discord_id": "",
  "change_for": null
}