{
  "id": 8532,
  "name": "Cranks and Goggles",
  "slug": "cranks-and-goggles",
  "year": 2016,
  "banner_url": "https://lutris.net/games/banner/cranks-and-goggles.jpg",
  "icon_url": "https://lutris.net/games/icon/cranks-and-goggles.png",
  "coverart": "https://lutris.net/media/igdb/cover_big/zgnwvl2zzeu6wy44st3n.jpg",
  "platforms": [
    {
      "name": "Mac"
    },
    {
      "name": "Windows"
    }
  ],
  "provider_games": [
    {
      "name": "Cranks and Goggles",
      "slug": "451990",
      "service": "steam"
    },
    {
      "name": "Cranks and Goggles",
      "slug": "cranks-and-goggles",
      "service": "igdb"
    }
  ],
  "aliases": [],
  "shaders": [],
  "discord_id": "",
  "change_for": null
}