{
  "id": 5998,
  "game_id": 1251,
  "game_slug": "stronghold-hd",
  "name": "Stronghold HD",
  "year": 2012,
  "user": "Frankiva",
  "runner": "steam",
  "slug": "stronghold-hd-steam",
  "version": "Steam",
  "description": null,
  "notes": "",
  "credits": "",
  "created_at": "2017-10-19T16:36:41.585000Z",
  "updated_at": "2020-08-14T09:48:30.206427Z",
  "draft": false,
  "published": true,
  "published_by": 20548,
  "rating": "",
  "is_playable": null,
  "steamid": 40950,
  "gogid": 1207658712,
  "gogslug": "stronghold_warlords_special_edition",
  "humbleid": "",
  "humblestoreid": "",
  "humblestoreid_real": "",
  "script": {
    "game": {
      "appid": 40950
    }
  },
  "content": "game:\r\n  appid: 40950",
  "discord_id": ""
}