{
  "id": 158612,
  "name": "Puzzle: Fire Sticks",
  "slug": "puzzle-fire-sticks",
  "year": 2019,
  "banner_url": "",
  "icon_url": "",
  "coverart": "https://lutris.net/media/igdb/cover_big/co3y58.jpg",
  "platforms": [
    {
      "name": "Windows"
    }
  ],
  "provider_games": [
    {
      "name": "Puzzle: Fire Sticks",
      "slug": "puzzle-fire-sticks",
      "service": "igdb"
    }
  ],
  "aliases": [],
  "shaders": [],
  "discord_id": "",
  "change_for": null
}