{
  "id": 81445,
  "name": "Ridge Racer Accelerated HD",
  "slug": "ridge-racer-accelerated-hd",
  "year": null,
  "banner_url": "",
  "icon_url": "",
  "coverart": "https://lutris.net/media/igdb/cover_big/co7yg6.jpg",
  "platforms": [],
  "provider_games": [
    {
      "name": "Ridge Racer Accelerated HD",
      "slug": "ridge-racer-accelerated-hd",
      "service": "igdb"
    }
  ],
  "aliases": [],
  "shaders": [],
  "discord_id": "",
  "change_for": null
}