{
  "id": 271350,
  "name": "Ominous Tales: The Forsaken Isle - Collector's Edition",
  "slug": "ominous-tales-the-forsaken-isle-collectors-edition",
  "year": 2024,
  "banner_url": "",
  "icon_url": "",
  "coverart": "https://lutris.net/media/igdb/cover_big/co7o4a.jpg",
  "platforms": [
    {
      "name": "Sony Playstation 4"
    },
    {
      "name": "Sony PlayStation 5"
    }
  ],
  "provider_games": [
    {
      "name": "Ominous Tales: The Forsaken Isle - Collector's Edition",
      "slug": "ominous-tales-the-forsaken-isle-collectors-edition",
      "service": "igdb"
    }
  ],
  "aliases": [],
  "shaders": [],
  "discord_id": "",
  "change_for": null
}