{
  "id": 188637,
  "name": "Bad Luck Cat",
  "slug": "bad-luck-cat",
  "year": null,
  "banner_url": "",
  "icon_url": "",
  "coverart": null,
  "platforms": [],
  "provider_games": [
    {
      "name": "Bad Luck Cat",
      "slug": "bad-luck-cat",
      "service": "igdb"
    }
  ],
  "aliases": [],
  "shaders": [],
  "discord_id": "",
  "change_for": null
}