{
  "id": 97696,
  "name": "Realm Royale Shadowfall Bundle",
  "slug": "realm-royale-shadowfall-bundle",
  "year": null,
  "banner_url": "",
  "icon_url": "",
  "coverart": null,
  "platforms": [],
  "provider_games": [
    {
      "name": "Realm Royale Shadowfall Bundle",
      "slug": "realm-royale-shadowfall-bundle",
      "service": "igdb"
    }
  ],
  "aliases": [],
  "shaders": [],
  "discord_id": "",
  "change_for": null
}