{
  "id": 292807,
  "name": "Unite the Party",
  "slug": "unite-the-party",
  "year": null,
  "banner_url": "",
  "icon_url": "",
  "coverart": "https://lutris.net/media/igdb/cover_big/co8m5u.jpg",
  "platforms": [],
  "provider_games": [
    {
      "name": "Unite the Party",
      "slug": "unite-the-party",
      "service": "igdb"
    }
  ],
  "aliases": [],
  "shaders": [],
  "discord_id": "",
  "change_for": null
}