{
  "id": 250607,
  "name": "Piece of Memory 2:Prologue",
  "slug": "piece-of-memory-2prologue",
  "year": null,
  "banner_url": "https://lutris.net/games/banner/piece-of-memory-2prologue.jpg",
  "icon_url": "https://lutris.net/games/icon/piece-of-memory-2prologue.png",
  "coverart": null,
  "platforms": [],
  "provider_games": [
    {
      "name": "Piece of Memory 2:Prologue",
      "slug": "676520",
      "service": "steam"
    }
  ],
  "aliases": [],
  "shaders": [],
  "discord_id": "",
  "change_for": null
}