{
  "id": 297911,
  "name": "MarioQuest 3: The Ghost of SEGA",
  "slug": "marioquest-3-the-ghost-of-sega",
  "year": null,
  "banner_url": "",
  "icon_url": "",
  "coverart": "https://lutris.net/media/igdb/cover_big/co94pb.jpg",
  "platforms": [
    {
      "name": "Windows"
    }
  ],
  "provider_games": [
    {
      "name": "MarioQuest 3: The Ghost of SEGA",
      "slug": "marioquest-3-the-ghost-of-sega",
      "service": "igdb"
    }
  ],
  "aliases": [],
  "shaders": [],
  "discord_id": "",
  "change_for": null
}