{
  "id": 260295,
  "name": "△ to X no Nazotoki",
  "slug": "to-x-no-nazotoki",
  "year": null,
  "banner_url": "",
  "icon_url": "",
  "coverart": null,
  "platforms": [],
  "provider_games": [
    {
      "name": "△ to X no Nazotoki",
      "slug": "to-x-no-nazotoki",
      "service": "igdb"
    }
  ],
  "aliases": [],
  "shaders": [],
  "discord_id": "",
  "change_for": null
}