{
  "id": 235410,
  "name": "Fur and Feathers",
  "slug": "fur-and-feathers",
  "year": null,
  "banner_url": "",
  "icon_url": "",
  "coverart": null,
  "platforms": [],
  "provider_games": [
    {
      "name": "Fur and Feathers",
      "slug": "fur-and-feathers",
      "service": "igdb"
    }
  ],
  "aliases": [],
  "shaders": [],
  "discord_id": "",
  "change_for": null
}