{
  "id": 185369,
  "name": "Super Disc Box",
  "slug": "super-disc-box",
  "year": null,
  "banner_url": "",
  "icon_url": "",
  "coverart": "https://lutris.net/media/igdb/cover_big/co801t.jpg",
  "platforms": [],
  "provider_games": [
    {
      "name": "Super Disc Box",
      "slug": "super-disc-box",
      "service": "igdb"
    }
  ],
  "aliases": [],
  "shaders": [],
  "discord_id": "",
  "change_for": null
}