{
  "id": 30609,
  "name": "LBreakout2",
  "slug": "lbreakout2",
  "year": 2004,
  "banner_url": "https://lutris.net/games/banner/lbreakout2.jpg",
  "icon_url": "",
  "coverart": "https://lutris.net/media/igdb/cover_big/co7cir.jpg",
  "platforms": [
    {
      "name": "Linux"
    },
    {
      "name": "Windows"
    }
  ],
  "provider_games": [
    {
      "name": "LBreakout2",
      "slug": "lbreakout2",
      "service": "igdb"
    }
  ],
  "aliases": [],
  "shaders": [],
  "discord_id": "",
  "change_for": null
}