{
  "id": 80814,
  "name": "Eye of Vartan",
  "slug": "eye-of-vartan",
  "year": null,
  "banner_url": "",
  "icon_url": "",
  "coverart": null,
  "platforms": [
    {
      "name": "ZX Spectrum"
    }
  ],
  "provider_games": [
    {
      "name": "Eye of Vartan",
      "slug": "eye-of-vartan",
      "service": "igdb"
    }
  ],
  "aliases": [],
  "shaders": [],
  "discord_id": "",
  "change_for": null
}