{
  "id": 27266,
  "name": "Survive",
  "slug": "survive",
  "year": 2017,
  "banner_url": "https://lutris.net/games/banner/survive.jpg",
  "icon_url": "https://lutris.net/games/icon/survive.png",
  "coverart": null,
  "platforms": [
    {
      "name": "Windows"
    }
  ],
  "provider_games": [
    {
      "name": "Survive",
      "slug": "659120",
      "service": "steam"
    },
    {
      "name": "Survive",
      "slug": "survive",
      "service": "igdb"
    }
  ],
  "aliases": [],
  "shaders": [],
  "discord_id": "",
  "change_for": null
}