{
  "id": 179628,
  "name": "Ranma 1/2 II: Hard Battle Anything Goes Martial Arts",
  "slug": "ranma-1-slash-2-ii-hard-battle-anything-goes-martial-arts",
  "year": 1993,
  "banner_url": "",
  "icon_url": "",
  "coverart": "https://lutris.net/media/igdb/cover_big/co39re.jpg",
  "platforms": [
    {
      "name": "Super Nintendo"
    }
  ],
  "provider_games": [
    {
      "name": "Ranma 1/2 II: Hard Battle Anything Goes Martial Arts",
      "slug": "ranma-1-slash-2-ii-hard-battle-anything-goes-martial-arts",
      "service": "igdb"
    }
  ],
  "aliases": [],
  "shaders": [],
  "discord_id": "",
  "change_for": null
}