{
  "id": 250615,
  "name": "Hero of Light VR",
  "slug": "hero-of-light-vr",
  "year": null,
  "banner_url": "https://lutris.net/games/banner/hero-of-light-vr.jpg",
  "icon_url": "https://lutris.net/games/icon/hero-of-light-vr.png",
  "coverart": null,
  "platforms": [],
  "provider_games": [
    {
      "name": "Hero of Light VR",
      "slug": "696510",
      "service": "steam"
    }
  ],
  "aliases": [],
  "shaders": [],
  "discord_id": "",
  "change_for": null
}