{
  "id": 256876,
  "name": "The Assistant Season 1",
  "slug": "the-assistant-season-1",
  "year": null,
  "banner_url": "https://lutris.net/games/banner/the-assistant-season-1.jpg",
  "icon_url": "https://lutris.net/games/icon/the-assistant-season-1.png",
  "coverart": null,
  "platforms": [],
  "provider_games": [
    {
      "name": "The Assistant Season 1",
      "slug": "2461430",
      "service": "steam"
    }
  ],
  "aliases": [],
  "shaders": [],
  "discord_id": "",
  "change_for": null
}