{
  "id": 107849,
  "name": "Mana Khemia: Alchemists of Al-Revis - Premium Edition",
  "slug": "mana-khemia-alchemists-of-al-revis-premium-edition",
  "year": 2008,
  "banner_url": "",
  "icon_url": "",
  "coverart": "https://lutris.net/media/igdb/cover_big/co2vv8.jpg",
  "platforms": [
    {
      "name": "Sony PlayStation 2"
    }
  ],
  "provider_games": [
    {
      "name": "Mana Khemia: Alchemists of Al-Revis - Premium Edition",
      "slug": "mana-khemia-alchemists-of-al-revis-premium-edition",
      "service": "igdb"
    }
  ],
  "aliases": [],
  "shaders": [],
  "discord_id": "",
  "change_for": null
}