{
  "id": 109726,
  "name": "Deep Sea Tycoon: Diver's Paradise",
  "slug": "deep-sea-tycoon-divers-paradise",
  "year": 2006,
  "banner_url": "",
  "icon_url": "",
  "coverart": null,
  "platforms": [
    {
      "name": "Windows"
    }
  ],
  "provider_games": [
    {
      "name": "Deep Sea Tycoon: Diver's Paradise",
      "slug": "deep-sea-tycoon-divers-paradise",
      "service": "igdb"
    }
  ],
  "aliases": [],
  "shaders": [],
  "discord_id": "",
  "change_for": null
}