{
  "id": 63015,
  "name": "Hi-Score Pool",
  "slug": "hi-score-pool",
  "year": null,
  "banner_url": "",
  "icon_url": "",
  "coverart": "https://lutris.net/media/igdb/cover_big/do5f3xapwjq84l9iz5da.jpg",
  "platforms": [],
  "provider_games": [
    {
      "name": "Hi-Score Pool",
      "slug": "hi-score-pool",
      "service": "igdb"
    }
  ],
  "aliases": [],
  "shaders": [],
  "discord_id": "",
  "change_for": null
}