{
  "id": 235354,
  "name": "Wind Horizon",
  "slug": "wind-horizon",
  "year": 2017,
  "banner_url": "https://lutris.net/games/banner/wind-horizon.jpg",
  "icon_url": "",
  "coverart": null,
  "platforms": [
    {
      "name": "Windows"
    }
  ],
  "provider_games": [
    {
      "name": "岚零之风 - Wind Horizon",
      "slug": "700510",
      "service": "steam"
    },
    {
      "name": "Wind Horizon",
      "slug": "wind-horizon",
      "service": "igdb"
    }
  ],
  "aliases": [],
  "shaders": [],
  "discord_id": "",
  "change_for": null
}