{
  "id": 303570,
  "name": "Benchmark Your Skills",
  "slug": "benchmark-your-skills",
  "year": null,
  "banner_url": "",
  "icon_url": "",
  "coverart": "https://lutris.net/media/igdb/cover_big/co96kv.jpg",
  "platforms": [],
  "provider_games": [
    {
      "name": "Benchmark Your Skills",
      "slug": "benchmark-your-skills",
      "service": "igdb"
    }
  ],
  "aliases": [],
  "shaders": [],
  "discord_id": "",
  "change_for": null
}