{
  "id": 265058,
  "name": "Taimanin RPGX Extasy",
  "slug": "taimanin-rpgx-extasy--1",
  "year": 2023,
  "banner_url": "",
  "icon_url": "",
  "coverart": "https://lutris.net/media/igdb/cover_big/co7bfd.jpg",
  "platforms": [
    {
      "name": "Browser"
    },
    {
      "name": "Windows"
    }
  ],
  "provider_games": [
    {
      "name": "Taimanin RPGX Extasy",
      "slug": "taimanin-rpgx-extasy--1",
      "service": "igdb"
    }
  ],
  "aliases": [],
  "shaders": [],
  "discord_id": "",
  "change_for": null
}