{
  "id": 46482,
  "name": "Dark Wizard",
  "slug": "dark-wizard--1",
  "year": null,
  "banner_url": "",
  "icon_url": "",
  "coverart": null,
  "platforms": [],
  "provider_games": [
    {
      "name": "Dark Wizard",
      "slug": "dark-wizard--1",
      "service": "igdb"
    }
  ],
  "aliases": [],
  "shaders": [],
  "discord_id": "",
  "change_for": null
}