{
  "id": 236315,
  "name": "Dead Earth",
  "slug": "dead-earth",
  "year": null,
  "banner_url": "",
  "icon_url": "",
  "coverart": "https://lutris.net/media/igdb/cover_big/co670i.jpg",
  "platforms": [],
  "provider_games": [
    {
      "name": "Dead Earth",
      "slug": "dead-earth",
      "service": "igdb"
    }
  ],
  "aliases": [],
  "shaders": [],
  "discord_id": "",
  "change_for": null
}