{
  "id": 136908,
  "name": "Epic Battles of History",
  "slug": "epic-battles-of-history",
  "year": null,
  "banner_url": "",
  "icon_url": "",
  "coverart": "https://lutris.net/media/igdb/cover_big/co3pxp.jpg",
  "platforms": [],
  "provider_games": [
    {
      "name": "Epic Battles of History",
      "slug": "epic-battles-of-history",
      "service": "igdb"
    }
  ],
  "aliases": [],
  "shaders": [],
  "discord_id": "",
  "change_for": null
}