{
  "id": 280324,
  "name": "Twilight Epoch",
  "slug": "twilight-epoch",
  "year": null,
  "banner_url": "",
  "icon_url": "",
  "coverart": "https://lutris.net/media/igdb/cover_big/co80p2.jpg",
  "platforms": [],
  "provider_games": [
    {
      "name": "Twilight Epoch",
      "slug": "twilight-epoch",
      "service": "igdb"
    }
  ],
  "aliases": [],
  "shaders": [],
  "discord_id": "",
  "change_for": null
}