{
  "id": 101221,
  "name": "Mystery Tales: Til Death",
  "slug": "mystery-tales-til-death",
  "year": null,
  "banner_url": "",
  "icon_url": "",
  "coverart": "https://lutris.net/media/igdb/cover_big/co4ds3.jpg",
  "platforms": [],
  "provider_games": [
    {
      "name": "Mystery Tales: Til Death",
      "slug": "mystery-tales-til-death",
      "service": "igdb"
    }
  ],
  "aliases": [],
  "shaders": [],
  "discord_id": "",
  "change_for": null
}