{
  "id": 54380,
  "name": "Defcon 5",
  "slug": "defcon-5--1",
  "year": 1987,
  "banner_url": "",
  "icon_url": "",
  "coverart": "https://lutris.net/media/igdb/cover_big/le3jdkzbycbgmxqtflvq.jpg",
  "platforms": [
    {
      "name": "Amiga"
    },
    {
      "name": "Commodore C64/128"
    }
  ],
  "provider_games": [
    {
      "name": "Defcon 5",
      "slug": "defcon-5--1",
      "service": "igdb"
    }
  ],
  "aliases": [],
  "shaders": [],
  "discord_id": "",
  "change_for": null
}