{
  "id": 86915,
  "name": "Dreadnaughts",
  "slug": "dreadnaughts",
  "year": 1984,
  "banner_url": "",
  "icon_url": "",
  "coverart": "https://lutris.net/media/igdb/cover_big/ugoaua58d3c7ng7szrux.jpg",
  "platforms": [
    {
      "name": "Apple II"
    },
    {
      "name": "Commodore C64/128"
    }
  ],
  "provider_games": [
    {
      "name": "Dreadnaughts",
      "slug": "dreadnaughts",
      "service": "igdb"
    }
  ],
  "aliases": [],
  "shaders": [],
  "discord_id": "",
  "change_for": null
}