{
  "id": 10279,
  "game_id": 21831,
  "game_slug": "vile-halicarnassus",
  "name": "Vile Halicarnassus",
  "year": 2014,
  "user": "kimchitea",
  "runner": "linux",
  "slug": "vile-halicarnassus-itchio",
  "version": "itch.io",
  "description": "Free download",
  "notes": "",
  "credits": "",
  "created_at": "2018-09-21T18:39:57.554000Z",
  "updated_at": "2024-04-03T05:34:37.367118Z",
  "draft": false,
  "published": true,
  "published_by": null,
  "rating": "",
  "is_playable": null,
  "steamid": null,
  "gogid": null,
  "gogslug": "",
  "humbleid": "",
  "humblestoreid": "",
  "humblestoreid_real": "",
  "script": {
    "files": [
      {
        "file1": "N/A:Please select the itch.io archive"
      }
    ],
    "game": {
      "exe": "vile halicarnassus.sh"
    },
    "installer": [
      {
        "extract": {
          "dst": "$GAMEDIR",
          "file": "$file1",
          "format": "bz2"
        }
      },
      {
        "chmodx": "$GAMEDIR/vile halicarnassus.sh"
      },
      {
        "chmodx": "$GAMEDIR/lib/linux-i686/vile halicarnassus"
      },
      {
        "chmodx": "$GAMEDIR/lib/linux-x86_64/vile halicarnassus"
      }
    ]
  },
  "content": "files:\n- file1: N/A:Please select the itch.io archive\ngame:\n  exe: vile halicarnassus.sh\ninstaller:\n- extract:\n    dst: $GAMEDIR\n    file: $file1\n    format: bz2\n- chmodx: $GAMEDIR/vile halicarnassus.sh\n- chmodx: $GAMEDIR/lib/linux-i686/vile halicarnassus\n- chmodx: $GAMEDIR/lib/linux-x86_64/vile halicarnassus\n",
  "discord_id": ""
}