{
  "id": 297999,
  "name": "Dagon: Complete Edition",
  "slug": "dagon-complete-edition",
  "year": null,
  "banner_url": "",
  "icon_url": "",
  "coverart": "https://lutris.net/media/igdb/cover_big/co8x3s.jpg",
  "platforms": [],
  "provider_games": [
    {
      "name": "Dagon: Complete Edition",
      "slug": "dagon-complete-edition",
      "service": "igdb"
    }
  ],
  "aliases": [],
  "shaders": [],
  "discord_id": "",
  "change_for": null
}