{
  "id": 199424,
  "name": "Bouncy Cube",
  "slug": "bouncy-cube",
  "year": null,
  "banner_url": "",
  "icon_url": "",
  "coverart": "https://lutris.net/media/igdb/cover_big/co4fwp.jpg",
  "platforms": [],
  "provider_games": [
    {
      "name": "Bouncy Cube",
      "slug": "bouncy-cube",
      "service": "igdb"
    }
  ],
  "aliases": [],
  "shaders": [],
  "discord_id": "",
  "change_for": null
}