{
  "id": 110370,
  "name": "Densha de GO! Ryojou-hen",
  "slug": "densha-de-go-ryojou-hen",
  "year": 2000,
  "banner_url": "",
  "icon_url": "",
  "coverart": "https://lutris.net/media/igdb/cover_big/co2yzw.jpg",
  "platforms": [
    {
      "name": "Sony PlayStation 2"
    },
    {
      "name": "Windows"
    }
  ],
  "provider_games": [
    {
      "name": "Densha de GO! Ryojou-hen",
      "slug": "densha-de-go-ryojou-hen",
      "service": "igdb"
    }
  ],
  "aliases": [],
  "shaders": [],
  "discord_id": "",
  "change_for": null
}