{
  "id": 271798,
  "name": "100 Cats New York",
  "slug": "100-cats-new-york",
  "year": null,
  "banner_url": "",
  "icon_url": "",
  "coverart": "https://lutris.net/media/igdb/cover_big/co7n8g.jpg",
  "platforms": [],
  "provider_games": [
    {
      "name": "100 Cats New York",
      "slug": "100-cats-new-york",
      "service": "igdb"
    }
  ],
  "aliases": [],
  "shaders": [],
  "discord_id": "",
  "change_for": null
}