{
  "id": 43203,
  "name": "Digger-Chan",
  "slug": "digger-chan",
  "year": 2011,
  "banner_url": "https://lutris.net/games/banner/digger-chan.jpg",
  "icon_url": "",
  "coverart": null,
  "platforms": [
    {
      "name": "Sega Master System"
    }
  ],
  "provider_games": [
    {
      "name": "Digger Chan",
      "slug": "digger-chan",
      "service": "igdb"
    }
  ],
  "aliases": [],
  "shaders": [],
  "discord_id": "",
  "change_for": null
}