{
  "id": 281309,
  "name": "Silent Rooms: Chapter 1",
  "slug": "silent-rooms-chapter-1",
  "year": null,
  "banner_url": "",
  "icon_url": "",
  "coverart": "https://lutris.net/media/igdb/cover_big/co7z2b.jpg",
  "platforms": [],
  "provider_games": [
    {
      "name": "Silent Rooms: Chapter 1",
      "slug": "silent-rooms-chapter-1",
      "service": "igdb"
    }
  ],
  "aliases": [],
  "shaders": [],
  "discord_id": "",
  "change_for": null
}