{
  "id": 170253,
  "name": "Truants",
  "slug": "truants",
  "year": null,
  "banner_url": "",
  "icon_url": "",
  "coverart": "https://lutris.net/media/igdb/cover_big/co46ii.jpg",
  "platforms": [],
  "provider_games": [
    {
      "name": "Truants",
      "slug": "truants",
      "service": "igdb"
    }
  ],
  "aliases": [],
  "shaders": [],
  "discord_id": "",
  "change_for": null
}