{
  "id": 222836,
  "name": "Charlie Church Mouse: 3D Bible Adventures",
  "slug": "charlie-church-mouse-3d-bible-adventures",
  "year": null,
  "banner_url": "",
  "icon_url": "",
  "coverart": "https://lutris.net/media/igdb/cover_big/co4xct.jpg",
  "platforms": [],
  "provider_games": [
    {
      "name": "Charlie Church Mouse: 3D Bible Adventures",
      "slug": "charlie-church-mouse-3d-bible-adventures",
      "service": "igdb"
    }
  ],
  "aliases": [],
  "shaders": [],
  "discord_id": "",
  "change_for": null
}