{
  "id": 110623,
  "name": "Burning Sand",
  "slug": "burning-sand",
  "year": 2006,
  "banner_url": "",
  "icon_url": "",
  "coverart": "https://lutris.net/media/igdb/cover_big/co2zc7.jpg",
  "platforms": [
    {
      "name": "Linux"
    },
    {
      "name": "Windows"
    }
  ],
  "provider_games": [
    {
      "name": "Burning Sand",
      "slug": "burning-sand",
      "service": "igdb"
    }
  ],
  "aliases": [],
  "shaders": [],
  "discord_id": "",
  "change_for": null
}