{
  "id": 262589,
  "name": "Retro Combat",
  "slug": "retro-combat",
  "year": null,
  "banner_url": "",
  "icon_url": "",
  "coverart": "https://lutris.net/media/igdb/cover_big/co782q.jpg",
  "platforms": [],
  "provider_games": [
    {
      "name": "Retro Combat",
      "slug": "retro-combat",
      "service": "igdb"
    }
  ],
  "aliases": [],
  "shaders": [],
  "discord_id": "",
  "change_for": null
}