{
  "id": 148315,
  "name": "Japocaliptyca/ Япокалиптика",
  "slug": "japocaliptyca-slash-iapokaliptika",
  "year": null,
  "banner_url": "",
  "icon_url": "",
  "coverart": null,
  "platforms": [],
  "provider_games": [
    {
      "name": "Japocaliptyca/ Япокалиптика",
      "slug": "japocaliptyca-slash-iapokaliptika",
      "service": "igdb"
    }
  ],
  "aliases": [],
  "shaders": [],
  "discord_id": "",
  "change_for": null
}