{
  "id": 34288,
  "name": "Guardian Storm",
  "slug": "guardian-storm",
  "year": 1998,
  "banner_url": "",
  "icon_url": "https://lutris.net/games/icon/guardian-storm.png",
  "coverart": "https://lutris.net/media/igdb/cover_big/co1icx.jpg",
  "platforms": [
    {
      "name": "Arcade"
    }
  ],
  "provider_games": [
    {
      "name": "Guardian Storm",
      "slug": "grdnstrm",
      "service": "mame"
    },
    {
      "name": "Guardian Storm",
      "slug": "guardian-storm",
      "service": "igdb"
    }
  ],
  "aliases": [],
  "shaders": [],
  "discord_id": "",
  "change_for": null
}