{
  "id": 279210,
  "name": "My Succubus Kukula",
  "slug": "my-succubus-kukula",
  "year": null,
  "banner_url": "",
  "icon_url": "",
  "coverart": "https://lutris.net/media/igdb/cover_big/co7xas.jpg",
  "platforms": [],
  "provider_games": [
    {
      "name": "My Succubus Kukula",
      "slug": "my-succubus-kukula",
      "service": "igdb"
    }
  ],
  "aliases": [],
  "shaders": [],
  "discord_id": "",
  "change_for": null
}