{
  "id": 85371,
  "name": "Radac: Tailor-Made",
  "slug": "radac-tailor-made",
  "year": null,
  "banner_url": "",
  "icon_url": "",
  "coverart": "https://lutris.net/media/igdb/cover_big/zestscs7drwwpj7gry9b.jpg",
  "platforms": [],
  "provider_games": [
    {
      "name": "Radac: Tailor-Made",
      "slug": "radac-tailor-made",
      "service": "igdb"
    }
  ],
  "aliases": [],
  "shaders": [],
  "discord_id": "",
  "change_for": null
}