{
  "id": 95038,
  "name": "Hobo life simulator",
  "slug": "hobo-life-simulator",
  "year": null,
  "banner_url": "",
  "icon_url": "",
  "coverart": null,
  "platforms": [],
  "provider_games": [
    {
      "name": "Hobo life simulator",
      "slug": "hobo-life-simulator",
      "service": "igdb"
    }
  ],
  "aliases": [],
  "shaders": [],
  "discord_id": "",
  "change_for": null
}