{
  "id": 14919,
  "name": "Next Up Hero Beta",
  "slug": "next-up-hero-beta",
  "year": null,
  "banner_url": "https://lutris.net/games/banner/next-up-hero-beta.jpg",
  "icon_url": "https://lutris.net/games/icon/next-up-hero-beta.png",
  "coverart": null,
  "platforms": [],
  "provider_games": [],
  "aliases": [],
  "shaders": [],
  "discord_id": "",
  "change_for": null
}