{
  "id": 248034,
  "name": "Warplanes Inc. WW2 War on Hill",
  "slug": "warplanes-inc-ww2-war-on-hill",
  "year": null,
  "banner_url": "",
  "icon_url": "",
  "coverart": null,
  "platforms": [],
  "provider_games": [
    {
      "name": "Warplanes Inc. WW2 War on Hill",
      "slug": "warplanes-inc-ww2-war-on-hill",
      "service": "igdb"
    }
  ],
  "aliases": [],
  "shaders": [],
  "discord_id": "",
  "change_for": null
}