{
  "id": 44618,
  "name": "Sunblaze",
  "slug": "sunblaze",
  "year": 2021,
  "banner_url": "https://lutris.net/games/banner/sunblaze.jpg",
  "icon_url": "https://lutris.net/games/icon/sunblaze.png",
  "coverart": "https://lutris.net/media/igdb/cover_big/co2tup.jpg",
  "platforms": [
    {
      "name": "Linux"
    },
    {
      "name": "Mac"
    },
    {
      "name": "Nintendo Switch"
    },
    {
      "name": "Windows"
    }
  ],
  "provider_games": [
    {
      "name": "Sunblaze",
      "slug": "1763369377",
      "service": "gog"
    },
    {
      "name": "Sunblaze Demo",
      "slug": "2024856614",
      "service": "gog"
    },
    {
      "name": "Sunblaze",
      "slug": "sunblaze",
      "service": "igdb"
    },
    {
      "name": "Sunblaze",
      "slug": "1525660",
      "service": "steam"
    }
  ],
  "aliases": [],
  "shaders": [],
  "discord_id": "",
  "change_for": null
}