{
  "id": 107067,
  "name": "16-Bit Xmas 2011",
  "slug": "16-bit-xmas-2011",
  "year": 2011,
  "banner_url": "",
  "icon_url": "",
  "coverart": "https://lutris.net/media/igdb/cover_big/co2uuk.jpg",
  "platforms": [
    {
      "name": "Super Nintendo"
    }
  ],
  "provider_games": [
    {
      "name": "16-Bit Xmas 2011",
      "slug": "16-bit-xmas-2011",
      "service": "igdb"
    }
  ],
  "aliases": [],
  "shaders": [],
  "discord_id": "",
  "change_for": null
}