{
  "id": 243115,
  "name": "Vandaan",
  "slug": "vandaan",
  "year": null,
  "banner_url": "",
  "icon_url": "",
  "coverart": "https://lutris.net/media/igdb/cover_big/co6gqp.jpg",
  "platforms": [],
  "provider_games": [
    {
      "name": "Vandaan",
      "slug": "vandaan",
      "service": "igdb"
    }
  ],
  "aliases": [],
  "shaders": [],
  "discord_id": "",
  "change_for": null
}