{
  "id": 218469,
  "name": "ZJ the Ball: Level 1",
  "slug": "zj-the-ball-level-1",
  "year": 2021,
  "banner_url": "",
  "icon_url": "",
  "coverart": "https://lutris.net/media/igdb/cover_big/co54cy.jpg",
  "platforms": [
    {
      "name": "Sony Playstation 4"
    }
  ],
  "provider_games": [
    {
      "name": "ZJ the Ball: Level 1",
      "slug": "zj-the-ball-level-1",
      "service": "igdb"
    }
  ],
  "aliases": [],
  "shaders": [],
  "discord_id": "",
  "change_for": null
}