{
  "id": 259442,
  "name": "Tatari: The Arrival",
  "slug": "tatari-the-arrival",
  "year": null,
  "banner_url": "https://lutris.net/games/banner/tatari-the-arrival.jpg",
  "icon_url": "",
  "coverart": "https://lutris.net/media/igdb/cover_big/co74s7.jpg",
  "platforms": [],
  "provider_games": [
    {
      "name": "Tatari: The Arrival",
      "slug": "2496460",
      "service": "steam"
    },
    {
      "name": "Tatari: The Arrival",
      "slug": "tatari-the-arrival",
      "service": "igdb"
    }
  ],
  "aliases": [],
  "shaders": [],
  "discord_id": "",
  "change_for": null
}