{
  "id": 39962,
  "name": "Night of the Dead",
  "slug": "night-of-the-dead",
  "year": 2020,
  "banner_url": "https://lutris.net/games/banner/night-of-the-dead.jpg",
  "icon_url": "https://lutris.net/games/icon/night-of-the-dead.png",
  "coverart": "https://lutris.net/media/igdb/cover_big/co2j81.jpg",
  "platforms": [
    {
      "name": "Windows"
    }
  ],
  "provider_games": [
    {
      "name": "Night of the Dead",
      "slug": "1377380",
      "service": "steam"
    },
    {
      "name": "Night of the Dead",
      "slug": "night-of-the-dead",
      "service": "igdb"
    }
  ],
  "aliases": [],
  "shaders": [],
  "discord_id": "",
  "change_for": null
}