{
  "id": 305141,
  "name": "Academy of Magic: Ring of Darkness",
  "slug": "academy-of-magic-ring-of-darkness",
  "year": 2022,
  "banner_url": "",
  "icon_url": "",
  "coverart": null,
  "platforms": [
    {
      "name": "Windows"
    }
  ],
  "provider_games": [
    {
      "name": "Academy of Magic: Ring of Darkness",
      "slug": "academy-of-magic-ring-of-darkness",
      "service": "igdb"
    }
  ],
  "aliases": [],
  "shaders": [],
  "discord_id": "",
  "change_for": null
}