{
  "id": 260971,
  "name": "Agame",
  "slug": "agame",
  "year": null,
  "banner_url": "",
  "icon_url": "",
  "coverart": "https://lutris.net/media/igdb/cover_big/co75eg.jpg",
  "platforms": [],
  "provider_games": [
    {
      "name": "Agame",
      "slug": "agame",
      "service": "igdb"
    }
  ],
  "aliases": [],
  "shaders": [],
  "discord_id": "",
  "change_for": null
}