{
  "id": 91422,
  "name": "Nightmares Of Death",
  "slug": "nightmares-of-death",
  "year": null,
  "banner_url": "",
  "icon_url": "",
  "coverart": null,
  "platforms": [],
  "provider_games": [
    {
      "name": "Nightmares of Death",
      "slug": "nightmares-of-death",
      "service": "igdb"
    }
  ],
  "aliases": [],
  "shaders": [],
  "discord_id": "",
  "change_for": null
}