{
  "id": 4404,
  "name": "Final Hours of Titanfall",
  "slug": "final-hours-of-titanfall",
  "year": 2014,
  "banner_url": "https://lutris.net/games/banner/final-hours-of-titanfall.jpg",
  "icon_url": "https://lutris.net/games/icon/final-hours-of-titanfall.png",
  "coverart": "https://lutris.net/media/igdb/cover_big/co1kcw.jpg",
  "platforms": [
    {
      "name": "Windows"
    }
  ],
  "provider_games": [
    {
      "name": "Final Hours of Titanfall",
      "slug": "292060",
      "service": "steam"
    },
    {
      "name": "Final Hours of Titanfall",
      "slug": "final-hours-of-titanfall",
      "service": "igdb"
    }
  ],
  "aliases": [],
  "shaders": [],
  "discord_id": "",
  "change_for": null
}