{
  "id": 27205,
  "name": "Modeling a Transport Vehicle in Modo",
  "slug": "modeling-a-transport-vehicle-in-modo",
  "year": null,
  "banner_url": "https://lutris.net/games/banner/modeling-a-transport-vehicle-in-modo.jpg",
  "icon_url": "https://lutris.net/games/icon/modeling-a-transport-vehicle-in-modo.png",
  "coverart": null,
  "platforms": [],
  "provider_games": [
    {
      "name": "Modeling a Transport Vehicle in Modo",
      "slug": "404300",
      "service": "steam"
    }
  ],
  "aliases": [],
  "shaders": [],
  "discord_id": "",
  "change_for": null
}