{
  "id": 88980,
  "name": "My Donut Days",
  "slug": "my-donut-days",
  "year": null,
  "banner_url": "",
  "icon_url": "",
  "coverart": null,
  "platforms": [],
  "provider_games": [
    {
      "name": "My Donut Days",
      "slug": "my-donut-days",
      "service": "igdb"
    }
  ],
  "aliases": [],
  "shaders": [],
  "discord_id": "",
  "change_for": null
}