{
  "id": 189874,
  "name": "My Work Is Not Yet Done",
  "slug": "my-work-is-not-yet-done",
  "year": null,
  "banner_url": "",
  "icon_url": "",
  "coverart": "https://lutris.net/media/igdb/cover_big/co312g.jpg",
  "platforms": [
    {
      "name": "Windows"
    }
  ],
  "provider_games": [
    {
      "name": "My Work Is Not Yet Done",
      "slug": "my-work-is-not-yet-done",
      "service": "igdb"
    }
  ],
  "aliases": [],
  "shaders": [],
  "discord_id": "",
  "change_for": null
}