{
  "id": 8235,
  "game_id": 2201,
  "game_slug": "cakewalk-loop-manager",
  "name": "Cakewalk Loop Manager",
  "year": null,
  "user": "soredake",
  "runner": "steam",
  "slug": "cakewalk-loop-manager-proton",
  "version": "Proton",
  "description": null,
  "notes": "",
  "credits": "",
  "created_at": "2018-05-09T07:33:57.324523Z",
  "updated_at": "2021-05-04T02:43:07.667848Z",
  "draft": false,
  "published": true,
  "published_by": null,
  "rating": "",
  "is_playable": null,
  "steamid": 305280,
  "gogid": null,
  "gogslug": "",
  "humbleid": "",
  "humblestoreid": "",
  "humblestoreid_real": "",
  "script": {
    "game": {
      "appid": 305280
    }
  },
  "content": "game:\n  appid: 305280\n",
  "discord_id": ""
}