{
  "id": 98180,
  "name": "The Grip Games PS3 Collection",
  "slug": "the-grip-games-ps3-collection",
  "year": null,
  "banner_url": "",
  "icon_url": "",
  "coverart": null,
  "platforms": [],
  "provider_games": [
    {
      "name": "The Grip Games PS3 Collection",
      "slug": "the-grip-games-ps3-collection",
      "service": "igdb"
    }
  ],
  "aliases": [],
  "shaders": [],
  "discord_id": "",
  "change_for": null
}