{
  "id": 300853,
  "name": "Metal Gear Mario",
  "slug": "metal-gear-mario",
  "year": 2009,
  "banner_url": "",
  "icon_url": "",
  "coverart": null,
  "platforms": [
    {
      "name": "Windows"
    }
  ],
  "provider_games": [
    {
      "name": "Metal Gear Mario",
      "slug": "metal-gear-mario",
      "service": "igdb"
    }
  ],
  "aliases": [],
  "shaders": [],
  "discord_id": "",
  "change_for": null
}