{
  "id": 259093,
  "name": "Sift Heads World: Act 5 - An Exotic Job",
  "slug": "sift-heads-world-act-5-an-exotic-job",
  "year": 2010,
  "banner_url": "",
  "icon_url": "",
  "coverart": "https://lutris.net/media/igdb/cover_big/co73ib.jpg",
  "platforms": [
    {
      "name": "Browser"
    }
  ],
  "provider_games": [
    {
      "name": "Sift Heads World: Act 5 - An Exotic Job",
      "slug": "sift-heads-world-act-5-an-exotic-job",
      "service": "igdb"
    }
  ],
  "aliases": [],
  "shaders": [],
  "discord_id": "",
  "change_for": null
}