{
  "id": 4484,
  "name": "East Tower - Akio",
  "slug": "east-tower-akio",
  "year": 2015,
  "banner_url": "https://lutris.net/games/banner/east-tower-akio.jpg",
  "icon_url": "https://lutris.net/games/icon/east-tower-akio.png",
  "coverart": "https://lutris.net/media/igdb/cover_big/co3pqd.jpg",
  "platforms": [
    {
      "name": "Mac"
    },
    {
      "name": "Windows"
    }
  ],
  "provider_games": [
    {
      "name": "East Tower - Akio (ET Series Vol. 1)",
      "slug": "354950",
      "service": "steam"
    },
    {
      "name": "East Tower - Akio",
      "slug": "east-tower-akio",
      "service": "igdb"
    }
  ],
  "aliases": [],
  "shaders": [],
  "discord_id": "",
  "change_for": null
}