{
  "id": 29847,
  "name": "POSTAL 4: No Regerts",
  "slug": "postal-4-no-regerts",
  "year": 2019,
  "banner_url": "https://lutris.net/games/banner/postal-4-no-regerts.jpg",
  "icon_url": "https://lutris.net/games/icon/postal-4-no-regerts.png",
  "coverart": "https://lutris.net/media/igdb/cover_big/co1sgc.jpg",
  "platforms": [
    {
      "name": "Windows"
    }
  ],
  "provider_games": [
    {
      "name": "POSTAL 4: No Regerts",
      "slug": "1521846175",
      "service": "gog"
    },
    {
      "name": "POSTAL 4: No Regerts",
      "slug": "707030",
      "service": "steam"
    },
    {
      "name": "Postal 4: No Regerts",
      "slug": "postal-4-no-regerts",
      "service": "igdb"
    }
  ],
  "aliases": [],
  "shaders": [],
  "discord_id": "",
  "change_for": null
}