{
  "id": 22833,
  "name": "Let's Go Nuts!",
  "slug": "lets-go-nuts",
  "year": 2018,
  "banner_url": "https://lutris.net/games/banner/lets-go-nuts.jpg",
  "icon_url": "https://lutris.net/games/icon/lets-go-nuts.png",
  "coverart": "https://lutris.net/media/igdb/cover_big/co1mjq.jpg",
  "platforms": [
    {
      "name": "Nintendo Switch"
    },
    {
      "name": "Windows"
    }
  ],
  "provider_games": [
    {
      "name": "Let's Go Nuts!",
      "slug": "848230",
      "service": "steam"
    },
    {
      "name": "Let's Go Nuts!",
      "slug": "lets-go-nuts",
      "service": "igdb"
    }
  ],
  "aliases": [],
  "shaders": [],
  "discord_id": "",
  "change_for": null
}