{
  "id": 110723,
  "name": "The Yukon Trail",
  "slug": "the-yukon-trail",
  "year": 1994,
  "banner_url": "",
  "icon_url": "",
  "coverart": "https://lutris.net/media/igdb/cover_big/ynl4qsjtjfbluu9tr8yd.jpg",
  "platforms": [
    {
      "name": "Mac"
    },
    {
      "name": "Windows"
    }
  ],
  "provider_games": [
    {
      "name": "The Yukon Trail",
      "slug": "the-yukon-trail",
      "service": "igdb"
    }
  ],
  "aliases": [],
  "shaders": [],
  "discord_id": "",
  "change_for": null
}