{
  "id": 235240,
  "name": "Boku no Camp-jou",
  "slug": "boku-no-camp-jou",
  "year": null,
  "banner_url": "",
  "icon_url": "",
  "coverart": null,
  "platforms": [],
  "provider_games": [
    {
      "name": "Boku no Camp-jou",
      "slug": "boku-no-camp-jou",
      "service": "igdb"
    }
  ],
  "aliases": [],
  "shaders": [],
  "discord_id": "",
  "change_for": null
}