{
  "id": 9545,
  "game_id": 20616,
  "game_slug": "chocolate-cage",
  "name": "Chocolate Cage",
  "year": 2015,
  "user": "kimchitea",
  "runner": "linux",
  "slug": "chocolate-cage-english-renpy-port",
  "version": "English Ren'Py port",
  "description": "Free download",
  "notes": "",
  "credits": "",
  "created_at": "2018-08-03T04:06:39.949000Z",
  "updated_at": "2024-04-03T05:34:16.845847Z",
  "draft": false,
  "published": true,
  "published_by": null,
  "rating": "",
  "is_playable": null,
  "steamid": null,
  "gogid": null,
  "gogslug": "",
  "humbleid": "",
  "humblestoreid": "",
  "humblestoreid_real": "",
  "script": {
    "files": [
      {
        "file1": "N/A:Please select the game archive"
      }
    ],
    "game": {
      "exe": "Chocolate Cage.sh"
    },
    "installer": [
      {
        "extract": {
          "file": "$file1"
        }
      },
      {
        "chmodx": "$GAMEDIR/Chocolate Cage.sh"
      },
      {
        "chmodx": "$GAMEDIR/lib/linux-i686/Chocolate Cage"
      },
      {
        "chmodx": "$GAMEDIR/lib/linux-x86_64/Chocolate Cage"
      }
    ]
  },
  "content": "files:\n- file1: N/A:Please select the game archive\ngame:\n  exe: Chocolate Cage.sh\ninstaller:\n- extract:\n    file: $file1\n- chmodx: $GAMEDIR/Chocolate Cage.sh\n- chmodx: $GAMEDIR/lib/linux-i686/Chocolate Cage\n- chmodx: $GAMEDIR/lib/linux-x86_64/Chocolate Cage\n",
  "discord_id": ""
}