{
  "id": 251897,
  "name": "Beachside Bites: Sip & Munch",
  "slug": "beachside-bites-sip-and-munch",
  "year": null,
  "banner_url": "",
  "icon_url": "",
  "coverart": null,
  "platforms": [],
  "provider_games": [
    {
      "name": "Beachside Bites: Sip & Munch",
      "slug": "beachside-bites-sip-and-munch",
      "service": "igdb"
    }
  ],
  "aliases": [],
  "shaders": [],
  "discord_id": "",
  "change_for": null
}