{
  "id": 236715,
  "name": "Pachinko CR Mouretsu Genjin T",
  "slug": "pachinko-cr-mouretsu-genjin-t",
  "year": null,
  "banner_url": "",
  "icon_url": "",
  "coverart": null,
  "platforms": [],
  "provider_games": [
    {
      "name": "Pachinko CR Mouretsu Genjin T",
      "slug": "pachinko-cr-mouretsu-genjin-t",
      "service": "igdb"
    }
  ],
  "aliases": [],
  "shaders": [],
  "discord_id": "",
  "change_for": null
}