{
  "id": 77075,
  "name": "The Ultimate Strategy Game Collection II",
  "slug": "the-ultimate-strategy-game-collection-ii",
  "year": null,
  "banner_url": "",
  "icon_url": "",
  "coverart": null,
  "platforms": [],
  "provider_games": [
    {
      "name": "The Ultimate Strategy Game Collection II",
      "slug": "the-ultimate-strategy-game-collection-ii",
      "service": "igdb"
    }
  ],
  "aliases": [],
  "shaders": [],
  "discord_id": "",
  "change_for": null
}