{
  "id": 273026,
  "name": "Lucky Pirate Deck",
  "slug": "lucky-pirate-deck",
  "year": null,
  "banner_url": "",
  "icon_url": "",
  "coverart": "https://lutris.net/media/igdb/cover_big/co7quy.jpg",
  "platforms": [],
  "provider_games": [
    {
      "name": "Lucky Pirate Deck",
      "slug": "lucky-pirate-deck",
      "service": "igdb"
    }
  ],
  "aliases": [],
  "shaders": [],
  "discord_id": "",
  "change_for": null
}