{
  "id": 157431,
  "name": "Family Vacation 2: Road Trip",
  "slug": "family-vacation-2-road-trip",
  "year": 2021,
  "banner_url": "",
  "icon_url": "",
  "coverart": "https://lutris.net/media/igdb/cover_big/co3u8a.jpg",
  "platforms": [
    {
      "name": "Nintendo Switch"
    },
    {
      "name": "Windows"
    }
  ],
  "provider_games": [
    {
      "name": "Family Vacation 2: Road Trip",
      "slug": "family-vacation-2-road-trip",
      "service": "igdb"
    }
  ],
  "aliases": [],
  "shaders": [],
  "discord_id": "",
  "change_for": null
}