{
  "id": 189166,
  "name": "R-Type Final 2: Digital Deluxe Edition",
  "slug": "r-type-final-2-digital-deluxe-edition",
  "year": 2021,
  "banner_url": "",
  "icon_url": "",
  "coverart": "https://lutris.net/media/igdb/cover_big/co3kaf.jpg",
  "platforms": [
    {
      "name": "Xbox One"
    },
    {
      "name": "Xbox Series X|S"
    }
  ],
  "provider_games": [
    {
      "name": "R-Type Final 2: Digital Deluxe Edition",
      "slug": "r-type-final-2-digital-deluxe-edition",
      "service": "igdb"
    }
  ],
  "aliases": [],
  "shaders": [],
  "discord_id": "",
  "change_for": null
}