{
  "id": 305149,
  "name": "MeiaUm: Escaping the Pix",
  "slug": "meiaum-escaping-the-pix",
  "year": 2025,
  "banner_url": "",
  "icon_url": "",
  "coverart": "https://lutris.net/media/igdb/cover_big/co9bnd.jpg",
  "platforms": [
    {
      "name": "Linux"
    },
    {
      "name": "Windows"
    }
  ],
  "provider_games": [
    {
      "name": "MeiaUm: Escaping the Pix",
      "slug": "meiaum-escaping-the-pix",
      "service": "igdb"
    }
  ],
  "aliases": [],
  "shaders": [],
  "discord_id": "",
  "change_for": null
}