{
  "id": 102376,
  "name": "Chess Premium HD",
  "slug": "chess-premium-hd",
  "year": 2010,
  "banner_url": "",
  "icon_url": "",
  "coverart": null,
  "platforms": [],
  "provider_games": [
    {
      "name": "Chess Premium HD",
      "slug": "chess-premium-hd",
      "service": "igdb"
    }
  ],
  "aliases": [],
  "shaders": [],
  "discord_id": "",
  "change_for": null
}