{
  "id": 18540,
  "name": "Munch",
  "slug": "munch",
  "year": 2017,
  "banner_url": "https://lutris.net/games/banner/munch.jpg",
  "icon_url": "https://lutris.net/games/icon/munch.png",
  "coverart": "https://lutris.net/media/igdb/cover_big/co55zn.jpg",
  "platforms": [
    {
      "name": "Windows"
    }
  ],
  "provider_games": [
    {
      "name": "Munch",
      "slug": "549000",
      "service": "steam"
    },
    {
      "name": "Munch",
      "slug": "munch",
      "service": "igdb"
    }
  ],
  "aliases": [],
  "shaders": [],
  "discord_id": "",
  "change_for": null
}