{
  "id": 116696,
  "name": "Pang: Magical Michael",
  "slug": "pang-magical-michael",
  "year": 2010,
  "banner_url": "",
  "icon_url": "",
  "coverart": "https://lutris.net/media/igdb/cover_big/lixpxormhmv6ozaibfys.jpg",
  "platforms": [
    {
      "name": "Nintendo DS"
    }
  ],
  "provider_games": [
    {
      "name": "Pang: Magical Michael",
      "slug": "pang-magical-michael",
      "service": "igdb"
    }
  ],
  "aliases": [],
  "shaders": [],
  "discord_id": "",
  "change_for": null
}