{
  "id": 224698,
  "name": "Morlush",
  "slug": "morlush",
  "year": null,
  "banner_url": "",
  "icon_url": "",
  "coverart": "https://lutris.net/media/igdb/cover_big/co5lkc.jpg",
  "platforms": [],
  "provider_games": [
    {
      "name": "Morlush",
      "slug": "morlush",
      "service": "igdb"
    }
  ],
  "aliases": [],
  "shaders": [],
  "discord_id": "",
  "change_for": null
}