{
  "id": 453,
  "game_id": 78,
  "game_slug": "planescape-torment",
  "name": "Planescape: Torment",
  "year": 1999,
  "user": "Xodetaetl",
  "runner": "wine",
  "slug": "planescape-torment-mod-incredible-ui-fo",
  "version": "[Mod] Incredible UI for GOG",
  "description": null,
  "notes": "",
  "credits": "",
  "created_at": "2014-03-10T21:08:25.852000Z",
  "updated_at": "2024-04-03T05:34:41.486188Z",
  "draft": false,
  "published": true,
  "published_by": 20548,
  "rating": "",
  "is_playable": null,
  "steamid": null,
  "gogid": 1207658887,
  "gogslug": "planescape_torment_enhanced_edition",
  "humbleid": "",
  "humblestoreid": "",
  "humblestoreid_real": "",
  "script": {
    "files": [
      {
        "file2": "N/A:http://downloads.spellholdstudios.net/Ghostdogs_PST_UI_mod_v2.2.7z"
      }
    ],
    "game": {
      "exe": "drive_c/GOG Games/Planescape Torment/torment.exe",
      "prefix": "$GAMEDIR"
    },
    "installer": [
      {
        "extract": {
          "dst": "$GAMEDIR/drive_c/GOG Games/Planescape Torment/",
          "file": "file2"
        }
      },
      {
        "task": {
          "args": "/c \"Setup-GhostDog\\'s-PST-UI.exe\"",
          "description": "Installing the Incredible UI mod",
          "executable": "cmd",
          "name": "wineexec",
          "prefix": "$GAMEDIR",
          "workdir": "$GAMEDIR/drive_c/GOG Games/Planescape Torment/"
        }
      }
    ],
    "requires": "planescape-torment-gog"
  },
  "content": "files:\n- file2: N/A:http://downloads.spellholdstudios.net/Ghostdogs_PST_UI_mod_v2.2.7z\ngame:\n  exe: drive_c/GOG Games/Planescape Torment/torment.exe\n  prefix: $GAMEDIR\ninstaller:\n- extract:\n    dst: $GAMEDIR/drive_c/GOG Games/Planescape Torment/\n    file: file2\n- task:\n    args: /c \"Setup-GhostDog\\'s-PST-UI.exe\"\n    description: Installing the Incredible UI mod\n    executable: cmd\n    name: wineexec\n    prefix: $GAMEDIR\n    workdir: $GAMEDIR/drive_c/GOG Games/Planescape Torment/\nrequires: planescape-torment-gog\n",
  "discord_id": ""
}