{
  "id": 93652,
  "name": "Legendary Eleven: Epic Football",
  "slug": "legendary-eleven-epic-football",
  "year": null,
  "banner_url": "",
  "icon_url": "",
  "coverart": "https://lutris.net/media/igdb/cover_big/rgs5etyncrpsxiqo63y3.jpg",
  "platforms": [],
  "provider_games": [
    {
      "name": "Legendary Eleven: Epic Football",
      "slug": "legendary-eleven-epic-football",
      "service": "igdb"
    }
  ],
  "aliases": [],
  "shaders": [],
  "discord_id": "",
  "change_for": null
}