{
  "id": 75378,
  "name": "Larry Bond's Harpoon Commander's Edition",
  "slug": "larry-bonds-harpoon-commanders-edition",
  "year": null,
  "banner_url": "",
  "icon_url": "",
  "coverart": null,
  "platforms": [],
  "provider_games": [
    {
      "name": "Larry Bond's Harpoon Commander's Edition",
      "slug": "larry-bonds-harpoon-commanders-edition",
      "service": "igdb"
    }
  ],
  "aliases": [],
  "shaders": [],
  "discord_id": "",
  "change_for": null
}