{
  "id": 7494,
  "name": "Planet R-12",
  "slug": "planet-r-12",
  "year": 2016,
  "banner_url": "https://lutris.net/games/banner/planet-r-12.jpg",
  "icon_url": "https://lutris.net/games/icon/planet-r-12.png",
  "coverart": "https://lutris.net/media/igdb/cover_big/pk6ehvexlbrljdejp7cc.jpg",
  "platforms": [
    {
      "name": "Windows"
    }
  ],
  "provider_games": [
    {
      "name": "Planet R-12",
      "slug": "408110",
      "service": "steam"
    },
    {
      "name": "Planet R-12",
      "slug": "planet-r-12",
      "service": "igdb"
    }
  ],
  "aliases": [],
  "shaders": [],
  "discord_id": "",
  "change_for": null
}