{
  "id": 134104,
  "name": "Beyond a Total Loss",
  "slug": "beyond-a-total-loss",
  "year": null,
  "banner_url": "",
  "icon_url": "",
  "coverart": "https://lutris.net/media/igdb/cover_big/co3m3o.jpg",
  "platforms": [],
  "provider_games": [
    {
      "name": "Beyond a Total Loss",
      "slug": "beyond-a-total-loss",
      "service": "igdb"
    }
  ],
  "aliases": [],
  "shaders": [],
  "discord_id": "",
  "change_for": null
}