{
  "id": 49882,
  "name": "Rose & Camellia",
  "slug": "rose-and-camellia",
  "year": 2007,
  "banner_url": "https://lutris.net/games/banner/rose-and-camellia.jpg",
  "icon_url": "",
  "coverart": "https://lutris.net/media/igdb/cover_big/co28z7.jpg",
  "platforms": [
    {
      "name": "Browser"
    }
  ],
  "provider_games": [
    {
      "name": "Rose & Camellia",
      "slug": "rose-and-camellia",
      "service": "igdb"
    }
  ],
  "aliases": [],
  "shaders": [],
  "discord_id": "",
  "change_for": null
}