{
  "id": 85684,
  "name": "Nyan Nyan Nyanko no Nyan Collection",
  "slug": "nyan-nyan-nyanko-no-nyan-collection",
  "year": 2005,
  "banner_url": "",
  "icon_url": "",
  "coverart": null,
  "platforms": [
    {
      "name": "Nintendo Game Boy Advance"
    }
  ],
  "provider_games": [
    {
      "name": "Nyan Nyan Nyanko no Nyan Collection",
      "slug": "nyan-nyan-nyanko-no-nyan-collection",
      "service": "igdb"
    }
  ],
  "aliases": [],
  "shaders": [],
  "discord_id": "",
  "change_for": null
}