{
  "id": 108435,
  "name": "Facebook Horizon",
  "slug": "facebook-horizon",
  "year": null,
  "banner_url": "",
  "icon_url": "",
  "coverart": "https://lutris.net/media/igdb/cover_big/co6v7t.jpg",
  "platforms": [
    {
      "name": "Oculus VR"
    }
  ],
  "provider_games": [
    {
      "name": "Facebook Horizon",
      "slug": "facebook-horizon",
      "service": "igdb"
    }
  ],
  "aliases": [],
  "shaders": [],
  "discord_id": "",
  "change_for": null
}