{
  "id": 31184,
  "game_id": 44200,
  "game_slug": "escape-the-ayuwoki",
  "name": "Escape the Ayuwoki",
  "year": null,
  "user": "chrll",
  "runner": "linux",
  "slug": "escape-the-ayuwoki-itchio",
  "version": "itch.io",
  "description": "Installer for the Linux version available at https://deadlycrowgames.itch.io/escape-the-ayuwoki",
  "notes": "",
  "credits": "",
  "created_at": "2022-01-04T06:01:02.384000Z",
  "updated_at": "2022-01-04T13:57:34.802365Z",
  "draft": false,
  "published": true,
  "published_by": 64834,
  "rating": "",
  "is_playable": null,
  "steamid": 1177660,
  "gogid": null,
  "gogslug": "",
  "humbleid": "",
  "humblestoreid": "",
  "humblestoreid_real": "",
  "script": {
    "files": [
      {
        "file": "N/A:Please select the .zip archive WITH THE LINUX VERSION (ETA_1.5_lin64.zip)"
      }
    ],
    "game": {
      "exe": "$GAMEDIR/ETA_v1.5_linux_x64.x86_64"
    },
    "installer": [
      {
        "extract": {
          "dst": "$GAMEDIR/",
          "file": "$file"
        }
      },
      {
        "chmodx": "$GAMEDIR/ETA_v1.5_linux_x64.x86_64"
      }
    ]
  },
  "content": "files:\n- file: N/A:Please select the .zip archive WITH THE LINUX VERSION (ETA_1.5_lin64.zip)\ngame:\n  exe: $GAMEDIR/ETA_v1.5_linux_x64.x86_64\ninstaller:\n- extract:\n    dst: $GAMEDIR/\n    file: $file\n- chmodx: $GAMEDIR/ETA_v1.5_linux_x64.x86_64\n",
  "discord_id": ""
}