{
  "id": 266446,
  "name": "Asteroid King",
  "slug": "asteroid-king",
  "year": null,
  "banner_url": "",
  "icon_url": "",
  "coverart": "https://lutris.net/media/igdb/cover_big/co7ddq.jpg",
  "platforms": [],
  "provider_games": [
    {
      "name": "Asteroid King",
      "slug": "asteroid-king",
      "service": "igdb"
    }
  ],
  "aliases": [],
  "shaders": [],
  "discord_id": "",
  "change_for": null
}