{
  "id": 127440,
  "name": "Culdcept DS",
  "slug": "culdcept-ds",
  "year": null,
  "banner_url": "",
  "icon_url": "",
  "coverart": "https://lutris.net/media/igdb/cover_big/co2snv.jpg",
  "platforms": [],
  "provider_games": [
    {
      "name": "Culdcept DS",
      "slug": "culdcept-ds",
      "service": "igdb"
    }
  ],
  "aliases": [],
  "shaders": [],
  "discord_id": "",
  "change_for": null
}