{
  "id": 59552,
  "name": "Spectral Force: Itoshiki Jaaku",
  "slug": "spectral-force-itoshiki-jaaku",
  "year": 1999,
  "banner_url": "",
  "icon_url": "",
  "coverart": "https://lutris.net/media/igdb/cover_big/ms5vh3vtfwe6bxjw15kf.jpg",
  "platforms": [
    {
      "name": "Sony PlayStation"
    }
  ],
  "provider_games": [
    {
      "name": "Spectral Force: Itoshiki Jaaku",
      "slug": "spectral-force-itoshiki-jaaku",
      "service": "igdb"
    }
  ],
  "aliases": [],
  "shaders": [],
  "discord_id": "",
  "change_for": null
}