{
  "id": 180471,
  "name": "The Forgotten Halls",
  "slug": "the-forgotten-halls",
  "year": null,
  "banner_url": "",
  "icon_url": "",
  "coverart": null,
  "platforms": [],
  "provider_games": [
    {
      "name": "The Forgotten Halls",
      "slug": "the-forgotten-halls",
      "service": "igdb"
    }
  ],
  "aliases": [],
  "shaders": [],
  "discord_id": "",
  "change_for": null
}