{
  "id": 156672,
  "name": "SD Sengoku Bushou Retsuden: Rekka no Gotoku Tenka o Nusure!",
  "slug": "sd-sengoku-bushou-retsuden-rekka-no-gotoku-tenka-o-nusure",
  "year": 1990,
  "banner_url": "",
  "icon_url": "",
  "coverart": "https://lutris.net/media/igdb/cover_big/co745g.jpg",
  "platforms": [
    {
      "name": "Family Computer"
    }
  ],
  "provider_games": [
    {
      "name": "SD Sengoku Bushou Retsuden: Rekka no Gotoku Tenka o Nusure!",
      "slug": "sd-sengoku-bushou-retsuden-rekka-no-gotoku-tenka-o-nusure",
      "service": "igdb"
    }
  ],
  "aliases": [],
  "shaders": [],
  "discord_id": "",
  "change_for": null
}