{
  "id": 257273,
  "name": "Legends of Mythology",
  "slug": "legends-of-mythology",
  "year": null,
  "banner_url": "",
  "icon_url": "",
  "coverart": "https://lutris.net/media/igdb/cover_big/co700n.jpg",
  "platforms": [],
  "provider_games": [
    {
      "name": "Legends of Mythology",
      "slug": "legends-of-mythology",
      "service": "igdb"
    }
  ],
  "aliases": [],
  "shaders": [],
  "discord_id": "",
  "change_for": null
}