{
  "id": 219532,
  "name": "Suffer 2",
  "slug": "suffer-2",
  "year": null,
  "banner_url": "",
  "icon_url": "",
  "coverart": "https://lutris.net/media/igdb/cover_big/co5ol7.jpg",
  "platforms": [],
  "provider_games": [
    {
      "name": "Suffer 2",
      "slug": "suffer-2",
      "service": "igdb"
    }
  ],
  "aliases": [],
  "shaders": [],
  "discord_id": "",
  "change_for": null
}