{
  "id": 42336,
  "name": "Station Architect",
  "slug": "station-architect",
  "year": null,
  "banner_url": "https://lutris.net/games/banner/station-architect.jpg",
  "icon_url": "https://lutris.net/games/icon/station-architect.png",
  "coverart": null,
  "platforms": [],
  "provider_games": [
    {
      "name": "Station Architect",
      "slug": "617360",
      "service": "steam"
    }
  ],
  "aliases": [],
  "shaders": [],
  "discord_id": "",
  "change_for": null
}