{
  "id": 40958,
  "name": "CS:GO Player Profiles: kennyS - Team Envyus",
  "slug": "csgo-player-profiles-kennys-team-envyus",
  "year": null,
  "banner_url": "https://lutris.net/games/banner/csgo-player-profiles-kennys-team-envyus.jpg",
  "icon_url": "https://lutris.net/games/icon/csgo-player-profiles-kennys-team-envyus.png",
  "coverart": null,
  "platforms": [],
  "provider_games": [
    {
      "name": "CS:GO Player Profiles: kennyS - Team Envyus",
      "slug": "413855",
      "service": "steam"
    }
  ],
  "aliases": [],
  "shaders": [],
  "discord_id": "",
  "change_for": null
}