{
  "id": 95999,
  "name": "Kids Vehicles Fire Truck games",
  "slug": "kids-vehicles-fire-truck-games",
  "year": null,
  "banner_url": "",
  "icon_url": "",
  "coverart": null,
  "platforms": [],
  "provider_games": [
    {
      "name": "Kids Vehicles Fire Truck games",
      "slug": "kids-vehicles-fire-truck-games",
      "service": "igdb"
    }
  ],
  "aliases": [],
  "shaders": [],
  "discord_id": "",
  "change_for": null
}