{
  "id": 81069,
  "name": "Astro Maths",
  "slug": "astro-maths",
  "year": 1984,
  "banner_url": "",
  "icon_url": "",
  "coverart": null,
  "platforms": [
    {
      "name": "BBC Microcomputer System"
    }
  ],
  "provider_games": [
    {
      "name": "Astro Maths",
      "slug": "astro-maths",
      "service": "igdb"
    }
  ],
  "aliases": [],
  "shaders": [],
  "discord_id": "",
  "change_for": null
}