{
  "id": 81953,
  "name": "Oil Leak: Oil Enterprise",
  "slug": "oil-leak-oil-enterprise",
  "year": null,
  "banner_url": "",
  "icon_url": "",
  "coverart": null,
  "platforms": [],
  "provider_games": [
    {
      "name": "Oil Leak: Oil Enterprise",
      "slug": "oil-leak-oil-enterprise",
      "service": "igdb"
    }
  ],
  "aliases": [],
  "shaders": [],
  "discord_id": "",
  "change_for": null
}