{
  "id": 2513,
  "name": "Stick It To The Man!",
  "slug": "stick-it-to-the-man",
  "year": 2013,
  "banner_url": "https://lutris.net/games/banner/stick-it-to-the-man.jpg",
  "icon_url": "https://lutris.net/games/icon/stick-it-to-the-man.png",
  "coverart": "https://lutris.net/media/igdb/cover_big/co24ue.jpg",
  "platforms": [
    {
      "name": "Windows"
    }
  ],
  "provider_games": [
    {
      "name": "Stick it to the Man!",
      "slug": "1207660713",
      "service": "gog"
    },
    {
      "name": "Stick It To The Man!",
      "slug": "251830",
      "service": "steam"
    },
    {
      "name": "Stick it to the Man!",
      "slug": "stick-it-to-the-man",
      "service": "igdb"
    }
  ],
  "aliases": [],
  "shaders": [],
  "discord_id": "",
  "change_for": null
}