{
  "id": 53990,
  "name": "Yuu Yuu Jinsei",
  "slug": "yuu-yuu-jinsei",
  "year": 1988,
  "banner_url": "",
  "icon_url": "",
  "coverart": "https://lutris.net/media/igdb/cover_big/kxjssopopgywhbfbhjqo.jpg",
  "platforms": [
    {
      "name": "TurboGrafx-16/PC Engine"
    }
  ],
  "provider_games": [
    {
      "name": "Yuu Yuu Jinsei",
      "slug": "yuu-yuu-jinsei",
      "service": "igdb"
    }
  ],
  "aliases": [],
  "shaders": [],
  "discord_id": "",
  "change_for": null
}