{
  "id": 80146,
  "name": "NERO - Neuro-Evolving Robotic Operatives",
  "slug": "nero-neuro-evolving-robotic-operatives",
  "year": 2005,
  "banner_url": "",
  "icon_url": "",
  "coverart": "https://lutris.net/media/igdb/cover_big/c48iufb2cdcb6ite1nc6.jpg",
  "platforms": [
    {
      "name": "Windows"
    }
  ],
  "provider_games": [
    {
      "name": "NERO: Neuro-Evolving Robotic Operatives",
      "slug": "nero-neuro-evolving-robotic-operatives",
      "service": "igdb"
    }
  ],
  "aliases": [],
  "shaders": [],
  "discord_id": "",
  "change_for": null
}