{
  "id": 4967,
  "game_id": 7072,
  "game_slug": "into-the-void",
  "name": "Into the Void",
  "year": 2015,
  "user": "FakeShemp",
  "runner": "linux",
  "slug": "into-the-void-groupees",
  "version": "Groupees",
  "description": "",
  "notes": "",
  "credits": "",
  "created_at": "2017-07-11T17:05:53.921885Z",
  "updated_at": "2024-04-03T05:34:28.428338Z",
  "draft": false,
  "published": true,
  "published_by": null,
  "rating": "",
  "is_playable": null,
  "steamid": 420270,
  "gogid": null,
  "gogslug": "",
  "humbleid": "",
  "humblestoreid": "",
  "humblestoreid_real": "",
  "script": {
    "files": [
      {
        "file1": "N/A:Please select the Groupees archive"
      }
    ],
    "game": {
      "exe": "IntoTheVoid.x86"
    },
    "installer": [
      {
        "extract": {
          "file": "$file1"
        }
      },
      {
        "chmodx": "$GAMEDIR/IntoTheVoid.x86"
      }
    ]
  },
  "content": "files:\n- file1: N/A:Please select the Groupees archive\ngame:\n  exe: IntoTheVoid.x86\ninstaller:\n- extract:\n    file: $file1\n- chmodx: $GAMEDIR/IntoTheVoid.x86\n",
  "discord_id": ""
}