{
  "id": 257432,
  "name": "Le Crime Du Parking",
  "slug": "le-crime-du-parking",
  "year": 1985,
  "banner_url": "",
  "icon_url": "",
  "coverart": "https://lutris.net/media/igdb/cover_big/co70il.jpg",
  "platforms": [
    {
      "name": "Apple II"
    }
  ],
  "provider_games": [
    {
      "name": "Le Crime Du Parking",
      "slug": "le-crime-du-parking",
      "service": "igdb"
    }
  ],
  "aliases": [],
  "shaders": [],
  "discord_id": "",
  "change_for": null
}