{
  "id": 63268,
  "name": "Dragonette",
  "slug": "dragonette",
  "year": null,
  "banner_url": "",
  "icon_url": "",
  "coverart": "https://lutris.net/media/igdb/cover_big/hwugh6csj0frusd8wkpj.jpg",
  "platforms": [],
  "provider_games": [
    {
      "name": "Dragonette",
      "slug": "dragonette",
      "service": "igdb"
    }
  ],
  "aliases": [],
  "shaders": [],
  "discord_id": "",
  "change_for": null
}