{
  "id": 215446,
  "name": "Apex Point",
  "slug": "apex-point",
  "year": null,
  "banner_url": "https://lutris.net/games/banner/apex-point.jpg",
  "icon_url": "",
  "coverart": "https://lutris.net/media/igdb/cover_big/co58yj.jpg",
  "platforms": [],
  "provider_games": [
    {
      "name": "Apex Point",
      "slug": "apex-point",
      "service": "igdb"
    },
    {
      "name": "Apex Point",
      "slug": "2102520",
      "service": "steam"
    }
  ],
  "aliases": [],
  "shaders": [],
  "discord_id": "",
  "change_for": null
}