{
  "id": 126944,
  "name": "Maze Breaker 2",
  "slug": "maze-breaker-2",
  "year": 2020,
  "banner_url": "",
  "icon_url": "",
  "coverart": "https://lutris.net/media/igdb/cover_big/co4ccs.jpg",
  "platforms": [
    {
      "name": "Nintendo 3DS"
    }
  ],
  "provider_games": [
    {
      "name": "Maze Breaker 2",
      "slug": "maze-breaker-2",
      "service": "igdb"
    }
  ],
  "aliases": [],
  "shaders": [],
  "discord_id": "",
  "change_for": null
}