{
  "id": 195951,
  "name": "Club Life Visual Novel",
  "slug": "club-life-visual-novel",
  "year": 2016,
  "banner_url": "",
  "icon_url": "",
  "coverart": null,
  "platforms": [],
  "provider_games": [
    {
      "name": "Club Life Visual Novel",
      "slug": "club-life-visual-novel",
      "service": "igdb"
    }
  ],
  "aliases": [],
  "shaders": [],
  "discord_id": "",
  "change_for": null
}