{
  "id": 280321,
  "name": "Survive The Night",
  "slug": "survive-the-night",
  "year": null,
  "banner_url": "",
  "icon_url": "",
  "coverart": "https://lutris.net/media/igdb/cover_big/co80mz.jpg",
  "platforms": [],
  "provider_games": [
    {
      "name": "Survive The Night",
      "slug": "survive-the-night",
      "service": "igdb"
    }
  ],
  "aliases": [],
  "shaders": [],
  "discord_id": "",
  "change_for": null
}