{
  "id": 207688,
  "name": "Christmas Wonderland 5",
  "slug": "christmas-wonderland-5",
  "year": null,
  "banner_url": "",
  "icon_url": "",
  "coverart": "https://lutris.net/media/igdb/cover_big/co5qvu.jpg",
  "platforms": [],
  "provider_games": [
    {
      "name": "Christmas Wonderland 5",
      "slug": "christmas-wonderland-5",
      "service": "igdb"
    }
  ],
  "aliases": [],
  "shaders": [],
  "discord_id": "",
  "change_for": null
}