{
  "id": 268267,
  "name": "Machi: Unmei no Kousaten",
  "slug": "machi-unmei-no-kousaten",
  "year": 1998,
  "banner_url": "",
  "icon_url": "",
  "coverart": "https://lutris.net/media/igdb/cover_big/co7hjj.jpg",
  "platforms": [
    {
      "name": "Sony PlayStation"
    }
  ],
  "provider_games": [
    {
      "name": "Machi: Unmei no Kousaten",
      "slug": "machi-unmei-no-kousaten",
      "service": "igdb"
    }
  ],
  "aliases": [],
  "shaders": [],
  "discord_id": "",
  "change_for": null
}