{
  "id": 208003,
  "name": "Didactic Jesus Game",
  "slug": "didactic-jesus-game",
  "year": null,
  "banner_url": "",
  "icon_url": "",
  "coverart": "https://lutris.net/media/igdb/cover_big/co5qfz.jpg",
  "platforms": [],
  "provider_games": [
    {
      "name": "Didactic Jesus Game",
      "slug": "didactic-jesus-game",
      "service": "igdb"
    }
  ],
  "aliases": [],
  "shaders": [],
  "discord_id": "",
  "change_for": null
}