{
  "id": 88446,
  "name": "Dirt Trackin",
  "slug": "dirt-trackin",
  "year": 2014,
  "banner_url": "",
  "icon_url": "",
  "coverart": "https://lutris.net/media/igdb/cover_big/qbnjexpv4bsmfvgpck3x.jpg",
  "platforms": [],
  "provider_games": [
    {
      "name": "Dirt Trackin",
      "slug": "dirt-trackin",
      "service": "igdb"
    }
  ],
  "aliases": [],
  "shaders": [],
  "discord_id": "",
  "change_for": null
}