{
  "id": 190727,
  "name": "Gore: Ultimate Soldier",
  "slug": "gore-ultimate-soldier",
  "year": 2002,
  "banner_url": "",
  "icon_url": "",
  "coverart": "https://lutris.net/media/igdb/cover_big/co25od.jpg",
  "platforms": [
    {
      "name": "Windows"
    }
  ],
  "provider_games": [
    {
      "name": "Gore: Ultimate Soldier",
      "slug": "gore-ultimate-soldier",
      "service": "igdb"
    }
  ],
  "aliases": [],
  "shaders": [],
  "discord_id": "",
  "change_for": null
}