{
  "id": 198790,
  "name": "Shin Shogi Club",
  "slug": "shin-shogi-club",
  "year": 1995,
  "banner_url": "",
  "icon_url": "",
  "coverart": null,
  "platforms": [
    {
      "name": "Super Famicom"
    }
  ],
  "provider_games": [
    {
      "name": "Shin Shogi Club",
      "slug": "shin-shogi-club",
      "service": "igdb"
    }
  ],
  "aliases": [],
  "shaders": [],
  "discord_id": "",
  "change_for": null
}