{
  "id": 15511,
  "game_id": 6171,
  "game_slug": "toonstruck",
  "name": "Toonstruck",
  "year": 1996,
  "user": "legluondunet",
  "runner": "dosbox",
  "slug": "toonstruck-cd-dosbox",
  "version": "CD + DOSBox",
  "description": "\"Toonstruck\" CD edition for DOSBox.",
  "notes": "- You will need the 2 CD only during install.\r\n- During gaming, type \"CTRL+F4\" to change CD1 to CD2",
  "credits": "",
  "created_at": "2019-09-13T19:10:28.352000Z",
  "updated_at": "2022-02-03T06:41:27.372010Z",
  "draft": false,
  "published": true,
  "published_by": 494,
  "rating": "",
  "is_playable": null,
  "steamid": 369830,
  "gogid": 1207666633,
  "gogslug": "toonstruck",
  "humbleid": "",
  "humblestoreid": "",
  "humblestoreid_real": "",
  "script": {
    "custom-name": "Toonstruck - CD - DOSBox",
    "files": [
      {
        "cdrtools": "https://github.com/legluondunet/mlls-tools/raw/master/cdrtools/cdrtools.zip"
      },
      {
        "script": "https://github.com/legluondunet/mlls-tools/raw/master/scripts/copycd.sh"
      },
      {
        "conf": "https://github.com/legluondunet/MyLittleLutrisScripts/raw/master/Toonstruck/toonstruck_dosbox.conf"
      }
    ],
    "game": {
      "main_file": "$GAMEDIR/toonstruck_dosbox.conf"
    },
    "installer": [
      {
        "insert-disc": {
          "description": "Please insert disc 1",
          "requires": "act1/arcaddbl/arcaddbl.pak"
        }
      },
      {
        "extract": {
          "dst": "$GAMEDIR",
          "src": "cdrtools"
        }
      },
      {
        "chmodx": "script"
      },
      {
        "execute": {
          "args": "TOON 0",
          "file": "script"
        }
      },
      {
        "insert-disc": {
          "description": "Please insert disc 2",
          "requires": "act2/armory/armory.pak"
        }
      },
      {
        "execute": {
          "args": "TOONS",
          "file": "script"
        }
      },
      {
        "execute": {
          "command": "cd $GAMEDIR; mv TOON.cue TOONSTRUCK_CD1.cue; mv TOON.bin TOONSTRUCK_CD1.bin; mv TOONS.cue TOONSTRUCK_CD2.cue; mv TOONS.bin TOONSTRUCK_CD2.bin; sed -i 's/TOON.bin/TOONSTRUCK_CD1.bin/g' TOONSTRUCK_CD1.cue; sed -i 's/TOONS.bin/TOONSTRUCK_CD2.bin/g' TOONSTRUCK_CD2.cue;"
        }
      },
      {
        "copy": {
          "dst": "$GAMEDIR",
          "src": "conf"
        }
      }
    ]
  },
  "content": "custom-name: Toonstruck - CD - DOSBox\nfiles:\n- cdrtools: https://github.com/legluondunet/mlls-tools/raw/master/cdrtools/cdrtools.zip\n- script: https://github.com/legluondunet/mlls-tools/raw/master/scripts/copycd.sh\n- conf: https://github.com/legluondunet/MyLittleLutrisScripts/raw/master/Toonstruck/toonstruck_dosbox.conf\ngame:\n  main_file: $GAMEDIR/toonstruck_dosbox.conf\ninstaller:\n- insert-disc:\n    description: Please insert disc 1\n    requires: act1/arcaddbl/arcaddbl.pak\n- extract:\n    dst: $GAMEDIR\n    src: cdrtools\n- chmodx: script\n- execute:\n    args: TOON 0\n    file: script\n- insert-disc:\n    description: Please insert disc 2\n    requires: act2/armory/armory.pak\n- execute:\n    args: TOONS\n    file: script\n- execute:\n    command: cd $GAMEDIR; mv TOON.cue TOONSTRUCK_CD1.cue; mv TOON.bin TOONSTRUCK_CD1.bin;\n      mv TOONS.cue TOONSTRUCK_CD2.cue; mv TOONS.bin TOONSTRUCK_CD2.bin; sed -i 's/TOON.bin/TOONSTRUCK_CD1.bin/g'\n      TOONSTRUCK_CD1.cue; sed -i 's/TOONS.bin/TOONSTRUCK_CD2.bin/g' TOONSTRUCK_CD2.cue;\n- copy:\n    dst: $GAMEDIR\n    src: conf\n",
  "discord_id": ""
}