{
  "id": 295085,
  "name": "Astropods: Starside Glaze",
  "slug": "astropods-starside-glaze",
  "year": null,
  "banner_url": "",
  "icon_url": "",
  "coverart": "https://lutris.net/media/igdb/cover_big/co8sfq.jpg",
  "platforms": [
    {
      "name": "Windows"
    }
  ],
  "provider_games": [
    {
      "name": "Astropods: Starside Glaze",
      "slug": "astropods-starside-glaze",
      "service": "igdb"
    }
  ],
  "aliases": [],
  "shaders": [],
  "discord_id": "",
  "change_for": null
}