{
  "id": 38962,
  "name": "Salvage Solitude 8140",
  "slug": "salvage-solitude-8140",
  "year": 2015,
  "banner_url": "https://lutris.net/games/banner/salvage-solitude-8140.jpg",
  "icon_url": "",
  "coverart": "https://lutris.net/media/igdb/cover_big/co2e1z.jpg",
  "platforms": [
    {
      "name": "Linux"
    },
    {
      "name": "Mac"
    },
    {
      "name": "Windows"
    }
  ],
  "provider_games": [
    {
      "name": "Salvage Solitude 8140",
      "slug": "salvage-solitude-8140",
      "service": "igdb"
    }
  ],
  "aliases": [],
  "shaders": [],
  "discord_id": "",
  "change_for": null
}