{
  "id": 230027,
  "name": "SGS Battle For: Stalingrad",
  "slug": "sgs-battle-for-stalingrad",
  "year": null,
  "banner_url": "",
  "icon_url": "",
  "coverart": "https://lutris.net/media/igdb/cover_big/co6da3.jpg",
  "platforms": [],
  "provider_games": [
    {
      "name": "SGS Battle For: Stalingrad",
      "slug": "sgs-battle-for-stalingrad",
      "service": "igdb"
    }
  ],
  "aliases": [],
  "shaders": [],
  "discord_id": "",
  "change_for": null
}