{
  "id": 184927,
  "name": "Shadowplay: Journey to Wonderland",
  "slug": "shadowplay-journey-to-wonderland",
  "year": null,
  "banner_url": "",
  "icon_url": "",
  "coverart": null,
  "platforms": [],
  "provider_games": [
    {
      "name": "Shadowplay: Journey to Wonderland",
      "slug": "shadowplay-journey-to-wonderland",
      "service": "igdb"
    }
  ],
  "aliases": [],
  "shaders": [],
  "discord_id": "",
  "change_for": null
}