{
  "id": 96895,
  "name": "DEADHUNTERS",
  "slug": "deadhunters",
  "year": null,
  "banner_url": "",
  "icon_url": "",
  "coverart": "https://lutris.net/media/igdb/cover_big/co1xut.jpg",
  "platforms": [],
  "provider_games": [
    {
      "name": "Deadhunters",
      "slug": "deadhunters",
      "service": "igdb"
    }
  ],
  "aliases": [],
  "shaders": [],
  "discord_id": "",
  "change_for": null
}