{
  "id": 16687,
  "name": "FINAL FANTASY XII THE ZODIAC AGE",
  "slug": "final-fantasy-xii-the-zodiac-age",
  "year": 2017,
  "banner_url": "https://lutris.net/games/banner/final-fantasy-xii-the-zodiac-age.jpg",
  "icon_url": "https://lutris.net/games/icon/final-fantasy-xii-the-zodiac-age.png",
  "coverart": "https://lutris.net/media/igdb/cover_big/co2g6o.jpg",
  "platforms": [
    {
      "name": "Nintendo Switch"
    },
    {
      "name": "Sony Playstation 4"
    },
    {
      "name": "Windows"
    },
    {
      "name": "Xbox One"
    }
  ],
  "provider_games": [
    {
      "name": "FINAL FANTASY XII THE ZODIAC AGE",
      "slug": "595520",
      "service": "steam"
    },
    {
      "name": "Final Fantasy XII: The Zodiac Age",
      "slug": "final-fantasy-xii-the-zodiac-age",
      "service": "igdb"
    }
  ],
  "aliases": [],
  "shaders": [],
  "discord_id": "",
  "change_for": null
}