{
  "id": 92868,
  "name": "Infinity Ops: Sci-Fi FPS",
  "slug": "infinity-ops-sci-fi-fps",
  "year": 2018,
  "banner_url": "",
  "icon_url": "",
  "coverart": "https://lutris.net/media/igdb/cover_big/co2dig.jpg",
  "platforms": [],
  "provider_games": [
    {
      "name": "Infinity Ops: Sci-Fi FPS",
      "slug": "infinity-ops-sci-fi-fps",
      "service": "igdb"
    }
  ],
  "aliases": [],
  "shaders": [],
  "discord_id": "",
  "change_for": null
}