{
  "id": 52769,
  "name": "Exidium Corp",
  "slug": "exidium-corp",
  "year": null,
  "banner_url": "",
  "icon_url": "",
  "coverart": "https://lutris.net/media/igdb/cover_big/f3lkljob0i692hlwsdcf.jpg",
  "platforms": [],
  "provider_games": [
    {
      "name": "Exidium Corp",
      "slug": "exidium-corp",
      "service": "igdb"
    }
  ],
  "aliases": [],
  "shaders": [],
  "discord_id": "",
  "change_for": null
}