{
  "id": 197681,
  "name": "Another Eden: The Cat Beyond Time and Space",
  "slug": "another-eden-the-cat-beyond-time-and-space",
  "year": null,
  "banner_url": "",
  "icon_url": "",
  "coverart": null,
  "platforms": [],
  "provider_games": [
    {
      "name": "Another Eden: The Cat Beyond Time and Space",
      "slug": "another-eden-the-cat-beyond-time-and-space",
      "service": "igdb"
    }
  ],
  "aliases": [],
  "shaders": [],
  "discord_id": "",
  "change_for": null
}