{
  "id": 172225,
  "name": "Bee Movie Game",
  "slug": "bee-movie-game",
  "year": 2007,
  "banner_url": "https://lutris.net/games/banner/bee-movie-game.jpg",
  "icon_url": "",
  "coverart": "https://lutris.net/media/igdb/cover_big/co2dbx.jpg",
  "platforms": [
    {
      "name": "Nintendo DS"
    },
    {
      "name": "Nintendo Wii"
    },
    {
      "name": "Sony PlayStation 2"
    },
    {
      "name": "Windows"
    },
    {
      "name": "Xbox 360"
    }
  ],
  "provider_games": [
    {
      "name": "Bee Movie Game",
      "slug": "bee-movie-game",
      "service": "igdb"
    }
  ],
  "aliases": [],
  "shaders": [],
  "discord_id": "",
  "change_for": null
}