{
  "id": 29008,
  "name": "WarioWare: Touched!",
  "slug": "warioware-touched",
  "year": 2004,
  "banner_url": "https://lutris.net/games/banner/warioware-touched.jpg",
  "icon_url": "",
  "coverart": "https://lutris.net/media/igdb/cover_big/co1wpy.jpg",
  "platforms": [
    {
      "name": "Nintendo 3DS"
    },
    {
      "name": "Nintendo DS"
    },
    {
      "name": "Nintendo Wii U"
    }
  ],
  "provider_games": [
    {
      "name": "WarioWare: Touched!",
      "slug": "warioware-touched",
      "service": "igdb"
    }
  ],
  "aliases": [],
  "shaders": [],
  "discord_id": "",
  "change_for": null
}