{
  "id": 293276,
  "name": "Night of The Abattoir Man",
  "slug": "night-of-the-abattoir-man",
  "year": null,
  "banner_url": "",
  "icon_url": "",
  "coverart": "https://lutris.net/media/igdb/cover_big/co8lii.jpg",
  "platforms": [],
  "provider_games": [
    {
      "name": "Night of The Abattoir Man",
      "slug": "night-of-the-abattoir-man",
      "service": "igdb"
    }
  ],
  "aliases": [],
  "shaders": [],
  "discord_id": "",
  "change_for": null
}