{
  "id": 47279,
  "name": "Sudden Strike Anthology",
  "slug": "sudden-strike-anthology",
  "year": null,
  "banner_url": "",
  "icon_url": "",
  "coverart": null,
  "platforms": [],
  "provider_games": [
    {
      "name": "Sudden Strike Anthology",
      "slug": "sudden-strike-anthology",
      "service": "igdb"
    }
  ],
  "aliases": [],
  "shaders": [],
  "discord_id": "",
  "change_for": null
}