{
  "id": 303385,
  "name": "Shop Simulator: Pet Shop",
  "slug": "shop-simulator-pet-shop--1",
  "year": 2024,
  "banner_url": "",
  "icon_url": "",
  "coverart": "https://lutris.net/media/igdb/cover_big/co96nk.jpg",
  "platforms": [
    {
      "name": "Windows"
    }
  ],
  "provider_games": [
    {
      "name": "Shop Simulator: Pet Shop",
      "slug": "shop-simulator-pet-shop--1",
      "service": "igdb"
    }
  ],
  "aliases": [],
  "shaders": [],
  "discord_id": "",
  "change_for": null
}