{
  "id": 24460,
  "name": "aMAZE Untouchable",
  "slug": "amaze-untouchable",
  "year": 2018,
  "banner_url": "https://lutris.net/games/banner/amaze-untouchable.jpg",
  "icon_url": "https://lutris.net/games/icon/amaze-untouchable.png",
  "coverart": "https://lutris.net/media/igdb/cover_big/co3lf2.jpg",
  "platforms": [
    {
      "name": "Windows"
    }
  ],
  "provider_games": [
    {
      "name": "aMAZE Untouchable",
      "slug": "776540",
      "service": "steam"
    },
    {
      "name": "Amaze Untouchable",
      "slug": "amaze-untouchable",
      "service": "igdb"
    }
  ],
  "aliases": [],
  "shaders": [],
  "discord_id": "",
  "change_for": null
}