{
  "id": 38871,
  "name": "StarFighter R&D HD Edition",
  "slug": "starfighter-rd-hd-edition",
  "year": 2017,
  "banner_url": "https://lutris.net/games/banner/starfighter-rd-hd-edition.jpg",
  "icon_url": "",
  "coverart": null,
  "platforms": [
    {
      "name": "Linux"
    },
    {
      "name": "Windows"
    }
  ],
  "provider_games": [],
  "aliases": [],
  "shaders": [],
  "discord_id": "",
  "change_for": null
}