{
  "id": 71621,
  "name": "Garakutale",
  "slug": "garakutale",
  "year": null,
  "banner_url": "",
  "icon_url": "",
  "coverart": "https://lutris.net/media/igdb/cover_big/co7r5e.jpg",
  "platforms": [],
  "provider_games": [
    {
      "name": "Garakutale",
      "slug": "garakutale",
      "service": "igdb"
    }
  ],
  "aliases": [],
  "shaders": [],
  "discord_id": "",
  "change_for": null
}