{
  "id": 220553,
  "name": "Mahjongg Platinum 4",
  "slug": "mahjongg-platinum-4",
  "year": null,
  "banner_url": "",
  "icon_url": "",
  "coverart": null,
  "platforms": [],
  "provider_games": [
    {
      "name": "Mahjongg Platinum 4",
      "slug": "mahjongg-platinum-4",
      "service": "igdb"
    }
  ],
  "aliases": [],
  "shaders": [],
  "discord_id": "",
  "change_for": null
}