{
  "id": 69043,
  "name": "Jissen Pachi-Slot Hisshouhou! Mr. Magic Neo",
  "slug": "jissen-pachi-slot-hisshouhou-mr-magic-neo",
  "year": null,
  "banner_url": "",
  "icon_url": "",
  "coverart": "https://lutris.net/media/igdb/cover_big/how7aapvewyxwc9xrz3l.jpg",
  "platforms": [],
  "provider_games": [
    {
      "name": "Jissen Pachi-Slot Hisshouhou! Mr. Magic Neo",
      "slug": "jissen-pachi-slot-hisshouhou-mr-magic-neo",
      "service": "igdb"
    }
  ],
  "aliases": [],
  "shaders": [],
  "discord_id": "",
  "change_for": null
}