{
  "id": 177912,
  "name": "Mary-Kate & Ashley: Magical Mystery Mall",
  "slug": "mary-kate-and-ashley-magical-mystery-mall",
  "year": 2000,
  "banner_url": "",
  "icon_url": "",
  "coverart": "https://lutris.net/media/igdb/cover_big/co49pb.jpg",
  "platforms": [
    {
      "name": "Sony PlayStation"
    }
  ],
  "provider_games": [
    {
      "name": "Mary-Kate & Ashley: Magical Mystery Mall",
      "slug": "mary-kate-and-ashley-magical-mystery-mall",
      "service": "igdb"
    }
  ],
  "aliases": [],
  "shaders": [],
  "discord_id": "",
  "change_for": null
}