{
  "id": 209272,
  "name": "Tamagotchi Connection V2",
  "slug": "tamagotchi-connection-v2",
  "year": 2005,
  "banner_url": "",
  "icon_url": "",
  "coverart": "https://lutris.net/media/igdb/cover_big/co5xy5.jpg",
  "platforms": [],
  "provider_games": [
    {
      "name": "Tamagotchi Connection V2",
      "slug": "tamagotchi-connection-v2",
      "service": "igdb"
    }
  ],
  "aliases": [],
  "shaders": [],
  "discord_id": "",
  "change_for": null
}