{
  "id": 154534,
  "name": "Naki",
  "slug": "naki",
  "year": null,
  "banner_url": "",
  "icon_url": "",
  "coverart": "https://lutris.net/media/igdb/cover_big/co3xar.jpg",
  "platforms": [],
  "provider_games": [
    {
      "name": "Naki",
      "slug": "naki",
      "service": "igdb"
    }
  ],
  "aliases": [],
  "shaders": [],
  "discord_id": "",
  "change_for": null
}