{
  "id": 156192,
  "name": "Pac-Mania",
  "slug": "pac-mania--1",
  "year": 1990,
  "banner_url": "",
  "icon_url": "",
  "coverart": "https://lutris.net/media/igdb/cover_big/co3xtr.jpg",
  "platforms": [
    {
      "name": "NES"
    }
  ],
  "provider_games": [
    {
      "name": "Pac-Mania",
      "slug": "pac-mania--1",
      "service": "igdb"
    }
  ],
  "aliases": [],
  "shaders": [],
  "discord_id": "",
  "change_for": null
}