{
  "id": 253703,
  "name": "Trapped Part Three: The Labyrinth",
  "slug": "trapped-part-three-the-labyrinth",
  "year": 2008,
  "banner_url": "",
  "icon_url": "",
  "coverart": "https://lutris.net/media/igdb/cover_big/co6tqa.jpg",
  "platforms": [
    {
      "name": "Browser"
    }
  ],
  "provider_games": [
    {
      "name": "Trapped Part Three: The Labyrinth",
      "slug": "trapped-part-three-the-labyrinth",
      "service": "igdb"
    }
  ],
  "aliases": [],
  "shaders": [],
  "discord_id": "",
  "change_for": null
}