{
  "id": 214568,
  "name": "Adventure Academia: The Fractured Continent",
  "slug": "adventure-academia-the-fractured-continent",
  "year": 2022,
  "banner_url": "",
  "icon_url": "",
  "coverart": "https://lutris.net/media/igdb/cover_big/co4tqa.jpg",
  "platforms": [
    {
      "name": "Nintendo Switch"
    },
    {
      "name": "Sony Playstation 4"
    },
    {
      "name": "Windows"
    }
  ],
  "provider_games": [
    {
      "name": "Adventure Academia: The Fractured Continent",
      "slug": "adventure-academia-the-fractured-continent",
      "service": "igdb"
    }
  ],
  "aliases": [],
  "shaders": [],
  "discord_id": "",
  "change_for": null
}