{
  "id": 207635,
  "name": "Montgomery Fox and the Case of the Missing Ballerinas",
  "slug": "montgomery-fox-and-the-case-of-the-missing-ballerinas",
  "year": null,
  "banner_url": "",
  "icon_url": "",
  "coverart": "https://lutris.net/media/igdb/cover_big/co5qyz.jpg",
  "platforms": [],
  "provider_games": [
    {
      "name": "Montgomery Fox and the Case of the Missing Ballerinas",
      "slug": "montgomery-fox-and-the-case-of-the-missing-ballerinas",
      "service": "igdb"
    }
  ],
  "aliases": [],
  "shaders": [],
  "discord_id": "",
  "change_for": null
}