{
  "id": 256646,
  "name": "Flow of Sound",
  "slug": "flow-of-sound",
  "year": null,
  "banner_url": "",
  "icon_url": "",
  "coverart": "https://lutris.net/media/igdb/cover_big/co6z6q.jpg",
  "platforms": [],
  "provider_games": [
    {
      "name": "Flow of Sound",
      "slug": "flow-of-sound",
      "service": "igdb"
    }
  ],
  "aliases": [],
  "shaders": [],
  "discord_id": "",
  "change_for": null
}