{
  "id": 292503,
  "name": "Nordhold: Origins",
  "slug": "nordhold-origins",
  "year": null,
  "banner_url": "",
  "icon_url": "",
  "coverart": "https://lutris.net/media/igdb/cover_big/co8lwr.jpg",
  "platforms": [],
  "provider_games": [
    {
      "name": "Nordhold: Origins",
      "slug": "nordhold-origins",
      "service": "igdb"
    }
  ],
  "aliases": [],
  "shaders": [],
  "discord_id": "",
  "change_for": null
}