{
  "id": 193146,
  "name": "Fireflies & Figments: A Willow's Journey",
  "slug": "fireflies-and-figments-a-willows-journey",
  "year": null,
  "banner_url": "",
  "icon_url": "",
  "coverart": "https://lutris.net/media/igdb/cover_big/co4g5o.jpg",
  "platforms": [],
  "provider_games": [
    {
      "name": "Fireflies & Figments: A Willow's Journey",
      "slug": "fireflies-and-figments-a-willows-journey",
      "service": "igdb"
    }
  ],
  "aliases": [],
  "shaders": [],
  "discord_id": "",
  "change_for": null
}