{
  "id": 206588,
  "name": "303 Logic, Action & Arcade Games",
  "slug": "303-logic-action-and-arcade-games",
  "year": null,
  "banner_url": "",
  "icon_url": "",
  "coverart": "https://lutris.net/media/igdb/cover_big/co5v1d.jpg",
  "platforms": [
    {
      "name": "Windows"
    }
  ],
  "provider_games": [
    {
      "name": "303 Logic, Action & Arcade Games",
      "slug": "303-logic-action-and-arcade-games",
      "service": "igdb"
    }
  ],
  "aliases": [],
  "shaders": [],
  "discord_id": "",
  "change_for": null
}