{
  "id": 46436,
  "name": "World War Heroes",
  "slug": "world-war-heroes",
  "year": null,
  "banner_url": "",
  "icon_url": "",
  "coverart": "https://lutris.net/media/igdb/cover_big/rkuc2l6ca4kly7j2al9x.jpg",
  "platforms": [],
  "provider_games": [
    {
      "name": "World War Heroes",
      "slug": "world-war-heroes",
      "service": "igdb"
    }
  ],
  "aliases": [],
  "shaders": [],
  "discord_id": "",
  "change_for": null
}