{
  "id": 190666,
  "name": "House of Portals VR",
  "slug": "house-of-portals-vr",
  "year": null,
  "banner_url": "",
  "icon_url": "",
  "coverart": "https://lutris.net/media/igdb/cover_big/co43dv.jpg",
  "platforms": [],
  "provider_games": [
    {
      "name": "House of Portals VR",
      "slug": "house-of-portals-vr",
      "service": "igdb"
    }
  ],
  "aliases": [],
  "shaders": [],
  "discord_id": "",
  "change_for": null
}