{
  "id": 138958,
  "name": "Oh My Godheads: Party Edition",
  "slug": "oh-my-godheads-party-edition",
  "year": 2018,
  "banner_url": "",
  "icon_url": "",
  "coverart": "https://lutris.net/media/igdb/cover_big/co4mme.jpg",
  "platforms": [
    {
      "name": "Nintendo Switch"
    }
  ],
  "provider_games": [
    {
      "name": "Oh My Godheads: Party Edition",
      "slug": "oh-my-godheads-party-edition",
      "service": "igdb"
    }
  ],
  "aliases": [],
  "shaders": [],
  "discord_id": "",
  "change_for": null
}