{
  "id": 9342,
  "name": "Golden Tee Classic",
  "slug": "golden-tee-classic",
  "year": 2001,
  "banner_url": "https://lutris.net/games/banner/golden-tee-classic.jpg",
  "icon_url": "https://lutris.net/games/icon/golden-tee-classic.png",
  "coverart": "https://lutris.net/media/igdb/cover_big/co9b09.jpg",
  "platforms": [
    {
      "name": "Arcade"
    }
  ],
  "provider_games": [
    {
      "name": "Golden Tee Classic",
      "slug": "gtclassc",
      "service": "mame"
    },
    {
      "name": "Golden Tee Classic",
      "slug": "golden-tee-classic",
      "service": "igdb"
    }
  ],
  "aliases": [],
  "shaders": [],
  "discord_id": "",
  "change_for": null
}