{
  "id": 216486,
  "name": "Mikiwam",
  "slug": "mikiwam",
  "year": null,
  "banner_url": "",
  "icon_url": "",
  "coverart": "https://lutris.net/media/igdb/cover_big/co57kg.jpg",
  "platforms": [],
  "provider_games": [
    {
      "name": "Mikiwam",
      "slug": "mikiwam",
      "service": "igdb"
    }
  ],
  "aliases": [],
  "shaders": [],
  "discord_id": "",
  "change_for": null
}