{
  "id": 11456,
  "game_id": 20101,
  "game_slug": "penguin-adventure",
  "name": "Penguin Adventure",
  "year": 1986,
  "user": "te_lanus",
  "runner": "libretro",
  "slug": "penguin-adventure-msx",
  "version": "MSX",
  "description": null,
  "notes": "",
  "credits": "",
  "created_at": "2019-01-05T17:25:36.024217Z",
  "updated_at": "2019-01-05T17:26:26.555103Z",
  "draft": false,
  "published": true,
  "published_by": null,
  "rating": "",
  "is_playable": null,
  "steamid": null,
  "gogid": null,
  "gogslug": "",
  "humbleid": "",
  "humblestoreid": "",
  "humblestoreid_real": "",
  "script": {
    "files": [
      {
        "file1": "N/A:Please select the Playstation game disc"
      }
    ],
    "game": {
      "core": "bluemsx",
      "main_file": "file1"
    },
    "installer": [
      {
        "merge": {
          "dst": "$GAMEDIR",
          "src": "file1"
        }
      }
    ]
  },
  "content": "files:\n- file1: N/A:Please select the Playstation game disc\ngame:\n  core: bluemsx\n  main_file: file1\ninstaller:\n- merge:\n    dst: $GAMEDIR\n    src: file1\n",
  "discord_id": ""
}