{
  "id": 156545,
  "name": "Flats",
  "slug": "flats",
  "year": null,
  "banner_url": "",
  "icon_url": "",
  "coverart": "https://lutris.net/media/igdb/cover_big/co4uku.jpg",
  "platforms": [],
  "provider_games": [
    {
      "name": "Flats",
      "slug": "flats",
      "service": "igdb"
    }
  ],
  "aliases": [],
  "shaders": [],
  "discord_id": "",
  "change_for": null
}