{
  "id": 4374,
  "name": "Krautscape",
  "slug": "krautscape",
  "year": 2016,
  "banner_url": "https://lutris.net/games/banner/krautscape.jpg",
  "icon_url": "https://lutris.net/games/icon/krautscape.png",
  "coverart": "https://lutris.net/media/igdb/cover_big/co4536.jpg",
  "platforms": [
    {
      "name": "Linux"
    },
    {
      "name": "Mac"
    },
    {
      "name": "Windows"
    }
  ],
  "provider_games": [
    {
      "name": "Krautscape",
      "slug": "268360",
      "service": "steam"
    },
    {
      "name": "Krautscape",
      "slug": "krautscape",
      "service": "igdb"
    }
  ],
  "aliases": [],
  "shaders": [],
  "discord_id": "",
  "change_for": null
}