{
  "id": 14963,
  "name": "Rift Coaster HD Remastered VR",
  "slug": "rift-coaster-hd-remastered-vr",
  "year": 2017,
  "banner_url": "https://lutris.net/games/banner/rift-coaster-hd-remastered-vr.jpg",
  "icon_url": "https://lutris.net/games/icon/rift-coaster-hd-remastered-vr.png",
  "coverart": "https://lutris.net/media/igdb/cover_big/co27cu.jpg",
  "platforms": [
    {
      "name": "Windows"
    }
  ],
  "provider_games": [
    {
      "name": "Rift Coaster HD Remastered VR",
      "slug": "663200",
      "service": "steam"
    },
    {
      "name": "Rift Coaster HD Remastered VR",
      "slug": "rift-coaster-hd-remastered-vr",
      "service": "igdb"
    }
  ],
  "aliases": [],
  "shaders": [],
  "discord_id": "",
  "change_for": null
}