{
  "id": 130432,
  "name": "Makeover Desire - HENSHIN GANBO",
  "slug": "makeover-desire-henshin-ganbo",
  "year": 2012,
  "banner_url": "",
  "icon_url": "",
  "coverart": "https://lutris.net/media/igdb/cover_big/co1wcr.jpg",
  "platforms": [
    {
      "name": "Windows"
    }
  ],
  "provider_games": [
    {
      "name": "Makeover Desire: Henshin Ganbo",
      "slug": "makeover-desire-henshin-ganbo",
      "service": "igdb"
    }
  ],
  "aliases": [],
  "shaders": [],
  "discord_id": "",
  "change_for": null
}