{
  "id": 281852,
  "name": "Soul Return",
  "slug": "soul-return",
  "year": null,
  "banner_url": "",
  "icon_url": "",
  "coverart": "https://lutris.net/media/igdb/cover_big/co82ri.jpg",
  "platforms": [],
  "provider_games": [
    {
      "name": "Soul Return",
      "slug": "soul-return",
      "service": "igdb"
    }
  ],
  "aliases": [],
  "shaders": [],
  "discord_id": "",
  "change_for": null
}