{
  "id": 116606,
  "name": "Yu-Gi-Oh! Dark Duel Stories",
  "slug": "yu-gi-oh-dark-duel-stories",
  "year": 2000,
  "banner_url": "",
  "icon_url": "",
  "coverart": "https://lutris.net/media/igdb/cover_big/co3dkn.jpg",
  "platforms": [
    {
      "name": "Nintendo Game Boy Color"
    }
  ],
  "provider_games": [
    {
      "name": "Yu-Gi-Oh! Dark Duel Stories",
      "slug": "yu-gi-oh-dark-duel-stories",
      "service": "igdb"
    }
  ],
  "aliases": [],
  "shaders": [],
  "discord_id": "",
  "change_for": null
}