{
  "id": 228349,
  "name": "The Legend of Heroes: Kuro no Kiseki II: Crimson Sin - Limited Edition",
  "slug": "the-legend-of-heroes-kuro-no-kiseki-ii-crimson-sin-limited-edition",
  "year": null,
  "banner_url": "",
  "icon_url": "",
  "coverart": null,
  "platforms": [],
  "provider_games": [
    {
      "name": "The Legend of Heroes: Kuro no Kiseki II: Crimson Sin - Limited Edition",
      "slug": "the-legend-of-heroes-kuro-no-kiseki-ii-crimson-sin-limited-edition",
      "service": "igdb"
    }
  ],
  "aliases": [],
  "shaders": [],
  "discord_id": "",
  "change_for": null
}