{
  "id": 80241,
  "name": "Bubble Mags",
  "slug": "bubble-mags",
  "year": null,
  "banner_url": "",
  "icon_url": "",
  "coverart": null,
  "platforms": [],
  "provider_games": [
    {
      "name": "Bubble Mags",
      "slug": "bubble-mags",
      "service": "igdb"
    }
  ],
  "aliases": [],
  "shaders": [],
  "discord_id": "",
  "change_for": null
}