{
  "id": 14210,
  "game_id": 23190,
  "game_slug": "sea-dogs",
  "name": "Sea Dogs",
  "year": 2000,
  "user": "Logeater",
  "runner": "steam",
  "slug": "sea-dogs-steam-proton",
  "version": "Steam Proton",
  "description": null,
  "notes": "",
  "credits": "",
  "created_at": "2019-06-19T19:56:59.834000Z",
  "updated_at": "2019-11-01T03:08:27.927173Z",
  "draft": false,
  "published": true,
  "published_by": 19464,
  "rating": "",
  "is_playable": null,
  "steamid": 764670,
  "gogid": 1426251705,
  "gogslug": "sea_dogs",
  "humbleid": "",
  "humblestoreid": "",
  "humblestoreid_real": "",
  "script": {
    "game": {
      "appid": 764670
    }
  },
  "content": "game:\n  appid: 764670\n",
  "discord_id": ""
}