{
  "id": 110395,
  "name": "Actual Crimes: Jack the Ripper",
  "slug": "actual-crimes-jack-the-ripper",
  "year": 2010,
  "banner_url": "",
  "icon_url": "",
  "coverart": "https://lutris.net/media/igdb/cover_big/co2z2r.jpg",
  "platforms": [
    {
      "name": "Nintendo DSi"
    },
    {
      "name": "Sony PSP"
    }
  ],
  "provider_games": [
    {
      "name": "Actual Crimes: Jack the Ripper",
      "slug": "actual-crimes-jack-the-ripper",
      "service": "igdb"
    }
  ],
  "aliases": [],
  "shaders": [],
  "discord_id": "",
  "change_for": null
}