{
  "id": 236437,
  "name": "Paratives",
  "slug": "paratives",
  "year": null,
  "banner_url": "",
  "icon_url": "",
  "coverart": "https://lutris.net/media/igdb/cover_big/co63rq.jpg",
  "platforms": [],
  "provider_games": [
    {
      "name": "Paratives",
      "slug": "paratives",
      "service": "igdb"
    }
  ],
  "aliases": [],
  "shaders": [],
  "discord_id": "",
  "change_for": null
}