{
  "id": 47289,
  "name": "Dancing Furby",
  "slug": "dancing-furby",
  "year": null,
  "banner_url": "",
  "icon_url": "",
  "coverart": "https://lutris.net/media/igdb/cover_big/co4bax.jpg",
  "platforms": [],
  "provider_games": [
    {
      "name": "Dancing Furby",
      "slug": "dancing-furby",
      "service": "igdb"
    }
  ],
  "aliases": [],
  "shaders": [],
  "discord_id": "",
  "change_for": null
}