{
  "id": 57267,
  "name": "Match Day Collection",
  "slug": "match-day-collection",
  "year": null,
  "banner_url": "",
  "icon_url": "",
  "coverart": "https://lutris.net/media/igdb/cover_big/tfx4vnxlvifxkuslxnza.jpg",
  "platforms": [],
  "provider_games": [
    {
      "name": "Match Day Collection",
      "slug": "match-day-collection",
      "service": "igdb"
    }
  ],
  "aliases": [],
  "shaders": [],
  "discord_id": "",
  "change_for": null
}