{
  "id": 206862,
  "name": "Pro Yakyuu Family Stadium",
  "slug": "pro-yakyuu-family-stadium--1",
  "year": 2008,
  "banner_url": "",
  "icon_url": "",
  "coverart": null,
  "platforms": [
    {
      "name": "Nintendo Wii"
    }
  ],
  "provider_games": [
    {
      "name": "Pro Yakyuu Family Stadium",
      "slug": "pro-yakyuu-family-stadium--1",
      "service": "igdb"
    }
  ],
  "aliases": [],
  "shaders": [],
  "discord_id": "",
  "change_for": null
}