{
  "id": 14841,
  "name": "Yu-Gi-Oh! Duel Links",
  "slug": "yu-gi-oh-duel-links",
  "year": 2017,
  "banner_url": "https://lutris.net/games/banner/yu-gi-oh-duel-links.jpg",
  "icon_url": "https://lutris.net/games/icon/yu-gi-oh-duel-links.png",
  "coverart": "https://lutris.net/media/igdb/cover_big/co1ujp.jpg",
  "platforms": [
    {
      "name": "Android"
    },
    {
      "name": "Windows"
    }
  ],
  "provider_games": [
    {
      "name": "Yu-Gi-Oh! Duel Links",
      "slug": "601510",
      "service": "steam"
    },
    {
      "name": "Yu-Gi-Oh! Duel Links",
      "slug": "yu-gi-oh-duel-links",
      "service": "igdb"
    }
  ],
  "aliases": [],
  "shaders": [],
  "discord_id": "",
  "change_for": null
}