{
  "id": 137623,
  "name": "Tsuki ha Higashi ni Hi ha Nishi ni: Operation Sanctuary",
  "slug": "tsuki-ha-higashi-ni-hi-ha-nishi-ni-operation-sanctuary",
  "year": 2004,
  "banner_url": "",
  "icon_url": "",
  "coverart": "https://lutris.net/media/igdb/cover_big/co3qjb.jpg",
  "platforms": [
    {
      "name": "Dreamcast"
    },
    {
      "name": "Sony PlayStation 2"
    }
  ],
  "provider_games": [
    {
      "name": "Tsuki ha Higashi ni Hi ha Nishi ni: Operation Sanctuary",
      "slug": "tsuki-ha-higashi-ni-hi-ha-nishi-ni-operation-sanctuary",
      "service": "igdb"
    }
  ],
  "aliases": [],
  "shaders": [],
  "discord_id": "",
  "change_for": null
}