{
  "id": 284118,
  "name": "Blue Moon Princess",
  "slug": "blue-moon-princess",
  "year": null,
  "banner_url": "",
  "icon_url": "",
  "coverart": null,
  "platforms": [
    {
      "name": "Android"
    }
  ],
  "provider_games": [
    {
      "name": "Blue Moon Princess",
      "slug": "blue-moon-princess",
      "service": "igdb"
    }
  ],
  "aliases": [],
  "shaders": [],
  "discord_id": "",
  "change_for": null
}