{
  "id": 33903,
  "name": "Diver Boy",
  "slug": "diver-boy",
  "year": 1992,
  "banner_url": "",
  "icon_url": "https://lutris.net/games/icon/diver-boy.png",
  "coverart": "https://lutris.net/media/igdb/cover_big/co6hqi.jpg",
  "platforms": [
    {
      "name": "Arcade"
    }
  ],
  "provider_games": [
    {
      "name": "Diver Boy",
      "slug": "diverboy",
      "service": "mame"
    },
    {
      "name": "Diver Boy",
      "slug": "diver-boy",
      "service": "igdb"
    }
  ],
  "aliases": [],
  "shaders": [],
  "discord_id": "",
  "change_for": null
}