{
  "id": 133870,
  "name": "Acropolis: The Archaic Age",
  "slug": "acropolis-the-archaic-age",
  "year": 2018,
  "banner_url": "",
  "icon_url": "",
  "coverart": "https://lutris.net/media/igdb/cover_big/co28tf.jpg",
  "platforms": [
    {
      "name": "Windows"
    }
  ],
  "provider_games": [
    {
      "name": "Acropolis: The Archaic Age",
      "slug": "acropolis-the-archaic-age",
      "service": "igdb"
    }
  ],
  "aliases": [],
  "shaders": [],
  "discord_id": "",
  "change_for": null
}