{
  "id": 156934,
  "name": "Cape's Escape Game 2nd room",
  "slug": "capes-escape-game-2nd-room",
  "year": 2021,
  "banner_url": "",
  "icon_url": "",
  "coverart": null,
  "platforms": [
    {
      "name": "Nintendo Switch"
    }
  ],
  "provider_games": [
    {
      "name": "Cape's Escape Game 2nd room",
      "slug": "capes-escape-game-2nd-room",
      "service": "igdb"
    }
  ],
  "aliases": [],
  "shaders": [],
  "discord_id": "",
  "change_for": null
}