{
  "id": 224678,
  "name": "Isolate Me!",
  "slug": "isolate-me",
  "year": null,
  "banner_url": "",
  "icon_url": "",
  "coverart": "https://lutris.net/media/igdb/cover_big/co5hfc.jpg",
  "platforms": [],
  "provider_games": [
    {
      "name": "Isolate Me!",
      "slug": "isolate-me",
      "service": "igdb"
    }
  ],
  "aliases": [],
  "shaders": [],
  "discord_id": "",
  "change_for": null
}