{
  "id": 20752,
  "name": "Hard Place",
  "slug": "hard-place",
  "year": 2018,
  "banner_url": "https://lutris.net/games/banner/hard-place.jpg",
  "icon_url": "https://lutris.net/games/icon/hard-place.png",
  "coverart": "https://lutris.net/media/igdb/cover_big/co3s8o.jpg",
  "platforms": [
    {
      "name": "Windows"
    }
  ],
  "provider_games": [
    {
      "name": "Hard Place",
      "slug": "763520",
      "service": "steam"
    },
    {
      "name": "Hard Place",
      "slug": "hard-place",
      "service": "igdb"
    }
  ],
  "aliases": [],
  "shaders": [],
  "discord_id": "",
  "change_for": null
}