{
  "id": 267210,
  "name": "Twizzle Puzzle: Cats",
  "slug": "twizzle-puzzle-cats",
  "year": null,
  "banner_url": "",
  "icon_url": "",
  "coverart": "https://lutris.net/media/igdb/cover_big/co7ef8.jpg",
  "platforms": [],
  "provider_games": [
    {
      "name": "Twizzle Puzzle: Cats",
      "slug": "twizzle-puzzle-cats",
      "service": "igdb"
    }
  ],
  "aliases": [],
  "shaders": [],
  "discord_id": "",
  "change_for": null
}