{
  "id": 22890,
  "name": "Don't Cry over Spilt Eggnog",
  "slug": "dont-cry-over-spilt-eggnog",
  "year": null,
  "banner_url": "https://lutris.net/games/banner/dont-cry-over-spilt-eggnog.jpg",
  "icon_url": "https://lutris.net/games/icon/dont-cry-over-spilt-eggnog.png",
  "coverart": null,
  "platforms": [],
  "provider_games": [
    {
      "name": "Don't Cry over Spilt Eggnog",
      "slug": "751860",
      "service": "steam"
    }
  ],
  "aliases": [],
  "shaders": [],
  "discord_id": "",
  "change_for": null
}