{
  "id": 198676,
  "name": "Five Nights at Freddy's: Sister Location VR",
  "slug": "five-nights-at-freddys-sister-location-vr",
  "year": 2021,
  "banner_url": "",
  "icon_url": "",
  "coverart": "https://lutris.net/media/igdb/cover_big/co4htw.jpg",
  "platforms": [
    {
      "name": "Oculus Quest"
    },
    {
      "name": "SteamVR"
    }
  ],
  "provider_games": [
    {
      "name": "Five Nights at Freddy's: Sister Location VR",
      "slug": "five-nights-at-freddys-sister-location-vr",
      "service": "igdb"
    }
  ],
  "aliases": [],
  "shaders": [],
  "discord_id": "",
  "change_for": null
}