{
  "id": 78309,
  "name": "Dustin",
  "slug": "dustin",
  "year": 1986,
  "banner_url": "",
  "icon_url": "",
  "coverart": "https://lutris.net/media/igdb/cover_big/co2gcb.jpg",
  "platforms": [
    {
      "name": "Amstrad CPC"
    },
    {
      "name": "MSX"
    },
    {
      "name": "ZX Spectrum"
    }
  ],
  "provider_games": [
    {
      "name": "Dustin",
      "slug": "dustin",
      "service": "igdb"
    }
  ],
  "aliases": [],
  "shaders": [],
  "discord_id": "",
  "change_for": null
}