{
  "id": 57593,
  "name": "Planet Soccer",
  "slug": "planet-soccer",
  "year": null,
  "banner_url": "",
  "icon_url": "",
  "coverart": "https://lutris.net/media/igdb/cover_big/j8rvveu8dtmorfefbmf7.jpg",
  "platforms": [],
  "provider_games": [
    {
      "name": "Planet Soccer",
      "slug": "planet-soccer",
      "service": "igdb"
    }
  ],
  "aliases": [],
  "shaders": [],
  "discord_id": "",
  "change_for": null
}