{
  "id": 28537,
  "game_id": 37226,
  "game_slug": "final-fantasy-xiv-shadowbringers-benchmark",
  "name": "FINAL FANTASY XIV: Shadowbringers Benchmark",
  "year": null,
  "user": "Moosatronic",
  "runner": "wine",
  "slug": "final-fantasy-xiv-shadowbring-endwalker",
  "version": "Endwalker",
  "description": "\"Final Fantasy XIV - Endwalker Benchmark\" provided by Square Enyx using Wine.",
  "notes": "I found that switching \"XVidMode to switch resolutions\" to on helped with getting the benchmark to properly display for me in my display manager.",
  "credits": "",
  "created_at": "2021-07-11T19:27:36.409000Z",
  "updated_at": "2024-04-03T03:18:43.593156Z",
  "draft": false,
  "published": true,
  "published_by": 51687,
  "rating": "",
  "is_playable": null,
  "steamid": null,
  "gogid": null,
  "gogslug": "",
  "humbleid": "",
  "humblestoreid": "",
  "humblestoreid_real": "",
  "script": {
    "files": [
      {
        "ffxivbensetup": "https://download.finalfantasyxiv.com/ys8glaimvmykn88p/ffxiv-endwalker-bench.zip"
      }
    ],
    "game": {
      "arch": "win64",
      "exe": "$GAMEDIR/drive_c/Program Files/Endwalker Benchmark/ffxiv-endwalker-bench.exe",
      "prefix": "$GAMEDIR"
    },
    "installer": [
      {
        "task": {
          "arch": "win64",
          "description": "Creating Wine prefix",
          "install_gecko": false,
          "install_mono": false,
          "name": "create_prefix",
          "prefix": "$GAMEDIR"
        }
      },
      {
        "task": {
          "app": "dotnet48 win10",
          "name": "winetricks",
          "prefix": "$GAMEDIR"
        }
      },
      {
        "extract": {
          "dst": "$GAMEDIR/drive_c/Program Files/Endwalker Benchmark",
          "file": "ffxivbensetup"
        }
      },
      {
        "task": {
          "arch": "win64",
          "key": "background",
          "name": "set_regedit",
          "path": "HKEY_CURRENT_USER\\Control Panel\\Colors\\",
          "prefix": "$GAMEDIR",
          "type": "REG_SZ",
          "value": "0 0 0"
        }
      }
    ],
    "wine": {
      "Desktop": true,
      "overrides": {
        "d3d9": "d"
      }
    }
  },
  "content": "files:\n- ffxivbensetup: https://download.finalfantasyxiv.com/ys8glaimvmykn88p/ffxiv-endwalker-bench.zip\ngame:\n  arch: win64\n  exe: $GAMEDIR/drive_c/Program Files/Endwalker Benchmark/ffxiv-endwalker-bench.exe\n  prefix: $GAMEDIR\ninstaller:\n- task:\n    arch: win64\n    description: Creating Wine prefix\n    install_gecko: false\n    install_mono: false\n    name: create_prefix\n    prefix: $GAMEDIR\n- task:\n    app: dotnet48 win10\n    name: winetricks\n    prefix: $GAMEDIR\n- extract:\n    dst: $GAMEDIR/drive_c/Program Files/Endwalker Benchmark\n    file: ffxivbensetup\n- task:\n    arch: win64\n    key: background\n    name: set_regedit\n    path: HKEY_CURRENT_USER\\Control Panel\\Colors\\\n    prefix: $GAMEDIR\n    type: REG_SZ\n    value: 0 0 0\nwine:\n  Desktop: true\n  overrides:\n    d3d9: d\n",
  "discord_id": ""
}