{
  "id": 272695,
  "name": "Hentai Beautiful Girls 3",
  "slug": "hentai-beautiful-girls-3",
  "year": null,
  "banner_url": "",
  "icon_url": "",
  "coverart": "https://lutris.net/media/igdb/cover_big/co7rfh.jpg",
  "platforms": [],
  "provider_games": [
    {
      "name": "Hentai Beautiful Girls 3",
      "slug": "hentai-beautiful-girls-3",
      "service": "igdb"
    }
  ],
  "aliases": [],
  "shaders": [],
  "discord_id": "",
  "change_for": null
}