{
  "id": 233098,
  "name": "Rune Gems",
  "slug": "rune-gems",
  "year": null,
  "banner_url": "",
  "icon_url": "",
  "coverart": null,
  "platforms": [],
  "provider_games": [
    {
      "name": "Rune Gems",
      "slug": "rune-gems",
      "service": "igdb"
    }
  ],
  "aliases": [],
  "shaders": [],
  "discord_id": "",
  "change_for": null
}