{
  "id": 74584,
  "name": "OK, Dracula",
  "slug": "ok-dracula",
  "year": null,
  "banner_url": "",
  "icon_url": "",
  "coverart": null,
  "platforms": [],
  "provider_games": [
    {
      "name": "OK, Dracula",
      "slug": "ok-dracula",
      "service": "igdb"
    }
  ],
  "aliases": [],
  "shaders": [],
  "discord_id": "",
  "change_for": null
}