{
  "id": 91749,
  "name": "Galaxy Invader",
  "slug": "galaxy-invader",
  "year": null,
  "banner_url": "",
  "icon_url": "",
  "coverart": null,
  "platforms": [],
  "provider_games": [
    {
      "name": "Galaxy Invader",
      "slug": "galaxy-invader",
      "service": "igdb"
    }
  ],
  "aliases": [],
  "shaders": [],
  "discord_id": "",
  "change_for": null
}