{
  "id": 180323,
  "name": "Industria",
  "slug": "industria",
  "year": 2021,
  "banner_url": "https://lutris.net/games/banner/industria.jpg",
  "icon_url": "",
  "coverart": "https://lutris.net/media/igdb/cover_big/co2ftr.jpg",
  "platforms": [
    {
      "name": "Sony PlayStation 5"
    },
    {
      "name": "Windows"
    },
    {
      "name": "Xbox Series X|S"
    }
  ],
  "provider_games": [
    {
      "name": "INDUSTRIA",
      "slug": "1172650",
      "service": "steam"
    },
    {
      "name": "INDUSTRIA",
      "slug": "1804122723",
      "service": "gog"
    },
    {
      "name": "Industria",
      "slug": "industria",
      "service": "igdb"
    }
  ],
  "aliases": [],
  "shaders": [],
  "discord_id": "",
  "change_for": null
}