{
  "id": 24352,
  "name": "Seeking Dawn",
  "slug": "seeking-dawn",
  "year": 2018,
  "banner_url": "https://lutris.net/games/banner/seeking-dawn.jpg",
  "icon_url": "https://lutris.net/games/icon/seeking-dawn.png",
  "coverart": "https://lutris.net/media/igdb/cover_big/co40xs.jpg",
  "platforms": [
    {
      "name": "Windows"
    }
  ],
  "provider_games": [
    {
      "name": "Seeking Dawn",
      "slug": "859340",
      "service": "steam"
    },
    {
      "name": "Seeking Dawn",
      "slug": "seeking-dawn",
      "service": "igdb"
    }
  ],
  "aliases": [],
  "shaders": [],
  "discord_id": "",
  "change_for": null
}