{
  "id": 113854,
  "name": "ACA NEOGEO ZUPAPA!",
  "slug": "aca-neogeo-zupapa",
  "year": 2018,
  "banner_url": "",
  "icon_url": "",
  "coverart": "https://lutris.net/media/igdb/cover_big/co1qwh.jpg",
  "platforms": [
    {
      "name": "Nintendo Switch"
    },
    {
      "name": "Sony Playstation 4"
    },
    {
      "name": "Xbox One"
    }
  ],
  "provider_games": [
    {
      "name": "ACA NEOGEO ZUPAPA!",
      "slug": "aca-neogeo-zupapa",
      "service": "igdb"
    }
  ],
  "aliases": [],
  "shaders": [],
  "discord_id": "",
  "change_for": null
}