{
  "id": 153537,
  "name": "Jewels of the Mysterious Woodland",
  "slug": "jewels-of-the-mysterious-woodland",
  "year": 2017,
  "banner_url": "https://lutris.net/games/banner/jewels-of-the-mysterious-woodland.jpg",
  "icon_url": "",
  "coverart": "https://lutris.net/media/igdb/cover_big/co2brg.jpg",
  "platforms": [
    {
      "name": "Windows"
    }
  ],
  "provider_games": [
    {
      "name": "Jewels of the Mysterious Woodland",
      "slug": "685370",
      "service": "steam"
    },
    {
      "name": "Jewels of the Mysterious Woodland",
      "slug": "jewels-of-the-mysterious-woodland",
      "service": "igdb"
    }
  ],
  "aliases": [],
  "shaders": [],
  "discord_id": "",
  "change_for": null
}