{
  "id": 218326,
  "name": "Shukuchi Ninja",
  "slug": "shukuchi-ninja",
  "year": null,
  "banner_url": "",
  "icon_url": "",
  "coverart": "https://lutris.net/media/igdb/cover_big/co5l5q.jpg",
  "platforms": [],
  "provider_games": [
    {
      "name": "Shukuchi Ninja",
      "slug": "shukuchi-ninja",
      "service": "igdb"
    }
  ],
  "aliases": [],
  "shaders": [],
  "discord_id": "",
  "change_for": null
}