{
  "id": 38707,
  "name": "Tetris Worlds",
  "slug": "tetris-worlds",
  "year": 2001,
  "banner_url": "https://lutris.net/games/banner/tetris-worlds.jpg",
  "icon_url": "",
  "coverart": "https://lutris.net/media/igdb/cover_big/co3a75.jpg",
  "platforms": [
    {
      "name": "GameCube"
    },
    {
      "name": "Nintendo Game Boy Advance"
    },
    {
      "name": "Nintendo GameCube"
    },
    {
      "name": "Sony PlayStation 2"
    },
    {
      "name": "Windows"
    }
  ],
  "provider_games": [
    {
      "name": "Tetris Worlds",
      "slug": "tetris-worlds",
      "service": "igdb"
    }
  ],
  "aliases": [],
  "shaders": [],
  "discord_id": "",
  "change_for": null
}