{
  "id": 55399,
  "name": "Dyna Brothers",
  "slug": "dyna-brothers",
  "year": 1992,
  "banner_url": "",
  "icon_url": "",
  "coverart": "https://lutris.net/media/igdb/cover_big/nmkqnjyrg5k7jmzrrkyy.jpg",
  "platforms": [
    {
      "name": "Sega Genesis / Mega Drive"
    }
  ],
  "provider_games": [
    {
      "name": "Dyna Brothers",
      "slug": "dyna-brothers",
      "service": "igdb"
    }
  ],
  "aliases": [],
  "shaders": [],
  "discord_id": "",
  "change_for": null
}