{
  "id": 11105,
  "name": "Green Game: TimeSwapper",
  "slug": "green-game-timeswapper",
  "year": 2016,
  "banner_url": "https://lutris.net/games/banner/green-game-timeswapper.jpg",
  "icon_url": "https://lutris.net/games/icon/green-game-timeswapper.png",
  "coverart": "https://lutris.net/media/igdb/cover_big/co2biy.jpg",
  "platforms": [
    {
      "name": "Linux"
    },
    {
      "name": "Mac"
    },
    {
      "name": "Nintendo Switch"
    },
    {
      "name": "Windows"
    }
  ],
  "provider_games": [
    {
      "name": "Green Game: TimeSwapper",
      "slug": "432990",
      "service": "steam"
    },
    {
      "name": "Green Game: TimeSwapper",
      "slug": "green-game-timeswapper",
      "service": "igdb"
    }
  ],
  "aliases": [],
  "shaders": [],
  "discord_id": "",
  "change_for": null
}