{
  "id": 134114,
  "name": "Big Adventure Of Fighting Chicken",
  "slug": "big-adventure-of-fighting-chicken",
  "year": null,
  "banner_url": "",
  "icon_url": "",
  "coverart": "https://lutris.net/media/igdb/cover_big/co3m4z.jpg",
  "platforms": [],
  "provider_games": [
    {
      "name": "Big Adventure of Fighting Chicken",
      "slug": "big-adventure-of-fighting-chicken",
      "service": "igdb"
    }
  ],
  "aliases": [],
  "shaders": [],
  "discord_id": "",
  "change_for": null
}