{
  "id": 3891,
  "name": "Countdown 1: The Body",
  "slug": "countdown-1-the-body",
  "year": 2007,
  "banner_url": "https://lutris.net/games/banner/countdown-1-the-body.jpg",
  "icon_url": "",
  "coverart": null,
  "platforms": [
    {
      "name": "Windows"
    },
    {
      "name": "Z-machine"
    }
  ],
  "provider_games": [
    {
      "name": "Countdown 1: The Body",
      "slug": "countdown-1-the-body",
      "service": "igdb"
    }
  ],
  "aliases": [],
  "shaders": [],
  "discord_id": "",
  "change_for": null
}