{
  "id": 281834,
  "name": "Russian Roulette: Online",
  "slug": "russian-roulette-online",
  "year": null,
  "banner_url": "",
  "icon_url": "",
  "coverart": "https://lutris.net/media/igdb/cover_big/co82r2.jpg",
  "platforms": [],
  "provider_games": [
    {
      "name": "Russian Roulette: Online",
      "slug": "russian-roulette-online",
      "service": "igdb"
    }
  ],
  "aliases": [],
  "shaders": [],
  "discord_id": "",
  "change_for": null
}