{
  "id": 239904,
  "name": "Kindergarten Secret",
  "slug": "kindergarten-secret",
  "year": null,
  "banner_url": "",
  "icon_url": "",
  "coverart": "https://lutris.net/media/igdb/cover_big/co62jp.jpg",
  "platforms": [],
  "provider_games": [
    {
      "name": "Kindergarten Secret",
      "slug": "kindergarten-secret",
      "service": "igdb"
    }
  ],
  "aliases": [],
  "shaders": [],
  "discord_id": "",
  "change_for": null
}