{
  "id": 54889,
  "name": "Winning Shot",
  "slug": "winning-shot",
  "year": 1989,
  "banner_url": "",
  "icon_url": "",
  "coverart": "https://lutris.net/media/igdb/cover_big/smrmvskqvwwvig2hdfb0.jpg",
  "platforms": [
    {
      "name": "Nintendo Wii"
    },
    {
      "name": "TurboGrafx-16/PC Engine"
    }
  ],
  "provider_games": [
    {
      "name": "Winning Shot",
      "slug": "winning-shot",
      "service": "igdb"
    }
  ],
  "aliases": [],
  "shaders": [],
  "discord_id": "",
  "change_for": null
}