{
  "id": 104589,
  "name": "Lord of Dice",
  "slug": "lord-of-dice",
  "year": null,
  "banner_url": "",
  "icon_url": "",
  "coverart": "https://lutris.net/media/igdb/cover_big/co2qlb.jpg",
  "platforms": [],
  "provider_games": [
    {
      "name": "Lord of Dice",
      "slug": "lord-of-dice",
      "service": "igdb"
    }
  ],
  "aliases": [],
  "shaders": [],
  "discord_id": "",
  "change_for": null
}