{
  "id": 179697,
  "name": "H2Overdrive",
  "slug": "h2overdrive",
  "year": 2009,
  "banner_url": "",
  "icon_url": "",
  "coverart": "https://lutris.net/media/igdb/cover_big/co4a4q.jpg",
  "platforms": [],
  "provider_games": [
    {
      "name": "H2Overdrive",
      "slug": "h2overdrive",
      "service": "igdb"
    }
  ],
  "aliases": [],
  "shaders": [],
  "discord_id": "",
  "change_for": null
}