{
  "id": 184627,
  "name": "PrehistorTIC",
  "slug": "prehistortic",
  "year": null,
  "banner_url": "",
  "icon_url": "",
  "coverart": null,
  "platforms": [],
  "provider_games": [
    {
      "name": "PrehistorTic",
      "slug": "prehistortic",
      "service": "igdb"
    }
  ],
  "aliases": [],
  "shaders": [],
  "discord_id": "",
  "change_for": null
}