{
  "id": 295663,
  "name": "Five Lethal Demons",
  "slug": "five-lethal-demons",
  "year": 2005,
  "banner_url": "",
  "icon_url": "",
  "coverart": null,
  "platforms": [
    {
      "name": "Windows"
    }
  ],
  "provider_games": [
    {
      "name": "Five Lethal Demons",
      "slug": "five-lethal-demons",
      "service": "igdb"
    }
  ],
  "aliases": [],
  "shaders": [],
  "discord_id": "",
  "change_for": null
}