{
  "id": 59037,
  "name": "Period: Sweet Drops",
  "slug": "period-sweet-drops",
  "year": null,
  "banner_url": "",
  "icon_url": "",
  "coverart": "https://lutris.net/media/igdb/cover_big/kzuojlqim27pcpkdavwf.jpg",
  "platforms": [],
  "provider_games": [
    {
      "name": "Period: Sweet Drops",
      "slug": "period-sweet-drops",
      "service": "igdb"
    }
  ],
  "aliases": [],
  "shaders": [],
  "discord_id": "",
  "change_for": null
}