{
  "id": 239756,
  "name": "Shrine of the Spirits",
  "slug": "shrine-of-the-spirits",
  "year": 2023,
  "banner_url": "https://lutris.net/games/banner/shrine-of-the-spirits.jpg",
  "icon_url": "",
  "coverart": "https://lutris.net/media/igdb/cover_big/co60dr.jpg",
  "platforms": [
    {
      "name": "Windows"
    }
  ],
  "provider_games": [
    {
      "name": "三国英雄传豪华版",
      "slug": "1956710",
      "service": "steam"
    },
    {
      "name": "Shrine of the Spirits",
      "slug": "shrine-of-the-spirits",
      "service": "igdb"
    }
  ],
  "aliases": [],
  "shaders": [],
  "discord_id": "",
  "change_for": null
}