{
  "id": 293374,
  "name": "C-evo: New Horizons",
  "slug": "c-evo-new-horizons",
  "year": 2021,
  "banner_url": "https://lutris.net/games/banner/c-evo-new-horizons.jpg",
  "icon_url": "",
  "coverart": null,
  "platforms": [
    {
      "name": "Linux"
    },
    {
      "name": "Windows"
    }
  ],
  "provider_games": [],
  "aliases": [],
  "shaders": [],
  "discord_id": "",
  "change_for": null
}