{
  "id": 293715,
  "name": "Demon Lord: Clicker",
  "slug": "demon-lord-clicker",
  "year": null,
  "banner_url": "",
  "icon_url": "",
  "coverart": "https://lutris.net/media/igdb/cover_big/co8n3k.jpg",
  "platforms": [],
  "provider_games": [
    {
      "name": "Demon Lord: Clicker",
      "slug": "demon-lord-clicker",
      "service": "igdb"
    }
  ],
  "aliases": [],
  "shaders": [],
  "discord_id": "",
  "change_for": null
}