{
  "id": 65811,
  "name": "Disney/Pixar's Monsters Inc.: Wreck Room Arcade: Monster Tag",
  "slug": "disney-slash-pixars-monsters-inc-dot-wreck-room-arcade-monster-tag",
  "year": 2002,
  "banner_url": "",
  "icon_url": "",
  "coverart": "https://lutris.net/media/igdb/cover_big/co1vxo.jpg",
  "platforms": [
    {
      "name": "Mac"
    },
    {
      "name": "Windows"
    }
  ],
  "provider_games": [
    {
      "name": "Disney/Pixar's Monsters Inc.: Wreck Room Arcade: Monster Tag",
      "slug": "disney-slash-pixars-monsters-inc-dot-wreck-room-arcade-monster-tag",
      "service": "igdb"
    }
  ],
  "aliases": [],
  "shaders": [],
  "discord_id": "",
  "change_for": null
}