{
  "id": 163523,
  "name": "Kaen Seibo: The Virgin on Megiddo",
  "slug": "kaen-seibo-the-virgin-on-megiddo",
  "year": 2001,
  "banner_url": "",
  "icon_url": "",
  "coverart": "https://lutris.net/media/igdb/cover_big/co2y84.jpg",
  "platforms": [
    {
      "name": "Dreamcast"
    }
  ],
  "provider_games": [
    {
      "name": "Kaen Seibo: The Virgin on Megiddo",
      "slug": "kaen-seibo-the-virgin-on-megiddo",
      "service": "igdb"
    }
  ],
  "aliases": [],
  "shaders": [],
  "discord_id": "",
  "change_for": null
}