{
  "id": 185917,
  "name": "Anthro Affection: Chapter 2",
  "slug": "anthro-affection-chapter-2",
  "year": null,
  "banner_url": "",
  "icon_url": "",
  "coverart": null,
  "platforms": [],
  "provider_games": [
    {
      "name": "Anthro Affection: Chapter 2",
      "slug": "anthro-affection-chapter-2",
      "service": "igdb"
    }
  ],
  "aliases": [],
  "shaders": [],
  "discord_id": "",
  "change_for": null
}