{
  "id": 48070,
  "name": "Bruce Lee: Quest of the Dragon",
  "slug": "bruce-lee-quest-of-the-dragon",
  "year": 2002,
  "banner_url": "",
  "icon_url": "",
  "coverart": "https://lutris.net/media/igdb/cover_big/syax2dppc5otkroxf2uo.jpg",
  "platforms": [],
  "provider_games": [
    {
      "name": "Bruce Lee: Quest of the Dragon",
      "slug": "bruce-lee-quest-of-the-dragon",
      "service": "igdb"
    }
  ],
  "aliases": [],
  "shaders": [],
  "discord_id": "",
  "change_for": null
}