{
  "id": 90626,
  "name": "PushBoy - a Sokoban style puzzle game",
  "slug": "pushboy-a-sokoban-style-puzzle-game",
  "year": null,
  "banner_url": "",
  "icon_url": "",
  "coverart": null,
  "platforms": [],
  "provider_games": [
    {
      "name": "PushBoy - a Sokoban style puzzle game",
      "slug": "pushboy-a-sokoban-style-puzzle-game",
      "service": "igdb"
    }
  ],
  "aliases": [],
  "shaders": [],
  "discord_id": "",
  "change_for": null
}