{
  "id": 2406,
  "name": "Killer is Dead  - Nightmare Edition",
  "slug": "killer-is-dead",
  "year": 2013,
  "banner_url": "https://lutris.net/games/banner/killer-is-dead.jpg",
  "icon_url": "https://lutris.net/games/icon/killer-is-dead.png",
  "coverart": "https://lutris.net/media/igdb/cover_big/co3hj1.jpg",
  "platforms": [
    {
      "name": "Sony Playstation 3"
    },
    {
      "name": "Windows"
    },
    {
      "name": "Xbox 360"
    },
    {
      "name": "Xbox One"
    }
  ],
  "provider_games": [
    {
      "name": "Killer is Dead",
      "slug": "261110",
      "service": "steam"
    },
    {
      "name": "Killer Is Dead",
      "slug": "killer-is-dead",
      "service": "igdb"
    }
  ],
  "aliases": [],
  "shaders": [],
  "discord_id": "",
  "change_for": null
}