{
  "id": 25326,
  "name": "Prime World: Defenders 2",
  "slug": "prime-world-defenders-2",
  "year": 2018,
  "banner_url": "https://lutris.net/games/banner/prime-world-defenders-2.jpg",
  "icon_url": "https://lutris.net/games/icon/prime-world-defenders-2.png",
  "coverart": "https://lutris.net/media/igdb/cover_big/co2j86.jpg",
  "platforms": [
    {
      "name": "Windows"
    }
  ],
  "provider_games": [
    {
      "name": "Prime World: Defenders 2",
      "slug": "429540",
      "service": "steam"
    },
    {
      "name": "Prime World: Defenders 2",
      "slug": "prime-world-defenders-2",
      "service": "igdb"
    }
  ],
  "aliases": [],
  "shaders": [],
  "discord_id": "",
  "change_for": null
}