{
  "id": 237518,
  "name": "Shin Megami Tensei V: Digital Deluxe Edition",
  "slug": "shin-megami-tensei-v-digital-deluxe-edition",
  "year": 2021,
  "banner_url": "",
  "icon_url": "",
  "coverart": "https://lutris.net/media/igdb/cover_big/co7prx.jpg",
  "platforms": [
    {
      "name": "Nintendo Switch"
    }
  ],
  "provider_games": [
    {
      "name": "Shin Megami Tensei V: Digital Deluxe Edition",
      "slug": "shin-megami-tensei-v-digital-deluxe-edition",
      "service": "igdb"
    }
  ],
  "aliases": [],
  "shaders": [],
  "discord_id": "",
  "change_for": null
}