{
  "id": 76231,
  "name": "Scooby-Doo: Jinx at the Sphinx",
  "slug": "scooby-doo-jinx-at-the-sphinx",
  "year": 2001,
  "banner_url": "",
  "icon_url": "",
  "coverart": "https://lutris.net/media/igdb/cover_big/co2fju.jpg",
  "platforms": [
    {
      "name": "Windows"
    }
  ],
  "provider_games": [
    {
      "name": "Scooby-Doo: Jinx at the Sphinx",
      "slug": "scooby-doo-jinx-at-the-sphinx",
      "service": "igdb"
    }
  ],
  "aliases": [],
  "shaders": [],
  "discord_id": "",
  "change_for": null
}