{
  "id": 36860,
  "name": "Heroes of Might and Magic V - Tribes of the East",
  "slug": "heroes-of-might-and-magic-v-tribes-of-the-east",
  "year": 2007,
  "banner_url": "",
  "icon_url": "",
  "coverart": "https://lutris.net/media/igdb/cover_big/co218s.jpg",
  "platforms": [
    {
      "name": "Windows"
    }
  ],
  "provider_games": [
    {
      "name": "Heroes of Might and Magic V - Tribes of the East",
      "slug": "1207661193",
      "service": "gog"
    },
    {
      "name": "Heroes of Might and Magic V: Tribes of the East",
      "slug": "heroes-of-might-and-magic-v-tribes-of-the-east",
      "service": "igdb"
    }
  ],
  "aliases": [],
  "shaders": [],
  "discord_id": "",
  "change_for": null
}