{
  "id": 166057,
  "name": "T. B. P.",
  "slug": "t-b-p",
  "year": null,
  "banner_url": "",
  "icon_url": "",
  "coverart": "https://lutris.net/media/igdb/cover_big/co42vj.jpg",
  "platforms": [],
  "provider_games": [
    {
      "name": "T. B. P.",
      "slug": "t-b-p",
      "service": "igdb"
    }
  ],
  "aliases": [],
  "shaders": [],
  "discord_id": "",
  "change_for": null
}