{
  "id": 131345,
  "name": "WWE 2K19: Digital Deluxe Edition",
  "slug": "wwe-2k19-digital-deluxe-edition",
  "year": 2018,
  "banner_url": "",
  "icon_url": "",
  "coverart": "https://lutris.net/media/igdb/cover_big/co3k9k.jpg",
  "platforms": [
    {
      "name": "Xbox One"
    }
  ],
  "provider_games": [
    {
      "name": "WWE 2K19: Digital Deluxe Edition",
      "slug": "wwe-2k19-digital-deluxe-edition",
      "service": "igdb"
    }
  ],
  "aliases": [],
  "shaders": [],
  "discord_id": "",
  "change_for": null
}