{
  "id": 1799,
  "name": "You Need A Budget 4 (YNAB)",
  "slug": "you-need-a-budget-4-ynab",
  "year": null,
  "banner_url": "https://lutris.net/games/banner/you-need-a-budget-4-ynab.jpg",
  "icon_url": "https://lutris.net/games/icon/you-need-a-budget-4-ynab.png",
  "coverart": null,
  "platforms": [],
  "provider_games": [
    {
      "name": "You Need A Budget 4 (YNAB)",
      "slug": "227320",
      "service": "steam"
    }
  ],
  "aliases": [],
  "shaders": [],
  "discord_id": "",
  "change_for": null
}