{
  "id": 31035,
  "name": "Bounty Battle",
  "slug": "bounty-battle",
  "year": 2020,
  "banner_url": "https://lutris.net/games/banner/bounty-battle.jpg",
  "icon_url": "https://lutris.net/games/icon/bounty-battle.png",
  "coverart": "https://lutris.net/media/igdb/cover_big/co20yg.jpg",
  "platforms": [
    {
      "name": "Nintendo Switch"
    },
    {
      "name": "Sony Playstation 4"
    },
    {
      "name": "Windows"
    },
    {
      "name": "Xbox One"
    }
  ],
  "provider_games": [
    {
      "name": "Bounty Battle",
      "slug": "860900",
      "service": "steam"
    },
    {
      "name": "Bounty Battle",
      "slug": "bounty-battle",
      "service": "igdb"
    }
  ],
  "aliases": [],
  "shaders": [],
  "discord_id": "",
  "change_for": null
}