{
  "id": 219400,
  "name": "MindVenture",
  "slug": "mindventure",
  "year": null,
  "banner_url": "",
  "icon_url": "",
  "coverart": "https://lutris.net/media/igdb/cover_big/co5ldc.jpg",
  "platforms": [],
  "provider_games": [
    {
      "name": "MindVenture",
      "slug": "mindventure",
      "service": "igdb"
    }
  ],
  "aliases": [],
  "shaders": [],
  "discord_id": "",
  "change_for": null
}