{
  "id": 245323,
  "name": "Soccer Heroes RPG",
  "slug": "soccer-heroes-rpg",
  "year": null,
  "banner_url": "",
  "icon_url": "",
  "coverart": null,
  "platforms": [],
  "provider_games": [
    {
      "name": "Soccer Heroes RPG",
      "slug": "soccer-heroes-rpg",
      "service": "igdb"
    }
  ],
  "aliases": [],
  "shaders": [],
  "discord_id": "",
  "change_for": null
}