{
  "id": 290578,
  "name": "God Will",
  "slug": "god-will",
  "year": null,
  "banner_url": "",
  "icon_url": "",
  "coverart": "https://lutris.net/media/igdb/cover_big/co8j0q.jpg",
  "platforms": [],
  "provider_games": [
    {
      "name": "God Will",
      "slug": "god-will",
      "service": "igdb"
    }
  ],
  "aliases": [],
  "shaders": [],
  "discord_id": "",
  "change_for": null
}