{
  "id": 199213,
  "name": "Wekufu",
  "slug": "wekufu",
  "year": null,
  "banner_url": "",
  "icon_url": "",
  "coverart": "https://lutris.net/media/igdb/cover_big/co4fv0.jpg",
  "platforms": [],
  "provider_games": [
    {
      "name": "Wekufu",
      "slug": "wekufu",
      "service": "igdb"
    }
  ],
  "aliases": [],
  "shaders": [],
  "discord_id": "",
  "change_for": null
}