{
  "id": 14472,
  "name": "A Bug's Life",
  "slug": "a-bugs-life",
  "year": 1998,
  "banner_url": "https://lutris.net/games/banner/a-bugs-life.jpg",
  "icon_url": "https://lutris.net/games/icon/a-bugs-life.png",
  "coverart": "https://lutris.net/media/igdb/cover_big/co1w1i.jpg",
  "platforms": [
    {
      "name": "Nintendo 64"
    },
    {
      "name": "Nintendo Game Boy Color"
    },
    {
      "name": "Sony PlayStation"
    },
    {
      "name": "Sony PSP"
    },
    {
      "name": "Windows"
    }
  ],
  "provider_games": [
    {
      "name": "A Bug's Life",
      "slug": "a-bugs-life",
      "service": "igdb"
    }
  ],
  "aliases": [],
  "shaders": [],
  "discord_id": "",
  "change_for": null
}