{
  "id": 99872,
  "name": "Monster Girl You-Ki Chan",
  "slug": "monster-girl-you-ki-chan",
  "year": 2020,
  "banner_url": "",
  "icon_url": "",
  "coverart": "https://lutris.net/media/igdb/cover_big/co20c5.jpg",
  "platforms": [
    {
      "name": "Windows"
    }
  ],
  "provider_games": [
    {
      "name": "Monster Girl You-Ki Chan",
      "slug": "monster-girl-you-ki-chan",
      "service": "igdb"
    }
  ],
  "aliases": [],
  "shaders": [],
  "discord_id": "",
  "change_for": null
}