{
  "id": 10153,
  "name": "Rogue Stache",
  "slug": "rogue-stache",
  "year": 2017,
  "banner_url": "https://lutris.net/games/banner/rogue-stache.jpg",
  "icon_url": "https://lutris.net/games/icon/rogue-stache.png",
  "coverart": "https://lutris.net/media/igdb/cover_big/co2r6k.jpg",
  "platforms": [
    {
      "name": "Windows"
    }
  ],
  "provider_games": [
    {
      "name": "Rogue Stache",
      "slug": "513250",
      "service": "steam"
    },
    {
      "name": "Rogue Stache",
      "slug": "rogue-stache",
      "service": "igdb"
    }
  ],
  "aliases": [],
  "shaders": [],
  "discord_id": "",
  "change_for": null
}