{
  "id": 114442,
  "name": "Grim Tales: Threads of Destiny",
  "slug": "grim-tales-threads-of-destiny",
  "year": 2015,
  "banner_url": "",
  "icon_url": "",
  "coverart": "https://lutris.net/media/igdb/cover_big/co7jls.jpg",
  "platforms": [
    {
      "name": "Windows"
    }
  ],
  "provider_games": [
    {
      "name": "Grim Tales: Threads of Destiny",
      "slug": "grim-tales-threads-of-destiny",
      "service": "igdb"
    }
  ],
  "aliases": [],
  "shaders": [],
  "discord_id": "",
  "change_for": null
}