{
  "id": 59462,
  "name": "BubbleXRush",
  "slug": "bubblexrush",
  "year": 2014,
  "banner_url": "",
  "icon_url": "",
  "coverart": "https://lutris.net/media/igdb/cover_big/z8dfpilihts3o93m4enj.jpg",
  "platforms": [
    {
      "name": "Android"
    }
  ],
  "provider_games": [
    {
      "name": "BubbleXRush",
      "slug": "bubblexrush",
      "service": "igdb"
    }
  ],
  "aliases": [],
  "shaders": [],
  "discord_id": "",
  "change_for": null
}