{
  "id": 250205,
  "name": "Puzzle Girls",
  "slug": "puzzle-girls",
  "year": null,
  "banner_url": "",
  "icon_url": "",
  "coverart": null,
  "platforms": [],
  "provider_games": [
    {
      "name": "Puzzle Girls",
      "slug": "puzzle-girls",
      "service": "igdb"
    }
  ],
  "aliases": [],
  "shaders": [],
  "discord_id": "",
  "change_for": null
}