{
  "id": 179750,
  "name": "Arcade Archives: Hyper Sports",
  "slug": "arcade-archives-hyper-sports",
  "year": 2019,
  "banner_url": "",
  "icon_url": "",
  "coverart": "https://lutris.net/media/igdb/cover_big/co3iok.jpg",
  "platforms": [
    {
      "name": "Nintendo Switch"
    },
    {
      "name": "Sony Playstation 4"
    }
  ],
  "provider_games": [
    {
      "name": "Arcade Archives: Hyper Sports",
      "slug": "arcade-archives-hyper-sports",
      "service": "igdb"
    }
  ],
  "aliases": [],
  "shaders": [],
  "discord_id": "",
  "change_for": null
}