{
  "id": 227449,
  "name": "No Way Out",
  "slug": "no-way-out--1",
  "year": null,
  "banner_url": "",
  "icon_url": "",
  "coverart": "https://lutris.net/media/igdb/cover_big/co5jtr.jpg",
  "platforms": [],
  "provider_games": [
    {
      "name": "No Way Out",
      "slug": "no-way-out--1",
      "service": "igdb"
    }
  ],
  "aliases": [],
  "shaders": [],
  "discord_id": "",
  "change_for": null
}