{
  "id": 113163,
  "name": "UWOL: Quest for Money",
  "slug": "uwol-quest-for-money",
  "year": 2009,
  "banner_url": "",
  "icon_url": "",
  "coverart": "https://lutris.net/media/igdb/cover_big/co2885.jpg",
  "platforms": [
    {
      "name": "Amiga"
    },
    {
      "name": "Android"
    },
    {
      "name": "Commodore 16"
    },
    {
      "name": "Commodore C64/128"
    },
    {
      "name": "Commodore Plus/4"
    },
    {
      "name": "Linux"
    },
    {
      "name": "Mac"
    },
    {
      "name": "MSX"
    },
    {
      "name": "Sega Genesis / Mega Drive"
    },
    {
      "name": "Super Nintendo"
    },
    {
      "name": "Windows"
    },
    {
      "name": "ZX Spectrum"
    }
  ],
  "provider_games": [
    {
      "name": "Uwol: Quest for Money",
      "slug": "uwol-quest-for-money",
      "service": "igdb"
    }
  ],
  "aliases": [],
  "shaders": [],
  "discord_id": "",
  "change_for": null
}