{
  "id": 227261,
  "name": "Dragon King: The Fighting Game",
  "slug": "dragon-king-the-fighting-game",
  "year": null,
  "banner_url": "",
  "icon_url": "",
  "coverart": null,
  "platforms": [
    {
      "name": "Nintendo 64"
    }
  ],
  "provider_games": [
    {
      "name": "Dragon King: The Fighting Game",
      "slug": "dragon-king-the-fighting-game",
      "service": "igdb"
    }
  ],
  "aliases": [],
  "shaders": [],
  "discord_id": "",
  "change_for": null
}