{
  "id": 37374,
  "name": "Lumberjack VR",
  "slug": "lumberjack-vr",
  "year": 2017,
  "banner_url": "https://lutris.net/games/banner/lumberjack-vr.jpg",
  "icon_url": "https://lutris.net/games/icon/lumberjack-vr.png",
  "coverart": null,
  "platforms": [
    {
      "name": "Windows"
    }
  ],
  "provider_games": [
    {
      "name": "Lumberjack VR",
      "slug": "704310",
      "service": "steam"
    },
    {
      "name": "Lumberjack VR",
      "slug": "lumberjack-vr",
      "service": "igdb"
    }
  ],
  "aliases": [],
  "shaders": [],
  "discord_id": "",
  "change_for": null
}