{
  "id": 159185,
  "name": "Rapid Unplanned Disassembly",
  "slug": "rapid-unplanned-disassembly",
  "year": null,
  "banner_url": "",
  "icon_url": "",
  "coverart": null,
  "platforms": [],
  "provider_games": [
    {
      "name": "Rapid Unplanned Disassembly",
      "slug": "rapid-unplanned-disassembly",
      "service": "igdb"
    }
  ],
  "aliases": [],
  "shaders": [],
  "discord_id": "",
  "change_for": null
}