{
  "id": 234062,
  "name": "Street Drag Racing Car Driving Simulator 2022 Games",
  "slug": "street-drag-racing-car-driving-simulator-2022-games",
  "year": 2022,
  "banner_url": "",
  "icon_url": "",
  "coverart": "https://lutris.net/media/igdb/cover_big/co615c.jpg",
  "platforms": [
    {
      "name": "Nintendo Switch"
    }
  ],
  "provider_games": [
    {
      "name": "Street Drag Racing Car Driving Simulator 2022 Games",
      "slug": "street-drag-racing-car-driving-simulator-2022-games",
      "service": "igdb"
    }
  ],
  "aliases": [],
  "shaders": [],
  "discord_id": "",
  "change_for": null
}