{
  "id": 82696,
  "name": "Cap'n Marcela parrot charmer",
  "slug": "capn-marcela-parrot-charmer",
  "year": null,
  "banner_url": "",
  "icon_url": "",
  "coverart": "https://lutris.net/media/igdb/cover_big/kdfbwwsn5mqrmr2fy3dh.jpg",
  "platforms": [],
  "provider_games": [
    {
      "name": "Cap'n Marcela parrot charmer",
      "slug": "capn-marcela-parrot-charmer",
      "service": "igdb"
    }
  ],
  "aliases": [],
  "shaders": [],
  "discord_id": "",
  "change_for": null
}