{
  "id": 156131,
  "name": "TV Basketball",
  "slug": "tv-basketball",
  "year": 1974,
  "banner_url": "",
  "icon_url": "",
  "coverart": "https://lutris.net/media/igdb/cover_big/cdzavpwdr4yuelkeifsg.jpg",
  "platforms": [],
  "provider_games": [
    {
      "name": "TV Basketball",
      "slug": "tv-basketball",
      "service": "igdb"
    }
  ],
  "aliases": [],
  "shaders": [],
  "discord_id": "",
  "change_for": null
}