{
  "id": 294168,
  "name": "John Conway's Game of Life",
  "slug": "john-conways-game-of-life",
  "year": 2013,
  "banner_url": "",
  "icon_url": "",
  "coverart": "https://lutris.net/media/igdb/cover_big/co8lpw.jpg",
  "platforms": [],
  "provider_games": [
    {
      "name": "John Conway's Game of Life",
      "slug": "john-conways-game-of-life",
      "service": "igdb"
    }
  ],
  "aliases": [],
  "shaders": [],
  "discord_id": "",
  "change_for": null
}