{
  "id": 153702,
  "name": "Toki: Going Ape Spit",
  "slug": "toki-going-ape-spit",
  "year": 1991,
  "banner_url": "",
  "icon_url": "",
  "coverart": "https://lutris.net/media/igdb/cover_big/co3wul.jpg",
  "platforms": [
    {
      "name": "Sega Genesis / Mega Drive"
    }
  ],
  "provider_games": [
    {
      "name": "Toki: Going Ape Spit",
      "slug": "toki-going-ape-spit",
      "service": "igdb"
    }
  ],
  "aliases": [],
  "shaders": [],
  "discord_id": "",
  "change_for": null
}