{
  "id": 16239,
  "name": "Worms 3D",
  "slug": "worms-3d",
  "year": 2004,
  "banner_url": "https://lutris.net/games/banner/worms-3d.jpg",
  "icon_url": "",
  "coverart": "https://lutris.net/media/igdb/cover_big/co1xjk.jpg",
  "platforms": [
    {
      "name": "GameCube"
    },
    {
      "name": "Mac"
    },
    {
      "name": "Nintendo GameCube"
    },
    {
      "name": "Sony PlayStation 2"
    },
    {
      "name": "Windows"
    }
  ],
  "provider_games": [
    {
      "name": "Worms 3D",
      "slug": "worms-3d",
      "service": "igdb"
    }
  ],
  "aliases": [],
  "shaders": [],
  "discord_id": "",
  "change_for": null
}