{
  "id": 37070,
  "game_id": 203959,
  "game_slug": "puck-bash",
  "name": "Puck Bash",
  "year": 2022,
  "user": "vanstaveren",
  "runner": "steam",
  "slug": "puck-bash-steam",
  "version": "steam",
  "description": "",
  "notes": "",
  "credits": "",
  "created_at": "2023-02-21T02:15:39.517781Z",
  "updated_at": "2023-02-21T02:15:39.517810Z",
  "draft": false,
  "published": true,
  "published_by": null,
  "rating": "",
  "is_playable": null,
  "steamid": null,
  "gogid": null,
  "gogslug": "",
  "humbleid": "",
  "humblestoreid": "",
  "humblestoreid_real": "",
  "script": {
    "game": {
      "appid": 1862230
    }
  },
  "content": "game:\n  appid: 1862230\n",
  "discord_id": ""
}