{
  "id": 50058,
  "name": "Ghost of Tsushima: Digital Deluxe Edition",
  "slug": "ghost-of-tsushima-digital-deluxe-edition",
  "year": 2020,
  "banner_url": "",
  "icon_url": "",
  "coverart": "https://lutris.net/media/igdb/cover_big/co246h.jpg",
  "platforms": [
    {
      "name": "Sony Playstation 4"
    }
  ],
  "provider_games": [
    {
      "name": "Ghost of Tsushima: Digital Deluxe Edition",
      "slug": "ghost-of-tsushima-digital-deluxe-edition",
      "service": "igdb"
    }
  ],
  "aliases": [],
  "shaders": [],
  "discord_id": "",
  "change_for": null
}