{
  "id": 159215,
  "name": "Rolling Cube",
  "slug": "rolling-cube",
  "year": null,
  "banner_url": "",
  "icon_url": "",
  "coverart": "https://lutris.net/media/igdb/cover_big/co3yo7.jpg",
  "platforms": [],
  "provider_games": [
    {
      "name": "Rolling Cube",
      "slug": "rolling-cube",
      "service": "igdb"
    }
  ],
  "aliases": [],
  "shaders": [],
  "discord_id": "",
  "change_for": null
}