{
  "id": 71533,
  "name": "5200 Menu",
  "slug": "5200-menu",
  "year": null,
  "banner_url": "",
  "icon_url": "",
  "coverart": "https://lutris.net/media/igdb/cover_big/co7uzt.jpg",
  "platforms": [],
  "provider_games": [
    {
      "name": "5200 Menu",
      "slug": "5200-menu",
      "service": "igdb"
    }
  ],
  "aliases": [],
  "shaders": [],
  "discord_id": "",
  "change_for": null
}