{
  "id": 29169,
  "name": "Game & Watch: Balloon Fight",
  "slug": "game-watch-balloon-fight",
  "year": 1986,
  "banner_url": "https://lutris.net/games/banner/game-watch-balloon-fight.jpg",
  "icon_url": "",
  "coverart": null,
  "platforms": [
    {
      "name": "Arcade"
    }
  ],
  "provider_games": [],
  "aliases": [],
  "shaders": [],
  "discord_id": "",
  "change_for": null
}