{
  "id": 200837,
  "name": "Dragon Prana",
  "slug": "dragon-prana",
  "year": 2022,
  "banner_url": "",
  "icon_url": "",
  "coverart": "https://lutris.net/media/igdb/cover_big/co4sg1.jpg",
  "platforms": [],
  "provider_games": [
    {
      "name": "Dragon Prana",
      "slug": "dragon-prana",
      "service": "igdb"
    }
  ],
  "aliases": [],
  "shaders": [],
  "discord_id": "",
  "change_for": null
}