{
  "id": 242401,
  "name": "Shogun Showdown: Prologue",
  "slug": "shogun-showdown-prologue",
  "year": null,
  "banner_url": "https://lutris.net/games/banner/shogun-showdown-prologue.jpg",
  "icon_url": "https://lutris.net/games/icon/shogun-showdown-prologue.png",
  "coverart": null,
  "platforms": [],
  "provider_games": [
    {
      "name": "Shogun Showdown: Prologue",
      "slug": "2316330",
      "service": "steam"
    },
    {
      "name": "Shogun Showdown: Prologue",
      "slug": "1691128039",
      "service": "gog"
    }
  ],
  "aliases": [],
  "shaders": [],
  "discord_id": "",
  "change_for": null
}