{
  "id": 139835,
  "name": "Zoey: My Hentai Sex Doll",
  "slug": "zoey-my-hentai-sex-doll",
  "year": 2021,
  "banner_url": "https://lutris.net/games/banner/zoey-my-hentai-sex-doll.jpg",
  "icon_url": "",
  "coverart": "https://lutris.net/media/igdb/cover_big/co3s58.jpg",
  "platforms": [
    {
      "name": "Windows"
    }
  ],
  "provider_games": [
    {
      "name": "Zoey: My Hentai Sex Doll",
      "slug": "zoey-my-hentai-sex-doll",
      "service": "igdb"
    },
    {
      "name": "Zoey: My Hentai Sex Doll",
      "slug": "1716170",
      "service": "steam"
    }
  ],
  "aliases": [],
  "shaders": [],
  "discord_id": "",
  "change_for": null
}