{
  "id": 57836,
  "name": "Tap Sports Baseball 2016",
  "slug": "tap-sports-baseball-2016",
  "year": null,
  "banner_url": "",
  "icon_url": "",
  "coverart": "https://lutris.net/media/igdb/cover_big/jckq4mtcbbjbbus6q9fo.jpg",
  "platforms": [],
  "provider_games": [
    {
      "name": "Tap Sports Baseball 2016",
      "slug": "tap-sports-baseball-2016",
      "service": "igdb"
    }
  ],
  "aliases": [],
  "shaders": [],
  "discord_id": "",
  "change_for": null
}