{
  "id": 76497,
  "name": "Oukoku no Grand Chef",
  "slug": "oukoku-no-grand-chef",
  "year": null,
  "banner_url": "",
  "icon_url": "",
  "coverart": "https://lutris.net/media/igdb/cover_big/co4xaa.jpg",
  "platforms": [],
  "provider_games": [
    {
      "name": "Oukoku no Grand Chef",
      "slug": "oukoku-no-grand-chef",
      "service": "igdb"
    }
  ],
  "aliases": [],
  "shaders": [],
  "discord_id": "",
  "change_for": null
}