{
  "id": 234784,
  "name": "Fragile Feelings",
  "slug": "fragile-feelings",
  "year": null,
  "banner_url": "",
  "icon_url": "",
  "coverart": "https://lutris.net/media/igdb/cover_big/co68g0.jpg",
  "platforms": [],
  "provider_games": [
    {
      "name": "Fragile Feelings",
      "slug": "fragile-feelings",
      "service": "igdb"
    }
  ],
  "aliases": [],
  "shaders": [],
  "discord_id": "",
  "change_for": null
}