{
  "id": 229440,
  "name": "Galacticare",
  "slug": "galacticare",
  "year": null,
  "banner_url": "",
  "icon_url": "",
  "coverart": "https://lutris.net/media/igdb/cover_big/co6bja.jpg",
  "platforms": [],
  "provider_games": [
    {
      "name": "Galacticare",
      "slug": "2031000462",
      "service": "gog"
    },
    {
      "name": "Galacticare",
      "slug": "galacticare",
      "service": "igdb"
    }
  ],
  "aliases": [],
  "shaders": [],
  "discord_id": "",
  "change_for": null
}