{
  "id": 86449,
  "name": "North London Line Collection",
  "slug": "north-london-line-collection",
  "year": null,
  "banner_url": "",
  "icon_url": "",
  "coverart": null,
  "platforms": [],
  "provider_games": [
    {
      "name": "North London Line Collection",
      "slug": "north-london-line-collection",
      "service": "igdb"
    }
  ],
  "aliases": [],
  "shaders": [],
  "discord_id": "",
  "change_for": null
}