{
  "id": 136249,
  "name": "Missing Love",
  "slug": "missing-love",
  "year": null,
  "banner_url": "",
  "icon_url": "",
  "coverart": "https://lutris.net/media/igdb/cover_big/co3p1e.jpg",
  "platforms": [],
  "provider_games": [
    {
      "name": "Missing Love",
      "slug": "missing-love",
      "service": "igdb"
    }
  ],
  "aliases": [],
  "shaders": [],
  "discord_id": "",
  "change_for": null
}