{
  "id": 117224,
  "name": "Unhatched",
  "slug": "unhatched",
  "year": 2019,
  "banner_url": "",
  "icon_url": "",
  "coverart": "https://lutris.net/media/igdb/cover_big/co2u4g.jpg",
  "platforms": [
    {
      "name": "Legacy Cellphone"
    },
    {
      "name": "Nintendo Switch"
    }
  ],
  "provider_games": [
    {
      "name": "Unhatched",
      "slug": "unhatched",
      "service": "igdb"
    }
  ],
  "aliases": [],
  "shaders": [],
  "discord_id": "",
  "change_for": null
}