{
  "id": 60825,
  "name": "Vinnie Vole's Existential Nightmare",
  "slug": "vinnie-voles-existential-nightmare",
  "year": 2010,
  "banner_url": "",
  "icon_url": "",
  "coverart": "https://lutris.net/media/igdb/cover_big/otvnhmnhzwewoikewmi6.jpg",
  "platforms": [
    {
      "name": "ZX Spectrum"
    }
  ],
  "provider_games": [
    {
      "name": "Vinnie Vole's Existential Nightmare",
      "slug": "vinnie-voles-existential-nightmare",
      "service": "igdb"
    }
  ],
  "aliases": [],
  "shaders": [],
  "discord_id": "",
  "change_for": null
}