{
  "id": 117987,
  "name": "Ultimate Soccer Manager '98",
  "slug": "ultimate-soccer-manager-98",
  "year": 1999,
  "banner_url": "",
  "icon_url": "",
  "coverart": "https://lutris.net/media/igdb/cover_big/co3gqi.jpg",
  "platforms": [
    {
      "name": "Windows"
    }
  ],
  "provider_games": [
    {
      "name": "Ultimate Soccer Manager '98",
      "slug": "ultimate-soccer-manager-98",
      "service": "igdb"
    }
  ],
  "aliases": [],
  "shaders": [],
  "discord_id": "",
  "change_for": null
}