{
  "id": 124791,
  "name": "Erwin's Timewarp",
  "slug": "erwins-timewarp",
  "year": 2015,
  "banner_url": "",
  "icon_url": "",
  "coverart": null,
  "platforms": [
    {
      "name": "Windows"
    }
  ],
  "provider_games": [
    {
      "name": "Erwin's Timewarp",
      "slug": "erwins-timewarp",
      "service": "igdb"
    }
  ],
  "aliases": [],
  "shaders": [],
  "discord_id": "",
  "change_for": null
}