{
  "id": 298912,
  "name": "Noiramore Academy",
  "slug": "noiramore-academy",
  "year": null,
  "banner_url": "",
  "icon_url": "",
  "coverart": "https://lutris.net/media/igdb/cover_big/co8v69.jpg",
  "platforms": [],
  "provider_games": [
    {
      "name": "Noiramore Academy",
      "slug": "noiramore-academy",
      "service": "igdb"
    }
  ],
  "aliases": [],
  "shaders": [],
  "discord_id": "",
  "change_for": null
}