{
  "id": 218507,
  "name": "Conway's Game Of Life",
  "slug": "conways-game-of-life--1",
  "year": null,
  "banner_url": "",
  "icon_url": "",
  "coverart": null,
  "platforms": [
    {
      "name": "Playdate"
    }
  ],
  "provider_games": [
    {
      "name": "Conway's Game of Life",
      "slug": "conways-game-of-life--1",
      "service": "igdb"
    }
  ],
  "aliases": [],
  "shaders": [],
  "discord_id": "",
  "change_for": null
}