{
  "id": 259553,
  "name": "Super Shape Cascade",
  "slug": "super-shape-cascade",
  "year": null,
  "banner_url": "",
  "icon_url": "",
  "coverart": "https://lutris.net/media/igdb/cover_big/co74ou.jpg",
  "platforms": [],
  "provider_games": [
    {
      "name": "Super Shape Cascade",
      "slug": "super-shape-cascade",
      "service": "igdb"
    }
  ],
  "aliases": [],
  "shaders": [],
  "discord_id": "",
  "change_for": null
}