{
  "id": 266551,
  "name": "Plastic Tactics Online",
  "slug": "plastic-tactics-online",
  "year": null,
  "banner_url": "",
  "icon_url": "",
  "coverart": "https://lutris.net/media/igdb/cover_big/co7dbj.jpg",
  "platforms": [],
  "provider_games": [
    {
      "name": "Plastic Tactics Online",
      "slug": "plastic-tactics-online",
      "service": "igdb"
    }
  ],
  "aliases": [],
  "shaders": [],
  "discord_id": "",
  "change_for": null
}