{
  "id": 111663,
  "name": "Current Flow",
  "slug": "current-flow",
  "year": null,
  "banner_url": "",
  "icon_url": "",
  "coverart": "https://lutris.net/media/igdb/cover_big/co5alh.jpg",
  "platforms": [],
  "provider_games": [
    {
      "name": "Current Flow",
      "slug": "current-flow",
      "service": "igdb"
    }
  ],
  "aliases": [],
  "shaders": [],
  "discord_id": "",
  "change_for": null
}