{
  "id": 55569,
  "name": "Muhammad Ali Heavyweight Boxing",
  "slug": "muhammad-ali-heavyweight-boxing",
  "year": null,
  "banner_url": "",
  "icon_url": "",
  "coverart": "https://lutris.net/media/igdb/cover_big/co2do1.jpg",
  "platforms": [
    {
      "name": "Sega Genesis / Mega Drive"
    }
  ],
  "provider_games": [
    {
      "name": "Muhammad Ali Heavyweight Boxing",
      "slug": "muhammad-ali-heavyweight-boxing",
      "service": "igdb"
    }
  ],
  "aliases": [],
  "shaders": [],
  "discord_id": "",
  "change_for": null
}