{
  "id": 36104,
  "name": "Thunder Heroes",
  "slug": "thunder-heroes",
  "year": 2001,
  "banner_url": "",
  "icon_url": "https://lutris.net/games/icon/thunder-heroes.png",
  "coverart": "https://lutris.net/media/igdb/cover_big/nuapyosyd2rwjmfsayc6.jpg",
  "platforms": [
    {
      "name": "Arcade"
    }
  ],
  "provider_games": [
    {
      "name": "Thunder Heroes",
      "slug": "theroes",
      "service": "mame"
    },
    {
      "name": "Thunder Heroes",
      "slug": "thunder-heroes",
      "service": "igdb"
    }
  ],
  "aliases": [],
  "shaders": [],
  "discord_id": "",
  "change_for": null
}