{
  "id": 105362,
  "name": "Dairansou Dash or Dasshu!!",
  "slug": "dairansou-dash-or-dasshu",
  "year": 2014,
  "banner_url": "",
  "icon_url": "",
  "coverart": "https://lutris.net/media/igdb/cover_big/co2tsv.jpg",
  "platforms": [
    {
      "name": "PlayStation Vita"
    }
  ],
  "provider_games": [
    {
      "name": "Dairansou Dash or Dasshu!!",
      "slug": "dairansou-dash-or-dasshu",
      "service": "igdb"
    }
  ],
  "aliases": [],
  "shaders": [],
  "discord_id": "",
  "change_for": null
}