{
  "id": 233499,
  "name": "Loop Drive",
  "slug": "loop-drive",
  "year": null,
  "banner_url": "",
  "icon_url": "",
  "coverart": null,
  "platforms": [],
  "provider_games": [
    {
      "name": "Loop Drive",
      "slug": "loop-drive",
      "service": "igdb"
    }
  ],
  "aliases": [],
  "shaders": [],
  "discord_id": "",
  "change_for": null
}