{
  "id": 43684,
  "name": "Koikatsu!",
  "slug": "koikatsu",
  "year": 2018,
  "banner_url": "https://lutris.net/games/banner/koikatsu.jpg",
  "icon_url": "",
  "coverart": null,
  "platforms": [
    {
      "name": "Windows"
    }
  ],
  "provider_games": [
    {
      "name": "Koikatsu",
      "slug": "koikatsu",
      "service": "igdb"
    }
  ],
  "aliases": [],
  "shaders": [],
  "discord_id": "",
  "change_for": null
}