{
  "id": 8220,
  "game_id": 1391,
  "game_slug": "elsword",
  "name": "Elsword",
  "year": 2010,
  "user": "soredake",
  "runner": "steam",
  "slug": "elsword-proton",
  "version": "Proton",
  "description": null,
  "notes": "",
  "credits": "",
  "created_at": "2018-05-09T07:25:58.979348Z",
  "updated_at": "2021-05-04T02:43:12.373962Z",
  "draft": false,
  "published": true,
  "published_by": null,
  "rating": "",
  "is_playable": null,
  "steamid": 237310,
  "gogid": null,
  "gogslug": "",
  "humbleid": "",
  "humblestoreid": "",
  "humblestoreid_real": "",
  "script": {
    "game": {
      "appid": 237310
    }
  },
  "content": "game:\n  appid: 237310\n",
  "discord_id": "387402920238383122"
}