{
  "id": 228277,
  "name": "The Lord of the Rings Online: Mithril Edition",
  "slug": "the-lord-of-the-rings-online-mithril-edition",
  "year": null,
  "banner_url": "",
  "icon_url": "",
  "coverart": "https://lutris.net/media/igdb/cover_big/co6i3z.jpg",
  "platforms": [],
  "provider_games": [
    {
      "name": "The Lord of the Rings Online: Mithril Edition",
      "slug": "the-lord-of-the-rings-online-mithril-edition",
      "service": "igdb"
    }
  ],
  "aliases": [],
  "shaders": [],
  "discord_id": "",
  "change_for": null
}