{
  "id": 107915,
  "name": "Silent Hill: Mobile 2",
  "slug": "silent-hill-mobile-2",
  "year": 2008,
  "banner_url": "",
  "icon_url": "",
  "coverart": "https://lutris.net/media/igdb/cover_big/co2vyu.jpg",
  "platforms": [
    {
      "name": "Legacy Cellphone"
    }
  ],
  "provider_games": [
    {
      "name": "Silent Hill: Mobile 2",
      "slug": "silent-hill-mobile-2",
      "service": "igdb"
    }
  ],
  "aliases": [],
  "shaders": [],
  "discord_id": "",
  "change_for": null
}