{
  "id": 280201,
  "name": "Nerdtastic Norman & The Soul Fragments",
  "slug": "nerdtastic-norman-and-the-soul-fragments",
  "year": null,
  "banner_url": "",
  "icon_url": "",
  "coverart": "https://lutris.net/media/igdb/cover_big/co80yw.jpg",
  "platforms": [],
  "provider_games": [
    {
      "name": "Nerdtastic Norman & The Soul Fragments",
      "slug": "nerdtastic-norman-and-the-soul-fragments",
      "service": "igdb"
    }
  ],
  "aliases": [],
  "shaders": [],
  "discord_id": "",
  "change_for": null
}