{
  "id": 258008,
  "name": "Ep. Kazoku",
  "slug": "ep-kazoku",
  "year": null,
  "banner_url": "",
  "icon_url": "",
  "coverart": "https://lutris.net/media/igdb/cover_big/co729b.jpg",
  "platforms": [],
  "provider_games": [
    {
      "name": "Ep. Kazoku",
      "slug": "ep-kazoku",
      "service": "igdb"
    }
  ],
  "aliases": [],
  "shaders": [],
  "discord_id": "",
  "change_for": null
}