{
  "id": 220350,
  "name": "Bulls and Cows",
  "slug": "bulls-and-cows",
  "year": null,
  "banner_url": "",
  "icon_url": "",
  "coverart": "https://lutris.net/media/igdb/cover_big/co50co.jpg",
  "platforms": [],
  "provider_games": [
    {
      "name": "Bulls and Cows",
      "slug": "bulls-and-cows",
      "service": "igdb"
    }
  ],
  "aliases": [],
  "shaders": [],
  "discord_id": "",
  "change_for": null
}