{
  "id": 77347,
  "name": "RedCard",
  "slug": "redcard",
  "year": 2002,
  "banner_url": "",
  "icon_url": "",
  "coverart": "https://lutris.net/media/igdb/cover_big/dltseqnwojukgbse1cyb.jpg",
  "platforms": [
    {
      "name": "Nintendo GameCube"
    },
    {
      "name": "Sony PlayStation 2"
    }
  ],
  "provider_games": [
    {
      "name": "RedCard",
      "slug": "redcard",
      "service": "igdb"
    }
  ],
  "aliases": [],
  "shaders": [],
  "discord_id": "",
  "change_for": null
}