{
  "id": 199413,
  "name": "The Oathkeeper",
  "slug": "the-oathkeeper",
  "year": null,
  "banner_url": "",
  "icon_url": "",
  "coverart": "https://lutris.net/media/igdb/cover_big/co4fes.jpg",
  "platforms": [],
  "provider_games": [
    {
      "name": "The Oathkeeper",
      "slug": "the-oathkeeper",
      "service": "igdb"
    }
  ],
  "aliases": [],
  "shaders": [],
  "discord_id": "",
  "change_for": null
}