{
  "id": 112872,
  "name": "Red Book: Discordia Tales",
  "slug": "red-book-discordia-tales",
  "year": 2015,
  "banner_url": "",
  "icon_url": "",
  "coverart": "https://lutris.net/media/igdb/cover_big/co3228.jpg",
  "platforms": [
    {
      "name": "Windows"
    }
  ],
  "provider_games": [
    {
      "name": "Red Book: Discordia Tales",
      "slug": "red-book-discordia-tales",
      "service": "igdb"
    }
  ],
  "aliases": [],
  "shaders": [],
  "discord_id": "",
  "change_for": null
}