{
  "id": 11503,
  "game_id": 10163,
  "game_slug": "call-of-duty-infinite-warfare",
  "name": "Call of Duty: Infinite Warfare",
  "year": 2016,
  "user": "lonnallen",
  "runner": "steam",
  "slug": "call-of-duty-infinite-warfare-proton",
  "version": "Proton",
  "description": null,
  "notes": "",
  "credits": "",
  "created_at": "2019-01-07T19:13:54.143623Z",
  "updated_at": "2021-05-04T02:43:13.567766Z",
  "draft": false,
  "published": true,
  "published_by": 19464,
  "rating": "",
  "is_playable": null,
  "steamid": 292730,
  "gogid": null,
  "gogslug": "",
  "humbleid": "",
  "humblestoreid": "",
  "humblestoreid_real": "",
  "script": {
    "game": {
      "appid": 292730
    }
  },
  "content": "game:\n  appid: 292730\n",
  "discord_id": ""
}