{
  "id": 136254,
  "name": "Mirror Movement",
  "slug": "mirror-movement",
  "year": null,
  "banner_url": "",
  "icon_url": "",
  "coverart": "https://lutris.net/media/igdb/cover_big/co3p15.jpg",
  "platforms": [],
  "provider_games": [
    {
      "name": "Mirror Movement",
      "slug": "mirror-movement",
      "service": "igdb"
    }
  ],
  "aliases": [],
  "shaders": [],
  "discord_id": "",
  "change_for": null
}