{
  "id": 52705,
  "name": "Oldentide",
  "slug": "oldentide",
  "year": null,
  "banner_url": "",
  "icon_url": "",
  "coverart": "https://lutris.net/media/igdb/cover_big/ydxjdgot5mosdlnnbgt2.jpg",
  "platforms": [],
  "provider_games": [
    {
      "name": "Oldentide",
      "slug": "oldentide",
      "service": "igdb"
    }
  ],
  "aliases": [],
  "shaders": [],
  "discord_id": "",
  "change_for": null
}