{
  "id": 57354,
  "name": "Dino Jnr. in Canyon Capers",
  "slug": "dino-jnr-in-canyon-capers",
  "year": 1993,
  "banner_url": "",
  "icon_url": "",
  "coverart": "https://lutris.net/media/igdb/cover_big/mjl9abgduuxkwxl1rrnb.jpg",
  "platforms": [
    {
      "name": "Windows"
    }
  ],
  "provider_games": [
    {
      "name": "Dino Jnr. in Canyon Capers",
      "slug": "dino-jnr-in-canyon-capers",
      "service": "igdb"
    }
  ],
  "aliases": [],
  "shaders": [],
  "discord_id": "",
  "change_for": null
}