{
  "id": 273838,
  "name": "Brick Blaster",
  "slug": "brick-blaster--3",
  "year": null,
  "banner_url": "",
  "icon_url": "",
  "coverart": "https://lutris.net/media/igdb/cover_big/co86uw.jpg",
  "platforms": [
    {
      "name": "Gamate"
    }
  ],
  "provider_games": [
    {
      "name": "Brick Blaster",
      "slug": "brick-blaster--3",
      "service": "igdb"
    }
  ],
  "aliases": [],
  "shaders": [],
  "discord_id": "",
  "change_for": null
}