{
  "id": 134565,
  "name": "Calturin and Clone",
  "slug": "calturin-and-clone",
  "year": null,
  "banner_url": "",
  "icon_url": "",
  "coverart": "https://lutris.net/media/igdb/cover_big/co3mp9.jpg",
  "platforms": [],
  "provider_games": [
    {
      "name": "Calturin and Clone",
      "slug": "calturin-and-clone",
      "service": "igdb"
    }
  ],
  "aliases": [],
  "shaders": [],
  "discord_id": "",
  "change_for": null
}