{
  "id": 67542,
  "name": "Haruiro ☆ Communication ♪",
  "slug": "haruiro-communication",
  "year": null,
  "banner_url": "",
  "icon_url": "",
  "coverart": null,
  "platforms": [],
  "provider_games": [
    {
      "name": "Haruiro Communication",
      "slug": "haruiro-communication",
      "service": "igdb"
    }
  ],
  "aliases": [],
  "shaders": [],
  "discord_id": "",
  "change_for": null
}