{
  "id": 157310,
  "name": "Plastic Rebellion",
  "slug": "plastic-rebellion",
  "year": 2020,
  "banner_url": "https://lutris.net/games/banner/plastic-rebellion.jpg",
  "icon_url": "",
  "coverart": "https://lutris.net/media/igdb/cover_big/co2qz2.jpg",
  "platforms": [
    {
      "name": "Nintendo Switch"
    },
    {
      "name": "Windows"
    }
  ],
  "provider_games": [
    {
      "name": "Plastic Rebellion",
      "slug": "789160",
      "service": "steam"
    },
    {
      "name": "Plastic Rebellion",
      "slug": "plastic-rebellion",
      "service": "igdb"
    }
  ],
  "aliases": [],
  "shaders": [],
  "discord_id": "",
  "change_for": null
}