{
  "id": 188394,
  "name": "Mondar's Dungeon",
  "slug": "mondars-dungeon",
  "year": null,
  "banner_url": "",
  "icon_url": "",
  "coverart": null,
  "platforms": [],
  "provider_games": [
    {
      "name": "Mondar's Dungeon",
      "slug": "mondars-dungeon",
      "service": "igdb"
    }
  ],
  "aliases": [],
  "shaders": [],
  "discord_id": "",
  "change_for": null
}