{
  "id": 109784,
  "name": ".hack//frägment",
  "slug": "dot-hack-slash-slash-fragment",
  "year": 2005,
  "banner_url": "",
  "icon_url": "",
  "coverart": "https://lutris.net/media/igdb/cover_big/ygbehxg7meag8r4lboae.jpg",
  "platforms": [
    {
      "name": "Sony PlayStation 2"
    }
  ],
  "provider_games": [
    {
      "name": ".Hack//Frägment",
      "slug": "dot-hack-slash-slash-fragment",
      "service": "igdb"
    }
  ],
  "aliases": [],
  "shaders": [],
  "discord_id": "",
  "change_for": null
}