{
  "id": 259763,
  "name": "Vae Victis: Khan",
  "slug": "vae-victis-khan",
  "year": null,
  "banner_url": "",
  "icon_url": "",
  "coverart": "https://lutris.net/media/igdb/cover_big/co742k.jpg",
  "platforms": [],
  "provider_games": [
    {
      "name": "Vae Victis: Khan",
      "slug": "vae-victis-khan",
      "service": "igdb"
    }
  ],
  "aliases": [],
  "shaders": [],
  "discord_id": "",
  "change_for": null
}