{
  "id": 228111,
  "name": "Adventure: Limited Edition",
  "slug": "adventure-limited-edition",
  "year": 2022,
  "banner_url": "",
  "icon_url": "",
  "coverart": "https://lutris.net/media/igdb/cover_big/co500m.jpg",
  "platforms": [],
  "provider_games": [
    {
      "name": "Adventure: Limited Edition",
      "slug": "adventure-limited-edition",
      "service": "igdb"
    }
  ],
  "aliases": [],
  "shaders": [],
  "discord_id": "",
  "change_for": null
}