{
  "id": 245296,
  "name": "Metria",
  "slug": "metria",
  "year": null,
  "banner_url": "",
  "icon_url": "",
  "coverart": "https://lutris.net/media/igdb/cover_big/co7aah.jpg",
  "platforms": [],
  "provider_games": [
    {
      "name": "Metria",
      "slug": "metria",
      "service": "igdb"
    }
  ],
  "aliases": [],
  "shaders": [],
  "discord_id": "",
  "change_for": null
}