{
  "id": 74425,
  "name": "Engine Sentai Go-Onger: Mach de Oboeru! AIUEO!!",
  "slug": "engine-sentai-go-onger-mach-de-oboeru-aiueo",
  "year": null,
  "banner_url": "",
  "icon_url": "",
  "coverart": null,
  "platforms": [],
  "provider_games": [
    {
      "name": "Engine Sentai Go-Onger: Mach de Oboeru! Aiueo!!",
      "slug": "engine-sentai-go-onger-mach-de-oboeru-aiueo",
      "service": "igdb"
    }
  ],
  "aliases": [],
  "shaders": [],
  "discord_id": "",
  "change_for": null
}