{
  "id": 3956,
  "game_id": 167,
  "game_slug": "samorost-2",
  "name": "Samorost 2",
  "year": 2009,
  "user": "FakeShemp",
  "runner": "web",
  "slug": "samorost-2-humble",
  "version": "Humble",
  "description": "",
  "notes": "",
  "credits": "",
  "created_at": "2017-05-29T19:35:52.383000Z",
  "updated_at": "2017-05-30T00:29:33.893165Z",
  "draft": false,
  "published": true,
  "published_by": null,
  "rating": "",
  "is_playable": null,
  "steamid": 40720,
  "gogid": 1435321049,
  "gogslug": "samorost2",
  "humbleid": "samorost2",
  "humblestoreid": "samorost2",
  "humblestoreid_real": "samorost2",
  "script": {
    "files": [
      {
        "file1": "N/A:Please select the Humble archive"
      }
    ],
    "game": {
      "main_file": "$GAMEDIR/Samorost2.html"
    },
    "installer": [
      {
        "extract": {
          "file": "$file1"
        }
      }
    ],
    "web": {
      "enable_flash": true,
      "window_size": "1024x768"
    }
  },
  "content": "files:\n- file1: N/A:Please select the Humble archive\ngame:\n  main_file: $GAMEDIR/Samorost2.html\ninstaller:\n- extract:\n    file: $file1\nweb:\n  enable_flash: true\n  window_size: 1024x768\n",
  "discord_id": ""
}