{
  "id": 160939,
  "name": "JumpStart Kindergarten Reading",
  "slug": "jumpstart-kindergarten-reading",
  "year": 2000,
  "banner_url": "",
  "icon_url": "",
  "coverart": "https://lutris.net/media/igdb/cover_big/co3zem.jpg",
  "platforms": [
    {
      "name": "Windows"
    }
  ],
  "provider_games": [
    {
      "name": "JumpStart Kindergarten Reading",
      "slug": "jumpstart-kindergarten-reading",
      "service": "igdb"
    }
  ],
  "aliases": [],
  "shaders": [],
  "discord_id": "",
  "change_for": null
}