{
  "id": 12405,
  "name": "Chris Sawyer's Locomotion",
  "slug": "chris-sawyers-locomotion",
  "year": 2004,
  "banner_url": "https://lutris.net/games/banner/chris-sawyers-locomotion.jpg",
  "icon_url": "https://lutris.net/games/icon/chris-sawyers-locomotion.png",
  "coverart": "https://lutris.net/media/igdb/cover_big/co1zs8.jpg",
  "platforms": [
    {
      "name": "Windows"
    }
  ],
  "provider_games": [
    {
      "name": "Locomotion, Chris Sawyer's",
      "slug": "1207658955",
      "service": "gog"
    },
    {
      "name": "Chris Sawyer's Locomotion",
      "slug": "356430",
      "service": "steam"
    },
    {
      "name": "Chris Sawyer's Locomotion",
      "slug": "chris-sawyers-locomotion",
      "service": "igdb"
    }
  ],
  "aliases": [],
  "shaders": [],
  "discord_id": "",
  "change_for": null
}