{
  "id": 189508,
  "name": "Sam & Max: Beyond Time and Space",
  "slug": "sam-and-max-beyond-time-and-space",
  "year": 2021,
  "banner_url": "",
  "icon_url": "",
  "coverart": "https://lutris.net/media/igdb/cover_big/co4aay.jpg",
  "platforms": [
    {
      "name": "Windows"
    }
  ],
  "provider_games": [
    {
      "name": "Sam & Max: Beyond Time and Space",
      "slug": "1901266299",
      "service": "gog"
    },
    {
      "name": "Sam & Max: Beyond Time and Space",
      "slug": "sam-and-max-beyond-time-and-space",
      "service": "igdb"
    }
  ],
  "aliases": [],
  "shaders": [],
  "discord_id": "",
  "change_for": null
}