{
  "id": 187708,
  "name": "Forging History Saga: The big bang",
  "slug": "forging-history-saga-the-big-bang",
  "year": null,
  "banner_url": "",
  "icon_url": "",
  "coverart": null,
  "platforms": [],
  "provider_games": [
    {
      "name": "Forging History Saga: The big bang",
      "slug": "forging-history-saga-the-big-bang",
      "service": "igdb"
    }
  ],
  "aliases": [],
  "shaders": [],
  "discord_id": "",
  "change_for": null
}