{
  "id": 191448,
  "name": "Mondealy",
  "slug": "mondealy",
  "year": null,
  "banner_url": "",
  "icon_url": "",
  "coverart": "https://lutris.net/media/igdb/cover_big/co4f6s.jpg",
  "platforms": [],
  "provider_games": [
    {
      "name": "Mondealy",
      "slug": "1225756822",
      "service": "gog"
    },
    {
      "name": "Mondealy",
      "slug": "mondealy",
      "service": "igdb"
    }
  ],
  "aliases": [],
  "shaders": [],
  "discord_id": "",
  "change_for": null
}