{
  "id": 78324,
  "name": "Anaheim Girl's Love Story",
  "slug": "anaheim-girls-love-story",
  "year": null,
  "banner_url": "",
  "icon_url": "",
  "coverart": "https://lutris.net/media/igdb/cover_big/ixc8xfvpdfluicwyirvb.jpg",
  "platforms": [],
  "provider_games": [
    {
      "name": "Anaheim Girl's Love Story",
      "slug": "anaheim-girls-love-story",
      "service": "igdb"
    }
  ],
  "aliases": [],
  "shaders": [],
  "discord_id": "",
  "change_for": null
}