{
  "id": 285333,
  "name": "Highway Racer",
  "slug": "highway-racer",
  "year": null,
  "banner_url": "",
  "icon_url": "",
  "coverart": "https://lutris.net/media/igdb/cover_big/co874w.jpg",
  "platforms": [],
  "provider_games": [
    {
      "name": "Highway Racer",
      "slug": "highway-racer",
      "service": "igdb"
    }
  ],
  "aliases": [],
  "shaders": [],
  "discord_id": "",
  "change_for": null
}