{
  "id": 19027,
  "game_id": 3,
  "game_slug": "braid",
  "name": "Braid",
  "year": 2008,
  "user": "zzgraph",
  "runner": "linux",
  "slug": "braid-braid-gog",
  "version": "Braid GOG",
  "description": null,
  "notes": "",
  "credits": "",
  "created_at": "2020-03-21T11:29:00.330000Z",
  "updated_at": "2020-03-22T09:32:21.633849Z",
  "draft": false,
  "published": true,
  "published_by": 20548,
  "rating": "",
  "is_playable": null,
  "steamid": 26800,
  "gogid": 1461061433,
  "gogslug": "braid",
  "humbleid": "braid",
  "humblestoreid": "braid",
  "humblestoreid_real": "braid",
  "script": {
    "files": [
      {
        "goginstaller": "N/A:Plesae select the GOG.com Linux installer"
      }
    ],
    "game": {
      "exe": "start.sh"
    },
    "installer": [
      {
        "extract": {
          "dst": "$CACHE/GOG",
          "file": "goginstaller",
          "format": "zip"
        }
      },
      {
        "merge": {
          "dst": "$GAMEDIR",
          "src": "$CACHE/GOG/data/noarch/"
        }
      }
    ]
  },
  "content": "files:\n- goginstaller: N/A:Plesae select the GOG.com Linux installer\ngame:\n  exe: start.sh\ninstaller:\n- extract:\n    dst: $CACHE/GOG\n    file: goginstaller\n    format: zip\n- merge:\n    dst: $GAMEDIR\n    src: $CACHE/GOG/data/noarch/\n",
  "discord_id": "496540068442537984"
}