{
  "id": 39245,
  "name": "The Alabaster Donut Farm",
  "slug": "the-alabaster-donut-farm",
  "year": 2020,
  "banner_url": "https://lutris.net/games/banner/the-alabaster-donut-farm.jpg",
  "icon_url": "",
  "coverart": "https://lutris.net/media/igdb/cover_big/co2aes.jpg",
  "platforms": [
    {
      "name": "Windows"
    }
  ],
  "provider_games": [
    {
      "name": "The Alabaster Donut Farm",
      "slug": "the-alabaster-donut-farm",
      "service": "igdb"
    }
  ],
  "aliases": [],
  "shaders": [],
  "discord_id": "",
  "change_for": null
}