{
  "id": 14610,
  "name": "Hard to Be a God",
  "slug": "hard-to-be-a-god",
  "year": 2007,
  "banner_url": "https://lutris.net/games/banner/hard-to-be-a-god.jpg",
  "icon_url": "https://lutris.net/games/icon/hard-to-be-a-god.png",
  "coverart": "https://lutris.net/media/igdb/cover_big/v3mzp9rwoc7bgvsptluf.jpg",
  "platforms": [
    {
      "name": "Windows"
    }
  ],
  "provider_games": [
    {
      "name": "Hard to Be a God",
      "slug": "391030",
      "service": "steam"
    },
    {
      "name": "Hard to be a God",
      "slug": "hard-to-be-a-god",
      "service": "igdb"
    }
  ],
  "aliases": [],
  "shaders": [],
  "discord_id": "",
  "change_for": null
}