{
  "id": 254332,
  "name": "Excised",
  "slug": "excised",
  "year": null,
  "banner_url": "",
  "icon_url": "",
  "coverart": "https://lutris.net/media/igdb/cover_big/co6w9c.jpg",
  "platforms": [],
  "provider_games": [
    {
      "name": "Excised",
      "slug": "excised",
      "service": "igdb"
    }
  ],
  "aliases": [],
  "shaders": [],
  "discord_id": "",
  "change_for": null
}