{
  "id": 154491,
  "name": "Unawakens",
  "slug": "unawakens",
  "year": null,
  "banner_url": "",
  "icon_url": "",
  "coverart": "https://lutris.net/media/igdb/cover_big/co3x9z.jpg",
  "platforms": [],
  "provider_games": [
    {
      "name": "Unawakens",
      "slug": "unawakens",
      "service": "igdb"
    }
  ],
  "aliases": [],
  "shaders": [],
  "discord_id": "",
  "change_for": null
}