{
  "id": 1453,
  "name": "Another World",
  "slug": "another-world",
  "year": 1991,
  "banner_url": "https://lutris.net/games/banner/another-world.jpg",
  "icon_url": "https://lutris.net/games/icon/another-world.png",
  "coverart": "https://lutris.net/media/igdb/cover_big/co1x7k.jpg",
  "platforms": [
    {
      "name": "3DO"
    },
    {
      "name": "Amiga"
    },
    {
      "name": "Android"
    },
    {
      "name": "Apple IIGS"
    },
    {
      "name": "Atari ST"
    },
    {
      "name": "Legacy Cellphone"
    },
    {
      "name": "MS-DOS"
    },
    {
      "name": "Nintendo 3DS"
    },
    {
      "name": "Nintendo Wii U"
    },
    {
      "name": "PlayStation Vita"
    },
    {
      "name": "Sega Genesis / Mega Drive"
    },
    {
      "name": "Sony Playstation 3"
    },
    {
      "name": "Sony Playstation 4"
    },
    {
      "name": "Super Famicom"
    },
    {
      "name": "Super Nintendo"
    },
    {
      "name": "Windows"
    },
    {
      "name": "Windows Phone"
    },
    {
      "name": "Xbox One"
    }
  ],
  "provider_games": [
    {
      "name": "Another World: 20th Anniversary Edition",
      "slug": "1207658845",
      "service": "gog"
    },
    {
      "name": "Another World",
      "slug": "anotherworld_android",
      "service": "humblebundle"
    },
    {
      "name": "Another World",
      "slug": "233550",
      "service": "steam"
    },
    {
      "name": "Another_World",
      "slug": "1246390",
      "service": "steam"
    },
    {
      "name": "Another World",
      "slug": "another-world",
      "service": "igdb"
    }
  ],
  "aliases": [],
  "shaders": [],
  "discord_id": "",
  "change_for": null
}