{
  "id": 137942,
  "name": "Sengoku Hime 7: Senun Tsuranuku Guren no Ishi",
  "slug": "sengoku-hime-7-senun-tsuranuku-guren-no-ishi",
  "year": 2019,
  "banner_url": "",
  "icon_url": "",
  "coverart": "https://lutris.net/media/igdb/cover_big/co2v8d.jpg",
  "platforms": [
    {
      "name": "Sony Playstation 4"
    }
  ],
  "provider_games": [
    {
      "name": "Sengoku Hime 7: Senun Tsuranuku Guren no Ishi",
      "slug": "sengoku-hime-7-senun-tsuranuku-guren-no-ishi",
      "service": "igdb"
    }
  ],
  "aliases": [],
  "shaders": [],
  "discord_id": "",
  "change_for": null
}