{
  "id": 114273,
  "name": "Yu-Gi-Oh! Saikyo Card Battle",
  "slug": "yu-gi-oh-saikyo-card-battle",
  "year": 2016,
  "banner_url": "",
  "icon_url": "",
  "coverart": "https://lutris.net/media/igdb/cover_big/co3ad4.jpg",
  "platforms": [
    {
      "name": "Nintendo 3DS"
    }
  ],
  "provider_games": [
    {
      "name": "Yu-Gi-Oh! Saikyo Card Battle",
      "slug": "yu-gi-oh-saikyo-card-battle",
      "service": "igdb"
    }
  ],
  "aliases": [],
  "shaders": [],
  "discord_id": "",
  "change_for": null
}