{
  "id": 201977,
  "name": "Garenburg Penitence: The Riflebird",
  "slug": "garenburg-penitence-the-riflebird",
  "year": null,
  "banner_url": "",
  "icon_url": "",
  "coverart": "https://lutris.net/media/igdb/cover_big/co4nft.jpg",
  "platforms": [],
  "provider_games": [
    {
      "name": "Garenburg Penitence: The Riflebird",
      "slug": "garenburg-penitence-the-riflebird",
      "service": "igdb"
    }
  ],
  "aliases": [],
  "shaders": [],
  "discord_id": "",
  "change_for": null
}