{
  "id": 189535,
  "name": "Tom Clancy's Rainbow Six Siege: Operation Health",
  "slug": "tom-clancys-rainbow-six-siege-operation-health",
  "year": 2017,
  "banner_url": "",
  "icon_url": "",
  "coverart": "https://lutris.net/media/igdb/cover_big/co1z3l.jpg",
  "platforms": [
    {
      "name": "Sony Playstation 4"
    },
    {
      "name": "Windows"
    },
    {
      "name": "Xbox One"
    }
  ],
  "provider_games": [
    {
      "name": "Tom Clancy's Rainbow Six Siege: Operation Health",
      "slug": "tom-clancys-rainbow-six-siege-operation-health",
      "service": "igdb"
    }
  ],
  "aliases": [],
  "shaders": [],
  "discord_id": "",
  "change_for": null
}