{
  "id": 96484,
  "name": "Yo-kai Watch: Medal Wars",
  "slug": "yo-kai-watch-medal-wars",
  "year": null,
  "banner_url": "",
  "icon_url": "",
  "coverart": "https://lutris.net/media/igdb/cover_big/co62c8.jpg",
  "platforms": [],
  "provider_games": [
    {
      "name": "Yo-kai Watch: Medal Wars",
      "slug": "yo-kai-watch-medal-wars",
      "service": "igdb"
    }
  ],
  "aliases": [],
  "shaders": [],
  "discord_id": "",
  "change_for": null
}