{
  "id": 17171,
  "name": "BYTEPATH",
  "slug": "bytepath",
  "year": 2018,
  "banner_url": "https://lutris.net/games/banner/bytepath.jpg",
  "icon_url": "https://lutris.net/games/icon/bytepath.png",
  "coverart": "https://lutris.net/media/igdb/cover_big/co3e0i.jpg",
  "platforms": [
    {
      "name": "Linux"
    },
    {
      "name": "Windows"
    }
  ],
  "provider_games": [
    {
      "name": "BYTEPATH",
      "slug": "760330",
      "service": "steam"
    },
    {
      "name": "Bytepath",
      "slug": "bytepath",
      "service": "igdb"
    }
  ],
  "aliases": [],
  "shaders": [],
  "discord_id": "",
  "change_for": null
}