{
  "id": 244544,
  "name": "Over the Top: The World Arm Wrestling Championship",
  "slug": "over-the-top-the-world-arm-wrestling-championship",
  "year": 2011,
  "banner_url": "",
  "icon_url": "",
  "coverart": null,
  "platforms": [
    {
      "name": "Arcade"
    }
  ],
  "provider_games": [
    {
      "name": "Over the Top: The World Arm Wrestling Championship",
      "slug": "over-the-top-the-world-arm-wrestling-championship",
      "service": "igdb"
    }
  ],
  "aliases": [],
  "shaders": [],
  "discord_id": "",
  "change_for": null
}