{
  "id": 85002,
  "name": "Zan Gear",
  "slug": "zan-gear",
  "year": 1990,
  "banner_url": "",
  "icon_url": "",
  "coverart": "https://lutris.net/media/igdb/cover_big/co6yqm.jpg",
  "platforms": [
    {
      "name": "Sega Game Gear"
    }
  ],
  "provider_games": [
    {
      "name": "Zan Gear",
      "slug": "zan-gear",
      "service": "igdb"
    }
  ],
  "aliases": [],
  "shaders": [],
  "discord_id": "",
  "change_for": null
}