{
  "id": 79582,
  "name": "Braveknight",
  "slug": "braveknight",
  "year": null,
  "banner_url": "",
  "icon_url": "",
  "coverart": "https://lutris.net/media/igdb/cover_big/bwnptklemsnh0h2g8lkm.jpg",
  "platforms": [],
  "provider_games": [
    {
      "name": "Braveknight",
      "slug": "braveknight",
      "service": "igdb"
    }
  ],
  "aliases": [],
  "shaders": [],
  "discord_id": "",
  "change_for": null
}