{
  "id": 171787,
  "name": "ibb & obb",
  "slug": "ibb-and-obb",
  "year": 2013,
  "banner_url": "",
  "icon_url": "",
  "coverart": "https://lutris.net/media/igdb/cover_big/co1qu9.jpg",
  "platforms": [
    {
      "name": "Linux"
    },
    {
      "name": "Nintendo Switch"
    },
    {
      "name": "Sony Playstation 3"
    },
    {
      "name": "Windows"
    }
  ],
  "provider_games": [
    {
      "name": "Ibb & Obb",
      "slug": "ibb-and-obb",
      "service": "igdb"
    }
  ],
  "aliases": [],
  "shaders": [],
  "discord_id": "",
  "change_for": null
}