{
  "id": 277515,
  "name": "Soviet Soldier",
  "slug": "soviet-soldier",
  "year": null,
  "banner_url": "",
  "icon_url": "",
  "coverart": "https://lutris.net/media/igdb/cover_big/co7w7t.jpg",
  "platforms": [],
  "provider_games": [
    {
      "name": "Soviet Soldier",
      "slug": "soviet-soldier",
      "service": "igdb"
    }
  ],
  "aliases": [],
  "shaders": [],
  "discord_id": "",
  "change_for": null
}