{
  "id": 13688,
  "name": "James Pond 3: Operation Starfish",
  "slug": "james-pond-3-operation-starfish",
  "year": 1993,
  "banner_url": "https://lutris.net/games/banner/james-pond-3-operation-starfish.jpg",
  "icon_url": "",
  "coverart": "https://lutris.net/media/igdb/cover_big/co2jdw.jpg",
  "platforms": [
    {
      "name": "Amiga"
    },
    {
      "name": "Amiga CD32"
    },
    {
      "name": "Sega Game Gear"
    },
    {
      "name": "Sega Genesis / Mega Drive"
    },
    {
      "name": "Super Nintendo"
    }
  ],
  "provider_games": [
    {
      "name": "James Pond 3: Operation Starfish",
      "slug": "james-pond-3-operation-starfish",
      "service": "igdb"
    }
  ],
  "aliases": [],
  "shaders": [],
  "discord_id": "",
  "change_for": null
}