{
  "id": 32539,
  "game_id": 85853,
  "game_slug": "living-books-the-tortoise-and-the-hare",
  "name": "Living Books - The Tortoise And The Hare",
  "year": null,
  "user": "KeenanW",
  "runner": "scummvm",
  "slug": "living-books-the-tortoise-and-cd",
  "version": "CD",
  "description": "",
  "notes": "",
  "credits": "",
  "created_at": "2022-03-28T00:03:59.686705Z",
  "updated_at": "2023-01-11T07:35:50.857688Z",
  "draft": false,
  "published": true,
  "published_by": null,
  "rating": "",
  "is_playable": null,
  "steamid": null,
  "gogid": null,
  "gogslug": "",
  "humbleid": "",
  "humblestoreid": "",
  "humblestoreid_real": "",
  "script": {
    "files": [
      {
        "game": "N/A:Please select 'tortoise.exe' from the game disc/directory"
      }
    ],
    "game": {
      "game_id": "tortoise",
      "path": "$GAMEDIR"
    },
    "installer": [
      {
        "write_file": {
          "content": "#!/bin/bash\nsrc=$1\ndst=$2\nsrc_path=$(echo \"$1\" | sed -r \"s/(.+)\\/.+/\\1/\")\ncp -avr \"$src_path/.\" \"$dst\"",
          "file": "$CACHE/bulkcopy.sh"
        }
      },
      {
        "chmodx": "$CACHE/bulkcopy.sh"
      },
      {
        "execute": {
          "args": "$game $GAMEDIR",
          "file": "$CACHE/bulkcopy.sh"
        }
      }
    ],
    "scummvm": {
      "aspect": true,
      "fullscreen": true,
      "subtitles": true
    }
  },
  "content": "files:\n- game: N/A:Please select 'tortoise.exe' from the game disc/directory\ngame:\n  game_id: tortoise\n  path: $GAMEDIR\ninstaller:\n- write_file:\n    content: '#!/bin/bash\n\n      src=$1\n\n      dst=$2\n\n      src_path=$(echo \"$1\" | sed -r \"s/(.+)\\/.+/\\1/\")\n\n      cp -avr \"$src_path/.\" \"$dst\"'\n    file: $CACHE/bulkcopy.sh\n- chmodx: $CACHE/bulkcopy.sh\n- execute:\n    args: $game $GAMEDIR\n    file: $CACHE/bulkcopy.sh\nscummvm:\n  aspect: true\n  fullscreen: true\n  subtitles: true\n",
  "discord_id": ""
}