{
  "id": 7436,
  "game_id": 17167,
  "game_slug": "paizuri-university",
  "name": "Paizuri University",
  "year": 2017,
  "user": "t-rex91",
  "runner": "linux",
  "slug": "paizuri-university-itchio",
  "version": "itch.io",
  "description": null,
  "notes": "",
  "credits": "",
  "created_at": "2018-03-04T00:12:49.480824Z",
  "updated_at": "2024-04-03T05:34:37.046585Z",
  "draft": false,
  "published": true,
  "published_by": null,
  "rating": "",
  "is_playable": null,
  "steamid": null,
  "gogid": null,
  "gogslug": "",
  "humbleid": "",
  "humblestoreid": "",
  "humblestoreid_real": "",
  "script": {
    "files": [
      {
        "file1": "N/A:Please select the itch.io archive"
      }
    ],
    "game": {
      "exe": "Paizuri University.x86"
    },
    "installer": [
      {
        "extract": {
          "file": "$file1"
        }
      }
    ]
  },
  "content": "files:\n- file1: N/A:Please select the itch.io archive\ngame:\n  exe: Paizuri University.x86\ninstaller:\n- extract:\n    file: $file1\n",
  "discord_id": ""
}