{
  "id": 287427,
  "name": "Gears of War: E-Day",
  "slug": "gears-of-war-e-day",
  "year": null,
  "banner_url": "",
  "icon_url": "",
  "coverart": "https://lutris.net/media/igdb/cover_big/co8bor.jpg",
  "platforms": [
    {
      "name": "Windows"
    },
    {
      "name": "Xbox Series X|S"
    }
  ],
  "provider_games": [
    {
      "name": "Gears of War: E-Day",
      "slug": "gears-of-war-e-day",
      "service": "igdb"
    }
  ],
  "aliases": [],
  "shaders": [],
  "discord_id": "",
  "change_for": null
}