{
  "id": 57488,
  "name": "C-HUE-B",
  "slug": "c-hue-b",
  "year": null,
  "banner_url": "",
  "icon_url": "",
  "coverart": "https://lutris.net/media/igdb/cover_big/jdwlnbqdu6rm3xeyuwus.jpg",
  "platforms": [],
  "provider_games": [
    {
      "name": "C-Hue-B",
      "slug": "c-hue-b",
      "service": "igdb"
    }
  ],
  "aliases": [],
  "shaders": [],
  "discord_id": "",
  "change_for": null
}