{
  "id": 261707,
  "name": "Five Nights at Freddy's Area 51",
  "slug": "five-nights-at-freddys-area-51",
  "year": 2017,
  "banner_url": "",
  "icon_url": "",
  "coverart": "https://lutris.net/media/igdb/cover_big/co77ay.jpg",
  "platforms": [
    {
      "name": "Android"
    },
    {
      "name": "Windows"
    }
  ],
  "provider_games": [
    {
      "name": "Five Nights at Freddy's Area 51",
      "slug": "five-nights-at-freddys-area-51",
      "service": "igdb"
    }
  ],
  "aliases": [],
  "shaders": [],
  "discord_id": "",
  "change_for": null
}