{
  "id": 170870,
  "name": "My Planet [RTS]",
  "slug": "my-planet-rts",
  "year": null,
  "banner_url": "",
  "icon_url": "",
  "coverart": "https://lutris.net/media/igdb/cover_big/co470h.jpg",
  "platforms": [],
  "provider_games": [
    {
      "name": "My Planet [RTS]",
      "slug": "my-planet-rts",
      "service": "igdb"
    }
  ],
  "aliases": [],
  "shaders": [],
  "discord_id": "",
  "change_for": null
}