{
  "id": 249670,
  "name": "Nine Realms: Revolt",
  "slug": "nine-realms-revolt",
  "year": 2023,
  "banner_url": "",
  "icon_url": "",
  "coverart": "https://lutris.net/media/igdb/cover_big/co6od5.jpg",
  "platforms": [
    {
      "name": "Windows"
    }
  ],
  "provider_games": [
    {
      "name": "Nine Realms: Revolt",
      "slug": "nine-realms-revolt",
      "service": "igdb"
    }
  ],
  "aliases": [],
  "shaders": [],
  "discord_id": "",
  "change_for": null
}