{
  "id": 228583,
  "name": "Episode 1 - Culture Shock",
  "slug": "episode-1-culture-shock",
  "year": null,
  "banner_url": "",
  "icon_url": "",
  "coverart": null,
  "platforms": [],
  "provider_games": [
    {
      "name": "Episode 1 - Culture Shock",
      "slug": "1207663583",
      "service": "gog"
    }
  ],
  "aliases": [],
  "shaders": [],
  "discord_id": "",
  "change_for": null
}