{
  "id": 244144,
  "name": "Goblin Down",
  "slug": "goblin-down",
  "year": null,
  "banner_url": "https://lutris.net/games/banner/goblin-down.jpg",
  "icon_url": "",
  "coverart": "https://lutris.net/media/igdb/cover_big/co6fud.jpg",
  "platforms": [],
  "provider_games": [
    {
      "name": "Goblin Down",
      "slug": "2358490",
      "service": "steam"
    },
    {
      "name": "Goblin Down",
      "slug": "goblin-down",
      "service": "igdb"
    }
  ],
  "aliases": [],
  "shaders": [],
  "discord_id": "",
  "change_for": null
}