{
  "id": 147791,
  "name": "Adventure Time: Finn and Jake's Epic Quest",
  "slug": "adventure-time-finn-and-jakes-epic-quest",
  "year": 2014,
  "banner_url": "",
  "icon_url": "",
  "coverart": "https://lutris.net/media/igdb/cover_big/xzbj3knbitws3gutb1rh.jpg",
  "platforms": [
    {
      "name": "Windows"
    }
  ],
  "provider_games": [
    {
      "name": "Adventure Time: Finn and Jake's Epic Quest",
      "slug": "adventure-time-finn-and-jakes-epic-quest",
      "service": "igdb"
    }
  ],
  "aliases": [],
  "shaders": [],
  "discord_id": "",
  "change_for": null
}