{
  "id": 238238,
  "name": "Dropoff Dealer",
  "slug": "dropoff-dealer",
  "year": null,
  "banner_url": "",
  "icon_url": "",
  "coverart": "https://lutris.net/media/igdb/cover_big/co64kr.jpg",
  "platforms": [],
  "provider_games": [
    {
      "name": "Dropoff Dealer",
      "slug": "dropoff-dealer",
      "service": "igdb"
    }
  ],
  "aliases": [],
  "shaders": [],
  "discord_id": "",
  "change_for": null
}