{
  "id": 134796,
  "name": "Chess++",
  "slug": "chess-plus-plus--1",
  "year": null,
  "banner_url": "",
  "icon_url": "",
  "coverart": "https://lutris.net/media/igdb/cover_big/co3n12.jpg",
  "platforms": [],
  "provider_games": [
    {
      "name": "Chess++",
      "slug": "chess-plus-plus--1",
      "service": "igdb"
    }
  ],
  "aliases": [],
  "shaders": [],
  "discord_id": "",
  "change_for": null
}