{
  "id": 255600,
  "name": "Cells & Serpents",
  "slug": "cells-and-serpents",
  "year": 1983,
  "banner_url": "",
  "icon_url": "",
  "coverart": "https://lutris.net/media/igdb/cover_big/co6ygl.jpg",
  "platforms": [
    {
      "name": "Atari 8-bit"
    },
    {
      "name": "BBC Microcomputer System"
    },
    {
      "name": "Commodore PET"
    },
    {
      "name": "Commodore VIC-20"
    },
    {
      "name": "Dragon 32/64"
    },
    {
      "name": "TRS-80"
    },
    {
      "name": "ZX Spectrum"
    }
  ],
  "provider_games": [
    {
      "name": "Cells & Serpents",
      "slug": "cells-and-serpents",
      "service": "igdb"
    }
  ],
  "aliases": [],
  "shaders": [],
  "discord_id": "",
  "change_for": null
}