{
  "id": 225052,
  "name": "Simple 1500 Series: Vol.15 - The Pachinko",
  "slug": "simple-1500-series-vol-dot-15-the-pachinko",
  "year": 1999,
  "banner_url": "",
  "icon_url": "",
  "coverart": "https://lutris.net/media/igdb/cover_big/co4sua.jpg",
  "platforms": [
    {
      "name": "Sony PlayStation"
    }
  ],
  "provider_games": [
    {
      "name": "Simple 1500 Series: Vol.15 - The Pachinko",
      "slug": "simple-1500-series-vol-dot-15-the-pachinko",
      "service": "igdb"
    }
  ],
  "aliases": [],
  "shaders": [],
  "discord_id": "",
  "change_for": null
}