{
  "id": 254673,
  "name": "Ecosphere",
  "slug": "ecosphere",
  "year": null,
  "banner_url": "",
  "icon_url": "",
  "coverart": "https://lutris.net/media/igdb/cover_big/co6wit.jpg",
  "platforms": [],
  "provider_games": [
    {
      "name": "Ecosphere",
      "slug": "ecosphere",
      "service": "igdb"
    }
  ],
  "aliases": [],
  "shaders": [],
  "discord_id": "",
  "change_for": null
}