{
  "id": 181162,
  "name": "Rock 'n' Roll Adventures",
  "slug": "rock-n-roll-adventures",
  "year": 2007,
  "banner_url": "",
  "icon_url": "",
  "coverart": "https://lutris.net/media/igdb/cover_big/co4aia.jpg",
  "platforms": [
    {
      "name": "Nintendo Wii"
    },
    {
      "name": "Sony PlayStation 2"
    },
    {
      "name": "Windows"
    }
  ],
  "provider_games": [
    {
      "name": "Rock 'n' Roll Adventures",
      "slug": "rock-n-roll-adventures",
      "service": "igdb"
    }
  ],
  "aliases": [],
  "shaders": [],
  "discord_id": "",
  "change_for": null
}