{
  "id": 80878,
  "name": "ADI Junior Helps with Reading: 6/7 Years",
  "slug": "adi-junior-helps-with-reading-6-slash-7-years",
  "year": 1994,
  "banner_url": "",
  "icon_url": "",
  "coverart": "https://lutris.net/media/igdb/cover_big/lgktegiwb67b8prtkq5t.jpg",
  "platforms": [
    {
      "name": "Amiga"
    }
  ],
  "provider_games": [
    {
      "name": "ADI Junior Helps with Reading: 6/7 Years",
      "slug": "adi-junior-helps-with-reading-6-slash-7-years",
      "service": "igdb"
    }
  ],
  "aliases": [],
  "shaders": [],
  "discord_id": "",
  "change_for": null
}