{
  "id": 178610,
  "name": "Enslaved: Odyssey to the West",
  "slug": "enslaved-odyssey-to-the-west",
  "year": 2010,
  "banner_url": "",
  "icon_url": "",
  "coverart": "https://lutris.net/media/igdb/cover_big/co2gko.jpg",
  "platforms": [
    {
      "name": "Sony Playstation 3"
    },
    {
      "name": "Windows"
    },
    {
      "name": "Xbox 360"
    }
  ],
  "provider_games": [
    {
      "name": "Enslaved: Odyssey to the West",
      "slug": "enslaved-odyssey-to-the-west",
      "service": "igdb"
    }
  ],
  "aliases": [],
  "shaders": [],
  "discord_id": "",
  "change_for": null
}