{
  "id": 253780,
  "name": "Jump Mechanic",
  "slug": "jump-mechanic",
  "year": null,
  "banner_url": "",
  "icon_url": "",
  "coverart": "https://lutris.net/media/igdb/cover_big/co6tov.jpg",
  "platforms": [],
  "provider_games": [
    {
      "name": "Jump Mechanic",
      "slug": "jump-mechanic",
      "service": "igdb"
    }
  ],
  "aliases": [],
  "shaders": [],
  "discord_id": "",
  "change_for": null
}