{
  "id": 151118,
  "name": "Z Mutants",
  "slug": "z-mutants",
  "year": null,
  "banner_url": "",
  "icon_url": "",
  "coverart": "https://lutris.net/media/igdb/cover_big/co3l2g.jpg",
  "platforms": [],
  "provider_games": [
    {
      "name": "Z Mutants",
      "slug": "z-mutants",
      "service": "igdb"
    }
  ],
  "aliases": [],
  "shaders": [],
  "discord_id": "",
  "change_for": null
}