{
  "id": 94031,
  "name": "Transit City Touch",
  "slug": "transit-city-touch",
  "year": null,
  "banner_url": "",
  "icon_url": "",
  "coverart": "https://lutris.net/media/igdb/cover_big/k1jt95fecwm4bdy4hdm3.jpg",
  "platforms": [],
  "provider_games": [
    {
      "name": "Transit City Touch",
      "slug": "transit-city-touch",
      "service": "igdb"
    }
  ],
  "aliases": [],
  "shaders": [],
  "discord_id": "",
  "change_for": null
}