{
  "id": 156348,
  "name": "Fallout Shelter Online",
  "slug": "fallout-shelter-online",
  "year": 2019,
  "banner_url": "",
  "icon_url": "",
  "coverart": "https://lutris.net/media/igdb/cover_big/co20qp.jpg",
  "platforms": [],
  "provider_games": [
    {
      "name": "Fallout Shelter Online",
      "slug": "fallout-shelter-online",
      "service": "igdb"
    }
  ],
  "aliases": [],
  "shaders": [],
  "discord_id": "",
  "change_for": null
}