{
  "id": 224002,
  "name": "Legend of Kendor",
  "slug": "legend-of-kendor",
  "year": null,
  "banner_url": "",
  "icon_url": "",
  "coverart": "https://lutris.net/media/igdb/cover_big/co5it7.jpg",
  "platforms": [],
  "provider_games": [
    {
      "name": "Legend of Kendor",
      "slug": "legend-of-kendor",
      "service": "igdb"
    }
  ],
  "aliases": [],
  "shaders": [],
  "discord_id": "",
  "change_for": null
}