{
  "id": 144893,
  "name": "Squishy Sports",
  "slug": "squishy-sports",
  "year": null,
  "banner_url": "",
  "icon_url": "",
  "coverart": "https://lutris.net/media/igdb/cover_big/co39qy.jpg",
  "platforms": [],
  "provider_games": [
    {
      "name": "Squishy Sports",
      "slug": "squishy-sports",
      "service": "igdb"
    }
  ],
  "aliases": [],
  "shaders": [],
  "discord_id": "",
  "change_for": null
}