{
  "id": 264110,
  "name": "Scroll the Pain Away",
  "slug": "scroll-the-pain-away",
  "year": null,
  "banner_url": "",
  "icon_url": "",
  "coverart": "https://lutris.net/media/igdb/cover_big/co7au8.jpg",
  "platforms": [],
  "provider_games": [
    {
      "name": "Scroll the Pain Away",
      "slug": "scroll-the-pain-away",
      "service": "igdb"
    }
  ],
  "aliases": [],
  "shaders": [],
  "discord_id": "",
  "change_for": null
}