{
  "id": 93819,
  "name": "BabyUp: Dinos",
  "slug": "babyup-dinos",
  "year": null,
  "banner_url": "",
  "icon_url": "",
  "coverart": null,
  "platforms": [],
  "provider_games": [
    {
      "name": "BabyUp: Dinos",
      "slug": "babyup-dinos",
      "service": "igdb"
    }
  ],
  "aliases": [],
  "shaders": [],
  "discord_id": "",
  "change_for": null
}