{
  "id": 114083,
  "name": "Summer Sports: Paradise Island",
  "slug": "summer-sports-paradise-island",
  "year": 2008,
  "banner_url": "",
  "icon_url": "",
  "coverart": "https://lutris.net/media/igdb/cover_big/kahgir6bbkepkl3wwlwn.jpg",
  "platforms": [
    {
      "name": "Nintendo Wii"
    }
  ],
  "provider_games": [
    {
      "name": "Summer Sports: Paradise Island",
      "slug": "summer-sports-paradise-island",
      "service": "igdb"
    }
  ],
  "aliases": [],
  "shaders": [],
  "discord_id": "",
  "change_for": null
}