{
  "id": 253619,
  "name": "One on One: Dr. J vs. Larry Bird",
  "slug": "one-on-one-dr-j-vs-larry-bird",
  "year": 1983,
  "banner_url": "",
  "icon_url": "",
  "coverart": null,
  "platforms": [
    {
      "name": "Amiga"
    },
    {
      "name": "Apple II"
    },
    {
      "name": "Atari 8-bit"
    },
    {
      "name": "Colecovision"
    },
    {
      "name": "Commodore C64/128"
    },
    {
      "name": "Mac"
    },
    {
      "name": "TRS-80 Color Computer"
    },
    {
      "name": "ZX Spectrum"
    }
  ],
  "provider_games": [
    {
      "name": "One on One: Dr. J vs. Larry Bird",
      "slug": "one-on-one-dr-j-vs-larry-bird",
      "service": "igdb"
    }
  ],
  "aliases": [],
  "shaders": [],
  "discord_id": "",
  "change_for": null
}