{
  "id": 284104,
  "name": "Kingdom of Arcana",
  "slug": "kingdom-of-arcana",
  "year": 2024,
  "banner_url": "",
  "icon_url": "",
  "coverart": null,
  "platforms": [
    {
      "name": "Mac"
    },
    {
      "name": "Windows"
    }
  ],
  "provider_games": [
    {
      "name": "Kingdom of Arcana",
      "slug": "kingdom-of-arcana",
      "service": "igdb"
    }
  ],
  "aliases": [],
  "shaders": [],
  "discord_id": "",
  "change_for": null
}