{
  "id": 178012,
  "name": "Daffy Duck in Hollywood",
  "slug": "daffy-duck-in-hollywood",
  "year": 1993,
  "banner_url": "",
  "icon_url": "",
  "coverart": "https://lutris.net/media/igdb/cover_big/l3k6u3ne1xmgu1mhjigt.jpg",
  "platforms": [
    {
      "name": "Sega Game Gear"
    },
    {
      "name": "Sega Genesis / Mega Drive"
    },
    {
      "name": "Sega Master System"
    }
  ],
  "provider_games": [
    {
      "name": "Daffy Duck in Hollywood",
      "slug": "daffy-duck-in-hollywood",
      "service": "igdb"
    }
  ],
  "aliases": [],
  "shaders": [],
  "discord_id": "",
  "change_for": null
}