{
  "id": 165789,
  "name": "Super Astrovade",
  "slug": "super-astrovade",
  "year": null,
  "banner_url": "",
  "icon_url": "",
  "coverart": "https://lutris.net/media/igdb/cover_big/co42ml.jpg",
  "platforms": [],
  "provider_games": [
    {
      "name": "Super Astrovade",
      "slug": "super-astrovade",
      "service": "igdb"
    }
  ],
  "aliases": [],
  "shaders": [],
  "discord_id": "",
  "change_for": null
}