{
  "id": 299783,
  "name": "Multiplayer Mongolians",
  "slug": "multiplayer-mongolians",
  "year": null,
  "banner_url": "",
  "icon_url": "",
  "coverart": "https://lutris.net/media/igdb/cover_big/co8z1u.jpg",
  "platforms": [],
  "provider_games": [
    {
      "name": "Multiplayer Mongolians",
      "slug": "multiplayer-mongolians",
      "service": "igdb"
    }
  ],
  "aliases": [],
  "shaders": [],
  "discord_id": "",
  "change_for": null
}