{
  "id": 196222,
  "name": "Sound Voltex: Ultimate Mobile",
  "slug": "sound-voltex-ultimate-mobile",
  "year": null,
  "banner_url": "",
  "icon_url": "",
  "coverart": null,
  "platforms": [],
  "provider_games": [
    {
      "name": "Sound Voltex: Ultimate Mobile",
      "slug": "sound-voltex-ultimate-mobile",
      "service": "igdb"
    }
  ],
  "aliases": [],
  "shaders": [],
  "discord_id": "",
  "change_for": null
}