{
  "id": 51278,
  "name": "Biathlon 2004",
  "slug": "biathlon-2004",
  "year": null,
  "banner_url": "",
  "icon_url": "",
  "coverart": null,
  "platforms": [],
  "provider_games": [
    {
      "name": "Biathlon 2004",
      "slug": "biathlon-2004",
      "service": "igdb"
    }
  ],
  "aliases": [],
  "shaders": [],
  "discord_id": "",
  "change_for": null
}