{
  "id": 77392,
  "name": "Rave Master: Special Attack Force!",
  "slug": "rave-master-special-attack-force",
  "year": 2002,
  "banner_url": "",
  "icon_url": "",
  "coverart": "https://lutris.net/media/igdb/cover_big/edqeifhwqynkewxomgq9.jpg",
  "platforms": [
    {
      "name": "Nintendo Game Boy Advance"
    }
  ],
  "provider_games": [
    {
      "name": "Rave Master: Special Attack Force!",
      "slug": "rave-master-special-attack-force",
      "service": "igdb"
    }
  ],
  "aliases": [],
  "shaders": [],
  "discord_id": "",
  "change_for": null
}