{
  "id": 7164,
  "name": "Kick-Ass 2",
  "slug": "kick-ass-2",
  "year": 2014,
  "banner_url": "https://lutris.net/games/banner/kick-ass-2.jpg",
  "icon_url": "https://lutris.net/games/icon/kick-ass-2.png",
  "coverart": "https://lutris.net/media/igdb/cover_big/co1ohe.jpg",
  "platforms": [
    {
      "name": "Sony Playstation 3"
    },
    {
      "name": "Windows"
    },
    {
      "name": "Xbox 360"
    }
  ],
  "provider_games": [
    {
      "name": "Kick-Ass 2",
      "slug": "304170",
      "service": "steam"
    },
    {
      "name": "Kick-Ass 2",
      "slug": "kick-ass-2",
      "service": "igdb"
    }
  ],
  "aliases": [],
  "shaders": [],
  "discord_id": "",
  "change_for": null
}