{
  "id": 218683,
  "name": "Table Ball",
  "slug": "table-ball",
  "year": null,
  "banner_url": "",
  "icon_url": "",
  "coverart": "https://lutris.net/media/igdb/cover_big/co5jc0.jpg",
  "platforms": [],
  "provider_games": [
    {
      "name": "Table Ball",
      "slug": "table-ball",
      "service": "igdb"
    }
  ],
  "aliases": [],
  "shaders": [],
  "discord_id": "",
  "change_for": null
}