{
  "id": 304063,
  "name": "Pure Pure Pero Pero Princess",
  "slug": "pure-pure-pero-pero-princess",
  "year": 2024,
  "banner_url": "",
  "icon_url": "",
  "coverart": null,
  "platforms": [],
  "provider_games": [
    {
      "name": "Pure Pure Pero Pero Princess",
      "slug": "2056576643",
      "service": "gog"
    }
  ],
  "aliases": [],
  "shaders": [],
  "discord_id": "",
  "change_for": null
}