{
  "id": 273983,
  "name": "Lo-Fi Haiku: Coffee and Chill",
  "slug": "lo-fi-haiku-coffee-and-chill",
  "year": 2024,
  "banner_url": "",
  "icon_url": "",
  "coverart": "https://lutris.net/media/igdb/cover_big/co7s90.jpg",
  "platforms": [
    {
      "name": "Nintendo Switch"
    }
  ],
  "provider_games": [
    {
      "name": "Lo-Fi Haiku: Coffee and Chill",
      "slug": "lo-fi-haiku-coffee-and-chill",
      "service": "igdb"
    }
  ],
  "aliases": [],
  "shaders": [],
  "discord_id": "",
  "change_for": null
}