{
  "id": 225,
  "game_id": 1234,
  "game_slug": "bridge-constructor",
  "name": "Bridge Constructor",
  "year": 2013,
  "user": "strider",
  "runner": "steam",
  "slug": "bridge-constructor-steam",
  "version": "steam",
  "description": null,
  "notes": "",
  "credits": "",
  "created_at": "2013-12-19T23:56:18.970000Z",
  "updated_at": "2013-12-19T23:56:18.970000Z",
  "draft": false,
  "published": true,
  "published_by": null,
  "rating": "",
  "is_playable": null,
  "steamid": 250460,
  "gogid": 1089398960,
  "gogslug": "bridge_constructor",
  "humbleid": "bridgeconstructor",
  "humblestoreid": "bridgeconstructor",
  "humblestoreid_real": "bridge-constructor",
  "script": {
    "game": {
      "appid": 250460
    }
  },
  "content": "game:\n  appid: 250460\n",
  "discord_id": "425442642680348692"
}