{
  "id": 180464,
  "name": "My Cabin",
  "slug": "my-cabin",
  "year": null,
  "banner_url": "",
  "icon_url": "",
  "coverart": null,
  "platforms": [],
  "provider_games": [
    {
      "name": "My Cabin",
      "slug": "my-cabin",
      "service": "igdb"
    }
  ],
  "aliases": [],
  "shaders": [],
  "discord_id": "",
  "change_for": null
}