{
  "id": 103255,
  "name": "Midnight Calling: Anabel",
  "slug": "midnight-calling-anabel",
  "year": 2016,
  "banner_url": "",
  "icon_url": "",
  "coverart": "https://lutris.net/media/igdb/cover_big/czwbqes8ubtfrqjjdzww.jpg",
  "platforms": [],
  "provider_games": [
    {
      "name": "Midnight Calling: Anabel",
      "slug": "midnight-calling-anabel",
      "service": "igdb"
    }
  ],
  "aliases": [],
  "shaders": [],
  "discord_id": "",
  "change_for": null
}