{
  "id": 77885,
  "name": "Kyoukaisen no Horizon Portable",
  "slug": "kyoukaisen-no-horizon-portable",
  "year": null,
  "banner_url": "",
  "icon_url": "",
  "coverart": "https://lutris.net/media/igdb/cover_big/co4p6c.jpg",
  "platforms": [],
  "provider_games": [
    {
      "name": "Kyoukaisen no Horizon Portable",
      "slug": "kyoukaisen-no-horizon-portable",
      "service": "igdb"
    }
  ],
  "aliases": [],
  "shaders": [],
  "discord_id": "",
  "change_for": null
}