{
  "id": 206369,
  "name": "Midori no Makibaoo",
  "slug": "midori-no-makibaoo",
  "year": null,
  "banner_url": "",
  "icon_url": "",
  "coverart": "https://lutris.net/media/igdb/cover_big/co5vem.jpg",
  "platforms": [
    {
      "name": "Game Boy"
    }
  ],
  "provider_games": [
    {
      "name": "Midori no Makibaoo",
      "slug": "midori-no-makibaoo",
      "service": "igdb"
    }
  ],
  "aliases": [],
  "shaders": [],
  "discord_id": "",
  "change_for": null
}