{
  "id": 184121,
  "name": "Pretend Cars Racing",
  "slug": "pretend-cars-racing",
  "year": null,
  "banner_url": "",
  "icon_url": "",
  "coverart": "https://lutris.net/media/igdb/cover_big/co6484.jpg",
  "platforms": [],
  "provider_games": [
    {
      "name": "Pretend Cars Racing",
      "slug": "pretend-cars-racing",
      "service": "igdb"
    }
  ],
  "aliases": [],
  "shaders": [],
  "discord_id": "",
  "change_for": null
}