{
  "id": 34019,
  "name": "Escape Kids",
  "slug": "escape-kids",
  "year": 1991,
  "banner_url": "",
  "icon_url": "https://lutris.net/games/icon/escape-kids.png",
  "coverart": "https://lutris.net/media/igdb/cover_big/co4q6p.jpg",
  "platforms": [
    {
      "name": "Arcade"
    }
  ],
  "provider_games": [
    {
      "name": "Escape Kids",
      "slug": "esckids",
      "service": "mame"
    },
    {
      "name": "Escape Kids",
      "slug": "escape-kids",
      "service": "igdb"
    }
  ],
  "aliases": [],
  "shaders": [],
  "discord_id": "",
  "change_for": null
}