{
  "id": 223220,
  "name": "Hello Kitty: Carrot Story",
  "slug": "hello-kitty-carrot-story",
  "year": null,
  "banner_url": "",
  "icon_url": "",
  "coverart": "https://lutris.net/media/igdb/cover_big/co4wj5.jpg",
  "platforms": [],
  "provider_games": [
    {
      "name": "Hello Kitty: Carrot Story",
      "slug": "hello-kitty-carrot-story",
      "service": "igdb"
    }
  ],
  "aliases": [],
  "shaders": [],
  "discord_id": "",
  "change_for": null
}