{
  "id": 276695,
  "name": "Hulzuyot: Horror Game",
  "slug": "hulzuyot-horror-game",
  "year": null,
  "banner_url": "",
  "icon_url": "",
  "coverart": "https://lutris.net/media/igdb/cover_big/co8grj.jpg",
  "platforms": [],
  "provider_games": [
    {
      "name": "Hulzuyot: Horror Game",
      "slug": "hulzuyot-horror-game",
      "service": "igdb"
    }
  ],
  "aliases": [],
  "shaders": [],
  "discord_id": "",
  "change_for": null
}