{
  "id": 222448,
  "name": "The Patient: After Hours",
  "slug": "the-patient-after-hours",
  "year": null,
  "banner_url": "",
  "icon_url": "",
  "coverart": "https://lutris.net/media/igdb/cover_big/co5n9y.jpg",
  "platforms": [],
  "provider_games": [
    {
      "name": "The Patient: After Hours",
      "slug": "the-patient-after-hours",
      "service": "igdb"
    }
  ],
  "aliases": [],
  "shaders": [],
  "discord_id": "",
  "change_for": null
}