{
  "id": 40645,
  "name": "Ultimate Ski Jumping 2020",
  "slug": "ultimate-ski-jumping-2020",
  "year": 2020,
  "banner_url": "https://lutris.net/games/banner/ultimate-ski-jumping-2020.jpg",
  "icon_url": "https://lutris.net/games/icon/ultimate-ski-jumping-2020.png",
  "coverart": "https://lutris.net/media/igdb/cover_big/co21qp.jpg",
  "platforms": [
    {
      "name": "Nintendo Switch"
    },
    {
      "name": "Sony Playstation 4"
    },
    {
      "name": "Windows"
    },
    {
      "name": "Xbox One"
    }
  ],
  "provider_games": [
    {
      "name": "Ultimate Ski Jumping 2020",
      "slug": "1245470",
      "service": "steam"
    },
    {
      "name": "Ultimate Ski Jumping 2020",
      "slug": "ultimate-ski-jumping-2020",
      "service": "igdb"
    },
    {
      "name": "Ultimate Ski Jumping 2020",
      "slug": "2146969144",
      "service": "gog"
    }
  ],
  "aliases": [],
  "shaders": [],
  "discord_id": "",
  "change_for": null
}