{
  "id": 124814,
  "name": "小林正雪复仇之密室重制版",
  "slug": "xiao-lin-zheng-xue-fu-chou-zhi-mi-shi-zhong-zhi-ban",
  "year": null,
  "banner_url": "",
  "icon_url": "",
  "coverart": "https://lutris.net/media/igdb/cover_big/co34bv.jpg",
  "platforms": [],
  "provider_games": [
    {
      "name": "小林正雪复仇之密室重制版",
      "slug": "xiao-lin-zheng-xue-fu-chou-zhi-mi-shi-zhong-zhi-ban",
      "service": "igdb"
    }
  ],
  "aliases": [],
  "shaders": [],
  "discord_id": "",
  "change_for": null
}