{
  "id": 85683,
  "name": "Ochaken Kururin: Honwaka Puzzle de Ho~ttoshiyou?",
  "slug": "ochaken-kururin-honwaka-puzzle-de-ho-ttoshiyou",
  "year": 2004,
  "banner_url": "",
  "icon_url": "",
  "coverart": null,
  "platforms": [
    {
      "name": "Nintendo Game Boy Advance"
    }
  ],
  "provider_games": [
    {
      "name": "Ochaken Kururin: Honwaka Puzzle de Ho~ttoshiyou?",
      "slug": "ochaken-kururin-honwaka-puzzle-de-ho-ttoshiyou",
      "service": "igdb"
    }
  ],
  "aliases": [],
  "shaders": [],
  "discord_id": "",
  "change_for": null
}