{
  "id": 203230,
  "name": "Walk with the Living",
  "slug": "walk-with-the-living",
  "year": null,
  "banner_url": "",
  "icon_url": "",
  "coverart": "https://lutris.net/media/igdb/cover_big/co4h8q.jpg",
  "platforms": [],
  "provider_games": [
    {
      "name": "Walk with the Living",
      "slug": "walk-with-the-living",
      "service": "igdb"
    }
  ],
  "aliases": [],
  "shaders": [],
  "discord_id": "",
  "change_for": null
}