{
  "id": 179975,
  "name": "A Guidebook of Babel",
  "slug": "a-guidebook-of-babel",
  "year": 2022,
  "banner_url": "https://lutris.net/games/banner/a-guidebook-of-babel.jpg",
  "icon_url": "",
  "coverart": "https://lutris.net/media/igdb/cover_big/co323o.jpg",
  "platforms": [
    {
      "name": "Mac"
    },
    {
      "name": "Windows"
    }
  ],
  "provider_games": [
    {
      "name": "A Guidebook of Babel",
      "slug": "a-guidebook-of-babel",
      "service": "igdb"
    }
  ],
  "aliases": [],
  "shaders": [],
  "discord_id": "",
  "change_for": null
}