{
  "id": 35930,
  "name": "Star Jacker",
  "slug": "star-jacker",
  "year": 1983,
  "banner_url": "",
  "icon_url": "https://lutris.net/games/icon/star-jacker.png",
  "coverart": "https://lutris.net/media/igdb/cover_big/s1bujnsjfq5tbrkouobj.jpg",
  "platforms": [
    {
      "name": "Arcade"
    },
    {
      "name": "SG-1000"
    }
  ],
  "provider_games": [
    {
      "name": "Star Jacker",
      "slug": "starjack",
      "service": "mame"
    },
    {
      "name": "Star Jacker",
      "slug": "star-jacker",
      "service": "igdb"
    }
  ],
  "aliases": [],
  "shaders": [],
  "discord_id": "",
  "change_for": null
}