{
  "id": 195793,
  "name": "Dungeon Adventurer",
  "slug": "dungeon-adventurer",
  "year": null,
  "banner_url": "",
  "icon_url": "",
  "coverart": "https://lutris.net/media/igdb/cover_big/co4o4l.jpg",
  "platforms": [],
  "provider_games": [
    {
      "name": "Dungeon Adventurer",
      "slug": "dungeon-adventurer",
      "service": "igdb"
    }
  ],
  "aliases": [],
  "shaders": [],
  "discord_id": "",
  "change_for": null
}