{
  "id": 223004,
  "name": "Jump Heading",
  "slug": "jump-heading",
  "year": 2021,
  "banner_url": "",
  "icon_url": "",
  "coverart": "https://lutris.net/media/igdb/cover_big/co4x6g.jpg",
  "platforms": [],
  "provider_games": [
    {
      "name": "Jump Heading",
      "slug": "jump-heading",
      "service": "igdb"
    }
  ],
  "aliases": [],
  "shaders": [],
  "discord_id": "",
  "change_for": null
}