{
  "id": 104985,
  "name": "The King of Fighters: NESTS Hen",
  "slug": "the-king-of-fighters-nests-hen",
  "year": null,
  "banner_url": "",
  "icon_url": "",
  "coverart": "https://lutris.net/media/igdb/cover_big/co2rmo.jpg",
  "platforms": [],
  "provider_games": [
    {
      "name": "The King of Fighters: NESTS Hen",
      "slug": "the-king-of-fighters-nests-hen",
      "service": "igdb"
    }
  ],
  "aliases": [],
  "shaders": [],
  "discord_id": "",
  "change_for": null
}