{
  "id": 3402,
  "name": "The Sacred Tears TRUE",
  "slug": "the-sacred-tears-true",
  "year": 2006,
  "banner_url": "https://lutris.net/games/banner/the-sacred-tears-true.jpg",
  "icon_url": "https://lutris.net/games/icon/the-sacred-tears-true.png",
  "coverart": "https://lutris.net/media/igdb/cover_big/co442u.jpg",
  "platforms": [
    {
      "name": "Windows"
    }
  ],
  "provider_games": [
    {
      "name": "The Sacred Tears TRUE",
      "slug": "316840",
      "service": "steam"
    },
    {
      "name": "The Sacred Tears True",
      "slug": "the-sacred-tears-true",
      "service": "igdb"
    }
  ],
  "aliases": [],
  "shaders": [],
  "discord_id": "504077161246883850",
  "change_for": null
}