{
  "id": 24863,
  "name": "2000:1: A Space Felony",
  "slug": "20001-a-space-felony",
  "year": null,
  "banner_url": "https://lutris.net/games/banner/20001-a-space-felony.jpg",
  "icon_url": "",
  "coverart": null,
  "platforms": [
    {
      "name": "Windows"
    }
  ],
  "provider_games": [],
  "aliases": [],
  "shaders": [],
  "discord_id": "",
  "change_for": null
}