{
  "id": 3239,
  "name": "Mount Your Friends",
  "slug": "mount-your-friends",
  "year": 2013,
  "banner_url": "https://lutris.net/games/banner/mount-your-friends.jpg",
  "icon_url": "https://lutris.net/games/icon/mount-your-friends.png",
  "coverart": "https://lutris.net/media/igdb/cover_big/co1qry.jpg",
  "platforms": [
    {
      "name": "Windows"
    },
    {
      "name": "Xbox 360"
    }
  ],
  "provider_games": [
    {
      "name": "Mount Your Friends",
      "slug": "296470",
      "service": "steam"
    },
    {
      "name": "Mount Your Friends",
      "slug": "mount-your-friends",
      "service": "igdb"
    }
  ],
  "aliases": [],
  "shaders": [],
  "discord_id": "446105070057029663",
  "change_for": null
}