{
  "id": 54347,
  "name": "Behind Enemy Lines",
  "slug": "behind-enemy-lines",
  "year": 1997,
  "banner_url": "",
  "icon_url": "",
  "coverart": "https://lutris.net/media/igdb/cover_big/co4xd2.jpg",
  "platforms": [],
  "provider_games": [
    {
      "name": "Behind Enemy Lines",
      "slug": "behind-enemy-lines",
      "service": "igdb"
    }
  ],
  "aliases": [],
  "shaders": [],
  "discord_id": "",
  "change_for": null
}