{
  "id": 212146,
  "name": "One Last Try",
  "slug": "one-last-try",
  "year": null,
  "banner_url": "",
  "icon_url": "",
  "coverart": "https://lutris.net/media/igdb/cover_big/co5ey7.jpg",
  "platforms": [],
  "provider_games": [
    {
      "name": "One Last Try",
      "slug": "one-last-try",
      "service": "igdb"
    }
  ],
  "aliases": [],
  "shaders": [],
  "discord_id": "",
  "change_for": null
}