{
  "id": 169868,
  "name": "Function",
  "slug": "function",
  "year": null,
  "banner_url": "",
  "icon_url": "",
  "coverart": "https://lutris.net/media/igdb/cover_big/co466a.jpg",
  "platforms": [],
  "provider_games": [
    {
      "name": "Function",
      "slug": "function",
      "service": "igdb"
    }
  ],
  "aliases": [],
  "shaders": [],
  "discord_id": "",
  "change_for": null
}