{
  "id": 69606,
  "name": "Hidden Object: The Graveyard",
  "slug": "hidden-object-the-graveyard",
  "year": null,
  "banner_url": "",
  "icon_url": "",
  "coverart": null,
  "platforms": [],
  "provider_games": [
    {
      "name": "Hidden Object: The Graveyard",
      "slug": "hidden-object-the-graveyard",
      "service": "igdb"
    }
  ],
  "aliases": [],
  "shaders": [],
  "discord_id": "",
  "change_for": null
}