{
  "id": 104260,
  "name": "Crackle Cradle",
  "slug": "crackle-cradle",
  "year": null,
  "banner_url": "",
  "icon_url": "",
  "coverart": "https://lutris.net/media/igdb/cover_big/co1n6g.jpg",
  "platforms": [],
  "provider_games": [
    {
      "name": "Crackle Cradle",
      "slug": "crackle-cradle",
      "service": "igdb"
    }
  ],
  "aliases": [],
  "shaders": [],
  "discord_id": "",
  "change_for": null
}