{
  "id": 49055,
  "name": "Final Fantasy XIII: Limited Collector's Edition",
  "slug": "final-fantasy-xiii-limited-collectors-edition",
  "year": 2010,
  "banner_url": "",
  "icon_url": "",
  "coverart": "https://lutris.net/media/igdb/cover_big/co1vnf.jpg",
  "platforms": [
    {
      "name": "Sony Playstation 3"
    }
  ],
  "provider_games": [
    {
      "name": "Final Fantasy XIII: Limited Collector's Edition",
      "slug": "final-fantasy-xiii-limited-collectors-edition",
      "service": "igdb"
    }
  ],
  "aliases": [],
  "shaders": [],
  "discord_id": "",
  "change_for": null
}