{
  "id": 184003,
  "name": "Dragon Ball Universe",
  "slug": "dragon-ball-universe",
  "year": null,
  "banner_url": "",
  "icon_url": "",
  "coverart": null,
  "platforms": [],
  "provider_games": [
    {
      "name": "Dragon Ball Universe",
      "slug": "dragon-ball-universe",
      "service": "igdb"
    }
  ],
  "aliases": [],
  "shaders": [],
  "discord_id": "",
  "change_for": null
}