{
  "id": 175557,
  "name": "David Crane's A Boy and His Blob: Trouble on Blobolonia",
  "slug": "david-crane-s-a-boy-and-his-blob-trouble-on-blobolonia",
  "year": 2009,
  "banner_url": "",
  "icon_url": "",
  "coverart": "https://lutris.net/media/igdb/cover_big/co48wg.jpg",
  "platforms": [
    {
      "name": "Nintendo Wii"
    }
  ],
  "provider_games": [
    {
      "name": "David Crane's A Boy and His Blob: Trouble on Blobolonia",
      "slug": "david-crane-s-a-boy-and-his-blob-trouble-on-blobolonia",
      "service": "igdb"
    }
  ],
  "aliases": [],
  "shaders": [],
  "discord_id": "",
  "change_for": null
}