{
  "id": 163825,
  "name": "Samsara",
  "slug": "samsara--2",
  "year": null,
  "banner_url": "",
  "icon_url": "",
  "coverart": "https://lutris.net/media/igdb/cover_big/co40rm.jpg",
  "platforms": [],
  "provider_games": [
    {
      "name": "Samsara",
      "slug": "samsara--2",
      "service": "igdb"
    }
  ],
  "aliases": [],
  "shaders": [],
  "discord_id": "",
  "change_for": null
}