{
  "id": 205291,
  "name": "F1 2022",
  "slug": "f1-2022",
  "year": 2022,
  "banner_url": "https://lutris.net/games/banner/f1-2022.jpg",
  "icon_url": "",
  "coverart": null,
  "platforms": [
    {
      "name": "Windows"
    }
  ],
  "provider_games": [],
  "aliases": [],
  "shaders": [],
  "discord_id": "",
  "change_for": null
}