{
  "id": 110976,
  "name": "Zero Divide",
  "slug": "zero-divide",
  "year": 1994,
  "banner_url": "",
  "icon_url": "",
  "coverart": "https://lutris.net/media/igdb/cover_big/awnu3lhjy9ekcf5zp8dn.jpg",
  "platforms": [
    {
      "name": "Sony PlayStation"
    },
    {
      "name": "Sony Playstation 3"
    },
    {
      "name": "Sony PSP"
    },
    {
      "name": "Windows"
    }
  ],
  "provider_games": [
    {
      "name": "Zero Divide",
      "slug": "zero-divide",
      "service": "igdb"
    }
  ],
  "aliases": [],
  "shaders": [],
  "discord_id": "",
  "change_for": null
}