{
  "id": 263614,
  "name": "Sonic Rush Adventure Flash",
  "slug": "sonic-rush-adventure-flash",
  "year": 2007,
  "banner_url": "",
  "icon_url": "",
  "coverart": "https://lutris.net/media/igdb/cover_big/co79j7.jpg",
  "platforms": [
    {
      "name": "Browser"
    }
  ],
  "provider_games": [
    {
      "name": "Sonic Rush Adventure Flash",
      "slug": "sonic-rush-adventure-flash",
      "service": "igdb"
    }
  ],
  "aliases": [],
  "shaders": [],
  "discord_id": "",
  "change_for": null
}