{
  "id": 12532,
  "name": "Neighborhorde",
  "slug": "neighborhorde",
  "year": 2017,
  "banner_url": "https://lutris.net/games/banner/neighborhorde.jpg",
  "icon_url": "https://lutris.net/games/icon/neighborhorde.png",
  "coverart": "https://lutris.net/media/igdb/cover_big/pwuhzfulgbt2s3z1njtr.jpg",
  "platforms": [
    {
      "name": "Mac"
    },
    {
      "name": "Windows"
    }
  ],
  "provider_games": [
    {
      "name": "Neighborhorde",
      "slug": "446760",
      "service": "steam"
    },
    {
      "name": "Neighborhorde",
      "slug": "neighborhorde",
      "service": "igdb"
    }
  ],
  "aliases": [],
  "shaders": [],
  "discord_id": "",
  "change_for": null
}