{
  "id": 302140,
  "name": "One Girl Army",
  "slug": "one-girl-army",
  "year": 2005,
  "banner_url": "",
  "icon_url": "",
  "coverart": null,
  "platforms": [
    {
      "name": "Windows"
    }
  ],
  "provider_games": [
    {
      "name": "One Girl Army",
      "slug": "one-girl-army",
      "service": "igdb"
    }
  ],
  "aliases": [],
  "shaders": [],
  "discord_id": "",
  "change_for": null
}