{
  "id": 91893,
  "name": "Garbage Truck: Bulky Trash Pick Up",
  "slug": "garbage-truck-bulky-trash-pick-up",
  "year": null,
  "banner_url": "",
  "icon_url": "",
  "coverart": null,
  "platforms": [],
  "provider_games": [
    {
      "name": "Garbage Truck: Bulky Trash Pick Up",
      "slug": "garbage-truck-bulky-trash-pick-up",
      "service": "igdb"
    }
  ],
  "aliases": [],
  "shaders": [],
  "discord_id": "",
  "change_for": null
}