{
  "id": 66556,
  "name": "The Arrival",
  "slug": "the-arrival",
  "year": null,
  "banner_url": "",
  "icon_url": "",
  "coverart": "https://lutris.net/media/igdb/cover_big/co1kpg.jpg",
  "platforms": [],
  "provider_games": [
    {
      "name": "The Arrival",
      "slug": "the-arrival",
      "service": "igdb"
    }
  ],
  "aliases": [],
  "shaders": [],
  "discord_id": "",
  "change_for": null
}