{
  "id": 2401,
  "name": "Broforce",
  "slug": "broforce",
  "year": 2015,
  "banner_url": "https://lutris.net/games/banner/broforce.jpg",
  "icon_url": "https://lutris.net/games/icon/broforce.png",
  "coverart": "https://lutris.net/media/igdb/cover_big/co28vv.jpg",
  "platforms": [
    {
      "name": "Linux"
    },
    {
      "name": "Mac"
    },
    {
      "name": "Nintendo Switch"
    },
    {
      "name": "Sony Playstation 4"
    },
    {
      "name": "Windows"
    }
  ],
  "provider_games": [
    {
      "name": "Broforce",
      "slug": "1470490225",
      "service": "gog"
    },
    {
      "name": "Broforce",
      "slug": "274190",
      "service": "steam"
    },
    {
      "name": "Broforce",
      "slug": "broforce",
      "service": "igdb"
    }
  ],
  "aliases": [],
  "shaders": [],
  "discord_id": "406645260987662366",
  "change_for": null
}