{
  "id": 199842,
  "name": "Peak Darkness",
  "slug": "peak-darkness",
  "year": null,
  "banner_url": "",
  "icon_url": "",
  "coverart": "https://lutris.net/media/igdb/cover_big/co4fby.jpg",
  "platforms": [],
  "provider_games": [
    {
      "name": "Peak Darkness",
      "slug": "peak-darkness",
      "service": "igdb"
    }
  ],
  "aliases": [],
  "shaders": [],
  "discord_id": "",
  "change_for": null
}