{
  "id": 252253,
  "name": "Rhythm Hell",
  "slug": "rhythm-hell",
  "year": 2023,
  "banner_url": "",
  "icon_url": "",
  "coverart": "https://lutris.net/media/igdb/cover_big/co6s2e.jpg",
  "platforms": [
    {
      "name": "Browser"
    },
    {
      "name": "Mac"
    },
    {
      "name": "Windows"
    }
  ],
  "provider_games": [
    {
      "name": "Rhythm Hell",
      "slug": "rhythm-hell",
      "service": "igdb"
    }
  ],
  "aliases": [],
  "shaders": [],
  "discord_id": "",
  "change_for": null
}