{
  "id": 89698,
  "name": "Timmy's Kindergarten Adventure",
  "slug": "timmys-kindergarten-adventure",
  "year": 2011,
  "banner_url": "",
  "icon_url": "",
  "coverart": "https://lutris.net/media/igdb/cover_big/s1k511ica1nsfnumtoic.jpg",
  "platforms": [],
  "provider_games": [
    {
      "name": "Timmy's Kindergarten Adventure",
      "slug": "timmys-kindergarten-adventure",
      "service": "igdb"
    }
  ],
  "aliases": [],
  "shaders": [],
  "discord_id": "",
  "change_for": null
}