{
  "id": 291103,
  "name": "UFO Enemy Known",
  "slug": "ufo-enemy-known",
  "year": null,
  "banner_url": "",
  "icon_url": "",
  "coverart": "https://lutris.net/media/igdb/cover_big/co8l6t.jpg",
  "platforms": [],
  "provider_games": [
    {
      "name": "UFO Enemy Known",
      "slug": "ufo-enemy-known",
      "service": "igdb"
    }
  ],
  "aliases": [],
  "shaders": [],
  "discord_id": "",
  "change_for": null
}