{
  "id": 75558,
  "name": "Family Game Pack",
  "slug": "family-game-pack",
  "year": 2000,
  "banner_url": "",
  "icon_url": "",
  "coverart": "https://lutris.net/media/igdb/cover_big/co20bf.jpg",
  "platforms": [
    {
      "name": "Sony PlayStation"
    }
  ],
  "provider_games": [
    {
      "name": "Family Game Pack",
      "slug": "family-game-pack",
      "service": "igdb"
    }
  ],
  "aliases": [],
  "shaders": [],
  "discord_id": "",
  "change_for": null
}