{
  "id": 155592,
  "name": "Penalty Shoot-Out Soccer: 2010 World Champion",
  "slug": "penalty-shoot-out-soccer-2010-world-champion",
  "year": 2010,
  "banner_url": "",
  "icon_url": "",
  "coverart": null,
  "platforms": [],
  "provider_games": [
    {
      "name": "Penalty Shoot-Out Soccer: 2010 World Champion",
      "slug": "penalty-shoot-out-soccer-2010-world-champion",
      "service": "igdb"
    }
  ],
  "aliases": [],
  "shaders": [],
  "discord_id": "",
  "change_for": null
}