{
  "id": 183135,
  "name": "13 Jellyfish",
  "slug": "13-jellyfish",
  "year": null,
  "banner_url": "",
  "icon_url": "",
  "coverart": "https://lutris.net/media/igdb/cover_big/co5yh3.jpg",
  "platforms": [],
  "provider_games": [
    {
      "name": "13 Jellyfish",
      "slug": "13-jellyfish",
      "service": "igdb"
    }
  ],
  "aliases": [],
  "shaders": [],
  "discord_id": "",
  "change_for": null
}