{
  "id": 166820,
  "name": "Hyperspace : Andy's Adventure",
  "slug": "hyperspace-andys-adventure",
  "year": null,
  "banner_url": "",
  "icon_url": "",
  "coverart": "https://lutris.net/media/igdb/cover_big/co43fu.jpg",
  "platforms": [],
  "provider_games": [
    {
      "name": "Hyperspace: Andy's Adventure",
      "slug": "hyperspace-andys-adventure",
      "service": "igdb"
    }
  ],
  "aliases": [],
  "shaders": [],
  "discord_id": "",
  "change_for": null
}