{
  "id": 43367,
  "name": "TramSim",
  "slug": "tramsim",
  "year": null,
  "banner_url": "https://lutris.net/games/banner/tramsim.jpg",
  "icon_url": "https://lutris.net/games/icon/tramsim.png",
  "coverart": null,
  "platforms": [],
  "provider_games": [
    {
      "name": "TramSim Vienna",
      "slug": "1314140",
      "service": "steam"
    }
  ],
  "aliases": [],
  "shaders": [],
  "discord_id": "",
  "change_for": null
}