{
  "id": 209578,
  "name": "Pawapuro-kun Pocket 12",
  "slug": "pawapuro-kun-pocket-12",
  "year": null,
  "banner_url": "",
  "icon_url": "",
  "coverart": "https://lutris.net/media/igdb/cover_big/co5xuv.jpg",
  "platforms": [
    {
      "name": "Nintendo DS"
    }
  ],
  "provider_games": [
    {
      "name": "Pawapuro-kun Pocket 12",
      "slug": "pawapuro-kun-pocket-12",
      "service": "igdb"
    }
  ],
  "aliases": [],
  "shaders": [],
  "discord_id": "",
  "change_for": null
}