{
  "id": 51787,
  "name": "Naughty Ones",
  "slug": "naughty-ones",
  "year": 1994,
  "banner_url": "",
  "icon_url": "",
  "coverart": "https://lutris.net/media/igdb/cover_big/co2eny.jpg",
  "platforms": [
    {
      "name": "Amiga"
    },
    {
      "name": "Amiga CD32"
    }
  ],
  "provider_games": [
    {
      "name": "Naughty Ones",
      "slug": "naughty-ones",
      "service": "igdb"
    }
  ],
  "aliases": [],
  "shaders": [],
  "discord_id": "",
  "change_for": null
}