{
  "id": 288297,
  "name": "Frog Jumper",
  "slug": "frog-jumper",
  "year": 2024,
  "banner_url": "",
  "icon_url": "",
  "coverart": "https://lutris.net/media/igdb/cover_big/co8c7u.jpg",
  "platforms": [
    {
      "name": "Sony PlayStation 5"
    }
  ],
  "provider_games": [
    {
      "name": "Frog Jumper",
      "slug": "frog-jumper",
      "service": "igdb"
    }
  ],
  "aliases": [],
  "shaders": [],
  "discord_id": "",
  "change_for": null
}