{
  "id": 204683,
  "name": "Alien Marauder - Tools",
  "slug": "alien-marauder-tools",
  "year": null,
  "banner_url": "https://lutris.net/games/banner/alien-marauder-tools.jpg",
  "icon_url": "https://lutris.net/games/icon/alien-marauder-tools.png",
  "coverart": null,
  "platforms": [],
  "provider_games": [
    {
      "name": "Alien Marauder - Tools",
      "slug": "1822380",
      "service": "steam"
    }
  ],
  "aliases": [],
  "shaders": [],
  "discord_id": null,
  "change_for": null
}