{
  "id": 264164,
  "name": "Cosmic Coop",
  "slug": "cosmic-coop",
  "year": null,
  "banner_url": "",
  "icon_url": "",
  "coverart": "https://lutris.net/media/igdb/cover_big/co7aul.jpg",
  "platforms": [],
  "provider_games": [
    {
      "name": "Cosmic Coop",
      "slug": "cosmic-coop",
      "service": "igdb"
    }
  ],
  "aliases": [],
  "shaders": [],
  "discord_id": "",
  "change_for": null
}