{
  "id": 101180,
  "name": "A Murder in Fairyland",
  "slug": "a-murder-in-fairyland",
  "year": 2020,
  "banner_url": "",
  "icon_url": "",
  "coverart": "https://lutris.net/media/igdb/cover_big/co2iy2.jpg",
  "platforms": [
    {
      "name": "Browser"
    }
  ],
  "provider_games": [
    {
      "name": "A Murder in Fairyland",
      "slug": "a-murder-in-fairyland",
      "service": "igdb"
    }
  ],
  "aliases": [],
  "shaders": [],
  "discord_id": "",
  "change_for": null
}