{
  "id": 136329,
  "name": "Sega Network Taisen Mahjong MJ4",
  "slug": "sega-network-taisen-mahjong-mj4",
  "year": 2008,
  "banner_url": "",
  "icon_url": "",
  "coverart": "https://lutris.net/media/igdb/cover_big/co3p5i.jpg",
  "platforms": [],
  "provider_games": [
    {
      "name": "Sega Network Taisen Mahjong MJ4",
      "slug": "sega-network-taisen-mahjong-mj4",
      "service": "igdb"
    }
  ],
  "aliases": [],
  "shaders": [],
  "discord_id": "",
  "change_for": null
}