{
  "id": 46768,
  "name": "Personal Fitness for Women",
  "slug": "personal-fitness-for-women",
  "year": null,
  "banner_url": "",
  "icon_url": "",
  "coverart": "https://lutris.net/media/igdb/cover_big/ennzpac6ifraj7y4kehd.jpg",
  "platforms": [],
  "provider_games": [
    {
      "name": "Personal Fitness for Women",
      "slug": "personal-fitness-for-women",
      "service": "igdb"
    }
  ],
  "aliases": [],
  "shaders": [],
  "discord_id": "",
  "change_for": null
}