{
  "id": 10528,
  "name": "Grand Touring",
  "slug": "grand-touring",
  "year": 1998,
  "banner_url": "https://lutris.net/games/banner/grand-touring.jpg",
  "icon_url": "",
  "coverart": "https://lutris.net/media/igdb/cover_big/co265q.jpg",
  "platforms": [
    {
      "name": "Windows"
    }
  ],
  "provider_games": [
    {
      "name": "Grand Touring",
      "slug": "grand-touring",
      "service": "igdb"
    }
  ],
  "aliases": [],
  "shaders": [],
  "discord_id": "",
  "change_for": null
}