{
  "id": 159205,
  "name": "Roman Legionary",
  "slug": "roman-legionary",
  "year": null,
  "banner_url": "",
  "icon_url": "",
  "coverart": "https://lutris.net/media/igdb/cover_big/co3yoe.jpg",
  "platforms": [],
  "provider_games": [
    {
      "name": "Roman Legionary",
      "slug": "roman-legionary",
      "service": "igdb"
    }
  ],
  "aliases": [],
  "shaders": [],
  "discord_id": "",
  "change_for": null
}