{
  "id": 84877,
  "name": "Ernie Els Golf",
  "slug": "ernie-els-golf",
  "year": 1994,
  "banner_url": "",
  "icon_url": "",
  "coverart": "https://lutris.net/media/igdb/cover_big/co6ym3.jpg",
  "platforms": [
    {
      "name": "Sega Game Gear"
    }
  ],
  "provider_games": [
    {
      "name": "Ernie Els Golf",
      "slug": "ernie-els-golf",
      "service": "igdb"
    }
  ],
  "aliases": [],
  "shaders": [],
  "discord_id": "",
  "change_for": null
}