{
  "id": 1684,
  "name": "BIT.TRIP CORE",
  "slug": "bittrip-core",
  "year": null,
  "banner_url": "https://lutris.net/games/banner/bittrip-core.jpg",
  "icon_url": "https://lutris.net/games/icon/bittrip-core.png",
  "coverart": null,
  "platforms": [],
  "provider_games": [
    {
      "name": "BIT.TRIP CORE",
      "slug": "1460735677",
      "service": "gog"
    },
    {
      "name": "BIT.TRIP CORE",
      "slug": "205060",
      "service": "steam"
    }
  ],
  "aliases": [],
  "shaders": [],
  "discord_id": "",
  "change_for": null
}