{
  "id": 115059,
  "name": "Car Mechanic Simulator 2015: Mercedes-Benz",
  "slug": "car-mechanic-simulator-2015-mercedes-benz",
  "year": null,
  "banner_url": "",
  "icon_url": "",
  "coverart": null,
  "platforms": [],
  "provider_games": [
    {
      "name": "Car Mechanic Simulator 2015: Mercedes-Benz",
      "slug": "car-mechanic-simulator-2015-mercedes-benz",
      "service": "igdb"
    }
  ],
  "aliases": [],
  "shaders": [],
  "discord_id": "",
  "change_for": null
}