{
  "id": 49521,
  "name": "Super Robot Wars OG Saga: Masou Kishin - The Lord of Elemental",
  "slug": "super-robot-wars-og-saga-masou-kishin-the-lord-of-elemental",
  "year": null,
  "banner_url": "",
  "icon_url": "",
  "coverart": "https://lutris.net/media/igdb/cover_big/co234c.jpg",
  "platforms": [],
  "provider_games": [
    {
      "name": "Super Robot Wars OG Saga: Masou Kishin - The Lord of Elemental",
      "slug": "super-robot-wars-og-saga-masou-kishin-the-lord-of-elemental",
      "service": "igdb"
    }
  ],
  "aliases": [],
  "shaders": [],
  "discord_id": "",
  "change_for": null
}