{
  "id": 204846,
  "name": "Mortmentum",
  "slug": "mortmentum",
  "year": 2022,
  "banner_url": "https://lutris.net/games/banner/mortmentum.jpg",
  "icon_url": "",
  "coverart": "https://lutris.net/media/igdb/cover_big/co5lkh.jpg",
  "platforms": [
    {
      "name": "Linux"
    },
    {
      "name": "Windows"
    }
  ],
  "provider_games": [
    {
      "name": "Mortmentum",
      "slug": "mortmentum",
      "service": "igdb"
    }
  ],
  "aliases": [],
  "shaders": [],
  "discord_id": "",
  "change_for": null
}