{
  "id": 57897,
  "name": "Boat Race GP",
  "slug": "boat-race-gp",
  "year": null,
  "banner_url": "",
  "icon_url": "",
  "coverart": null,
  "platforms": [],
  "provider_games": [
    {
      "name": "Boat Race GP",
      "slug": "boat-race-gp",
      "service": "igdb"
    }
  ],
  "aliases": [],
  "shaders": [],
  "discord_id": "",
  "change_for": null
}