{
  "id": 264980,
  "name": "Enspell",
  "slug": "enspell",
  "year": null,
  "banner_url": "",
  "icon_url": "",
  "coverart": "https://lutris.net/media/igdb/cover_big/co7biw.jpg",
  "platforms": [],
  "provider_games": [
    {
      "name": "Enspell",
      "slug": "enspell",
      "service": "igdb"
    }
  ],
  "aliases": [],
  "shaders": [],
  "discord_id": "",
  "change_for": null
}