{
  "id": 4786,
  "game_id": 12048,
  "game_slug": "valkyrie-svia",
  "name": "Valkyrie Svia",
  "year": 2006,
  "user": "FakeShemp",
  "runner": "wine",
  "slug": "valkyrie-svia-mangagamer",
  "version": "MangaGamer",
  "description": "",
  "notes": "",
  "credits": "",
  "created_at": "2017-07-03T19:06:12.782000Z",
  "updated_at": "2017-07-04T18:10:27.689340Z",
  "draft": false,
  "published": true,
  "published_by": null,
  "rating": "",
  "is_playable": null,
  "steamid": null,
  "gogid": null,
  "gogslug": "",
  "humbleid": "",
  "humblestoreid": "",
  "humblestoreid_real": "",
  "script": {
    "files": [
      {
        "file1": "N/A:Please select the MangaGamer archive"
      }
    ],
    "game": {
      "exe": "drive_c/Games/Mangagamer/Valkyrie Svia/svia.exe",
      "prefix": "$GAMEDIR"
    },
    "installer": [
      {
        "extract": {
          "dst": "$CACHE",
          "file": "$file1"
        }
      },
      {
        "task": {
          "args": "/S",
          "executable": "$CACHE/ValkyrieSviaInstaller.exe",
          "name": "wineexec",
          "prefix": "$GAMEDIR"
        }
      }
    ]
  },
  "content": "files:\n- file1: N/A:Please select the MangaGamer archive\ngame:\n  exe: drive_c/Games/Mangagamer/Valkyrie Svia/svia.exe\n  prefix: $GAMEDIR\ninstaller:\n- extract:\n    dst: $CACHE\n    file: $file1\n- task:\n    args: /S\n    executable: $CACHE/ValkyrieSviaInstaller.exe\n    name: wineexec\n    prefix: $GAMEDIR\n",
  "discord_id": ""
}