{
  "id": 173580,
  "name": "The Sin Collector: Repentless",
  "slug": "the-sin-collector-repentless",
  "year": 2021,
  "banner_url": "",
  "icon_url": "",
  "coverart": "https://lutris.net/media/igdb/cover_big/co3ti7.jpg",
  "platforms": [
    {
      "name": "Windows"
    }
  ],
  "provider_games": [
    {
      "name": "The Sin Collector: Repentless",
      "slug": "1500643916",
      "service": "gog"
    },
    {
      "name": "The Sin Collector: Repentless",
      "slug": "the-sin-collector-repentless",
      "service": "igdb"
    }
  ],
  "aliases": [],
  "shaders": [],
  "discord_id": "",
  "change_for": null
}