{
  "id": 83077,
  "name": "Inuyasha: Fuuun Emaki",
  "slug": "inuyasha-fuuun-emaki",
  "year": 2002,
  "banner_url": "",
  "icon_url": "",
  "coverart": "https://lutris.net/media/igdb/cover_big/co4kp3.jpg",
  "platforms": [
    {
      "name": "WonderSwan Color"
    }
  ],
  "provider_games": [
    {
      "name": "Inuyasha: Fuuun Emaki",
      "slug": "inuyasha-fuuun-emaki",
      "service": "igdb"
    }
  ],
  "aliases": [],
  "shaders": [],
  "discord_id": "",
  "change_for": null
}