{
  "id": 45446,
  "name": "Football Strip",
  "slug": "football-strip",
  "year": null,
  "banner_url": "",
  "icon_url": "",
  "coverart": "https://lutris.net/media/igdb/cover_big/rrmepfxxv5h9jam8sztp.jpg",
  "platforms": [],
  "provider_games": [
    {
      "name": "Football Strip",
      "slug": "football-strip",
      "service": "igdb"
    }
  ],
  "aliases": [],
  "shaders": [],
  "discord_id": "",
  "change_for": null
}