{
  "id": 823,
  "game_id": 1104,
  "game_slug": "entropy",
  "name": "Entropy",
  "year": 2017,
  "user": "Xodetaetl",
  "runner": "steam",
  "slug": "entropy-steam",
  "version": "steam",
  "description": "",
  "notes": "",
  "credits": "",
  "created_at": "2014-09-15T16:39:50.056000Z",
  "updated_at": "2014-09-15T17:10:38.283000Z",
  "draft": false,
  "published": true,
  "published_by": null,
  "rating": "",
  "is_playable": null,
  "steamid": 255500,
  "gogid": null,
  "gogslug": "",
  "humbleid": "",
  "humblestoreid": "",
  "humblestoreid_real": "",
  "script": {
    "game": {
      "appid": 255500
    }
  },
  "content": "game:\n  appid: 255500\n",
  "discord_id": ""
}