{
  "id": 201454,
  "name": "Pinball Freedom",
  "slug": "pinball-freedom",
  "year": null,
  "banner_url": "",
  "icon_url": "",
  "coverart": "https://lutris.net/media/igdb/cover_big/co4mm9.jpg",
  "platforms": [],
  "provider_games": [
    {
      "name": "Pinball Freedom",
      "slug": "pinball-freedom",
      "service": "igdb"
    }
  ],
  "aliases": [],
  "shaders": [],
  "discord_id": "",
  "change_for": null
}