{
  "id": 123564,
  "name": "The Last Wizard",
  "slug": "the-last-wizard",
  "year": 2018,
  "banner_url": "https://lutris.net/games/banner/the-last-wizard.jpg",
  "icon_url": "",
  "coverart": null,
  "platforms": [
    {
      "name": "Linux"
    },
    {
      "name": "Mac"
    },
    {
      "name": "Windows"
    }
  ],
  "provider_games": [
    {
      "name": "The Last Wizard",
      "slug": "884420",
      "service": "steam"
    },
    {
      "name": "The Last Wizard",
      "slug": "the-last-wizard",
      "service": "igdb"
    }
  ],
  "aliases": [],
  "shaders": [],
  "discord_id": "",
  "change_for": null
}