{
  "id": 63201,
  "name": "Interpol 2: Most Wanted",
  "slug": "interpol-2-most-wanted",
  "year": null,
  "banner_url": "",
  "icon_url": "",
  "coverart": "https://lutris.net/media/igdb/cover_big/jaxyqcltrawdkbppagec.jpg",
  "platforms": [],
  "provider_games": [
    {
      "name": "Interpol 2: Most Wanted",
      "slug": "interpol-2-most-wanted",
      "service": "igdb"
    }
  ],
  "aliases": [],
  "shaders": [],
  "discord_id": "",
  "change_for": null
}