{
  "id": 185367,
  "name": "Hero's Hour",
  "slug": "heros-hour",
  "year": 2021,
  "banner_url": "https://lutris.net/games/banner/heros-hour.jpg",
  "icon_url": "",
  "coverart": "https://lutris.net/media/igdb/cover_big/co2xyb.jpg",
  "platforms": [
    {
      "name": "Windows"
    }
  ],
  "provider_games": [
    {
      "name": "Hero's Hour",
      "slug": "1547269859",
      "service": "gog"
    },
    {
      "name": "Hero's Hour",
      "slug": "heros-hour",
      "service": "igdb"
    },
    {
      "name": "Hero's Hour",
      "slug": "1656780",
      "service": "steam"
    }
  ],
  "aliases": [],
  "shaders": [],
  "discord_id": "",
  "change_for": null
}