{
  "id": 34902,
  "name": "Mahjong Hourouki Gaiden",
  "slug": "mahjong-hourouki-gaiden",
  "year": 1987,
  "banner_url": "",
  "icon_url": "https://lutris.net/games/icon/mahjong-hourouki-gaiden.png",
  "coverart": null,
  "platforms": [
    {
      "name": "Arcade"
    }
  ],
  "provider_games": [
    {
      "name": "Mahjong Hourouki Gaiden",
      "slug": "mhgaiden",
      "service": "mame"
    }
  ],
  "aliases": [],
  "shaders": [],
  "discord_id": "",
  "change_for": null
}