{
  "id": 47656,
  "name": "Banana",
  "slug": "banana--1",
  "year": null,
  "banner_url": "",
  "icon_url": "",
  "coverart": "https://lutris.net/media/igdb/cover_big/co5s7l.jpg",
  "platforms": [],
  "provider_games": [
    {
      "name": "Banana",
      "slug": "banana--1",
      "service": "igdb"
    }
  ],
  "aliases": [],
  "shaders": [],
  "discord_id": "",
  "change_for": null
}