{
  "id": 280901,
  "name": "Apartment No 129",
  "slug": "apartment-no-129",
  "year": null,
  "banner_url": "",
  "icon_url": "",
  "coverart": "https://lutris.net/media/igdb/cover_big/co7zsz.jpg",
  "platforms": [],
  "provider_games": [
    {
      "name": "Apartment No 129",
      "slug": "apartment-no-129",
      "service": "igdb"
    }
  ],
  "aliases": [],
  "shaders": [],
  "discord_id": "",
  "change_for": null
}