{
  "id": 1370,
  "game_id": 2085,
  "game_slug": "defense-grid-2",
  "name": "Defense Grid 2",
  "year": 2014,
  "user": "Xodetaetl",
  "runner": "steam",
  "slug": "defense-grid-2-steam",
  "version": "Steam",
  "description": "",
  "notes": "",
  "credits": "",
  "created_at": "2015-03-04T19:11:17.745000Z",
  "updated_at": "2015-03-04T19:11:22.714000Z",
  "draft": false,
  "published": true,
  "published_by": null,
  "rating": "",
  "is_playable": null,
  "steamid": 221540,
  "gogid": null,
  "gogslug": "",
  "humbleid": "",
  "humblestoreid": "",
  "humblestoreid_real": "",
  "script": {
    "game": {
      "appid": 221540
    }
  },
  "content": "game:\n  appid: 221540\n",
  "discord_id": "496569474670133258"
}