{
  "id": 112357,
  "name": "The Idolmaster: Shiny TV",
  "slug": "the-idolmaster-shiny-tv",
  "year": 2013,
  "banner_url": "",
  "icon_url": "",
  "coverart": "https://lutris.net/media/igdb/cover_big/co2rma.jpg",
  "platforms": [
    {
      "name": "Sony Playstation 3"
    }
  ],
  "provider_games": [
    {
      "name": "The Idolmaster: Shiny TV",
      "slug": "the-idolmaster-shiny-tv",
      "service": "igdb"
    }
  ],
  "aliases": [],
  "shaders": [],
  "discord_id": "",
  "change_for": null
}