{
  "id": 200684,
  "name": "Forspoken: Digital Deluxe Edition",
  "slug": "forspoken-digital-deluxe-edition",
  "year": null,
  "banner_url": "",
  "icon_url": "",
  "coverart": "https://lutris.net/media/igdb/cover_big/co4bjo.jpg",
  "platforms": [],
  "provider_games": [
    {
      "name": "Forspoken: Digital Deluxe Edition",
      "slug": "forspoken-digital-deluxe-edition",
      "service": "igdb"
    }
  ],
  "aliases": [],
  "shaders": [],
  "discord_id": "",
  "change_for": null
}