{
  "id": 13087,
  "game_id": 2230,
  "game_slug": "ys-the-oath-in-felghana",
  "name": "Ys: The Oath in Felghana",
  "year": 2005,
  "user": "dugan-c",
  "runner": "wine",
  "slug": "ys-the-oath-in-felghana-gog",
  "version": "GOG",
  "description": null,
  "notes": "",
  "credits": "",
  "created_at": "2019-04-25T03:22:36.726000Z",
  "updated_at": "2019-04-25T03:29:51.321454Z",
  "draft": false,
  "published": true,
  "published_by": 19464,
  "rating": "",
  "is_playable": null,
  "steamid": 207320,
  "gogid": 1422357788,
  "gogslug": "ys_the_oath_in_felghana",
  "humbleid": "",
  "humblestoreid": "",
  "humblestoreid_real": "",
  "script": {
    "files": [
      {
        "setup": "N/A:Select the game's setup file"
      }
    ],
    "game": {
      "arch": "win32",
      "exe": "drive_c/GOG Games/Ys The Oath in Felghana/ysf_win_dx9.exe",
      "prefix": "$GAMEDIR"
    },
    "installer": [
      {
        "task": {
          "arch": "win32",
          "name": "create_prefix",
          "prefix": "$GAMEDIR"
        }
      },
      {
        "task": {
          "app": "vcrun2008",
          "arch": "win32",
          "name": "winetricks",
          "prefix": "$GAMEDIR"
        }
      },
      {
        "task": {
          "app": "quartz",
          "arch": "win32",
          "description": "Installing Quartz.",
          "name": "winetricks",
          "prefix": "$GAMEDIR"
        }
      },
      {
        "task": {
          "app": "amstream",
          "arch": "win32",
          "description": "Installing Amstream.",
          "name": "winetricks",
          "prefix": "$GAMEDIR"
        }
      },
      {
        "task": {
          "app": "xvid win7",
          "arch": "win32",
          "description": "Installing Xvid.",
          "name": "winetricks",
          "prefix": "$GAMEDIR"
        }
      },
      {
        "task": {
          "arch": "win32",
          "args": "-u",
          "description": "Simulating Windows reboot.",
          "executable": "wineboot",
          "name": "wineexec",
          "prefix": "$GAMEDIR"
        }
      },
      {
        "task": {
          "arch": "win32",
          "args": "/SP- /SUPPRESSMSGBOXES /NOCANCEL",
          "description": "Installing The Oath in Felghana",
          "executable": "setup",
          "name": "wineexec",
          "prefix": "$GAMEDIR"
        }
      },
      {
        "task": {
          "arch": "win32",
          "description": "Setting game options.",
          "executable": "$GAMEDIR/drive_c/GOG Games/Ys The Oath in Felghana/config_dx9.exe",
          "name": "wineexec",
          "prefix": "$GAMEDIR"
        }
      }
    ],
    "wine": {
      "overrides": {
        "winegstreamer": "disabled"
      }
    }
  },
  "content": "files:\n- setup: N/A:Select the game's setup file\ngame:\n  arch: win32\n  exe: drive_c/GOG Games/Ys The Oath in Felghana/ysf_win_dx9.exe\n  prefix: $GAMEDIR\ninstaller:\n- task:\n    arch: win32\n    name: create_prefix\n    prefix: $GAMEDIR\n- task:\n    app: vcrun2008\n    arch: win32\n    name: winetricks\n    prefix: $GAMEDIR\n- task:\n    app: quartz\n    arch: win32\n    description: Installing Quartz.\n    name: winetricks\n    prefix: $GAMEDIR\n- task:\n    app: amstream\n    arch: win32\n    description: Installing Amstream.\n    name: winetricks\n    prefix: $GAMEDIR\n- task:\n    app: xvid win7\n    arch: win32\n    description: Installing Xvid.\n    name: winetricks\n    prefix: $GAMEDIR\n- task:\n    arch: win32\n    args: -u\n    description: Simulating Windows reboot.\n    executable: wineboot\n    name: wineexec\n    prefix: $GAMEDIR\n- task:\n    arch: win32\n    args: /SP- /SUPPRESSMSGBOXES /NOCANCEL\n    description: Installing The Oath in Felghana\n    executable: setup\n    name: wineexec\n    prefix: $GAMEDIR\n- task:\n    arch: win32\n    description: Setting game options.\n    executable: $GAMEDIR/drive_c/GOG Games/Ys The Oath in Felghana/config_dx9.exe\n    name: wineexec\n    prefix: $GAMEDIR\nwine:\n  overrides:\n    winegstreamer: disabled\n",
  "discord_id": ""
}