{
  "id": 263413,
  "name": "Ghoul Smash",
  "slug": "ghoul-smash",
  "year": null,
  "banner_url": "",
  "icon_url": "",
  "coverart": "https://lutris.net/media/igdb/cover_big/co79lc.jpg",
  "platforms": [],
  "provider_games": [
    {
      "name": "Ghoul Smash",
      "slug": "ghoul-smash",
      "service": "igdb"
    }
  ],
  "aliases": [],
  "shaders": [],
  "discord_id": "",
  "change_for": null
}