{
  "id": 11393,
  "name": "Milles, Knight of Anal Tyranny ~Impregnated by Lusty Tentacles at the Ends of Oblivion~",
  "slug": "milles-knight-of-anal-tyranny-impregnated-by-lusty",
  "year": 2009,
  "banner_url": "https://lutris.net/games/banner/milles-knight-of-anal-tyranny-impregnated-by-lusty.jpg",
  "icon_url": "",
  "coverart": null,
  "platforms": [
    {
      "name": "Linux"
    }
  ],
  "provider_games": [],
  "aliases": [],
  "shaders": [],
  "discord_id": "",
  "change_for": null
}