{
  "id": 116133,
  "name": "Seeders Puzzle Reboot",
  "slug": "seeders-puzzle-reboot",
  "year": 2019,
  "banner_url": "",
  "icon_url": "",
  "coverart": "https://lutris.net/media/igdb/cover_big/co4cd5.jpg",
  "platforms": [
    {
      "name": "Nintendo Switch"
    }
  ],
  "provider_games": [
    {
      "name": "Seeders Puzzle Reboot",
      "slug": "seeders-puzzle-reboot",
      "service": "igdb"
    }
  ],
  "aliases": [],
  "shaders": [],
  "discord_id": "",
  "change_for": null
}