{
  "id": 118187,
  "name": "Rock 'n Shaolin: Legend of the Seven Paladins 3D",
  "slug": "rock-n-shaolin-legend-of-the-seven-paladins-3d",
  "year": 1994,
  "banner_url": "",
  "icon_url": "",
  "coverart": "https://lutris.net/media/igdb/cover_big/co3gzk.jpg",
  "platforms": [],
  "provider_games": [
    {
      "name": "Rock 'n Shaolin: Legend of the Seven Paladins 3D",
      "slug": "rock-n-shaolin-legend-of-the-seven-paladins-3d",
      "service": "igdb"
    }
  ],
  "aliases": [],
  "shaders": [],
  "discord_id": "",
  "change_for": null
}