{
  "id": 59644,
  "name": "Sakai Burai Kaiji: Death or Survival",
  "slug": "sakai-burai-kaiji-death-or-survival",
  "year": 2008,
  "banner_url": "",
  "icon_url": "",
  "coverart": "https://lutris.net/media/igdb/cover_big/dcofrscp2s21fvrxdjyd.jpg",
  "platforms": [
    {
      "name": "Nintendo DS"
    }
  ],
  "provider_games": [
    {
      "name": "Sakai Burai Kaiji: Death or Survival",
      "slug": "sakai-burai-kaiji-death-or-survival",
      "service": "igdb"
    }
  ],
  "aliases": [],
  "shaders": [],
  "discord_id": "",
  "change_for": null
}