{
  "id": 66481,
  "name": "The Perfect General Scenario Disk: World War II Battle Set",
  "slug": "the-perfect-general-scenario-disk-world-war-ii-battle-set",
  "year": null,
  "banner_url": "",
  "icon_url": "",
  "coverart": null,
  "platforms": [],
  "provider_games": [
    {
      "name": "The Perfect General Scenario Disk: World War II Battle Set",
      "slug": "the-perfect-general-scenario-disk-world-war-ii-battle-set",
      "service": "igdb"
    }
  ],
  "aliases": [],
  "shaders": [],
  "discord_id": "",
  "change_for": null
}