{
  "id": 64031,
  "name": "Puzzler Clover",
  "slug": "puzzler-clover",
  "year": null,
  "banner_url": "",
  "icon_url": "",
  "coverart": "https://lutris.net/media/igdb/cover_big/qf0xj5eincighqyesxc6.jpg",
  "platforms": [],
  "provider_games": [
    {
      "name": "Puzzler Clover",
      "slug": "puzzler-clover",
      "service": "igdb"
    }
  ],
  "aliases": [],
  "shaders": [],
  "discord_id": "",
  "change_for": null
}