{
  "id": 21148,
  "name": "Chewy: Esc from F5",
  "slug": "chewy-escape-from-f5",
  "year": 1995,
  "banner_url": "https://lutris.net/games/banner/chewy-escape-from-f5.jpg",
  "icon_url": "",
  "coverart": "https://lutris.net/media/igdb/cover_big/co4tcr.jpg",
  "platforms": [
    {
      "name": "MS-DOS"
    },
    {
      "name": "Windows"
    }
  ],
  "provider_games": [
    {
      "name": "Chewy: Escape from F5",
      "slug": "chewy-escape-from-f5",
      "service": "igdb"
    }
  ],
  "aliases": [],
  "shaders": [],
  "discord_id": "",
  "change_for": null
}