{
  "id": 608,
  "game_id": 2095,
  "game_slug": "skulls-of-the-shogun",
  "name": "Skulls of the Shogun",
  "year": 2013,
  "user": "Xodetaetl",
  "runner": "steam",
  "slug": "skulls-of-the-shogun-steam",
  "version": "Steam",
  "description": "",
  "notes": "",
  "credits": "",
  "created_at": "2014-09-14T21:28:15.547000Z",
  "updated_at": "2014-09-14T21:28:53.406000Z",
  "draft": false,
  "published": true,
  "published_by": null,
  "rating": "",
  "is_playable": null,
  "steamid": 228960,
  "gogid": 1425657908,
  "gogslug": "skulls_of_the_shogun",
  "humbleid": "skullsoftheshogun",
  "humblestoreid": "skullsoftheshogun",
  "humblestoreid_real": "skullsoftheshogun",
  "script": {
    "game": {
      "appid": 228960
    }
  },
  "content": "game:\n  appid: 228960\n",
  "discord_id": ""
}