{
  "id": 65894,
  "name": "U-Move Super Sports",
  "slug": "u-move-super-sports",
  "year": null,
  "banner_url": "",
  "icon_url": "",
  "coverart": "https://lutris.net/media/igdb/cover_big/qaaucqd5bsjwbr40jsne.jpg",
  "platforms": [],
  "provider_games": [
    {
      "name": "U-Move Super Sports",
      "slug": "u-move-super-sports",
      "service": "igdb"
    }
  ],
  "aliases": [],
  "shaders": [],
  "discord_id": "",
  "change_for": null
}