{
  "id": 238054,
  "name": "Mobspawn",
  "slug": "mobspawn",
  "year": null,
  "banner_url": "",
  "icon_url": "",
  "coverart": "https://lutris.net/media/igdb/cover_big/co64os.jpg",
  "platforms": [],
  "provider_games": [
    {
      "name": "Mobspawn",
      "slug": "mobspawn",
      "service": "igdb"
    }
  ],
  "aliases": [],
  "shaders": [],
  "discord_id": "",
  "change_for": null
}