{
  "id": 44279,
  "name": "Another Try",
  "slug": "another-try",
  "year": 2020,
  "banner_url": "https://lutris.net/games/banner/another-try.jpg",
  "icon_url": "https://lutris.net/games/icon/another-try.png",
  "coverart": "https://lutris.net/media/igdb/cover_big/co1wki.jpg",
  "platforms": [
    {
      "name": "Windows"
    }
  ],
  "provider_games": [
    {
      "name": "Another Try",
      "slug": "1197220",
      "service": "steam"
    },
    {
      "name": "Another Try",
      "slug": "another-try",
      "service": "igdb"
    }
  ],
  "aliases": [],
  "shaders": [],
  "discord_id": "",
  "change_for": null
}