{
  "id": 13230,
  "name": "Dracula's Library",
  "slug": "draculas-library",
  "year": 2017,
  "banner_url": "https://lutris.net/games/banner/draculas-library.jpg",
  "icon_url": "https://lutris.net/games/icon/draculas-library.png",
  "coverart": "https://lutris.net/media/igdb/cover_big/co2awp.jpg",
  "platforms": [
    {
      "name": "Windows"
    }
  ],
  "provider_games": [
    {
      "name": "Dracula's Library",
      "slug": "draculas-library",
      "service": "igdb"
    }
  ],
  "aliases": [],
  "shaders": [],
  "discord_id": "",
  "change_for": null
}