{
  "id": 190223,
  "name": "This Means Warp",
  "slug": "this-means-warp",
  "year": 2022,
  "banner_url": "https://lutris.net/games/banner/this-means-warp.jpg",
  "icon_url": "",
  "coverart": "https://lutris.net/media/igdb/cover_big/co2kaw.jpg",
  "platforms": [
    {
      "name": "Windows"
    }
  ],
  "provider_games": [
    {
      "name": "This Means Warp",
      "slug": "1269300",
      "service": "steam"
    },
    {
      "name": "This Means Warp",
      "slug": "this-means-warp",
      "service": "igdb"
    }
  ],
  "aliases": [],
  "shaders": [],
  "discord_id": "",
  "change_for": null
}