{
  "id": 55682,
  "name": "Maestia",
  "slug": "maestia",
  "year": null,
  "banner_url": "",
  "icon_url": "",
  "coverart": "https://lutris.net/media/igdb/cover_big/cpkdudmvqou1hrobpbtk.jpg",
  "platforms": [],
  "provider_games": [
    {
      "name": "Maestia",
      "slug": "maestia",
      "service": "igdb"
    }
  ],
  "aliases": [],
  "shaders": [],
  "discord_id": "",
  "change_for": null
}