{
  "id": 70746,
  "name": "WordFu",
  "slug": "wordfu",
  "year": null,
  "banner_url": "",
  "icon_url": "",
  "coverart": "https://lutris.net/media/igdb/cover_big/co6njl.jpg",
  "platforms": [],
  "provider_games": [
    {
      "name": "WordFu",
      "slug": "wordfu",
      "service": "igdb"
    }
  ],
  "aliases": [],
  "shaders": [],
  "discord_id": "",
  "change_for": null
}