{
  "id": 288834,
  "name": "Caccia al Ladro",
  "slug": "caccia-al-ladro",
  "year": 2001,
  "banner_url": "",
  "icon_url": "",
  "coverart": null,
  "platforms": [
    {
      "name": "Windows"
    }
  ],
  "provider_games": [
    {
      "name": "Caccia al Ladro",
      "slug": "caccia-al-ladro",
      "service": "igdb"
    }
  ],
  "aliases": [],
  "shaders": [],
  "discord_id": "",
  "change_for": null
}