{
  "id": 113843,
  "name": "ACA NEOGEO THE LAST BLADE",
  "slug": "aca-neogeo-the-last-blade",
  "year": 2017,
  "banner_url": "",
  "icon_url": "",
  "coverart": "https://lutris.net/media/igdb/cover_big/co1qzf.jpg",
  "platforms": [
    {
      "name": "Nintendo Switch"
    },
    {
      "name": "Sony Playstation 4"
    },
    {
      "name": "Xbox One"
    }
  ],
  "provider_games": [
    {
      "name": "ACA NEOGEO THE LAST BLADE",
      "slug": "aca-neogeo-the-last-blade",
      "service": "igdb"
    }
  ],
  "aliases": [],
  "shaders": [],
  "discord_id": "",
  "change_for": null
}