{
  "id": 277359,
  "name": "Haunt or Heist",
  "slug": "haunt-or-heist",
  "year": null,
  "banner_url": "",
  "icon_url": "",
  "coverart": "https://lutris.net/media/igdb/cover_big/co7wb0.jpg",
  "platforms": [],
  "provider_games": [
    {
      "name": "Haunt or Heist",
      "slug": "haunt-or-heist",
      "service": "igdb"
    }
  ],
  "aliases": [],
  "shaders": [],
  "discord_id": "",
  "change_for": null
}