{
  "id": 105049,
  "name": "Vegas World",
  "slug": "vegas-world",
  "year": null,
  "banner_url": "",
  "icon_url": "",
  "coverart": "https://lutris.net/media/igdb/cover_big/co2rsy.jpg",
  "platforms": [],
  "provider_games": [
    {
      "name": "Vegas World",
      "slug": "vegas-world",
      "service": "igdb"
    }
  ],
  "aliases": [],
  "shaders": [],
  "discord_id": "",
  "change_for": null
}