{
  "id": 212099,
  "name": "Uncounted Isles",
  "slug": "uncounted-isles",
  "year": null,
  "banner_url": "",
  "icon_url": "",
  "coverart": "https://lutris.net/media/igdb/cover_big/co5eva.jpg",
  "platforms": [],
  "provider_games": [
    {
      "name": "Uncounted Isles",
      "slug": "uncounted-isles",
      "service": "igdb"
    }
  ],
  "aliases": [],
  "shaders": [],
  "discord_id": "",
  "change_for": null
}