{
  "id": 274108,
  "name": "Kevin(1997-2077)",
  "slug": "kevin-1997-2077",
  "year": 2024,
  "banner_url": "",
  "icon_url": "",
  "coverart": "https://lutris.net/media/igdb/cover_big/co91ga.jpg",
  "platforms": [
    {
      "name": "Windows"
    }
  ],
  "provider_games": [
    {
      "name": "Kevin(1997-2077)",
      "slug": "kevin-1997-2077",
      "service": "igdb"
    }
  ],
  "aliases": [],
  "shaders": [],
  "discord_id": "",
  "change_for": null
}