{
  "id": 37824,
  "game_id": 255980,
  "game_slug": "hospital",
  "name": "Hospital",
  "year": null,
  "user": "vanstaveren",
  "runner": "steam",
  "slug": "hospital-steam",
  "version": "steam",
  "description": "",
  "notes": "",
  "credits": "",
  "created_at": "2023-09-19T03:17:55.832499Z",
  "updated_at": "2023-09-19T03:17:55.832518Z",
  "draft": false,
  "published": true,
  "published_by": null,
  "rating": "",
  "is_playable": null,
  "steamid": null,
  "gogid": null,
  "gogslug": "",
  "humbleid": "",
  "humblestoreid": "",
  "humblestoreid_real": "",
  "script": {
    "game": {
      "appid": 2452070
    }
  },
  "content": "game:\n  appid: 2452070\n",
  "discord_id": ""
}