{
  "id": 255285,
  "name": "These Remains",
  "slug": "these-remains",
  "year": 2018,
  "banner_url": "",
  "icon_url": "",
  "coverart": "https://lutris.net/media/igdb/cover_big/co6x1o.jpg",
  "platforms": [
    {
      "name": "Browser"
    },
    {
      "name": "Windows"
    }
  ],
  "provider_games": [
    {
      "name": "These Remains",
      "slug": "these-remains",
      "service": "igdb"
    }
  ],
  "aliases": [],
  "shaders": [],
  "discord_id": "",
  "change_for": null
}