{
  "id": 43275,
  "name": "Sun Haven",
  "slug": "sun-haven",
  "year": 2021,
  "banner_url": "https://lutris.net/games/banner/sun-haven.jpg",
  "icon_url": "https://lutris.net/games/icon/sun-haven.png",
  "coverart": "https://lutris.net/media/igdb/cover_big/co2u2z.jpg",
  "platforms": [
    {
      "name": "Mac"
    },
    {
      "name": "Windows"
    }
  ],
  "provider_games": [
    {
      "name": "Sun Haven",
      "slug": "sun-haven",
      "service": "igdb"
    },
    {
      "name": "Sun Haven",
      "slug": "1432860",
      "service": "steam"
    }
  ],
  "aliases": [],
  "shaders": [],
  "discord_id": "",
  "change_for": null
}