{
  "id": 7215,
  "game_id": 16318,
  "game_slug": "heroes-of-might-magic-iv-complete",
  "name": "Heroes of Might & Magic IV: Complete",
  "year": 2004,
  "user": "veleiro",
  "runner": "wine",
  "slug": "heroes-of-might-magic-iv-comp-gog",
  "version": "GOG",
  "description": "",
  "notes": "",
  "credits": "",
  "created_at": "2018-01-31T23:29:50.575000Z",
  "updated_at": "2023-05-13T01:47:01.443433Z",
  "draft": false,
  "published": true,
  "published_by": 1,
  "rating": "",
  "is_playable": null,
  "steamid": null,
  "gogid": 1207658915,
  "gogslug": "heroes_of_might_and_magic_4_complete",
  "humbleid": "",
  "humblestoreid": "",
  "humblestoreid_real": "",
  "script": {
    "files": [
      {
        "file1": "N/A:Please select the GOG installer"
      }
    ],
    "game": {
      "exe": "drive_c/GOG Games/HoMM 4 Complete/heroes4.exe",
      "prefix": "$GAMEDIR"
    },
    "installer": [
      {
        "task": {
          "executable": "$file1",
          "name": "wineexec",
          "prefix": "$GAMEDIR"
        }
      },
      {
        "task": {
          "description": "Deny the window manager to control the windows.",
          "key": "Managed",
          "name": "set_regedit",
          "path": "HKEY_CURRENT_USER\\Software\\Wine\\X11 Driver",
          "prefix": "$GAMEDIR",
          "value": "N"
        }
      },
      {
        "task": {
          "app": "directplay",
          "description": "Installing directplay for multiplayer support",
          "name": "winetricks",
          "prefix": "$GAMEDIR",
          "silent": true
        }
      }
    ]
  },
  "content": "files:\n- file1: N/A:Please select the GOG installer\ngame:\n  exe: drive_c/GOG Games/HoMM 4 Complete/heroes4.exe\n  prefix: $GAMEDIR\ninstaller:\n- task:\n    executable: $file1\n    name: wineexec\n    prefix: $GAMEDIR\n- task:\n    description: Deny the window manager to control the windows.\n    key: Managed\n    name: set_regedit\n    path: HKEY_CURRENT_USER\\Software\\Wine\\X11 Driver\n    prefix: $GAMEDIR\n    value: N\n- task:\n    app: directplay\n    description: Installing directplay for multiplayer support\n    name: winetricks\n    prefix: $GAMEDIR\n    silent: true\n",
  "discord_id": ""
}