{
  "id": 292986,
  "name": "Mother Bunker VR",
  "slug": "mother-bunker-vr",
  "year": null,
  "banner_url": "",
  "icon_url": "",
  "coverart": "https://lutris.net/media/igdb/cover_big/co8lvl.jpg",
  "platforms": [],
  "provider_games": [
    {
      "name": "Mother Bunker VR",
      "slug": "mother-bunker-vr",
      "service": "igdb"
    }
  ],
  "aliases": [],
  "shaders": [],
  "discord_id": "",
  "change_for": null
}