{
  "id": 286245,
  "name": "Bazookarrots",
  "slug": "bazookarrots",
  "year": 2024,
  "banner_url": "",
  "icon_url": "",
  "coverart": null,
  "platforms": [
    {
      "name": "MSX2"
    }
  ],
  "provider_games": [
    {
      "name": "Bazookarrots",
      "slug": "bazookarrots",
      "service": "igdb"
    }
  ],
  "aliases": [],
  "shaders": [],
  "discord_id": "",
  "change_for": null
}