{
  "id": 144091,
  "name": "Boom Karts: Multiplayer Kart Racing",
  "slug": "boom-karts-multiplayer-kart-racing",
  "year": 2021,
  "banner_url": "",
  "icon_url": "",
  "coverart": "https://lutris.net/media/igdb/cover_big/co2w07.jpg",
  "platforms": [
    {
      "name": "Android"
    }
  ],
  "provider_games": [
    {
      "name": "Boom Karts: Multiplayer Kart Racing",
      "slug": "boom-karts-multiplayer-kart-racing",
      "service": "igdb"
    }
  ],
  "aliases": [],
  "shaders": [],
  "discord_id": "",
  "change_for": null
}