{
  "id": 10596,
  "name": "Machine Hunt",
  "slug": "machine-hunt",
  "year": 2017,
  "banner_url": "https://lutris.net/games/banner/machine-hunt.jpg",
  "icon_url": "https://lutris.net/games/icon/machine-hunt.png",
  "coverart": "https://lutris.net/media/igdb/cover_big/co7jqv.jpg",
  "platforms": [
    {
      "name": "Linux"
    },
    {
      "name": "Mac"
    },
    {
      "name": "Windows"
    }
  ],
  "provider_games": [
    {
      "name": "Machine Hunt",
      "slug": "546930",
      "service": "steam"
    },
    {
      "name": "Machine Hunt",
      "slug": "machine-hunt",
      "service": "igdb"
    }
  ],
  "aliases": [],
  "shaders": [],
  "discord_id": "",
  "change_for": null
}