{
  "id": 114339,
  "name": "Donkey Kong Circus",
  "slug": "donkey-kong-circus",
  "year": 1984,
  "banner_url": "",
  "icon_url": "",
  "coverart": "https://lutris.net/media/igdb/cover_big/co217r.jpg",
  "platforms": [
    {
      "name": "Game & Watch"
    }
  ],
  "provider_games": [
    {
      "name": "Donkey Kong Circus",
      "slug": "donkey-kong-circus",
      "service": "igdb"
    }
  ],
  "aliases": [],
  "shaders": [],
  "discord_id": "",
  "change_for": null
}