{
  "id": 8179,
  "name": "The Political Machine 2016",
  "slug": "the-political-machine-2016",
  "year": 2016,
  "banner_url": "https://lutris.net/games/banner/the-political-machine-2016.jpg",
  "icon_url": "https://lutris.net/games/icon/the-political-machine-2016.png",
  "coverart": "https://lutris.net/media/igdb/cover_big/co441h.jpg",
  "platforms": [
    {
      "name": "Windows"
    }
  ],
  "provider_games": [
    {
      "name": "The Political Machine 2016",
      "slug": "404620",
      "service": "steam"
    },
    {
      "name": "The Political Machine 2016",
      "slug": "the-political-machine-2016",
      "service": "igdb"
    },
    {
      "name": "The Political Machine 2016",
      "slug": "1447142495",
      "service": "gog"
    }
  ],
  "aliases": [],
  "shaders": [],
  "discord_id": "",
  "change_for": null
}