{
  "id": 280135,
  "name": "Universe Size Comparison VR",
  "slug": "universe-size-comparison-vr",
  "year": null,
  "banner_url": "",
  "icon_url": "",
  "coverart": "https://lutris.net/media/igdb/cover_big/co80v7.jpg",
  "platforms": [],
  "provider_games": [
    {
      "name": "Universe Size Comparison VR",
      "slug": "universe-size-comparison-vr",
      "service": "igdb"
    }
  ],
  "aliases": [],
  "shaders": [],
  "discord_id": "",
  "change_for": null
}