{
  "id": 36221,
  "name": "Top Ranking Stars",
  "slug": "top-ranking-stars",
  "year": 1993,
  "banner_url": "",
  "icon_url": "https://lutris.net/games/icon/top-ranking-stars.png",
  "coverart": "https://lutris.net/media/igdb/cover_big/b4x3bs4dlxhzqqbvl1j8.jpg",
  "platforms": [
    {
      "name": "Arcade"
    }
  ],
  "provider_games": [
    {
      "name": "Top Ranking Stars",
      "slug": "trstar",
      "service": "mame"
    },
    {
      "name": "Top Ranking Stars",
      "slug": "top-ranking-stars",
      "service": "igdb"
    }
  ],
  "aliases": [],
  "shaders": [],
  "discord_id": "",
  "change_for": null
}