{
  "id": 255245,
  "name": "Slaughter: The Lost Outpost",
  "slug": "slaughter-the-lost-outpost",
  "year": null,
  "banner_url": "",
  "icon_url": "",
  "coverart": "https://lutris.net/media/igdb/cover_big/co7299.jpg",
  "platforms": [],
  "provider_games": [
    {
      "name": "Slaughter: The Lost Outpost",
      "slug": "slaughter-the-lost-outpost",
      "service": "igdb"
    }
  ],
  "aliases": [],
  "shaders": [],
  "discord_id": "",
  "change_for": null
}