{
  "id": 161945,
  "name": "PRINCESS and KNIGHT",
  "slug": "princess-and-knight",
  "year": null,
  "banner_url": "",
  "icon_url": "",
  "coverart": "https://lutris.net/media/igdb/cover_big/co3vki.jpg",
  "platforms": [],
  "provider_games": [
    {
      "name": "Princess and Knight",
      "slug": "princess-and-knight",
      "service": "igdb"
    }
  ],
  "aliases": [],
  "shaders": [],
  "discord_id": "",
  "change_for": null
}