{
  "id": 63643,
  "name": "NCAA Final Four 2004",
  "slug": "ncaa-final-four-2004",
  "year": null,
  "banner_url": "",
  "icon_url": "",
  "coverart": "https://lutris.net/media/igdb/cover_big/dsmnvpklwlnymjn4xtoo.jpg",
  "platforms": [],
  "provider_games": [
    {
      "name": "NCAA Final Four 2004",
      "slug": "ncaa-final-four-2004",
      "service": "igdb"
    }
  ],
  "aliases": [],
  "shaders": [],
  "discord_id": "",
  "change_for": null
}