{
  "id": 155894,
  "name": "BattleBit",
  "slug": "battlebit",
  "year": 2017,
  "banner_url": "",
  "icon_url": "",
  "coverart": "https://lutris.net/media/igdb/cover_big/co3xrw.jpg",
  "platforms": [
    {
      "name": "Windows"
    }
  ],
  "provider_games": [
    {
      "name": "BattleBit",
      "slug": "battlebit",
      "service": "igdb"
    }
  ],
  "aliases": [],
  "shaders": [],
  "discord_id": "",
  "change_for": null
}