{
  "id": 255304,
  "name": "Trench Runner!",
  "slug": "trench-runner",
  "year": 2022,
  "banner_url": "",
  "icon_url": "",
  "coverart": "https://lutris.net/media/igdb/cover_big/co6x0h.jpg",
  "platforms": [
    {
      "name": "Philips Videopac G7000"
    }
  ],
  "provider_games": [
    {
      "name": "Trench Runner!",
      "slug": "trench-runner",
      "service": "igdb"
    }
  ],
  "aliases": [],
  "shaders": [],
  "discord_id": "",
  "change_for": null
}