{
  "id": 258239,
  "name": "Hansel and Gretel: Interactive Book",
  "slug": "hansel-and-gretel-interactive-book",
  "year": null,
  "banner_url": "",
  "icon_url": "",
  "coverart": "https://lutris.net/media/igdb/cover_big/co71vz.jpg",
  "platforms": [],
  "provider_games": [
    {
      "name": "Hansel and Gretel: Interactive Book",
      "slug": "hansel-and-gretel-interactive-book",
      "service": "igdb"
    }
  ],
  "aliases": [],
  "shaders": [],
  "discord_id": "",
  "change_for": null
}