{
  "id": 150686,
  "name": "100 Years' War",
  "slug": "100-years-war",
  "year": null,
  "banner_url": "",
  "icon_url": "",
  "coverart": "https://lutris.net/media/igdb/cover_big/co3krg.jpg",
  "platforms": [],
  "provider_games": [
    {
      "name": "100 Years' War",
      "slug": "100-years-war",
      "service": "igdb"
    }
  ],
  "aliases": [],
  "shaders": [],
  "discord_id": "",
  "change_for": null
}