{
  "id": 95447,
  "name": "Slap The Bulls",
  "slug": "slap-the-bulls",
  "year": null,
  "banner_url": "",
  "icon_url": "",
  "coverart": null,
  "platforms": [],
  "provider_games": [
    {
      "name": "Slap the Bulls",
      "slug": "slap-the-bulls",
      "service": "igdb"
    }
  ],
  "aliases": [],
  "shaders": [],
  "discord_id": "",
  "change_for": null
}