{
  "id": 8779,
  "game_id": 19361,
  "game_slug": "hadaka-shitsuji-naked-butlers",
  "name": "Hadaka Shitsuji - Naked Butlers",
  "year": 2017,
  "user": "kimchitea",
  "runner": "linux",
  "slug": "hadaka-shitsuji-naked-butlers-mangagamer",
  "version": "MangaGamer",
  "description": null,
  "notes": "",
  "credits": "",
  "created_at": "2018-06-18T05:09:27.366000Z",
  "updated_at": "2024-04-03T05:34:41.182824Z",
  "draft": false,
  "published": true,
  "published_by": null,
  "rating": "",
  "is_playable": null,
  "steamid": 1031020,
  "gogid": null,
  "gogslug": "",
  "humbleid": "",
  "humblestoreid": "",
  "humblestoreid_real": "",
  "script": {
    "files": [
      {
        "file1": "N/A:Please select the MangaGamer archive"
      }
    ],
    "game": {
      "exe": "Hadaka.sh"
    },
    "installer": [
      {
        "extract": {
          "file": "$file1"
        }
      }
    ]
  },
  "content": "files:\n- file1: N/A:Please select the MangaGamer archive\ngame:\n  exe: Hadaka.sh\ninstaller:\n- extract:\n    file: $file1\n",
  "discord_id": ""
}