{
  "id": 43561,
  "name": "The Sinking City (Deluxe Edition)",
  "slug": "the-sinking-city-deluxe-edition",
  "year": 2020,
  "banner_url": "https://lutris.net/games/banner/the-sinking-city-deluxe-edition.jpg",
  "icon_url": "",
  "coverart": "https://lutris.net/media/igdb/cover_big/co6ohd.jpg",
  "platforms": [
    {
      "name": "Windows"
    }
  ],
  "provider_games": [
    {
      "name": "The Sinking City: Deluxe Edition",
      "slug": "the-sinking-city-deluxe-edition",
      "service": "igdb"
    }
  ],
  "aliases": [],
  "shaders": [],
  "discord_id": "",
  "change_for": null
}