{
  "id": 232489,
  "name": "Throne Rush",
  "slug": "throne-rush--1",
  "year": 2013,
  "banner_url": "",
  "icon_url": "",
  "coverart": null,
  "platforms": [
    {
      "name": "Android"
    }
  ],
  "provider_games": [
    {
      "name": "Throne Rush",
      "slug": "throne-rush--1",
      "service": "igdb"
    }
  ],
  "aliases": [],
  "shaders": [],
  "discord_id": "",
  "change_for": null
}