{
  "id": 3345,
  "name": "Trainz Trouble",
  "slug": "trainz-trouble",
  "year": 2014,
  "banner_url": "https://lutris.net/games/banner/trainz-trouble.jpg",
  "icon_url": "https://lutris.net/games/icon/trainz-trouble.png",
  "coverart": "https://lutris.net/media/igdb/cover_big/sp45memjzwwv33eocagv.jpg",
  "platforms": [
    {
      "name": "Windows"
    }
  ],
  "provider_games": [
    {
      "name": "Trainz Trouble",
      "slug": "319300",
      "service": "steam"
    },
    {
      "name": "Trainz Trouble",
      "slug": "trainz-trouble",
      "service": "igdb"
    }
  ],
  "aliases": [],
  "shaders": [],
  "discord_id": "",
  "change_for": null
}