{
  "id": 52288,
  "name": "Resolution 101",
  "slug": "resolution-101",
  "year": 1990,
  "banner_url": "",
  "icon_url": "",
  "coverart": "https://lutris.net/media/igdb/cover_big/f1pjenbp4mhrjdp0ev6t.jpg",
  "platforms": [
    {
      "name": "Amiga"
    },
    {
      "name": "Atari ST"
    }
  ],
  "provider_games": [
    {
      "name": "Resolution 101",
      "slug": "resolution-101",
      "service": "igdb"
    }
  ],
  "aliases": [],
  "shaders": [],
  "discord_id": "",
  "change_for": null
}