{
  "id": 6659,
  "game_id": 7458,
  "game_slug": "the-oil-blue",
  "name": "The Oil Blue",
  "year": 2015,
  "user": "sdestroyiers",
  "runner": "winesteam",
  "slug": "the-oil-blue-steam",
  "version": "Steam",
  "description": null,
  "notes": "",
  "credits": "",
  "created_at": "2017-12-14T06:15:08.854000Z",
  "updated_at": "2017-12-17T14:03:38.964041Z",
  "draft": false,
  "published": true,
  "published_by": null,
  "rating": "",
  "is_playable": null,
  "steamid": 386700,
  "gogid": null,
  "gogslug": "",
  "humbleid": "",
  "humblestoreid": "",
  "humblestoreid_real": "",
  "script": {
    "game": {
      "appid": 386700
    },
    "installer": [
      {
        "write_config": {
          "file": "$GAMEDIR/drive_c/Program Files/Steam/steamapps/common/The Oil Blue/datafiles/options.sav",
          "key": "OPsoundprocessvarini",
          "section": "Data",
          "value": 0
        }
      }
    ]
  },
  "content": "game:\n  appid: 386700\ninstaller:\n- write_config:\n    file: $GAMEDIR/drive_c/Program Files/Steam/steamapps/common/The Oil Blue/datafiles/options.sav\n    key: OPsoundprocessvarini\n    section: Data\n    value: 0\n",
  "discord_id": ""
}