{
  "id": 3573,
  "name": "About Love, Hate and the other ones",
  "slug": "about-love-hate-and-the-other-ones",
  "year": 2014,
  "banner_url": "https://lutris.net/games/banner/about-love-hate-and-the-other-ones.jpg",
  "icon_url": "https://lutris.net/games/icon/about-love-hate-and-the-other-ones.png",
  "coverart": "https://lutris.net/media/igdb/cover_big/co3ky8.jpg",
  "platforms": [
    {
      "name": "Android"
    },
    {
      "name": "Linux"
    },
    {
      "name": "Mac"
    },
    {
      "name": "Windows"
    }
  ],
  "provider_games": [
    {
      "name": "About Love, Hate and the other ones",
      "slug": "277680",
      "service": "steam"
    },
    {
      "name": "About Love, Hate and the other ones",
      "slug": "about-love-hate-and-the-other-ones",
      "service": "igdb"
    }
  ],
  "aliases": [],
  "shaders": [],
  "discord_id": "",
  "change_for": null
}