{
  "id": 146976,
  "name": "The school leaving day",
  "slug": "the-school-leaving-day",
  "year": 2020,
  "banner_url": "",
  "icon_url": "",
  "coverart": "https://lutris.net/media/igdb/cover_big/co2c14.jpg",
  "platforms": [
    {
      "name": "Windows"
    }
  ],
  "provider_games": [
    {
      "name": "The school leaving day",
      "slug": "the-school-leaving-day",
      "service": "igdb"
    }
  ],
  "aliases": [],
  "shaders": [],
  "discord_id": "",
  "change_for": null
}