{
  "id": 146948,
  "name": "Hammer & Anvil VR",
  "slug": "hammer-and-anvil-vr",
  "year": null,
  "banner_url": "",
  "icon_url": "",
  "coverart": null,
  "platforms": [],
  "provider_games": [
    {
      "name": "Hammer & Anvil VR",
      "slug": "hammer-and-anvil-vr",
      "service": "igdb"
    }
  ],
  "aliases": [],
  "shaders": [],
  "discord_id": "",
  "change_for": null
}