{
  "id": 168317,
  "name": "Touhou Gensokyo Visitor",
  "slug": "touhou-gensokyo-visitor",
  "year": null,
  "banner_url": "",
  "icon_url": "",
  "coverart": "https://lutris.net/media/igdb/cover_big/co44sm.jpg",
  "platforms": [],
  "provider_games": [
    {
      "name": "Touhou Gensokyo Visitor",
      "slug": "touhou-gensokyo-visitor",
      "service": "igdb"
    }
  ],
  "aliases": [],
  "shaders": [],
  "discord_id": "",
  "change_for": null
}