{
  "id": 19836,
  "game_id": 4360,
  "game_slug": "ryse-son-of-rome",
  "name": "Ryse: Son of Rome",
  "year": 2014,
  "user": "Fryst",
  "runner": "steam",
  "slug": "ryse-son-of-rome-steam-proton",
  "version": "Steam Proton",
  "description": null,
  "notes": "",
  "credits": "",
  "created_at": "2020-04-20T02:17:02.057414Z",
  "updated_at": "2020-04-23T08:05:46.872635Z",
  "draft": false,
  "published": true,
  "published_by": null,
  "rating": "",
  "is_playable": null,
  "steamid": 302510,
  "gogid": null,
  "gogslug": "",
  "humbleid": "",
  "humblestoreid": "",
  "humblestoreid_real": "",
  "script": {
    "game": {
      "appid": 302510
    }
  },
  "content": "game:\n  appid: 302510\n",
  "discord_id": ""
}