{
  "id": 223702,
  "name": "Nikolai's Toys",
  "slug": "nikolais-toys",
  "year": null,
  "banner_url": "",
  "icon_url": "",
  "coverart": null,
  "platforms": [],
  "provider_games": [
    {
      "name": "Nikolai's Toys",
      "slug": "nikolais-toys",
      "service": "igdb"
    }
  ],
  "aliases": [],
  "shaders": [],
  "discord_id": "",
  "change_for": null
}