{
  "id": 192355,
  "name": "Race! Beauty! Bugs!",
  "slug": "race-beauty-bugs",
  "year": 2022,
  "banner_url": "",
  "icon_url": "",
  "coverart": "https://lutris.net/media/igdb/cover_big/co4cqi.jpg",
  "platforms": [
    {
      "name": "Windows"
    }
  ],
  "provider_games": [
    {
      "name": "Race! Beauty! Bugs!",
      "slug": "race-beauty-bugs",
      "service": "igdb"
    }
  ],
  "aliases": [],
  "shaders": [],
  "discord_id": "",
  "change_for": null
}