{
  "id": 39403,
  "name": "Rulent Tower VR",
  "slug": "rulent-tower-vr",
  "year": 2020,
  "banner_url": "https://lutris.net/games/banner/rulent-tower-vr.jpg",
  "icon_url": "",
  "coverart": "https://lutris.net/media/igdb/cover_big/co4n5k.jpg",
  "platforms": [
    {
      "name": "Windows"
    }
  ],
  "provider_games": [
    {
      "name": "Rulent Tower VR",
      "slug": "rulent-tower-vr",
      "service": "igdb"
    }
  ],
  "aliases": [],
  "shaders": [],
  "discord_id": "",
  "change_for": null
}