{
  "id": 3744,
  "name": "Life Is Strange",
  "slug": "life-is-strange",
  "year": 2015,
  "banner_url": "https://lutris.net/games/banner/life-is-strange.jpg",
  "icon_url": "https://lutris.net/games/icon/life-is-strange.png",
  "coverart": "https://lutris.net/media/igdb/cover_big/co1r8e.jpg",
  "platforms": [
    {
      "name": "Android"
    },
    {
      "name": "Linux"
    },
    {
      "name": "Mac"
    },
    {
      "name": "Sony Playstation 3"
    },
    {
      "name": "Sony Playstation 4"
    },
    {
      "name": "Windows"
    },
    {
      "name": "Xbox 360"
    },
    {
      "name": "Xbox One"
    }
  ],
  "provider_games": [
    {
      "name": "Life is Strange™",
      "slug": "319630",
      "service": "steam"
    },
    {
      "name": "Life is Strange: Complete Season",
      "slug": "1931614212",
      "service": "gog"
    },
    {
      "name": "Life is Strange",
      "slug": "life-is-strange",
      "service": "igdb"
    }
  ],
  "aliases": [
    {
      "slug": "life-is-strangetm",
      "name": "LIfe is Strange™"
    },
    {
      "slug": "life-is-strange-complete-season",
      "name": "Life is Strange: Complete Season"
    }
  ],
  "shaders": [],
  "discord_id": "363430904867192832",
  "change_for": null
}