{
  "id": 34030,
  "name": "Excelsior",
  "slug": "excelsior",
  "year": 1996,
  "banner_url": "",
  "icon_url": "https://lutris.net/games/icon/excelsior.png",
  "coverart": "https://lutris.net/media/igdb/cover_big/skuxgcynykvrxejgdidp.jpg",
  "platforms": [
    {
      "name": "Arcade"
    }
  ],
  "provider_games": [
    {
      "name": "Excelsior",
      "slug": "excelsr",
      "service": "mame"
    },
    {
      "name": "Excelsior",
      "slug": "excelsior",
      "service": "igdb"
    }
  ],
  "aliases": [],
  "shaders": [],
  "discord_id": "",
  "change_for": null
}