{
  "id": 92368,
  "name": "Automatrons: Shoot and Drive",
  "slug": "automatrons-shoot-and-drive",
  "year": null,
  "banner_url": "",
  "icon_url": "",
  "coverart": null,
  "platforms": [],
  "provider_games": [
    {
      "name": "Automatrons: Shoot and Drive",
      "slug": "automatrons-shoot-and-drive",
      "service": "igdb"
    }
  ],
  "aliases": [],
  "shaders": [],
  "discord_id": "",
  "change_for": null
}