{
  "id": 285532,
  "name": "Phoenix Wright: Ace Attorney - Legal Panels",
  "slug": "phoenix-wright-ace-attorney-legal-panels",
  "year": 2015,
  "banner_url": "",
  "icon_url": "",
  "coverart": "https://lutris.net/media/igdb/cover_big/co88z8.jpg",
  "platforms": [
    {
      "name": "Windows"
    }
  ],
  "provider_games": [
    {
      "name": "Phoenix Wright: Ace Attorney - Legal Panels",
      "slug": "phoenix-wright-ace-attorney-legal-panels",
      "service": "igdb"
    }
  ],
  "aliases": [],
  "shaders": [],
  "discord_id": "",
  "change_for": null
}