{
  "id": 266326,
  "name": "Slave Zero X: Digital Deluxe Edition",
  "slug": "slave-zero-x-digital-deluxe-edition",
  "year": null,
  "banner_url": "",
  "icon_url": "",
  "coverart": "https://lutris.net/media/igdb/cover_big/co7dpy.jpg",
  "platforms": [],
  "provider_games": [
    {
      "name": "Slave Zero X: Digital Deluxe Edition",
      "slug": "slave-zero-x-digital-deluxe-edition",
      "service": "igdb"
    }
  ],
  "aliases": [],
  "shaders": [],
  "discord_id": "",
  "change_for": null
}