{
  "id": 60959,
  "name": "Jikkyou Powerful Pro Yakyuu '95",
  "slug": "jikkyou-powerful-pro-yakyuu-95",
  "year": null,
  "banner_url": "",
  "icon_url": "",
  "coverart": "https://lutris.net/media/igdb/cover_big/m2tdbwdhrwotu7mdpvmg.jpg",
  "platforms": [],
  "provider_games": [
    {
      "name": "Jikkyou Powerful Pro Yakyuu '95",
      "slug": "jikkyou-powerful-pro-yakyuu-95",
      "service": "igdb"
    }
  ],
  "aliases": [],
  "shaders": [],
  "discord_id": "",
  "change_for": null
}