{
  "id": 18085,
  "game_id": 10564,
  "game_slug": "streets-of-rogue",
  "name": "Streets of Rogue",
  "year": 2019,
  "user": "Fakthys",
  "runner": "linux",
  "slug": "streets-of-rogue-gog",
  "version": "GOG",
  "description": null,
  "notes": "",
  "credits": "",
  "created_at": "2020-01-26T15:50:34.999000Z",
  "updated_at": "2020-01-31T16:19:47.678433Z",
  "draft": false,
  "published": true,
  "published_by": 20548,
  "rating": "",
  "is_playable": null,
  "steamid": 512900,
  "gogid": 1602894919,
  "gogslug": "streets_of_rogue",
  "humbleid": "",
  "humblestoreid": "",
  "humblestoreid_real": "",
  "script": {
    "files": [
      {
        "goginstaller": "N/A:Please select the GOG.com Linux installer"
      }
    ],
    "game": {
      "exe": "start.sh"
    },
    "installer": [
      {
        "extract": {
          "dst": "$CACHE/GOG",
          "file": "goginstaller",
          "format": "zip"
        }
      },
      {
        "merge": {
          "dst": "$GAMEDIR",
          "src": "$CACHE/GOG/data/noarch/"
        }
      }
    ],
    "system": {
      "terminal": true
    }
  },
  "content": "files:\n- goginstaller: N/A:Please select the GOG.com Linux installer\ngame:\n  exe: start.sh\ninstaller:\n- extract:\n    dst: $CACHE/GOG\n    file: goginstaller\n    format: zip\n- merge:\n    dst: $GAMEDIR\n    src: $CACHE/GOG/data/noarch/\nsystem:\n  terminal: true\n",
  "discord_id": "451545147361067008"
}