{
  "id": 289076,
  "name": "Koi Land",
  "slug": "koi-land",
  "year": null,
  "banner_url": "",
  "icon_url": "",
  "coverart": "https://lutris.net/media/igdb/cover_big/co8di4.jpg",
  "platforms": [],
  "provider_games": [
    {
      "name": "Koi Land",
      "slug": "koi-land",
      "service": "igdb"
    }
  ],
  "aliases": [],
  "shaders": [],
  "discord_id": "",
  "change_for": null
}