{
  "id": 256637,
  "name": "Rust'N Ruin",
  "slug": "rustn-ruin",
  "year": null,
  "banner_url": "",
  "icon_url": "",
  "coverart": "https://lutris.net/media/igdb/cover_big/co6z7a.jpg",
  "platforms": [],
  "provider_games": [
    {
      "name": "Rust'N Ruin",
      "slug": "rustn-ruin",
      "service": "igdb"
    }
  ],
  "aliases": [],
  "shaders": [],
  "discord_id": "",
  "change_for": null
}