{
  "id": 186823,
  "name": "Quill This Love",
  "slug": "quill-this-love",
  "year": null,
  "banner_url": "",
  "icon_url": "",
  "coverart": null,
  "platforms": [],
  "provider_games": [
    {
      "name": "Quill This Love",
      "slug": "quill-this-love",
      "service": "igdb"
    }
  ],
  "aliases": [],
  "shaders": [],
  "discord_id": "",
  "change_for": null
}