{
  "id": 145690,
  "name": "Alternate Jake Hunter: DAEDALUS The Awakening of Golden Jazz",
  "slug": "alternate-jake-hunter-daedalus-the-awakening-of-golden-jazz",
  "year": 2019,
  "banner_url": "",
  "icon_url": "",
  "coverart": "https://lutris.net/media/igdb/cover_big/co1mhp.jpg",
  "platforms": [
    {
      "name": "Nintendo Switch"
    },
    {
      "name": "Windows"
    }
  ],
  "provider_games": [
    {
      "name": "Alternate Jake Hunter: DAEDALUS The Awakening of Golden Jazz",
      "slug": "alternate-jake-hunter-daedalus-the-awakening-of-golden-jazz",
      "service": "igdb"
    }
  ],
  "aliases": [],
  "shaders": [],
  "discord_id": "",
  "change_for": null
}