{
  "id": 9328,
  "name": "Florensia",
  "slug": "florensia",
  "year": 2016,
  "banner_url": "https://lutris.net/games/banner/florensia.jpg",
  "icon_url": "https://lutris.net/games/icon/florensia.png",
  "coverart": "https://lutris.net/media/igdb/cover_big/co2q69.jpg",
  "platforms": [
    {
      "name": "Windows"
    }
  ],
  "provider_games": [
    {
      "name": "Florensia",
      "slug": "384030",
      "service": "steam"
    },
    {
      "name": "Florensia",
      "slug": "florensia",
      "service": "igdb"
    }
  ],
  "aliases": [],
  "shaders": [],
  "discord_id": "",
  "change_for": null
}