{
  "id": 5449,
  "name": "Descent: Underground",
  "slug": "descent-underground",
  "year": 2015,
  "banner_url": "https://lutris.net/games/banner/descent-underground.jpg",
  "icon_url": "https://lutris.net/games/icon/descent-underground.png",
  "coverart": null,
  "platforms": [
    {
      "name": "Linux"
    }
  ],
  "provider_games": [
    {
      "name": "Descent: Underground",
      "slug": "1788120505",
      "service": "gog"
    }
  ],
  "aliases": [],
  "shaders": [],
  "discord_id": "",
  "change_for": null
}