{
  "id": 193353,
  "name": "Boboboubo Boubobo: Majide!!? Shinken Shoubu",
  "slug": "boboboubo-boubobo-majide-shinken-shoubu",
  "year": 2003,
  "banner_url": "",
  "icon_url": "",
  "coverart": "https://lutris.net/media/igdb/cover_big/co9d83.jpg",
  "platforms": [
    {
      "name": "Nintendo Game Boy Advance"
    }
  ],
  "provider_games": [
    {
      "name": "Boboboubo Boubobo: Majide!!? Shinken Shoubu",
      "slug": "boboboubo-boubobo-majide-shinken-shoubu",
      "service": "igdb"
    }
  ],
  "aliases": [],
  "shaders": [],
  "discord_id": "",
  "change_for": null
}