{
  "id": 194733,
  "name": "Flatout Pixel Racing",
  "slug": "flatout-pixel-racing",
  "year": null,
  "banner_url": "",
  "icon_url": "",
  "coverart": "https://lutris.net/media/igdb/cover_big/co4qcm.jpg",
  "platforms": [],
  "provider_games": [
    {
      "name": "Flatout Pixel Racing",
      "slug": "flatout-pixel-racing",
      "service": "igdb"
    }
  ],
  "aliases": [],
  "shaders": [],
  "discord_id": "",
  "change_for": null
}