{
  "id": 221650,
  "name": "Soctics League",
  "slug": "soctics-league",
  "year": null,
  "banner_url": "",
  "icon_url": "",
  "coverart": "https://lutris.net/media/igdb/cover_big/co6kik.jpg",
  "platforms": [],
  "provider_games": [
    {
      "name": "Soctics League",
      "slug": "soctics-league",
      "service": "igdb"
    }
  ],
  "aliases": [],
  "shaders": [],
  "discord_id": "",
  "change_for": null
}