{
  "id": 99174,
  "name": "Redcat: De Spannende Stedentocht",
  "slug": "redcat-de-spannende-stedentocht",
  "year": 1997,
  "banner_url": "",
  "icon_url": "",
  "coverart": "https://lutris.net/media/igdb/cover_big/co1swb.jpg",
  "platforms": [
    {
      "name": "Windows"
    }
  ],
  "provider_games": [
    {
      "name": "RedCat: De Spannende Stedentocht",
      "slug": "redcat-de-spannende-stedentocht",
      "service": "igdb"
    }
  ],
  "aliases": [],
  "shaders": [],
  "discord_id": "",
  "change_for": null
}