{
  "id": 42955,
  "name": "Imagine Lifetimes",
  "slug": "imagine-lifetimes",
  "year": 2020,
  "banner_url": "https://lutris.net/games/banner/imagine-lifetimes.jpg",
  "icon_url": "https://lutris.net/games/icon/imagine-lifetimes.png",
  "coverart": "https://lutris.net/media/igdb/cover_big/co2c1m.jpg",
  "platforms": [
    {
      "name": "Windows"
    }
  ],
  "provider_games": [
    {
      "name": "Imagine Lifetimes",
      "slug": "1229570",
      "service": "steam"
    },
    {
      "name": "Imagine Lifetimes",
      "slug": "imagine-lifetimes",
      "service": "igdb"
    }
  ],
  "aliases": [],
  "shaders": [],
  "discord_id": "",
  "change_for": null
}