{
  "id": 81298,
  "name": "ReROLL",
  "slug": "reroll",
  "year": null,
  "banner_url": "",
  "icon_url": "",
  "coverart": "https://lutris.net/media/igdb/cover_big/k3mkdsdp5vxcdnsz0pcb.jpg",
  "platforms": [],
  "provider_games": [
    {
      "name": "ReRoll",
      "slug": "reroll",
      "service": "igdb"
    }
  ],
  "aliases": [],
  "shaders": [],
  "discord_id": "",
  "change_for": null
}