{
  "id": 176996,
  "name": "Command & Conquer: Red Alert 3",
  "slug": "command-conquer-red-alert-3",
  "year": 2008,
  "banner_url": "",
  "icon_url": "",
  "coverart": "https://lutris.net/media/igdb/cover_big/co3m4l.jpg",
  "platforms": [
    {
      "name": "Mac"
    },
    {
      "name": "Sony Playstation 3"
    },
    {
      "name": "Windows"
    },
    {
      "name": "Xbox 360"
    }
  ],
  "provider_games": [
    {
      "name": "Command & Conquer: Red Alert 3",
      "slug": "command-conquer-red-alert-3",
      "service": "igdb"
    }
  ],
  "aliases": [],
  "shaders": [],
  "discord_id": "",
  "change_for": null
}