{
  "id": 7300,
  "name": "TVTower",
  "slug": "tvtower",
  "year": null,
  "banner_url": "https://lutris.net/games/banner/tvtower.jpg",
  "icon_url": "",
  "coverart": null,
  "platforms": [
    {
      "name": "Linux"
    },
    {
      "name": "Windows"
    }
  ],
  "provider_games": [],
  "aliases": [],
  "shaders": [],
  "discord_id": "",
  "change_for": null
}