{
  "id": 7289,
  "name": "Robot Arena",
  "slug": "robot-arena",
  "year": 2001,
  "banner_url": "https://lutris.net/games/banner/robot-arena.jpg",
  "icon_url": "",
  "coverart": "https://lutris.net/media/igdb/cover_big/mgv44gdveirtqfs52zs9.jpg",
  "platforms": [
    {
      "name": "Windows"
    }
  ],
  "provider_games": [
    {
      "name": "Robot Arena",
      "slug": "robot-arena",
      "service": "igdb"
    }
  ],
  "aliases": [],
  "shaders": [],
  "discord_id": "",
  "change_for": null
}