{
  "id": 49896,
  "name": "Home Run",
  "slug": "home-run",
  "year": 1978,
  "banner_url": "",
  "icon_url": "",
  "coverart": "https://lutris.net/media/igdb/cover_big/xitenlkfmvpqum0lnz6l.jpg",
  "platforms": [],
  "provider_games": [
    {
      "name": "Home Run",
      "slug": "home-run",
      "service": "igdb"
    }
  ],
  "aliases": [],
  "shaders": [],
  "discord_id": "",
  "change_for": null
}