{
  "id": 232333,
  "name": "Pseudoregalia",
  "slug": "pseudoregalia",
  "year": 2023,
  "banner_url": "https://lutris.net/games/banner/pseudoregalia.jpg",
  "icon_url": "",
  "coverart": "https://lutris.net/media/igdb/cover_big/co6bfm.jpg",
  "platforms": [
    {
      "name": "Windows"
    }
  ],
  "provider_games": [
    {
      "name": "Pseudoregalia",
      "slug": "2365810",
      "service": "steam"
    },
    {
      "name": "Pseudoregalia",
      "slug": "pseudoregalia",
      "service": "igdb"
    }
  ],
  "aliases": [],
  "shaders": [],
  "discord_id": "",
  "change_for": null
}