{
  "id": 80756,
  "name": "Beaky and the Egg Snatchers",
  "slug": "beaky-and-the-egg-snatchers",
  "year": null,
  "banner_url": "",
  "icon_url": "",
  "coverart": "https://lutris.net/media/igdb/cover_big/mviywmmnpskajuje9sq0.jpg",
  "platforms": [],
  "provider_games": [
    {
      "name": "Beaky and the Egg Snatchers",
      "slug": "beaky-and-the-egg-snatchers",
      "service": "igdb"
    }
  ],
  "aliases": [],
  "shaders": [],
  "discord_id": "",
  "change_for": null
}