{
  "id": 204443,
  "name": "Hydrosphere for Doom II",
  "slug": "hydrosphere-for-doom-ii",
  "year": 2022,
  "banner_url": "https://lutris.net/games/banner/hydrosphere-for-doom-ii.jpg",
  "icon_url": "",
  "coverart": null,
  "platforms": [
    {
      "name": "Linux"
    },
    {
      "name": "macOS"
    },
    {
      "name": "Windows"
    }
  ],
  "provider_games": [],
  "aliases": [],
  "shaders": [],
  "discord_id": "",
  "change_for": null
}