{
  "id": 194932,
  "name": "Pass the Sphero",
  "slug": "pass-the-sphero",
  "year": 2013,
  "banner_url": "",
  "icon_url": "",
  "coverart": null,
  "platforms": [],
  "provider_games": [
    {
      "name": "Pass the Sphero",
      "slug": "pass-the-sphero",
      "service": "igdb"
    }
  ],
  "aliases": [],
  "shaders": [],
  "discord_id": "",
  "change_for": null
}