{
  "id": 2409,
  "game_id": 4482,
  "game_slug": "the-adventures-of-tree",
  "name": "The Adventures of Tree",
  "year": 2016,
  "user": "gschaffran",
  "runner": "steam",
  "slug": "the-adventures-of-tree-steam",
  "version": "Steam",
  "description": "",
  "notes": "",
  "credits": "",
  "created_at": "2016-08-09T17:50:30.991693Z",
  "updated_at": "2016-08-18T10:13:56.453942Z",
  "draft": false,
  "published": true,
  "published_by": null,
  "rating": "",
  "is_playable": null,
  "steamid": 354860,
  "gogid": null,
  "gogslug": "",
  "humbleid": "",
  "humblestoreid": "",
  "humblestoreid_real": "",
  "script": {
    "game": {
      "appid": 354860
    }
  },
  "content": "game:\n  appid: 354860\n",
  "discord_id": ""
}