{
  "id": 73000,
  "name": "Off the Record: The Final Interview",
  "slug": "off-the-record-the-final-interview",
  "year": null,
  "banner_url": "",
  "icon_url": "",
  "coverart": null,
  "platforms": [],
  "provider_games": [
    {
      "name": "Off the Record: The Final Interview",
      "slug": "off-the-record-the-final-interview",
      "service": "igdb"
    }
  ],
  "aliases": [],
  "shaders": [],
  "discord_id": "",
  "change_for": null
}