{
  "id": 125636,
  "name": "Nyanco Space",
  "slug": "nyanco-space",
  "year": null,
  "banner_url": "",
  "icon_url": "",
  "coverart": "https://lutris.net/media/igdb/cover_big/co2t02.jpg",
  "platforms": [],
  "provider_games": [
    {
      "name": "Nyanco Space",
      "slug": "nyanco-space",
      "service": "igdb"
    }
  ],
  "aliases": [],
  "shaders": [],
  "discord_id": "",
  "change_for": null
}