{
  "id": 42592,
  "name": "Shady Lewd Kart",
  "slug": "shady-lewd-kart",
  "year": 2020,
  "banner_url": "https://lutris.net/games/banner/shady-lewd-kart.jpg",
  "icon_url": "https://lutris.net/games/icon/shady-lewd-kart.png",
  "coverart": "https://lutris.net/media/igdb/cover_big/co4rng.jpg",
  "platforms": [
    {
      "name": "Windows"
    }
  ],
  "provider_games": [
    {
      "name": "Shady Lewd Kart",
      "slug": "1200730",
      "service": "steam"
    },
    {
      "name": "Shady Lewd Kart",
      "slug": "shady-lewd-kart",
      "service": "igdb"
    },
    {
      "name": "Shady Lewd Kart",
      "slug": "2118623641",
      "service": "gog"
    }
  ],
  "aliases": [],
  "shaders": [],
  "discord_id": "",
  "change_for": null
}