{
  "id": 199687,
  "name": "The Final Hour",
  "slug": "the-final-hour",
  "year": null,
  "banner_url": "",
  "icon_url": "",
  "coverart": "https://lutris.net/media/igdb/cover_big/co4fon.jpg",
  "platforms": [],
  "provider_games": [
    {
      "name": "The Final Hour",
      "slug": "the-final-hour",
      "service": "igdb"
    }
  ],
  "aliases": [],
  "shaders": [],
  "discord_id": "",
  "change_for": null
}