{
  "id": 205936,
  "name": "Celestarium",
  "slug": "celestarium",
  "year": null,
  "banner_url": "",
  "icon_url": "",
  "coverart": "https://lutris.net/media/igdb/cover_big/co5sno.jpg",
  "platforms": [],
  "provider_games": [
    {
      "name": "Celestarium",
      "slug": "celestarium",
      "service": "igdb"
    }
  ],
  "aliases": [],
  "shaders": [],
  "discord_id": "",
  "change_for": null
}