{
  "id": 3001,
  "name": "Anomaly Defenders",
  "slug": "anomaly-defenders",
  "year": 2014,
  "banner_url": "https://lutris.net/games/banner/anomaly-defenders.jpg",
  "icon_url": "https://lutris.net/games/icon/anomaly-defenders.png",
  "coverart": "https://lutris.net/media/igdb/cover_big/co20oq.jpg",
  "platforms": [
    {
      "name": "Android"
    },
    {
      "name": "Linux"
    },
    {
      "name": "Mac"
    },
    {
      "name": "Windows"
    }
  ],
  "provider_games": [
    {
      "name": "Anomaly Defenders",
      "slug": "1207664863",
      "service": "gog"
    },
    {
      "name": "Anomaly Defenders",
      "slug": "294750",
      "service": "steam"
    },
    {
      "name": "Anomaly Defenders",
      "slug": "anomaly-defenders",
      "service": "igdb"
    }
  ],
  "aliases": [],
  "shaders": [],
  "discord_id": "",
  "change_for": null
}