{
  "id": 272542,
  "name": "Patrol no Gunji Hakubutsukan 3: Chouzetsu Muteki Kyuukyoku Heiki",
  "slug": "patrol-no-gunji-hakubutsukan-3-chouzetsu-muteki-kyuukyoku-heiki--1",
  "year": 2021,
  "banner_url": "",
  "icon_url": "",
  "coverart": "https://lutris.net/media/igdb/cover_big/co7oos.jpg",
  "platforms": [
    {
      "name": "Windows"
    }
  ],
  "provider_games": [
    {
      "name": "Patrol no Gunji Hakubutsukan 3: Chouzetsu Muteki Kyuukyoku Heiki",
      "slug": "patrol-no-gunji-hakubutsukan-3-chouzetsu-muteki-kyuukyoku-heiki--1",
      "service": "igdb"
    }
  ],
  "aliases": [],
  "shaders": [],
  "discord_id": "",
  "change_for": null
}