{
  "id": 86809,
  "name": "Star Tap",
  "slug": "star-tap",
  "year": null,
  "banner_url": "",
  "icon_url": "",
  "coverart": "https://lutris.net/media/igdb/cover_big/co8edd.jpg",
  "platforms": [],
  "provider_games": [
    {
      "name": "Star Tap",
      "slug": "star-tap",
      "service": "igdb"
    }
  ],
  "aliases": [],
  "shaders": [],
  "discord_id": "",
  "change_for": null
}