{
  "id": 156924,
  "name": "Skater Cat",
  "slug": "skater-cat",
  "year": 2014,
  "banner_url": "",
  "icon_url": "",
  "coverart": "https://lutris.net/media/igdb/cover_big/lq6fc752owvoceutnrxs.jpg",
  "platforms": [
    {
      "name": "Nintendo 3DS"
    }
  ],
  "provider_games": [
    {
      "name": "Skater Cat",
      "slug": "skater-cat",
      "service": "igdb"
    }
  ],
  "aliases": [],
  "shaders": [],
  "discord_id": "",
  "change_for": null
}