{
  "id": 249332,
  "name": "Aviophobia",
  "slug": "aviophobia",
  "year": null,
  "banner_url": "",
  "icon_url": "",
  "coverart": "https://lutris.net/media/igdb/cover_big/co6mqe.jpg",
  "platforms": [],
  "provider_games": [
    {
      "name": "Aviophobia",
      "slug": "aviophobia",
      "service": "igdb"
    }
  ],
  "aliases": [],
  "shaders": [],
  "discord_id": "",
  "change_for": null
}