{
  "id": 29552,
  "name": "Mortal Kombat Mythologies: Sub-Zero",
  "slug": "mortal-kombat-mythologies-sub-zero",
  "year": 1997,
  "banner_url": "https://lutris.net/games/banner/mortal-kombat-mythologies-sub-zero.jpg",
  "icon_url": "",
  "coverart": "https://lutris.net/media/igdb/cover_big/co1y23.jpg",
  "platforms": [
    {
      "name": "Nintendo 64"
    },
    {
      "name": "Sony PlayStation"
    }
  ],
  "provider_games": [
    {
      "name": "Mortal Kombat Mythologies: Sub-Zero",
      "slug": "mortal-kombat-mythologies-sub-zero",
      "service": "igdb"
    }
  ],
  "aliases": [],
  "shaders": [],
  "discord_id": "",
  "change_for": null
}