{
  "id": 83554,
  "name": "Curious George Visits the Library",
  "slug": "curious-george-visits-the-library",
  "year": 1989,
  "banner_url": "",
  "icon_url": "",
  "coverart": null,
  "platforms": [
    {
      "name": "Apple II"
    }
  ],
  "provider_games": [
    {
      "name": "Curious George Visits the Library",
      "slug": "curious-george-visits-the-library",
      "service": "igdb"
    }
  ],
  "aliases": [],
  "shaders": [],
  "discord_id": "",
  "change_for": null
}