{
  "id": 1602,
  "name": "X-COM: Apocalypse",
  "slug": "x-com-apocalypse",
  "year": 1997,
  "banner_url": "https://lutris.net/games/banner/x-com-apocalypse.jpg",
  "icon_url": "https://lutris.net/games/icon/x-com-apocalypse.png",
  "coverart": "https://lutris.net/media/igdb/cover_big/co2g7i.jpg",
  "platforms": [
    {
      "name": "MS-DOS"
    },
    {
      "name": "PC-98"
    },
    {
      "name": "Sony PlayStation"
    },
    {
      "name": "Windows"
    }
  ],
  "provider_games": [
    {
      "name": "X-Com: Apocalypse",
      "slug": "1445249430",
      "service": "gog"
    },
    {
      "name": "X-COM: Apocalypse",
      "slug": "7660",
      "service": "steam"
    },
    {
      "name": "X-COM: Apocalypse",
      "slug": "x-com-apocalypse",
      "service": "igdb"
    }
  ],
  "aliases": [
    {
      "slug": "xcom-apocalypse",
      "name": "XCOM: Apocalypse"
    }
  ],
  "shaders": [],
  "discord_id": "",
  "change_for": null
}