{
  "id": 80186,
  "name": "3D Dotty",
  "slug": "3d-dotty",
  "year": 1987,
  "banner_url": "",
  "icon_url": "",
  "coverart": "https://lutris.net/media/igdb/cover_big/z7bvwfjs42ylylcgvisi.jpg",
  "platforms": [
    {
      "name": "BBC Microcomputer System"
    }
  ],
  "provider_games": [
    {
      "name": "3D Dotty",
      "slug": "3d-dotty",
      "service": "igdb"
    }
  ],
  "aliases": [],
  "shaders": [],
  "discord_id": "",
  "change_for": null
}