{
  "id": 54425,
  "name": "Sea Hunt",
  "slug": "sea-hunt",
  "year": 1987,
  "banner_url": "",
  "icon_url": "",
  "coverart": "https://lutris.net/media/igdb/cover_big/co20iv.jpg",
  "platforms": [],
  "provider_games": [
    {
      "name": "Sea Hunt",
      "slug": "sea-hunt",
      "service": "igdb"
    }
  ],
  "aliases": [],
  "shaders": [],
  "discord_id": "",
  "change_for": null
}