{
  "id": 186782,
  "name": "Crashed Bandicoot",
  "slug": "crashed-bandicoot",
  "year": null,
  "banner_url": "",
  "icon_url": "",
  "coverart": "https://lutris.net/media/igdb/cover_big/co4yxv.jpg",
  "platforms": [],
  "provider_games": [
    {
      "name": "Crashed Bandicoot",
      "slug": "crashed-bandicoot",
      "service": "igdb"
    }
  ],
  "aliases": [],
  "shaders": [],
  "discord_id": "",
  "change_for": null
}