{
  "id": 264175,
  "name": "Rose Guns Days: Season 2",
  "slug": "rose-guns-days-season-2",
  "year": 2012,
  "banner_url": "",
  "icon_url": "",
  "coverart": "https://lutris.net/media/igdb/cover_big/co7aq9.jpg",
  "platforms": [
    {
      "name": "Windows"
    }
  ],
  "provider_games": [
    {
      "name": "Rose Guns Days: Season 2",
      "slug": "rose-guns-days-season-2",
      "service": "igdb"
    }
  ],
  "aliases": [],
  "shaders": [],
  "discord_id": "",
  "change_for": null
}