{
  "id": 164372,
  "name": "Glory's Witness",
  "slug": "glorys-witness",
  "year": null,
  "banner_url": "",
  "icon_url": "",
  "coverart": "https://lutris.net/media/igdb/cover_big/co41bo.jpg",
  "platforms": [],
  "provider_games": [
    {
      "name": "Glory's Witness",
      "slug": "glorys-witness",
      "service": "igdb"
    }
  ],
  "aliases": [],
  "shaders": [],
  "discord_id": "",
  "change_for": null
}