{
  "id": 54647,
  "name": "I've Got Your Number",
  "slug": "ive-got-your-number",
  "year": 1979,
  "banner_url": "",
  "icon_url": "",
  "coverart": "https://lutris.net/media/igdb/cover_big/fbrew5nvk5qk8bzfgtzz.jpg",
  "platforms": [
    {
      "name": "Odyssey"
    }
  ],
  "provider_games": [
    {
      "name": "I've Got Your Number",
      "slug": "ive-got-your-number",
      "service": "igdb"
    }
  ],
  "aliases": [],
  "shaders": [],
  "discord_id": "",
  "change_for": null
}