{
  "id": 111596,
  "name": "Vitamin X Evolution",
  "slug": "vitamin-x-evolution",
  "year": 2008,
  "banner_url": "",
  "icon_url": "",
  "coverart": "https://lutris.net/media/igdb/cover_big/co22pt.jpg",
  "platforms": [
    {
      "name": "Nintendo DS"
    }
  ],
  "provider_games": [
    {
      "name": "Vitamin X Evolution",
      "slug": "vitamin-x-evolution",
      "service": "igdb"
    }
  ],
  "aliases": [],
  "shaders": [],
  "discord_id": "",
  "change_for": null
}