{
  "id": 55009,
  "name": "WWII: Soldier",
  "slug": "wwii-soldier",
  "year": 2005,
  "banner_url": "",
  "icon_url": "",
  "coverart": "https://lutris.net/media/igdb/cover_big/boz01ad2soq0mf84lbku.jpg",
  "platforms": [
    {
      "name": "Sony PlayStation 2"
    }
  ],
  "provider_games": [
    {
      "name": "WWII: Soldier",
      "slug": "wwii-soldier",
      "service": "igdb"
    }
  ],
  "aliases": [],
  "shaders": [],
  "discord_id": "",
  "change_for": null
}