{
  "id": 247211,
  "name": "Total War: Pharaoh",
  "slug": "total-war-pharaoh",
  "year": 2023,
  "banner_url": "https://lutris.net/games/banner/total-war-pharaoh.jpg",
  "icon_url": "",
  "coverart": "https://lutris.net/media/igdb/cover_big/co6jdb.jpg",
  "platforms": [
    {
      "name": "Windows"
    }
  ],
  "provider_games": [
    {
      "name": "Total War: PHARAOH",
      "slug": "1937780",
      "service": "steam"
    },
    {
      "name": "Total War: Pharaoh",
      "slug": "total-war-pharaoh",
      "service": "igdb"
    }
  ],
  "aliases": [],
  "shaders": [],
  "discord_id": "",
  "change_for": null
}