{
  "id": 273048,
  "name": "Down is Relative",
  "slug": "down-is-relative",
  "year": null,
  "banner_url": "",
  "icon_url": "",
  "coverart": "https://lutris.net/media/igdb/cover_big/co7quz.jpg",
  "platforms": [],
  "provider_games": [
    {
      "name": "Down is Relative",
      "slug": "down-is-relative",
      "service": "igdb"
    }
  ],
  "aliases": [],
  "shaders": [],
  "discord_id": "",
  "change_for": null
}