{
  "id": 161164,
  "name": "Love Decision",
  "slug": "love-decision",
  "year": null,
  "banner_url": "",
  "icon_url": "",
  "coverart": "https://lutris.net/media/igdb/cover_big/co45gu.jpg",
  "platforms": [],
  "provider_games": [
    {
      "name": "Love Decision",
      "slug": "love-decision",
      "service": "igdb"
    }
  ],
  "aliases": [],
  "shaders": [],
  "discord_id": "",
  "change_for": null
}