{
  "id": 122820,
  "name": "To Battle!: Hell's Crusade",
  "slug": "to-battle-hells-crusade",
  "year": 2019,
  "banner_url": "",
  "icon_url": "",
  "coverart": "https://lutris.net/media/igdb/cover_big/co1nae.jpg",
  "platforms": [
    {
      "name": "Windows"
    }
  ],
  "provider_games": [
    {
      "name": "To Battle!: Hell's Crusade",
      "slug": "to-battle-hells-crusade",
      "service": "igdb"
    }
  ],
  "aliases": [],
  "shaders": [],
  "discord_id": "",
  "change_for": null
}