{
  "id": 73611,
  "name": "Virtual Kyoutei",
  "slug": "virtual-kyoutei",
  "year": null,
  "banner_url": "",
  "icon_url": "",
  "coverart": "https://lutris.net/media/igdb/cover_big/co5c13.jpg",
  "platforms": [],
  "provider_games": [
    {
      "name": "Virtual Kyoutei",
      "slug": "virtual-kyoutei",
      "service": "igdb"
    }
  ],
  "aliases": [],
  "shaders": [],
  "discord_id": "",
  "change_for": null
}