{
  "id": 162228,
  "name": "Count on Me",
  "slug": "count-on-me",
  "year": null,
  "banner_url": "",
  "icon_url": "",
  "coverart": null,
  "platforms": [],
  "provider_games": [
    {
      "name": "Count on Me",
      "slug": "count-on-me",
      "service": "igdb"
    }
  ],
  "aliases": [],
  "shaders": [],
  "discord_id": "",
  "change_for": null
}