{
  "id": 117697,
  "name": "Paranoia Scape",
  "slug": "paranoia-scape",
  "year": 1998,
  "banner_url": "",
  "icon_url": "",
  "coverart": "https://lutris.net/media/igdb/cover_big/co2tkl.jpg",
  "platforms": [
    {
      "name": "Sony PlayStation"
    }
  ],
  "provider_games": [
    {
      "name": "Paranoia Scape",
      "slug": "paranoia-scape",
      "service": "igdb"
    }
  ],
  "aliases": [],
  "shaders": [],
  "discord_id": "",
  "change_for": null
}