{
  "id": 71152,
  "name": "Quattro Firepower",
  "slug": "quattro-firepower",
  "year": null,
  "banner_url": "",
  "icon_url": "",
  "coverart": "https://lutris.net/media/igdb/cover_big/co7hhk.jpg",
  "platforms": [],
  "provider_games": [
    {
      "name": "Quattro Firepower",
      "slug": "quattro-firepower",
      "service": "igdb"
    }
  ],
  "aliases": [],
  "shaders": [],
  "discord_id": "",
  "change_for": null
}