{
  "id": 97238,
  "name": "I face the darkness",
  "slug": "i-face-the-darkness",
  "year": null,
  "banner_url": "",
  "icon_url": "",
  "coverart": null,
  "platforms": [],
  "provider_games": [
    {
      "name": "I face the darkness",
      "slug": "i-face-the-darkness",
      "service": "igdb"
    }
  ],
  "aliases": [],
  "shaders": [],
  "discord_id": "",
  "change_for": null
}