{
  "id": 91340,
  "name": "Hidden Object: Coyote the Outlander",
  "slug": "hidden-object-coyote-the-outlander",
  "year": null,
  "banner_url": "",
  "icon_url": "",
  "coverart": null,
  "platforms": [],
  "provider_games": [
    {
      "name": "Hidden Object: Coyote the Outlander",
      "slug": "hidden-object-coyote-the-outlander",
      "service": "igdb"
    }
  ],
  "aliases": [],
  "shaders": [],
  "discord_id": "",
  "change_for": null
}