{
  "id": 81529,
  "name": "GroundsKeeper 2",
  "slug": "groundskeeper-2",
  "year": 2014,
  "banner_url": "",
  "icon_url": "",
  "coverart": "https://lutris.net/media/igdb/cover_big/iea1auwoz6mo6bwuww58.jpg",
  "platforms": [
    {
      "name": "Android"
    },
    {
      "name": "Windows"
    }
  ],
  "provider_games": [
    {
      "name": "GroundsKeeper 2",
      "slug": "groundskeeper-2",
      "service": "igdb"
    }
  ],
  "aliases": [],
  "shaders": [],
  "discord_id": "",
  "change_for": null
}