{
  "id": 232335,
  "name": "Xiaomei and the Flame Dragon's Fist",
  "slug": "xiaomei-and-the-flame-dragons-fist",
  "year": 2023,
  "banner_url": "",
  "icon_url": "",
  "coverart": "https://lutris.net/media/igdb/cover_big/co6bfo.jpg",
  "platforms": [
    {
      "name": "Nintendo Switch"
    }
  ],
  "provider_games": [
    {
      "name": "Xiaomei and the Flame Dragon's Fist",
      "slug": "xiaomei-and-the-flame-dragons-fist",
      "service": "igdb"
    }
  ],
  "aliases": [],
  "shaders": [],
  "discord_id": "",
  "change_for": null
}