{
  "id": 34621,
  "name": "Kick Goal",
  "slug": "kick-goal",
  "year": 1995,
  "banner_url": "",
  "icon_url": "https://lutris.net/games/icon/kick-goal.png",
  "coverart": "https://lutris.net/media/igdb/cover_big/cuvv3rhor4tkxujtcs7h.jpg",
  "platforms": [
    {
      "name": "Arcade"
    }
  ],
  "provider_games": [
    {
      "name": "Kick Goal",
      "slug": "kickgoal",
      "service": "mame"
    },
    {
      "name": "Kick Goal",
      "slug": "kick-goal",
      "service": "igdb"
    }
  ],
  "aliases": [],
  "shaders": [],
  "discord_id": "",
  "change_for": null
}