{
  "id": 155358,
  "name": "Hiryu no Ken Special: Fighting Wars",
  "slug": "hiryu-no-ken-special-fighting-wars",
  "year": 1991,
  "banner_url": "",
  "icon_url": "",
  "coverart": "https://lutris.net/media/igdb/cover_big/u0kmi7bl33m9rjys9kac.jpg",
  "platforms": [
    {
      "name": "Family Computer"
    }
  ],
  "provider_games": [
    {
      "name": "Hiryu no Ken Special: Fighting Wars",
      "slug": "hiryu-no-ken-special-fighting-wars",
      "service": "igdb"
    }
  ],
  "aliases": [],
  "shaders": [],
  "discord_id": "",
  "change_for": null
}