{
  "id": 108456,
  "name": "Motor City",
  "slug": "motor-city",
  "year": 1994,
  "banner_url": "",
  "icon_url": "",
  "coverart": "https://lutris.net/media/igdb/cover_big/da2zrzduetrn4cmxqejs.jpg",
  "platforms": [
    {
      "name": "Amiga"
    }
  ],
  "provider_games": [
    {
      "name": "Motor City",
      "slug": "motor-city",
      "service": "igdb"
    }
  ],
  "aliases": [],
  "shaders": [],
  "discord_id": "",
  "change_for": null
}