{
  "id": 73404,
  "name": "Lightbringer",
  "slug": "lightbringer",
  "year": null,
  "banner_url": "",
  "icon_url": "",
  "coverart": "https://lutris.net/media/igdb/cover_big/co2ein.jpg",
  "platforms": [],
  "provider_games": [
    {
      "name": "Lightbringer",
      "slug": "lightbringer",
      "service": "igdb"
    }
  ],
  "aliases": [],
  "shaders": [],
  "discord_id": "",
  "change_for": null
}