{
  "id": 74363,
  "name": "Chronicles of Tsufanubra",
  "slug": "chronicles-of-tsufanubra",
  "year": null,
  "banner_url": "",
  "icon_url": "",
  "coverart": null,
  "platforms": [],
  "provider_games": [
    {
      "name": "Chronicles of Tsufanubra",
      "slug": "chronicles-of-tsufanubra",
      "service": "igdb"
    }
  ],
  "aliases": [],
  "shaders": [],
  "discord_id": "",
  "change_for": null
}