{
  "id": 256672,
  "name": "Angels & Demons",
  "slug": "angels-and-demons--1",
  "year": null,
  "banner_url": "",
  "icon_url": "",
  "coverart": "https://lutris.net/media/igdb/cover_big/co6z6u.jpg",
  "platforms": [],
  "provider_games": [
    {
      "name": "Angels & Demons",
      "slug": "angels-and-demons--1",
      "service": "igdb"
    }
  ],
  "aliases": [],
  "shaders": [],
  "discord_id": "",
  "change_for": null
}