{
  "id": 133212,
  "name": "Foosball 2012",
  "slug": "foosball-2012",
  "year": 2012,
  "banner_url": "",
  "icon_url": "",
  "coverart": "https://lutris.net/media/igdb/cover_big/co3kxf.jpg",
  "platforms": [
    {
      "name": "PlayStation Vita"
    },
    {
      "name": "Sony Playstation 3"
    }
  ],
  "provider_games": [
    {
      "name": "Foosball 2012",
      "slug": "foosball-2012",
      "service": "igdb"
    }
  ],
  "aliases": [],
  "shaders": [],
  "discord_id": "",
  "change_for": null
}