{
  "id": 274972,
  "name": "Zombie Madness",
  "slug": "zombie-madness",
  "year": 2019,
  "banner_url": "",
  "icon_url": "",
  "coverart": "https://lutris.net/media/igdb/cover_big/co8e4t.jpg",
  "platforms": [
    {
      "name": "Intellivision"
    }
  ],
  "provider_games": [
    {
      "name": "Zombie Madness",
      "slug": "zombie-madness",
      "service": "igdb"
    }
  ],
  "aliases": [],
  "shaders": [],
  "discord_id": "",
  "change_for": null
}