{
  "id": 261246,
  "name": "DX Nippon Tokkyuu Ryokou Game: Let's Travel in Japan",
  "slug": "dx-nippon-tokkyuu-ryokou-game-lets-travel-in-japan",
  "year": 1996,
  "banner_url": "",
  "icon_url": "",
  "coverart": "https://lutris.net/media/igdb/cover_big/co750w.jpg",
  "platforms": [
    {
      "name": "Sega Saturn"
    },
    {
      "name": "Sony PlayStation"
    }
  ],
  "provider_games": [
    {
      "name": "DX Nippon Tokkyuu Ryokou Game: Let's Travel in Japan",
      "slug": "dx-nippon-tokkyuu-ryokou-game-lets-travel-in-japan",
      "service": "igdb"
    }
  ],
  "aliases": [],
  "shaders": [],
  "discord_id": "",
  "change_for": null
}