{
  "id": 62308,
  "name": "Six-Gun Shootout: Gunfights of the Wild West",
  "slug": "six-gun-shootout-gunfights-of-the-wild-west",
  "year": null,
  "banner_url": "",
  "icon_url": "",
  "coverart": "https://lutris.net/media/igdb/cover_big/dvddkx4ffewpy6fd6ljc.jpg",
  "platforms": [],
  "provider_games": [
    {
      "name": "Six-Gun Shootout: Gunfights of the Wild West",
      "slug": "six-gun-shootout-gunfights-of-the-wild-west",
      "service": "igdb"
    }
  ],
  "aliases": [],
  "shaders": [],
  "discord_id": "",
  "change_for": null
}