{
  "id": 187019,
  "name": "Cryomancer",
  "slug": "cryomancer",
  "year": null,
  "banner_url": "",
  "icon_url": "",
  "coverart": null,
  "platforms": [],
  "provider_games": [
    {
      "name": "Cryomancer",
      "slug": "cryomancer",
      "service": "igdb"
    }
  ],
  "aliases": [],
  "shaders": [],
  "discord_id": "",
  "change_for": null
}