{
  "id": 229201,
  "name": "Rabbi-T",
  "slug": "rabbi-t",
  "year": 2023,
  "banner_url": "https://lutris.net/games/banner/rabbi-t.jpg",
  "icon_url": "",
  "coverart": "https://lutris.net/media/igdb/cover_big/co6b33.jpg",
  "platforms": [
    {
      "name": "Linux"
    },
    {
      "name": "Windows"
    }
  ],
  "provider_games": [
    {
      "name": "Rabbi-T",
      "slug": "rabbi-t",
      "service": "igdb"
    }
  ],
  "aliases": [],
  "shaders": [],
  "discord_id": "",
  "change_for": null
}