{
  "id": 229175,
  "name": "Title_Pending",
  "slug": "title_pending",
  "year": null,
  "banner_url": "https://lutris.net/games/banner/title_pending.jpg",
  "icon_url": "https://lutris.net/games/icon/title_pending.png",
  "coverart": null,
  "platforms": [],
  "provider_games": [
    {
      "name": "Title_Pending",
      "slug": "1288900",
      "service": "steam"
    }
  ],
  "aliases": [],
  "shaders": [],
  "discord_id": "",
  "change_for": null
}