{
  "id": 96603,
  "name": "Boobs Puzzle 2 ~| 胸部拼图",
  "slug": "boobs-puzzle-2-xiong-bu-pin-tu",
  "year": null,
  "banner_url": "",
  "icon_url": "",
  "coverart": null,
  "platforms": [],
  "provider_games": [
    {
      "name": "Boobs Puzzle 2 ~| 胸部拼图",
      "slug": "boobs-puzzle-2-xiong-bu-pin-tu",
      "service": "igdb"
    }
  ],
  "aliases": [],
  "shaders": [],
  "discord_id": "",
  "change_for": null
}