{
  "id": 136992,
  "name": "Necrowarp",
  "slug": "necrowarp",
  "year": null,
  "banner_url": "",
  "icon_url": "",
  "coverart": "https://lutris.net/media/igdb/cover_big/co3q12.jpg",
  "platforms": [],
  "provider_games": [
    {
      "name": "Necrowarp",
      "slug": "necrowarp",
      "service": "igdb"
    }
  ],
  "aliases": [],
  "shaders": [],
  "discord_id": "",
  "change_for": null
}