{
  "id": 273168,
  "name": "Kami: Parade of Senses",
  "slug": "kami-parade-of-senses",
  "year": null,
  "banner_url": "",
  "icon_url": "",
  "coverart": "https://lutris.net/media/igdb/cover_big/co7qmy.jpg",
  "platforms": [],
  "provider_games": [
    {
      "name": "Kami: Parade of Senses",
      "slug": "kami-parade-of-senses",
      "service": "igdb"
    }
  ],
  "aliases": [],
  "shaders": [],
  "discord_id": "",
  "change_for": null
}