{
  "id": 244703,
  "name": "Mr Bea Boy Kart Dash Race",
  "slug": "mr-bea-boy-kart-dash-race",
  "year": 2022,
  "banner_url": "",
  "icon_url": "",
  "coverart": null,
  "platforms": [
    {
      "name": "Android"
    }
  ],
  "provider_games": [
    {
      "name": "Mr Bea Boy Kart Dash Race",
      "slug": "mr-bea-boy-kart-dash-race",
      "service": "igdb"
    }
  ],
  "aliases": [],
  "shaders": [],
  "discord_id": "",
  "change_for": null
}