{
  "id": 9111,
  "name": "Chalo Chalo",
  "slug": "chalo-chalo",
  "year": 2016,
  "banner_url": "https://lutris.net/games/banner/chalo-chalo.jpg",
  "icon_url": "https://lutris.net/games/icon/chalo-chalo.png",
  "coverart": "https://lutris.net/media/igdb/cover_big/z73gsdhebrxhal41i7ej.jpg",
  "platforms": [
    {
      "name": "Mac"
    },
    {
      "name": "Windows"
    }
  ],
  "provider_games": [
    {
      "name": "Chalo Chalo",
      "slug": "410000",
      "service": "steam"
    },
    {
      "name": "Chalo Chalo",
      "slug": "chalo-chalo",
      "service": "igdb"
    }
  ],
  "aliases": [],
  "shaders": [],
  "discord_id": "",
  "change_for": null
}