{
  "id": 38726,
  "game_id": 189201,
  "game_slug": "mafia-iii-definitive-edition",
  "name": "Mafia III: Definitive Edition",
  "year": 2020,
  "user": "vanstaveren",
  "runner": "steam",
  "slug": "mafia-iii-definitive-edition-steam",
  "version": "steam",
  "description": "",
  "notes": "",
  "credits": "",
  "created_at": "2024-09-08T23:47:41.912194Z",
  "updated_at": "2024-09-08T23:47:41.912225Z",
  "draft": false,
  "published": true,
  "published_by": null,
  "rating": "",
  "is_playable": null,
  "steamid": null,
  "gogid": 1578751750,
  "gogslug": "mafia_trilogy",
  "humbleid": "",
  "humblestoreid": "",
  "humblestoreid_real": "",
  "script": {
    "game": {
      "appid": 360430
    }
  },
  "content": "game:\n  appid: 360430\n",
  "discord_id": ""
}