{
  "id": 16645,
  "name": "Age of Gladiators II: Death League",
  "slug": "age-of-gladiators-ii-death-league",
  "year": null,
  "banner_url": "https://lutris.net/games/banner/age-of-gladiators-ii-death-league.jpg",
  "icon_url": "https://lutris.net/games/icon/age-of-gladiators-ii-death-league.png",
  "coverart": "https://lutris.net/media/igdb/cover_big/co1z6u.jpg",
  "platforms": [],
  "provider_games": [
    {
      "name": "Age of Gladiators II: Death League",
      "slug": "639300",
      "service": "steam"
    },
    {
      "name": "Age of Gladiators II: Death League",
      "slug": "age-of-gladiators-ii-death-league",
      "service": "igdb"
    }
  ],
  "aliases": [],
  "shaders": [],
  "discord_id": "",
  "change_for": null
}