{
  "id": 20290,
  "name": "Logout",
  "slug": "logout",
  "year": 2018,
  "banner_url": "https://lutris.net/games/banner/logout.jpg",
  "icon_url": "https://lutris.net/games/icon/logout.png",
  "coverart": "https://lutris.net/media/igdb/cover_big/co2403.jpg",
  "platforms": [
    {
      "name": "Windows"
    }
  ],
  "provider_games": [
    {
      "name": "Logout",
      "slug": "798950",
      "service": "steam"
    },
    {
      "name": "Logout",
      "slug": "logout",
      "service": "igdb"
    }
  ],
  "aliases": [],
  "shaders": [],
  "discord_id": "",
  "change_for": null
}