{
  "id": 4961,
  "game_id": 12195,
  "game_slug": "text-a-summer-story",
  "name": "[text] A Summer Story",
  "year": 2010,
  "user": "FakeShemp",
  "runner": "linux",
  "slug": "text-a-summer-story-20",
  "version": "2.0",
  "description": "Free download from <a href=\"https://www.renai.us/game/text\">renai.us</a>",
  "notes": "",
  "credits": "",
  "created_at": "2017-07-10T20:28:14.807000Z",
  "updated_at": "2024-04-03T05:34:06.506215Z",
  "draft": false,
  "published": true,
  "published_by": 1465,
  "rating": "",
  "is_playable": true,
  "steamid": null,
  "gogid": null,
  "gogslug": "",
  "humbleid": "",
  "humblestoreid": "",
  "humblestoreid_real": "",
  "script": {
    "files": [
      {
        "file1": "https://www.renai.us/games-dl/summerstory-linux-x86.tar.bz2"
      }
    ],
    "game": {
      "exe": "summerstory.sh"
    },
    "installer": [
      {
        "extract": {
          "file": "$file1"
        }
      }
    ]
  },
  "content": "files:\n- file1: https://www.renai.us/games-dl/summerstory-linux-x86.tar.bz2\ngame:\n  exe: summerstory.sh\ninstaller:\n- extract:\n    file: $file1\n",
  "discord_id": ""
}