{
  "id": 88767,
  "name": "RC Mini Racing",
  "slug": "rc-mini-racing",
  "year": null,
  "banner_url": "",
  "icon_url": "",
  "coverart": null,
  "platforms": [],
  "provider_games": [
    {
      "name": "RC Mini Racing",
      "slug": "rc-mini-racing",
      "service": "igdb"
    }
  ],
  "aliases": [],
  "shaders": [],
  "discord_id": "",
  "change_for": null
}