{
  "id": 9044,
  "name": "PCMark 8",
  "slug": "pcmark-8",
  "year": null,
  "banner_url": "https://lutris.net/games/banner/pcmark-8.jpg",
  "icon_url": "https://lutris.net/games/icon/pcmark-8.png",
  "coverart": null,
  "platforms": [],
  "provider_games": [
    {
      "name": "PCMark 8",
      "slug": "236890",
      "service": "steam"
    }
  ],
  "aliases": [],
  "shaders": [],
  "discord_id": "",
  "change_for": null
}