{
  "id": 182918,
  "name": "Rocket Jockeys",
  "slug": "rocket-jockeys",
  "year": null,
  "banner_url": "",
  "icon_url": "",
  "coverart": null,
  "platforms": [],
  "provider_games": [
    {
      "name": "Rocket Jockeys",
      "slug": "rocket-jockeys",
      "service": "igdb"
    }
  ],
  "aliases": [],
  "shaders": [],
  "discord_id": "",
  "change_for": null
}