{
  "id": 8878,
  "name": "BitMaster",
  "slug": "bitmaster",
  "year": 2016,
  "banner_url": "https://lutris.net/games/banner/bitmaster.jpg",
  "icon_url": "https://lutris.net/games/icon/bitmaster.png",
  "coverart": "https://lutris.net/media/igdb/cover_big/co2vpf.jpg",
  "platforms": [
    {
      "name": "Linux"
    },
    {
      "name": "Mac"
    },
    {
      "name": "Nintendo Switch"
    },
    {
      "name": "Windows"
    },
    {
      "name": "Xbox One"
    }
  ],
  "provider_games": [
    {
      "name": "BitMaster",
      "slug": "514660",
      "service": "steam"
    },
    {
      "name": "BitMaster",
      "slug": "bitmaster",
      "service": "igdb"
    }
  ],
  "aliases": [],
  "shaders": [],
  "discord_id": "",
  "change_for": null
}