{
  "id": 28291,
  "name": "Flood",
  "slug": "flood",
  "year": 1990,
  "banner_url": "https://lutris.net/games/banner/flood.jpg",
  "icon_url": "",
  "coverart": "https://lutris.net/media/igdb/cover_big/kxh85dc7tcbvm1ylkdkf.jpg",
  "platforms": [
    {
      "name": "Amiga"
    },
    {
      "name": "Atari ST"
    }
  ],
  "provider_games": [
    {
      "name": "Flood",
      "slug": "flood",
      "service": "igdb"
    }
  ],
  "aliases": [],
  "shaders": [],
  "discord_id": "",
  "change_for": null
}