{
  "id": 282927,
  "name": "Happy Zoo",
  "slug": "happy-zoo",
  "year": null,
  "banner_url": "",
  "icon_url": "",
  "coverart": null,
  "platforms": [],
  "provider_games": [
    {
      "name": "Happy Zoo",
      "slug": "happy-zoo",
      "service": "igdb"
    }
  ],
  "aliases": [],
  "shaders": [],
  "discord_id": "",
  "change_for": null
}