{
  "id": 33658,
  "name": "Checkmate",
  "slug": "checkmate",
  "year": 1977,
  "banner_url": "https://lutris.net/games/banner/checkmate.jpg",
  "icon_url": "https://lutris.net/games/icon/checkmate.png",
  "coverart": "https://lutris.net/media/igdb/cover_big/l95zfhmyoskpgvrognxv.jpg",
  "platforms": [
    {
      "name": "Arcade"
    },
    {
      "name": "Atari ST"
    }
  ],
  "provider_games": [
    {
      "name": "Checkmate",
      "slug": "checkmat",
      "service": "mame"
    },
    {
      "name": "Checkmate",
      "slug": "checkmate",
      "service": "igdb"
    }
  ],
  "aliases": [],
  "shaders": [],
  "discord_id": "",
  "change_for": null
}