{
  "id": 28725,
  "name": "Devil Island",
  "slug": "devil-island",
  "year": 2006,
  "banner_url": "https://lutris.net/games/banner/devil-island.jpg",
  "icon_url": "https://lutris.net/games/icon/devil-island.png",
  "coverart": "https://lutris.net/media/igdb/cover_big/co6fhs.jpg",
  "platforms": [
    {
      "name": "Arcade"
    },
    {
      "name": "Nintendo Game Boy Color"
    }
  ],
  "provider_games": [
    {
      "name": "Devil Island",
      "slug": "dvisland",
      "service": "mame"
    },
    {
      "name": "Devil Island",
      "slug": "devil-island",
      "service": "igdb"
    }
  ],
  "aliases": [],
  "shaders": [],
  "discord_id": "",
  "change_for": null
}