{
  "id": 236336,
  "name": "Dreamscape Runners",
  "slug": "dreamscape-runners",
  "year": null,
  "banner_url": "",
  "icon_url": "",
  "coverart": "https://lutris.net/media/igdb/cover_big/co6649.jpg",
  "platforms": [],
  "provider_games": [
    {
      "name": "Dreamscape Runners",
      "slug": "dreamscape-runners",
      "service": "igdb"
    }
  ],
  "aliases": [],
  "shaders": [],
  "discord_id": "",
  "change_for": null
}