{
  "id": 115370,
  "name": "Astral Attack",
  "slug": "astral-attack",
  "year": 1984,
  "banner_url": "",
  "icon_url": "",
  "coverart": null,
  "platforms": [
    {
      "name": "Commodore C64/128"
    }
  ],
  "provider_games": [
    {
      "name": "Astral Attack",
      "slug": "astral-attack",
      "service": "igdb"
    }
  ],
  "aliases": [],
  "shaders": [],
  "discord_id": "",
  "change_for": null
}