{
  "id": 247852,
  "name": "Ananse and the Pot of Wisdom",
  "slug": "ananse-and-the-pot-of-wisdom",
  "year": null,
  "banner_url": "",
  "icon_url": "",
  "coverart": "https://lutris.net/media/igdb/cover_big/co6kuc.jpg",
  "platforms": [],
  "provider_games": [
    {
      "name": "Ananse and the Pot of Wisdom",
      "slug": "ananse-and-the-pot-of-wisdom",
      "service": "igdb"
    }
  ],
  "aliases": [],
  "shaders": [],
  "discord_id": "",
  "change_for": null
}