{
  "id": 164933,
  "name": "Soccering",
  "slug": "soccering",
  "year": null,
  "banner_url": "",
  "icon_url": "",
  "coverart": "https://lutris.net/media/igdb/cover_big/co41qm.jpg",
  "platforms": [],
  "provider_games": [
    {
      "name": "Soccering",
      "slug": "soccering",
      "service": "igdb"
    }
  ],
  "aliases": [],
  "shaders": [],
  "discord_id": "",
  "change_for": null
}