{
  "id": 214010,
  "name": "Traildown: Downhill Mountain Biking",
  "slug": "traildown-downhill-mountain-biking",
  "year": null,
  "banner_url": "",
  "icon_url": "",
  "coverart": "https://lutris.net/media/igdb/cover_big/co5syu.jpg",
  "platforms": [],
  "provider_games": [
    {
      "name": "Traildown: Downhill Mountain Biking",
      "slug": "traildown-downhill-mountain-biking",
      "service": "igdb"
    }
  ],
  "aliases": [],
  "shaders": [],
  "discord_id": "",
  "change_for": null
}