{
  "id": 88205,
  "name": "Infinite Frontier Super Robot Wars OG Saga",
  "slug": "infinite-frontier-super-robot-wars-og-saga",
  "year": 2009,
  "banner_url": "",
  "icon_url": "",
  "coverart": null,
  "platforms": [
    {
      "name": "Nintendo DS"
    }
  ],
  "provider_games": [
    {
      "name": "Infinite Frontier Super Robot Wars OG Saga",
      "slug": "infinite-frontier-super-robot-wars-og-saga",
      "service": "igdb"
    }
  ],
  "aliases": [],
  "shaders": [],
  "discord_id": "",
  "change_for": null
}