{
  "id": 199190,
  "name": "Kiss/Off",
  "slug": "kiss-slash-off",
  "year": null,
  "banner_url": "",
  "icon_url": "",
  "coverart": "https://lutris.net/media/igdb/cover_big/co4fml.jpg",
  "platforms": [],
  "provider_games": [
    {
      "name": "Kiss/Off",
      "slug": "kiss-slash-off",
      "service": "igdb"
    }
  ],
  "aliases": [],
  "shaders": [],
  "discord_id": "",
  "change_for": null
}