{
  "id": 65689,
  "name": "Space Treat",
  "slug": "space-treat",
  "year": null,
  "banner_url": "",
  "icon_url": "",
  "coverart": "https://lutris.net/media/igdb/cover_big/co74k6.jpg",
  "platforms": [],
  "provider_games": [
    {
      "name": "Space Treat",
      "slug": "space-treat",
      "service": "igdb"
    }
  ],
  "aliases": [],
  "shaders": [],
  "discord_id": "",
  "change_for": null
}