{
  "id": 89318,
  "name": "Bubble Mania",
  "slug": "bubble-mania",
  "year": null,
  "banner_url": "",
  "icon_url": "",
  "coverart": "https://lutris.net/media/igdb/cover_big/co7wf2.jpg",
  "platforms": [],
  "provider_games": [
    {
      "name": "Bubble Mania",
      "slug": "bubble-mania",
      "service": "igdb"
    }
  ],
  "aliases": [],
  "shaders": [],
  "discord_id": "",
  "change_for": null
}