{
  "id": 18077,
  "game_id": 24454,
  "game_slug": "katamari-damacy-reroll",
  "name": "Katamari Damacy REROLL",
  "year": 2018,
  "user": "soredake",
  "runner": "steam",
  "slug": "katamari-damacy-reroll-proton",
  "version": "Proton",
  "description": null,
  "notes": "",
  "credits": "",
  "created_at": "2020-01-25T23:59:36.721905Z",
  "updated_at": "2020-01-25T23:59:42.491032Z",
  "draft": false,
  "published": true,
  "published_by": null,
  "rating": "",
  "is_playable": null,
  "steamid": 848350,
  "gogid": null,
  "gogslug": "",
  "humbleid": "",
  "humblestoreid": "",
  "humblestoreid_real": "",
  "script": {
    "game": {
      "appid": 848350
    }
  },
  "content": "game:\n  appid: 848350\n",
  "discord_id": ""
}