{
  "id": 63131,
  "name": "Discovery Kids: Spider Quest",
  "slug": "discovery-kids-spider-quest",
  "year": null,
  "banner_url": "",
  "icon_url": "",
  "coverart": "https://lutris.net/media/igdb/cover_big/g7qu6nrpepdxalralreg.jpg",
  "platforms": [],
  "provider_games": [
    {
      "name": "Discovery Kids: Spider Quest",
      "slug": "discovery-kids-spider-quest",
      "service": "igdb"
    }
  ],
  "aliases": [],
  "shaders": [],
  "discord_id": "",
  "change_for": null
}