{
  "id": 236573,
  "name": "Labyrinth of Light",
  "slug": "labyrinth-of-light",
  "year": null,
  "banner_url": "",
  "icon_url": "",
  "coverart": "https://lutris.net/media/igdb/cover_big/co64uc.jpg",
  "platforms": [],
  "provider_games": [
    {
      "name": "Labyrinth of Light",
      "slug": "labyrinth-of-light",
      "service": "igdb"
    }
  ],
  "aliases": [],
  "shaders": [],
  "discord_id": "",
  "change_for": null
}