{
  "id": 90420,
  "name": "Dancing Craze for Mac",
  "slug": "dancing-craze-for-mac",
  "year": null,
  "banner_url": "",
  "icon_url": "",
  "coverart": null,
  "platforms": [],
  "provider_games": [
    {
      "name": "Dancing Craze for Mac",
      "slug": "dancing-craze-for-mac",
      "service": "igdb"
    }
  ],
  "aliases": [],
  "shaders": [],
  "discord_id": "",
  "change_for": null
}