{
  "id": 247251,
  "name": "Little Red Riding Rogue",
  "slug": "little-red-riding-rogue",
  "year": null,
  "banner_url": "",
  "icon_url": "",
  "coverart": null,
  "platforms": [],
  "provider_games": [
    {
      "name": "Little Red Riding Rogue",
      "slug": "little-red-riding-rogue",
      "service": "igdb"
    }
  ],
  "aliases": [],
  "shaders": [],
  "discord_id": "",
  "change_for": null
}