{
  "id": 248900,
  "name": "Withering Way",
  "slug": "withering-way",
  "year": null,
  "banner_url": "",
  "icon_url": "",
  "coverart": "https://lutris.net/media/igdb/cover_big/co6n2h.jpg",
  "platforms": [],
  "provider_games": [
    {
      "name": "Withering Way",
      "slug": "withering-way",
      "service": "igdb"
    }
  ],
  "aliases": [],
  "shaders": [],
  "discord_id": "",
  "change_for": null
}