{
  "id": 300790,
  "name": "Spiral Clicker: Christmas Survivors",
  "slug": "spiral-clicker-christmas-survivors",
  "year": 2023,
  "banner_url": "",
  "icon_url": "",
  "coverart": "https://lutris.net/media/igdb/cover_big/co92rg.jpg",
  "platforms": [
    {
      "name": "Android"
    },
    {
      "name": "Windows"
    }
  ],
  "provider_games": [
    {
      "name": "Spiral Clicker: Christmas Survivors",
      "slug": "spiral-clicker-christmas-survivors",
      "service": "igdb"
    }
  ],
  "aliases": [],
  "shaders": [],
  "discord_id": "",
  "change_for": null
}