{
  "id": 287316,
  "name": "Supernatural",
  "slug": "supernatural--1",
  "year": null,
  "banner_url": "",
  "icon_url": "",
  "coverart": "https://lutris.net/media/igdb/cover_big/co8a7u.jpg",
  "platforms": [],
  "provider_games": [
    {
      "name": "Supernatural",
      "slug": "supernatural--1",
      "service": "igdb"
    }
  ],
  "aliases": [],
  "shaders": [],
  "discord_id": "",
  "change_for": null
}