{
  "id": 198210,
  "name": "Casino Resort Tower",
  "slug": "casino-resort-tower",
  "year": null,
  "banner_url": "",
  "icon_url": "",
  "coverart": "https://lutris.net/media/igdb/cover_big/co4j45.jpg",
  "platforms": [],
  "provider_games": [
    {
      "name": "Casino Resort Tower",
      "slug": "casino-resort-tower",
      "service": "igdb"
    }
  ],
  "aliases": [],
  "shaders": [],
  "discord_id": "",
  "change_for": null
}