{
  "id": 33791,
  "name": "Cyberball",
  "slug": "cyberball",
  "year": 1988,
  "banner_url": "https://lutris.net/games/banner/cyberball.jpg",
  "icon_url": "https://lutris.net/games/icon/cyberball.png",
  "coverart": "https://lutris.net/media/igdb/cover_big/gzfzslsvahpvroxaco2y.jpg",
  "platforms": [
    {
      "name": "Amiga"
    },
    {
      "name": "Amstrad CPC"
    },
    {
      "name": "Arcade"
    },
    {
      "name": "Commodore C64/128"
    },
    {
      "name": "NES"
    },
    {
      "name": "Sega Genesis / Mega Drive"
    },
    {
      "name": "ZX Spectrum"
    }
  ],
  "provider_games": [
    {
      "name": "Cyberball",
      "slug": "cyberbal",
      "service": "mame"
    },
    {
      "name": "Cyberball",
      "slug": "cyberball",
      "service": "igdb"
    }
  ],
  "aliases": [],
  "shaders": [],
  "discord_id": "",
  "change_for": null
}