{
  "id": 27186,
  "name": "STAR WARS Battlefront (Classic, 2004)",
  "slug": "star-wars-battlefront-classic-2004",
  "year": 2004,
  "banner_url": "https://lutris.net/games/banner/star-wars-battlefront-classic-2004.jpg",
  "icon_url": "https://lutris.net/games/icon/star-wars-battlefront-classic-2004.png",
  "coverart": "https://lutris.net/media/igdb/cover_big/co2h1z.jpg",
  "platforms": [
    {
      "name": "Mac"
    },
    {
      "name": "Sony PlayStation 2"
    },
    {
      "name": "Windows"
    }
  ],
  "provider_games": [
    {
      "name": "STAR WARS™ Battlefront (Classic, 2004)",
      "slug": "1668107107",
      "service": "gog"
    },
    {
      "name": "STAR WARS™ Battlefront (Classic, 2004)",
      "slug": "1058020",
      "service": "steam"
    },
    {
      "name": "141",
      "slug": "141",
      "service": "igdb"
    }
  ],
  "aliases": [
    {
      "slug": "star-wars-battlefront",
      "name": "Star Wars Battlefront (2004)"
    },
    {
      "slug": "star-warstm-battlefront-classic-2004",
      "name": "STAR WARS™ Battlefront (Classic, 2004)"
    }
  ],
  "shaders": [],
  "discord_id": "",
  "change_for": null
}