{
  "id": 39140,
  "name": "Forever Lost: Episode 2",
  "slug": "forever-lost-episode-2",
  "year": 2015,
  "banner_url": "https://lutris.net/games/banner/forever-lost-episode-2.jpg",
  "icon_url": "",
  "coverart": "https://lutris.net/media/igdb/cover_big/co2tm4.jpg",
  "platforms": [
    {
      "name": "Android"
    },
    {
      "name": "Mac"
    },
    {
      "name": "Windows"
    }
  ],
  "provider_games": [
    {
      "name": "Forever Lost: Episode 2",
      "slug": "forever-lost-episode-2",
      "service": "igdb"
    }
  ],
  "aliases": [],
  "shaders": [],
  "discord_id": "",
  "change_for": null
}