{
  "id": 211476,
  "name": "My Billionaire Girlfriend",
  "slug": "my-billionaire-girlfriend",
  "year": 2019,
  "banner_url": "",
  "icon_url": "",
  "coverart": "https://lutris.net/media/igdb/cover_big/co5fcu.jpg",
  "platforms": [
    {
      "name": "Android"
    }
  ],
  "provider_games": [
    {
      "name": "My Billionaire Girlfriend",
      "slug": "my-billionaire-girlfriend",
      "service": "igdb"
    }
  ],
  "aliases": [],
  "shaders": [],
  "discord_id": "",
  "change_for": null
}