{
  "id": 87572,
  "name": "College BBALL Coach",
  "slug": "college-bball-coach",
  "year": 2016,
  "banner_url": "",
  "icon_url": "",
  "coverart": "https://lutris.net/media/igdb/cover_big/os7za1q8tbyvsqchqwwy.jpg",
  "platforms": [
    {
      "name": "Android"
    }
  ],
  "provider_games": [
    {
      "name": "College Bball Coach",
      "slug": "college-bball-coach",
      "service": "igdb"
    }
  ],
  "aliases": [],
  "shaders": [],
  "discord_id": "",
  "change_for": null
}