{
  "id": 254990,
  "name": "Mah Jongg: V-G-A",
  "slug": "mah-jongg-v-g-a",
  "year": 1989,
  "banner_url": "",
  "icon_url": "",
  "coverart": "https://lutris.net/media/igdb/cover_big/co6xb9.jpg",
  "platforms": [],
  "provider_games": [
    {
      "name": "Mah Jongg: V-G-A",
      "slug": "mah-jongg-v-g-a",
      "service": "igdb"
    }
  ],
  "aliases": [],
  "shaders": [],
  "discord_id": "",
  "change_for": null
}