{
  "id": 72732,
  "name": "Super Double Impact",
  "slug": "super-double-impact",
  "year": null,
  "banner_url": "",
  "icon_url": "",
  "coverart": null,
  "platforms": [],
  "provider_games": [
    {
      "name": "Super Double Impact",
      "slug": "super-double-impact",
      "service": "igdb"
    }
  ],
  "aliases": [],
  "shaders": [],
  "discord_id": "",
  "change_for": null
}