{
  "id": 167693,
  "name": "Jixxaw: Party Time",
  "slug": "jixxaw-party-time",
  "year": null,
  "banner_url": "",
  "icon_url": "",
  "coverart": "https://lutris.net/media/igdb/cover_big/co44bk.jpg",
  "platforms": [],
  "provider_games": [
    {
      "name": "Jixxaw: Party Time",
      "slug": "jixxaw-party-time",
      "service": "igdb"
    }
  ],
  "aliases": [],
  "shaders": [],
  "discord_id": "",
  "change_for": null
}