{
  "id": 169717,
  "name": "Duil",
  "slug": "duil",
  "year": null,
  "banner_url": "",
  "icon_url": "",
  "coverart": "https://lutris.net/media/igdb/cover_big/co461r.jpg",
  "platforms": [],
  "provider_games": [
    {
      "name": "Duil",
      "slug": "duil",
      "service": "igdb"
    }
  ],
  "aliases": [],
  "shaders": [],
  "discord_id": "",
  "change_for": null
}