{
  "id": 192214,
  "name": "Enchanted Kingdom: A Stranger's Venom",
  "slug": "enchanted-kingdom-a-strangers-venom",
  "year": null,
  "banner_url": "",
  "icon_url": "",
  "coverart": "https://lutris.net/media/igdb/cover_big/co4dzy.jpg",
  "platforms": [],
  "provider_games": [
    {
      "name": "Enchanted Kingdom: A Stranger's Venom",
      "slug": "enchanted-kingdom-a-strangers-venom",
      "service": "igdb"
    }
  ],
  "aliases": [],
  "shaders": [],
  "discord_id": "",
  "change_for": null
}