{
  "id": 206674,
  "name": "For the Crown",
  "slug": "for-the-crown",
  "year": null,
  "banner_url": "",
  "icon_url": "",
  "coverart": "https://lutris.net/media/igdb/cover_big/co5sc7.jpg",
  "platforms": [],
  "provider_games": [
    {
      "name": "For the Crown",
      "slug": "for-the-crown",
      "service": "igdb"
    }
  ],
  "aliases": [],
  "shaders": [],
  "discord_id": "",
  "change_for": null
}