{
  "id": 66182,
  "name": "Two Worlds: The Temptation",
  "slug": "two-worlds-the-temptation",
  "year": null,
  "banner_url": "",
  "icon_url": "",
  "coverart": "https://lutris.net/media/igdb/cover_big/co21lm.jpg",
  "platforms": [],
  "provider_games": [
    {
      "name": "Two Worlds: The Temptation",
      "slug": "two-worlds-the-temptation",
      "service": "igdb"
    }
  ],
  "aliases": [],
  "shaders": [],
  "discord_id": "",
  "change_for": null
}