{
  "id": 90911,
  "name": "Out of the Loop",
  "slug": "out-of-the-loop",
  "year": null,
  "banner_url": "",
  "icon_url": "",
  "coverart": null,
  "platforms": [],
  "provider_games": [
    {
      "name": "Out of the Loop",
      "slug": "out-of-the-loop",
      "service": "igdb"
    }
  ],
  "aliases": [],
  "shaders": [],
  "discord_id": "",
  "change_for": null
}