{
  "id": 157052,
  "name": "Arcade Archives: T.N.K III",
  "slug": "arcade-archives-tnk-iii",
  "year": 2019,
  "banner_url": "",
  "icon_url": "",
  "coverart": "https://lutris.net/media/igdb/cover_big/co38vd.jpg",
  "platforms": [
    {
      "name": "Nintendo Switch"
    },
    {
      "name": "Sony Playstation 4"
    }
  ],
  "provider_games": [
    {
      "name": "Arcade Archives: T.N.K III",
      "slug": "arcade-archives-tnk-iii",
      "service": "igdb"
    }
  ],
  "aliases": [],
  "shaders": [],
  "discord_id": "",
  "change_for": null
}