{
  "id": 217725,
  "name": "Giant Crusher",
  "slug": "giant-crusher",
  "year": null,
  "banner_url": "",
  "icon_url": "",
  "coverart": null,
  "platforms": [],
  "provider_games": [
    {
      "name": "Giant Crusher",
      "slug": "giant-crusher",
      "service": "igdb"
    }
  ],
  "aliases": [],
  "shaders": [],
  "discord_id": "",
  "change_for": null
}