{
  "id": 259844,
  "name": "Survival Dead Poly",
  "slug": "survival-dead-poly",
  "year": null,
  "banner_url": "",
  "icon_url": "",
  "coverart": "https://lutris.net/media/igdb/cover_big/co747g.jpg",
  "platforms": [],
  "provider_games": [
    {
      "name": "Survival Dead Poly",
      "slug": "survival-dead-poly",
      "service": "igdb"
    }
  ],
  "aliases": [],
  "shaders": [],
  "discord_id": "",
  "change_for": null
}