{
  "id": 167071,
  "name": "The Defender: Farm and Castle 2",
  "slug": "the-defender-farm-and-castle-2",
  "year": 2019,
  "banner_url": "",
  "icon_url": "",
  "coverart": "https://lutris.net/media/igdb/cover_big/co43pr.jpg",
  "platforms": [
    {
      "name": "Windows"
    }
  ],
  "provider_games": [
    {
      "name": "The Defender: Farm and Castle 2",
      "slug": "the-defender-farm-and-castle-2",
      "service": "igdb"
    }
  ],
  "aliases": [],
  "shaders": [],
  "discord_id": "",
  "change_for": null
}