{
  "id": 158604,
  "name": "Puzzle Pelago - A Drag & Drop Economy",
  "slug": "puzzle-pelago-a-drag-and-drop-economy",
  "year": 2020,
  "banner_url": "",
  "icon_url": "",
  "coverart": "https://lutris.net/media/igdb/cover_big/co3y5i.jpg",
  "platforms": [
    {
      "name": "Mac"
    },
    {
      "name": "Windows"
    }
  ],
  "provider_games": [
    {
      "name": "Puzzle Pelago - A Drag & Drop Economy",
      "slug": "puzzle-pelago-a-drag-and-drop-economy",
      "service": "igdb"
    }
  ],
  "aliases": [],
  "shaders": [],
  "discord_id": "",
  "change_for": null
}