{
  "id": 224145,
  "name": "Mahjong Haoh: Dankyuu Battle II",
  "slug": "mahjong-haoh-dankyuu-battle-ii",
  "year": 2006,
  "banner_url": "",
  "icon_url": "",
  "coverart": "https://lutris.net/media/igdb/cover_big/co4ujv.jpg",
  "platforms": [
    {
      "name": "Sony PlayStation 2"
    }
  ],
  "provider_games": [
    {
      "name": "Mahjong Haoh: Dankyuu Battle II",
      "slug": "mahjong-haoh-dankyuu-battle-ii",
      "service": "igdb"
    }
  ],
  "aliases": [],
  "shaders": [],
  "discord_id": "",
  "change_for": null
}