{
  "id": 239206,
  "name": "Fighter's Rampage",
  "slug": "fighters-rampage",
  "year": 2010,
  "banner_url": "",
  "icon_url": "",
  "coverart": null,
  "platforms": [
    {
      "name": "Browser"
    }
  ],
  "provider_games": [
    {
      "name": "Fighter's Rampage",
      "slug": "fighters-rampage",
      "service": "igdb"
    }
  ],
  "aliases": [],
  "shaders": [],
  "discord_id": "",
  "change_for": null
}