{
  "id": 280475,
  "name": "Erwartung",
  "slug": "erwartung",
  "year": null,
  "banner_url": "",
  "icon_url": "",
  "coverart": "https://lutris.net/media/igdb/cover_big/co80k0.jpg",
  "platforms": [],
  "provider_games": [
    {
      "name": "Erwartung",
      "slug": "erwartung",
      "service": "igdb"
    }
  ],
  "aliases": [],
  "shaders": [],
  "discord_id": "",
  "change_for": null
}