{
  "id": 210331,
  "name": "Togabito no Senritsu",
  "slug": "togabito-no-senritsu",
  "year": null,
  "banner_url": "",
  "icon_url": "",
  "coverart": null,
  "platforms": [],
  "provider_games": [
    {
      "name": "Togabito no Senritsu",
      "slug": "togabito-no-senritsu",
      "service": "igdb"
    }
  ],
  "aliases": [],
  "shaders": [],
  "discord_id": "",
  "change_for": null
}