{
  "id": 243468,
  "name": "War of the Fourteen Dynasties",
  "slug": "war-of-the-fourteen-dynasties",
  "year": null,
  "banner_url": "",
  "icon_url": "",
  "coverart": "https://lutris.net/media/igdb/cover_big/co6gmq.jpg",
  "platforms": [],
  "provider_games": [
    {
      "name": "War of the Fourteen Dynasties",
      "slug": "war-of-the-fourteen-dynasties",
      "service": "igdb"
    }
  ],
  "aliases": [],
  "shaders": [],
  "discord_id": "",
  "change_for": null
}