{
  "id": 80653,
  "name": "Cobra Force",
  "slug": "cobra-force",
  "year": 1989,
  "banner_url": "",
  "icon_url": "",
  "coverart": "https://lutris.net/media/igdb/cover_big/ljoouzhkkbd2g3csa6oi.jpg",
  "platforms": [
    {
      "name": "ZX Spectrum"
    }
  ],
  "provider_games": [
    {
      "name": "Cobra Force",
      "slug": "cobra-force",
      "service": "igdb"
    }
  ],
  "aliases": [],
  "shaders": [],
  "discord_id": "",
  "change_for": null
}