{
  "id": 25527,
  "name": "Paratopic",
  "slug": "paratopic",
  "year": 2018,
  "banner_url": "https://lutris.net/games/banner/paratopic.jpg",
  "icon_url": "https://lutris.net/games/icon/paratopic.png",
  "coverart": "https://lutris.net/media/igdb/cover_big/co27ns.jpg",
  "platforms": [
    {
      "name": "Linux"
    },
    {
      "name": "Mac"
    },
    {
      "name": "Nintendo Switch"
    },
    {
      "name": "Windows"
    }
  ],
  "provider_games": [
    {
      "name": "Paratopic",
      "slug": "897030",
      "service": "steam"
    },
    {
      "name": "Paratopic",
      "slug": "paratopic",
      "service": "igdb"
    }
  ],
  "aliases": [],
  "shaders": [],
  "discord_id": "",
  "change_for": null
}