{
  "id": 230589,
  "name": "Flipper Mechanic Simulator",
  "slug": "flipper-mechanic-simulator",
  "year": null,
  "banner_url": "",
  "icon_url": "",
  "coverart": "https://lutris.net/media/igdb/cover_big/co6d7r.jpg",
  "platforms": [],
  "provider_games": [
    {
      "name": "Flipper Mechanic Simulator",
      "slug": "flipper-mechanic-simulator",
      "service": "igdb"
    }
  ],
  "aliases": [],
  "shaders": [],
  "discord_id": "",
  "change_for": null
}