{
  "id": 34743,
  "name": "Looping",
  "slug": "looping",
  "year": 1982,
  "banner_url": "https://lutris.net/games/banner/looping.jpg",
  "icon_url": "https://lutris.net/games/icon/looping.png",
  "coverart": "https://lutris.net/media/igdb/cover_big/t7lyfdcg7r1uvgdeiyki.jpg",
  "platforms": [
    {
      "name": "Arcade"
    },
    {
      "name": "Colecovision"
    }
  ],
  "provider_games": [
    {
      "name": "Looping",
      "slug": "looping",
      "service": "mame"
    },
    {
      "name": "Looping",
      "slug": "looping",
      "service": "igdb"
    }
  ],
  "aliases": [],
  "shaders": [],
  "discord_id": "",
  "change_for": null
}