{
  "id": 297416,
  "name": "Deception Engine",
  "slug": "deception-engine",
  "year": null,
  "banner_url": "",
  "icon_url": "",
  "coverart": "https://lutris.net/media/igdb/cover_big/co8sac.jpg",
  "platforms": [],
  "provider_games": [
    {
      "name": "Deception Engine",
      "slug": "deception-engine",
      "service": "igdb"
    }
  ],
  "aliases": [],
  "shaders": [],
  "discord_id": "",
  "change_for": null
}