{
  "id": 12845,
  "name": "Hex Phase",
  "slug": "hex-phase",
  "year": 2016,
  "banner_url": "https://lutris.net/games/banner/hex-phase.jpg",
  "icon_url": "https://lutris.net/games/icon/hex-phase.png",
  "coverart": null,
  "platforms": [
    {
      "name": "Windows"
    }
  ],
  "provider_games": [
    {
      "name": "Hex Phase",
      "slug": "553500",
      "service": "steam"
    },
    {
      "name": "Hex Phase",
      "slug": "hex-phase",
      "service": "igdb"
    }
  ],
  "aliases": [],
  "shaders": [],
  "discord_id": "",
  "change_for": null
}