{
  "id": 30239,
  "game_id": 44423,
  "game_slug": "sword-of-the-necromancer-prologue",
  "name": "Sword of the Necromancer: Prologue",
  "year": 2021,
  "user": "vanstaveren",
  "runner": "steam",
  "slug": "sword-of-the-necromancer-prol-steam",
  "version": "steam",
  "description": "",
  "notes": "",
  "credits": "",
  "created_at": "2021-11-07T08:49:07.846038Z",
  "updated_at": "2021-12-13T19:10:33.221338Z",
  "draft": false,
  "published": true,
  "published_by": null,
  "rating": "",
  "is_playable": null,
  "steamid": null,
  "gogid": null,
  "gogslug": "",
  "humbleid": "",
  "humblestoreid": "",
  "humblestoreid_real": "",
  "script": {
    "game": {
      "appid": 1455590
    }
  },
  "content": "game:\n  appid: 1455590\n",
  "discord_id": ""
}