{
  "id": 1389,
  "game_id": 4014,
  "game_slug": "celestian-tales-old-north",
  "name": "Celestian Tales: Old North",
  "year": 2015,
  "user": "orbea",
  "runner": "linux",
  "slug": "celestian-tales-old-north-proto-32-bit",
  "version": "proto 32-bit",
  "description": "Demo prototype",
  "notes": "",
  "credits": "",
  "created_at": "2015-03-10T22:51:10.684000Z",
  "updated_at": "2015-03-13T10:15:13.855000Z",
  "draft": false,
  "published": true,
  "published_by": null,
  "rating": "",
  "is_playable": null,
  "steamid": 315860,
  "gogid": 1438597128,
  "gogslug": "celestian_tales_old_north",
  "humbleid": "",
  "humblestoreid": "",
  "humblestoreid_real": "",
  "script": {
    "files": [
      {
        "file1": "http://ks392457.kimsufi.com/orbea/stuff/games/lutris/CTON-Proto-linux_v3b.tar.gz"
      }
    ],
    "game": {
      "exe": "$GAMEDIR/CTON-Proto-linux_v3b.x86"
    },
    "installer": [
      {
        "extract": {
          "dst": "$GAMEDIR",
          "file": "file1"
        }
      },
      {
        "chmodx": "$GAMEDIR/CTON-Proto-linux_v3b.x86"
      }
    ]
  },
  "content": "files:\n- file1: http://ks392457.kimsufi.com/orbea/stuff/games/lutris/CTON-Proto-linux_v3b.tar.gz\ngame:\n  exe: $GAMEDIR/CTON-Proto-linux_v3b.x86\ninstaller:\n- extract:\n    dst: $GAMEDIR\n    file: file1\n- chmodx: $GAMEDIR/CTON-Proto-linux_v3b.x86\n",
  "discord_id": ""
}