{
  "id": 266190,
  "name": "Charrua Soccer: Pro Edition",
  "slug": "charrua-soccer-pro-edition",
  "year": null,
  "banner_url": "",
  "icon_url": "",
  "coverart": "https://lutris.net/media/igdb/cover_big/co7fbz.jpg",
  "platforms": [],
  "provider_games": [
    {
      "name": "Charrua Soccer: Pro Edition",
      "slug": "charrua-soccer-pro-edition",
      "service": "igdb"
    }
  ],
  "aliases": [],
  "shaders": [],
  "discord_id": "",
  "change_for": null
}