{
  "id": 46964,
  "name": "Mystery Legends: Beauty and the Beast",
  "slug": "mystery-legends-beauty-and-the-beast",
  "year": null,
  "banner_url": "",
  "icon_url": "",
  "coverart": "https://lutris.net/media/igdb/cover_big/xlis6chevihurpnw5yay.jpg",
  "platforms": [],
  "provider_games": [
    {
      "name": "Mystery Legends: Beauty and the Beast",
      "slug": "mystery-legends-beauty-and-the-beast",
      "service": "igdb"
    }
  ],
  "aliases": [],
  "shaders": [],
  "discord_id": "",
  "change_for": null
}