{
  "id": 116840,
  "name": "Creatures: Raised in Space",
  "slug": "creatures-raised-in-space",
  "year": 2002,
  "banner_url": "",
  "icon_url": "",
  "coverart": "https://lutris.net/media/igdb/cover_big/co3dtl.jpg",
  "platforms": [
    {
      "name": "Sony PlayStation"
    }
  ],
  "provider_games": [
    {
      "name": "Creatures: Raised in Space",
      "slug": "creatures-raised-in-space",
      "service": "igdb"
    }
  ],
  "aliases": [],
  "shaders": [],
  "discord_id": "",
  "change_for": null
}