{
  "id": 15464,
  "game_id": 404,
  "game_slug": "thief-gold",
  "name": "Thief Gold",
  "year": 1998,
  "user": "appoloin",
  "runner": "wine",
  "slug": "thief-gold-gog-newdark",
  "version": "GOG + NewDark",
  "description": "Full Installer",
  "notes": "- Automated Download of necessary files\r\n- Installs TFix 1.27b (includes \"NewDark\" Engine Fixes)\r\n- Fixes audio issues (Read installer instructions!)\r\n- Enables optional FM Manager for Fan Mission Support",
  "credits": "Lutris install script maintained by Natanox: https://codeberg.org/Natanox/lutris-installers",
  "created_at": "2019-09-11T23:43:10.330000Z",
  "updated_at": "2024-11-19T21:14:43.680163Z",
  "draft": false,
  "published": true,
  "published_by": 494,
  "rating": "",
  "is_playable": null,
  "steamid": 211600,
  "gogid": 1207658997,
  "gogslug": "thief_gold",
  "humbleid": "",
  "humblestoreid": "",
  "humblestoreid_real": "",
  "script": {
    "files": [
      {
        "goginstaller": "N/A:Select the GOG Offline Installer for Thief Gold"
      },
      {
        "tfix": "https://archive.org/download/Theif_Coll/Essential%20Resources%20for%20Theif%201.rar/Essential%20Resources%20for%20Theif%201%2FTFix_1.27.exe"
      },
      {
        "openalsoft": "https://www.openal-soft.org/openal-binaries/openal-soft-1.23.1-bin.zip"
      }
    ],
    "game": {
      "arch": "win64",
      "exe": "$GAMEDIR/drive_c/Games/Thief/THIEF.EXE",
      "launch_configs": [
        {
          "args": "-fm",
          "exe": "$GAMEDIR/drive_c/Games/Thief/THIEF.EXE",
          "name": "Fan Mission Manager"
        },
        {
          "exe": "$GAMEDIR/drive_c/OpenAL/alsoft-config/alsoft-config.exe",
          "name": "OpenAL Configurator"
        }
      ],
      "prefix": "$GAMEDIR",
      "working_dir": "$GAMEDIR/drive_c/Games/Thief/"
    },
    "install_complete_text": "Installation successful!\n\nBy the Builder, take note of the following:\n\n- Do not change the wine runner version, this can break video playback.\n- Make sure to enable OpenAL Hardware Acceleration with EAX in the audio settings",
    "installer": [
      {
        "task": {
          "arch": "win64",
          "name": "create_prefix",
          "prefix": "$GAMEDIR"
        }
      },
      {
        "task": {
          "args": "/SILENT /NOCANCEL /SUPPRESSMSGBOXES /NOGUI /DIR=\"C:/Games/Thief\"",
          "description": "Installing Thief Gold",
          "executable": "goginstaller",
          "name": "wineexec",
          "prefix": "$GAMEDIR"
        }
      },
      {
        "task": {
          "app": "vcrun2008",
          "arch": "win64",
          "description": "Installing Visual C++ Runtime 2008",
          "name": "winetricks",
          "prefix": "$GAMEDIR"
        }
      },
      {
        "task": {
          "app": "d3dx9",
          "arch": "win64",
          "description": "Installing DirectX 9.0c June 2010",
          "name": "winetricks",
          "prefix": "$GAMEDIR"
        }
      },
      {
        "task": {
          "description": "Installing TFix 1.27b (NewDark). Do not change any settings.",
          "executable": "tfix",
          "name": "wineexec",
          "prefix": "$GAMEDIR"
        }
      },
      {
        "extract": {
          "dst": "$GAMEDIR/drive_c/OpenAL",
          "src": "openalsoft"
        }
      },
      {
        "copy": {
          "dst": "$GAMEDIR/drive_c/Games/Thief/soft_oal.dll",
          "src": "$GAMEDIR/drive_c/OpenAL/bin/Win32/soft_oal.dll"
        }
      },
      {
        "task": {
          "description": "Once the OpenAL configurator opens make sure to change the entry in Playback → Stereo Mode to Headphones. Apply the changes and Close the configurator.",
          "executable": "$GAMEDIR/drive_c/OpenAL/alsoft-config/alsoft-config.exe",
          "name": "wineexec",
          "prefix": "$GAMEDIR"
        }
      },
      {
        "execute": {
          "command": "sed -i -e 's/\\;snd_oal_device\\ Generic\\ Software/snd_oal_device\\ OpenAL\\ Soft/g' '$GAMEDIR/drive_c/Games/Thief/cam_ext.cfg'",
          "description": "Change audio settings to OpenAL Soft (Stereo mode)"
        }
      },
      {
        "execute": {
          "command": "sed -i -e 's/\\;snd_speaker_config\\ 6/snd_speaker_config\\ 2/g' '$GAMEDIR/drive_c/Games/Thief/cam_ext.cfg'"
        }
      }
    ],
    "system": {
      "pulse_latency": false
    }
  },
  "content": "files:\n- goginstaller: N/A:Select the GOG Offline Installer for Thief Gold\n- tfix: https://archive.org/download/Theif_Coll/Essential%20Resources%20for%20Theif%201.rar/Essential%20Resources%20for%20Theif%201%2FTFix_1.27.exe\n- openalsoft: https://www.openal-soft.org/openal-binaries/openal-soft-1.23.1-bin.zip\ngame:\n  arch: win64\n  exe: $GAMEDIR/drive_c/Games/Thief/THIEF.EXE\n  launch_configs:\n  - args: -fm\n    exe: $GAMEDIR/drive_c/Games/Thief/THIEF.EXE\n    name: Fan Mission Manager\n  - exe: $GAMEDIR/drive_c/OpenAL/alsoft-config/alsoft-config.exe\n    name: OpenAL Configurator\n  prefix: $GAMEDIR\n  working_dir: $GAMEDIR/drive_c/Games/Thief/\ninstall_complete_text: 'Installation successful!\n\n\n  By the Builder, take note of the following:\n\n\n  - Do not change the wine runner version, this can break video playback.\n\n  - Make sure to enable OpenAL Hardware Acceleration with EAX in the audio settings'\ninstaller:\n- task:\n    arch: win64\n    name: create_prefix\n    prefix: $GAMEDIR\n- task:\n    args: /SILENT /NOCANCEL /SUPPRESSMSGBOXES /NOGUI /DIR=\"C:/Games/Thief\"\n    description: Installing Thief Gold\n    executable: goginstaller\n    name: wineexec\n    prefix: $GAMEDIR\n- task:\n    app: vcrun2008\n    arch: win64\n    description: Installing Visual C++ Runtime 2008\n    name: winetricks\n    prefix: $GAMEDIR\n- task:\n    app: d3dx9\n    arch: win64\n    description: Installing DirectX 9.0c June 2010\n    name: winetricks\n    prefix: $GAMEDIR\n- task:\n    description: Installing TFix 1.27b (NewDark). Do not change any settings.\n    executable: tfix\n    name: wineexec\n    prefix: $GAMEDIR\n- extract:\n    dst: $GAMEDIR/drive_c/OpenAL\n    src: openalsoft\n- copy:\n    dst: $GAMEDIR/drive_c/Games/Thief/soft_oal.dll\n    src: $GAMEDIR/drive_c/OpenAL/bin/Win32/soft_oal.dll\n- task:\n    description: \"Once the OpenAL configurator opens make sure to change the entry\\\n      \\ in Playback \\u2192 Stereo Mode to Headphones. Apply the changes and Close\\\n      \\ the configurator.\"\n    executable: $GAMEDIR/drive_c/OpenAL/alsoft-config/alsoft-config.exe\n    name: wineexec\n    prefix: $GAMEDIR\n- execute:\n    command: sed -i -e 's/\\;snd_oal_device\\ Generic\\ Software/snd_oal_device\\ OpenAL\\\n      Soft/g' '$GAMEDIR/drive_c/Games/Thief/cam_ext.cfg'\n    description: Change audio settings to OpenAL Soft (Stereo mode)\n- execute:\n    command: sed -i -e 's/\\;snd_speaker_config\\ 6/snd_speaker_config\\ 2/g' '$GAMEDIR/drive_c/Games/Thief/cam_ext.cfg'\nsystem:\n  pulse_latency: false\n",
  "discord_id": ""
}