{
  "id": 93177,
  "name": "Dragons Vs Aircrafts",
  "slug": "dragons-vs-aircrafts",
  "year": null,
  "banner_url": "",
  "icon_url": "",
  "coverart": null,
  "platforms": [],
  "provider_games": [
    {
      "name": "Dragons Vs Aircrafts",
      "slug": "dragons-vs-aircrafts",
      "service": "igdb"
    }
  ],
  "aliases": [],
  "shaders": [],
  "discord_id": "",
  "change_for": null
}