{
  "id": 11495,
  "name": "Battle Mages",
  "slug": "battle-mages",
  "year": 2014,
  "banner_url": "https://lutris.net/games/banner/battle-mages.jpg",
  "icon_url": "https://lutris.net/games/icon/battle-mages.png",
  "coverart": "https://lutris.net/media/igdb/cover_big/co3dg1.jpg",
  "platforms": [
    {
      "name": "Windows"
    }
  ],
  "provider_games": [
    {
      "name": "Battle Mages",
      "slug": "302470",
      "service": "steam"
    },
    {
      "name": "Battle Mages",
      "slug": "battle-mages",
      "service": "igdb"
    }
  ],
  "aliases": [],
  "shaders": [],
  "discord_id": "",
  "change_for": null
}