{
  "id": 54873,
  "name": "Bashi Blocks",
  "slug": "bashi-blocks",
  "year": 2011,
  "banner_url": "",
  "icon_url": "",
  "coverart": "https://lutris.net/media/igdb/cover_big/xqcg7lozewnefl9s4uop.jpg",
  "platforms": [
    {
      "name": "Sony PSP"
    }
  ],
  "provider_games": [
    {
      "name": "Bashi Blocks",
      "slug": "bashi-blocks",
      "service": "igdb"
    }
  ],
  "aliases": [],
  "shaders": [],
  "discord_id": "",
  "change_for": null
}