{
  "id": 269013,
  "name": "Poly Jigsaw: Primates",
  "slug": "poly-jigsaw-primates",
  "year": 2023,
  "banner_url": "",
  "icon_url": "",
  "coverart": "https://lutris.net/media/igdb/cover_big/co7j12.jpg",
  "platforms": [
    {
      "name": "Windows"
    }
  ],
  "provider_games": [
    {
      "name": "Poly Jigsaw: Primates",
      "slug": "poly-jigsaw-primates",
      "service": "igdb"
    }
  ],
  "aliases": [],
  "shaders": [],
  "discord_id": "",
  "change_for": null
}