{
  "id": 297802,
  "name": "Clutter 3: Who is the Void?",
  "slug": "clutter-3-who-is-the-void",
  "year": 2020,
  "banner_url": "",
  "icon_url": "",
  "coverart": "https://lutris.net/media/igdb/cover_big/co8vce.jpg",
  "platforms": [
    {
      "name": "Windows"
    }
  ],
  "provider_games": [
    {
      "name": "Clutter 3: Who is the Void?",
      "slug": "clutter-3-who-is-the-void",
      "service": "igdb"
    }
  ],
  "aliases": [],
  "shaders": [],
  "discord_id": "",
  "change_for": null
}