{
  "id": 24904,
  "name": "Cubrick",
  "slug": "cubrick",
  "year": 2017,
  "banner_url": "https://lutris.net/games/banner/cubrick.jpg",
  "icon_url": "https://lutris.net/games/icon/cubrick.png",
  "coverart": "https://lutris.net/media/igdb/cover_big/co2anf.jpg",
  "platforms": [
    {
      "name": "Mac"
    },
    {
      "name": "Windows"
    }
  ],
  "provider_games": [
    {
      "name": "Cubrick",
      "slug": "620340",
      "service": "steam"
    },
    {
      "name": "Cubrick",
      "slug": "cubrick",
      "service": "igdb"
    }
  ],
  "aliases": [],
  "shaders": [],
  "discord_id": "",
  "change_for": null
}