{
  "id": 130608,
  "name": "Monster Gate: Ooinaru Dungeon - Fuuin no Orb",
  "slug": "monster-gate-ooinaru-dungeon-fuuin-no-orb",
  "year": 2003,
  "banner_url": "",
  "icon_url": "",
  "coverart": "https://lutris.net/media/igdb/cover_big/co28nu.jpg",
  "platforms": [
    {
      "name": "Nintendo Game Boy Advance"
    }
  ],
  "provider_games": [
    {
      "name": "Monster Gate: Ooinaru Dungeon - Fuuin no Orb",
      "slug": "monster-gate-ooinaru-dungeon-fuuin-no-orb",
      "service": "igdb"
    }
  ],
  "aliases": [],
  "shaders": [],
  "discord_id": "",
  "change_for": null
}