{
  "id": 84557,
  "name": "Computer Math Games II",
  "slug": "computer-math-games-ii",
  "year": null,
  "banner_url": "",
  "icon_url": "",
  "coverart": null,
  "platforms": [],
  "provider_games": [
    {
      "name": "Computer Math Games II",
      "slug": "computer-math-games-ii",
      "service": "igdb"
    }
  ],
  "aliases": [],
  "shaders": [],
  "discord_id": "",
  "change_for": null
}