{
  "id": 6975,
  "game_id": 9577,
  "game_slug": "magical-otoge-ciel",
  "name": "Magical Otoge Ciel",
  "year": 2015,
  "user": "FakeShemp",
  "runner": "linux",
  "slug": "magical-otoge-ciel-itchio",
  "version": "itch.io",
  "description": null,
  "notes": "",
  "credits": "",
  "created_at": "2018-01-03T01:20:28.820648Z",
  "updated_at": "2024-04-03T05:34:38.093343Z",
  "draft": false,
  "published": true,
  "published_by": null,
  "rating": "",
  "is_playable": null,
  "steamid": 521470,
  "gogid": null,
  "gogslug": "",
  "humbleid": "",
  "humblestoreid": "",
  "humblestoreid_real": "",
  "script": {
    "files": [
      {
        "file1": "N/A:Please select the itch.io archive"
      }
    ],
    "game": {
      "exe": "Magical Otoge Ciel.sh"
    },
    "installer": [
      {
        "extract": {
          "file": "$file1"
        }
      }
    ]
  },
  "content": "files:\n- file1: N/A:Please select the itch.io archive\ngame:\n  exe: Magical Otoge Ciel.sh\ninstaller:\n- extract:\n    file: $file1\n",
  "discord_id": ""
}