{
  "id": 174146,
  "name": "Deadliest Warrior: The Game",
  "slug": "deadliest-warrior-the-game",
  "year": 2010,
  "banner_url": "",
  "icon_url": "",
  "coverart": "https://lutris.net/media/igdb/cover_big/xdze7qdskbzoagvri8au.jpg",
  "platforms": [
    {
      "name": "Sony Playstation 3"
    },
    {
      "name": "Xbox 360"
    }
  ],
  "provider_games": [
    {
      "name": "Deadliest Warrior: The Game",
      "slug": "deadliest-warrior-the-game",
      "service": "igdb"
    }
  ],
  "aliases": [],
  "shaders": [],
  "discord_id": "",
  "change_for": null
}