{
  "id": 177582,
  "name": "The Legend of Zelda: Second Wind",
  "slug": "the-legend-of-zelda-second-wind",
  "year": 2020,
  "banner_url": "",
  "icon_url": "",
  "coverart": "https://lutris.net/media/igdb/cover_big/co31di.jpg",
  "platforms": [
    {
      "name": "Nintendo Switch"
    },
    {
      "name": "Nintendo Wii U"
    }
  ],
  "provider_games": [
    {
      "name": "The Legend of Zelda: Second Wind",
      "slug": "the-legend-of-zelda-second-wind",
      "service": "igdb"
    }
  ],
  "aliases": [],
  "shaders": [],
  "discord_id": "",
  "change_for": null
}