{
  "id": 84822,
  "name": "J. League Pro Striker 2",
  "slug": "j-league-pro-striker-2",
  "year": 1994,
  "banner_url": "",
  "icon_url": "",
  "coverart": "https://lutris.net/media/igdb/cover_big/co26et.jpg",
  "platforms": [
    {
      "name": "Sega Genesis / Mega Drive"
    }
  ],
  "provider_games": [
    {
      "name": "J. League Pro Striker 2",
      "slug": "j-league-pro-striker-2",
      "service": "igdb"
    }
  ],
  "aliases": [],
  "shaders": [],
  "discord_id": "",
  "change_for": null
}