{
  "id": 145053,
  "name": "Platformer Execute",
  "slug": "platformer-execute",
  "year": null,
  "banner_url": "",
  "icon_url": "",
  "coverart": "https://lutris.net/media/igdb/cover_big/co3vfm.jpg",
  "platforms": [],
  "provider_games": [
    {
      "name": "Platformer Execute",
      "slug": "platformer-execute",
      "service": "igdb"
    }
  ],
  "aliases": [],
  "shaders": [],
  "discord_id": "",
  "change_for": null
}