{
  "id": 222870,
  "name": "Touhou Madan Zan Shun-pu: Unbelieved Heroes",
  "slug": "touhou-madan-zan-shun-pu-unbelieved-heroes",
  "year": 2012,
  "banner_url": "",
  "icon_url": "",
  "coverart": "https://lutris.net/media/igdb/cover_big/co4x4m.jpg",
  "platforms": [
    {
      "name": "Windows"
    }
  ],
  "provider_games": [
    {
      "name": "Touhou Madan Zan Shun-pu: Unbelieved Heroes",
      "slug": "touhou-madan-zan-shun-pu-unbelieved-heroes",
      "service": "igdb"
    }
  ],
  "aliases": [],
  "shaders": [],
  "discord_id": "",
  "change_for": null
}