{
  "id": 222819,
  "name": "I Made A Contract with 3 Cute Devils?!",
  "slug": "i-made-a-contract-with-3-cute-devils",
  "year": 2021,
  "banner_url": "",
  "icon_url": "",
  "coverart": "https://lutris.net/media/igdb/cover_big/co4xed.jpg",
  "platforms": [
    {
      "name": "Android"
    }
  ],
  "provider_games": [
    {
      "name": "I Made A Contract with 3 Cute Devils?!",
      "slug": "i-made-a-contract-with-3-cute-devils",
      "service": "igdb"
    }
  ],
  "aliases": [],
  "shaders": [],
  "discord_id": "",
  "change_for": null
}