{
  "id": 3031,
  "name": "The Wizard's Pen",
  "slug": "the-wizards-pen",
  "year": 2008,
  "banner_url": "https://lutris.net/games/banner/the-wizards-pen.jpg",
  "icon_url": "https://lutris.net/games/icon/the-wizards-pen.png",
  "coverart": "https://lutris.net/media/igdb/cover_big/tthru58aymzqrsp5otba.jpg",
  "platforms": [
    {
      "name": "Windows"
    }
  ],
  "provider_games": [
    {
      "name": "The Wizard's Pen",
      "slug": "3580",
      "service": "steam"
    },
    {
      "name": "The Wizard's Pen",
      "slug": "the-wizards-pen",
      "service": "igdb"
    }
  ],
  "aliases": [],
  "shaders": [],
  "discord_id": "",
  "change_for": null
}