{
  "id": 123717,
  "name": "Dante's Forest",
  "slug": "dantes-forest",
  "year": 2016,
  "banner_url": "https://lutris.net/games/banner/dantes-forest.jpg",
  "icon_url": "",
  "coverart": null,
  "platforms": [
    {
      "name": "Windows"
    }
  ],
  "provider_games": [
    {
      "name": "Dante's Forest",
      "slug": "538040",
      "service": "steam"
    },
    {
      "name": "Dante's Forest",
      "slug": "dantes-forest",
      "service": "igdb"
    }
  ],
  "aliases": [],
  "shaders": [],
  "discord_id": "",
  "change_for": null
}