{
  "id": 241821,
  "name": "Sudoku",
  "slug": "sudoku--11",
  "year": 2007,
  "banner_url": "",
  "icon_url": "",
  "coverart": "https://lutris.net/media/igdb/cover_big/co5zty.jpg",
  "platforms": [
    {
      "name": "Sega Master System"
    }
  ],
  "provider_games": [
    {
      "name": "Sudoku",
      "slug": "sudoku--11",
      "service": "igdb"
    }
  ],
  "aliases": [],
  "shaders": [],
  "discord_id": "",
  "change_for": null
}