{
  "id": 210445,
  "name": "Camp Rock",
  "slug": "camp-rock",
  "year": 2008,
  "banner_url": "",
  "icon_url": "",
  "coverart": null,
  "platforms": [
    {
      "name": "Plug & Play"
    }
  ],
  "provider_games": [
    {
      "name": "Camp Rock",
      "slug": "camp-rock",
      "service": "igdb"
    }
  ],
  "aliases": [],
  "shaders": [],
  "discord_id": "",
  "change_for": null
}