{
  "id": 6768,
  "game_id": 10201,
  "game_slug": "fumiko",
  "name": "Fumiko!",
  "year": 2017,
  "user": "FakeShemp",
  "runner": "linux",
  "slug": "fumiko-itchio",
  "version": "itch.io",
  "description": null,
  "notes": "",
  "credits": "",
  "created_at": "2017-12-23T00:10:24.507000Z",
  "updated_at": "2024-04-03T05:44:14.657681Z",
  "draft": false,
  "published": true,
  "published_by": 1465,
  "rating": "",
  "is_playable": true,
  "steamid": 563810,
  "gogid": null,
  "gogslug": "",
  "humbleid": "",
  "humblestoreid": "",
  "humblestoreid_real": "",
  "script": {
    "files": [
      {
        "file1": "N/A:Please select the itch.io archive"
      }
    ],
    "game": {
      "exe": "fumikothegame.x86_64",
      "launch_configs": [
        {
          "exe": "fumikothegame.x86",
          "name": "32 bit version"
        }
      ]
    },
    "installer": [
      {
        "extract": {
          "file": "$file1"
        }
      }
    ]
  },
  "content": "files:\n- file1: N/A:Please select the itch.io archive\ngame:\n  exe: fumikothegame.x86_64\n  launch_configs:\n  - exe: fumikothegame.x86\n    name: 32 bit version\ninstaller:\n- extract:\n    file: $file1\n",
  "discord_id": ""
}