{
  "id": 242999,
  "name": "Married Woman Cosplay Life",
  "slug": "married-woman-cosplay-life",
  "year": null,
  "banner_url": "",
  "icon_url": "",
  "coverart": "https://lutris.net/media/igdb/cover_big/co6g2u.jpg",
  "platforms": [],
  "provider_games": [
    {
      "name": "Married Woman Cosplay Life",
      "slug": "married-woman-cosplay-life",
      "service": "igdb"
    }
  ],
  "aliases": [],
  "shaders": [],
  "discord_id": "",
  "change_for": null
}