{
  "id": 145652,
  "name": "Monopoly Junior",
  "slug": "monopoly-junior",
  "year": 1999,
  "banner_url": "",
  "icon_url": "",
  "coverart": "https://lutris.net/media/igdb/cover_big/co3w4n.jpg",
  "platforms": [
    {
      "name": "Windows"
    }
  ],
  "provider_games": [
    {
      "name": "Monopoly Junior",
      "slug": "monopoly-junior",
      "service": "igdb"
    }
  ],
  "aliases": [],
  "shaders": [],
  "discord_id": "",
  "change_for": null
}