{
  "id": 98858,
  "name": "T'Was a Time of Dread",
  "slug": "twas-a-time-of-dread",
  "year": 1992,
  "banner_url": "",
  "icon_url": "",
  "coverart": "https://lutris.net/media/igdb/cover_big/co1r34.jpg",
  "platforms": [
    {
      "name": "ZX Spectrum"
    }
  ],
  "provider_games": [
    {
      "name": "T'Was a Time of Dread",
      "slug": "twas-a-time-of-dread",
      "service": "igdb"
    }
  ],
  "aliases": [],
  "shaders": [],
  "discord_id": "",
  "change_for": null
}