{
  "id": 51645,
  "name": "Ferrari Formula One",
  "slug": "ferrari-formula-one",
  "year": 1988,
  "banner_url": "",
  "icon_url": "",
  "coverart": "https://lutris.net/media/igdb/cover_big/ityiqrwezgeg4oslukiq.jpg",
  "platforms": [
    {
      "name": "Amiga"
    },
    {
      "name": "Atari ST"
    },
    {
      "name": "Commodore C64/128"
    }
  ],
  "provider_games": [
    {
      "name": "Ferrari Formula One",
      "slug": "ferrari-formula-one",
      "service": "igdb"
    }
  ],
  "aliases": [],
  "shaders": [],
  "discord_id": "",
  "change_for": null
}