{
  "id": 12630,
  "name": "Shards of Azuria",
  "slug": "shards-of-azuria",
  "year": 2016,
  "banner_url": "https://lutris.net/games/banner/shards-of-azuria.jpg",
  "icon_url": "https://lutris.net/games/icon/shards-of-azuria.png",
  "coverart": "https://lutris.net/media/igdb/cover_big/co586n.jpg",
  "platforms": [
    {
      "name": "Windows"
    }
  ],
  "provider_games": [
    {
      "name": "Shards of Azuria",
      "slug": "498340",
      "service": "steam"
    },
    {
      "name": "Shards of Azuria",
      "slug": "shards-of-azuria",
      "service": "igdb"
    }
  ],
  "aliases": [],
  "shaders": [],
  "discord_id": "",
  "change_for": null
}