{
  "id": 106942,
  "name": "Capcom vs. SNK 2 EO",
  "slug": "capcom-vs-snk-2-eo",
  "year": 2003,
  "banner_url": "",
  "icon_url": "",
  "coverart": "https://lutris.net/media/igdb/cover_big/co2eyp.jpg",
  "platforms": [
    {
      "name": "Nintendo GameCube"
    }
  ],
  "provider_games": [
    {
      "name": "Capcom vs. SNK 2 EO",
      "slug": "capcom-vs-snk-2-eo",
      "service": "igdb"
    }
  ],
  "aliases": [],
  "shaders": [],
  "discord_id": "",
  "change_for": null
}