{
  "id": 128659,
  "name": "ACA NEOGEO LEAGUE BOWLING",
  "slug": "aca-neogeo-league-bowling",
  "year": 2018,
  "banner_url": "",
  "icon_url": "",
  "coverart": "https://lutris.net/media/igdb/cover_big/co28t2.jpg",
  "platforms": [
    {
      "name": "Nintendo Switch"
    },
    {
      "name": "Sony Playstation 4"
    },
    {
      "name": "Xbox One"
    }
  ],
  "provider_games": [
    {
      "name": "ACA NEOGEO LEAGUE BOWLING",
      "slug": "aca-neogeo-league-bowling",
      "service": "igdb"
    }
  ],
  "aliases": [],
  "shaders": [],
  "discord_id": "",
  "change_for": null
}