{
  "id": 9668,
  "name": "Betrayal Collection",
  "slug": "betrayal-collection",
  "year": 2016,
  "banner_url": "https://lutris.net/games/banner/betrayal-collection.jpg",
  "icon_url": "https://lutris.net/games/icon/betrayal-collection.png",
  "coverart": "https://lutris.net/media/igdb/cover_big/co4vuv.jpg",
  "platforms": [
    {
      "name": "Windows"
    }
  ],
  "provider_games": [
    {
      "name": "Betrayal Collection",
      "slug": "559640",
      "service": "steam"
    },
    {
      "name": "Betrayal Collection",
      "slug": "betrayal-collection",
      "service": "igdb"
    }
  ],
  "aliases": [],
  "shaders": [],
  "discord_id": "",
  "change_for": null
}