{
  "id": 151,
  "name": "The Secret of Monkey Island: Special Edition",
  "slug": "the-secret-of-monkey-island-special-edition",
  "year": 2009,
  "banner_url": "https://lutris.net/games/banner/the-secret-of-monkey-island-special-edition.jpg",
  "icon_url": "https://lutris.net/games/icon/the-secret-of-monkey-island-special-edition.png",
  "coverart": "https://lutris.net/media/igdb/cover_big/co2d9p.jpg",
  "platforms": [
    {
      "name": "Mac"
    },
    {
      "name": "Sony Playstation 3"
    },
    {
      "name": "Windows"
    },
    {
      "name": "Xbox 360"
    }
  ],
  "provider_games": [
    {
      "name": "The Secret of Monkey Island™: Special Edition",
      "slug": "1207666253",
      "service": "gog"
    },
    {
      "name": "The Secret of Monkey Island: Special Edition",
      "slug": "32360",
      "service": "steam"
    },
    {
      "name": "The Secret of Monkey Island: Special Edition",
      "slug": "the-secret-of-monkey-island-special-edition",
      "service": "igdb"
    }
  ],
  "aliases": [],
  "shaders": [],
  "discord_id": "",
  "change_for": null
}