{
  "id": 66613,
  "name": "Noddy: Detective for a Day",
  "slug": "noddy-detective-for-a-day",
  "year": null,
  "banner_url": "",
  "icon_url": "",
  "coverart": "https://lutris.net/media/igdb/cover_big/iuf7xjywutgoae8sbjer.jpg",
  "platforms": [],
  "provider_games": [
    {
      "name": "Noddy: Detective for a Day",
      "slug": "noddy-detective-for-a-day",
      "service": "igdb"
    }
  ],
  "aliases": [],
  "shaders": [],
  "discord_id": "",
  "change_for": null
}