{
  "id": 1097,
  "game_id": 742,
  "game_slug": "synergy",
  "name": "Synergy",
  "year": 2005,
  "user": "RobLoach",
  "runner": "steam",
  "slug": "synergy-steam",
  "version": "Steam",
  "description": "",
  "notes": "",
  "credits": "",
  "created_at": "2014-11-17T06:39:39.936000Z",
  "updated_at": "2014-11-24T12:11:48.729000Z",
  "draft": false,
  "published": true,
  "published_by": null,
  "rating": "",
  "is_playable": null,
  "steamid": 17520,
  "gogid": 1173453440,
  "gogslug": "synergy_supporter_edition",
  "humbleid": "",
  "humblestoreid": "",
  "humblestoreid_real": "",
  "script": {
    "game": {
      "appid": 17520
    }
  },
  "content": "game:\r\n  appid: 17520\r\n",
  "discord_id": "450021409700446208"
}