{
  "id": 36773,
  "name": "Divinity: Original Sin Classic",
  "slug": "divinity-original-sin-classic",
  "year": null,
  "banner_url": "",
  "icon_url": "",
  "coverart": null,
  "platforms": [
    {
      "name": "Windows"
    }
  ],
  "provider_games": [
    {
      "name": "Divinity: Original Sin Classic",
      "slug": "1207664923",
      "service": "gog"
    }
  ],
  "aliases": [],
  "shaders": [],
  "discord_id": "",
  "change_for": null
}