{
  "id": 214915,
  "name": "Houkago wa Gin no Shirabe",
  "slug": "houkago-wa-gin-no-shirabe",
  "year": 2008,
  "banner_url": "",
  "icon_url": "",
  "coverart": "https://lutris.net/media/igdb/cover_big/co5bfw.jpg",
  "platforms": [
    {
      "name": "Sony PlayStation 2"
    },
    {
      "name": "Windows"
    }
  ],
  "provider_games": [
    {
      "name": "Houkago wa Gin no Shirabe",
      "slug": "houkago-wa-gin-no-shirabe",
      "service": "igdb"
    }
  ],
  "aliases": [],
  "shaders": [],
  "discord_id": "",
  "change_for": null
}