{
  "id": 34930,
  "game_id": 19375,
  "game_slug": "hobo-tough-life",
  "name": "Hobo: Tough Life",
  "year": 2017,
  "user": "adaam",
  "runner": "steam",
  "slug": "hobo-tough-life-steam",
  "version": "Steam",
  "description": "",
  "notes": "",
  "credits": "",
  "created_at": "2022-08-18T09:11:36.756257Z",
  "updated_at": "2023-01-11T06:01:58.027729Z",
  "draft": false,
  "published": true,
  "published_by": null,
  "rating": "",
  "is_playable": null,
  "steamid": 632300,
  "gogid": null,
  "gogslug": "",
  "humbleid": "",
  "humblestoreid": "",
  "humblestoreid_real": "",
  "script": {
    "game": {
      "appid": 632300
    }
  },
  "content": "game:\n  appid: 632300\n",
  "discord_id": ""
}