{
  "id": 170455,
  "name": "Tusk of Spirit",
  "slug": "tusk-of-spirit",
  "year": null,
  "banner_url": "",
  "icon_url": "",
  "coverart": "https://lutris.net/media/igdb/cover_big/co46ip.jpg",
  "platforms": [],
  "provider_games": [
    {
      "name": "Tusk of Spirit",
      "slug": "tusk-of-spirit",
      "service": "igdb"
    }
  ],
  "aliases": [],
  "shaders": [],
  "discord_id": "",
  "change_for": null
}