{
  "id": 8540,
  "name": "Slingshot people",
  "slug": "slingshot-people",
  "year": 2016,
  "banner_url": "https://lutris.net/games/banner/slingshot-people.jpg",
  "icon_url": "https://lutris.net/games/icon/slingshot-people.png",
  "coverart": null,
  "platforms": [
    {
      "name": "Windows"
    }
  ],
  "provider_games": [
    {
      "name": "Slingshot people",
      "slug": "542340",
      "service": "steam"
    },
    {
      "name": "Slingshot people",
      "slug": "slingshot-people",
      "service": "igdb"
    }
  ],
  "aliases": [],
  "shaders": [],
  "discord_id": "",
  "change_for": null
}