{
  "id": 225667,
  "name": "Let's Ride: Riding Star",
  "slug": "lets-ride-riding-star",
  "year": null,
  "banner_url": "",
  "icon_url": "",
  "coverart": null,
  "platforms": [],
  "provider_games": [
    {
      "name": "Let's Ride: Riding Star",
      "slug": "lets-ride-riding-star",
      "service": "igdb"
    }
  ],
  "aliases": [],
  "shaders": [],
  "discord_id": "",
  "change_for": null
}