{
  "id": 221342,
  "name": "Disney's Winnie the Pooh & Tigger: Too Animated Storybook",
  "slug": "disneys-winnie-the-pooh-and-tigger-too-animated-storybook",
  "year": null,
  "banner_url": "",
  "icon_url": "",
  "coverart": "https://lutris.net/media/igdb/cover_big/co62ik.jpg",
  "platforms": [],
  "provider_games": [
    {
      "name": "Disney's Winnie the Pooh & Tigger Too: Animated Storybook",
      "slug": "disneys-winnie-the-pooh-and-tigger-too-animated-storybook",
      "service": "igdb"
    }
  ],
  "aliases": [],
  "shaders": [],
  "discord_id": "",
  "change_for": null
}