{
  "id": 251516,
  "name": "Bad Roads",
  "slug": "bad-roads",
  "year": null,
  "banner_url": "",
  "icon_url": "",
  "coverart": null,
  "platforms": [],
  "provider_games": [
    {
      "name": "Bad Roads",
      "slug": "bad-roads",
      "service": "igdb"
    }
  ],
  "aliases": [],
  "shaders": [],
  "discord_id": "",
  "change_for": null
}