{
  "id": 129487,
  "name": "The Zone: Stalker Stories",
  "slug": "the-zone-stalker-stories",
  "year": null,
  "banner_url": "",
  "icon_url": "",
  "coverart": "https://lutris.net/media/igdb/cover_big/co2dlp.jpg",
  "platforms": [],
  "provider_games": [
    {
      "name": "The Zone: Stalker Stories",
      "slug": "the-zone-stalker-stories",
      "service": "igdb"
    }
  ],
  "aliases": [],
  "shaders": [],
  "discord_id": "",
  "change_for": null
}