{
  "id": 140368,
  "name": "Remorse",
  "slug": "remorse",
  "year": null,
  "banner_url": "",
  "icon_url": "",
  "coverart": "https://lutris.net/media/igdb/cover_big/co3sgn.jpg",
  "platforms": [],
  "provider_games": [
    {
      "name": "Remorse",
      "slug": "remorse",
      "service": "igdb"
    }
  ],
  "aliases": [],
  "shaders": [],
  "discord_id": "",
  "change_for": null
}