{
  "id": 256104,
  "name": "Orius Project [Alpha]",
  "slug": "orius-project-alpha",
  "year": 2023,
  "banner_url": "https://lutris.net/games/banner/orius-project-alpha.jpg",
  "icon_url": "",
  "coverart": null,
  "platforms": [
    {
      "name": "Windows Mixed Reality"
    },
    {
      "name": "Windows Phone"
    }
  ],
  "provider_games": [],
  "aliases": [],
  "shaders": [],
  "discord_id": "",
  "change_for": null
}