{
  "id": 188112,
  "name": "Confessions of an NPC",
  "slug": "confessions-of-an-npc",
  "year": null,
  "banner_url": "",
  "icon_url": "",
  "coverart": null,
  "platforms": [],
  "provider_games": [
    {
      "name": "Confessions of an NPC",
      "slug": "confessions-of-an-npc",
      "service": "igdb"
    }
  ],
  "aliases": [],
  "shaders": [],
  "discord_id": "",
  "change_for": null
}