{
  "id": 219789,
  "name": "Bunny Hop: Eggstreme",
  "slug": "bunny-hop-eggstreme",
  "year": null,
  "banner_url": "",
  "icon_url": "",
  "coverart": "https://lutris.net/media/igdb/cover_big/co5cev.jpg",
  "platforms": [],
  "provider_games": [
    {
      "name": "Bunny Hop: Eggstreme",
      "slug": "bunny-hop-eggstreme",
      "service": "igdb"
    }
  ],
  "aliases": [],
  "shaders": [],
  "discord_id": "",
  "change_for": null
}