{
  "id": 32289,
  "name": "Wolfenstein RPG",
  "slug": "wolfenstein-rpg",
  "year": 2008,
  "banner_url": "https://lutris.net/games/banner/wolfenstein-rpg.jpg",
  "icon_url": "",
  "coverart": "https://lutris.net/media/igdb/cover_big/co49om.jpg",
  "platforms": [
    {
      "name": "J2ME"
    },
    {
      "name": "Legacy Cellphone"
    }
  ],
  "provider_games": [
    {
      "name": "Wolfenstein RPG",
      "slug": "wolfenstein-rpg",
      "service": "igdb"
    }
  ],
  "aliases": [],
  "shaders": [],
  "discord_id": "",
  "change_for": null
}