{
  "id": 224900,
  "name": "Let's Cook Together 2",
  "slug": "lets-cook-together-2",
  "year": null,
  "banner_url": "",
  "icon_url": "",
  "coverart": "https://lutris.net/media/igdb/cover_big/co59z0.jpg",
  "platforms": [],
  "provider_games": [
    {
      "name": "Let's Cook Together 2",
      "slug": "lets-cook-together-2",
      "service": "igdb"
    }
  ],
  "aliases": [],
  "shaders": [],
  "discord_id": "",
  "change_for": null
}