{
  "id": 236726,
  "name": "Ookami-otoko Satsujin Jiken",
  "slug": "ookami-otoko-satsujin-jiken",
  "year": null,
  "banner_url": "",
  "icon_url": "",
  "coverart": null,
  "platforms": [],
  "provider_games": [
    {
      "name": "Ookami-otoko Satsujin Jiken",
      "slug": "ookami-otoko-satsujin-jiken",
      "service": "igdb"
    }
  ],
  "aliases": [],
  "shaders": [],
  "discord_id": "",
  "change_for": null
}