{
  "id": 217778,
  "name": "Simple Trains",
  "slug": "simple-trains",
  "year": null,
  "banner_url": "",
  "icon_url": "",
  "coverart": "https://lutris.net/media/igdb/cover_big/co541h.jpg",
  "platforms": [],
  "provider_games": [
    {
      "name": "Simple Trains",
      "slug": "simple-trains",
      "service": "igdb"
    }
  ],
  "aliases": [],
  "shaders": [],
  "discord_id": "",
  "change_for": null
}