{
  "id": 246926,
  "name": "Deep Sea Rhapsody",
  "slug": "deep-sea-rhapsody",
  "year": null,
  "banner_url": "",
  "icon_url": "",
  "coverart": "https://lutris.net/media/igdb/cover_big/co6jgy.jpg",
  "platforms": [],
  "provider_games": [
    {
      "name": "Deep Sea Rhapsody",
      "slug": "deep-sea-rhapsody",
      "service": "igdb"
    }
  ],
  "aliases": [],
  "shaders": [],
  "discord_id": "",
  "change_for": null
}