{
  "id": 256647,
  "name": "Epicus Royale",
  "slug": "epicus-royale",
  "year": null,
  "banner_url": "",
  "icon_url": "",
  "coverart": "https://lutris.net/media/igdb/cover_big/co6z6c.jpg",
  "platforms": [],
  "provider_games": [
    {
      "name": "Epicus Royale",
      "slug": "epicus-royale",
      "service": "igdb"
    }
  ],
  "aliases": [],
  "shaders": [],
  "discord_id": "",
  "change_for": null
}