{
  "id": 171186,
  "name": "Romance of the Three Kingdoms : The Legend of CaoCao(Tactics)",
  "slug": "romance-of-the-three-kingdoms-the-legend-of-caocao-tactics",
  "year": 2019,
  "banner_url": "",
  "icon_url": "",
  "coverart": "https://lutris.net/media/igdb/cover_big/co47a9.jpg",
  "platforms": [
    {
      "name": "Windows"
    }
  ],
  "provider_games": [
    {
      "name": "Romance of the Three Kingdoms : The Legend of CaoCao(Tactics)",
      "slug": "romance-of-the-three-kingdoms-the-legend-of-caocao-tactics",
      "service": "igdb"
    }
  ],
  "aliases": [],
  "shaders": [],
  "discord_id": "",
  "change_for": null
}