{
  "id": 154649,
  "name": "Mr.King Luo!Don't be kidding",
  "slug": "mr-dot-king-luo-dont-be-kidding",
  "year": 2020,
  "banner_url": "",
  "icon_url": "",
  "coverart": "https://lutris.net/media/igdb/cover_big/co3pf4.jpg",
  "platforms": [
    {
      "name": "Windows"
    }
  ],
  "provider_games": [
    {
      "name": "Mr.King Luo! Don't Be Kidding",
      "slug": "mr-dot-king-luo-dont-be-kidding",
      "service": "igdb"
    }
  ],
  "aliases": [],
  "shaders": [],
  "discord_id": "",
  "change_for": null
}