{
  "id": 277553,
  "name": "King Towers",
  "slug": "king-towers",
  "year": null,
  "banner_url": "",
  "icon_url": "",
  "coverart": "https://lutris.net/media/igdb/cover_big/co7w5b.jpg",
  "platforms": [],
  "provider_games": [
    {
      "name": "King Towers",
      "slug": "king-towers",
      "service": "igdb"
    }
  ],
  "aliases": [],
  "shaders": [],
  "discord_id": "",
  "change_for": null
}