{
  "id": 247582,
  "name": "Princess Poffin and the Spider Invasion",
  "slug": "princess-poffin-and-the-spider-invasion",
  "year": 2023,
  "banner_url": "",
  "icon_url": "",
  "coverart": "https://lutris.net/media/igdb/cover_big/co6l33.jpg",
  "platforms": [
    {
      "name": "Browser"
    }
  ],
  "provider_games": [
    {
      "name": "Princess Poffin and the Spider Invasion",
      "slug": "princess-poffin-and-the-spider-invasion",
      "service": "igdb"
    }
  ],
  "aliases": [],
  "shaders": [],
  "discord_id": "",
  "change_for": null
}