{
  "id": 188400,
  "name": "Fief: the Medieval Manor Simulation",
  "slug": "fief-the-medieval-manor-simulation",
  "year": null,
  "banner_url": "",
  "icon_url": "",
  "coverart": null,
  "platforms": [],
  "provider_games": [
    {
      "name": "Fief: the Medieval Manor Simulation",
      "slug": "fief-the-medieval-manor-simulation",
      "service": "igdb"
    }
  ],
  "aliases": [],
  "shaders": [],
  "discord_id": "",
  "change_for": null
}