{
  "id": 264119,
  "name": "Blood Running",
  "slug": "blood-running",
  "year": null,
  "banner_url": "",
  "icon_url": "",
  "coverart": "https://lutris.net/media/igdb/cover_big/co7av1.jpg",
  "platforms": [],
  "provider_games": [
    {
      "name": "Blood Running",
      "slug": "blood-running",
      "service": "igdb"
    }
  ],
  "aliases": [],
  "shaders": [],
  "discord_id": "",
  "change_for": null
}