{
  "id": 66818,
  "name": "Final Stretch: Horse Racing Sim",
  "slug": "final-stretch-horse-racing-sim",
  "year": null,
  "banner_url": "",
  "icon_url": "",
  "coverart": "https://lutris.net/media/igdb/cover_big/cwunpbgyph7qqsilwlwi.jpg",
  "platforms": [],
  "provider_games": [
    {
      "name": "Final Stretch: Horse Racing Sim",
      "slug": "final-stretch-horse-racing-sim",
      "service": "igdb"
    }
  ],
  "aliases": [],
  "shaders": [],
  "discord_id": "",
  "change_for": null
}