{
  "id": 237270,
  "name": "Tokio: Tokyo-to Dai 24-ku",
  "slug": "tokio-tokyo-to-dai-24-ku",
  "year": 1992,
  "banner_url": "",
  "icon_url": "",
  "coverart": "https://lutris.net/media/igdb/cover_big/co66dj.jpg",
  "platforms": [
    {
      "name": "FM Towns"
    },
    {
      "name": "PC-98"
    },
    {
      "name": "Windows"
    }
  ],
  "provider_games": [
    {
      "name": "Tokio: Tokyo-to Dai 24-ku",
      "slug": "tokio-tokyo-to-dai-24-ku",
      "service": "igdb"
    }
  ],
  "aliases": [],
  "shaders": [],
  "discord_id": "",
  "change_for": null
}