{
  "id": 214783,
  "name": "Sonic Mega Collection Plus Mini",
  "slug": "sonic-mega-collection-plus-mini",
  "year": 2004,
  "banner_url": "",
  "icon_url": "",
  "coverart": "https://lutris.net/media/igdb/cover_big/co5bx0.jpg",
  "platforms": [
    {
      "name": "Browser"
    }
  ],
  "provider_games": [
    {
      "name": "Sonic Mega Collection Plus Mini",
      "slug": "sonic-mega-collection-plus-mini",
      "service": "igdb"
    }
  ],
  "aliases": [],
  "shaders": [],
  "discord_id": "",
  "change_for": null
}