{
  "id": 228701,
  "name": "Atlantis Evolution",
  "slug": "atlantis-evolution-1",
  "year": 2004,
  "banner_url": "",
  "icon_url": "",
  "coverart": null,
  "platforms": [],
  "provider_games": [
    {
      "name": "Atlantis Evolution",
      "slug": "1294416884",
      "service": "gog"
    }
  ],
  "aliases": [],
  "shaders": [],
  "discord_id": "",
  "change_for": null
}