{
  "id": 298548,
  "name": "Franchise Hockey Manager 11",
  "slug": "franchise-hockey-manager-11",
  "year": 2024,
  "banner_url": "",
  "icon_url": "",
  "coverart": "https://lutris.net/media/igdb/cover_big/co8xon.jpg",
  "platforms": [
    {
      "name": "Mac"
    },
    {
      "name": "Windows"
    }
  ],
  "provider_games": [
    {
      "name": "Franchise Hockey Manager 11",
      "slug": "franchise-hockey-manager-11",
      "service": "igdb"
    }
  ],
  "aliases": [],
  "shaders": [],
  "discord_id": "",
  "change_for": null
}