{
  "id": 280417,
  "name": "The Courage to be Disliked",
  "slug": "the-courage-to-be-disliked",
  "year": null,
  "banner_url": "",
  "icon_url": "",
  "coverart": "https://lutris.net/media/igdb/cover_big/co80iq.jpg",
  "platforms": [],
  "provider_games": [
    {
      "name": "The Courage to be Disliked",
      "slug": "the-courage-to-be-disliked",
      "service": "igdb"
    }
  ],
  "aliases": [],
  "shaders": [],
  "discord_id": "",
  "change_for": null
}