{
  "id": 81946,
  "name": "Cabela's Monster Buck Hunter",
  "slug": "cabelas-monster-buck-hunter",
  "year": 2010,
  "banner_url": "",
  "icon_url": "",
  "coverart": "https://lutris.net/media/igdb/cover_big/ziv0mihvhnihyqvcu1zo.jpg",
  "platforms": [
    {
      "name": "Nintendo Wii"
    }
  ],
  "provider_games": [
    {
      "name": "Cabela's Monster Buck Hunter",
      "slug": "cabelas-monster-buck-hunter",
      "service": "igdb"
    }
  ],
  "aliases": [],
  "shaders": [],
  "discord_id": "",
  "change_for": null
}