{
  "id": 182590,
  "name": "Wonderputt",
  "slug": "wonderputt",
  "year": 2012,
  "banner_url": "",
  "icon_url": "",
  "coverart": "https://lutris.net/media/igdb/cover_big/co63nd.jpg",
  "platforms": [],
  "provider_games": [
    {
      "name": "Wonderputt",
      "slug": "wonderputt",
      "service": "igdb"
    }
  ],
  "aliases": [],
  "shaders": [],
  "discord_id": "",
  "change_for": null
}