{
  "id": 41992,
  "name": "Shadow Arts Plus",
  "slug": "shadow-arts-plus",
  "year": 2012,
  "banner_url": "https://lutris.net/games/banner/shadow-arts-plus.jpg",
  "icon_url": "",
  "coverart": null,
  "platforms": [
    {
      "name": "Windows"
    }
  ],
  "provider_games": [],
  "aliases": [],
  "shaders": [],
  "discord_id": "",
  "change_for": null
}