{
  "id": 304836,
  "name": "Froggo's Adventure: Drifting Sky",
  "slug": "froggos-adventure-drifting-sky",
  "year": null,
  "banner_url": "",
  "icon_url": "",
  "coverart": "https://lutris.net/media/igdb/cover_big/co99t1.jpg",
  "platforms": [
    {
      "name": "Windows"
    }
  ],
  "provider_games": [
    {
      "name": "Froggo's Adventure: Drifting Sky",
      "slug": "froggos-adventure-drifting-sky",
      "service": "igdb"
    }
  ],
  "aliases": [],
  "shaders": [],
  "discord_id": "",
  "change_for": null
}