{
  "id": 294882,
  "name": "Uraankhians Dygyn: The Beginning",
  "slug": "uraankhians-dygyn-the-beginning",
  "year": 2024,
  "banner_url": "",
  "icon_url": "",
  "coverart": "https://lutris.net/media/igdb/cover_big/co8qkv.jpg",
  "platforms": [
    {
      "name": "Windows"
    }
  ],
  "provider_games": [
    {
      "name": "Uraankhians Dygyn: The Beginning",
      "slug": "uraankhians-dygyn-the-beginning",
      "service": "igdb"
    }
  ],
  "aliases": [],
  "shaders": [],
  "discord_id": "",
  "change_for": null
}