{
  "id": 14379,
  "name": "Postity - VR Enthusiast community - Talk about VR in VR. Alongside other VR apps.",
  "slug": "postity-vr-enthusiast-community-talk-about-vr-in-v",
  "year": null,
  "banner_url": "https://lutris.net/games/banner/postity-vr-enthusiast-community-talk-about-vr-in-v.jpg",
  "icon_url": "https://lutris.net/games/icon/postity-vr-enthusiast-community-talk-about-vr-in-v.png",
  "coverart": null,
  "platforms": [],
  "provider_games": [
    {
      "name": "Postity - VR Enthusiast community - Talk about VR in VR. Alongside other VR apps.",
      "slug": "646400",
      "service": "steam"
    }
  ],
  "aliases": [],
  "shaders": [],
  "discord_id": "",
  "change_for": null
}