{
  "id": 83055,
  "name": "Eshigami no Kizuna",
  "slug": "eshigami-no-kizuna",
  "year": 2018,
  "banner_url": "",
  "icon_url": "",
  "coverart": "https://lutris.net/media/igdb/cover_big/jbqipdjqohgzq3wcb4am.jpg",
  "platforms": [
    {
      "name": "Android"
    }
  ],
  "provider_games": [
    {
      "name": "Eshigami no Kizuna",
      "slug": "eshigami-no-kizuna",
      "service": "igdb"
    }
  ],
  "aliases": [],
  "shaders": [],
  "discord_id": "",
  "change_for": null
}