{
  "id": 106467,
  "name": "Ninja Village Wars 2",
  "slug": "ninja-village-wars-2",
  "year": 2018,
  "banner_url": "",
  "icon_url": "",
  "coverart": "https://lutris.net/media/igdb/cover_big/xijkfeopk9btssjzh4us.jpg",
  "platforms": [
    {
      "name": "Windows"
    }
  ],
  "provider_games": [
    {
      "name": "Ninja Village Wars 2",
      "slug": "ninja-village-wars-2",
      "service": "igdb"
    }
  ],
  "aliases": [],
  "shaders": [],
  "discord_id": "",
  "change_for": null
}