{
  "id": 82330,
  "name": "Uncle Albert's Fabulous Voyage",
  "slug": "uncle-alberts-fabulous-voyage",
  "year": 1999,
  "banner_url": "",
  "icon_url": "",
  "coverart": "https://lutris.net/media/igdb/cover_big/c9wtccncwqwgj41om9ct.jpg",
  "platforms": [
    {
      "name": "Windows"
    }
  ],
  "provider_games": [
    {
      "name": "Uncle Albert's Fabulous Voyage",
      "slug": "uncle-alberts-fabulous-voyage",
      "service": "igdb"
    }
  ],
  "aliases": [],
  "shaders": [],
  "discord_id": "",
  "change_for": null
}