{
  "id": 8109,
  "name": "Might & Magic Heroes VII ",
  "slug": "might-magic-heroes-vii",
  "year": 2015,
  "banner_url": "https://lutris.net/games/banner/might-magic-heroes-vii.jpg",
  "icon_url": "https://lutris.net/games/icon/might-magic-heroes-vii.png",
  "coverart": "https://lutris.net/media/igdb/cover_big/co1r6o.jpg",
  "platforms": [
    {
      "name": "Windows"
    }
  ],
  "provider_games": [
    {
      "name": "Might & Magic Heroes VII ",
      "slug": "321960",
      "service": "steam"
    },
    {
      "name": "Might & Magic Heroes VII",
      "slug": "might-magic-heroes-vii",
      "service": "igdb"
    }
  ],
  "aliases": [],
  "shaders": [],
  "discord_id": "",
  "change_for": null
}