{
  "id": 247458,
  "name": "Rocket Crane",
  "slug": "rocket-crane",
  "year": null,
  "banner_url": "",
  "icon_url": "",
  "coverart": null,
  "platforms": [],
  "provider_games": [
    {
      "name": "Rocket Crane",
      "slug": "rocket-crane",
      "service": "igdb"
    }
  ],
  "aliases": [],
  "shaders": [],
  "discord_id": "",
  "change_for": null
}