{
  "id": 248914,
  "name": "Oslo: 2084",
  "slug": "oslo-2084",
  "year": null,
  "banner_url": "",
  "icon_url": "",
  "coverart": "https://lutris.net/media/igdb/cover_big/co6n4t.jpg",
  "platforms": [],
  "provider_games": [
    {
      "name": "Oslo: 2084",
      "slug": "oslo-2084",
      "service": "igdb"
    }
  ],
  "aliases": [],
  "shaders": [],
  "discord_id": "",
  "change_for": null
}