{
  "id": 259829,
  "name": "Conflict of Lords",
  "slug": "conflict-of-lords",
  "year": null,
  "banner_url": "",
  "icon_url": "",
  "coverart": "https://lutris.net/media/igdb/cover_big/co7ga1.jpg",
  "platforms": [],
  "provider_games": [
    {
      "name": "Conflict of Lords",
      "slug": "conflict-of-lords",
      "service": "igdb"
    }
  ],
  "aliases": [],
  "shaders": [],
  "discord_id": "",
  "change_for": null
}