{
  "id": 7205,
  "game_id": 8217,
  "game_slug": "surfingers",
  "name": "Surfingers",
  "year": 2016,
  "user": "t-rex91",
  "runner": "steam",
  "slug": "surfingers-steam",
  "version": "Steam",
  "description": null,
  "notes": "",
  "credits": "",
  "created_at": "2018-01-30T20:54:16.177324Z",
  "updated_at": "2018-01-30T22:32:11.606389Z",
  "draft": false,
  "published": true,
  "published_by": null,
  "rating": "",
  "is_playable": null,
  "steamid": 438080,
  "gogid": null,
  "gogslug": "",
  "humbleid": "",
  "humblestoreid": "",
  "humblestoreid_real": "",
  "script": {
    "game": {
      "appid": 438080
    }
  },
  "content": "game:\n  appid: 438080\n",
  "discord_id": ""
}