{
  "id": 37866,
  "name": "Gallop Racer",
  "slug": "gallop-racer",
  "year": 1995,
  "banner_url": "https://lutris.net/games/banner/gallop-racer.jpg",
  "icon_url": "",
  "coverart": "https://lutris.net/media/igdb/cover_big/trtcszshdvehp8ilmtws.jpg",
  "platforms": [
    {
      "name": "Arcade"
    },
    {
      "name": "Sony PlayStation"
    }
  ],
  "provider_games": [
    {
      "name": "Gallop Racer",
      "slug": "gallop-racer",
      "service": "igdb"
    }
  ],
  "aliases": [],
  "shaders": [],
  "discord_id": "",
  "change_for": null
}