{
  "id": 31364,
  "name": "XCOM: Terror from the Deep",
  "slug": "xcom-terror-from-the-deep",
  "year": 1995,
  "banner_url": "https://lutris.net/games/banner/xcom-terror-from-the-deep.jpg",
  "icon_url": "",
  "coverart": null,
  "platforms": [
    {
      "name": "MS-DOS"
    },
    {
      "name": "PC-98"
    },
    {
      "name": "Sony PlayStation"
    }
  ],
  "provider_games": [],
  "aliases": [],
  "shaders": [],
  "discord_id": "",
  "change_for": null
}