{
  "id": 112181,
  "name": "Bass Rush: ECOGEAR PowerWorm Championship",
  "slug": "bass-rush-ecogear-powerworm-championship",
  "year": 2000,
  "banner_url": "",
  "icon_url": "",
  "coverart": "https://lutris.net/media/igdb/cover_big/co2f50.jpg",
  "platforms": [
    {
      "name": "Nintendo 64"
    }
  ],
  "provider_games": [
    {
      "name": "Bass Rush: Ecogear PowerWorm Championship",
      "slug": "bass-rush-ecogear-powerworm-championship",
      "service": "igdb"
    }
  ],
  "aliases": [],
  "shaders": [],
  "discord_id": "",
  "change_for": null
}