{
  "id": 261891,
  "name": "Space Invaders",
  "slug": "space-invaders--22",
  "year": null,
  "banner_url": "",
  "icon_url": "",
  "coverart": "https://lutris.net/media/igdb/cover_big/co76wl.jpg",
  "platforms": [],
  "provider_games": [
    {
      "name": "Space Invaders",
      "slug": "space-invaders--22",
      "service": "igdb"
    }
  ],
  "aliases": [],
  "shaders": [],
  "discord_id": "",
  "change_for": null
}