{
  "id": 210024,
  "name": "Odekake Takorin: Choigae",
  "slug": "odekake-takorin-choigae",
  "year": null,
  "banner_url": "",
  "icon_url": "",
  "coverart": null,
  "platforms": [],
  "provider_games": [
    {
      "name": "Odekake Takorin: Choigae",
      "slug": "odekake-takorin-choigae",
      "service": "igdb"
    }
  ],
  "aliases": [],
  "shaders": [],
  "discord_id": "",
  "change_for": null
}