{
  "id": 53312,
  "name": "Chrysalis",
  "slug": "chrysalis",
  "year": 1985,
  "banner_url": "",
  "icon_url": "",
  "coverart": "https://lutris.net/media/igdb/cover_big/bvnvhptrlafqmgr0u06h.jpg",
  "platforms": [
    {
      "name": "BBC Microcomputer System"
    }
  ],
  "provider_games": [
    {
      "name": "Chrysalis",
      "slug": "chrysalis",
      "service": "igdb"
    }
  ],
  "aliases": [],
  "shaders": [],
  "discord_id": "",
  "change_for": null
}