{
  "id": 1273,
  "name": "Lucid",
  "slug": "lucid",
  "year": 2011,
  "banner_url": "https://lutris.net/games/banner/lucid.jpg",
  "icon_url": "https://lutris.net/games/icon/lucid.png",
  "coverart": "https://lutris.net/media/igdb/cover_big/yerhhfpjspu4n6rlrh4c.jpg",
  "platforms": [
    {
      "name": "Linux"
    },
    {
      "name": "Windows"
    }
  ],
  "provider_games": [
    {
      "name": "Lucid",
      "slug": "61100",
      "service": "steam"
    },
    {
      "name": "Lucid",
      "slug": "lucid",
      "service": "igdb"
    }
  ],
  "aliases": [],
  "shaders": [],
  "discord_id": "",
  "change_for": null
}