{
  "id": 66739,
  "name": "Deer Avenger",
  "slug": "deer-avenger",
  "year": null,
  "banner_url": "",
  "icon_url": "",
  "coverart": "https://lutris.net/media/igdb/cover_big/gky3sokvfnmqftcmflu1.jpg",
  "platforms": [],
  "provider_games": [
    {
      "name": "Deer Avenger",
      "slug": "deer-avenger",
      "service": "igdb"
    }
  ],
  "aliases": [],
  "shaders": [],
  "discord_id": "",
  "change_for": null
}