{
  "id": 256684,
  "name": "I am OK",
  "slug": "i-am-ok",
  "year": null,
  "banner_url": "",
  "icon_url": "",
  "coverart": "https://lutris.net/media/igdb/cover_big/co6z57.jpg",
  "platforms": [],
  "provider_games": [
    {
      "name": "I am OK",
      "slug": "i-am-ok",
      "service": "igdb"
    }
  ],
  "aliases": [],
  "shaders": [],
  "discord_id": "",
  "change_for": null
}