{
  "id": 96222,
  "name": "Alphabet Memory Match",
  "slug": "alphabet-memory-match",
  "year": null,
  "banner_url": "",
  "icon_url": "",
  "coverart": null,
  "platforms": [],
  "provider_games": [
    {
      "name": "Alphabet Memory Match",
      "slug": "alphabet-memory-match",
      "service": "igdb"
    }
  ],
  "aliases": [],
  "shaders": [],
  "discord_id": "",
  "change_for": null
}