{
  "id": 300190,
  "name": "Aquatic Store Simulator",
  "slug": "aquatic-store-simulator",
  "year": 2024,
  "banner_url": "",
  "icon_url": "",
  "coverart": "https://lutris.net/media/igdb/cover_big/co90jk.jpg",
  "platforms": [
    {
      "name": "Windows"
    }
  ],
  "provider_games": [
    {
      "name": "Aquatic Store Simulator",
      "slug": "aquatic-store-simulator",
      "service": "igdb"
    }
  ],
  "aliases": [],
  "shaders": [],
  "discord_id": "",
  "change_for": null
}