{
  "id": 334,
  "name": "Incredipede",
  "slug": "incredipede",
  "year": 2012,
  "banner_url": "https://lutris.net/games/banner/incredipede.jpg",
  "icon_url": "https://lutris.net/games/icon/incredipede.png",
  "coverart": "https://lutris.net/media/igdb/cover_big/co1tz4.jpg",
  "platforms": [
    {
      "name": "Linux"
    },
    {
      "name": "Mac"
    },
    {
      "name": "Windows"
    }
  ],
  "provider_games": [
    {
      "name": "Incredipede",
      "slug": "1207659127",
      "service": "gog"
    },
    {
      "name": "Incredipede",
      "slug": "incredipede",
      "service": "humblebundle"
    },
    {
      "name": "Incredipede",
      "slug": "230150",
      "service": "steam"
    },
    {
      "name": "Incredipede",
      "slug": "incredipede",
      "service": "igdb"
    }
  ],
  "aliases": [],
  "shaders": [],
  "discord_id": "",
  "change_for": null
}