{
  "id": 183989,
  "name": "Bruh.IO",
  "slug": "bruh-dot-io",
  "year": null,
  "banner_url": "",
  "icon_url": "",
  "coverart": "https://lutris.net/media/igdb/cover_big/lafpq4c9vqq8g1dgdx6o.jpg",
  "platforms": [],
  "provider_games": [
    {
      "name": "Bruh.IO",
      "slug": "bruh-dot-io",
      "service": "igdb"
    }
  ],
  "aliases": [],
  "shaders": [],
  "discord_id": "",
  "change_for": null
}