{
  "id": 213493,
  "name": "Hellboy: Web of Wyrd",
  "slug": "hellboy-web-of-wyrd",
  "year": null,
  "banner_url": "https://lutris.net/games/banner/hellboy-web-of-wyrd.jpg",
  "icon_url": "",
  "coverart": "https://lutris.net/media/igdb/cover_big/co5va2.jpg",
  "platforms": [
    {
      "name": "Nintendo Switch"
    },
    {
      "name": "Sony Playstation 4"
    },
    {
      "name": "Sony PlayStation 5"
    },
    {
      "name": "Windows"
    },
    {
      "name": "Xbox One"
    },
    {
      "name": "Xbox Series X|S"
    }
  ],
  "provider_games": [
    {
      "name": "Hellboy: Web of Wyrd",
      "slug": "hellboy-web-of-wyrd",
      "service": "igdb"
    },
    {
      "name": "Hellboy Web of Wyrd",
      "slug": "2160480",
      "service": "steam"
    }
  ],
  "aliases": [],
  "shaders": [],
  "discord_id": "",
  "change_for": null
}