{
  "id": 42737,
  "name": "Shred! 2 - ft Sam Pilgrim",
  "slug": "shred-2-ft-sam-pilgrim",
  "year": 2018,
  "banner_url": "https://lutris.net/games/banner/shred-2-ft-sam-pilgrim.jpg",
  "icon_url": "https://lutris.net/games/icon/shred-2-ft-sam-pilgrim.png",
  "coverart": "https://lutris.net/media/igdb/cover_big/co24g0.jpg",
  "platforms": [
    {
      "name": "Android"
    },
    {
      "name": "Mac"
    },
    {
      "name": "Nintendo Switch"
    },
    {
      "name": "Sony Playstation 4"
    },
    {
      "name": "Windows"
    },
    {
      "name": "Xbox One"
    }
  ],
  "provider_games": [
    {
      "name": "Shred! 2 - ft Sam Pilgrim",
      "slug": "853200",
      "service": "steam"
    },
    {
      "name": "Shred! 2 - ft Sam Pilgrim",
      "slug": "shred-2-ft-sam-pilgrim",
      "service": "igdb"
    }
  ],
  "aliases": [],
  "shaders": [],
  "discord_id": "",
  "change_for": null
}