{
  "id": 222270,
  "name": "Death Bind",
  "slug": "death-bind",
  "year": null,
  "banner_url": "",
  "icon_url": "",
  "coverart": "https://lutris.net/media/igdb/cover_big/co5g24.jpg",
  "platforms": [],
  "provider_games": [
    {
      "name": "Death Bind",
      "slug": "death-bind",
      "service": "igdb"
    }
  ],
  "aliases": [],
  "shaders": [],
  "discord_id": "",
  "change_for": null
}