{
  "id": 239442,
  "name": "CycloManiacs Epic",
  "slug": "cyclomaniacs-epic",
  "year": 2013,
  "banner_url": "",
  "icon_url": "",
  "coverart": "https://lutris.net/media/igdb/cover_big/co72dt.jpg",
  "platforms": [
    {
      "name": "Browser"
    }
  ],
  "provider_games": [
    {
      "name": "CycloManiacs Epic",
      "slug": "cyclomaniacs-epic",
      "service": "igdb"
    }
  ],
  "aliases": [],
  "shaders": [],
  "discord_id": "",
  "change_for": null
}