{
  "id": 21876,
  "name": "Breakroom",
  "slug": "breakroom",
  "year": null,
  "banner_url": "https://lutris.net/games/banner/breakroom.jpg",
  "icon_url": "https://lutris.net/games/icon/breakroom.png",
  "coverart": null,
  "platforms": [],
  "provider_games": [
    {
      "name": "Breakroom",
      "slug": "431570",
      "service": "steam"
    }
  ],
  "aliases": [],
  "shaders": [],
  "discord_id": "",
  "change_for": null
}