{
  "id": 72257,
  "name": "House Maid Asuka",
  "slug": "house-maid-asuka",
  "year": null,
  "banner_url": "",
  "icon_url": "",
  "coverart": null,
  "platforms": [],
  "provider_games": [
    {
      "name": "House Maid Asuka",
      "slug": "house-maid-asuka",
      "service": "igdb"
    }
  ],
  "aliases": [],
  "shaders": [],
  "discord_id": "",
  "change_for": null
}