{
  "id": 47178,
  "name": "Battle Fleet",
  "slug": "battle-fleet--1",
  "year": null,
  "banner_url": "",
  "icon_url": "",
  "coverart": null,
  "platforms": [],
  "provider_games": [
    {
      "name": "Battle Fleet",
      "slug": "battle-fleet--1",
      "service": "igdb"
    }
  ],
  "aliases": [],
  "shaders": [],
  "discord_id": "",
  "change_for": null
}