{
  "id": 117316,
  "name": "Railway Empire: Nintendo Switch Edition",
  "slug": "railway-empire-nintendo-switch-edition",
  "year": 2020,
  "banner_url": "",
  "icon_url": "",
  "coverart": "https://lutris.net/media/igdb/cover_big/co229o.jpg",
  "platforms": [
    {
      "name": "Nintendo Switch"
    }
  ],
  "provider_games": [
    {
      "name": "Railway Empire: Nintendo Switch Edition",
      "slug": "railway-empire-nintendo-switch-edition",
      "service": "igdb"
    }
  ],
  "aliases": [],
  "shaders": [],
  "discord_id": "",
  "change_for": null
}