{
  "id": 35318,
  "name": "Police Trainer",
  "slug": "police-trainer",
  "year": 1996,
  "banner_url": "https://lutris.net/games/banner/police-trainer.jpg",
  "icon_url": "https://lutris.net/games/icon/police-trainer.png",
  "coverart": "https://lutris.net/media/igdb/cover_big/rvyevihfc1j4xnlxkkwj.jpg",
  "platforms": [
    {
      "name": "Arcade"
    }
  ],
  "provider_games": [
    {
      "name": "Police Trainer",
      "slug": "policetr",
      "service": "mame"
    },
    {
      "name": "Police Trainer",
      "slug": "police-trainer",
      "service": "igdb"
    }
  ],
  "aliases": [],
  "shaders": [],
  "discord_id": "",
  "change_for": null
}