{
  "id": 247422,
  "name": "Seishun! Bukatsu Aruaru",
  "slug": "seishun-bukatsu-aruaru",
  "year": null,
  "banner_url": "",
  "icon_url": "",
  "coverart": null,
  "platforms": [],
  "provider_games": [
    {
      "name": "Seishun! Bukatsu Aruaru",
      "slug": "seishun-bukatsu-aruaru",
      "service": "igdb"
    }
  ],
  "aliases": [],
  "shaders": [],
  "discord_id": "",
  "change_for": null
}