{
  "id": 295770,
  "name": "My Party Needs An Alchemist",
  "slug": "my-party-needs-an-alchemist",
  "year": null,
  "banner_url": "",
  "icon_url": "",
  "coverart": "https://lutris.net/media/igdb/cover_big/co8qst.jpg",
  "platforms": [
    {
      "name": "Mac"
    },
    {
      "name": "Windows"
    }
  ],
  "provider_games": [
    {
      "name": "My Party Needs An Alchemist",
      "slug": "my-party-needs-an-alchemist",
      "service": "igdb"
    }
  ],
  "aliases": [],
  "shaders": [],
  "discord_id": "",
  "change_for": null
}