{
  "id": 40928,
  "name": "Drink More Glurp",
  "slug": "drink-more-glurp",
  "year": 2020,
  "banner_url": "https://lutris.net/games/banner/drink-more-glurp.jpg",
  "icon_url": "https://lutris.net/games/icon/drink-more-glurp.png",
  "coverart": "https://lutris.net/media/igdb/cover_big/co2iaw.jpg",
  "platforms": [
    {
      "name": "Linux"
    },
    {
      "name": "Mac"
    },
    {
      "name": "Nintendo Switch"
    },
    {
      "name": "Windows"
    }
  ],
  "provider_games": [
    {
      "name": "Drink More Glurp",
      "slug": "1056690",
      "service": "steam"
    },
    {
      "name": "Drink More Glurp",
      "slug": "drink-more-glurp",
      "service": "igdb"
    }
  ],
  "aliases": [],
  "shaders": [],
  "discord_id": "",
  "change_for": null
}