{
  "id": 160124,
  "name": "Backgammon NJ HD",
  "slug": "backgammon-nj-hd",
  "year": 2010,
  "banner_url": "",
  "icon_url": "",
  "coverart": null,
  "platforms": [],
  "provider_games": [
    {
      "name": "Backgammon NJ HD",
      "slug": "backgammon-nj-hd",
      "service": "igdb"
    }
  ],
  "aliases": [],
  "shaders": [],
  "discord_id": "",
  "change_for": null
}