{
  "id": 7537,
  "name": "Blaster Simulator",
  "slug": "blaster-simulator",
  "year": 2016,
  "banner_url": "https://lutris.net/games/banner/blaster-simulator.jpg",
  "icon_url": "https://lutris.net/games/icon/blaster-simulator.png",
  "coverart": "https://lutris.net/media/igdb/cover_big/co1yjz.jpg",
  "platforms": [
    {
      "name": "Windows"
    }
  ],
  "provider_games": [
    {
      "name": "Blaster Simulator",
      "slug": "446450",
      "service": "steam"
    },
    {
      "name": "Blaster Simulator",
      "slug": "blaster-simulator",
      "service": "igdb"
    }
  ],
  "aliases": [],
  "shaders": [],
  "discord_id": "",
  "change_for": null
}