{
  "id": 4277,
  "game_id": 4086,
  "game_slug": "bloop-reloaded",
  "name": "Bloop Reloaded",
  "year": 2015,
  "user": "FakeShemp",
  "runner": "wine",
  "slug": "bloop-reloaded-indiegamestand",
  "version": "IndieGameStand",
  "description": "",
  "notes": "",
  "credits": "",
  "created_at": "2017-06-10T18:49:04.139758Z",
  "updated_at": "2018-05-19T03:41:49.297879Z",
  "draft": false,
  "published": true,
  "published_by": null,
  "rating": "",
  "is_playable": null,
  "steamid": 315060,
  "gogid": null,
  "gogslug": "",
  "humbleid": "",
  "humblestoreid": "",
  "humblestoreid_real": "",
  "script": {
    "files": [
      {
        "file1": "N/A:Please select the IndieGameStand archive"
      }
    ],
    "game": {
      "arch": "win32",
      "exe": "drive_c/Program Files/Bloop Reloaded/BloopReloaded.exe",
      "prefix": "$GAMEDIR"
    },
    "installer": [
      {
        "extract": {
          "dst": "$GAMEDIR/drive_c/Program Files/Bloop Reloaded",
          "file": "$file1"
        }
      }
    ]
  },
  "content": "files:\n- file1: N/A:Please select the IndieGameStand archive\ngame:\n  arch: win32\n  exe: drive_c/Program Files/Bloop Reloaded/BloopReloaded.exe\n  prefix: $GAMEDIR\ninstaller:\n- extract:\n    dst: $GAMEDIR/drive_c/Program Files/Bloop Reloaded\n    file: $file1\n",
  "discord_id": ""
}