{
  "id": 120331,
  "name": "Tokyo Twilight Ghost Hunters",
  "slug": "tokyo-twilight-ghost-hunters",
  "year": 2014,
  "banner_url": "",
  "icon_url": "",
  "coverart": "https://lutris.net/media/igdb/cover_big/co2fh7.jpg",
  "platforms": [
    {
      "name": "PlayStation Vita"
    },
    {
      "name": "Sony Playstation 3"
    }
  ],
  "provider_games": [
    {
      "name": "Tokyo Twilight Ghost Hunters",
      "slug": "tokyo-twilight-ghost-hunters",
      "service": "igdb"
    }
  ],
  "aliases": [],
  "shaders": [],
  "discord_id": "",
  "change_for": null
}