{
  "id": 261221,
  "name": "Continuum",
  "slug": "continuum--3",
  "year": null,
  "banner_url": "",
  "icon_url": "",
  "coverart": "https://lutris.net/media/igdb/cover_big/co755w.jpg",
  "platforms": [],
  "provider_games": [
    {
      "name": "Continuum",
      "slug": "continuum--3",
      "service": "igdb"
    }
  ],
  "aliases": [],
  "shaders": [],
  "discord_id": "",
  "change_for": null
}