{
  "id": 137152,
  "name": "Nya Nya Nya Girls (ʻʻʻ)_(=^･ω･^=)_(ʻʻʻ)",
  "slug": "nya-nya-nya-girls-equals-star-o-star-equals",
  "year": null,
  "banner_url": "",
  "icon_url": "",
  "coverart": "https://lutris.net/media/igdb/cover_big/co3q9o.jpg",
  "platforms": [],
  "provider_games": [
    {
      "name": "Nya Nya Nya Girls (ʻʻʻ)_(=^･ω･^=)_(ʻʻʻ)",
      "slug": "nya-nya-nya-girls-equals-star-o-star-equals",
      "service": "igdb"
    }
  ],
  "aliases": [],
  "shaders": [],
  "discord_id": "",
  "change_for": null
}