{
  "id": 85666,
  "name": "Miracle! Panzou: 7-tsu no Hoshi no Uchuu Kaizoku",
  "slug": "miracle-panzou-7-tsu-no-hoshi-no-uchuu-kaizoku",
  "year": 2005,
  "banner_url": "",
  "icon_url": "",
  "coverart": "https://lutris.net/media/igdb/cover_big/co28nt.jpg",
  "platforms": [
    {
      "name": "Nintendo Game Boy Advance"
    }
  ],
  "provider_games": [
    {
      "name": "Miracle! Panzou: 7-tsu no Hoshi no Uchuu Kaizoku",
      "slug": "miracle-panzou-7-tsu-no-hoshi-no-uchuu-kaizoku",
      "service": "igdb"
    }
  ],
  "aliases": [],
  "shaders": [],
  "discord_id": "",
  "change_for": null
}