{
  "id": 61129,
  "name": "Feed Garfield",
  "slug": "feed-garfield",
  "year": 2012,
  "banner_url": "",
  "icon_url": "",
  "coverart": "https://lutris.net/media/igdb/cover_big/p7poqswccbzlocqlshyv.jpg",
  "platforms": [],
  "provider_games": [
    {
      "name": "Feed Garfield",
      "slug": "feed-garfield",
      "service": "igdb"
    }
  ],
  "aliases": [],
  "shaders": [],
  "discord_id": "",
  "change_for": null
}