{
  "id": 260990,
  "name": "Engraving",
  "slug": "engraving",
  "year": null,
  "banner_url": "",
  "icon_url": "",
  "coverart": "https://lutris.net/media/igdb/cover_big/co75dx.jpg",
  "platforms": [],
  "provider_games": [
    {
      "name": "Engraving",
      "slug": "engraving",
      "service": "igdb"
    }
  ],
  "aliases": [],
  "shaders": [],
  "discord_id": "",
  "change_for": null
}