{
  "id": 80615,
  "name": "Beach-Head II",
  "slug": "beach-head-ii",
  "year": 1985,
  "banner_url": "",
  "icon_url": "",
  "coverart": "https://lutris.net/media/igdb/cover_big/opkll1k9pc0qu3bn8nel.jpg",
  "platforms": [
    {
      "name": "Amstrad CPC"
    },
    {
      "name": "Apple II"
    },
    {
      "name": "Atari 8-bit"
    },
    {
      "name": "Commodore C64/128"
    },
    {
      "name": "ZX Spectrum"
    }
  ],
  "provider_games": [
    {
      "name": "Beach-Head II",
      "slug": "beach-head-ii",
      "service": "igdb"
    }
  ],
  "aliases": [],
  "shaders": [],
  "discord_id": "",
  "change_for": null
}