{
  "id": 86018,
  "name": "Maximum Racing: Rally Racer",
  "slug": "maximum-racing-rally-racer",
  "year": 2011,
  "banner_url": "",
  "icon_url": "",
  "coverart": "https://lutris.net/media/igdb/cover_big/co74tf.jpg",
  "platforms": [
    {
      "name": "Nintendo Wii"
    }
  ],
  "provider_games": [
    {
      "name": "Maximum Racing: Rally Racer",
      "slug": "maximum-racing-rally-racer",
      "service": "igdb"
    }
  ],
  "aliases": [],
  "shaders": [],
  "discord_id": "",
  "change_for": null
}