{
  "id": 5780,
  "name": "Gunstar Heroes",
  "slug": "gunstar-heroes",
  "year": 1993,
  "banner_url": "https://lutris.net/games/banner/gunstar-heroes.jpg",
  "icon_url": "",
  "coverart": "https://lutris.net/media/igdb/cover_big/co3wad.jpg",
  "platforms": [
    {
      "name": "Linux"
    },
    {
      "name": "Nintendo Wii"
    },
    {
      "name": "Sega Game Gear"
    },
    {
      "name": "Sega Genesis / Mega Drive"
    },
    {
      "name": "Sony Playstation 3"
    },
    {
      "name": "Windows"
    },
    {
      "name": "Xbox 360"
    }
  ],
  "provider_games": [
    {
      "name": "Gunstar Heroes",
      "slug": "gunstar-heroes",
      "service": "igdb"
    }
  ],
  "aliases": [],
  "shaders": [],
  "discord_id": "",
  "change_for": null
}