{
  "id": 110388,
  "name": "Bulk Slash",
  "slug": "bulk-slash",
  "year": 1997,
  "banner_url": "",
  "icon_url": "",
  "coverart": "https://lutris.net/media/igdb/cover_big/co2z3q.jpg",
  "platforms": [
    {
      "name": "Sega Saturn"
    }
  ],
  "provider_games": [
    {
      "name": "Bulk Slash",
      "slug": "bulk-slash",
      "service": "igdb"
    }
  ],
  "aliases": [],
  "shaders": [],
  "discord_id": "",
  "change_for": null
}