{
  "id": 1122,
  "name": "GTR Evolution",
  "slug": "gtr-evolution",
  "year": 2008,
  "banner_url": "https://lutris.net/games/banner/gtr-evolution.jpg",
  "icon_url": "https://lutris.net/games/icon/gtr-evolution.png",
  "coverart": "https://lutris.net/media/igdb/cover_big/co1u89.jpg",
  "platforms": [
    {
      "name": "Windows"
    }
  ],
  "provider_games": [
    {
      "name": "GTR Evolution",
      "slug": "8660",
      "service": "steam"
    },
    {
      "name": "GTR Evolution",
      "slug": "gtr-evolution",
      "service": "igdb"
    }
  ],
  "aliases": [],
  "shaders": [],
  "discord_id": "",
  "change_for": null
}