{
  "id": 16832,
  "name": "Fast & Furious 6 : The Mobile Game",
  "slug": "fast-furious-6",
  "year": 2013,
  "banner_url": "https://lutris.net/games/banner/fast-furious-6.jpg",
  "icon_url": "",
  "coverart": null,
  "platforms": [
    {
      "name": "J2ME"
    }
  ],
  "provider_games": [],
  "aliases": [],
  "shaders": [],
  "discord_id": "",
  "change_for": null
}