{
  "id": 266165,
  "name": "Long Lost",
  "slug": "long-lost",
  "year": null,
  "banner_url": "",
  "icon_url": "",
  "coverart": "https://lutris.net/media/igdb/cover_big/co7e03.jpg",
  "platforms": [],
  "provider_games": [
    {
      "name": "Long Lost",
      "slug": "long-lost",
      "service": "igdb"
    }
  ],
  "aliases": [],
  "shaders": [],
  "discord_id": "",
  "change_for": null
}