{
  "id": 258195,
  "name": "Otto's Ottifanten: Kommando Stortebeker",
  "slug": "ottos-ottifanten-kommando-stortebeker",
  "year": 2001,
  "banner_url": "",
  "icon_url": "",
  "coverart": null,
  "platforms": [
    {
      "name": "Nintendo Game Boy Color"
    }
  ],
  "provider_games": [
    {
      "name": "Otto's Ottifanten: Kommando Stortebeker",
      "slug": "ottos-ottifanten-kommando-stortebeker",
      "service": "igdb"
    }
  ],
  "aliases": [],
  "shaders": [],
  "discord_id": "",
  "change_for": null
}