{
  "id": 20912,
  "name": "Crazy Scientist",
  "slug": "crazy-scientist",
  "year": 2017,
  "banner_url": "https://lutris.net/games/banner/crazy-scientist.jpg",
  "icon_url": "https://lutris.net/games/icon/crazy-scientist.png",
  "coverart": "https://lutris.net/media/igdb/cover_big/co2alu.jpg",
  "platforms": [
    {
      "name": "Windows"
    }
  ],
  "provider_games": [
    {
      "name": "Crazy Scientist",
      "slug": "709780",
      "service": "steam"
    },
    {
      "name": "Crazy Scientist",
      "slug": "crazy-scientist",
      "service": "igdb"
    }
  ],
  "aliases": [],
  "shaders": [],
  "discord_id": "",
  "change_for": null
}