{
  "id": 199311,
  "name": "Fear: Call of the village.",
  "slug": "fear-call-of-the-village",
  "year": null,
  "banner_url": "",
  "icon_url": "",
  "coverart": "https://lutris.net/media/igdb/cover_big/co4g2g.jpg",
  "platforms": [],
  "provider_games": [
    {
      "name": "Fear: Call of the village.",
      "slug": "fear-call-of-the-village",
      "service": "igdb"
    }
  ],
  "aliases": [],
  "shaders": [],
  "discord_id": "",
  "change_for": null
}