{
  "id": 290688,
  "name": "Rayman Raving Rabbids: Reburrowed",
  "slug": "rayman-raving-rabbids-reburrowed",
  "year": null,
  "banner_url": "",
  "icon_url": "",
  "coverart": "https://lutris.net/media/igdb/cover_big/co8fyy.jpg",
  "platforms": [
    {
      "name": "Windows"
    }
  ],
  "provider_games": [
    {
      "name": "Rayman Raving Rabbids: Reburrowed",
      "slug": "rayman-raving-rabbids-reburrowed",
      "service": "igdb"
    }
  ],
  "aliases": [],
  "shaders": [],
  "discord_id": "",
  "change_for": null
}