{
  "id": 262087,
  "name": "Tiny Toon Adventures: Plucky Duck in Hollywood Hijinks",
  "slug": "tiny-toon-adventures-plucky-duck-in-hollywood-hijinks",
  "year": null,
  "banner_url": "",
  "icon_url": "",
  "coverart": "https://lutris.net/media/igdb/cover_big/co76r5.jpg",
  "platforms": [
    {
      "name": "Atari Jaguar"
    }
  ],
  "provider_games": [
    {
      "name": "Tiny Toon Adventures: Plucky Duck in Hollywood Hijinks",
      "slug": "tiny-toon-adventures-plucky-duck-in-hollywood-hijinks",
      "service": "igdb"
    }
  ],
  "aliases": [],
  "shaders": [],
  "discord_id": "",
  "change_for": null
}