{
  "id": 147385,
  "name": "Lost In 80s II",
  "slug": "lost-in-80s-ii",
  "year": null,
  "banner_url": "https://lutris.net/games/banner/lost-in-80s-ii.jpg",
  "icon_url": "",
  "coverart": null,
  "platforms": [],
  "provider_games": [
    {
      "name": "Lost In 80s II",
      "slug": "792820",
      "service": "steam"
    },
    {
      "name": "Lost In 80s II",
      "slug": "lost-in-80s-ii",
      "service": "igdb"
    }
  ],
  "aliases": [],
  "shaders": [],
  "discord_id": "",
  "change_for": null
}