{
  "id": 234197,
  "name": "Hellcome",
  "slug": "hellcome",
  "year": null,
  "banner_url": "",
  "icon_url": "",
  "coverart": "https://lutris.net/media/igdb/cover_big/co690g.jpg",
  "platforms": [],
  "provider_games": [
    {
      "name": "Hellcome",
      "slug": "hellcome",
      "service": "igdb"
    }
  ],
  "aliases": [],
  "shaders": [],
  "discord_id": "",
  "change_for": null
}