{
  "id": 4971,
  "game_id": 5749,
  "game_slug": "tracks-and-turrets",
  "name": "Tracks and Turrets",
  "year": null,
  "user": "FakeShemp",
  "runner": "linux",
  "slug": "tracks-and-turrets-groupees",
  "version": "Groupees",
  "description": "",
  "notes": "",
  "credits": "",
  "created_at": "2017-07-11T18:43:55.288668Z",
  "updated_at": "2024-04-03T05:44:09.067118Z",
  "draft": false,
  "published": true,
  "published_by": null,
  "rating": "",
  "is_playable": null,
  "steamid": 404370,
  "gogid": null,
  "gogslug": "",
  "humbleid": "",
  "humblestoreid": "",
  "humblestoreid_real": "",
  "script": {
    "files": [
      {
        "file1": "N/A:Please select the Groupees archive"
      }
    ],
    "game": {
      "exe": "TNT-Groupees.x86_64",
      "launch_configs": [
        {
          "exe": "TNT-Groupees.x86_64",
          "name": "32 bit version"
        }
      ]
    },
    "installer": [
      {
        "extract": {
          "file": "$file1"
        }
      },
      {
        "chmodx": "$GAMEDIR/TNT-Groupees.x86"
      },
      {
        "chmodx": "$GAMEDIR/TNT-Groupees.x86_64"
      }
    ]
  },
  "content": "files:\n- file1: N/A:Please select the Groupees archive\ngame:\n  exe: TNT-Groupees.x86_64\n  launch_configs:\n  - exe: TNT-Groupees.x86_64\n    name: 32 bit version\ninstaller:\n- extract:\n    file: $file1\n- chmodx: $GAMEDIR/TNT-Groupees.x86\n- chmodx: $GAMEDIR/TNT-Groupees.x86_64\n",
  "discord_id": ""
}