{
  "id": 40751,
  "name": "Black Friday: The Game",
  "slug": "black-friday-the-game",
  "year": 2017,
  "banner_url": "https://lutris.net/games/banner/black-friday-the-game.jpg",
  "icon_url": "https://lutris.net/games/icon/black-friday-the-game.png",
  "coverart": "https://lutris.net/media/igdb/cover_big/co29xx.jpg",
  "platforms": [
    {
      "name": "Windows"
    }
  ],
  "provider_games": [
    {
      "name": "Black Friday: The Game",
      "slug": "712700",
      "service": "steam"
    },
    {
      "name": "Black Friday: The Game",
      "slug": "black-friday-the-game",
      "service": "igdb"
    }
  ],
  "aliases": [],
  "shaders": [],
  "discord_id": "",
  "change_for": null
}