{
  "id": 164078,
  "name": "Neo Nectaris",
  "slug": "neo-nectaris",
  "year": 1994,
  "banner_url": "",
  "icon_url": "",
  "coverart": "https://lutris.net/media/igdb/cover_big/co410v.jpg",
  "platforms": [
    {
      "name": "Turbografx-16/PC Engine CD"
    }
  ],
  "provider_games": [
    {
      "name": "Neo Nectaris",
      "slug": "neo-nectaris",
      "service": "igdb"
    }
  ],
  "aliases": [],
  "shaders": [],
  "discord_id": "",
  "change_for": null
}