{
  "id": 210269,
  "name": "G-Mode Archives 11: Senbazuru",
  "slug": "g-mode-archives-11-senbazuru",
  "year": null,
  "banner_url": "",
  "icon_url": "",
  "coverart": "https://lutris.net/media/igdb/cover_big/co7tkg.jpg",
  "platforms": [],
  "provider_games": [
    {
      "name": "G-Mode Archives 11: Senbazuru",
      "slug": "g-mode-archives-11-senbazuru",
      "service": "igdb"
    }
  ],
  "aliases": [],
  "shaders": [],
  "discord_id": "",
  "change_for": null
}