{
  "id": 169059,
  "name": "LuvSic",
  "slug": "luvsic",
  "year": 2021,
  "banner_url": "https://lutris.net/games/banner/luvsic.jpg",
  "icon_url": "",
  "coverart": "https://lutris.net/media/igdb/cover_big/co45iu.jpg",
  "platforms": [
    {
      "name": "Windows"
    }
  ],
  "provider_games": [
    {
      "name": "LuvSic",
      "slug": "luvsic",
      "service": "igdb"
    }
  ],
  "aliases": [],
  "shaders": [],
  "discord_id": "",
  "change_for": null
}