{
  "id": 65844,
  "name": "Star Fleet II: Krellan Commander",
  "slug": "star-fleet-ii-krellan-commander",
  "year": 1989,
  "banner_url": "",
  "icon_url": "",
  "coverart": "https://lutris.net/media/igdb/cover_big/gxals5chgg7wlpdzqn4a.jpg",
  "platforms": [],
  "provider_games": [
    {
      "name": "Star Fleet II: Krellan Commander",
      "slug": "star-fleet-ii-krellan-commander",
      "service": "igdb"
    }
  ],
  "aliases": [],
  "shaders": [],
  "discord_id": "",
  "change_for": null
}