{
  "id": 80419,
  "name": "The Perils of Man",
  "slug": "the-perils-of-man",
  "year": null,
  "banner_url": "",
  "icon_url": "",
  "coverart": "https://lutris.net/media/igdb/cover_big/pvhuxtlremkd0dyyj8fz.jpg",
  "platforms": [],
  "provider_games": [
    {
      "name": "The Perils of Man",
      "slug": "the-perils-of-man",
      "service": "igdb"
    }
  ],
  "aliases": [],
  "shaders": [],
  "discord_id": "",
  "change_for": null
}