{
  "id": 112598,
  "name": "Table Mini Golf",
  "slug": "table-mini-golf",
  "year": 2013,
  "banner_url": "",
  "icon_url": "",
  "coverart": "https://lutris.net/media/igdb/cover_big/vnyqxqwncslnvjp9mdih.jpg",
  "platforms": [
    {
      "name": "PlayStation Vita"
    }
  ],
  "provider_games": [
    {
      "name": "Table Mini Golf",
      "slug": "table-mini-golf",
      "service": "igdb"
    }
  ],
  "aliases": [],
  "shaders": [],
  "discord_id": "",
  "change_for": null
}