{
  "id": 251587,
  "name": "Gig Life Tycoon",
  "slug": "gig-life-tycoon",
  "year": null,
  "banner_url": "",
  "icon_url": "",
  "coverart": "https://lutris.net/media/igdb/cover_big/co8vr4.jpg",
  "platforms": [],
  "provider_games": [
    {
      "name": "Gig Life Tycoon",
      "slug": "gig-life-tycoon",
      "service": "igdb"
    }
  ],
  "aliases": [],
  "shaders": [],
  "discord_id": "",
  "change_for": null
}