{
  "id": 133521,
  "name": "All-Inn",
  "slug": "all-inn",
  "year": null,
  "banner_url": "",
  "icon_url": "",
  "coverart": "https://lutris.net/media/igdb/cover_big/co3ld0.jpg",
  "platforms": [],
  "provider_games": [
    {
      "name": "All-Inn",
      "slug": "all-inn",
      "service": "igdb"
    }
  ],
  "aliases": [],
  "shaders": [],
  "discord_id": "",
  "change_for": null
}