{
  "id": 195174,
  "name": "Industrial Trouble",
  "slug": "industrial-trouble--1",
  "year": null,
  "banner_url": "",
  "icon_url": "",
  "coverart": "https://lutris.net/media/igdb/cover_big/co4px3.jpg",
  "platforms": [],
  "provider_games": [
    {
      "name": "Industrial Trouble",
      "slug": "industrial-trouble--1",
      "service": "igdb"
    }
  ],
  "aliases": [],
  "shaders": [],
  "discord_id": "",
  "change_for": null
}