{
  "id": 17318,
  "game_id": 30667,
  "game_slug": "tixtax",
  "name": "tix.tax",
  "year": 2018,
  "user": "freundTech",
  "runner": "web",
  "slug": "tixtax-browser",
  "version": "Browser",
  "description": null,
  "notes": "",
  "credits": "",
  "created_at": "2019-12-13T18:00:32.844195Z",
  "updated_at": "2024-04-03T05:59:16.968167Z",
  "draft": false,
  "published": true,
  "published_by": 1,
  "rating": "",
  "is_playable": null,
  "steamid": null,
  "gogid": null,
  "gogslug": "",
  "humbleid": "",
  "humblestoreid": "",
  "humblestoreid_real": "",
  "script": {
    "game": {
      "main_file": "https://tix.tax"
    }
  },
  "content": "game:\n  main_file: https://tix.tax\n",
  "discord_id": ""
}