{
  "id": 155345,
  "name": "Hikari no Senshi Photon: The Ultimate Game on Planet Earth",
  "slug": "hikari-no-senshi-photon-the-ultimate-game-on-planet-earth",
  "year": 1987,
  "banner_url": "",
  "icon_url": "",
  "coverart": "https://lutris.net/media/igdb/cover_big/co742a.jpg",
  "platforms": [
    {
      "name": "Family Computer"
    }
  ],
  "provider_games": [
    {
      "name": "Hikari no Senshi Photon: The Ultimate Game on Planet Earth",
      "slug": "hikari-no-senshi-photon-the-ultimate-game-on-planet-earth",
      "service": "igdb"
    }
  ],
  "aliases": [],
  "shaders": [],
  "discord_id": "",
  "change_for": null
}