{
  "id": 126531,
  "name": "Pixelot",
  "slug": "pixelot",
  "year": 2020,
  "banner_url": "",
  "icon_url": "",
  "coverart": "https://lutris.net/media/igdb/cover_big/co2uql.jpg",
  "platforms": [
    {
      "name": "Android"
    },
    {
      "name": "Mac"
    },
    {
      "name": "Windows"
    }
  ],
  "provider_games": [
    {
      "name": "Pixelot",
      "slug": "pixelot",
      "service": "igdb"
    },
    {
      "name": "Pixelot",
      "slug": "1492200487",
      "service": "gog"
    }
  ],
  "aliases": [],
  "shaders": [],
  "discord_id": "",
  "change_for": null
}