{
  "id": 21150,
  "name": "DesertLand 2115",
  "slug": "desertland-2115",
  "year": 2016,
  "banner_url": "https://lutris.net/games/banner/desertland-2115.jpg",
  "icon_url": "https://lutris.net/games/icon/desertland-2115.png",
  "coverart": "https://lutris.net/media/igdb/cover_big/waezkauw4vemrcsonyzo.jpg",
  "platforms": [
    {
      "name": "Windows"
    }
  ],
  "provider_games": [
    {
      "name": "DesertLand 2115",
      "slug": "406280",
      "service": "steam"
    },
    {
      "name": "DesertLand 2115",
      "slug": "desertland-2115",
      "service": "igdb"
    }
  ],
  "aliases": [],
  "shaders": [],
  "discord_id": "",
  "change_for": null
}