{
  "id": 35605,
  "name": "Saturn",
  "slug": "saturn",
  "year": 1983,
  "banner_url": "",
  "icon_url": "https://lutris.net/games/icon/saturn.png",
  "coverart": "https://lutris.net/media/igdb/cover_big/co4i0f.jpg",
  "platforms": [
    {
      "name": "Arcade"
    }
  ],
  "provider_games": [
    {
      "name": "Saturn",
      "slug": "saturnzi",
      "service": "mame"
    },
    {
      "name": "Saturn",
      "slug": "saturn",
      "service": "igdb"
    }
  ],
  "aliases": [],
  "shaders": [],
  "discord_id": "",
  "change_for": null
}