{
  "id": 192526,
  "name": "Red Flowers",
  "slug": "red-flowers",
  "year": null,
  "banner_url": "",
  "icon_url": "",
  "coverart": "https://lutris.net/media/igdb/cover_big/co4pox.jpg",
  "platforms": [],
  "provider_games": [
    {
      "name": "Red Flowers",
      "slug": "red-flowers",
      "service": "igdb"
    }
  ],
  "aliases": [],
  "shaders": [],
  "discord_id": "",
  "change_for": null
}