{
  "id": 167521,
  "name": "The Unbreakable Chain",
  "slug": "the-unbreakable-chain",
  "year": null,
  "banner_url": "",
  "icon_url": "",
  "coverart": "https://lutris.net/media/igdb/cover_big/co445x.jpg",
  "platforms": [],
  "provider_games": [
    {
      "name": "The Unbreakable Chain",
      "slug": "the-unbreakable-chain",
      "service": "igdb"
    }
  ],
  "aliases": [],
  "shaders": [],
  "discord_id": "",
  "change_for": null
}