{
  "id": 49505,
  "name": "Dengeki Bunko: Fighting Climax Ignition - Mobile Version",
  "slug": "dengeki-bunko-fighting-climax-ignition-mobile-version",
  "year": null,
  "banner_url": "",
  "icon_url": "",
  "coverart": "https://lutris.net/media/igdb/cover_big/co73af.jpg",
  "platforms": [
    {
      "name": "Android"
    }
  ],
  "provider_games": [
    {
      "name": "Dengeki Bunko: Fighting Climax Ignition - Mobile Version",
      "slug": "dengeki-bunko-fighting-climax-ignition-mobile-version",
      "service": "igdb"
    }
  ],
  "aliases": [],
  "shaders": [],
  "discord_id": "",
  "change_for": null
}