{
  "id": 292910,
  "name": "Labyrinth of Lust",
  "slug": "labyrinth-of-lust",
  "year": null,
  "banner_url": "",
  "icon_url": "",
  "coverart": "https://lutris.net/media/igdb/cover_big/co8m82.jpg",
  "platforms": [],
  "provider_games": [
    {
      "name": "Labyrinth of Lust",
      "slug": "labyrinth-of-lust",
      "service": "igdb"
    }
  ],
  "aliases": [],
  "shaders": [],
  "discord_id": "",
  "change_for": null
}