{
  "id": 281096,
  "name": "Armed Forces of Ukraine",
  "slug": "armed-forces-of-ukraine",
  "year": null,
  "banner_url": "",
  "icon_url": "",
  "coverart": "https://lutris.net/media/igdb/cover_big/co7zlk.jpg",
  "platforms": [],
  "provider_games": [
    {
      "name": "Armed Forces of Ukraine",
      "slug": "armed-forces-of-ukraine",
      "service": "igdb"
    }
  ],
  "aliases": [],
  "shaders": [],
  "discord_id": "",
  "change_for": null
}