{
  "id": 157811,
  "name": "Uchuu Keibitai SDF",
  "slug": "uchuu-keibitai-sdf",
  "year": 1990,
  "banner_url": "",
  "icon_url": "",
  "coverart": "https://lutris.net/media/igdb/cover_big/vpckeickish7hbaj2an8.jpg",
  "platforms": [
    {
      "name": "Family Computer"
    }
  ],
  "provider_games": [
    {
      "name": "Uchuu Keibitai SDF",
      "slug": "uchuu-keibitai-sdf",
      "service": "igdb"
    }
  ],
  "aliases": [],
  "shaders": [],
  "discord_id": "",
  "change_for": null
}