{
  "id": 20733,
  "name": "Burnin' Rubber 5 HD",
  "slug": "burnin-rubber-5-hd",
  "year": 2018,
  "banner_url": "https://lutris.net/games/banner/burnin-rubber-5-hd.jpg",
  "icon_url": "https://lutris.net/games/icon/burnin-rubber-5-hd.png",
  "coverart": "https://lutris.net/media/igdb/cover_big/co25sj.jpg",
  "platforms": [
    {
      "name": "Windows"
    }
  ],
  "provider_games": [
    {
      "name": "Burnin' Rubber 5 HD",
      "slug": "420660",
      "service": "steam"
    },
    {
      "name": "Burnin' Rubber 5 HD",
      "slug": "burnin-rubber-5-hd",
      "service": "igdb"
    }
  ],
  "aliases": [],
  "shaders": [],
  "discord_id": "",
  "change_for": null
}