{
  "id": 265901,
  "name": "Vardia",
  "slug": "vardia",
  "year": null,
  "banner_url": "",
  "icon_url": "",
  "coverart": "https://lutris.net/media/igdb/cover_big/co7c9c.jpg",
  "platforms": [],
  "provider_games": [
    {
      "name": "Vardia",
      "slug": "vardia",
      "service": "igdb"
    }
  ],
  "aliases": [],
  "shaders": [],
  "discord_id": "",
  "change_for": null
}