{
  "id": 38564,
  "name": "COMBAT ARMS: THE CLASSIC",
  "slug": "combat-arms-the-classic",
  "year": 2020,
  "banner_url": "https://lutris.net/games/banner/combat-arms-the-classic.jpg",
  "icon_url": "https://lutris.net/games/icon/combat-arms-the-classic.png",
  "coverart": "https://lutris.net/media/igdb/cover_big/co2cvh.jpg",
  "platforms": [
    {
      "name": "Windows"
    }
  ],
  "provider_games": [
    {
      "name": "COMBAT ARMS: THE CLASSIC",
      "slug": "1263550",
      "service": "steam"
    },
    {
      "name": "Combat Arms: the Classic",
      "slug": "combat-arms-the-classic",
      "service": "igdb"
    }
  ],
  "aliases": [],
  "shaders": [],
  "discord_id": "",
  "change_for": null
}