{
  "id": 24841,
  "game_id": 40462,
  "game_slug": "poke-universe-online",
  "name": "Poke Universe Online",
  "year": 2020,
  "user": "Impius",
  "runner": "wine",
  "slug": "poke-universe-online-3-winetricks-impleme",
  "version": "3 winetricks implemented",
  "description": null,
  "notes": "",
  "credits": "",
  "created_at": "2020-12-02T02:18:05.489782Z",
  "updated_at": "2023-06-13T01:36:18.005001Z",
  "draft": false,
  "published": true,
  "published_by": 1,
  "rating": "",
  "is_playable": null,
  "steamid": null,
  "gogid": null,
  "gogslug": "",
  "humbleid": "",
  "humblestoreid": "",
  "humblestoreid_real": "",
  "script": {
    "files": [
      {
        "app": "https://storage.googleapis.com/puo_files/Launcher.exe"
      }
    ],
    "game": {
      "arch": "win64",
      "exe": "Launcher.exe",
      "prefix": "$GAMEDIR"
    },
    "installer": [
      {
        "move": {
          "dst": "$GAMEDIR",
          "src": "app"
        }
      },
      {
        "task": {
          "arch": "win64",
          "name": "create_prefix",
          "prefix": "$GAMEDIR"
        }
      },
      {
        "task": {
          "arch": "win64",
          "key": "ShowDotFiles",
          "name": "set_regedit",
          "path": "HKEY_CURRENT_USER\\Software\\Wine",
          "prefix": "$GAMEDIR",
          "value": "Y"
        }
      },
      {
        "task": {
          "app": "vcrun2019",
          "arch": "win64",
          "description": "Installing something important can take a while...",
          "name": "winetricks",
          "prefix": "$GAMEDIR"
        }
      },
      {
        "task": {
          "app": "d3dcompiler_47",
          "arch": "win64",
          "description": "Installing something important can take a while...",
          "name": "winetricks",
          "prefix": "$GAMEDIR"
        }
      },
      {
        "task": {
          "arch": "win64",
          "executable": "app",
          "name": "wineexec",
          "prefix": "$GAMEDIR"
        }
      },
      {
        "task": {
          "name": "winekill",
          "prefix": "$GAMEDIR"
        }
      }
    ]
  },
  "content": "files:\n- app: https://storage.googleapis.com/puo_files/Launcher.exe\ngame:\n  arch: win64\n  exe: Launcher.exe\n  prefix: $GAMEDIR\ninstaller:\n- move:\n    dst: $GAMEDIR\n    src: app\n- task:\n    arch: win64\n    name: create_prefix\n    prefix: $GAMEDIR\n- task:\n    arch: win64\n    key: ShowDotFiles\n    name: set_regedit\n    path: HKEY_CURRENT_USER\\Software\\Wine\n    prefix: $GAMEDIR\n    value: Y\n- task:\n    app: vcrun2019\n    arch: win64\n    description: Installing something important can take a while...\n    name: winetricks\n    prefix: $GAMEDIR\n- task:\n    app: d3dcompiler_47\n    arch: win64\n    description: Installing something important can take a while...\n    name: winetricks\n    prefix: $GAMEDIR\n- task:\n    arch: win64\n    executable: app\n    name: wineexec\n    prefix: $GAMEDIR\n- task:\n    name: winekill\n    prefix: $GAMEDIR\n",
  "discord_id": ""
}