{
  "id": 201732,
  "name": "Monica the Story of Far Worlds",
  "slug": "monica-the-story-of-far-worlds",
  "year": null,
  "banner_url": "",
  "icon_url": "",
  "coverart": "https://lutris.net/media/igdb/cover_big/co4o4r.jpg",
  "platforms": [],
  "provider_games": [
    {
      "name": "Monica the Story of Far Worlds",
      "slug": "monica-the-story-of-far-worlds",
      "service": "igdb"
    }
  ],
  "aliases": [],
  "shaders": [],
  "discord_id": "",
  "change_for": null
}