{
  "id": 193817,
  "name": "Clash of Glory",
  "slug": "clash-of-glory",
  "year": null,
  "banner_url": "",
  "icon_url": "",
  "coverart": null,
  "platforms": [],
  "provider_games": [
    {
      "name": "Clash of Glory",
      "slug": "clash-of-glory",
      "service": "igdb"
    }
  ],
  "aliases": [],
  "shaders": [],
  "discord_id": "",
  "change_for": null
}