{
  "id": 293830,
  "name": "High School Story: Class Act - Book 1",
  "slug": "high-school-story-class-act-book-1",
  "year": 2018,
  "banner_url": "",
  "icon_url": "",
  "coverart": "https://lutris.net/media/igdb/cover_big/co8ol2.jpg",
  "platforms": [
    {
      "name": "Android"
    }
  ],
  "provider_games": [
    {
      "name": "High School Story: Class Act - Book 1",
      "slug": "high-school-story-class-act-book-1",
      "service": "igdb"
    }
  ],
  "aliases": [],
  "shaders": [],
  "discord_id": "",
  "change_for": null
}