{
  "id": 164209,
  "name": "NHL 2K",
  "slug": "nhl-2k",
  "year": 2000,
  "banner_url": "",
  "icon_url": "",
  "coverart": "https://lutris.net/media/igdb/cover_big/co4163.jpg",
  "platforms": [
    {
      "name": "Dreamcast"
    }
  ],
  "provider_games": [
    {
      "name": "NHL 2K",
      "slug": "nhl-2k",
      "service": "igdb"
    }
  ],
  "aliases": [],
  "shaders": [],
  "discord_id": "",
  "change_for": null
}