{
  "id": 146938,
  "name": "Minigun vs. Swarms of the Zombie Apocalypse Simulator",
  "slug": "minigun-vs-swarms-of-the-zombie-apocalypse-simulator",
  "year": null,
  "banner_url": "",
  "icon_url": "",
  "coverart": "https://lutris.net/media/igdb/cover_big/co3uh4.jpg",
  "platforms": [],
  "provider_games": [
    {
      "name": "Minigun vs. Swarms of the Zombie Apocalypse Simulator",
      "slug": "minigun-vs-swarms-of-the-zombie-apocalypse-simulator",
      "service": "igdb"
    }
  ],
  "aliases": [],
  "shaders": [],
  "discord_id": "",
  "change_for": null
}