{
  "id": 188781,
  "name": "Grief: How to say goodbye",
  "slug": "grief-how-to-say-goodbye",
  "year": null,
  "banner_url": "",
  "icon_url": "",
  "coverart": null,
  "platforms": [],
  "provider_games": [
    {
      "name": "Grief: How to say goodbye",
      "slug": "grief-how-to-say-goodbye",
      "service": "igdb"
    }
  ],
  "aliases": [],
  "shaders": [],
  "discord_id": "",
  "change_for": null
}