{
  "id": 647,
  "name": "Papo & Yo",
  "slug": "papo-yo",
  "year": 2012,
  "banner_url": "https://lutris.net/games/banner/papo-yo.jpg",
  "icon_url": "https://lutris.net/games/icon/papo-yo.png",
  "coverart": "https://lutris.net/media/igdb/cover_big/co1nc0.jpg",
  "platforms": [
    {
      "name": "Linux"
    },
    {
      "name": "Mac"
    },
    {
      "name": "Sony Playstation 3"
    },
    {
      "name": "Windows"
    }
  ],
  "provider_games": [
    {
      "name": "Papo & Yo",
      "slug": "papoandyo",
      "service": "humblebundle"
    },
    {
      "name": "Papo & Yo",
      "slug": "227080",
      "service": "steam"
    },
    {
      "name": "Papo & Yo",
      "slug": "papo-yo",
      "service": "igdb"
    }
  ],
  "aliases": [],
  "shaders": [],
  "discord_id": "",
  "change_for": null
}