{
  "id": 286438,
  "name": "A Fistful of Yankees",
  "slug": "a-fistful-of-yankees",
  "year": null,
  "banner_url": "",
  "icon_url": "",
  "coverart": "https://lutris.net/media/igdb/cover_big/co883m.jpg",
  "platforms": [],
  "provider_games": [
    {
      "name": "A Fistful of Yankees",
      "slug": "a-fistful-of-yankees",
      "service": "igdb"
    }
  ],
  "aliases": [],
  "shaders": [],
  "discord_id": "",
  "change_for": null
}