{
  "id": 11672,
  "name": "Cube Master: Light Adventure",
  "slug": "cube-master-light-adventure",
  "year": null,
  "banner_url": "https://lutris.net/games/banner/cube-master-light-adventure.jpg",
  "icon_url": "https://lutris.net/games/icon/cube-master-light-adventure.png",
  "coverart": null,
  "platforms": [],
  "provider_games": [],
  "aliases": [],
  "shaders": [],
  "discord_id": "",
  "change_for": null
}