{
  "id": 47360,
  "name": "Legendary Wars: T-Rex Rumble",
  "slug": "legendary-wars-t-rex-rumble",
  "year": 2010,
  "banner_url": "",
  "icon_url": "",
  "coverart": "https://lutris.net/media/igdb/cover_big/gznkow1n03rnsxwkqwka.jpg",
  "platforms": [
    {
      "name": "Nintendo DSi"
    }
  ],
  "provider_games": [
    {
      "name": "Legendary Wars: T-Rex Rumble",
      "slug": "legendary-wars-t-rex-rumble",
      "service": "igdb"
    }
  ],
  "aliases": [],
  "shaders": [],
  "discord_id": "",
  "change_for": null
}