{
  "id": 6733,
  "name": "Shelter 2 Soundtrack",
  "slug": "shelter-2-soundtrack",
  "year": null,
  "banner_url": "https://lutris.net/games/banner/shelter-2-soundtrack.jpg",
  "icon_url": "https://lutris.net/games/icon/shelter-2-soundtrack.png",
  "coverart": null,
  "platforms": [],
  "provider_games": [
    {
      "name": "Shelter 2 Soundtrack",
      "slug": "349740",
      "service": "steam"
    }
  ],
  "aliases": [],
  "shaders": [],
  "discord_id": "",
  "change_for": null
}