{
  "id": 300678,
  "name": "The Fox Hare Disaster: Chapter One",
  "slug": "the-fox-hare-disaster-chapter-one",
  "year": 2024,
  "banner_url": "",
  "icon_url": "",
  "coverart": "https://lutris.net/media/igdb/cover_big/co912w.jpg",
  "platforms": [
    {
      "name": "Windows"
    }
  ],
  "provider_games": [
    {
      "name": "The Fox Hare Disaster: Chapter One",
      "slug": "the-fox-hare-disaster-chapter-one",
      "service": "igdb"
    }
  ],
  "aliases": [],
  "shaders": [],
  "discord_id": "",
  "change_for": null
}