{
  "id": 40476,
  "name": "Island Simulator 2016",
  "slug": "island-simulator-2016",
  "year": 2016,
  "banner_url": "https://lutris.net/games/banner/island-simulator-2016.jpg",
  "icon_url": "https://lutris.net/games/icon/island-simulator-2016.png",
  "coverart": null,
  "platforms": [
    {
      "name": "Windows"
    }
  ],
  "provider_games": [
    {
      "name": "Island Simulator 2016",
      "slug": "507440",
      "service": "steam"
    },
    {
      "name": "Island Simulator 2016",
      "slug": "island-simulator-2016",
      "service": "igdb"
    }
  ],
  "aliases": [],
  "shaders": [],
  "discord_id": "",
  "change_for": null
}