{
  "id": 156222,
  "name": "Snowboarding: The Fourth Phase",
  "slug": "snowboarding-the-fourth-phase",
  "year": null,
  "banner_url": "",
  "icon_url": "",
  "coverart": null,
  "platforms": [],
  "provider_games": [
    {
      "name": "Snowboarding: The Fourth Phase",
      "slug": "snowboarding-the-fourth-phase",
      "service": "igdb"
    }
  ],
  "aliases": [],
  "shaders": [],
  "discord_id": "",
  "change_for": null
}