{
  "id": 58738,
  "name": "Kanojo no Seiiki",
  "slug": "kanojo-no-seiiki",
  "year": null,
  "banner_url": "",
  "icon_url": "",
  "coverart": "https://lutris.net/media/igdb/cover_big/co5bgw.jpg",
  "platforms": [],
  "provider_games": [
    {
      "name": "Kanojo no Seiiki",
      "slug": "kanojo-no-seiiki",
      "service": "igdb"
    }
  ],
  "aliases": [],
  "shaders": [],
  "discord_id": "",
  "change_for": null
}