{
  "id": 48875,
  "name": "Super Casino Special",
  "slug": "super-casino-special",
  "year": null,
  "banner_url": "",
  "icon_url": "",
  "coverart": "https://lutris.net/media/igdb/cover_big/ctn78ym22rhmqnua4nj3.jpg",
  "platforms": [],
  "provider_games": [
    {
      "name": "Super Casino Special",
      "slug": "super-casino-special",
      "service": "igdb"
    }
  ],
  "aliases": [],
  "shaders": [],
  "discord_id": "",
  "change_for": null
}