{
  "id": 3474,
  "name": "Stargunner",
  "slug": "stargunner",
  "year": 1996,
  "banner_url": "https://lutris.net/games/banner/stargunner.jpg",
  "icon_url": "https://lutris.net/games/icon/stargunner.png",
  "coverart": "https://lutris.net/media/igdb/cover_big/co1rjy.jpg",
  "platforms": [
    {
      "name": "MS-DOS"
    }
  ],
  "provider_games": [
    {
      "name": "Stargunner",
      "slug": "1207659693",
      "service": "gog"
    },
    {
      "name": "Stargunner",
      "slug": "358390",
      "service": "steam"
    },
    {
      "name": "Stargunner",
      "slug": "stargunner",
      "service": "igdb"
    }
  ],
  "aliases": [],
  "shaders": [],
  "discord_id": "",
  "change_for": null
}