{
  "id": 42595,
  "name": "Runaway Demon Bride",
  "slug": "runaway-demon-bride",
  "year": 2020,
  "banner_url": "https://lutris.net/games/banner/runaway-demon-bride.jpg",
  "icon_url": "https://lutris.net/games/icon/runaway-demon-bride.png",
  "coverart": "https://lutris.net/media/igdb/cover_big/co2e7m.jpg",
  "platforms": [
    {
      "name": "Windows"
    }
  ],
  "provider_games": [
    {
      "name": "Runaway Demon Bride",
      "slug": "1250180",
      "service": "steam"
    },
    {
      "name": "Runaway Demon Bride",
      "slug": "runaway-demon-bride",
      "service": "igdb"
    }
  ],
  "aliases": [],
  "shaders": [],
  "discord_id": "",
  "change_for": null
}