{
  "id": 285248,
  "name": "Heraean Games",
  "slug": "heraean-games",
  "year": null,
  "banner_url": "",
  "icon_url": "",
  "coverart": "https://lutris.net/media/igdb/cover_big/co87ft.jpg",
  "platforms": [],
  "provider_games": [
    {
      "name": "Heraean Games",
      "slug": "heraean-games",
      "service": "igdb"
    }
  ],
  "aliases": [],
  "shaders": [],
  "discord_id": "",
  "change_for": null
}