{
  "id": 69644,
  "name": "Medarot 7 Kabuto/Kuwagata",
  "slug": "medarot-7-kabuto-slash-kuwagata",
  "year": null,
  "banner_url": "",
  "icon_url": "",
  "coverart": "https://lutris.net/media/igdb/cover_big/co4tr0.jpg",
  "platforms": [],
  "provider_games": [
    {
      "name": "Medarot 7 Kabuto/Kuwagata",
      "slug": "medarot-7-kabuto-slash-kuwagata",
      "service": "igdb"
    }
  ],
  "aliases": [],
  "shaders": [],
  "discord_id": "",
  "change_for": null
}