{
  "id": 86008,
  "name": "Tropico 4 Collector's Bundle",
  "slug": "tropico-4-collectors-bundle",
  "year": 2013,
  "banner_url": "",
  "icon_url": "",
  "coverart": null,
  "platforms": [
    {
      "name": "Windows"
    }
  ],
  "provider_games": [
    {
      "name": "Tropico 4 Collector's Bundle",
      "slug": "tropico-4-collectors-bundle",
      "service": "igdb"
    }
  ],
  "aliases": [],
  "shaders": [],
  "discord_id": "",
  "change_for": null
}