{
  "id": 240802,
  "name": "Draw and Color: Kawaii - Extended Edition",
  "slug": "draw-and-color-kawaii-extended-edition",
  "year": 2022,
  "banner_url": "",
  "icon_url": "",
  "coverart": "https://lutris.net/media/igdb/cover_big/co617v.jpg",
  "platforms": [
    {
      "name": "Nintendo Switch"
    }
  ],
  "provider_games": [
    {
      "name": "Draw and Color: Kawaii - Extended Edition",
      "slug": "draw-and-color-kawaii-extended-edition",
      "service": "igdb"
    }
  ],
  "aliases": [],
  "shaders": [],
  "discord_id": "",
  "change_for": null
}