{
  "id": 251054,
  "name": "Cloak & Dagger: Shadow Operations",
  "slug": "cloak-and-dagger-shadow-operations",
  "year": 2023,
  "banner_url": "",
  "icon_url": "",
  "coverart": "https://lutris.net/media/igdb/cover_big/co6prk.jpg",
  "platforms": [
    {
      "name": "Windows"
    }
  ],
  "provider_games": [
    {
      "name": "Cloak & Dagger: Shadow Operations",
      "slug": "cloak-and-dagger-shadow-operations",
      "service": "igdb"
    }
  ],
  "aliases": [],
  "shaders": [],
  "discord_id": "",
  "change_for": null
}