{
  "id": 121289,
  "name": "鉄道運転士VR",
  "slug": "tie-dao-yun-zhuan-shi-vr",
  "year": 2017,
  "banner_url": "",
  "icon_url": "",
  "coverart": "https://lutris.net/media/igdb/cover_big/co22nr.jpg",
  "platforms": [
    {
      "name": "Windows"
    }
  ],
  "provider_games": [
    {
      "name": "鉄道運転士VR",
      "slug": "tie-dao-yun-zhuan-shi-vr",
      "service": "igdb"
    }
  ],
  "aliases": [],
  "shaders": [],
  "discord_id": "",
  "change_for": null
}