{
  "id": 77463,
  "name": "La Aventura Original",
  "slug": "la-aventura-original",
  "year": 1989,
  "banner_url": "",
  "icon_url": "",
  "coverart": "https://lutris.net/media/igdb/cover_big/co2g8x.jpg",
  "platforms": [
    {
      "name": "Amiga"
    },
    {
      "name": "Amstrad CPC"
    },
    {
      "name": "Atari ST"
    },
    {
      "name": "MSX"
    }
  ],
  "provider_games": [
    {
      "name": "La Aventura Original",
      "slug": "la-aventura-original",
      "service": "igdb"
    }
  ],
  "aliases": [],
  "shaders": [],
  "discord_id": "",
  "change_for": null
}