{
  "id": 78242,
  "name": "t@g",
  "slug": "t-at-g",
  "year": null,
  "banner_url": "",
  "icon_url": "",
  "coverart": "https://lutris.net/media/igdb/cover_big/pwhgg0wjbdb8zdhgdimg.jpg",
  "platforms": [],
  "provider_games": [
    {
      "name": "t@g",
      "slug": "t-at-g",
      "service": "igdb"
    }
  ],
  "aliases": [],
  "shaders": [],
  "discord_id": "",
  "change_for": null
}