{
  "id": 205590,
  "name": "Zygor",
  "slug": "zygor",
  "year": null,
  "banner_url": "https://lutris.net/games/banner/zygor.jpg",
  "icon_url": "",
  "coverart": null,
  "platforms": [
    {
      "name": "macOS"
    },
    {
      "name": "Windows"
    }
  ],
  "provider_games": [],
  "aliases": [],
  "shaders": [],
  "discord_id": "",
  "change_for": null
}