{
  "id": 29411,
  "name": "Arkanoid R 2000",
  "slug": "arkanoid-r-2000",
  "year": 1999,
  "banner_url": "https://lutris.net/games/banner/arkanoid-r-2000.jpg",
  "icon_url": "",
  "coverart": "https://lutris.net/media/igdb/cover_big/co6ohe.jpg",
  "platforms": [
    {
      "name": "Sony PlayStation"
    }
  ],
  "provider_games": [
    {
      "name": "Arkanoid R 2000",
      "slug": "arkanoid-r-2000",
      "service": "igdb"
    }
  ],
  "aliases": [],
  "shaders": [],
  "discord_id": "",
  "change_for": null
}