{
  "id": 97485,
  "name": "Bomb The 'Burb",
  "slug": "bomb-the-burb",
  "year": null,
  "banner_url": "",
  "icon_url": "",
  "coverart": null,
  "platforms": [],
  "provider_games": [
    {
      "name": "Bomb the 'Burb",
      "slug": "bomb-the-burb",
      "service": "igdb"
    }
  ],
  "aliases": [],
  "shaders": [],
  "discord_id": "",
  "change_for": null
}