{
  "id": 119381,
  "name": "Bridge to Another World: Burnt Dreams - Collector's Edition",
  "slug": "bridge-to-another-world-burnt-dreams-collectors-edition",
  "year": 2017,
  "banner_url": "",
  "icon_url": "",
  "coverart": "https://lutris.net/media/igdb/cover_big/co2a0l.jpg",
  "platforms": [
    {
      "name": "Windows"
    }
  ],
  "provider_games": [
    {
      "name": "Bridge to Another World: Burnt Dreams - Collector's Edition",
      "slug": "bridge-to-another-world-burnt-dreams-collectors-edition",
      "service": "igdb"
    }
  ],
  "aliases": [],
  "shaders": [],
  "discord_id": "",
  "change_for": null
}