{
  "id": 46126,
  "name": "Police Simulator",
  "slug": "police-simulator",
  "year": null,
  "banner_url": "",
  "icon_url": "",
  "coverart": "https://lutris.net/media/igdb/cover_big/nrgyq2bhqatkv4iwkiaa.jpg",
  "platforms": [],
  "provider_games": [
    {
      "name": "Police Simulator",
      "slug": "police-simulator",
      "service": "igdb"
    }
  ],
  "aliases": [],
  "shaders": [],
  "discord_id": "",
  "change_for": null
}