{
  "id": 174514,
  "name": "Grim Tales: Echo of the Past - Collector's Edition",
  "slug": "grim-tales-echo-of-the-past-collectors-edition",
  "year": 2021,
  "banner_url": "",
  "icon_url": "",
  "coverart": "https://lutris.net/media/igdb/cover_big/co48dr.jpg",
  "platforms": [
    {
      "name": "Windows"
    }
  ],
  "provider_games": [
    {
      "name": "Grim Tales: Echo of the Past - Collector's Edition",
      "slug": "grim-tales-echo-of-the-past-collectors-edition",
      "service": "igdb"
    }
  ],
  "aliases": [],
  "shaders": [],
  "discord_id": "",
  "change_for": null
}