{
  "id": 111750,
  "name": "RPG Shooter: Starwish",
  "slug": "rpg-shooter-starwish",
  "year": null,
  "banner_url": "",
  "icon_url": "",
  "coverart": "https://lutris.net/media/igdb/cover_big/co30pa.jpg",
  "platforms": [],
  "provider_games": [
    {
      "name": "RPG Shooter: Starwish",
      "slug": "rpg-shooter-starwish",
      "service": "igdb"
    }
  ],
  "aliases": [],
  "shaders": [],
  "discord_id": "",
  "change_for": null
}