{
  "id": 144413,
  "name": "B-17 Squadron",
  "slug": "b-17-squadron",
  "year": null,
  "banner_url": "",
  "icon_url": "",
  "coverart": "https://lutris.net/media/igdb/cover_big/co3uux.jpg",
  "platforms": [],
  "provider_games": [
    {
      "name": "B-17 Squadron",
      "slug": "b-17-squadron",
      "service": "igdb"
    }
  ],
  "aliases": [],
  "shaders": [],
  "discord_id": "",
  "change_for": null
}