{
  "id": 19759,
  "name": "War Tech Fighters",
  "slug": "war-tech-fighters",
  "year": 2018,
  "banner_url": "https://lutris.net/games/banner/war-tech-fighters.jpg",
  "icon_url": "https://lutris.net/games/icon/war-tech-fighters.png",
  "coverart": "https://lutris.net/media/igdb/cover_big/co24ap.jpg",
  "platforms": [
    {
      "name": "Nintendo Switch"
    },
    {
      "name": "Sony Playstation 4"
    },
    {
      "name": "Windows"
    },
    {
      "name": "Xbox One"
    }
  ],
  "provider_games": [
    {
      "name": "War Tech Fighters",
      "slug": "630030",
      "service": "steam"
    },
    {
      "name": "War Tech Fighters",
      "slug": "war-tech-fighters",
      "service": "igdb"
    }
  ],
  "aliases": [],
  "shaders": [],
  "discord_id": "",
  "change_for": null
}