{
  "id": 70309,
  "name": "Der Spiel Tipp",
  "slug": "der-spiel-tipp",
  "year": null,
  "banner_url": "",
  "icon_url": "",
  "coverart": null,
  "platforms": [],
  "provider_games": [
    {
      "name": "Der Spiel Tipp",
      "slug": "der-spiel-tipp",
      "service": "igdb"
    }
  ],
  "aliases": [],
  "shaders": [],
  "discord_id": "",
  "change_for": null
}