{
  "id": 6668,
  "name": "Alchemist's Awakening",
  "slug": "alchemists-awakening",
  "year": 2016,
  "banner_url": "https://lutris.net/games/banner/alchemists-awakening.jpg",
  "icon_url": "https://lutris.net/games/icon/alchemists-awakening.png",
  "coverart": "https://lutris.net/media/igdb/cover_big/co3lb5.jpg",
  "platforms": [
    {
      "name": "Linux"
    },
    {
      "name": "Mac"
    },
    {
      "name": "Windows"
    }
  ],
  "provider_games": [
    {
      "name": "Alchemist's Awakening",
      "slug": "431450",
      "service": "steam"
    },
    {
      "name": "Alchemist's Awakening",
      "slug": "alchemists-awakening",
      "service": "igdb"
    }
  ],
  "aliases": [],
  "shaders": [],
  "discord_id": "",
  "change_for": null
}