{
  "id": 59294,
  "name": "Captain Strike",
  "slug": "captain-strike",
  "year": null,
  "banner_url": "",
  "icon_url": "",
  "coverart": "https://lutris.net/media/igdb/cover_big/q2mja3i6pkzy4k3h9v4j.jpg",
  "platforms": [],
  "provider_games": [
    {
      "name": "Captain Strike",
      "slug": "captain-strike",
      "service": "igdb"
    }
  ],
  "aliases": [],
  "shaders": [],
  "discord_id": "",
  "change_for": null
}