{
  "id": 8321,
  "name": "Parallels",
  "slug": "parallels",
  "year": 2015,
  "banner_url": "https://lutris.net/games/banner/parallels.jpg",
  "icon_url": "https://lutris.net/games/icon/parallels.png",
  "coverart": null,
  "platforms": [
    {
      "name": "Mac"
    },
    {
      "name": "Windows"
    }
  ],
  "provider_games": [
    {
      "name": "Parallels",
      "slug": "412370",
      "service": "steam"
    },
    {
      "name": "Parallels",
      "slug": "parallels",
      "service": "igdb"
    }
  ],
  "aliases": [],
  "shaders": [],
  "discord_id": "",
  "change_for": null
}