{
  "id": 166013,
  "name": "Synthalgia",
  "slug": "synthalgia",
  "year": null,
  "banner_url": "",
  "icon_url": "",
  "coverart": "https://lutris.net/media/igdb/cover_big/co42tq.jpg",
  "platforms": [],
  "provider_games": [
    {
      "name": "Synthalgia",
      "slug": "synthalgia",
      "service": "igdb"
    }
  ],
  "aliases": [],
  "shaders": [],
  "discord_id": "",
  "change_for": null
}