{
  "id": 6112,
  "game_id": 5088,
  "game_slug": "monster-bash",
  "name": "Monster Bash",
  "year": 1993,
  "user": "FakeShemp",
  "runner": "dosbox",
  "slug": "monster-bash-gog",
  "version": "GOG",
  "description": "Uses the files from the Linux installer from GOG.",
  "notes": "",
  "credits": "",
  "created_at": "2017-10-25T17:02:26.277420Z",
  "updated_at": "2024-04-03T05:26:09.362620Z",
  "draft": false,
  "published": true,
  "published_by": null,
  "rating": "",
  "is_playable": null,
  "steamid": 358210,
  "gogid": 1207665014,
  "gogslug": "monster_bash",
  "humbleid": "",
  "humblestoreid": "",
  "humblestoreid_real": "",
  "script": {
    "files": [
      {
        "file1": "N/A:Please select the GOG installer"
      }
    ],
    "game": {
      "config_file": "$GAMEDIR/dosbox_mbash.conf",
      "main_file": "dosbox_mbash_single.conf"
    },
    "installer": [
      {
        "extract": {
          "dst": "$CACHE",
          "file": "$file1",
          "format": "zip"
        }
      },
      {
        "merge": {
          "dst": "$GAMEDIR",
          "src": "$CACHE/data/noarch"
        }
      },
      {
        "write_config": {
          "file": "$GAMEDIR/dosbox_mbash.conf",
          "key": "aspect",
          "section": "render",
          "value": true
        }
      },
      {
        "write_config": {
          "file": "$GAMEDIR/dosbox_mbash.conf",
          "key": "fullscreen",
          "section": "sdl",
          "value": false
        }
      }
    ]
  },
  "content": "files:\n- file1: N/A:Please select the GOG installer\ngame:\n  config_file: $GAMEDIR/dosbox_mbash.conf\n  main_file: dosbox_mbash_single.conf\ninstaller:\n- extract:\n    dst: $CACHE\n    file: $file1\n    format: zip\n- merge:\n    dst: $GAMEDIR\n    src: $CACHE/data/noarch\n- write_config:\n    file: $GAMEDIR/dosbox_mbash.conf\n    key: aspect\n    section: render\n    value: true\n- write_config:\n    file: $GAMEDIR/dosbox_mbash.conf\n    key: fullscreen\n    section: sdl\n    value: false\n",
  "discord_id": ""
}