{
  "id": 124812,
  "name": "Final_SIM",
  "slug": "final-sim",
  "year": null,
  "banner_url": "",
  "icon_url": "",
  "coverart": "https://lutris.net/media/igdb/cover_big/co9110.jpg",
  "platforms": [],
  "provider_games": [
    {
      "name": "Final Sim",
      "slug": "final-sim",
      "service": "igdb"
    }
  ],
  "aliases": [],
  "shaders": [],
  "discord_id": "",
  "change_for": null
}