{
  "id": 102973,
  "name": "Get 'em Gary",
  "slug": "get-em-gary",
  "year": 2017,
  "banner_url": "",
  "icon_url": "",
  "coverart": "https://lutris.net/media/igdb/cover_big/co2ndf.jpg",
  "platforms": [
    {
      "name": "NES"
    },
    {
      "name": "Windows"
    }
  ],
  "provider_games": [
    {
      "name": "Get 'em Gary",
      "slug": "get-em-gary",
      "service": "igdb"
    }
  ],
  "aliases": [],
  "shaders": [],
  "discord_id": "",
  "change_for": null
}