{
  "id": 93914,
  "name": "Night City Tokyo Drift: Clumsy Ninja Chasing Cars",
  "slug": "night-city-tokyo-drift-clumsy-ninja-chasing-cars",
  "year": null,
  "banner_url": "",
  "icon_url": "",
  "coverart": null,
  "platforms": [],
  "provider_games": [
    {
      "name": "Night City Tokyo Drift: Clumsy Ninja Chasing Cars",
      "slug": "night-city-tokyo-drift-clumsy-ninja-chasing-cars",
      "service": "igdb"
    }
  ],
  "aliases": [],
  "shaders": [],
  "discord_id": "",
  "change_for": null
}