{
  "id": 311,
  "name": "Company of Heroes",
  "slug": "company-of-heroes",
  "year": 2006,
  "banner_url": "https://lutris.net/games/banner/company-of-heroes.jpg",
  "icon_url": "https://lutris.net/games/icon/company-of-heroes.png",
  "coverart": "https://lutris.net/media/igdb/cover_big/co2ht7.jpg",
  "platforms": [
    {
      "name": "Windows"
    }
  ],
  "provider_games": [
    {
      "name": "Company of Heroes ",
      "slug": "228200",
      "service": "steam"
    },
    {
      "name": "Company of Heroes",
      "slug": "company-of-heroes",
      "service": "igdb"
    }
  ],
  "aliases": [],
  "shaders": [],
  "discord_id": "496557687560077322",
  "change_for": null
}