{
  "id": 254417,
  "name": "Monday Meltdown",
  "slug": "monday-meltdown",
  "year": null,
  "banner_url": "",
  "icon_url": "",
  "coverart": "https://lutris.net/media/igdb/cover_big/co6w7p.jpg",
  "platforms": [],
  "provider_games": [
    {
      "name": "Monday Meltdown",
      "slug": "monday-meltdown",
      "service": "igdb"
    }
  ],
  "aliases": [],
  "shaders": [],
  "discord_id": "",
  "change_for": null
}