{
  "id": 270838,
  "name": "Where is Johnny",
  "slug": "where-is-johnny",
  "year": null,
  "banner_url": "",
  "icon_url": "",
  "coverart": "https://lutris.net/media/igdb/cover_big/co7lq4.jpg",
  "platforms": [],
  "provider_games": [
    {
      "name": "Where is Johnny",
      "slug": "where-is-johnny",
      "service": "igdb"
    }
  ],
  "aliases": [],
  "shaders": [],
  "discord_id": "",
  "change_for": null
}