{
  "id": 5180,
  "name": "XEvil",
  "slug": "xevil",
  "year": null,
  "banner_url": "https://lutris.net/games/banner/xevil.jpg",
  "icon_url": "",
  "coverart": null,
  "platforms": [
    {
      "name": "Linux"
    }
  ],
  "provider_games": [],
  "aliases": [],
  "shaders": [],
  "discord_id": "",
  "change_for": null
}