{
  "id": 211962,
  "name": "Droid Death VR",
  "slug": "droid-death-vr",
  "year": null,
  "banner_url": "",
  "icon_url": "",
  "coverart": "https://lutris.net/media/igdb/cover_big/co5f2y.jpg",
  "platforms": [],
  "provider_games": [
    {
      "name": "Droid Death VR",
      "slug": "droid-death-vr",
      "service": "igdb"
    }
  ],
  "aliases": [],
  "shaders": [],
  "discord_id": "",
  "change_for": null
}