{
  "id": 102895,
  "name": "Polar Golfer: Pineapple Cup",
  "slug": "polar-golfer-pineapple-cup",
  "year": 2005,
  "banner_url": "",
  "icon_url": "",
  "coverart": "https://lutris.net/media/igdb/cover_big/co2nbe.jpg",
  "platforms": [
    {
      "name": "Windows"
    }
  ],
  "provider_games": [
    {
      "name": "Polar Golfer: Pineapple Cup",
      "slug": "polar-golfer-pineapple-cup",
      "service": "igdb"
    }
  ],
  "aliases": [],
  "shaders": [],
  "discord_id": "",
  "change_for": null
}