{
  "id": 288080,
  "name": "Ranger Force",
  "slug": "ranger-force",
  "year": null,
  "banner_url": "",
  "icon_url": "",
  "coverart": "https://lutris.net/media/igdb/cover_big/co8axr.jpg",
  "platforms": [],
  "provider_games": [
    {
      "name": "Ranger Force",
      "slug": "ranger-force",
      "service": "igdb"
    }
  ],
  "aliases": [],
  "shaders": [],
  "discord_id": "",
  "change_for": null
}