{
  "id": 84850,
  "name": "Girl's Club",
  "slug": "girls-club",
  "year": 1992,
  "banner_url": "",
  "icon_url": "",
  "coverart": "https://lutris.net/media/igdb/cover_big/co5acp.jpg",
  "platforms": [
    {
      "name": "Philips CD-i"
    }
  ],
  "provider_games": [
    {
      "name": "Girl's Club",
      "slug": "girls-club",
      "service": "igdb"
    }
  ],
  "aliases": [],
  "shaders": [],
  "discord_id": "",
  "change_for": null
}