{
  "id": 97251,
  "name": "孤岛(Isolated Island)",
  "slug": "gu-dao-isolated-island",
  "year": null,
  "banner_url": "",
  "icon_url": "",
  "coverart": null,
  "platforms": [],
  "provider_games": [
    {
      "name": "孤岛(Isolated Island)",
      "slug": "gu-dao-isolated-island",
      "service": "igdb"
    }
  ],
  "aliases": [],
  "shaders": [],
  "discord_id": "",
  "change_for": null
}