{
  "id": 168642,
  "name": "Lab BreakOut",
  "slug": "lab-breakout",
  "year": null,
  "banner_url": "",
  "icon_url": "",
  "coverart": "https://lutris.net/media/igdb/cover_big/co453s.jpg",
  "platforms": [],
  "provider_games": [
    {
      "name": "Lab BreakOut",
      "slug": "lab-breakout",
      "service": "igdb"
    }
  ],
  "aliases": [],
  "shaders": [],
  "discord_id": "",
  "change_for": null
}