{
  "id": 284971,
  "name": "YuckFu!",
  "slug": "yuckfu--1",
  "year": 2004,
  "banner_url": "",
  "icon_url": "",
  "coverart": "https://lutris.net/media/igdb/cover_big/co87i8.jpg",
  "platforms": [
    {
      "name": "Nintendo Game Boy Advance"
    },
    {
      "name": "Windows"
    }
  ],
  "provider_games": [
    {
      "name": "YuckFu!",
      "slug": "yuckfu--1",
      "service": "igdb"
    }
  ],
  "aliases": [],
  "shaders": [],
  "discord_id": "",
  "change_for": null
}