{
  "id": 199017,
  "name": "Hologram",
  "slug": "hologram",
  "year": null,
  "banner_url": "",
  "icon_url": "",
  "coverart": "https://lutris.net/media/igdb/cover_big/co4g9q.jpg",
  "platforms": [],
  "provider_games": [
    {
      "name": "Hologram",
      "slug": "hologram",
      "service": "igdb"
    }
  ],
  "aliases": [],
  "shaders": [],
  "discord_id": "",
  "change_for": null
}