{
  "id": 293569,
  "name": "Ember Lord",
  "slug": "ember-lord",
  "year": null,
  "banner_url": "",
  "icon_url": "",
  "coverart": "https://lutris.net/media/igdb/cover_big/co8nhn.jpg",
  "platforms": [],
  "provider_games": [
    {
      "name": "Ember Lord",
      "slug": "ember-lord",
      "service": "igdb"
    }
  ],
  "aliases": [],
  "shaders": [],
  "discord_id": "",
  "change_for": null
}