{
  "id": 262771,
  "name": "Runes",
  "slug": "runes--1",
  "year": null,
  "banner_url": "",
  "icon_url": "",
  "coverart": "https://lutris.net/media/igdb/cover_big/co77h5.jpg",
  "platforms": [],
  "provider_games": [
    {
      "name": "Runes",
      "slug": "runes--1",
      "service": "igdb"
    }
  ],
  "aliases": [],
  "shaders": [],
  "discord_id": "",
  "change_for": null
}