{
  "id": 148302,
  "name": "Cub Gym",
  "slug": "cub-gym",
  "year": null,
  "banner_url": "",
  "icon_url": "",
  "coverart": "https://lutris.net/media/igdb/cover_big/co3nxp.jpg",
  "platforms": [],
  "provider_games": [
    {
      "name": "Cub Gym",
      "slug": "cub-gym",
      "service": "igdb"
    }
  ],
  "aliases": [],
  "shaders": [],
  "discord_id": "",
  "change_for": null
}