{
  "id": 35373,
  "name": "Mahjong Panic Stadium",
  "slug": "mahjong-panic-stadium",
  "year": 1990,
  "banner_url": "",
  "icon_url": "https://lutris.net/games/icon/mahjong-panic-stadium.png",
  "coverart": null,
  "platforms": [
    {
      "name": "Arcade"
    }
  ],
  "provider_games": [
    {
      "name": "Mahjong Panic Stadium",
      "slug": "pstadium",
      "service": "mame"
    }
  ],
  "aliases": [],
  "shaders": [],
  "discord_id": "",
  "change_for": null
}