{
  "id": 207092,
  "name": "Faeria: Elements",
  "slug": "faeria-elements",
  "year": null,
  "banner_url": "",
  "icon_url": "",
  "coverart": "https://lutris.net/media/igdb/cover_big/co5td1.jpg",
  "platforms": [],
  "provider_games": [
    {
      "name": "Faeria: Elements",
      "slug": "faeria-elements",
      "service": "igdb"
    }
  ],
  "aliases": [],
  "shaders": [],
  "discord_id": "",
  "change_for": null
}