{
  "id": 131258,
  "name": "MX Unleashed",
  "slug": "mx-unleashed",
  "year": 2004,
  "banner_url": "",
  "icon_url": "",
  "coverart": "https://lutris.net/media/igdb/cover_big/dcpgdrtes21ldtbjzmei.jpg",
  "platforms": [
    {
      "name": "Sony PlayStation 2"
    }
  ],
  "provider_games": [
    {
      "name": "MX Unleashed",
      "slug": "mx-unleashed",
      "service": "igdb"
    }
  ],
  "aliases": [],
  "shaders": [],
  "discord_id": "",
  "change_for": null
}