{
  "id": 115540,
  "name": "3D Space Harrier",
  "slug": "3d-space-harrier",
  "year": 2012,
  "banner_url": "",
  "icon_url": "",
  "coverart": "https://lutris.net/media/igdb/cover_big/l4nkp7zeymvcnpvksts8.jpg",
  "platforms": [
    {
      "name": "Nintendo 3DS"
    }
  ],
  "provider_games": [
    {
      "name": "3D Space Harrier",
      "slug": "3d-space-harrier",
      "service": "igdb"
    }
  ],
  "aliases": [],
  "shaders": [],
  "discord_id": "",
  "change_for": null
}