{
  "id": 94214,
  "name": "Game Studio Tycoon 2: Next Gen Developer",
  "slug": "game-studio-tycoon-2-next-gen-developer",
  "year": null,
  "banner_url": "",
  "icon_url": "",
  "coverart": null,
  "platforms": [],
  "provider_games": [
    {
      "name": "Game Studio Tycoon 2: Next Gen Developer",
      "slug": "game-studio-tycoon-2-next-gen-developer",
      "service": "igdb"
    }
  ],
  "aliases": [],
  "shaders": [],
  "discord_id": "",
  "change_for": null
}