{
  "id": 152656,
  "name": "Keeper",
  "slug": "keeper--1",
  "year": 1994,
  "banner_url": "",
  "icon_url": "",
  "coverart": "https://lutris.net/media/igdb/cover_big/co3uay.jpg",
  "platforms": [
    {
      "name": "Super Famicom"
    }
  ],
  "provider_games": [
    {
      "name": "Keeper",
      "slug": "keeper--1",
      "service": "igdb"
    }
  ],
  "aliases": [],
  "shaders": [],
  "discord_id": "",
  "change_for": null
}