{
  "id": 21583,
  "name": "Everyday Lite",
  "slug": "everyday-lite",
  "year": null,
  "banner_url": "https://lutris.net/games/banner/everyday-lite.jpg",
  "icon_url": "https://lutris.net/games/icon/everyday-lite.png",
  "coverart": null,
  "platforms": [],
  "provider_games": [
    {
      "name": "Everyday Lite",
      "slug": "everyday-lite",
      "service": "igdb"
    }
  ],
  "aliases": [],
  "shaders": [],
  "discord_id": "",
  "change_for": null
}