{
  "id": 278597,
  "name": "Martial Arts School Simulator",
  "slug": "martial-arts-school-simulator",
  "year": null,
  "banner_url": "",
  "icon_url": "",
  "coverart": "https://lutris.net/media/igdb/cover_big/co7y54.jpg",
  "platforms": [],
  "provider_games": [
    {
      "name": "Martial Arts School Simulator",
      "slug": "martial-arts-school-simulator",
      "service": "igdb"
    }
  ],
  "aliases": [],
  "shaders": [],
  "discord_id": "",
  "change_for": null
}