{
  "id": 42058,
  "name": "Professor Why™: Chemistry 1",
  "slug": "professor-whytm-chemistry-1",
  "year": null,
  "banner_url": "https://lutris.net/games/banner/professor-whytm-chemistry-1.jpg",
  "icon_url": "https://lutris.net/games/icon/professor-whytm-chemistry-1.png",
  "coverart": null,
  "platforms": [],
  "provider_games": [
    {
      "name": "Professor Why™: Chemistry 1",
      "slug": "372950",
      "service": "steam"
    }
  ],
  "aliases": [],
  "shaders": [],
  "discord_id": "",
  "change_for": null
}