{
  "id": 294066,
  "name": "Traffic",
  "slug": "traffic--1",
  "year": 1984,
  "banner_url": "",
  "icon_url": "",
  "coverart": "https://lutris.net/media/igdb/cover_big/co8mx3.jpg",
  "platforms": [
    {
      "name": "Amstrad CPC"
    },
    {
      "name": "Commodore C64/128"
    },
    {
      "name": "MSX"
    }
  ],
  "provider_games": [
    {
      "name": "Traffic",
      "slug": "traffic--1",
      "service": "igdb"
    }
  ],
  "aliases": [],
  "shaders": [],
  "discord_id": "",
  "change_for": null
}