{
  "id": 261896,
  "name": "B.C. Dash",
  "slug": "bc-dash",
  "year": null,
  "banner_url": "",
  "icon_url": "",
  "coverart": "https://lutris.net/media/igdb/cover_big/co76vp.jpg",
  "platforms": [],
  "provider_games": [
    {
      "name": "B.C. Dash",
      "slug": "bc-dash",
      "service": "igdb"
    }
  ],
  "aliases": [],
  "shaders": [],
  "discord_id": "",
  "change_for": null
}