{
  "id": 11177,
  "game_id": 23781,
  "game_slug": "yankais-peak",
  "name": "YANKAI'S PEAK.",
  "year": 2017,
  "user": "strider",
  "runner": "steam",
  "slug": "yankais-peak-steam",
  "version": "Steam",
  "description": null,
  "notes": "",
  "credits": "",
  "created_at": "2018-12-12T07:15:56.895043Z",
  "updated_at": "2018-12-12T07:15:56.895074Z",
  "draft": false,
  "published": true,
  "published_by": null,
  "rating": "",
  "is_playable": null,
  "steamid": 654910,
  "gogid": null,
  "gogslug": "",
  "humbleid": "",
  "humblestoreid": "",
  "humblestoreid_real": "",
  "script": {
    "game": {
      "appid": "654910"
    }
  },
  "content": "game:\n  appid: '654910'\n",
  "discord_id": ""
}