{
  "id": 172682,
  "name": "Squeaky Squirrel",
  "slug": "squeaky-squirrel",
  "year": null,
  "banner_url": "",
  "icon_url": "",
  "coverart": null,
  "platforms": [],
  "provider_games": [
    {
      "name": "Squeaky Squirrel",
      "slug": "squeaky-squirrel",
      "service": "igdb"
    }
  ],
  "aliases": [],
  "shaders": [],
  "discord_id": "",
  "change_for": null
}