{
  "id": 103239,
  "name": "House Flip with Chip and Jo",
  "slug": "house-flip-with-chip-and-jo",
  "year": 2017,
  "banner_url": "",
  "icon_url": "",
  "coverart": "https://lutris.net/media/igdb/cover_big/umeo9bsbt4b4x8f6tnf3.jpg",
  "platforms": [],
  "provider_games": [
    {
      "name": "House Flip with Chip and Jo",
      "slug": "house-flip-with-chip-and-jo",
      "service": "igdb"
    }
  ],
  "aliases": [],
  "shaders": [],
  "discord_id": "",
  "change_for": null
}