{
  "id": 263116,
  "name": "Deer Hunt",
  "slug": "deer-hunt",
  "year": null,
  "banner_url": "",
  "icon_url": "",
  "coverart": "https://lutris.net/media/igdb/cover_big/co77l8.jpg",
  "platforms": [],
  "provider_games": [
    {
      "name": "Deer Hunt",
      "slug": "deer-hunt",
      "service": "igdb"
    }
  ],
  "aliases": [],
  "shaders": [],
  "discord_id": "",
  "change_for": null
}