{
  "id": 249899,
  "name": "S.N.I.P.E.R.: Hunter Scope - Gold Edition",
  "slug": "s-dot-n-i-dot-p-e-dot-r-hunter-scope-gold-edition",
  "year": 2023,
  "banner_url": "",
  "icon_url": "",
  "coverart": "https://lutris.net/media/igdb/cover_big/co6sh7.jpg",
  "platforms": [
    {
      "name": "Nintendo Switch"
    }
  ],
  "provider_games": [
    {
      "name": "S.N.I.P.E.R.: Hunter Scope - Gold Edition",
      "slug": "s-dot-n-i-dot-p-e-dot-r-hunter-scope-gold-edition",
      "service": "igdb"
    }
  ],
  "aliases": [],
  "shaders": [],
  "discord_id": "",
  "change_for": null
}