{
  "id": 5465,
  "name": "Back to Dinosaur Island ",
  "slug": "back-to-dinosaur-island",
  "year": 2015,
  "banner_url": "https://lutris.net/games/banner/back-to-dinosaur-island.jpg",
  "icon_url": "https://lutris.net/games/icon/back-to-dinosaur-island.png",
  "coverart": "https://lutris.net/media/igdb/cover_big/co2zp7.jpg",
  "platforms": [
    {
      "name": "Oculus VR"
    },
    {
      "name": "Windows"
    }
  ],
  "provider_games": [
    {
      "name": "Back to Dinosaur Island ",
      "slug": "412940",
      "service": "steam"
    },
    {
      "name": "Back to Dinosaur Island",
      "slug": "back-to-dinosaur-island",
      "service": "igdb"
    }
  ],
  "aliases": [],
  "shaders": [],
  "discord_id": "",
  "change_for": null
}