{
  "id": 303963,
  "name": "Black Armor: Battle Of Survivors",
  "slug": "black-armor-battle-of-survivors",
  "year": null,
  "banner_url": "",
  "icon_url": "",
  "coverart": "https://lutris.net/media/igdb/cover_big/co972i.jpg",
  "platforms": [
    {
      "name": "Windows"
    }
  ],
  "provider_games": [
    {
      "name": "Black Armor: Battle Of Survivors",
      "slug": "black-armor-battle-of-survivors",
      "service": "igdb"
    }
  ],
  "aliases": [],
  "shaders": [],
  "discord_id": "",
  "change_for": null
}