{
  "id": 46886,
  "name": "Buster",
  "slug": "buster",
  "year": null,
  "banner_url": "",
  "icon_url": "",
  "coverart": "https://lutris.net/media/igdb/cover_big/ukwzv9tsdp6c4kqugvfx.jpg",
  "platforms": [],
  "provider_games": [
    {
      "name": "Buster",
      "slug": "buster",
      "service": "igdb"
    }
  ],
  "aliases": [],
  "shaders": [],
  "discord_id": "",
  "change_for": null
}