{
  "id": 293668,
  "name": "Hentai Akari",
  "slug": "hentai-akari",
  "year": null,
  "banner_url": "",
  "icon_url": "",
  "coverart": "https://lutris.net/media/igdb/cover_big/co8n2z.jpg",
  "platforms": [],
  "provider_games": [
    {
      "name": "Hentai Akari",
      "slug": "hentai-akari",
      "service": "igdb"
    }
  ],
  "aliases": [],
  "shaders": [],
  "discord_id": "",
  "change_for": null
}