{
  "id": 3833,
  "game_id": 253,
  "game_slug": "trine-2-complete-story",
  "name": "Trine 2: Complete Story",
  "year": 2011,
  "user": "FakeShemp",
  "runner": "linux",
  "slug": "trine-2-complete-story-humble",
  "version": "Humble",
  "description": null,
  "notes": "",
  "credits": "",
  "created_at": "2017-05-24T11:34:42.504000Z",
  "updated_at": "2020-12-23T21:20:14.813152Z",
  "draft": false,
  "published": true,
  "published_by": 1,
  "rating": "",
  "is_playable": null,
  "steamid": 35720,
  "gogid": 1207660353,
  "gogslug": "trine_ultimate_collection",
  "humbleid": "trine2complete_bundle",
  "humblestoreid": "trine2complete_bundle",
  "humblestoreid_real": "trine2complete_bundle",
  "script": {
    "files": [
      {
        "humblegame": "N/A"
      }
    ],
    "game": {
      "exe": "trine2.sh"
    },
    "installer": [
      {
        "extract": {
          "file": "humblegame"
        }
      },
      {
        "chmodx": "$GAMEDIR/trine2.sh"
      },
      {
        "chmodx": "$GAMEDIR/bin/trine2_bin_starter.sh"
      },
      {
        "chmodx": "$GAMEDIR/bin/trine2_linux_32bit"
      },
      {
        "chmodx": "$GAMEDIR/bin/trine2_linux_launcher_32bit"
      }
    ]
  },
  "content": "files:\n- humblegame: N/A\ngame:\n  exe: trine2.sh\ninstaller:\n- extract:\n    file: humblegame\n- chmodx: $GAMEDIR/trine2.sh\n- chmodx: $GAMEDIR/bin/trine2_bin_starter.sh\n- chmodx: $GAMEDIR/bin/trine2_linux_32bit\n- chmodx: $GAMEDIR/bin/trine2_linux_launcher_32bit\n",
  "discord_id": ""
}