{
  "id": 133852,
  "name": "Arrow Sudoku",
  "slug": "arrow-sudoku",
  "year": 2021,
  "banner_url": "https://lutris.net/games/banner/arrow-sudoku.jpg",
  "icon_url": "",
  "coverart": "https://lutris.net/media/igdb/cover_big/co3lnz.jpg",
  "platforms": [
    {
      "name": "Mac"
    },
    {
      "name": "Windows"
    }
  ],
  "provider_games": [
    {
      "name": "Arrow Sudoku",
      "slug": "arrow-sudoku",
      "service": "igdb"
    },
    {
      "name": "Arrow Sudoku",
      "slug": "1613680",
      "service": "steam"
    }
  ],
  "aliases": [],
  "shaders": [],
  "discord_id": "",
  "change_for": null
}