{
  "id": 104804,
  "name": "Richman 8",
  "slug": "richman-8",
  "year": null,
  "banner_url": "",
  "icon_url": "",
  "coverart": "https://lutris.net/media/igdb/cover_big/co2r57.jpg",
  "platforms": [],
  "provider_games": [
    {
      "name": "Richman 8",
      "slug": "richman-8",
      "service": "igdb"
    }
  ],
  "aliases": [],
  "shaders": [],
  "discord_id": "",
  "change_for": null
}