{
  "id": 107190,
  "name": "Sengoku Musou 2 with Moushouden & Empires HD Version",
  "slug": "sengoku-musou-2-with-moushouden-and-empires-hd-version",
  "year": 2013,
  "banner_url": "",
  "icon_url": "",
  "coverart": "https://lutris.net/media/igdb/cover_big/co2ux3.jpg",
  "platforms": [
    {
      "name": "PlayStation Vita"
    },
    {
      "name": "Sony Playstation 3"
    }
  ],
  "provider_games": [
    {
      "name": "Sengoku Musou 2 with Moushouden & Empires HD Version",
      "slug": "sengoku-musou-2-with-moushouden-and-empires-hd-version",
      "service": "igdb"
    }
  ],
  "aliases": [],
  "shaders": [],
  "discord_id": "",
  "change_for": null
}