{
  "id": 108980,
  "name": "Spy Bot Chronicles",
  "slug": "spy-bot-chronicles",
  "year": 2009,
  "banner_url": "",
  "icon_url": "",
  "coverart": "https://lutris.net/media/igdb/cover_big/ooafytpuax83mf2i6opl.jpg",
  "platforms": [],
  "provider_games": [
    {
      "name": "Spy Bot Chronicles",
      "slug": "spy-bot-chronicles",
      "service": "igdb"
    }
  ],
  "aliases": [],
  "shaders": [],
  "discord_id": "",
  "change_for": null
}