{
  "id": 256999,
  "name": "Jet Up",
  "slug": "jet-up",
  "year": null,
  "banner_url": "",
  "icon_url": "",
  "coverart": "https://lutris.net/media/igdb/cover_big/co7112.jpg",
  "platforms": [],
  "provider_games": [
    {
      "name": "Jet Up",
      "slug": "jet-up",
      "service": "igdb"
    }
  ],
  "aliases": [],
  "shaders": [],
  "discord_id": "",
  "change_for": null
}