{
  "id": 75791,
  "name": "Teletubbies 2: Favorite Games",
  "slug": "teletubbies-2-favorite-games",
  "year": null,
  "banner_url": "",
  "icon_url": "",
  "coverart": null,
  "platforms": [],
  "provider_games": [
    {
      "name": "Teletubbies 2: Favorite Games",
      "slug": "teletubbies-2-favorite-games",
      "service": "igdb"
    }
  ],
  "aliases": [],
  "shaders": [],
  "discord_id": "",
  "change_for": null
}