{
  "id": 175390,
  "name": "Super Wagyan Land",
  "slug": "super-wagyan-land",
  "year": 1991,
  "banner_url": "",
  "icon_url": "",
  "coverart": "https://lutris.net/media/igdb/cover_big/co3bto.jpg",
  "platforms": [
    {
      "name": "Super Famicom"
    }
  ],
  "provider_games": [
    {
      "name": "Super Wagyan Land",
      "slug": "super-wagyan-land",
      "service": "igdb"
    }
  ],
  "aliases": [],
  "shaders": [],
  "discord_id": "",
  "change_for": null
}