{
  "id": 65688,
  "name": "Arnie's America's Cup Challenge",
  "slug": "arnies-americas-cup-challenge",
  "year": null,
  "banner_url": "",
  "icon_url": "",
  "coverart": null,
  "platforms": [],
  "provider_games": [
    {
      "name": "Arnie's America's Cup Challenge",
      "slug": "arnies-americas-cup-challenge",
      "service": "igdb"
    }
  ],
  "aliases": [],
  "shaders": [],
  "discord_id": "",
  "change_for": null
}