{
  "id": 21589,
  "name": "Magic Nations",
  "slug": "magic-nations",
  "year": 2019,
  "banner_url": "https://lutris.net/games/banner/magic-nations.jpg",
  "icon_url": "https://lutris.net/games/icon/magic-nations.png",
  "coverart": "https://lutris.net/media/igdb/cover_big/co2qml.jpg",
  "platforms": [
    {
      "name": "Nintendo Switch"
    }
  ],
  "provider_games": [
    {
      "name": "Magic Nations - Card Game",
      "slug": "773530",
      "service": "steam"
    },
    {
      "name": "Magic Nations",
      "slug": "magic-nations",
      "service": "igdb"
    }
  ],
  "aliases": [],
  "shaders": [],
  "discord_id": "",
  "change_for": null
}