{
  "id": 300899,
  "name": "Compactory",
  "slug": "compactory",
  "year": null,
  "banner_url": "",
  "icon_url": "",
  "coverart": "https://lutris.net/media/igdb/cover_big/co92pf.jpg",
  "platforms": [],
  "provider_games": [
    {
      "name": "Compactory",
      "slug": "compactory",
      "service": "igdb"
    }
  ],
  "aliases": [],
  "shaders": [],
  "discord_id": "",
  "change_for": null
}