{
  "id": 146114,
  "name": "Spawn",
  "slug": "spawn",
  "year": 1999,
  "banner_url": "",
  "icon_url": "",
  "coverart": "https://lutris.net/media/igdb/cover_big/co3wd6.jpg",
  "platforms": [
    {
      "name": "Nintendo Game Boy Color"
    }
  ],
  "provider_games": [
    {
      "name": "Spawn",
      "slug": "spawn",
      "service": "igdb"
    }
  ],
  "aliases": [],
  "shaders": [],
  "discord_id": "",
  "change_for": null
}