{
  "id": 81768,
  "name": "Shado Fighter",
  "slug": "shado-fighter",
  "year": null,
  "banner_url": "",
  "icon_url": "",
  "coverart": null,
  "platforms": [],
  "provider_games": [
    {
      "name": "Shado Fighter",
      "slug": "shado-fighter",
      "service": "igdb"
    }
  ],
  "aliases": [],
  "shaders": [],
  "discord_id": "",
  "change_for": null
}