{
  "id": 226711,
  "name": "Shanghai",
  "slug": "shanghai--1",
  "year": 1989,
  "banner_url": "",
  "icon_url": "",
  "coverart": null,
  "platforms": [
    {
      "name": "Game Boy"
    }
  ],
  "provider_games": [
    {
      "name": "Shanghai",
      "slug": "shanghai--1",
      "service": "igdb"
    }
  ],
  "aliases": [],
  "shaders": [],
  "discord_id": "",
  "change_for": null
}