{
  "id": 1199,
  "game_id": 545,
  "game_slug": "empire-total-war",
  "name": "Empire: Total War",
  "year": 2009,
  "user": "Xodetaetl",
  "runner": "steam",
  "slug": "empire-total-war-steam",
  "version": "steam",
  "description": "",
  "notes": "",
  "credits": "",
  "created_at": "2014-12-10T14:08:37.618000Z",
  "updated_at": "2014-12-10T14:08:42.218000Z",
  "draft": false,
  "published": true,
  "published_by": null,
  "rating": "",
  "is_playable": null,
  "steamid": 10500,
  "gogid": null,
  "gogslug": "",
  "humbleid": "",
  "humblestoreid": "",
  "humblestoreid_real": "",
  "script": {
    "game": {
      "appid": 10500
    }
  },
  "content": "game:\n  appid: 10500\n",
  "discord_id": ""
}