{
  "id": 31419,
  "name": "Archamon",
  "slug": "archamon",
  "year": 2017,
  "banner_url": "https://lutris.net/games/banner/archamon.jpg",
  "icon_url": "https://lutris.net/games/icon/archamon.png",
  "coverart": "https://lutris.net/media/igdb/cover_big/co29ih.jpg",
  "platforms": [
    {
      "name": "Windows"
    }
  ],
  "provider_games": [
    {
      "name": "Archamon",
      "slug": "350880",
      "service": "steam"
    },
    {
      "name": "Archamon",
      "slug": "archamon",
      "service": "igdb"
    }
  ],
  "aliases": [],
  "shaders": [],
  "discord_id": "",
  "change_for": null
}