{
  "id": 298600,
  "name": "The Technomagical Method",
  "slug": "the-technomagical-method",
  "year": 2020,
  "banner_url": "",
  "icon_url": "",
  "coverart": null,
  "platforms": [
    {
      "name": "Browser"
    },
    {
      "name": "Linux"
    },
    {
      "name": "Mac"
    },
    {
      "name": "Windows"
    }
  ],
  "provider_games": [
    {
      "name": "The Technomagical Method",
      "slug": "the-technomagical-method",
      "service": "igdb"
    }
  ],
  "aliases": [],
  "shaders": [],
  "discord_id": "",
  "change_for": null
}