{
  "id": 157572,
  "name": "Escape Mystery: Alien Impact",
  "slug": "escape-mystery-alien-impact",
  "year": 2020,
  "banner_url": "",
  "icon_url": "",
  "coverart": null,
  "platforms": [],
  "provider_games": [
    {
      "name": "Escape Mystery: Alien Impact",
      "slug": "escape-mystery-alien-impact",
      "service": "igdb"
    }
  ],
  "aliases": [],
  "shaders": [],
  "discord_id": "",
  "change_for": null
}