{
  "id": 184887,
  "name": "Tour de Akiba",
  "slug": "tour-de-akiba",
  "year": null,
  "banner_url": "",
  "icon_url": "",
  "coverart": null,
  "platforms": [],
  "provider_games": [
    {
      "name": "Tour de Akiba",
      "slug": "tour-de-akiba",
      "service": "igdb"
    }
  ],
  "aliases": [],
  "shaders": [],
  "discord_id": "",
  "change_for": null
}