{
  "id": 32717,
  "game_id": 10672,
  "game_slug": "desert-law",
  "name": "Desert Law",
  "year": 2005,
  "user": "KeenanW",
  "runner": "wine",
  "slug": "desert-law-zoom-platform",
  "version": "ZOOM Platform",
  "description": "",
  "notes": "",
  "credits": "",
  "created_at": "2022-04-10T01:56:54.409476Z",
  "updated_at": "2023-01-11T07:35:52.410673Z",
  "draft": false,
  "published": true,
  "published_by": null,
  "rating": "",
  "is_playable": null,
  "steamid": 356280,
  "gogid": 1380961633,
  "gogslug": "desert_law",
  "humbleid": "",
  "humblestoreid": "",
  "humblestoreid_real": "",
  "script": {
    "files": [
      {
        "installer": "N/A:Please select the ZOOM Platform installer"
      }
    ],
    "game": {
      "arch": "win32",
      "exe": "drive_c/ZOOM PLATFORM/1C Entertainment/Desert Law/Game.exe",
      "prefix": "$GAMEDIR"
    },
    "installer": [
      {
        "task": {
          "arch": "win32",
          "args": "/VERYSILENT",
          "description": "Installing Desert Law",
          "executable": "installer",
          "name": "wineexec",
          "prefix": "$GAMEDIR"
        }
      }
    ]
  },
  "content": "files:\n- installer: N/A:Please select the ZOOM Platform installer\ngame:\n  arch: win32\n  exe: drive_c/ZOOM PLATFORM/1C Entertainment/Desert Law/Game.exe\n  prefix: $GAMEDIR\ninstaller:\n- task:\n    arch: win32\n    args: /VERYSILENT\n    description: Installing Desert Law\n    executable: installer\n    name: wineexec\n    prefix: $GAMEDIR\n",
  "discord_id": ""
}