{
  "id": 279879,
  "name": "Heroes of Latera",
  "slug": "heroes-of-latera",
  "year": null,
  "banner_url": "",
  "icon_url": "",
  "coverart": "https://lutris.net/media/igdb/cover_big/co81ct.jpg",
  "platforms": [],
  "provider_games": [
    {
      "name": "Heroes of Latera",
      "slug": "heroes-of-latera",
      "service": "igdb"
    }
  ],
  "aliases": [],
  "shaders": [],
  "discord_id": "",
  "change_for": null
}