{
  "id": 61762,
  "name": "Nikoli no Puzzle V: Akari",
  "slug": "nikoli-no-puzzle-v-akari",
  "year": null,
  "banner_url": "",
  "icon_url": "",
  "coverart": null,
  "platforms": [],
  "provider_games": [
    {
      "name": "Nikoli no Puzzle V: Akari",
      "slug": "nikoli-no-puzzle-v-akari",
      "service": "igdb"
    }
  ],
  "aliases": [],
  "shaders": [],
  "discord_id": "",
  "change_for": null
}