{
  "id": 161122,
  "name": "Bienvenue chez les Ch'tis",
  "slug": "bienvenue-chez-les-chtis--1",
  "year": 2008,
  "banner_url": "",
  "icon_url": "",
  "coverart": "https://lutris.net/media/igdb/cover_big/co3zi2.jpg",
  "platforms": [
    {
      "name": "Nintendo DS"
    }
  ],
  "provider_games": [
    {
      "name": "Bienvenue chez les Ch'tis",
      "slug": "bienvenue-chez-les-chtis--1",
      "service": "igdb"
    }
  ],
  "aliases": [],
  "shaders": [],
  "discord_id": "",
  "change_for": null
}