{
  "id": 106381,
  "name": "Osher Bli Gvulot",
  "slug": "osher-bli-gvulot",
  "year": 2007,
  "banner_url": "",
  "icon_url": "",
  "coverart": "https://lutris.net/media/igdb/cover_big/co2u71.jpg",
  "platforms": [
    {
      "name": "Windows"
    }
  ],
  "provider_games": [
    {
      "name": "Osher Bli Gvulot",
      "slug": "osher-bli-gvulot",
      "service": "igdb"
    }
  ],
  "aliases": [],
  "shaders": [],
  "discord_id": "",
  "change_for": null
}