{
  "id": 191474,
  "name": "Serious Sam: Siberian Mayhem",
  "slug": "serious-sam-siberian-mayhem",
  "year": null,
  "banner_url": "https://lutris.net/games/banner/serious-sam-siberian-mayhem.jpg",
  "icon_url": "",
  "coverart": null,
  "platforms": [],
  "provider_games": [
    {
      "name": "Serious Sam: Siberian Mayhem",
      "slug": "2056531790",
      "service": "gog"
    },
    {
      "name": "Serious Sam: Siberian Mayhem",
      "slug": "1792250",
      "service": "steam"
    }
  ],
  "aliases": [],
  "shaders": [],
  "discord_id": "",
  "change_for": null
}