{
  "id": 98748,
  "name": "Idemitsu: Space College - Easy Physics and Chemisty of Dangerous Goods",
  "slug": "idemitsu-space-college-easy-physics-and-chemisty-of-dangerous-goods",
  "year": 1990,
  "banner_url": "",
  "icon_url": "",
  "coverart": "https://lutris.net/media/igdb/cover_big/co743s.jpg",
  "platforms": [
    {
      "name": "Family Computer"
    }
  ],
  "provider_games": [
    {
      "name": "Idemitsu: Space College - Easy Physics and Chemisty of Dangerous Goods",
      "slug": "idemitsu-space-college-easy-physics-and-chemisty-of-dangerous-goods",
      "service": "igdb"
    }
  ],
  "aliases": [],
  "shaders": [],
  "discord_id": "",
  "change_for": null
}