{
  "id": 192,
  "name": "The Ball",
  "slug": "the-ball",
  "year": 2010,
  "banner_url": "https://lutris.net/games/banner/the-ball.jpg",
  "icon_url": "https://lutris.net/games/icon/the-ball.png",
  "coverart": "https://lutris.net/media/igdb/cover_big/co2isf.jpg",
  "platforms": [
    {
      "name": "Linux"
    },
    {
      "name": "Windows"
    }
  ],
  "provider_games": [
    {
      "name": "The Ball",
      "slug": "1207659086",
      "service": "gog"
    },
    {
      "name": "The Ball",
      "slug": "35460",
      "service": "steam"
    },
    {
      "name": "The Ball",
      "slug": "the-ball",
      "service": "igdb"
    }
  ],
  "aliases": [],
  "shaders": [],
  "discord_id": "",
  "change_for": null
}