{
  "id": 180241,
  "name": "World Soccer: Winning Eleven 5 Final Evolution",
  "slug": "world-soccer-winning-eleven-5-final-evolution",
  "year": 2001,
  "banner_url": "",
  "icon_url": "",
  "coverart": "https://lutris.net/media/igdb/cover_big/co3slz.jpg",
  "platforms": [
    {
      "name": "Sony PlayStation 2"
    }
  ],
  "provider_games": [
    {
      "name": "World Soccer Winning Eleven 5: Final Evolution",
      "slug": "world-soccer-winning-eleven-5-final-evolution",
      "service": "igdb"
    }
  ],
  "aliases": [],
  "shaders": [],
  "discord_id": "",
  "change_for": null
}