{
  "id": 8660,
  "game_id": 17746,
  "game_slug": "the-flood",
  "name": "The Flood",
  "year": 2018,
  "user": "soredake",
  "runner": "steam",
  "slug": "the-flood-proton",
  "version": "Proton",
  "description": null,
  "notes": "",
  "credits": "",
  "created_at": "2018-06-11T07:41:22.017831Z",
  "updated_at": "2021-05-04T02:43:04.296850Z",
  "draft": false,
  "published": true,
  "published_by": null,
  "rating": "",
  "is_playable": null,
  "steamid": 816350,
  "gogid": null,
  "gogslug": "",
  "humbleid": "",
  "humblestoreid": "",
  "humblestoreid_real": "",
  "script": {
    "game": {
      "appid": 816350
    }
  },
  "content": "game:\n  appid: 816350\n",
  "discord_id": ""
}