{
  "id": 136228,
  "name": "Miracle world",
  "slug": "miracle-world",
  "year": null,
  "banner_url": "",
  "icon_url": "",
  "coverart": "https://lutris.net/media/igdb/cover_big/co3p0y.jpg",
  "platforms": [],
  "provider_games": [
    {
      "name": "Miracle world",
      "slug": "miracle-world",
      "service": "igdb"
    }
  ],
  "aliases": [],
  "shaders": [],
  "discord_id": "",
  "change_for": null
}