{
  "id": 278754,
  "name": "Korean Rail Driving Tour: LRT Uijeongbu",
  "slug": "korean-rail-driving-tour-lrt-uijeongbu",
  "year": null,
  "banner_url": "",
  "icon_url": "",
  "coverart": "https://lutris.net/media/igdb/cover_big/co7xb9.jpg",
  "platforms": [],
  "provider_games": [
    {
      "name": "Korean Rail Driving Tour: LRT Uijeongbu",
      "slug": "korean-rail-driving-tour-lrt-uijeongbu",
      "service": "igdb"
    }
  ],
  "aliases": [],
  "shaders": [],
  "discord_id": "",
  "change_for": null
}