{
  "id": 165457,
  "name": "Hentai University",
  "slug": "hentai-university",
  "year": null,
  "banner_url": "",
  "icon_url": "",
  "coverart": "https://lutris.net/media/igdb/cover_big/co42c5.jpg",
  "platforms": [],
  "provider_games": [
    {
      "name": "Hentai University",
      "slug": "hentai-university",
      "service": "igdb"
    }
  ],
  "aliases": [],
  "shaders": [],
  "discord_id": "",
  "change_for": null
}