{
  "id": 248075,
  "name": "Exo Rally Championship",
  "slug": "exo-rally-championship",
  "year": null,
  "banner_url": "",
  "icon_url": "",
  "coverart": "https://lutris.net/media/igdb/cover_big/co6m2n.jpg",
  "platforms": [],
  "provider_games": [
    {
      "name": "Exo Rally Championship",
      "slug": "exo-rally-championship",
      "service": "igdb"
    }
  ],
  "aliases": [],
  "shaders": [],
  "discord_id": "",
  "change_for": null
}