{
  "id": 164479,
  "name": "GrapplingHook",
  "slug": "grapplinghook",
  "year": null,
  "banner_url": "",
  "icon_url": "",
  "coverart": "https://lutris.net/media/igdb/cover_big/co41fl.jpg",
  "platforms": [],
  "provider_games": [
    {
      "name": "GrapplingHook",
      "slug": "grapplinghook",
      "service": "igdb"
    }
  ],
  "aliases": [],
  "shaders": [],
  "discord_id": "",
  "change_for": null
}