{
  "id": 217816,
  "name": "Evercraft Mechanic: Sandbox",
  "slug": "evercraft-mechanic-sandbox",
  "year": null,
  "banner_url": "",
  "icon_url": "",
  "coverart": "https://lutris.net/media/igdb/cover_big/co53z1.jpg",
  "platforms": [],
  "provider_games": [
    {
      "name": "Evercraft Mechanic: Sandbox",
      "slug": "evercraft-mechanic-sandbox",
      "service": "igdb"
    }
  ],
  "aliases": [],
  "shaders": [],
  "discord_id": "",
  "change_for": null
}