{
  "id": 73988,
  "name": "Kaidan Restaurant: Ura Menu 100-Sen",
  "slug": "kaidan-restaurant-ura-menu-100-sen",
  "year": null,
  "banner_url": "",
  "icon_url": "",
  "coverart": null,
  "platforms": [],
  "provider_games": [
    {
      "name": "Kaidan Restaurant: Ura Menu 100-Sen",
      "slug": "kaidan-restaurant-ura-menu-100-sen",
      "service": "igdb"
    }
  ],
  "aliases": [],
  "shaders": [],
  "discord_id": "",
  "change_for": null
}