{
  "id": 210296,
  "name": "G-Mode Archives+: Tondemo Nishibuuki 2 - Paris Butal Rally",
  "slug": "g-mode-archives-plus-tondemo-nishibuuki-2-paris-butal-rally",
  "year": null,
  "banner_url": "",
  "icon_url": "",
  "coverart": "https://lutris.net/media/igdb/cover_big/co827z.jpg",
  "platforms": [],
  "provider_games": [
    {
      "name": "G-Mode Archives+: Tondemo Nishibuuki 2 - Paris Butal Rally",
      "slug": "g-mode-archives-plus-tondemo-nishibuuki-2-paris-butal-rally",
      "service": "igdb"
    }
  ],
  "aliases": [],
  "shaders": [],
  "discord_id": "",
  "change_for": null
}