{
  "id": 58636,
  "name": "Koustrea's Contentment",
  "slug": "koustreas-contentment",
  "year": null,
  "banner_url": "",
  "icon_url": "",
  "coverart": "https://lutris.net/media/igdb/cover_big/qb0alxixdxryqaxym6dx.jpg",
  "platforms": [],
  "provider_games": [
    {
      "name": "Koustrea's Contentment",
      "slug": "koustreas-contentment",
      "service": "igdb"
    }
  ],
  "aliases": [],
  "shaders": [],
  "discord_id": "",
  "change_for": null
}