{
  "id": 246201,
  "name": "Football Boss: Be The Manager",
  "slug": "football-boss-be-the-manager",
  "year": null,
  "banner_url": "",
  "icon_url": "",
  "coverart": null,
  "platforms": [],
  "provider_games": [
    {
      "name": "Football Boss: Be The Manager",
      "slug": "football-boss-be-the-manager",
      "service": "igdb"
    }
  ],
  "aliases": [],
  "shaders": [],
  "discord_id": "",
  "change_for": null
}