{
  "id": 54485,
  "name": "Out of Control",
  "slug": "out-of-control",
  "year": 1983,
  "banner_url": "",
  "icon_url": "",
  "coverart": "https://lutris.net/media/igdb/cover_big/co5ylt.jpg",
  "platforms": [],
  "provider_games": [
    {
      "name": "Out of Control",
      "slug": "out-of-control",
      "service": "igdb"
    }
  ],
  "aliases": [],
  "shaders": [],
  "discord_id": "",
  "change_for": null
}