{
  "id": 231989,
  "name": "Void Terrarium++",
  "slug": "void-terrarium-plus-plus",
  "year": 2021,
  "banner_url": "",
  "icon_url": "",
  "coverart": null,
  "platforms": [
    {
      "name": "Sony PlayStation 5"
    }
  ],
  "provider_games": [
    {
      "name": "Void Terrarium++",
      "slug": "void-terrarium-plus-plus",
      "service": "igdb"
    }
  ],
  "aliases": [],
  "shaders": [],
  "discord_id": "",
  "change_for": null
}