{
  "id": 197995,
  "name": "VR Training: Work At Height",
  "slug": "vr-training-work-at-height",
  "year": null,
  "banner_url": "",
  "icon_url": "",
  "coverart": "https://lutris.net/media/igdb/cover_big/co4jey.jpg",
  "platforms": [],
  "provider_games": [
    {
      "name": "VR Training: Work At Height",
      "slug": "vr-training-work-at-height",
      "service": "igdb"
    }
  ],
  "aliases": [],
  "shaders": [],
  "discord_id": "",
  "change_for": null
}