{
  "id": 22071,
  "name": "Need to Know",
  "slug": "need-to-know",
  "year": 2018,
  "banner_url": "https://lutris.net/games/banner/need-to-know.jpg",
  "icon_url": "",
  "coverart": "https://lutris.net/media/igdb/cover_big/st59xne8dwwdmv5zjjlk.jpg",
  "platforms": [
    {
      "name": "Linux"
    },
    {
      "name": "Mac"
    },
    {
      "name": "Windows"
    }
  ],
  "provider_games": [
    {
      "name": "Need to Know",
      "slug": "1758409215",
      "service": "gog"
    },
    {
      "name": "Need to Know",
      "slug": "490930",
      "service": "steam"
    },
    {
      "name": "Need to Know",
      "slug": "need-to-know",
      "service": "igdb"
    }
  ],
  "aliases": [],
  "shaders": [],
  "discord_id": "",
  "change_for": null
}