{
  "id": 169973,
  "name": "Guns and Braps",
  "slug": "guns-and-braps",
  "year": null,
  "banner_url": "",
  "icon_url": "",
  "coverart": "https://lutris.net/media/igdb/cover_big/co469z.jpg",
  "platforms": [],
  "provider_games": [
    {
      "name": "Guns and Braps",
      "slug": "guns-and-braps",
      "service": "igdb"
    }
  ],
  "aliases": [],
  "shaders": [],
  "discord_id": "",
  "change_for": null
}