{
  "id": 223798,
  "name": "Wordland: Let's Travel",
  "slug": "wordland-lets-travel",
  "year": 2022,
  "banner_url": "",
  "icon_url": "",
  "coverart": "https://lutris.net/media/igdb/cover_big/co59s7.jpg",
  "platforms": [
    {
      "name": "Windows"
    }
  ],
  "provider_games": [
    {
      "name": "Wordland: Let's Travel",
      "slug": "wordland-lets-travel",
      "service": "igdb"
    }
  ],
  "aliases": [],
  "shaders": [],
  "discord_id": "",
  "change_for": null
}