{
  "id": 162988,
  "name": "Heaventaker",
  "slug": "heaventaker",
  "year": null,
  "banner_url": "",
  "icon_url": "",
  "coverart": "https://lutris.net/media/igdb/cover_big/co6fen.jpg",
  "platforms": [],
  "provider_games": [
    {
      "name": "Heaventaker",
      "slug": "heaventaker",
      "service": "igdb"
    }
  ],
  "aliases": [],
  "shaders": [],
  "discord_id": "",
  "change_for": null
}