{
  "id": 289116,
  "name": "Police Car Parking 3D",
  "slug": "police-car-parking-3d",
  "year": null,
  "banner_url": "",
  "icon_url": "",
  "coverart": "https://lutris.net/media/igdb/cover_big/co8dh5.jpg",
  "platforms": [],
  "provider_games": [
    {
      "name": "Police Car Parking 3D",
      "slug": "police-car-parking-3d",
      "service": "igdb"
    }
  ],
  "aliases": [],
  "shaders": [],
  "discord_id": "",
  "change_for": null
}