{
  "id": 218468,
  "name": "Double Barrel Mayhem",
  "slug": "double-barrel-mayhem",
  "year": 2022,
  "banner_url": "",
  "icon_url": "",
  "coverart": "https://lutris.net/media/igdb/cover_big/co52pn.jpg",
  "platforms": [
    {
      "name": "Windows"
    }
  ],
  "provider_games": [
    {
      "name": "Double Barrel Mayhem",
      "slug": "double-barrel-mayhem",
      "service": "igdb"
    }
  ],
  "aliases": [],
  "shaders": [],
  "discord_id": "",
  "change_for": null
}