{
  "id": 39455,
  "name": "To Be a HerpWitch",
  "slug": "to-be-a-herpwitch",
  "year": 2019,
  "banner_url": "https://lutris.net/games/banner/to-be-a-herpwitch.jpg",
  "icon_url": "",
  "coverart": null,
  "platforms": [
    {
      "name": "Linux"
    },
    {
      "name": "Windows"
    }
  ],
  "provider_games": [
    {
      "name": "To Be a HerpWitch",
      "slug": "to-be-a-herpwitch",
      "service": "igdb"
    }
  ],
  "aliases": [],
  "shaders": [],
  "discord_id": "",
  "change_for": null
}