{
  "id": 77578,
  "name": "Zeta-7",
  "slug": "zeta-7",
  "year": 1984,
  "banner_url": "",
  "icon_url": "",
  "coverart": "https://lutris.net/media/igdb/cover_big/cga2aivpepn4ghnvmrcv.jpg",
  "platforms": [
    {
      "name": "Commodore C64/128"
    }
  ],
  "provider_games": [
    {
      "name": "Zeta-7",
      "slug": "zeta-7",
      "service": "igdb"
    }
  ],
  "aliases": [],
  "shaders": [],
  "discord_id": "",
  "change_for": null
}