{
  "id": 9954,
  "name": "Cubium Dreams",
  "slug": "cubium-dreams",
  "year": 2016,
  "banner_url": "https://lutris.net/games/banner/cubium-dreams.jpg",
  "icon_url": "https://lutris.net/games/icon/cubium-dreams.png",
  "coverart": null,
  "platforms": [
    {
      "name": "Windows"
    }
  ],
  "provider_games": [
    {
      "name": "Cubium Dreams",
      "slug": "cubium-dreams",
      "service": "igdb"
    }
  ],
  "aliases": [],
  "shaders": [],
  "discord_id": "",
  "change_for": null
}