{
  "id": 306472,
  "name": "Akazukin-chan no Omimai",
  "slug": "akazukin-chan-no-omimai",
  "year": 2025,
  "banner_url": "",
  "icon_url": "",
  "coverart": "https://lutris.net/media/igdb/cover_big/co9d7a.jpg",
  "platforms": [
    {
      "name": "Windows"
    }
  ],
  "provider_games": [
    {
      "name": "Akazukin-chan no Omimai",
      "slug": "akazukin-chan-no-omimai",
      "service": "igdb"
    }
  ],
  "aliases": [],
  "shaders": [],
  "discord_id": "",
  "change_for": null
}