{
  "id": 113149,
  "name": "The Idolmaster: SP - Missing Moon",
  "slug": "the-idolmaster-sp-missing-moon",
  "year": 2009,
  "banner_url": "",
  "icon_url": "",
  "coverart": "https://lutris.net/media/igdb/cover_big/co30sv.jpg",
  "platforms": [
    {
      "name": "Sony PSP"
    }
  ],
  "provider_games": [
    {
      "name": "The Idolmaster: SP - Missing Moon",
      "slug": "the-idolmaster-sp-missing-moon",
      "service": "igdb"
    }
  ],
  "aliases": [],
  "shaders": [],
  "discord_id": "",
  "change_for": null
}