{
  "id": 283615,
  "name": "The Spellbinding Kiss",
  "slug": "the-spellbinding-kiss",
  "year": null,
  "banner_url": "",
  "icon_url": "",
  "coverart": null,
  "platforms": [
    {
      "name": "Android"
    }
  ],
  "provider_games": [
    {
      "name": "The Spellbinding Kiss",
      "slug": "the-spellbinding-kiss",
      "service": "igdb"
    }
  ],
  "aliases": [],
  "shaders": [],
  "discord_id": "",
  "change_for": null
}