{
  "id": 272357,
  "name": "Iroase no Hate ni",
  "slug": "iroase-no-hate-ni",
  "year": null,
  "banner_url": "",
  "icon_url": "",
  "coverart": "https://lutris.net/media/igdb/cover_big/co7p13.jpg",
  "platforms": [],
  "provider_games": [
    {
      "name": "Iroase no Hate ni",
      "slug": "iroase-no-hate-ni",
      "service": "igdb"
    }
  ],
  "aliases": [],
  "shaders": [],
  "discord_id": "",
  "change_for": null
}