{
  "id": 103555,
  "name": "Catch the Candy",
  "slug": "catch-the-candy",
  "year": 2013,
  "banner_url": "",
  "icon_url": "",
  "coverart": "https://lutris.net/media/igdb/cover_big/co2o3a.jpg",
  "platforms": [
    {
      "name": "Mac"
    },
    {
      "name": "Windows"
    }
  ],
  "provider_games": [
    {
      "name": "Catch the Candy",
      "slug": "catch-the-candy",
      "service": "igdb"
    }
  ],
  "aliases": [],
  "shaders": [],
  "discord_id": "",
  "change_for": null
}