{
  "id": 292914,
  "name": "Banana & Tomato",
  "slug": "banana-and-tomato",
  "year": null,
  "banner_url": "",
  "icon_url": "",
  "coverart": "https://lutris.net/media/igdb/cover_big/co8m49.jpg",
  "platforms": [],
  "provider_games": [
    {
      "name": "Banana & Tomato",
      "slug": "banana-and-tomato",
      "service": "igdb"
    }
  ],
  "aliases": [],
  "shaders": [],
  "discord_id": "",
  "change_for": null
}