{
  "id": 287089,
  "name": "Slashy Camp",
  "slug": "slashy-camp",
  "year": null,
  "banner_url": "",
  "icon_url": "",
  "coverart": "https://lutris.net/media/igdb/cover_big/co896u.jpg",
  "platforms": [],
  "provider_games": [
    {
      "name": "Slashy Camp",
      "slug": "slashy-camp",
      "service": "igdb"
    }
  ],
  "aliases": [],
  "shaders": [],
  "discord_id": "",
  "change_for": null
}