{
  "id": 219904,
  "name": "Flibbles",
  "slug": "flibbles",
  "year": null,
  "banner_url": "",
  "icon_url": "",
  "coverart": "https://lutris.net/media/igdb/cover_big/co5o5p.jpg",
  "platforms": [],
  "provider_games": [
    {
      "name": "Flibbles",
      "slug": "flibbles",
      "service": "igdb"
    }
  ],
  "aliases": [],
  "shaders": [],
  "discord_id": "",
  "change_for": null
}