{
  "id": 2116,
  "game_id": 4403,
  "game_slug": "bound-by-flame",
  "name": "Bound By Flame",
  "year": 2014,
  "user": "strider",
  "runner": "steam",
  "slug": "bound-by-flame-steam",
  "version": "Steam",
  "description": "",
  "notes": "",
  "credits": "",
  "created_at": "2016-06-15T05:39:28.603397Z",
  "updated_at": "2016-06-15T05:39:33.936241Z",
  "draft": false,
  "published": true,
  "published_by": null,
  "rating": "",
  "is_playable": null,
  "steamid": 243930,
  "gogid": 1787707874,
  "gogslug": "bound_by_flame",
  "humbleid": "",
  "humblestoreid": "",
  "humblestoreid_real": "",
  "script": {
    "game": {
      "appid": 243930
    }
  },
  "content": "game:\n  appid: 243930\n",
  "discord_id": ""
}