{
  "id": 119865,
  "name": "Star Drift Evolution",
  "slug": "star-drift-evolution",
  "year": 2020,
  "banner_url": "https://lutris.net/games/banner/star-drift-evolution.jpg",
  "icon_url": "",
  "coverart": "https://lutris.net/media/igdb/cover_big/co2iab.jpg",
  "platforms": [
    {
      "name": "Windows"
    }
  ],
  "provider_games": [
    {
      "name": "Star Drift Evolution",
      "slug": "1005400",
      "service": "steam"
    },
    {
      "name": "Star Drift Evolution",
      "slug": "star-drift-evolution",
      "service": "igdb"
    }
  ],
  "aliases": [],
  "shaders": [],
  "discord_id": "",
  "change_for": null
}