{
  "id": 87941,
  "name": "YAKARI: The Mystery of Four-Seasons",
  "slug": "yakari-the-mystery-of-four-seasons",
  "year": null,
  "banner_url": "",
  "icon_url": "",
  "coverart": "https://lutris.net/media/igdb/cover_big/co674r.jpg",
  "platforms": [],
  "provider_games": [
    {
      "name": "Yakari: The Mystery of Four - Seasons",
      "slug": "yakari-the-mystery-of-four-seasons",
      "service": "igdb"
    }
  ],
  "aliases": [],
  "shaders": [],
  "discord_id": "",
  "change_for": null
}