{
  "id": 221305,
  "name": "Last Car Standing",
  "slug": "last-car-standing",
  "year": null,
  "banner_url": "",
  "icon_url": "",
  "coverart": null,
  "platforms": [],
  "provider_games": [
    {
      "name": "Last Car Standing",
      "slug": "last-car-standing",
      "service": "igdb"
    }
  ],
  "aliases": [],
  "shaders": [],
  "discord_id": "",
  "change_for": null
}