{
  "id": 144721,
  "name": "Seditionis: Tower Defense",
  "slug": "seditionis-tower-defense",
  "year": null,
  "banner_url": "",
  "icon_url": "",
  "coverart": "https://lutris.net/media/igdb/cover_big/co3v4j.jpg",
  "platforms": [],
  "provider_games": [
    {
      "name": "Seditionis: Tower Defense",
      "slug": "seditionis-tower-defense",
      "service": "igdb"
    }
  ],
  "aliases": [],
  "shaders": [],
  "discord_id": "",
  "change_for": null
}