{
  "id": 285646,
  "name": "Nazurin no Sagashi Mono?",
  "slug": "nazurin-no-sagashi-mono",
  "year": null,
  "banner_url": "",
  "icon_url": "",
  "coverart": "https://lutris.net/media/igdb/cover_big/co881w.jpg",
  "platforms": [],
  "provider_games": [
    {
      "name": "Nazurin no Sagashi Mono?",
      "slug": "nazurin-no-sagashi-mono",
      "service": "igdb"
    }
  ],
  "aliases": [],
  "shaders": [],
  "discord_id": "",
  "change_for": null
}