{
  "id": 11604,
  "name": "Satellite Rush",
  "slug": "satellite-rush",
  "year": 2016,
  "banner_url": "https://lutris.net/games/banner/satellite-rush.jpg",
  "icon_url": "https://lutris.net/games/icon/satellite-rush.png",
  "coverart": "https://lutris.net/media/igdb/cover_big/co40t2.jpg",
  "platforms": [
    {
      "name": "Linux"
    },
    {
      "name": "Mac"
    },
    {
      "name": "Windows"
    }
  ],
  "provider_games": [
    {
      "name": "Satellite Rush",
      "slug": "429350",
      "service": "steam"
    },
    {
      "name": "Satellite Rush",
      "slug": "satellite-rush",
      "service": "igdb"
    }
  ],
  "aliases": [],
  "shaders": [],
  "discord_id": "",
  "change_for": null
}