{
  "id": 31119,
  "name": "Huusuienbu - Chapter Spring and Summer ",
  "slug": "huusuienbu-chapter-spring-and-summer",
  "year": 2017,
  "banner_url": "https://lutris.net/games/banner/huusuienbu-chapter-spring-and-summer.jpg",
  "icon_url": "https://lutris.net/games/icon/huusuienbu-chapter-spring-and-summer.png",
  "coverart": "https://lutris.net/media/igdb/cover_big/co2bo2.jpg",
  "platforms": [
    {
      "name": "Windows"
    }
  ],
  "provider_games": [
    {
      "name": "Huusuienbu - Chapter Spring and Summer ",
      "slug": "622670",
      "service": "steam"
    },
    {
      "name": "Huusuienbu: Chapter Spring and Summer",
      "slug": "huusuienbu-chapter-spring-and-summer",
      "service": "igdb"
    }
  ],
  "aliases": [],
  "shaders": [],
  "discord_id": "",
  "change_for": null
}