{
  "id": 257780,
  "name": "CruzeCraze",
  "slug": "cruzecraze",
  "year": null,
  "banner_url": "",
  "icon_url": "",
  "coverart": "https://lutris.net/media/igdb/cover_big/co700w.jpg",
  "platforms": [],
  "provider_games": [
    {
      "name": "CruzeCraze",
      "slug": "cruzecraze",
      "service": "igdb"
    }
  ],
  "aliases": [],
  "shaders": [],
  "discord_id": "",
  "change_for": null
}