{
  "id": 185307,
  "name": "Faith: Itch.io Edition",
  "slug": "faith-itch-dot-io-edition",
  "year": null,
  "banner_url": "",
  "icon_url": "",
  "coverart": null,
  "platforms": [],
  "provider_games": [
    {
      "name": "Faith: Itch.io Edition",
      "slug": "faith-itch-dot-io-edition",
      "service": "igdb"
    }
  ],
  "aliases": [],
  "shaders": [],
  "discord_id": "",
  "change_for": null
}