{
  "id": 266422,
  "name": "Anthem#9",
  "slug": "anthem-number-9",
  "year": null,
  "banner_url": "",
  "icon_url": "",
  "coverart": "https://lutris.net/media/igdb/cover_big/co7dk7.jpg",
  "platforms": [],
  "provider_games": [
    {
      "name": "Anthem#9",
      "slug": "anthem-number-9",
      "service": "igdb"
    }
  ],
  "aliases": [],
  "shaders": [],
  "discord_id": "",
  "change_for": null
}