{
  "id": 221720,
  "name": "PlayWith",
  "slug": "playwith",
  "year": null,
  "banner_url": "",
  "icon_url": "",
  "coverart": "https://lutris.net/media/igdb/cover_big/co5kj2.jpg",
  "platforms": [],
  "provider_games": [
    {
      "name": "PlayWith",
      "slug": "playwith",
      "service": "igdb"
    }
  ],
  "aliases": [],
  "shaders": [],
  "discord_id": "",
  "change_for": null
}