{
  "id": 46174,
  "name": "Laura's Happy Adventures",
  "slug": "lauras-happy-adventures",
  "year": null,
  "banner_url": "",
  "icon_url": "",
  "coverart": "https://lutris.net/media/igdb/cover_big/ehixit7nxvwayg1573xi.jpg",
  "platforms": [],
  "provider_games": [
    {
      "name": "Laura's Happy Adventures",
      "slug": "lauras-happy-adventures",
      "service": "igdb"
    }
  ],
  "aliases": [],
  "shaders": [],
  "discord_id": "",
  "change_for": null
}