{
  "id": 262615,
  "name": "Hentai Rina",
  "slug": "hentai-rina",
  "year": null,
  "banner_url": "",
  "icon_url": "",
  "coverart": "https://lutris.net/media/igdb/cover_big/co783e.jpg",
  "platforms": [],
  "provider_games": [
    {
      "name": "Hentai Rina",
      "slug": "hentai-rina",
      "service": "igdb"
    }
  ],
  "aliases": [],
  "shaders": [],
  "discord_id": "",
  "change_for": null
}