{
  "id": 35549,
  "name": "Rock'n MegaSession",
  "slug": "rockn-megasession",
  "year": 1999,
  "banner_url": "",
  "icon_url": "https://lutris.net/games/icon/rockn-megasession.png",
  "coverart": null,
  "platforms": [
    {
      "name": "Arcade"
    }
  ],
  "provider_games": [
    {
      "name": "Rock'n MegaSession",
      "slug": "rocknms",
      "service": "mame"
    }
  ],
  "aliases": [],
  "shaders": [],
  "discord_id": "",
  "change_for": null
}