{
  "id": 41901,
  "name": "Kaze and the Wild Masks",
  "slug": "kaze-and-the-wild-masks",
  "year": 2021,
  "banner_url": "https://lutris.net/games/banner/kaze-and-the-wild-masks.jpg",
  "icon_url": "https://lutris.net/games/icon/kaze-and-the-wild-masks.png",
  "coverart": "https://lutris.net/media/igdb/cover_big/co1t98.jpg",
  "platforms": [
    {
      "name": "Google Stadia"
    },
    {
      "name": "Nintendo Switch"
    },
    {
      "name": "Sony Playstation 4"
    },
    {
      "name": "Windows"
    },
    {
      "name": "Xbox One"
    }
  ],
  "provider_games": [
    {
      "name": "Kaze and the Wild Masks",
      "slug": "829280",
      "service": "steam"
    },
    {
      "name": "Kaze and the Wild Masks",
      "slug": "kaze-and-the-wild-masks",
      "service": "igdb"
    }
  ],
  "aliases": [],
  "shaders": [],
  "discord_id": "",
  "change_for": null
}