{
  "id": 47922,
  "name": "Produce",
  "slug": "produce",
  "year": 1987,
  "banner_url": "",
  "icon_url": "",
  "coverart": "https://lutris.net/media/igdb/cover_big/axmwazgeis0pg1ieyrcu.jpg",
  "platforms": [
    {
      "name": "PC-8801"
    }
  ],
  "provider_games": [
    {
      "name": "Produce",
      "slug": "produce",
      "service": "igdb"
    }
  ],
  "aliases": [],
  "shaders": [],
  "discord_id": "",
  "change_for": null
}