{
  "id": 76922,
  "name": "Best of Voodoo",
  "slug": "best-of-voodoo",
  "year": null,
  "banner_url": "",
  "icon_url": "",
  "coverart": null,
  "platforms": [],
  "provider_games": [
    {
      "name": "Best of Voodoo",
      "slug": "best-of-voodoo",
      "service": "igdb"
    }
  ],
  "aliases": [],
  "shaders": [],
  "discord_id": "",
  "change_for": null
}