{
  "id": 91181,
  "name": "My Pretend Mall",
  "slug": "my-pretend-mall",
  "year": null,
  "banner_url": "",
  "icon_url": "",
  "coverart": null,
  "platforms": [],
  "provider_games": [
    {
      "name": "My Pretend Mall",
      "slug": "my-pretend-mall",
      "service": "igdb"
    }
  ],
  "aliases": [],
  "shaders": [],
  "discord_id": "",
  "change_for": null
}