{
  "id": 261859,
  "name": "Meridian: Frontier",
  "slug": "meridian-frontier",
  "year": null,
  "banner_url": "",
  "icon_url": "",
  "coverart": "https://lutris.net/media/igdb/cover_big/co76mb.jpg",
  "platforms": [],
  "provider_games": [
    {
      "name": "Meridian: Frontier",
      "slug": "meridian-frontier",
      "service": "igdb"
    }
  ],
  "aliases": [],
  "shaders": [],
  "discord_id": "",
  "change_for": null
}