{
  "id": 216528,
  "name": "Nightmare on the Pacific",
  "slug": "nightmare-on-the-pacific",
  "year": null,
  "banner_url": "",
  "icon_url": "",
  "coverart": "https://lutris.net/media/igdb/cover_big/co56u3.jpg",
  "platforms": [
    {
      "name": "Windows"
    }
  ],
  "provider_games": [
    {
      "name": "Nightmare on the Pacific",
      "slug": "nightmare-on-the-pacific",
      "service": "igdb"
    }
  ],
  "aliases": [],
  "shaders": [],
  "discord_id": "",
  "change_for": null
}