{
  "id": 148578,
  "name": "Evening Star 2",
  "slug": "evening-star-2",
  "year": null,
  "banner_url": "",
  "icon_url": "",
  "coverart": null,
  "platforms": [],
  "provider_games": [
    {
      "name": "Evening Star 2",
      "slug": "evening-star-2",
      "service": "igdb"
    }
  ],
  "aliases": [],
  "shaders": [],
  "discord_id": "",
  "change_for": null
}