{
  "id": 46075,
  "name": "War of the Immortals",
  "slug": "war-of-the-immortals",
  "year": 2012,
  "banner_url": "",
  "icon_url": "",
  "coverart": "https://lutris.net/media/igdb/cover_big/yrqetcerzutetazk6nj6.jpg",
  "platforms": [
    {
      "name": "Windows"
    }
  ],
  "provider_games": [
    {
      "name": "War of the Immortals",
      "slug": "war-of-the-immortals",
      "service": "igdb"
    }
  ],
  "aliases": [],
  "shaders": [],
  "discord_id": "",
  "change_for": null
}