{
  "id": 57877,
  "name": "Battles of the Valiant Universe",
  "slug": "battles-of-the-valiant-universe",
  "year": null,
  "banner_url": "",
  "icon_url": "",
  "coverart": "https://lutris.net/media/igdb/cover_big/mnhqp0dsx35lnogaao6u.jpg",
  "platforms": [],
  "provider_games": [
    {
      "name": "Battles of the Valiant Universe",
      "slug": "battles-of-the-valiant-universe",
      "service": "igdb"
    }
  ],
  "aliases": [],
  "shaders": [],
  "discord_id": "",
  "change_for": null
}