{
  "id": 103214,
  "name": "FarmVille: Tropic Escape",
  "slug": "farmville-tropic-escape",
  "year": 2016,
  "banner_url": "",
  "icon_url": "",
  "coverart": "https://lutris.net/media/igdb/cover_big/voncfar7h0sc8nujfrl8.jpg",
  "platforms": [],
  "provider_games": [
    {
      "name": "FarmVille: Tropic Escape",
      "slug": "farmville-tropic-escape",
      "service": "igdb"
    }
  ],
  "aliases": [],
  "shaders": [],
  "discord_id": "",
  "change_for": null
}