{
  "id": 136421,
  "name": "Dura Vita Online",
  "slug": "dura-vita-online",
  "year": null,
  "banner_url": "",
  "icon_url": "",
  "coverart": "https://lutris.net/media/igdb/cover_big/co3p9q.jpg",
  "platforms": [],
  "provider_games": [
    {
      "name": "Dura Vita Online",
      "slug": "dura-vita-online",
      "service": "igdb"
    }
  ],
  "aliases": [],
  "shaders": [],
  "discord_id": "",
  "change_for": null
}