{
  "id": 170800,
  "name": "Monuments Flipper",
  "slug": "monuments-flipper",
  "year": null,
  "banner_url": "https://lutris.net/games/banner/monuments-flipper.jpg",
  "icon_url": "",
  "coverart": "https://lutris.net/media/igdb/cover_big/co46z9.jpg",
  "platforms": [],
  "provider_games": [
    {
      "name": "Monuments Renovator",
      "slug": "1257280",
      "service": "steam"
    },
    {
      "name": "Monuments Flipper",
      "slug": "monuments-flipper",
      "service": "igdb"
    }
  ],
  "aliases": [],
  "shaders": [],
  "discord_id": "",
  "change_for": null
}