{
  "id": 54099,
  "name": "Mizuki Shigeru no Youkai Hyakki Yakou",
  "slug": "mizuki-shigeru-no-youkai-hyakki-yakou",
  "year": 1996,
  "banner_url": "",
  "icon_url": "",
  "coverart": "https://lutris.net/media/igdb/cover_big/sbzbrwziutzz884qr7aa.jpg",
  "platforms": [
    {
      "name": "Super Nintendo"
    }
  ],
  "provider_games": [
    {
      "name": "Mizuki Shigeru no Youkai Hyakki Yakou",
      "slug": "mizuki-shigeru-no-youkai-hyakki-yakou",
      "service": "igdb"
    }
  ],
  "aliases": [],
  "shaders": [],
  "discord_id": "",
  "change_for": null
}