{
  "id": 64270,
  "name": "Arya Vaiv",
  "slug": "arya-vaiv",
  "year": null,
  "banner_url": "",
  "icon_url": "",
  "coverart": "https://lutris.net/media/igdb/cover_big/ouzar0alhg8zdlv5pjlr.jpg",
  "platforms": [],
  "provider_games": [
    {
      "name": "Arya Vaiv",
      "slug": "arya-vaiv",
      "service": "igdb"
    }
  ],
  "aliases": [],
  "shaders": [],
  "discord_id": "",
  "change_for": null
}