{
  "id": 85101,
  "name": "Five Nights In Anime",
  "slug": "five-nights-in-anime",
  "year": null,
  "banner_url": "",
  "icon_url": "",
  "coverart": "https://lutris.net/media/igdb/cover_big/co4s9e.jpg",
  "platforms": [],
  "provider_games": [
    {
      "name": "Five Nights in Anime",
      "slug": "five-nights-in-anime",
      "service": "igdb"
    }
  ],
  "aliases": [],
  "shaders": [],
  "discord_id": "",
  "change_for": null
}