{
  "id": 45233,
  "name": "Burning Desire",
  "slug": "burning-desire",
  "year": 1982,
  "banner_url": "",
  "icon_url": "",
  "coverart": "https://lutris.net/media/igdb/cover_big/flxo18jjpa1etfvetvf8.jpg",
  "platforms": [],
  "provider_games": [
    {
      "name": "Burning Desire",
      "slug": "burning-desire",
      "service": "igdb"
    }
  ],
  "aliases": [],
  "shaders": [],
  "discord_id": "",
  "change_for": null
}