{
  "id": 266598,
  "name": "Gentle Female Boss",
  "slug": "gentle-female-boss",
  "year": null,
  "banner_url": "",
  "icon_url": "",
  "coverart": "https://lutris.net/media/igdb/cover_big/co7dcm.jpg",
  "platforms": [],
  "provider_games": [
    {
      "name": "Gentle Female Boss",
      "slug": "gentle-female-boss",
      "service": "igdb"
    }
  ],
  "aliases": [],
  "shaders": [],
  "discord_id": "",
  "change_for": null
}