{
  "id": 265867,
  "name": "Burglar's Bazaar",
  "slug": "burglars-bazaar",
  "year": null,
  "banner_url": "",
  "icon_url": "",
  "coverart": "https://lutris.net/media/igdb/cover_big/co7bxv.jpg",
  "platforms": [],
  "provider_games": [
    {
      "name": "Burglar's Bazaar",
      "slug": "burglars-bazaar",
      "service": "igdb"
    }
  ],
  "aliases": [],
  "shaders": [],
  "discord_id": "",
  "change_for": null
}