{
  "id": 44401,
  "name": "Voice of Cards: The Isle Dragon Roars Demo",
  "slug": "voice-of-cards-the-isle-dragon-roars-demo",
  "year": null,
  "banner_url": "https://lutris.net/games/banner/voice-of-cards-the-isle-dragon-roars-demo.jpg",
  "icon_url": "https://lutris.net/games/icon/voice-of-cards-the-isle-dragon-roars-demo.png",
  "coverart": null,
  "platforms": [],
  "provider_games": [
    {
      "name": "Voice of Cards: The Isle Dragon Roars Demo",
      "slug": "1457790",
      "service": "steam"
    }
  ],
  "aliases": [],
  "shaders": [],
  "discord_id": "",
  "change_for": null
}