{
  "id": 202690,
  "name": "Building Destruction",
  "slug": "building-destruction",
  "year": null,
  "banner_url": "",
  "icon_url": "",
  "coverart": "https://lutris.net/media/igdb/cover_big/co4jwc.jpg",
  "platforms": [],
  "provider_games": [
    {
      "name": "Building Destruction",
      "slug": "building-destruction",
      "service": "igdb"
    }
  ],
  "aliases": [],
  "shaders": [],
  "discord_id": "",
  "change_for": null
}