{
  "id": 254973,
  "name": "Fuzzys Quest 2",
  "slug": "fuzzys-quest-2",
  "year": null,
  "banner_url": "",
  "icon_url": "",
  "coverart": "https://lutris.net/media/igdb/cover_big/co6xm9.jpg",
  "platforms": [],
  "provider_games": [
    {
      "name": "Fuzzys Quest 2",
      "slug": "fuzzys-quest-2",
      "service": "igdb"
    }
  ],
  "aliases": [],
  "shaders": [],
  "discord_id": "",
  "change_for": null
}