{
  "id": 249591,
  "name": "Solemn Knights: Entirely Ours",
  "slug": "solemn-knights-entirely-ours",
  "year": null,
  "banner_url": "",
  "icon_url": "",
  "coverart": "https://lutris.net/media/igdb/cover_big/co6npx.jpg",
  "platforms": [],
  "provider_games": [
    {
      "name": "Solemn Knights: Entirely Ours",
      "slug": "solemn-knights-entirely-ours",
      "service": "igdb"
    }
  ],
  "aliases": [],
  "shaders": [],
  "discord_id": "",
  "change_for": null
}