{
  "id": 21803,
  "name": "Kode Studio",
  "slug": "kode-studio",
  "year": null,
  "banner_url": "https://lutris.net/games/banner/kode-studio.jpg",
  "icon_url": "https://lutris.net/games/icon/kode-studio.png",
  "coverart": null,
  "platforms": [],
  "provider_games": [
    {
      "name": "Kode Studio",
      "slug": "779260",
      "service": "steam"
    }
  ],
  "aliases": [],
  "shaders": [],
  "discord_id": "",
  "change_for": null
}