{
  "id": 50496,
  "name": "SpongeBob Squarepants: Battle For Bikini Bottom - Rehydrated: Shiny Edition",
  "slug": "spongebob-squarepants-battle-for-bikini-bottom-rehydrated-shiny-edition",
  "year": null,
  "banner_url": "",
  "icon_url": "",
  "coverart": "https://lutris.net/media/igdb/cover_big/co5axl.jpg",
  "platforms": [],
  "provider_games": [
    {
      "name": "SpongeBob Squarepants: Battle For Bikini Bottom - Rehydrated: Shiny Edition",
      "slug": "spongebob-squarepants-battle-for-bikini-bottom-rehydrated-shiny-edition",
      "service": "igdb"
    }
  ],
  "aliases": [],
  "shaders": [],
  "discord_id": "",
  "change_for": null
}