{
  "id": 298584,
  "name": "Yay! Spring Trip with My Coworkers!",
  "slug": "yay-spring-trip-with-my-coworkers",
  "year": 2024,
  "banner_url": "",
  "icon_url": "",
  "coverart": "https://lutris.net/media/igdb/cover_big/co8wzv.jpg",
  "platforms": [
    {
      "name": "Browser"
    },
    {
      "name": "Linux"
    },
    {
      "name": "Mac"
    },
    {
      "name": "Windows"
    }
  ],
  "provider_games": [
    {
      "name": "Yay! Spring Trip with My Coworkers!",
      "slug": "yay-spring-trip-with-my-coworkers",
      "service": "igdb"
    }
  ],
  "aliases": [],
  "shaders": [],
  "discord_id": "",
  "change_for": null
}