{
  "id": 305398,
  "name": "Cake Platformer",
  "slug": "cake-platformer",
  "year": null,
  "banner_url": "",
  "icon_url": "",
  "coverart": null,
  "platforms": [],
  "provider_games": [
    {
      "name": "Cake Platformer",
      "slug": "cake-platformer",
      "service": "igdb"
    }
  ],
  "aliases": [],
  "shaders": [],
  "discord_id": "",
  "change_for": null
}