{
  "id": 3328,
  "name": "Platypus",
  "slug": "platypus",
  "year": 2002,
  "banner_url": "https://lutris.net/games/banner/platypus.jpg",
  "icon_url": "https://lutris.net/games/icon/platypus.png",
  "coverart": "https://lutris.net/media/igdb/cover_big/co2ejm.jpg",
  "platforms": [
    {
      "name": "Windows"
    }
  ],
  "provider_games": [
    {
      "name": "Platypus",
      "slug": "307340",
      "service": "steam"
    },
    {
      "name": "Platypus",
      "slug": "platypus",
      "service": "igdb"
    }
  ],
  "aliases": [],
  "shaders": [],
  "discord_id": "",
  "change_for": null
}