{
  "id": 140274,
  "name": "LightBall",
  "slug": "lightball",
  "year": null,
  "banner_url": "",
  "icon_url": "",
  "coverart": "https://lutris.net/media/igdb/cover_big/co3scw.jpg",
  "platforms": [],
  "provider_games": [
    {
      "name": "LightBall",
      "slug": "lightball",
      "service": "igdb"
    }
  ],
  "aliases": [],
  "shaders": [],
  "discord_id": "",
  "change_for": null
}