{
  "id": 74274,
  "name": "Witty Cat",
  "slug": "witty-cat",
  "year": null,
  "banner_url": "",
  "icon_url": "",
  "coverart": "https://lutris.net/media/igdb/cover_big/co4lg8.jpg",
  "platforms": [],
  "provider_games": [
    {
      "name": "Witty Cat",
      "slug": "witty-cat",
      "service": "igdb"
    }
  ],
  "aliases": [],
  "shaders": [],
  "discord_id": "",
  "change_for": null
}