{
  "id": 107234,
  "name": "RivWorld",
  "slug": "rivworld",
  "year": null,
  "banner_url": "",
  "icon_url": "",
  "coverart": "https://lutris.net/media/igdb/cover_big/co2uxo.jpg",
  "platforms": [],
  "provider_games": [
    {
      "name": "RivWorld",
      "slug": "rivworld",
      "service": "igdb"
    }
  ],
  "aliases": [],
  "shaders": [],
  "discord_id": "",
  "change_for": null
}