{
  "id": 157732,
  "name": "Westmark Manor",
  "slug": "westmark-manor",
  "year": 2020,
  "banner_url": "",
  "icon_url": "",
  "coverart": "https://lutris.net/media/igdb/cover_big/co2c4h.jpg",
  "platforms": [
    {
      "name": "Windows"
    }
  ],
  "provider_games": [
    {
      "name": "Westmark Manor",
      "slug": "2062288372",
      "service": "gog"
    },
    {
      "name": "Westmark Manor",
      "slug": "westmark-manor",
      "service": "igdb"
    }
  ],
  "aliases": [],
  "shaders": [],
  "discord_id": "",
  "change_for": null
}