{
  "id": 279336,
  "name": "Backflip",
  "slug": "backflip",
  "year": null,
  "banner_url": "",
  "icon_url": "",
  "coverart": "https://lutris.net/media/igdb/cover_big/co7z6b.jpg",
  "platforms": [],
  "provider_games": [
    {
      "name": "Backflip",
      "slug": "backflip",
      "service": "igdb"
    }
  ],
  "aliases": [],
  "shaders": [],
  "discord_id": "",
  "change_for": null
}