{
  "id": 5834,
  "name": "Pingus",
  "slug": "pingus",
  "year": 1998,
  "banner_url": "https://lutris.net/games/banner/pingus.jpg",
  "icon_url": "https://lutris.net/games/icon/pingus.png",
  "coverart": "https://lutris.net/media/igdb/cover_big/co2yhd.jpg",
  "platforms": [
    {
      "name": "Linux"
    },
    {
      "name": "Mac"
    },
    {
      "name": "Windows"
    }
  ],
  "provider_games": [
    {
      "name": "Pingus",
      "slug": "pingus",
      "service": "igdb"
    }
  ],
  "aliases": [],
  "shaders": [],
  "discord_id": "",
  "change_for": null
}