{
  "id": 62740,
  "name": "My Fireplace",
  "slug": "my-fireplace",
  "year": null,
  "banner_url": "",
  "icon_url": "",
  "coverart": "https://lutris.net/media/igdb/cover_big/ruriw5alcb289mlespbk.jpg",
  "platforms": [],
  "provider_games": [
    {
      "name": "My Fireplace",
      "slug": "my-fireplace",
      "service": "igdb"
    }
  ],
  "aliases": [],
  "shaders": [],
  "discord_id": "",
  "change_for": null
}