{
  "id": 100950,
  "name": "Haunted Hotel: Room 18",
  "slug": "haunted-hotel-room-18",
  "year": null,
  "banner_url": "",
  "icon_url": "",
  "coverart": "https://lutris.net/media/igdb/cover_big/co4dsi.jpg",
  "platforms": [],
  "provider_games": [
    {
      "name": "Haunted Hotel: Room 18",
      "slug": "haunted-hotel-room-18",
      "service": "igdb"
    }
  ],
  "aliases": [],
  "shaders": [],
  "discord_id": "",
  "change_for": null
}