{
  "id": 273122,
  "name": "Ruins of the Forgotten: A Wild Survival",
  "slug": "ruins-of-the-forgotten-a-wild-survival",
  "year": null,
  "banner_url": "",
  "icon_url": "",
  "coverart": "https://lutris.net/media/igdb/cover_big/co7qog.jpg",
  "platforms": [],
  "provider_games": [
    {
      "name": "Ruins of the Forgotten: A Wild Survival",
      "slug": "ruins-of-the-forgotten-a-wild-survival",
      "service": "igdb"
    }
  ],
  "aliases": [],
  "shaders": [],
  "discord_id": "",
  "change_for": null
}