{
  "id": 4662,
  "name": "Tasty Blue",
  "slug": "tasty-blue",
  "year": 2015,
  "banner_url": "https://lutris.net/games/banner/tasty-blue.jpg",
  "icon_url": "https://lutris.net/games/icon/tasty-blue.png",
  "coverart": "https://lutris.net/media/igdb/cover_big/co42xz.jpg",
  "platforms": [
    {
      "name": "Mac"
    },
    {
      "name": "Windows"
    }
  ],
  "provider_games": [
    {
      "name": "Tasty Blue",
      "slug": "345200",
      "service": "steam"
    },
    {
      "name": "Tasty Blue",
      "slug": "tasty-blue",
      "service": "igdb"
    }
  ],
  "aliases": [],
  "shaders": [],
  "discord_id": "",
  "change_for": null
}