{
  "id": 245574,
  "name": "Digit-Com 9: Electronic Baseball",
  "slug": "digit-com-9-electronic-baseball",
  "year": 1979,
  "banner_url": "",
  "icon_url": "",
  "coverart": null,
  "platforms": [],
  "provider_games": [
    {
      "name": "Digit-Com 9: Electronic Baseball",
      "slug": "digit-com-9-electronic-baseball",
      "service": "igdb"
    }
  ],
  "aliases": [],
  "shaders": [],
  "discord_id": "",
  "change_for": null
}