{
  "id": 235767,
  "name": "Petka 6: Novaya Realnost",
  "slug": "petka-6-novaya-realnost",
  "year": 2005,
  "banner_url": "",
  "icon_url": "",
  "coverart": null,
  "platforms": [
    {
      "name": "Windows"
    }
  ],
  "provider_games": [
    {
      "name": "Petka 6: Novaya Realnost",
      "slug": "petka-6-novaya-realnost",
      "service": "igdb"
    }
  ],
  "aliases": [],
  "shaders": [],
  "discord_id": "",
  "change_for": null
}