{
  "id": 245829,
  "name": "Super Hero League of Hoboken",
  "slug": "super-hero-league-of-hoboken",
  "year": null,
  "banner_url": "https://lutris.net/games/banner/super-hero-league-of-hoboken.jpg",
  "icon_url": "https://lutris.net/games/icon/super-hero-league-of-hoboken.png",
  "coverart": null,
  "platforms": [],
  "provider_games": [
    {
      "name": "Super Hero League of Hoboken",
      "slug": "1104470",
      "service": "steam"
    }
  ],
  "aliases": [],
  "shaders": [],
  "discord_id": "",
  "change_for": null
}