{
  "id": 50294,
  "name": "Payday 2: Ultimate Edition",
  "slug": "payday-2-ultimate-edition",
  "year": 2017,
  "banner_url": "",
  "icon_url": "",
  "coverart": "https://lutris.net/media/igdb/cover_big/co2etv.jpg",
  "platforms": [
    {
      "name": "Windows"
    }
  ],
  "provider_games": [
    {
      "name": "Payday 2: Ultimate Edition",
      "slug": "payday-2-ultimate-edition",
      "service": "igdb"
    }
  ],
  "aliases": [],
  "shaders": [],
  "discord_id": "",
  "change_for": null
}