{
  "id": 276254,
  "name": "Kaidro: Clan Battles",
  "slug": "kaidro-clan-battles",
  "year": null,
  "banner_url": "",
  "icon_url": "",
  "coverart": "https://lutris.net/media/igdb/cover_big/co7usw.jpg",
  "platforms": [],
  "provider_games": [
    {
      "name": "Kaidro: Clan Battles",
      "slug": "kaidro-clan-battles",
      "service": "igdb"
    }
  ],
  "aliases": [],
  "shaders": [],
  "discord_id": "",
  "change_for": null
}