{
  "id": 120172,
  "name": "Saint Paul",
  "slug": "saint-paul",
  "year": null,
  "banner_url": "",
  "icon_url": "",
  "coverart": "https://lutris.net/media/igdb/cover_big/co53ne.jpg",
  "platforms": [],
  "provider_games": [
    {
      "name": "Saint Paul",
      "slug": "saint-paul",
      "service": "igdb"
    }
  ],
  "aliases": [],
  "shaders": [],
  "discord_id": "",
  "change_for": null
}