{
  "id": 140970,
  "name": "Ginga Eiyuu Densetsu",
  "slug": "ginga-eiyuu-densetsu",
  "year": 1989,
  "banner_url": "",
  "icon_url": "",
  "coverart": "https://lutris.net/media/igdb/cover_big/co3055.jpg",
  "platforms": [
    {
      "name": "Family Computer"
    },
    {
      "name": "Super Nintendo"
    }
  ],
  "provider_games": [
    {
      "name": "Ginga Eiyuu Densetsu",
      "slug": "ginga-eiyuu-densetsu",
      "service": "igdb"
    }
  ],
  "aliases": [],
  "shaders": [],
  "discord_id": "",
  "change_for": null
}