{
  "id": 239791,
  "name": "DobbyxEscape: Spooky Adventure",
  "slug": "dobbyxescape-spooky-adventure",
  "year": null,
  "banner_url": "",
  "icon_url": "",
  "coverart": "https://lutris.net/media/igdb/cover_big/co6291.jpg",
  "platforms": [],
  "provider_games": [
    {
      "name": "DobbyxEscape: Spooky Adventure",
      "slug": "dobbyxescape-spooky-adventure",
      "service": "igdb"
    }
  ],
  "aliases": [],
  "shaders": [],
  "discord_id": "",
  "change_for": null
}