{
  "id": 227136,
  "name": "FIFA 23: Deluxe Edition",
  "slug": "fifa-23-deluxe-edition",
  "year": 2022,
  "banner_url": "",
  "icon_url": "",
  "coverart": null,
  "platforms": [
    {
      "name": "Windows"
    },
    {
      "name": "Xbox One"
    },
    {
      "name": "Xbox Series X|S"
    }
  ],
  "provider_games": [
    {
      "name": "FIFA 23: Deluxe Edition",
      "slug": "fifa-23-deluxe-edition",
      "service": "igdb"
    }
  ],
  "aliases": [],
  "shaders": [],
  "discord_id": "",
  "change_for": null
}