{
  "id": 254862,
  "name": "Rock Star Life Simulator",
  "slug": "rock-star-life-simulator",
  "year": null,
  "banner_url": "",
  "icon_url": "",
  "coverart": "https://lutris.net/media/igdb/cover_big/co6weh.jpg",
  "platforms": [],
  "provider_games": [
    {
      "name": "Rock Star Life Simulator",
      "slug": "rock-star-life-simulator",
      "service": "igdb"
    }
  ],
  "aliases": [],
  "shaders": [],
  "discord_id": "",
  "change_for": null
}