{
  "id": 76157,
  "name": "ZENONIA S: Rifts In Time",
  "slug": "zenonia-s-rifts-in-time",
  "year": null,
  "banner_url": "",
  "icon_url": "",
  "coverart": "https://lutris.net/media/igdb/cover_big/co62ah.jpg",
  "platforms": [],
  "provider_games": [
    {
      "name": "Zenonia S: Rifts in Time",
      "slug": "zenonia-s-rifts-in-time",
      "service": "igdb"
    }
  ],
  "aliases": [],
  "shaders": [],
  "discord_id": "",
  "change_for": null
}