{
  "id": 170862,
  "name": "Mystery Solitaire: Dreamcatcher",
  "slug": "mystery-solitaire-dreamcatcher",
  "year": null,
  "banner_url": "https://lutris.net/games/banner/mystery-solitaire-dreamcatcher.jpg",
  "icon_url": "",
  "coverart": "https://lutris.net/media/igdb/cover_big/co470s.jpg",
  "platforms": [],
  "provider_games": [
    {
      "name": "Mystery Solitaire: Dreamcatcher",
      "slug": "mystery-solitaire-dreamcatcher",
      "service": "igdb"
    },
    {
      "name": "Mystery Solitaire. Dreamcatcher",
      "slug": "1263540",
      "service": "steam"
    }
  ],
  "aliases": [],
  "shaders": [],
  "discord_id": "",
  "change_for": null
}