{
  "id": 163962,
  "name": "Secret Of Dungeon",
  "slug": "secret-of-dungeon",
  "year": null,
  "banner_url": "",
  "icon_url": "",
  "coverart": "https://lutris.net/media/igdb/cover_big/co40ws.jpg",
  "platforms": [],
  "provider_games": [
    {
      "name": "Secret of Dungeon",
      "slug": "secret-of-dungeon",
      "service": "igdb"
    }
  ],
  "aliases": [],
  "shaders": [],
  "discord_id": "",
  "change_for": null
}