{
  "id": 103494,
  "name": "Resident Evil 5: Steelbook Edition",
  "slug": "resident-evil-5-steelbook-edition",
  "year": 2009,
  "banner_url": "",
  "icon_url": "",
  "coverart": "https://lutris.net/media/igdb/cover_big/co2nxf.jpg",
  "platforms": [
    {
      "name": "Sony Playstation 3"
    }
  ],
  "provider_games": [
    {
      "name": "Resident Evil 5: Steelbook Edition",
      "slug": "resident-evil-5-steelbook-edition",
      "service": "igdb"
    }
  ],
  "aliases": [],
  "shaders": [],
  "discord_id": "",
  "change_for": null
}