{
  "id": 23541,
  "name": "Dolphins-Cyborgs and open space",
  "slug": "dolphins-cyborgs-and-open-space",
  "year": 2017,
  "banner_url": "https://lutris.net/games/banner/dolphins-cyborgs-and-open-space.jpg",
  "icon_url": "https://lutris.net/games/icon/dolphins-cyborgs-and-open-space.png",
  "coverart": "https://lutris.net/media/igdb/cover_big/co2aw0.jpg",
  "platforms": [
    {
      "name": "Windows"
    }
  ],
  "provider_games": [
    {
      "name": "Dolphins-Cyborgs and open space",
      "slug": "767170",
      "service": "steam"
    },
    {
      "name": "Dolphins-Cyborgs and open space",
      "slug": "dolphins-cyborgs-and-open-space",
      "service": "igdb"
    }
  ],
  "aliases": [],
  "shaders": [],
  "discord_id": "",
  "change_for": null
}