{
  "id": 24285,
  "name": "Axis Football 2018",
  "slug": "axis-football-2018",
  "year": 2018,
  "banner_url": "https://lutris.net/games/banner/axis-football-2018.jpg",
  "icon_url": "https://lutris.net/games/icon/axis-football-2018.png",
  "coverart": "https://lutris.net/media/igdb/cover_big/co28ur.jpg",
  "platforms": [
    {
      "name": "Linux"
    },
    {
      "name": "Sony Playstation 4"
    },
    {
      "name": "Windows"
    },
    {
      "name": "Xbox One"
    }
  ],
  "provider_games": [
    {
      "name": "Axis Football 2018",
      "slug": "932980",
      "service": "steam"
    },
    {
      "name": "Axis Football 2018",
      "slug": "axis-football-2018",
      "service": "igdb"
    }
  ],
  "aliases": [],
  "shaders": [],
  "discord_id": "",
  "change_for": null
}