{
  "id": 82712,
  "name": "Spiky Harold",
  "slug": "spiky-harold",
  "year": 1986,
  "banner_url": "",
  "icon_url": "",
  "coverart": "https://lutris.net/media/igdb/cover_big/bryj7p6b0sk4tg0fvrre.jpg",
  "platforms": [
    {
      "name": "Amstrad CPC"
    },
    {
      "name": "Atari 8-bit"
    },
    {
      "name": "Commodore 16"
    },
    {
      "name": "Commodore C64/128"
    },
    {
      "name": "ZX Spectrum"
    }
  ],
  "provider_games": [
    {
      "name": "Spiky Harold",
      "slug": "spiky-harold",
      "service": "igdb"
    }
  ],
  "aliases": [],
  "shaders": [],
  "discord_id": "",
  "change_for": null
}