{
  "id": 296985,
  "name": "Bussy Master: Halloween Advent 2024",
  "slug": "bussy-master-halloween-advent-2024",
  "year": 2024,
  "banner_url": "",
  "icon_url": "",
  "coverart": "https://lutris.net/media/igdb/cover_big/co8vsu.jpg",
  "platforms": [
    {
      "name": "Windows"
    }
  ],
  "provider_games": [
    {
      "name": "Bussy Master: Halloween Advent 2024",
      "slug": "bussy-master-halloween-advent-2024",
      "service": "igdb"
    }
  ],
  "aliases": [],
  "shaders": [],
  "discord_id": "",
  "change_for": null
}