{
  "id": 246761,
  "name": "Terrierble Logic",
  "slug": "terrierble-logic",
  "year": null,
  "banner_url": "",
  "icon_url": "",
  "coverart": "https://lutris.net/media/igdb/cover_big/co6jp9.jpg",
  "platforms": [],
  "provider_games": [
    {
      "name": "Terrierble Logic",
      "slug": "terrierble-logic",
      "service": "igdb"
    }
  ],
  "aliases": [],
  "shaders": [],
  "discord_id": "",
  "change_for": null
}