{
  "id": 282418,
  "name": "I Fell In Love With A Fantasy Farmer",
  "slug": "i-fell-in-love-with-a-fantasy-farmer",
  "year": null,
  "banner_url": "",
  "icon_url": "",
  "coverart": null,
  "platforms": [],
  "provider_games": [
    {
      "name": "I Fell In Love With A Fantasy Farmer",
      "slug": "i-fell-in-love-with-a-fantasy-farmer",
      "service": "igdb"
    }
  ],
  "aliases": [],
  "shaders": [],
  "discord_id": "",
  "change_for": null
}