{
  "id": 168421,
  "name": "Triblock",
  "slug": "triblock",
  "year": null,
  "banner_url": "",
  "icon_url": "",
  "coverart": "https://lutris.net/media/igdb/cover_big/co44x9.jpg",
  "platforms": [],
  "provider_games": [
    {
      "name": "Triblock",
      "slug": "triblock",
      "service": "igdb"
    }
  ],
  "aliases": [],
  "shaders": [],
  "discord_id": "",
  "change_for": null
}