{
  "id": 90188,
  "name": "Dark Worlds - Age of Wars",
  "slug": "dark-worlds-age-of-wars",
  "year": null,
  "banner_url": "",
  "icon_url": "",
  "coverart": null,
  "platforms": [],
  "provider_games": [
    {
      "name": "Dark Worlds - Age of Wars",
      "slug": "dark-worlds-age-of-wars",
      "service": "igdb"
    }
  ],
  "aliases": [],
  "shaders": [],
  "discord_id": "",
  "change_for": null
}