{
  "id": 1045,
  "name": "Door Kickers",
  "slug": "door-kickers",
  "year": 2014,
  "banner_url": "https://lutris.net/games/banner/door-kickers.jpg",
  "icon_url": "https://lutris.net/games/icon/door-kickers.png",
  "coverart": "https://lutris.net/media/igdb/cover_big/co1r1y.jpg",
  "platforms": [
    {
      "name": "Android"
    },
    {
      "name": "Linux"
    },
    {
      "name": "Mac"
    },
    {
      "name": "Nintendo Switch"
    },
    {
      "name": "Windows"
    }
  ],
  "provider_games": [
    {
      "name": "Door Kickers",
      "slug": "1207666463",
      "service": "gog"
    },
    {
      "name": "Door Kickers",
      "slug": "doorkickers",
      "service": "humblebundle"
    },
    {
      "name": "Door Kickers",
      "slug": "248610",
      "service": "steam"
    },
    {
      "name": "Door Kickers",
      "slug": "door-kickers",
      "service": "igdb"
    }
  ],
  "aliases": [],
  "shaders": [],
  "discord_id": "451541104643538944",
  "change_for": null
}