{
  "id": 228680,
  "name": "Senren * Banka",
  "slug": "senren-banka",
  "year": 2020,
  "banner_url": "",
  "icon_url": "",
  "coverart": null,
  "platforms": [
    {
      "name": "Nintendo Switch"
    },
    {
      "name": "Windows"
    }
  ],
  "provider_games": [
    {
      "name": "Senren * Banka",
      "slug": "1453911006",
      "service": "gog"
    },
    {
      "name": "Senren Banka",
      "slug": "senren-banka",
      "service": "igdb"
    }
  ],
  "aliases": [],
  "shaders": [],
  "discord_id": "",
  "change_for": null
}