{
  "id": 2648,
  "name": "Trainz: Classic Cabon City",
  "slug": "trainz-classic-cabon-city",
  "year": 2010,
  "banner_url": "https://lutris.net/games/banner/trainz-classic-cabon-city.jpg",
  "icon_url": "https://lutris.net/games/icon/trainz-classic-cabon-city.png",
  "coverart": "https://lutris.net/media/igdb/cover_big/hyqrilq6tkqr3buahlhv.jpg",
  "platforms": [
    {
      "name": "Linux"
    },
    {
      "name": "Windows"
    }
  ],
  "provider_games": [
    {
      "name": "Trainz: Classic Cabon City",
      "slug": "24640",
      "service": "steam"
    },
    {
      "name": "Trainz: Classic Cabon City",
      "slug": "trainz-classic-cabon-city",
      "service": "igdb"
    }
  ],
  "aliases": [],
  "shaders": [],
  "discord_id": "",
  "change_for": null
}