{
  "id": 217942,
  "name": "Last Viking: God of Valhalla",
  "slug": "last-viking-god-of-valhalla",
  "year": null,
  "banner_url": "",
  "icon_url": "",
  "coverart": null,
  "platforms": [],
  "provider_games": [
    {
      "name": "Last Viking: God of Valhalla",
      "slug": "last-viking-god-of-valhalla",
      "service": "igdb"
    }
  ],
  "aliases": [],
  "shaders": [],
  "discord_id": "",
  "change_for": null
}