{
  "id": 188624,
  "name": "HWY3310",
  "slug": "hwy3310",
  "year": null,
  "banner_url": "",
  "icon_url": "",
  "coverart": null,
  "platforms": [],
  "provider_games": [
    {
      "name": "HWY3310",
      "slug": "hwy3310",
      "service": "igdb"
    }
  ],
  "aliases": [],
  "shaders": [],
  "discord_id": "",
  "change_for": null
}