{
  "id": 271766,
  "name": "Little Heroes",
  "slug": "little-heroes",
  "year": null,
  "banner_url": "",
  "icon_url": "",
  "coverart": "https://lutris.net/media/igdb/cover_big/co7n94.jpg",
  "platforms": [],
  "provider_games": [
    {
      "name": "Little Heroes",
      "slug": "little-heroes",
      "service": "igdb"
    }
  ],
  "aliases": [],
  "shaders": [],
  "discord_id": "",
  "change_for": null
}