{
  "id": 260380,
  "name": "The Scourge",
  "slug": "the-scourge",
  "year": null,
  "banner_url": "",
  "icon_url": "",
  "coverart": "https://lutris.net/media/igdb/cover_big/co73ex.jpg",
  "platforms": [],
  "provider_games": [
    {
      "name": "The Scourge",
      "slug": "the-scourge",
      "service": "igdb"
    }
  ],
  "aliases": [],
  "shaders": [],
  "discord_id": "",
  "change_for": null
}