{
  "id": 10461,
  "name": "Dungeon League",
  "slug": "dungeon-league",
  "year": 2015,
  "banner_url": "https://lutris.net/games/banner/dungeon-league.jpg",
  "icon_url": "https://lutris.net/games/icon/dungeon-league.png",
  "coverart": "https://lutris.net/media/igdb/cover_big/hhztchmbrjhqgb42vvwo.jpg",
  "platforms": [
    {
      "name": "Linux"
    },
    {
      "name": "Mac"
    },
    {
      "name": "Windows"
    }
  ],
  "provider_games": [
    {
      "name": "Dungeon League",
      "slug": "362310",
      "service": "steam"
    },
    {
      "name": "Dungeon League",
      "slug": "dungeon-league",
      "service": "igdb"
    }
  ],
  "aliases": [],
  "shaders": [],
  "discord_id": "",
  "change_for": null
}