{
  "id": 60764,
  "name": "Crazy Fairies",
  "slug": "crazy-fairies",
  "year": null,
  "banner_url": "",
  "icon_url": "",
  "coverart": "https://lutris.net/media/igdb/cover_big/aimcqi5elsjidyztewm4.jpg",
  "platforms": [],
  "provider_games": [
    {
      "name": "Crazy Fairies",
      "slug": "crazy-fairies",
      "service": "igdb"
    }
  ],
  "aliases": [],
  "shaders": [],
  "discord_id": "",
  "change_for": null
}