{
  "id": 280256,
  "name": "Escape From The Island",
  "slug": "escape-from-the-island--1",
  "year": null,
  "banner_url": "",
  "icon_url": "",
  "coverart": "https://lutris.net/media/igdb/cover_big/co80my.jpg",
  "platforms": [],
  "provider_games": [
    {
      "name": "Escape From The Island",
      "slug": "escape-from-the-island--1",
      "service": "igdb"
    }
  ],
  "aliases": [],
  "shaders": [],
  "discord_id": "",
  "change_for": null
}