{
  "id": 75089,
  "name": "Nth^0: Infinity Reborn",
  "slug": "nth-0-infinity-reborn",
  "year": null,
  "banner_url": "",
  "icon_url": "",
  "coverart": null,
  "platforms": [],
  "provider_games": [
    {
      "name": "Nth^0: Infinity Reborn",
      "slug": "nth-0-infinity-reborn",
      "service": "igdb"
    }
  ],
  "aliases": [],
  "shaders": [],
  "discord_id": "",
  "change_for": null
}