{
  "id": 56409,
  "name": "Doraemon Minna de Yuubou!",
  "slug": "doraemon-minna-de-yuubou",
  "year": 2003,
  "banner_url": "",
  "icon_url": "",
  "coverart": "https://lutris.net/media/igdb/cover_big/gu8idpie0igdam7aicrz.jpg",
  "platforms": [
    {
      "name": "Nintendo GameCube"
    }
  ],
  "provider_games": [
    {
      "name": "Doraemon Minna de Yuubou!",
      "slug": "doraemon-minna-de-yuubou",
      "service": "igdb"
    }
  ],
  "aliases": [],
  "shaders": [],
  "discord_id": "",
  "change_for": null
}