{
  "id": 136003,
  "name": "Vicious Gambling Agreement",
  "slug": "vicious-gambling-agreement",
  "year": 2020,
  "banner_url": "",
  "icon_url": "",
  "coverart": "https://lutris.net/media/igdb/cover_big/co3ont.jpg",
  "platforms": [
    {
      "name": "Windows"
    }
  ],
  "provider_games": [
    {
      "name": "Vicious Gambling Agreement",
      "slug": "vicious-gambling-agreement",
      "service": "igdb"
    }
  ],
  "aliases": [],
  "shaders": [],
  "discord_id": "",
  "change_for": null
}