{
  "id": 30014,
  "name": "Grim Wanderings",
  "slug": "grim-wanderings",
  "year": null,
  "banner_url": "https://lutris.net/games/banner/grim-wanderings.jpg",
  "icon_url": "https://lutris.net/games/icon/grim-wanderings.png",
  "coverart": null,
  "platforms": [],
  "provider_games": [
    {
      "name": "Grim Wanderings",
      "slug": "799620",
      "service": "steam"
    },
    {
      "name": "Grim Wanderings",
      "slug": "grim-wanderings",
      "service": "igdb"
    }
  ],
  "aliases": [],
  "shaders": [],
  "discord_id": "",
  "change_for": null
}