{
  "id": 56437,
  "name": "Littlest Pet Shop Friends",
  "slug": "littlest-pet-shop-friends",
  "year": null,
  "banner_url": "",
  "icon_url": "",
  "coverart": "https://lutris.net/media/igdb/cover_big/lkunacgmg0igz9qdmxzv.jpg",
  "platforms": [],
  "provider_games": [
    {
      "name": "Littlest Pet Shop Friends",
      "slug": "littlest-pet-shop-friends",
      "service": "igdb"
    }
  ],
  "aliases": [],
  "shaders": [],
  "discord_id": "",
  "change_for": null
}