{
  "id": 53860,
  "name": "Mayday: Conflict Earth",
  "slug": "mayday-conflict-earth",
  "year": 2000,
  "banner_url": "",
  "icon_url": "",
  "coverart": "https://lutris.net/media/igdb/cover_big/uqszqeuy06idzmvmhsup.jpg",
  "platforms": [
    {
      "name": "Windows"
    }
  ],
  "provider_games": [
    {
      "name": "Mayday: Conflict Earth",
      "slug": "mayday-conflict-earth",
      "service": "igdb"
    }
  ],
  "aliases": [],
  "shaders": [],
  "discord_id": "",
  "change_for": null
}