{
  "id": 127768,
  "name": "剑与羁绊",
  "slug": "jian-yu-ji-ban",
  "year": null,
  "banner_url": "",
  "icon_url": "",
  "coverart": "https://lutris.net/media/igdb/cover_big/co3g55.jpg",
  "platforms": [],
  "provider_games": [
    {
      "name": "Jian Yu Ji Ban",
      "slug": "jian-yu-ji-ban",
      "service": "igdb"
    }
  ],
  "aliases": [],
  "shaders": [],
  "discord_id": "",
  "change_for": null
}