{
  "id": 34811,
  "name": "Mahjong Studio 101 [BET]",
  "slug": "mahjong-studio-101-bet",
  "year": 1988,
  "banner_url": "",
  "icon_url": "https://lutris.net/games/icon/mahjong-studio-101-bet.png",
  "coverart": null,
  "platforms": [
    {
      "name": "Arcade"
    }
  ],
  "provider_games": [
    {
      "name": "Mahjong Studio 101 [BET]",
      "slug": "majs101b",
      "service": "mame"
    }
  ],
  "aliases": [],
  "shaders": [],
  "discord_id": "",
  "change_for": null
}