{
  "id": 153869,
  "name": "Osyaberi! Puzzle Chigatan ～Spot the Differences with Everyone～",
  "slug": "osyaberi-puzzle-chigatan-spot-the-differences-with-everyone",
  "year": 2021,
  "banner_url": "",
  "icon_url": "",
  "coverart": "https://lutris.net/media/igdb/cover_big/co4df6.jpg",
  "platforms": [
    {
      "name": "Nintendo Switch"
    }
  ],
  "provider_games": [
    {
      "name": "Osyaberi! Puzzle Chigatan: Spot the Differences with Everyone",
      "slug": "osyaberi-puzzle-chigatan-spot-the-differences-with-everyone",
      "service": "igdb"
    }
  ],
  "aliases": [],
  "shaders": [],
  "discord_id": "",
  "change_for": null
}