{
  "id": 168766,
  "name": "Legend of Heroes : Eternal Arena",
  "slug": "legend-of-heroes-eternal-arena",
  "year": null,
  "banner_url": "",
  "icon_url": "",
  "coverart": "https://lutris.net/media/igdb/cover_big/co4583.jpg",
  "platforms": [],
  "provider_games": [
    {
      "name": "Legend of Heroes: Eternal Arena",
      "slug": "legend-of-heroes-eternal-arena",
      "service": "igdb"
    }
  ],
  "aliases": [],
  "shaders": [],
  "discord_id": "",
  "change_for": null
}