{
  "id": 90408,
  "name": "Tormentum - Mystery Adventure",
  "slug": "tormentum-mystery-adventure",
  "year": null,
  "banner_url": "",
  "icon_url": "",
  "coverart": null,
  "platforms": [],
  "provider_games": [
    {
      "name": "Tormentum - Mystery Adventure",
      "slug": "tormentum-mystery-adventure",
      "service": "igdb"
    }
  ],
  "aliases": [],
  "shaders": [],
  "discord_id": "",
  "change_for": null
}