{
  "id": 6869,
  "game_id": 15298,
  "game_slug": "incredible-crisis",
  "name": "Incredible Crisis",
  "year": 1999,
  "user": "FakeShemp",
  "runner": "libretro",
  "slug": "incredible-crisis-playstation",
  "version": "PlayStation",
  "description": null,
  "notes": "",
  "credits": "",
  "created_at": "2017-12-26T19:43:08.546587Z",
  "updated_at": "2017-12-26T19:47:09.065386Z",
  "draft": false,
  "published": true,
  "published_by": null,
  "rating": "",
  "is_playable": null,
  "steamid": null,
  "gogid": null,
  "gogslug": "",
  "humbleid": "",
  "humblestoreid": "",
  "humblestoreid_real": "",
  "script": {
    "files": [
      {
        "file1": "N/A:Please select the PlayStation image file"
      }
    ],
    "game": {
      "core": "mednafen_psx_hw",
      "main_file": "file1"
    },
    "installer": [
      {
        "merge": {
          "dst": "$GAMEDIR",
          "src": "file1"
        }
      }
    ]
  },
  "content": "files:\n- file1: N/A:Please select the PlayStation image file\ngame:\n  core: mednafen_psx_hw\n  main_file: file1\ninstaller:\n- merge:\n    dst: $GAMEDIR\n    src: file1\n",
  "discord_id": ""
}