{
  "id": 85316,
  "name": "The Legend of Mir 2",
  "slug": "the-legend-of-mir-2",
  "year": 2009,
  "banner_url": "",
  "icon_url": "",
  "coverart": "https://lutris.net/media/igdb/cover_big/fbrata4qjxb8q0d6np1g.jpg",
  "platforms": [
    {
      "name": "Windows"
    }
  ],
  "provider_games": [
    {
      "name": "The Legend of Mir 2",
      "slug": "the-legend-of-mir-2",
      "service": "igdb"
    }
  ],
  "aliases": [],
  "shaders": [],
  "discord_id": "",
  "change_for": null
}