{
  "id": 89153,
  "name": "GrassGames Cribbage",
  "slug": "grassgames-cribbage",
  "year": null,
  "banner_url": "",
  "icon_url": "",
  "coverart": null,
  "platforms": [],
  "provider_games": [
    {
      "name": "GrassGames Cribbage",
      "slug": "grassgames-cribbage",
      "service": "igdb"
    }
  ],
  "aliases": [],
  "shaders": [],
  "discord_id": "",
  "change_for": null
}