{
  "id": 97706,
  "name": "Future War and World II Bundle",
  "slug": "future-war-and-world-ii-bundle",
  "year": null,
  "banner_url": "",
  "icon_url": "",
  "coverart": null,
  "platforms": [],
  "provider_games": [
    {
      "name": "Future War and World II Bundle",
      "slug": "future-war-and-world-ii-bundle",
      "service": "igdb"
    }
  ],
  "aliases": [],
  "shaders": [],
  "discord_id": "",
  "change_for": null
}