{
  "id": 90364,
  "name": "Fairytale Fiasco - Royal Rescue",
  "slug": "fairytale-fiasco-royal-rescue",
  "year": null,
  "banner_url": "",
  "icon_url": "",
  "coverart": null,
  "platforms": [],
  "provider_games": [
    {
      "name": "Fairytale Fiasco - Royal Rescue",
      "slug": "fairytale-fiasco-royal-rescue",
      "service": "igdb"
    }
  ],
  "aliases": [],
  "shaders": [],
  "discord_id": "",
  "change_for": null
}