{
  "id": 68456,
  "name": "Zombeat",
  "slug": "zombeat",
  "year": null,
  "banner_url": "",
  "icon_url": "",
  "coverart": "https://lutris.net/media/igdb/cover_big/t2l4naewwirbqjsv48ob.jpg",
  "platforms": [],
  "provider_games": [
    {
      "name": "Zombeat",
      "slug": "zombeat",
      "service": "igdb"
    }
  ],
  "aliases": [],
  "shaders": [],
  "discord_id": "",
  "change_for": null
}