{
  "id": 55778,
  "name": "Super Rambo Special",
  "slug": "super-rambo-special",
  "year": 1986,
  "banner_url": "",
  "icon_url": "",
  "coverart": "https://lutris.net/media/igdb/cover_big/dwjefjy8mbkho73v8rey.jpg",
  "platforms": [
    {
      "name": "MSX"
    }
  ],
  "provider_games": [
    {
      "name": "Super Rambo Special",
      "slug": "super-rambo-special",
      "service": "igdb"
    }
  ],
  "aliases": [],
  "shaders": [],
  "discord_id": "",
  "change_for": null
}