{
  "id": 37905,
  "name": "Lord of the Jungle",
  "slug": "lord-of-the-jungle",
  "year": 2001,
  "banner_url": "https://lutris.net/games/banner/lord-of-the-jungle.jpg",
  "icon_url": "",
  "coverart": "https://lutris.net/media/igdb/cover_big/co2oun.jpg",
  "platforms": [
    {
      "name": "Sony PlayStation"
    }
  ],
  "provider_games": [
    {
      "name": "Lord of the Jungle",
      "slug": "lord-of-the-jungle",
      "service": "igdb"
    }
  ],
  "aliases": [],
  "shaders": [],
  "discord_id": "",
  "change_for": null
}