{
  "id": 254969,
  "name": "Shinjuku Soumei",
  "slug": "shinjuku-soumei",
  "year": null,
  "banner_url": "",
  "icon_url": "",
  "coverart": "https://lutris.net/media/igdb/cover_big/co6xbu.jpg",
  "platforms": [],
  "provider_games": [
    {
      "name": "Shinjuku Soumei",
      "slug": "shinjuku-soumei",
      "service": "igdb"
    }
  ],
  "aliases": [],
  "shaders": [],
  "discord_id": "",
  "change_for": null
}