{
  "id": 95880,
  "name": "The Fish Catching Master",
  "slug": "the-fish-catching-master",
  "year": null,
  "banner_url": "",
  "icon_url": "",
  "coverart": null,
  "platforms": [],
  "provider_games": [
    {
      "name": "The Fish Catching Master",
      "slug": "the-fish-catching-master",
      "service": "igdb"
    }
  ],
  "aliases": [],
  "shaders": [],
  "discord_id": "",
  "change_for": null
}