{
  "id": 163717,
  "name": "The Inner Light",
  "slug": "the-inner-light",
  "year": null,
  "banner_url": "",
  "icon_url": "",
  "coverart": null,
  "platforms": [],
  "provider_games": [
    {
      "name": "The Inner Light",
      "slug": "the-inner-light",
      "service": "igdb"
    }
  ],
  "aliases": [],
  "shaders": [],
  "discord_id": "",
  "change_for": null
}