{
  "id": 281400,
  "name": "Dissimilar",
  "slug": "dissimilar",
  "year": null,
  "banner_url": "",
  "icon_url": "",
  "coverart": "https://lutris.net/media/igdb/cover_big/co7z3c.jpg",
  "platforms": [],
  "provider_games": [
    {
      "name": "Dissimilar",
      "slug": "dissimilar",
      "service": "igdb"
    }
  ],
  "aliases": [],
  "shaders": [],
  "discord_id": "",
  "change_for": null
}