{
  "id": 293618,
  "name": "Stack 'Em Up",
  "slug": "stack-em-up",
  "year": null,
  "banner_url": "",
  "icon_url": "",
  "coverart": "https://lutris.net/media/igdb/cover_big/co8n6p.jpg",
  "platforms": [],
  "provider_games": [
    {
      "name": "Stack 'Em Up",
      "slug": "stack-em-up",
      "service": "igdb"
    }
  ],
  "aliases": [],
  "shaders": [],
  "discord_id": "",
  "change_for": null
}