{
  "id": 29338,
  "name": "DMT",
  "slug": "dmt",
  "year": 2018,
  "banner_url": "https://lutris.net/games/banner/dmt.jpg",
  "icon_url": "https://lutris.net/games/icon/dmt.png",
  "coverart": null,
  "platforms": [
    {
      "name": "Windows"
    }
  ],
  "provider_games": [
    {
      "name": "DMT",
      "slug": "648890",
      "service": "steam"
    },
    {
      "name": "DMT",
      "slug": "dmt",
      "service": "igdb"
    }
  ],
  "aliases": [],
  "shaders": [],
  "discord_id": "",
  "change_for": null
}