{
  "id": 121485,
  "name": "战术狂想1",
  "slug": "zhan-zhu-kuang-xiang-1",
  "year": 2017,
  "banner_url": "",
  "icon_url": "",
  "coverart": null,
  "platforms": [
    {
      "name": "Windows"
    }
  ],
  "provider_games": [
    {
      "name": "战术狂想1",
      "slug": "zhan-zhu-kuang-xiang-1",
      "service": "igdb"
    }
  ],
  "aliases": [],
  "shaders": [],
  "discord_id": "",
  "change_for": null
}