{
  "id": 266897,
  "name": "Path of Heaven",
  "slug": "path-of-heaven",
  "year": null,
  "banner_url": "",
  "icon_url": "",
  "coverart": "https://lutris.net/media/igdb/cover_big/co7eyv.jpg",
  "platforms": [],
  "provider_games": [
    {
      "name": "Path of Heaven",
      "slug": "path-of-heaven",
      "service": "igdb"
    }
  ],
  "aliases": [],
  "shaders": [],
  "discord_id": "",
  "change_for": null
}