{
  "id": 118861,
  "name": "Nightmare Adventures: The Witch's Prison",
  "slug": "nightmare-adventures-the-witchs-prison",
  "year": 2010,
  "banner_url": "https://lutris.net/games/banner/nightmare-adventures-the-witchs-prison.jpg",
  "icon_url": "",
  "coverart": "https://lutris.net/media/igdb/cover_big/co1t1m.jpg",
  "platforms": [
    {
      "name": "Windows"
    }
  ],
  "provider_games": [
    {
      "name": "Nightmare Adventures: The Witch's Prison",
      "slug": "514750",
      "service": "steam"
    },
    {
      "name": "Nightmare Adventures: The Witch's Prison",
      "slug": "nightmare-adventures-the-witchs-prison",
      "service": "igdb"
    }
  ],
  "aliases": [],
  "shaders": [],
  "discord_id": "",
  "change_for": null
}