{
  "id": 29046,
  "name": "Galaxy Trucker: Extended Edition",
  "slug": "galaxy-trucker-extended-edition",
  "year": null,
  "banner_url": "https://lutris.net/games/banner/galaxy-trucker-extended-edition.jpg",
  "icon_url": "https://lutris.net/games/icon/galaxy-trucker-extended-edition.png",
  "coverart": "https://lutris.net/media/igdb/cover_big/co3zww.jpg",
  "platforms": [],
  "provider_games": [
    {
      "name": "Galaxy Trucker: Extended Edition",
      "slug": "1633057647",
      "service": "gog"
    },
    {
      "name": "Galaxy Trucker: Extended Edition",
      "slug": "870690",
      "service": "steam"
    },
    {
      "name": "Galaxy Trucker: Extended Edition",
      "slug": "galaxy-trucker-extended-edition",
      "service": "igdb"
    }
  ],
  "aliases": [],
  "shaders": [],
  "discord_id": "",
  "change_for": null
}