{
  "id": 111947,
  "name": "2 Pics To Word: 2 Pics 1 Word - Fun Word Guessing",
  "slug": "2-pics-to-word-2-pics-1-word-fun-word-guessing",
  "year": null,
  "banner_url": "",
  "icon_url": "",
  "coverart": null,
  "platforms": [],
  "provider_games": [
    {
      "name": "2 Pics to Word: 2 Pics 1 Word - Fun Word Guessing",
      "slug": "2-pics-to-word-2-pics-1-word-fun-word-guessing",
      "service": "igdb"
    }
  ],
  "aliases": [],
  "shaders": [],
  "discord_id": "",
  "change_for": null
}