{
  "id": 107474,
  "name": "Spy Kids: All the Time in the World",
  "slug": "spy-kids-all-the-time-in-the-world",
  "year": 2011,
  "banner_url": "",
  "icon_url": "",
  "coverart": "https://lutris.net/media/igdb/cover_big/co2deq.jpg",
  "platforms": [
    {
      "name": "Nintendo DS"
    }
  ],
  "provider_games": [
    {
      "name": "Spy Kids: All the Time in the World",
      "slug": "spy-kids-all-the-time-in-the-world",
      "service": "igdb"
    }
  ],
  "aliases": [],
  "shaders": [],
  "discord_id": "",
  "change_for": null
}