{
  "id": 248714,
  "name": "Anamnesis",
  "slug": "anamnesis--1",
  "year": null,
  "banner_url": "",
  "icon_url": "",
  "coverart": "https://lutris.net/media/igdb/cover_big/co6n8d.jpg",
  "platforms": [],
  "provider_games": [
    {
      "name": "Anamnesis",
      "slug": "anamnesis--1",
      "service": "igdb"
    }
  ],
  "aliases": [],
  "shaders": [],
  "discord_id": "",
  "change_for": null
}