{
  "id": 197423,
  "name": "Russian Roulette: One Life",
  "slug": "russian-roulette-one-life",
  "year": 2018,
  "banner_url": "",
  "icon_url": "",
  "coverart": "https://lutris.net/media/igdb/cover_big/co4knk.jpg",
  "platforms": [
    {
      "name": "Windows"
    }
  ],
  "provider_games": [
    {
      "name": "Russian Roulette: One Life",
      "slug": "russian-roulette-one-life",
      "service": "igdb"
    }
  ],
  "aliases": [],
  "shaders": [],
  "discord_id": "",
  "change_for": null
}