{
  "id": 271910,
  "name": "Hook Line & Sinker",
  "slug": "hook-line-and-sinker",
  "year": 2024,
  "banner_url": "",
  "icon_url": "",
  "coverart": "https://lutris.net/media/igdb/cover_big/co7pyt.jpg",
  "platforms": [
    {
      "name": "Windows"
    }
  ],
  "provider_games": [
    {
      "name": "Hook Line & Sinker",
      "slug": "hook-line-and-sinker",
      "service": "igdb"
    }
  ],
  "aliases": [],
  "shaders": [],
  "discord_id": "",
  "change_for": null
}