{
  "id": 77074,
  "name": "3D Ultra Minigolf Adventures: Lost Island",
  "slug": "3d-ultra-minigolf-adventures-lost-island",
  "year": null,
  "banner_url": "",
  "icon_url": "",
  "coverart": "https://lutris.net/media/igdb/cover_big/co6kh1.jpg",
  "platforms": [],
  "provider_games": [
    {
      "name": "3D Ultra Minigolf Adventures: Lost Island",
      "slug": "3d-ultra-minigolf-adventures-lost-island",
      "service": "igdb"
    }
  ],
  "aliases": [],
  "shaders": [],
  "discord_id": "",
  "change_for": null
}