{
  "id": 213539,
  "name": "Ah Eikou No Koushien",
  "slug": "ah-eikou-no-koushien",
  "year": 1991,
  "banner_url": "",
  "icon_url": "",
  "coverart": null,
  "platforms": [
    {
      "name": "Arcade"
    }
  ],
  "provider_games": [
    {
      "name": "Ah Eikou No Koushien",
      "slug": "ah-eikou-no-koushien",
      "service": "igdb"
    }
  ],
  "aliases": [],
  "shaders": [],
  "discord_id": "",
  "change_for": null
}