{
  "id": 172764,
  "name": "The Shinri Game 3",
  "slug": "the-shinri-game-3",
  "year": 1995,
  "banner_url": "",
  "icon_url": "",
  "coverart": "https://lutris.net/media/igdb/cover_big/kr3puzfmohqjwwxktyqj.jpg",
  "platforms": [
    {
      "name": "Satellaview"
    },
    {
      "name": "Super Nintendo"
    }
  ],
  "provider_games": [
    {
      "name": "The Shinri Game 3",
      "slug": "the-shinri-game-3",
      "service": "igdb"
    }
  ],
  "aliases": [],
  "shaders": [],
  "discord_id": "",
  "change_for": null
}