{
  "id": 26197,
  "game_id": 41302,
  "game_slug": "all-for-nought-tic-tac-toe",
  "name": "All For Nought: Tic Tac Toe",
  "year": 2020,
  "user": "vanstaveren",
  "runner": "steam",
  "slug": "all-for-nought-tic-tac-toe-steam",
  "version": "steam",
  "description": null,
  "notes": "",
  "credits": "",
  "created_at": "2021-02-01T09:17:01.961837Z",
  "updated_at": "2021-12-13T19:10:35.859115Z",
  "draft": false,
  "published": true,
  "published_by": null,
  "rating": "",
  "is_playable": null,
  "steamid": null,
  "gogid": null,
  "gogslug": "",
  "humbleid": "",
  "humblestoreid": "",
  "humblestoreid_real": "",
  "script": {
    "game": {
      "appid": 1396490
    }
  },
  "content": "game:\n  appid: 1396490\n",
  "discord_id": ""
}