{
  "id": 277428,
  "name": "Move Ball to Green",
  "slug": "move-ball-to-green",
  "year": null,
  "banner_url": "",
  "icon_url": "",
  "coverart": "https://lutris.net/media/igdb/cover_big/co7wb3.jpg",
  "platforms": [],
  "provider_games": [
    {
      "name": "Move Ball to Green",
      "slug": "move-ball-to-green",
      "service": "igdb"
    }
  ],
  "aliases": [],
  "shaders": [],
  "discord_id": "",
  "change_for": null
}