{
  "id": 121764,
  "name": "Jungle Juggle",
  "slug": "jungle-juggle",
  "year": 2018,
  "banner_url": "https://lutris.net/games/banner/jungle-juggle.jpg",
  "icon_url": "",
  "coverart": "https://lutris.net/media/igdb/cover_big/co6htg.jpg",
  "platforms": [
    {
      "name": "Windows"
    }
  ],
  "provider_games": [
    {
      "name": "Jungle Juggle",
      "slug": "844580",
      "service": "steam"
    },
    {
      "name": "Jungle Juggle",
      "slug": "jungle-juggle",
      "service": "igdb"
    }
  ],
  "aliases": [],
  "shaders": [],
  "discord_id": "",
  "change_for": null
}