{
  "id": 100032,
  "name": "Usavich - Game no Jikan",
  "slug": "usavich-game-no-jikan",
  "year": 2011,
  "banner_url": "",
  "icon_url": "",
  "coverart": "https://lutris.net/media/igdb/cover_big/co25k3.jpg",
  "platforms": [
    {
      "name": "Nintendo DS"
    }
  ],
  "provider_games": [
    {
      "name": "Usavich - Game no Jikan",
      "slug": "usavich-game-no-jikan",
      "service": "igdb"
    }
  ],
  "aliases": [],
  "shaders": [],
  "discord_id": "",
  "change_for": null
}