{
  "id": 59345,
  "name": "Area 88: Ikkakujuu no Kiseki",
  "slug": "area-88-ikkakujuu-no-kiseki",
  "year": null,
  "banner_url": "",
  "icon_url": "",
  "coverart": "https://lutris.net/media/igdb/cover_big/i95gjxhdv0zyts7ltyew.jpg",
  "platforms": [],
  "provider_games": [
    {
      "name": "Area 88: Ikkakujuu no Kiseki",
      "slug": "area-88-ikkakujuu-no-kiseki",
      "service": "igdb"
    }
  ],
  "aliases": [],
  "shaders": [],
  "discord_id": "",
  "change_for": null
}