{
  "id": 201975,
  "name": "The Instruments Of Faith: Padua's Destiny",
  "slug": "the-instruments-of-faith-paduas-destiny",
  "year": null,
  "banner_url": "",
  "icon_url": "",
  "coverart": "https://lutris.net/media/igdb/cover_big/co4ng1.jpg",
  "platforms": [],
  "provider_games": [
    {
      "name": "The Instruments of Faith: Padua's Destiny",
      "slug": "the-instruments-of-faith-paduas-destiny",
      "service": "igdb"
    }
  ],
  "aliases": [],
  "shaders": [],
  "discord_id": "",
  "change_for": null
}