{
  "id": 65243,
  "name": "The Postman Only Dies Once",
  "slug": "the-postman-only-dies-once",
  "year": null,
  "banner_url": "",
  "icon_url": "",
  "coverart": "https://lutris.net/media/igdb/cover_big/co86gk.jpg",
  "platforms": [],
  "provider_games": [
    {
      "name": "The Postman Only Dies Once",
      "slug": "the-postman-only-dies-once",
      "service": "igdb"
    }
  ],
  "aliases": [],
  "shaders": [],
  "discord_id": "",
  "change_for": null
}