{
  "id": 256030,
  "name": "Hitchhike Wars",
  "slug": "hitchhike-wars",
  "year": null,
  "banner_url": "",
  "icon_url": "",
  "coverart": "https://lutris.net/media/igdb/cover_big/co6xsr.jpg",
  "platforms": [],
  "provider_games": [
    {
      "name": "Hitchhike Wars",
      "slug": "hitchhike-wars",
      "service": "igdb"
    }
  ],
  "aliases": [],
  "shaders": [],
  "discord_id": "",
  "change_for": null
}