{
  "id": 6689,
  "game_id": 3131,
  "game_slug": "airship-dragoon",
  "name": "Airship Dragoon",
  "year": 2014,
  "user": "FakeShemp",
  "runner": "wine",
  "slug": "airship-dragoon-groupees",
  "version": "Groupees",
  "description": null,
  "notes": "",
  "credits": "",
  "created_at": "2017-12-16T16:32:11.677000Z",
  "updated_at": "2018-05-19T03:42:00.140274Z",
  "draft": false,
  "published": true,
  "published_by": null,
  "rating": "",
  "is_playable": null,
  "steamid": 308380,
  "gogid": null,
  "gogslug": "",
  "humbleid": "",
  "humblestoreid": "",
  "humblestoreid_real": "",
  "script": {
    "files": [
      {
        "file1": "N/A:Please select the Groupees installer"
      }
    ],
    "game": {
      "arch": "win32",
      "exe": "drive_c/Program Files/Airship Dragoon/Airship Dragoon.exe",
      "prefix": "$GAMEDIR"
    },
    "installer": [
      {
        "task": {
          "args": "/sp- /verysilent /norestart /suppressmsgboxes /nogui",
          "executable": "$file1",
          "name": "wineexec",
          "prefix": "$GAMEDIR"
        }
      }
    ]
  },
  "content": "files:\n- file1: N/A:Please select the Groupees installer\ngame:\n  arch: win32\n  exe: drive_c/Program Files/Airship Dragoon/Airship Dragoon.exe\n  prefix: $GAMEDIR\ninstaller:\n- task:\n    args: /sp- /verysilent /norestart /suppressmsgboxes /nogui\n    executable: $file1\n    name: wineexec\n    prefix: $GAMEDIR\n",
  "discord_id": ""
}