{
  "id": 80758,
  "name": "Beebul",
  "slug": "beebul",
  "year": null,
  "banner_url": "",
  "icon_url": "",
  "coverart": "https://lutris.net/media/igdb/cover_big/t3ttooorfzahjmeunqut.jpg",
  "platforms": [],
  "provider_games": [
    {
      "name": "Beebul",
      "slug": "beebul",
      "service": "igdb"
    }
  ],
  "aliases": [],
  "shaders": [],
  "discord_id": "",
  "change_for": null
}