{
  "id": 59989,
  "name": "Battle Bears Fortress",
  "slug": "battle-bears-fortress",
  "year": null,
  "banner_url": "",
  "icon_url": "",
  "coverart": "https://lutris.net/media/igdb/cover_big/x4eufukfzikwajgvnfvy.jpg",
  "platforms": [],
  "provider_games": [
    {
      "name": "Battle Bears Fortress",
      "slug": "battle-bears-fortress",
      "service": "igdb"
    }
  ],
  "aliases": [],
  "shaders": [],
  "discord_id": "",
  "change_for": null
}