{
  "id": 148631,
  "name": "Bravery Network Online",
  "slug": "bravery-network-online",
  "year": 2021,
  "banner_url": "https://lutris.net/games/banner/bravery-network-online.jpg",
  "icon_url": "",
  "coverart": "https://lutris.net/media/igdb/cover_big/co29mf.jpg",
  "platforms": [
    {
      "name": "Mac"
    },
    {
      "name": "Windows"
    }
  ],
  "provider_games": [
    {
      "name": "Bravery Network Online",
      "slug": "1027120",
      "service": "steam"
    },
    {
      "name": "Bravery Network Online",
      "slug": "bravery-network-online",
      "service": "igdb"
    }
  ],
  "aliases": [],
  "shaders": [],
  "discord_id": "",
  "change_for": null
}