{
  "id": 99195,
  "name": "Uncharted Ocean",
  "slug": "uncharted-ocean",
  "year": 2019,
  "banner_url": "https://lutris.net/games/banner/uncharted-ocean.jpg",
  "icon_url": "",
  "coverart": "https://lutris.net/media/igdb/cover_big/co1tn3.jpg",
  "platforms": [
    {
      "name": "Windows"
    }
  ],
  "provider_games": [
    {
      "name": "Uncharted Ocean",
      "slug": "1158690",
      "service": "steam"
    },
    {
      "name": "Uncharted Ocean",
      "slug": "uncharted-ocean",
      "service": "igdb"
    }
  ],
  "aliases": [],
  "shaders": [],
  "discord_id": "",
  "change_for": null
}