{
  "id": 22174,
  "game_id": 36654,
  "game_slug": "higurashi-when-they-cry-hou-ch8-matsuribayashi",
  "name": "Higurashi When They Cry Hou - Ch.8 Matsuribayashi",
  "year": null,
  "user": "soredake",
  "runner": "steam",
  "slug": "higurashi-when-they-cry-hou-c-steam-4",
  "version": "Steam",
  "description": null,
  "notes": "",
  "credits": "",
  "created_at": "2020-07-06T07:34:26.373217Z",
  "updated_at": "2020-07-06T07:34:30.841253Z",
  "draft": false,
  "published": true,
  "published_by": null,
  "rating": "",
  "is_playable": null,
  "steamid": 1243670,
  "gogid": 2052551600,
  "gogslug": "higurashi_when_they_cry_hou_ch8_matsuribayashi",
  "humbleid": "",
  "humblestoreid": "",
  "humblestoreid_real": "",
  "script": {
    "game": {
      "appid": 1243670
    }
  },
  "content": "game:\n  appid: 1243670\n",
  "discord_id": ""
}