{
  "id": 221310,
  "name": "Mysteries In Paradise",
  "slug": "mysteries-in-paradise",
  "year": null,
  "banner_url": "",
  "icon_url": "",
  "coverart": null,
  "platforms": [],
  "provider_games": [
    {
      "name": "Mysteries In Paradise",
      "slug": "mysteries-in-paradise",
      "service": "igdb"
    }
  ],
  "aliases": [],
  "shaders": [],
  "discord_id": "",
  "change_for": null
}