{
  "id": 186142,
  "name": "Special girls",
  "slug": "special-girls",
  "year": null,
  "banner_url": "",
  "icon_url": "",
  "coverart": "https://lutris.net/media/igdb/cover_big/co67gx.jpg",
  "platforms": [],
  "provider_games": [
    {
      "name": "Special girls",
      "slug": "special-girls",
      "service": "igdb"
    }
  ],
  "aliases": [],
  "shaders": [],
  "discord_id": "",
  "change_for": null
}