{
  "id": 55400,
  "name": "Star Wars: Attack on the Death Star",
  "slug": "star-wars-attack-on-the-death-star",
  "year": 1992,
  "banner_url": "",
  "icon_url": "",
  "coverart": "https://lutris.net/media/igdb/cover_big/brhnpautj05mid1au82c.jpg",
  "platforms": [
    {
      "name": "X68000"
    }
  ],
  "provider_games": [
    {
      "name": "Star Wars: Attack on the Death Star",
      "slug": "star-wars-attack-on-the-death-star",
      "service": "igdb"
    }
  ],
  "aliases": [],
  "shaders": [],
  "discord_id": "",
  "change_for": null
}