{
  "id": 270527,
  "name": "Kisekae Series 3: Kisekae Hamster",
  "slug": "kisekae-series-3-kisekae-hamster",
  "year": 2001,
  "banner_url": "",
  "icon_url": "",
  "coverart": "https://lutris.net/media/igdb/cover_big/co7l2d.jpg",
  "platforms": [
    {
      "name": "Nintendo Game Boy Color"
    }
  ],
  "provider_games": [
    {
      "name": "Kisekae Series 3: Kisekae Hamster",
      "slug": "kisekae-series-3-kisekae-hamster",
      "service": "igdb"
    }
  ],
  "aliases": [],
  "shaders": [],
  "discord_id": "",
  "change_for": null
}