{
  "id": 232232,
  "name": "Where is My Glasses ?",
  "slug": "where-is-my-glasses",
  "year": null,
  "banner_url": "",
  "icon_url": "",
  "coverart": null,
  "platforms": [],
  "provider_games": [
    {
      "name": "Where is My Glasses ?",
      "slug": "where-is-my-glasses",
      "service": "igdb"
    }
  ],
  "aliases": [],
  "shaders": [],
  "discord_id": "",
  "change_for": null
}