{
  "id": 135591,
  "name": "Daughter of Essence",
  "slug": "daughter-of-essence",
  "year": null,
  "banner_url": "",
  "icon_url": "",
  "coverart": "https://lutris.net/media/igdb/cover_big/co3o6i.jpg",
  "platforms": [],
  "provider_games": [
    {
      "name": "Daughter of Essence",
      "slug": "daughter-of-essence",
      "service": "igdb"
    }
  ],
  "aliases": [],
  "shaders": [],
  "discord_id": "",
  "change_for": null
}