{
  "id": 145201,
  "name": "Prime Target",
  "slug": "prime-target",
  "year": 1996,
  "banner_url": "",
  "icon_url": "",
  "coverart": "https://lutris.net/media/igdb/cover_big/co3vly.jpg",
  "platforms": [
    {
      "name": "Mac"
    }
  ],
  "provider_games": [
    {
      "name": "Prime Target",
      "slug": "prime-target",
      "service": "igdb"
    }
  ],
  "aliases": [],
  "shaders": [],
  "discord_id": "",
  "change_for": null
}