{
  "id": 243979,
  "name": "Coloring Pixels: Collection 3",
  "slug": "coloring-pixels-collection-3",
  "year": 2023,
  "banner_url": "",
  "icon_url": "",
  "coverart": "https://lutris.net/media/igdb/cover_big/co6ff6.jpg",
  "platforms": [
    {
      "name": "Nintendo Switch"
    }
  ],
  "provider_games": [
    {
      "name": "Coloring Pixels: Collection 3",
      "slug": "coloring-pixels-collection-3",
      "service": "igdb"
    }
  ],
  "aliases": [],
  "shaders": [],
  "discord_id": "",
  "change_for": null
}