{
  "id": 154539,
  "name": "The Age of Gods Return",
  "slug": "the-age-of-gods-return",
  "year": null,
  "banner_url": "",
  "icon_url": "",
  "coverart": "https://lutris.net/media/igdb/cover_big/co3xaj.jpg",
  "platforms": [],
  "provider_games": [
    {
      "name": "The Age of Gods Return",
      "slug": "the-age-of-gods-return",
      "service": "igdb"
    }
  ],
  "aliases": [],
  "shaders": [],
  "discord_id": "",
  "change_for": null
}