{
  "id": 209957,
  "name": "Liar! Scheming Socialites",
  "slug": "liar-scheming-socialites",
  "year": 2017,
  "banner_url": "",
  "icon_url": "",
  "coverart": "https://lutris.net/media/igdb/cover_big/co4t5l.jpg",
  "platforms": [
    {
      "name": "Android"
    }
  ],
  "provider_games": [
    {
      "name": "Liar! Scheming Socialites",
      "slug": "liar-scheming-socialites",
      "service": "igdb"
    }
  ],
  "aliases": [],
  "shaders": [],
  "discord_id": "",
  "change_for": null
}