{
  "id": 173756,
  "name": "Marvel KAPOW!",
  "slug": "marvel-kapow",
  "year": null,
  "banner_url": "",
  "icon_url": "",
  "coverart": "https://lutris.net/media/igdb/cover_big/co4852.jpg",
  "platforms": [],
  "provider_games": [
    {
      "name": "Marvel Kapow!",
      "slug": "marvel-kapow",
      "service": "igdb"
    }
  ],
  "aliases": [],
  "shaders": [],
  "discord_id": "",
  "change_for": null
}