{
  "id": 235856,
  "name": "Shin Nippon Pro Wrestling: Chou Senshi in Tokyo Dome - Fantastic Story",
  "slug": "shin-nippon-pro-wrestling-chou-senshi-in-tokyo-dome-fantastic-story",
  "year": 1993,
  "banner_url": "",
  "icon_url": "",
  "coverart": null,
  "platforms": [
    {
      "name": "Super Famicom"
    }
  ],
  "provider_games": [
    {
      "name": "Shin Nippon Pro Wrestling: Chou Senshi in Tokyo Dome - Fantastic Story",
      "slug": "shin-nippon-pro-wrestling-chou-senshi-in-tokyo-dome-fantastic-story",
      "service": "igdb"
    }
  ],
  "aliases": [],
  "shaders": [],
  "discord_id": "",
  "change_for": null
}