{
  "id": 85754,
  "name": "NBA Show Time: NBA on NBC",
  "slug": "nba-show-time-nba-on-nbc",
  "year": 2000,
  "banner_url": "",
  "icon_url": "",
  "coverart": "https://lutris.net/media/igdb/cover_big/co6x00.jpg",
  "platforms": [
    {
      "name": "Nintendo Game Boy Color"
    }
  ],
  "provider_games": [
    {
      "name": "NBA Show Time: NBA on NBC",
      "slug": "nba-show-time-nba-on-nbc",
      "service": "igdb"
    }
  ],
  "aliases": [],
  "shaders": [],
  "discord_id": "",
  "change_for": null
}