{
  "id": 218313,
  "name": "The Devil Within: Satgat",
  "slug": "the-devil-within-satgat",
  "year": null,
  "banner_url": "",
  "icon_url": "",
  "coverart": "https://lutris.net/media/igdb/cover_big/co5n0w.jpg",
  "platforms": [],
  "provider_games": [
    {
      "name": "The Devil Within: Satgat",
      "slug": "the-devil-within-satgat",
      "service": "igdb"
    }
  ],
  "aliases": [],
  "shaders": [],
  "discord_id": "",
  "change_for": null
}