{
  "id": 5349,
  "name": "Epic Space: Online",
  "slug": "epic-space-online",
  "year": 2014,
  "banner_url": "https://lutris.net/games/banner/epic-space-online.jpg",
  "icon_url": "https://lutris.net/games/icon/epic-space-online.png",
  "coverart": "https://lutris.net/media/igdb/cover_big/co3pxv.jpg",
  "platforms": [
    {
      "name": "Windows"
    }
  ],
  "provider_games": [
    {
      "name": "Epic Space: Online",
      "slug": "293400",
      "service": "steam"
    },
    {
      "name": "Epic Space: Online",
      "slug": "epic-space-online",
      "service": "igdb"
    }
  ],
  "aliases": [],
  "shaders": [],
  "discord_id": "",
  "change_for": null
}