{
  "id": 43769,
  "name": "Dodge It!",
  "slug": "dodge-it",
  "year": 2021,
  "banner_url": "https://lutris.net/games/banner/dodge-it.jpg",
  "icon_url": "",
  "coverart": "https://lutris.net/media/igdb/cover_big/co3r0a.jpg",
  "platforms": [
    {
      "name": "Windows"
    }
  ],
  "provider_games": [
    {
      "name": "Dodge It!",
      "slug": "dodge-it",
      "service": "igdb"
    },
    {
      "name": "Dodge It!",
      "slug": "1720050",
      "service": "steam"
    }
  ],
  "aliases": [],
  "shaders": [],
  "discord_id": "",
  "change_for": null
}