{
  "id": 203071,
  "name": "Grim Tales: The Nomad",
  "slug": "grim-tales-the-nomad",
  "year": 2019,
  "banner_url": "",
  "icon_url": "",
  "coverart": null,
  "platforms": [
    {
      "name": "Mac"
    },
    {
      "name": "Windows"
    }
  ],
  "provider_games": [
    {
      "name": "Grim Tales: The Nomad",
      "slug": "grim-tales-the-nomad",
      "service": "igdb"
    }
  ],
  "aliases": [],
  "shaders": [],
  "discord_id": "",
  "change_for": null
}