{
  "id": 36186,
  "name": "Come Back Toto",
  "slug": "come-back-toto",
  "year": 1996,
  "banner_url": "",
  "icon_url": "https://lutris.net/games/icon/come-back-toto.png",
  "coverart": null,
  "platforms": [
    {
      "name": "Arcade"
    }
  ],
  "provider_games": [
    {
      "name": "Come Back Toto",
      "slug": "toto",
      "service": "mame"
    }
  ],
  "aliases": [],
  "shaders": [],
  "discord_id": "",
  "change_for": null
}