{
  "id": 264089,
  "name": "Mystery at Grand Fir Village",
  "slug": "mystery-at-grand-fir-village",
  "year": null,
  "banner_url": "",
  "icon_url": "",
  "coverart": "https://lutris.net/media/igdb/cover_big/co7aue.jpg",
  "platforms": [],
  "provider_games": [
    {
      "name": "Mystery at Grand Fir Village",
      "slug": "mystery-at-grand-fir-village",
      "service": "igdb"
    }
  ],
  "aliases": [],
  "shaders": [],
  "discord_id": "",
  "change_for": null
}