{
  "id": 126258,
  "name": "Stacker",
  "slug": "stacker",
  "year": 2017,
  "banner_url": "https://lutris.net/games/banner/stacker.jpg",
  "icon_url": "",
  "coverart": null,
  "platforms": [
    {
      "name": "Windows"
    }
  ],
  "provider_games": [
    {
      "name": "Stacker",
      "slug": "749430",
      "service": "steam"
    },
    {
      "name": "Stacker",
      "slug": "stacker",
      "service": "igdb"
    }
  ],
  "aliases": [],
  "shaders": [],
  "discord_id": "",
  "change_for": null
}