{
  "id": 277563,
  "name": "Water Festa",
  "slug": "water-festa",
  "year": null,
  "banner_url": "",
  "icon_url": "",
  "coverart": "https://lutris.net/media/igdb/cover_big/co7w5l.jpg",
  "platforms": [],
  "provider_games": [
    {
      "name": "Water Festa",
      "slug": "water-festa",
      "service": "igdb"
    }
  ],
  "aliases": [],
  "shaders": [],
  "discord_id": "",
  "change_for": null
}