{
  "id": 253192,
  "name": "Ball King Jam",
  "slug": "ball-king-jam",
  "year": null,
  "banner_url": "",
  "icon_url": "",
  "coverart": "https://lutris.net/media/igdb/cover_big/co6ubc.jpg",
  "platforms": [],
  "provider_games": [
    {
      "name": "Ball King Jam",
      "slug": "ball-king-jam",
      "service": "igdb"
    }
  ],
  "aliases": [],
  "shaders": [],
  "discord_id": "",
  "change_for": null
}