{
  "id": 37606,
  "game_id": 163008,
  "game_slug": "harry-potter-magic-awakened",
  "name": "Harry Potter: Magic Awakened",
  "year": 2021,
  "user": "ivryn",
  "runner": "wine",
  "slug": "harry-potter-magic-awakened-windows",
  "version": "Windows",
  "description": "",
  "notes": "Errors such as \"Unable to connect to server\" will prompt, but that can be ignored, because there is a connection being established even though the error is shown.",
  "credits": "",
  "created_at": "2023-07-14T22:27:12.452022Z",
  "updated_at": "2025-01-21T21:56:20.863149Z",
  "draft": false,
  "published": true,
  "published_by": 494,
  "rating": "",
  "is_playable": null,
  "steamid": null,
  "gogid": null,
  "gogslug": "",
  "humbleid": "",
  "humblestoreid": "",
  "humblestoreid_real": "",
  "script": {
    "files": [
      {
        "setup": "https://a50.gdl.easebar.com/7100760896254775296/HPMA_setup_official.exe"
      }
    ],
    "game": {
      "exe": "$GAMEDIR/drive_c/Program Files/LoadingBay/LoadingBayLauncher.exe",
      "prefix": "$GAMEDIR"
    },
    "installer": [
      {
        "task": {
          "arch": "win64",
          "description": "Creating Wine Prefix",
          "name": "create_prefix",
          "prefix": "$GAMEDIR"
        }
      },
      {
        "task": {
          "executable": "setup",
          "name": "wineexec",
          "prefix": "$GAMEDIR"
        }
      }
    ],
    "wine": {
      "dxvk": false
    }
  },
  "content": "files:\n- setup: https://a50.gdl.easebar.com/7100760896254775296/HPMA_setup_official.exe\ngame:\n  exe: $GAMEDIR/drive_c/Program Files/LoadingBay/LoadingBayLauncher.exe\n  prefix: $GAMEDIR\ninstaller:\n- task:\n    arch: win64\n    description: Creating Wine Prefix\n    name: create_prefix\n    prefix: $GAMEDIR\n- task:\n    executable: setup\n    name: wineexec\n    prefix: $GAMEDIR\nwine:\n  dxvk: false\n",
  "discord_id": ""
}