{
  "id": 249352,
  "name": "Plasmatic",
  "slug": "plasmatic--1",
  "year": null,
  "banner_url": "",
  "icon_url": "",
  "coverart": "https://lutris.net/media/igdb/cover_big/co6mhn.jpg",
  "platforms": [],
  "provider_games": [
    {
      "name": "Plasmatic",
      "slug": "plasmatic--1",
      "service": "igdb"
    }
  ],
  "aliases": [],
  "shaders": [],
  "discord_id": "",
  "change_for": null
}