{
  "id": 59982,
  "name": "Medarot Dual Kabuto/Kuwagata",
  "slug": "medarot-dual-kabuto-slash-kuwagata",
  "year": null,
  "banner_url": "",
  "icon_url": "",
  "coverart": "https://lutris.net/media/igdb/cover_big/uemvoervjpbviwpjm2yw.jpg",
  "platforms": [],
  "provider_games": [
    {
      "name": "Medarot Dual Kabuto/Kuwagata",
      "slug": "medarot-dual-kabuto-slash-kuwagata",
      "service": "igdb"
    }
  ],
  "aliases": [],
  "shaders": [],
  "discord_id": "",
  "change_for": null
}