{
  "id": 201703,
  "name": "Adamstown",
  "slug": "adamstown",
  "year": null,
  "banner_url": "",
  "icon_url": "",
  "coverart": "https://lutris.net/media/igdb/cover_big/co4nkc.jpg",
  "platforms": [],
  "provider_games": [
    {
      "name": "Adamstown",
      "slug": "adamstown",
      "service": "igdb"
    }
  ],
  "aliases": [],
  "shaders": [],
  "discord_id": "",
  "change_for": null
}