{
  "id": 20373,
  "name": "Ripped Pants at Work",
  "slug": "ripped-pants-at-work",
  "year": 2018,
  "banner_url": "https://lutris.net/games/banner/ripped-pants-at-work.jpg",
  "icon_url": "https://lutris.net/games/icon/ripped-pants-at-work.png",
  "coverart": "https://lutris.net/media/igdb/cover_big/co1kxl.jpg",
  "platforms": [
    {
      "name": "Mac"
    },
    {
      "name": "Windows"
    }
  ],
  "provider_games": [
    {
      "name": "Ripped Pants at Work",
      "slug": "752550",
      "service": "steam"
    },
    {
      "name": "Ripped Pants at Work",
      "slug": "ripped-pants-at-work",
      "service": "igdb"
    }
  ],
  "aliases": [],
  "shaders": [],
  "discord_id": "",
  "change_for": null
}