{
  "id": 131312,
  "name": "Lophead Adventure World",
  "slug": "lophead-adventure-world",
  "year": 2021,
  "banner_url": "",
  "icon_url": "",
  "coverart": null,
  "platforms": [
    {
      "name": "Xbox One"
    }
  ],
  "provider_games": [
    {
      "name": "Lophead Adventure World",
      "slug": "lophead-adventure-world",
      "service": "igdb"
    }
  ],
  "aliases": [],
  "shaders": [],
  "discord_id": "",
  "change_for": null
}