{
  "id": 127,
  "game_id": 198,
  "game_slug": "portal-2",
  "name": "Portal 2",
  "year": 2011,
  "user": "strider",
  "runner": "steam",
  "slug": "portal-2-steam",
  "version": "steam",
  "description": "",
  "notes": "",
  "credits": "",
  "created_at": "2013-12-18T23:20:03.067000Z",
  "updated_at": "2014-02-25T23:57:43.957000Z",
  "draft": false,
  "published": true,
  "published_by": null,
  "rating": "",
  "is_playable": null,
  "steamid": 620,
  "gogid": null,
  "gogslug": "",
  "humbleid": "",
  "humblestoreid": "",
  "humblestoreid_real": "",
  "script": {
    "game": {
      "appid": 620
    }
  },
  "content": "game:\r\n  appid: 620\r\n",
  "discord_id": "359508941782122496"
}