{
  "id": 178011,
  "name": "Heaven",
  "slug": "heaven--1",
  "year": null,
  "banner_url": "",
  "icon_url": "",
  "coverart": "https://lutris.net/media/igdb/cover_big/co98g4.jpg",
  "platforms": [],
  "provider_games": [
    {
      "name": "Heaven",
      "slug": "heaven--1",
      "service": "igdb"
    }
  ],
  "aliases": [],
  "shaders": [],
  "discord_id": "",
  "change_for": null
}