{
  "id": 82163,
  "name": "WWII Combat Iwo Jima",
  "slug": "wwii-combat-iwo-jima",
  "year": 2007,
  "banner_url": "",
  "icon_url": "",
  "coverart": "https://lutris.net/media/igdb/cover_big/foafuijkii8fzlmlkkdp.jpg",
  "platforms": [
    {
      "name": "Windows"
    }
  ],
  "provider_games": [
    {
      "name": "WWII Combat: Iwo Jima",
      "slug": "wwii-combat-iwo-jima",
      "service": "igdb"
    }
  ],
  "aliases": [],
  "shaders": [],
  "discord_id": "",
  "change_for": null
}