{
  "id": 115254,
  "name": "Lime Iro Senkitan ~Meiji Nippon, Otome Sakimorisu.~",
  "slug": "lime-iro-senkitan-meiji-nippon-otome-sakimorisu-dot",
  "year": null,
  "banner_url": "",
  "icon_url": "",
  "coverart": "https://lutris.net/media/igdb/cover_big/co3c3c.jpg",
  "platforms": [],
  "provider_games": [
    {
      "name": "Lime Iro Senkitan ~Meiji Nippon, Otome Sakimorisu.~",
      "slug": "lime-iro-senkitan-meiji-nippon-otome-sakimorisu-dot",
      "service": "igdb"
    }
  ],
  "aliases": [],
  "shaders": [],
  "discord_id": "",
  "change_for": null
}