{
  "id": 265081,
  "name": "EggConsole Thexder PC-8801MkIISR",
  "slug": "eggconsole-thexder-pc-8801mkiisr",
  "year": 2023,
  "banner_url": "",
  "icon_url": "",
  "coverart": "https://lutris.net/media/igdb/cover_big/co7b0d.jpg",
  "platforms": [
    {
      "name": "Nintendo Switch"
    }
  ],
  "provider_games": [
    {
      "name": "Eggconsole Thexder PC-8801mkIISR",
      "slug": "eggconsole-thexder-pc-8801mkiisr",
      "service": "igdb"
    }
  ],
  "aliases": [],
  "shaders": [],
  "discord_id": "",
  "change_for": null
}