{
  "id": 20703,
  "game_id": 23223,
  "game_slug": "grally",
  "name": "gRally",
  "year": 2018,
  "user": "leillo1975",
  "runner": "winesteam",
  "slug": "grally-steam",
  "version": "Steam",
  "description": null,
  "notes": "",
  "credits": "",
  "created_at": "2020-05-22T19:39:06.284808Z",
  "updated_at": "2023-06-13T01:34:37.087748Z",
  "draft": true,
  "published": true,
  "published_by": null,
  "rating": "",
  "is_playable": null,
  "steamid": 605760,
  "gogid": null,
  "gogslug": "",
  "humbleid": "",
  "humblestoreid": "",
  "humblestoreid_real": "",
  "script": {
    "game": {
      "appid": 605760,
      "arch": "win64",
      "prefix": "$GAMEDIR/prefix"
    },
    "installer": [
      {
        "task": {
          "arch": "win64",
          "description": "Creating prefix",
          "name": "create_prefix",
          "prefix": "$GAMEDIR/prefix"
        }
      },
      {
        "task": {
          "app": "dotnet472 win7",
          "arch": "win64",
          "description": "Installing .NET 4.7.2 (it may take a while)",
          "name": "winetricks",
          "prefix": "$GAMEDIR/prefix"
        }
      }
    ],
    "system": {
      "env": {
        "DXVK_HUD": "fps"
      },
      "pulse_latency": true
    }
  },
  "content": "game:\n  appid: 605760\n  arch: win64\n  prefix: $GAMEDIR/prefix\ninstaller:\n- task:\n    arch: win64\n    description: Creating prefix\n    name: create_prefix\n    prefix: $GAMEDIR/prefix\n- task:\n    app: dotnet472 win7\n    arch: win64\n    description: Installing .NET 4.7.2 (it may take a while)\n    name: winetricks\n    prefix: $GAMEDIR/prefix\nsystem:\n  env:\n    DXVK_HUD: fps\n  pulse_latency: true\n",
  "discord_id": ""
}