{
  "id": 289269,
  "name": "Lethal Weapon",
  "slug": "lethal-weapon--4",
  "year": 1992,
  "banner_url": "",
  "icon_url": "",
  "coverart": "https://lutris.net/media/igdb/cover_big/co8db5.jpg",
  "platforms": [
    {
      "name": "Commodore C64/128"
    }
  ],
  "provider_games": [
    {
      "name": "Lethal Weapon",
      "slug": "lethal-weapon--4",
      "service": "igdb"
    }
  ],
  "aliases": [],
  "shaders": [],
  "discord_id": "",
  "change_for": null
}