{
  "id": 92314,
  "name": "DBX + GT PACK 1 Bundle",
  "slug": "dbx-plus-gt-pack-1-bundle",
  "year": null,
  "banner_url": "",
  "icon_url": "",
  "coverart": "https://lutris.net/media/igdb/cover_big/co7zoo.jpg",
  "platforms": [],
  "provider_games": [
    {
      "name": "DBX + GT Pack 1 Bundle",
      "slug": "dbx-plus-gt-pack-1-bundle",
      "service": "igdb"
    }
  ],
  "aliases": [],
  "shaders": [],
  "discord_id": "",
  "change_for": null
}