{
  "id": 184701,
  "name": "One Room Hotel",
  "slug": "one-room-hotel",
  "year": null,
  "banner_url": "",
  "icon_url": "",
  "coverart": null,
  "platforms": [],
  "provider_games": [
    {
      "name": "One Room Hotel",
      "slug": "one-room-hotel",
      "service": "igdb"
    }
  ],
  "aliases": [],
  "shaders": [],
  "discord_id": "",
  "change_for": null
}