{
  "id": 198934,
  "name": "5G VR Football",
  "slug": "5g-vr-football",
  "year": null,
  "banner_url": "",
  "icon_url": "",
  "coverart": "https://lutris.net/media/igdb/cover_big/co4gf2.jpg",
  "platforms": [],
  "provider_games": [
    {
      "name": "5G VR Football",
      "slug": "5g-vr-football",
      "service": "igdb"
    }
  ],
  "aliases": [],
  "shaders": [],
  "discord_id": "",
  "change_for": null
}