{
  "id": 287855,
  "name": "Two Kiss with Two Men",
  "slug": "two-kiss-with-two-men",
  "year": 2022,
  "banner_url": "",
  "icon_url": "",
  "coverart": "https://lutris.net/media/igdb/cover_big/co8ar3.jpg",
  "platforms": [
    {
      "name": "Android"
    }
  ],
  "provider_games": [
    {
      "name": "Two Kiss with Two Men",
      "slug": "two-kiss-with-two-men",
      "service": "igdb"
    }
  ],
  "aliases": [],
  "shaders": [],
  "discord_id": "",
  "change_for": null
}