{
  "id": 195108,
  "name": "Maglam Lord: Deluxe Edition",
  "slug": "maglam-lord-deluxe-edition",
  "year": null,
  "banner_url": "",
  "icon_url": "",
  "coverart": null,
  "platforms": [],
  "provider_games": [
    {
      "name": "Maglam Lord: Deluxe Edition",
      "slug": "maglam-lord-deluxe-edition",
      "service": "igdb"
    }
  ],
  "aliases": [],
  "shaders": [],
  "discord_id": "",
  "change_for": null
}