{
  "id": 305883,
  "name": "The Gleaming Grill",
  "slug": "the-gleaming-grill",
  "year": 2024,
  "banner_url": "",
  "icon_url": "",
  "coverart": "https://lutris.net/media/igdb/cover_big/co9cmh.jpg",
  "platforms": [
    {
      "name": "Windows"
    }
  ],
  "provider_games": [
    {
      "name": "The Gleaming Grill",
      "slug": "the-gleaming-grill",
      "service": "igdb"
    }
  ],
  "aliases": [],
  "shaders": [],
  "discord_id": "",
  "change_for": null
}