{
  "id": 254512,
  "name": "Cursed Fables: A Voice to Die For - Collector's Edition",
  "slug": "cursed-fables-a-voice-to-die-for-collectors-edition",
  "year": null,
  "banner_url": "",
  "icon_url": "",
  "coverart": "https://lutris.net/media/igdb/cover_big/co6wet.jpg",
  "platforms": [],
  "provider_games": [
    {
      "name": "Cursed Fables: A Voice to Die For - Collector's Edition",
      "slug": "cursed-fables-a-voice-to-die-for-collectors-edition",
      "service": "igdb"
    }
  ],
  "aliases": [],
  "shaders": [],
  "discord_id": "",
  "change_for": null
}