{
  "id": 79211,
  "name": "Agent girl",
  "slug": "agent-girl",
  "year": null,
  "banner_url": "",
  "icon_url": "",
  "coverart": "https://lutris.net/media/igdb/cover_big/co2gbr.jpg",
  "platforms": [],
  "provider_games": [
    {
      "name": "Agent girl",
      "slug": "agent-girl",
      "service": "igdb"
    }
  ],
  "aliases": [],
  "shaders": [],
  "discord_id": "",
  "change_for": null
}