{
  "id": 123751,
  "name": "Tesla's Tower: The Wardenclyffe Mystery",
  "slug": "teslas-tower-the-wardenclyffe-mystery",
  "year": 2016,
  "banner_url": "https://lutris.net/games/banner/teslas-tower-the-wardenclyffe-mystery.jpg",
  "icon_url": "",
  "coverart": null,
  "platforms": [
    {
      "name": "Windows"
    }
  ],
  "provider_games": [
    {
      "name": "Tesla's Tower: The Wardenclyffe Mystery",
      "slug": "507140",
      "service": "steam"
    },
    {
      "name": "Tesla's Tower: The Wardenclyffe Mystery",
      "slug": "teslas-tower-the-wardenclyffe-mystery",
      "service": "igdb"
    }
  ],
  "aliases": [],
  "shaders": [],
  "discord_id": "",
  "change_for": null
}