{
  "id": 94195,
  "name": "Horror House Survival",
  "slug": "horror-house-survival",
  "year": null,
  "banner_url": "",
  "icon_url": "",
  "coverart": null,
  "platforms": [],
  "provider_games": [
    {
      "name": "Horror House Survival",
      "slug": "horror-house-survival",
      "service": "igdb"
    }
  ],
  "aliases": [],
  "shaders": [],
  "discord_id": "",
  "change_for": null
}