{
  "id": 191732,
  "name": "Domino Simulator",
  "slug": "domino-simulator",
  "year": 2022,
  "banner_url": "https://lutris.net/games/banner/domino-simulator.jpg",
  "icon_url": "https://lutris.net/games/icon/domino-simulator.png",
  "coverart": null,
  "platforms": [
    {
      "name": "Windows"
    }
  ],
  "provider_games": [
    {
      "name": "Domino Simulator",
      "slug": "1246490",
      "service": "steam"
    },
    {
      "name": "Domino Simulator",
      "slug": "domino-simulator",
      "service": "igdb"
    }
  ],
  "aliases": [],
  "shaders": [],
  "discord_id": "",
  "change_for": null
}