{
  "id": 107276,
  "name": "CROSS×BEATS",
  "slug": "crossxbeats",
  "year": 2013,
  "banner_url": "",
  "icon_url": "",
  "coverart": "https://lutris.net/media/igdb/cover_big/co2iy9.jpg",
  "platforms": [],
  "provider_games": [
    {
      "name": "CROSS×BEATS",
      "slug": "crossxbeats",
      "service": "igdb"
    }
  ],
  "aliases": [],
  "shaders": [],
  "discord_id": "",
  "change_for": null
}