{
  "id": 208480,
  "name": "City of the Damned",
  "slug": "city-of-the-damned",
  "year": 2017,
  "banner_url": "",
  "icon_url": "",
  "coverart": null,
  "platforms": [
    {
      "name": "Windows"
    }
  ],
  "provider_games": [
    {
      "name": "City of the Damned",
      "slug": "city-of-the-damned",
      "service": "igdb"
    }
  ],
  "aliases": [],
  "shaders": [],
  "discord_id": "",
  "change_for": null
}