{
  "id": 133964,
  "name": "New Play Control! Pikmin 2",
  "slug": "new-play-control-pikmin-2",
  "year": 2009,
  "banner_url": "",
  "icon_url": "",
  "coverart": "https://lutris.net/media/igdb/cover_big/co3ly2.jpg",
  "platforms": [
    {
      "name": "Nintendo Wii"
    },
    {
      "name": "Nintendo Wii U"
    }
  ],
  "provider_games": [
    {
      "name": "New Play Control! Pikmin 2",
      "slug": "new-play-control-pikmin-2",
      "service": "igdb"
    }
  ],
  "aliases": [],
  "shaders": [],
  "discord_id": "",
  "change_for": null
}