{
  "id": 194384,
  "name": "Wonderbirds",
  "slug": "wonderbirds",
  "year": null,
  "banner_url": "",
  "icon_url": "",
  "coverart": "https://lutris.net/media/igdb/cover_big/co4f1x.jpg",
  "platforms": [],
  "provider_games": [
    {
      "name": "Wonderbirds",
      "slug": "wonderbirds",
      "service": "igdb"
    }
  ],
  "aliases": [],
  "shaders": [],
  "discord_id": "",
  "change_for": null
}