{
  "id": 279736,
  "name": "Elumin",
  "slug": "elumin",
  "year": null,
  "banner_url": "",
  "icon_url": "",
  "coverart": "https://lutris.net/media/igdb/cover_big/co81b5.jpg",
  "platforms": [],
  "provider_games": [
    {
      "name": "Elumin",
      "slug": "elumin",
      "service": "igdb"
    }
  ],
  "aliases": [],
  "shaders": [],
  "discord_id": "",
  "change_for": null
}