{
  "id": 96036,
  "name": "Terrorist Apartment",
  "slug": "terrorist-apartment",
  "year": null,
  "banner_url": "",
  "icon_url": "",
  "coverart": null,
  "platforms": [],
  "provider_games": [
    {
      "name": "Terrorist Apartment",
      "slug": "terrorist-apartment",
      "service": "igdb"
    }
  ],
  "aliases": [],
  "shaders": [],
  "discord_id": "",
  "change_for": null
}