{
  "id": 305875,
  "name": "Jonny and the Sweet Fragrance of Feces",
  "slug": "jonny-and-the-sweet-fragrance-of-feces",
  "year": 2009,
  "banner_url": "",
  "icon_url": "",
  "coverart": "https://lutris.net/media/igdb/cover_big/co92ra.jpg",
  "platforms": [
    {
      "name": "Windows"
    }
  ],
  "provider_games": [
    {
      "name": "Jonny and the Sweet Fragrance of Feces",
      "slug": "jonny-and-the-sweet-fragrance-of-feces",
      "service": "igdb"
    }
  ],
  "aliases": [],
  "shaders": [],
  "discord_id": "",
  "change_for": null
}