{
  "id": 288940,
  "name": "Taro the Sneaky Ninja",
  "slug": "taro-the-sneaky-ninja",
  "year": null,
  "banner_url": "",
  "icon_url": "",
  "coverart": "https://lutris.net/media/igdb/cover_big/co8cam.jpg",
  "platforms": [
    {
      "name": "Nintendo Switch"
    },
    {
      "name": "Windows"
    }
  ],
  "provider_games": [
    {
      "name": "Taro the Sneaky Ninja",
      "slug": "taro-the-sneaky-ninja",
      "service": "igdb"
    }
  ],
  "aliases": [],
  "shaders": [],
  "discord_id": "",
  "change_for": null
}