{
  "id": 110531,
  "name": "Need for Speed Most Wanted U",
  "slug": "need-for-speed-most-wanted-u",
  "year": 2013,
  "banner_url": "",
  "icon_url": "",
  "coverart": "https://lutris.net/media/igdb/cover_big/co20a6.jpg",
  "platforms": [
    {
      "name": "Nintendo Wii U"
    }
  ],
  "provider_games": [
    {
      "name": "Need for Speed Most Wanted U",
      "slug": "need-for-speed-most-wanted-u",
      "service": "igdb"
    }
  ],
  "aliases": [],
  "shaders": [],
  "discord_id": "",
  "change_for": null
}