{
  "id": 3959,
  "name": "Gunscape",
  "slug": "gunscape",
  "year": 2016,
  "banner_url": "https://lutris.net/games/banner/gunscape.jpg",
  "icon_url": "https://lutris.net/games/icon/gunscape.png",
  "coverart": "https://lutris.net/media/igdb/cover_big/co1uat.jpg",
  "platforms": [
    {
      "name": "Linux"
    },
    {
      "name": "Mac"
    },
    {
      "name": "Nintendo Wii U"
    },
    {
      "name": "Sony Playstation 4"
    },
    {
      "name": "Windows"
    },
    {
      "name": "Xbox One"
    }
  ],
  "provider_games": [
    {
      "name": "Gunscape",
      "slug": "342480",
      "service": "steam"
    },
    {
      "name": "Gunscape",
      "slug": "gunscape",
      "service": "igdb"
    }
  ],
  "aliases": [],
  "shaders": [],
  "discord_id": "",
  "change_for": null
}