{
  "id": 114868,
  "name": "Vladiators",
  "slug": "vladiators",
  "year": 2020,
  "banner_url": "",
  "icon_url": "",
  "coverart": "https://lutris.net/media/igdb/cover_big/co2mvq.jpg",
  "platforms": [
    {
      "name": "Legacy Cellphone"
    },
    {
      "name": "Windows"
    }
  ],
  "provider_games": [
    {
      "name": "Vladiators",
      "slug": "vladiators",
      "service": "igdb"
    }
  ],
  "aliases": [],
  "shaders": [],
  "discord_id": "",
  "change_for": null
}