{
  "id": 203646,
  "name": "Singularity Dungeon",
  "slug": "singularity-dungeon",
  "year": null,
  "banner_url": "",
  "icon_url": "",
  "coverart": "https://lutris.net/media/igdb/cover_big/co4fk1.jpg",
  "platforms": [],
  "provider_games": [
    {
      "name": "Singularity Dungeon",
      "slug": "singularity-dungeon",
      "service": "igdb"
    }
  ],
  "aliases": [],
  "shaders": [],
  "discord_id": "",
  "change_for": null
}