{
  "id": 84615,
  "name": "The Pro Yakyuu: Pennant Race",
  "slug": "the-pro-yakyuu-pennant-race",
  "year": null,
  "banner_url": "",
  "icon_url": "",
  "coverart": "https://lutris.net/media/igdb/cover_big/co77ua.jpg",
  "platforms": [],
  "provider_games": [
    {
      "name": "The Pro Yakyuu: Pennant race",
      "slug": "the-pro-yakyuu-pennant-race",
      "service": "igdb"
    }
  ],
  "aliases": [],
  "shaders": [],
  "discord_id": "",
  "change_for": null
}