{
  "id": 199988,
  "name": "Dimension Quest Pinball",
  "slug": "dimension-quest-pinball",
  "year": null,
  "banner_url": "",
  "icon_url": "",
  "coverart": "https://lutris.net/media/igdb/cover_big/co4exr.jpg",
  "platforms": [],
  "provider_games": [
    {
      "name": "Dimension Quest Pinball",
      "slug": "dimension-quest-pinball",
      "service": "igdb"
    }
  ],
  "aliases": [],
  "shaders": [],
  "discord_id": "",
  "change_for": null
}