{
  "id": 93883,
  "name": "Age of Solitaire : Build City",
  "slug": "age-of-solitaire-build-city",
  "year": null,
  "banner_url": "",
  "icon_url": "",
  "coverart": null,
  "platforms": [],
  "provider_games": [
    {
      "name": "Age of Solitaire : Build City",
      "slug": "age-of-solitaire-build-city",
      "service": "igdb"
    }
  ],
  "aliases": [],
  "shaders": [],
  "discord_id": "",
  "change_for": null
}