{
  "id": 160622,
  "name": "The Legend of Fjarri",
  "slug": "the-legend-of-fjarri",
  "year": 2021,
  "banner_url": "",
  "icon_url": "",
  "coverart": "https://lutris.net/media/igdb/cover_big/co3gmr.jpg",
  "platforms": [
    {
      "name": "Windows"
    }
  ],
  "provider_games": [
    {
      "name": "The Legend of Fjarri",
      "slug": "the-legend-of-fjarri",
      "service": "igdb"
    }
  ],
  "aliases": [],
  "shaders": [],
  "discord_id": "",
  "change_for": null
}