{
  "id": 186170,
  "name": "My Garbage Cat Wakes Me Up At 3AM Every Day",
  "slug": "my-garbage-cat-wakes-me-up-at-3am-every-day",
  "year": 2015,
  "banner_url": "",
  "icon_url": "",
  "coverart": "https://lutris.net/media/igdb/cover_big/co1x1l.jpg",
  "platforms": [
    {
      "name": "Browser"
    }
  ],
  "provider_games": [
    {
      "name": "My Garbage Cat Wakes Me Up At 3AM Every Day",
      "slug": "my-garbage-cat-wakes-me-up-at-3am-every-day",
      "service": "igdb"
    }
  ],
  "aliases": [],
  "shaders": [],
  "discord_id": "",
  "change_for": null
}