{
  "id": 31525,
  "name": "ExZeus 2",
  "slug": "exzeus-2",
  "year": 2017,
  "banner_url": "https://lutris.net/games/banner/exzeus-2.jpg",
  "icon_url": "https://lutris.net/games/icon/exzeus-2.png",
  "coverart": "https://lutris.net/media/igdb/cover_big/co3wt7.jpg",
  "platforms": [
    {
      "name": "Windows"
    }
  ],
  "provider_games": [
    {
      "name": "ExZeus 2",
      "slug": "668520",
      "service": "steam"
    },
    {
      "name": "ExZeus 2",
      "slug": "exzeus-2",
      "service": "igdb"
    }
  ],
  "aliases": [],
  "shaders": [],
  "discord_id": "",
  "change_for": null
}