{
  "id": 21602,
  "name": "Stormbound",
  "slug": "stormbound",
  "year": 2018,
  "banner_url": "https://lutris.net/games/banner/stormbound.jpg",
  "icon_url": "https://lutris.net/games/icon/stormbound.png",
  "coverart": "https://lutris.net/media/igdb/cover_big/co424s.jpg",
  "platforms": [
    {
      "name": "Windows"
    }
  ],
  "provider_games": [
    {
      "name": "Stormbound",
      "slug": "790600",
      "service": "steam"
    },
    {
      "name": "Stormbound",
      "slug": "stormbound",
      "service": "igdb"
    }
  ],
  "aliases": [],
  "shaders": [],
  "discord_id": "",
  "change_for": null
}