{
  "id": 235494,
  "name": "Gwen the Hen 64",
  "slug": "gwen-the-hen-64",
  "year": null,
  "banner_url": "",
  "icon_url": "",
  "coverart": "https://lutris.net/media/igdb/cover_big/co653l.jpg",
  "platforms": [],
  "provider_games": [
    {
      "name": "Gwen the Hen 64",
      "slug": "gwen-the-hen-64",
      "service": "igdb"
    }
  ],
  "aliases": [],
  "shaders": [],
  "discord_id": "",
  "change_for": null
}