{
  "id": 96938,
  "name": "Echoes in White",
  "slug": "echoes-in-white",
  "year": null,
  "banner_url": "",
  "icon_url": "",
  "coverart": null,
  "platforms": [],
  "provider_games": [
    {
      "name": "Echoes in White",
      "slug": "echoes-in-white",
      "service": "igdb"
    }
  ],
  "aliases": [],
  "shaders": [],
  "discord_id": "",
  "change_for": null
}