{
  "id": 38833,
  "game_id": 295912,
  "game_slug": "deuteros-the-next-millenium",
  "name": "Deuteros: The Next Millenium",
  "year": 1991,
  "user": "blackfyre.ninja",
  "runner": "fsuae",
  "slug": "deuteros-the-next-millenium-amiga-500",
  "version": "Amiga 500+",
  "description": "",
  "notes": "",
  "credits": "",
  "created_at": "2024-09-21T04:13:16.461436Z",
  "updated_at": "2024-09-21T04:13:16.461459Z",
  "draft": false,
  "published": true,
  "published_by": null,
  "rating": "",
  "is_playable": null,
  "steamid": null,
  "gogid": null,
  "gogslug": "",
  "humbleid": "",
  "humblestoreid": "",
  "humblestoreid_real": "",
  "script": {
    "files": [
      {
        "disk1": "N/A"
      },
      {
        "disk2": "N/A"
      }
    ],
    "game": {
      "disks": [
        "disk1",
        "disk2"
      ],
      "main_file": "disk1"
    },
    "installer": [
      {
        "merge": {
          "dst": "$GAMEDIR",
          "src": "disk1"
        }
      },
      {
        "merge": {
          "dst": "$GAMEDIR",
          "src": "disk2"
        }
      }
    ]
  },
  "content": "files:\n- disk1: N/A\n- disk2: N/A\ngame:\n  disks:\n  - disk1\n  - disk2\n  main_file: disk1\ninstaller:\n- merge:\n    dst: $GAMEDIR\n    src: disk1\n- merge:\n    dst: $GAMEDIR\n    src: disk2\n",
  "discord_id": ""
}