{
  "id": 70007,
  "name": "Schwarzenberg",
  "slug": "schwarzenberg",
  "year": null,
  "banner_url": "",
  "icon_url": "",
  "coverart": null,
  "platforms": [],
  "provider_games": [
    {
      "name": "Schwarzenberg",
      "slug": "schwarzenberg",
      "service": "igdb"
    }
  ],
  "aliases": [],
  "shaders": [],
  "discord_id": "",
  "change_for": null
}