{
  "id": 20357,
  "name": "Nonogram - The Greatest Painter",
  "slug": "nonogram-the-greatest-painter",
  "year": 2018,
  "banner_url": "https://lutris.net/games/banner/nonogram-the-greatest-painter.jpg",
  "icon_url": "https://lutris.net/games/icon/nonogram-the-greatest-painter.png",
  "coverart": "https://lutris.net/media/igdb/cover_big/co3q7d.jpg",
  "platforms": [
    {
      "name": "Windows"
    }
  ],
  "provider_games": [
    {
      "name": "Nonogram - The Greatest Painter",
      "slug": "742490",
      "service": "steam"
    },
    {
      "name": "Nonogram - The Greatest Painter",
      "slug": "nonogram-the-greatest-painter",
      "service": "igdb"
    }
  ],
  "aliases": [],
  "shaders": [],
  "discord_id": "",
  "change_for": null
}