{
  "id": 224605,
  "name": "Ye Olde Cribbage Club: A Later Daters Game",
  "slug": "ye-olde-cribbage-club-a-later-daters-game",
  "year": 2022,
  "banner_url": "",
  "icon_url": "",
  "coverart": "https://lutris.net/media/igdb/cover_big/co4tyc.jpg",
  "platforms": [
    {
      "name": "Windows"
    }
  ],
  "provider_games": [
    {
      "name": "Ye Olde Cribbage Club: A Later Daters Game",
      "slug": "ye-olde-cribbage-club-a-later-daters-game",
      "service": "igdb"
    }
  ],
  "aliases": [],
  "shaders": [],
  "discord_id": "",
  "change_for": null
}