{
  "id": 197250,
  "name": "Vestige",
  "slug": "vestige--1",
  "year": 2016,
  "banner_url": "",
  "icon_url": "",
  "coverart": "https://lutris.net/media/igdb/cover_big/co4c2j.jpg",
  "platforms": [
    {
      "name": "Mac"
    },
    {
      "name": "Windows"
    }
  ],
  "provider_games": [
    {
      "name": "Vestige",
      "slug": "vestige--1",
      "service": "igdb"
    }
  ],
  "aliases": [],
  "shaders": [],
  "discord_id": "",
  "change_for": null
}