{
  "id": 307516,
  "name": "Kung Fu Statesmen",
  "slug": "kung-fu-statesmen",
  "year": 2005,
  "banner_url": "",
  "icon_url": "",
  "coverart": null,
  "platforms": [
    {
      "name": "Browser"
    }
  ],
  "provider_games": [
    {
      "name": "Kung Fu Statesmen",
      "slug": "kung-fu-statesmen",
      "service": "igdb"
    }
  ],
  "aliases": [],
  "shaders": [],
  "discord_id": "",
  "change_for": null
}