{
  "id": 233435,
  "name": "Boogerman II: The Final Adventure",
  "slug": "boogerman-ii-the-final-adventure",
  "year": 1997,
  "banner_url": "",
  "icon_url": "",
  "coverart": "https://lutris.net/media/igdb/cover_big/co69uc.jpg",
  "platforms": [
    {
      "name": "Family Computer"
    }
  ],
  "provider_games": [
    {
      "name": "Boogerman II: The Final Adventure",
      "slug": "boogerman-ii-the-final-adventure",
      "service": "igdb"
    }
  ],
  "aliases": [],
  "shaders": [],
  "discord_id": "",
  "change_for": null
}