{
  "id": 153407,
  "name": "Corrupted Commander",
  "slug": "corrupted-commander",
  "year": null,
  "banner_url": "",
  "icon_url": "",
  "coverart": null,
  "platforms": [],
  "provider_games": [
    {
      "name": "Corrupted Commander",
      "slug": "corrupted-commander",
      "service": "igdb"
    }
  ],
  "aliases": [],
  "shaders": [],
  "discord_id": "",
  "change_for": null
}