{
  "id": 35941,
  "name": "Steel Talons",
  "slug": "steel-talons",
  "year": 1991,
  "banner_url": "https://lutris.net/games/banner/steel-talons.jpg",
  "icon_url": "https://lutris.net/games/icon/steel-talons.png",
  "coverart": "https://lutris.net/media/igdb/cover_big/co1ucs.jpg",
  "platforms": [
    {
      "name": "Arcade"
    },
    {
      "name": "Sega Genesis / Mega Drive"
    },
    {
      "name": "Super Nintendo"
    }
  ],
  "provider_games": [
    {
      "name": "Steel Talons",
      "slug": "steeltal",
      "service": "mame"
    },
    {
      "name": "Steel Talons",
      "slug": "steel-talons",
      "service": "igdb"
    }
  ],
  "aliases": [],
  "shaders": [],
  "discord_id": "",
  "change_for": null
}