{
  "id": 218848,
  "name": "Overtop",
  "slug": "overtop",
  "year": null,
  "banner_url": "",
  "icon_url": "",
  "coverart": "https://lutris.net/media/igdb/cover_big/co520h.jpg",
  "platforms": [],
  "provider_games": [
    {
      "name": "Overtop",
      "slug": "overtop",
      "service": "igdb"
    }
  ],
  "aliases": [],
  "shaders": [],
  "discord_id": "",
  "change_for": null
}