{
  "id": 114620,
  "name": "Rebellions: Secret Game 2nd Stage",
  "slug": "rebellions-secret-game-2nd-stage",
  "year": 2013,
  "banner_url": "",
  "icon_url": "",
  "coverart": "https://lutris.net/media/igdb/cover_big/co3axa.jpg",
  "platforms": [
    {
      "name": "Sony PSP"
    }
  ],
  "provider_games": [
    {
      "name": "Rebellions: Secret Game 2nd Stage",
      "slug": "rebellions-secret-game-2nd-stage",
      "service": "igdb"
    }
  ],
  "aliases": [],
  "shaders": [],
  "discord_id": "",
  "change_for": null
}