{
  "id": 74455,
  "name": "Gravity Falls: Mystery Shack Attack",
  "slug": "gravity-falls-mystery-shack-attack",
  "year": null,
  "banner_url": "",
  "icon_url": "",
  "coverart": "https://lutris.net/media/igdb/cover_big/co88bd.jpg",
  "platforms": [],
  "provider_games": [
    {
      "name": "Gravity Falls: Mystery Shack Attack",
      "slug": "gravity-falls-mystery-shack-attack",
      "service": "igdb"
    }
  ],
  "aliases": [],
  "shaders": [],
  "discord_id": "",
  "change_for": null
}