{
  "id": 161657,
  "name": "Furgal's Jetpack",
  "slug": "furgals-jetpack",
  "year": null,
  "banner_url": "",
  "icon_url": "",
  "coverart": "https://lutris.net/media/igdb/cover_big/co400m.jpg",
  "platforms": [],
  "provider_games": [
    {
      "name": "Furgal's Jetpack",
      "slug": "furgals-jetpack",
      "service": "igdb"
    }
  ],
  "aliases": [],
  "shaders": [],
  "discord_id": "",
  "change_for": null
}