{
  "id": 270992,
  "name": "Monstercise",
  "slug": "monstercise",
  "year": null,
  "banner_url": "",
  "icon_url": "",
  "coverart": "https://lutris.net/media/igdb/cover_big/co7mr7.jpg",
  "platforms": [],
  "provider_games": [
    {
      "name": "Monstercise",
      "slug": "monstercise",
      "service": "igdb"
    }
  ],
  "aliases": [],
  "shaders": [],
  "discord_id": "",
  "change_for": null
}