{
  "id": 7136,
  "game_id": 8390,
  "game_slug": "crash-bandicoot",
  "name": "Crash Bandicoot",
  "year": 1996,
  "user": "Noxes",
  "runner": "libretro",
  "slug": "crash-bandicoot-playstation",
  "version": "playstation",
  "description": null,
  "notes": "",
  "credits": "",
  "created_at": "2018-01-19T01:03:50.846000Z",
  "updated_at": "2018-03-13T22:06:37.625795Z",
  "draft": false,
  "published": true,
  "published_by": null,
  "rating": "",
  "is_playable": null,
  "steamid": null,
  "gogid": null,
  "gogslug": "",
  "humbleid": "",
  "humblestoreid": "",
  "humblestoreid_real": "",
  "script": {
    "files": [
      {
        "file1": "N/A:Please select the PlayStation CD image file"
      }
    ],
    "game": {
      "core": "mednafen_psx_hw",
      "main_file": "file1"
    },
    "installer": [
      {
        "merge": {
          "dst": "$GAMEDIR",
          "src": "file1"
        }
      }
    ]
  },
  "content": "files:\n- file1: N/A:Please select the PlayStation CD image file\ngame:\n  core: mednafen_psx_hw\n  main_file: file1\ninstaller:\n- merge:\n    dst: $GAMEDIR\n    src: file1\n",
  "discord_id": ""
}