{
  "id": 305206,
  "name": "The Demon Lord’s Daughter and the Tower of Seals",
  "slug": "the-demon-lords-daughter-and-the-tower-of-seals",
  "year": 2025,
  "banner_url": "",
  "icon_url": "",
  "coverart": "https://lutris.net/media/igdb/cover_big/co9bil.jpg",
  "platforms": [
    {
      "name": "Windows"
    }
  ],
  "provider_games": [
    {
      "name": "The Demon Lord’s Daughter and the Tower of Seals",
      "slug": "the-demon-lords-daughter-and-the-tower-of-seals",
      "service": "igdb"
    }
  ],
  "aliases": [],
  "shaders": [],
  "discord_id": "",
  "change_for": null
}