{
  "id": 191064,
  "name": "Dragon Ball Z: Budokai Tenkaichi 2",
  "slug": "dragon-ball-z-budokai-tenkaichi-2",
  "year": 2006,
  "banner_url": "",
  "icon_url": "",
  "coverart": "https://lutris.net/media/igdb/cover_big/co1u7c.jpg",
  "platforms": [
    {
      "name": "Nintendo Wii"
    },
    {
      "name": "Sony PlayStation 2"
    }
  ],
  "provider_games": [
    {
      "name": "Dragon Ball Z: Budokai Tenkaichi 2",
      "slug": "dragon-ball-z-budokai-tenkaichi-2",
      "service": "igdb"
    }
  ],
  "aliases": [],
  "shaders": [],
  "discord_id": "",
  "change_for": null
}