{
  "id": 112261,
  "name": "Le Monde de Titeuf",
  "slug": "le-monde-de-titeuf",
  "year": null,
  "banner_url": "",
  "icon_url": "",
  "coverart": "https://lutris.net/media/igdb/cover_big/co3158.jpg",
  "platforms": [],
  "provider_games": [
    {
      "name": "Le Monde de Titeuf",
      "slug": "le-monde-de-titeuf",
      "service": "igdb"
    }
  ],
  "aliases": [],
  "shaders": [],
  "discord_id": "",
  "change_for": null
}