{
  "id": 144718,
  "name": "Ascendum",
  "slug": "ascendum",
  "year": null,
  "banner_url": "",
  "icon_url": "",
  "coverart": "https://lutris.net/media/igdb/cover_big/co3v4p.jpg",
  "platforms": [],
  "provider_games": [
    {
      "name": "Ascendum",
      "slug": "ascendum",
      "service": "igdb"
    }
  ],
  "aliases": [],
  "shaders": [],
  "discord_id": "",
  "change_for": null
}