{
  "id": 255015,
  "name": "Flower Sort Puzzle",
  "slug": "flower-sort-puzzle",
  "year": null,
  "banner_url": "",
  "icon_url": "",
  "coverart": "https://lutris.net/media/igdb/cover_big/co6yt9.jpg",
  "platforms": [],
  "provider_games": [
    {
      "name": "Flower Sort Puzzle",
      "slug": "flower-sort-puzzle",
      "service": "igdb"
    }
  ],
  "aliases": [],
  "shaders": [],
  "discord_id": "",
  "change_for": null
}