{
  "id": 27975,
  "game_id": 9170,
  "game_slug": "grip",
  "name": "GRIP",
  "year": 2018,
  "user": "PowaBanga",
  "runner": "steam",
  "slug": "grip-steam-proton",
  "version": "Steam proton",
  "description": null,
  "notes": "",
  "credits": "",
  "created_at": "2021-05-23T13:32:55.617939Z",
  "updated_at": "2021-12-13T19:17:49.864208Z",
  "draft": false,
  "published": true,
  "published_by": null,
  "rating": "",
  "is_playable": null,
  "steamid": 396900,
  "gogid": 1342466874,
  "gogslug": "grip",
  "humbleid": "",
  "humblestoreid": "",
  "humblestoreid_real": "",
  "script": {
    "game": {
      "appid": 396900
    }
  },
  "content": "game:\n  appid: 396900\n",
  "discord_id": "348146938681622538"
}