{
  "id": 89745,
  "name": "MonsterCrafter",
  "slug": "monstercrafter",
  "year": null,
  "banner_url": "",
  "icon_url": "",
  "coverart": "https://lutris.net/media/igdb/cover_big/co6zxp.jpg",
  "platforms": [],
  "provider_games": [
    {
      "name": "MonsterCrafter",
      "slug": "monstercrafter",
      "service": "igdb"
    }
  ],
  "aliases": [],
  "shaders": [],
  "discord_id": "",
  "change_for": null
}