{
  "id": 153570,
  "name": "Puzzle:Traditional Chinese Paintings",
  "slug": "puzzle-traditional-chinese-paintings",
  "year": null,
  "banner_url": "",
  "icon_url": "",
  "coverart": null,
  "platforms": [],
  "provider_games": [
    {
      "name": "Puzzle:Traditional Chinese Paintings",
      "slug": "puzzle-traditional-chinese-paintings",
      "service": "igdb"
    }
  ],
  "aliases": [],
  "shaders": [],
  "discord_id": "",
  "change_for": null
}