{
  "id": 6642,
  "game_id": 14357,
  "game_slug": "pokemon-tcg-online",
  "name": "Pokémon TCG Online",
  "year": 2011,
  "user": "cxf",
  "runner": "wine",
  "slug": "pokemon-tcg-online-latest",
  "version": "Latest",
  "description": "",
  "notes": "",
  "credits": "",
  "created_at": "2017-12-11T09:20:31.510000Z",
  "updated_at": "2022-01-15T14:28:31.069633Z",
  "draft": false,
  "published": true,
  "published_by": 64834,
  "rating": "",
  "is_playable": null,
  "steamid": null,
  "gogid": null,
  "gogslug": "",
  "humbleid": "",
  "humblestoreid": "",
  "humblestoreid_real": "",
  "script": {
    "files": [
      {
        "pokemon": "https://tcgo-installer.s3.amazonaws.com/PokemonInstaller.msi"
      }
    ],
    "game": {
      "arch": "win32",
      "exe": "drive_c/users/$USER/AppData/Roaming/Pokémon Trading Card Game Online/PokemonTradingCardGameOnline/Pokemon Trading Card Game Online.exe",
      "prefix": "$GAMEDIR"
    },
    "installer": [
      {
        "task": {
          "arch": "win32",
          "name": "create_prefix",
          "prefix": "$GAMEDIR"
        }
      },
      {
        "task": {
          "args": "/i \"$CACHE/pokemon/PokemonInstaller.msi\" /q",
          "description": "Installing Pokemon TCG Online",
          "executable": "msiexec",
          "name": "wineexec",
          "prefix": "$GAMEDIR"
        }
      },
      {
        "task": {
          "name": "winekill",
          "prefix": "$GAMEDIR"
        }
      }
    ],
    "wine": {
      "overrides": {
        "d3d11": "disabled"
      }
    }
  },
  "content": "files:\n- pokemon: https://tcgo-installer.s3.amazonaws.com/PokemonInstaller.msi\ngame:\n  arch: win32\n  exe: \"drive_c/users/$USER/AppData/Roaming/Pok\\xE9mon Trading Card Game Online/PokemonTradingCardGameOnline/Pokemon\\\n    \\ Trading Card Game Online.exe\"\n  prefix: $GAMEDIR\ninstaller:\n- task:\n    arch: win32\n    name: create_prefix\n    prefix: $GAMEDIR\n- task:\n    args: /i \"$CACHE/pokemon/PokemonInstaller.msi\" /q\n    description: Installing Pokemon TCG Online\n    executable: msiexec\n    name: wineexec\n    prefix: $GAMEDIR\n- task:\n    name: winekill\n    prefix: $GAMEDIR\nwine:\n  overrides:\n    d3d11: disabled\n",
  "discord_id": ""
}