{
  "id": 20095,
  "name": "RollingBall: Unlimited World",
  "slug": "rollingball-unlimited-world",
  "year": 2018,
  "banner_url": "https://lutris.net/games/banner/rollingball-unlimited-world.jpg",
  "icon_url": "https://lutris.net/games/icon/rollingball-unlimited-world.png",
  "coverart": null,
  "platforms": [
    {
      "name": "Windows"
    }
  ],
  "provider_games": [
    {
      "name": "RollingBall: Unlimited World",
      "slug": "834420",
      "service": "steam"
    },
    {
      "name": "RollingBall: Unlimited World",
      "slug": "rollingball-unlimited-world",
      "service": "igdb"
    }
  ],
  "aliases": [],
  "shaders": [],
  "discord_id": "",
  "change_for": null
}