{
  "id": 144766,
  "name": "Red Tether",
  "slug": "red-tether",
  "year": null,
  "banner_url": "",
  "icon_url": "",
  "coverart": "https://lutris.net/media/igdb/cover_big/co3v3a.jpg",
  "platforms": [],
  "provider_games": [
    {
      "name": "Red Tether",
      "slug": "red-tether",
      "service": "igdb"
    }
  ],
  "aliases": [],
  "shaders": [],
  "discord_id": "",
  "change_for": null
}