{
  "id": 295346,
  "name": "Escape from the Cursed Convent",
  "slug": "escape-from-the-cursed-convent",
  "year": null,
  "banner_url": "",
  "icon_url": "",
  "coverart": "https://lutris.net/media/igdb/cover_big/co8pia.jpg",
  "platforms": [
    {
      "name": "Windows"
    }
  ],
  "provider_games": [
    {
      "name": "Escape from the Cursed Convent",
      "slug": "escape-from-the-cursed-convent",
      "service": "igdb"
    }
  ],
  "aliases": [],
  "shaders": [],
  "discord_id": "",
  "change_for": null
}