{
  "id": 14103,
  "name": "Plexus",
  "slug": "plexus",
  "year": 2017,
  "banner_url": "https://lutris.net/games/banner/plexus.jpg",
  "icon_url": "https://lutris.net/games/icon/plexus.png",
  "coverart": "https://lutris.net/media/igdb/cover_big/bj0zk85qo0xyvtxgarcc.jpg",
  "platforms": [
    {
      "name": "Linux"
    },
    {
      "name": "Windows"
    }
  ],
  "provider_games": [
    {
      "name": "Plexus",
      "slug": "672250",
      "service": "steam"
    },
    {
      "name": "Plexus",
      "slug": "plexus",
      "service": "igdb"
    }
  ],
  "aliases": [],
  "shaders": [],
  "discord_id": "",
  "change_for": null
}