{
  "id": 139726,
  "name": "Kosodate Quiz Dokodemo: My Angel",
  "slug": "kosodate-quiz-dokodemo-my-angel",
  "year": 1999,
  "banner_url": "",
  "icon_url": "",
  "coverart": "https://lutris.net/media/igdb/cover_big/co3s44.jpg",
  "platforms": [
    {
      "name": "WonderSwan"
    }
  ],
  "provider_games": [
    {
      "name": "Kosodate Quiz Dokodemo: My Angel",
      "slug": "kosodate-quiz-dokodemo-my-angel",
      "service": "igdb"
    }
  ],
  "aliases": [],
  "shaders": [],
  "discord_id": "",
  "change_for": null
}