{
  "id": 81257,
  "name": "Zomon: The Path of Heroes",
  "slug": "zomon-the-path-of-heroes",
  "year": null,
  "banner_url": "",
  "icon_url": "",
  "coverart": "https://lutris.net/media/igdb/cover_big/bk8hxibksycsf2o8n9d1.jpg",
  "platforms": [],
  "provider_games": [
    {
      "name": "Zomon: The Path of Heroes",
      "slug": "zomon-the-path-of-heroes",
      "service": "igdb"
    }
  ],
  "aliases": [],
  "shaders": [],
  "discord_id": "",
  "change_for": null
}