{
  "id": 247078,
  "name": "Lover Simulator2",
  "slug": "lover-simulator2",
  "year": null,
  "banner_url": "",
  "icon_url": "",
  "coverart": "https://lutris.net/media/igdb/cover_big/co6jdw.jpg",
  "platforms": [],
  "provider_games": [
    {
      "name": "Lover Simulator2",
      "slug": "lover-simulator2",
      "service": "igdb"
    }
  ],
  "aliases": [],
  "shaders": [],
  "discord_id": "",
  "change_for": null
}