{
  "id": 145027,
  "name": "Voronica Cleans House: a Vore Adventure",
  "slug": "voronica-cleans-house-a-vore-adventure",
  "year": 2021,
  "banner_url": "https://lutris.net/games/banner/voronica-cleans-house-a-vore-adventure.jpg",
  "icon_url": "",
  "coverart": "https://lutris.net/media/igdb/cover_big/co2z3l.jpg",
  "platforms": [
    {
      "name": "Mac"
    },
    {
      "name": "Windows"
    }
  ],
  "provider_games": [
    {
      "name": "Voronica Cleans House: a Vore Adventure",
      "slug": "voronica-cleans-house-a-vore-adventure",
      "service": "igdb"
    },
    {
      "name": "Voronica Cleans House: a Vore Adventure",
      "slug": "1634950",
      "service": "steam"
    }
  ],
  "aliases": [],
  "shaders": [],
  "discord_id": "",
  "change_for": null
}