{
  "id": 134365,
  "name": "Super Gachapon World: SD Gundam X",
  "slug": "super-gachapon-world-sd-gundam-x",
  "year": 1992,
  "banner_url": "",
  "icon_url": "",
  "coverart": "https://lutris.net/media/igdb/cover_big/co2dgr.jpg",
  "platforms": [
    {
      "name": "Super Nintendo"
    }
  ],
  "provider_games": [
    {
      "name": "Super Gachapon World: SD Gundam X",
      "slug": "super-gachapon-world-sd-gundam-x",
      "service": "igdb"
    }
  ],
  "aliases": [],
  "shaders": [],
  "discord_id": "",
  "change_for": null
}