{
  "id": 137154,
  "name": "Nyanco Project",
  "slug": "nyanco-project",
  "year": null,
  "banner_url": "",
  "icon_url": "",
  "coverart": "https://lutris.net/media/igdb/cover_big/co3q9n.jpg",
  "platforms": [],
  "provider_games": [
    {
      "name": "Nyanco Project",
      "slug": "nyanco-project",
      "service": "igdb"
    }
  ],
  "aliases": [],
  "shaders": [],
  "discord_id": "",
  "change_for": null
}