{
  "id": 250015,
  "name": "Touhou 7.5: Suimusou - Immaterial and Missing Power",
  "slug": "touhou-75-suimusou-immaterial-and-missing-power",
  "year": 2004,
  "banner_url": "https://lutris.net/games/banner/touhou-75-suimusou-immaterial-and-missing-power.jpg",
  "icon_url": "",
  "coverart": null,
  "platforms": [
    {
      "name": "Windows"
    }
  ],
  "provider_games": [],
  "aliases": [],
  "shaders": [],
  "discord_id": "",
  "change_for": null
}