{
  "id": 54216,
  "name": "Sougou Kakutougi RINGS: Astral Bout 3",
  "slug": "sougou-kakutougi-rings-astral-bout-3",
  "year": 1995,
  "banner_url": "",
  "icon_url": "",
  "coverart": "https://lutris.net/media/igdb/cover_big/cwjdsg6dl45vyomnpbro.jpg",
  "platforms": [
    {
      "name": "Super Nintendo"
    }
  ],
  "provider_games": [
    {
      "name": "Sougou Kakutougi Rings: Astral Bout 3",
      "slug": "sougou-kakutougi-rings-astral-bout-3",
      "service": "igdb"
    }
  ],
  "aliases": [],
  "shaders": [],
  "discord_id": "",
  "change_for": null
}