{
  "id": 60311,
  "name": "Federation Booker",
  "slug": "federation-booker",
  "year": null,
  "banner_url": "",
  "icon_url": "",
  "coverart": "https://lutris.net/media/igdb/cover_big/tvako9c6mw5z3x7eqgag.jpg",
  "platforms": [],
  "provider_games": [
    {
      "name": "Federation Booker",
      "slug": "federation-booker",
      "service": "igdb"
    }
  ],
  "aliases": [],
  "shaders": [],
  "discord_id": "",
  "change_for": null
}