{
  "id": 194736,
  "name": "Red White Yellow Stingray",
  "slug": "red-white-yellow-stingray",
  "year": null,
  "banner_url": "",
  "icon_url": "",
  "coverart": "https://lutris.net/media/igdb/cover_big/co4qcj.jpg",
  "platforms": [],
  "provider_games": [
    {
      "name": "Red White Yellow Stingray",
      "slug": "red-white-yellow-stingray",
      "service": "igdb"
    }
  ],
  "aliases": [],
  "shaders": [],
  "discord_id": "",
  "change_for": null
}