{
  "id": 201512,
  "name": "LSI Table Stadium Baseball",
  "slug": "lsi-table-stadium-baseball",
  "year": null,
  "banner_url": "",
  "icon_url": "",
  "coverart": "https://lutris.net/media/igdb/cover_big/co4p5m.jpg",
  "platforms": [],
  "provider_games": [
    {
      "name": "LSI Table Stadium Baseball",
      "slug": "lsi-table-stadium-baseball",
      "service": "igdb"
    }
  ],
  "aliases": [],
  "shaders": [],
  "discord_id": "",
  "change_for": null
}