{
  "id": 64618,
  "name": "Intelligent Strategy Games 10",
  "slug": "intelligent-strategy-games-10",
  "year": null,
  "banner_url": "",
  "icon_url": "",
  "coverart": "https://lutris.net/media/igdb/cover_big/eus1onhiq0yvidxpmjlm.jpg",
  "platforms": [],
  "provider_games": [
    {
      "name": "Intelligent Strategy Games 10",
      "slug": "intelligent-strategy-games-10",
      "service": "igdb"
    }
  ],
  "aliases": [],
  "shaders": [],
  "discord_id": "",
  "change_for": null
}