{
  "id": 12736,
  "name": "Geology Business",
  "slug": "geology-business",
  "year": 2015,
  "banner_url": "https://lutris.net/games/banner/geology-business.jpg",
  "icon_url": "https://lutris.net/games/icon/geology-business.png",
  "coverart": "https://lutris.net/media/igdb/cover_big/co2bh5.jpg",
  "platforms": [
    {
      "name": "Windows"
    },
    {
      "name": "Xbox 360"
    }
  ],
  "provider_games": [
    {
      "name": "Geology Business",
      "slug": "527240",
      "service": "steam"
    },
    {
      "name": "Geology Business",
      "slug": "geology-business",
      "service": "igdb"
    }
  ],
  "aliases": [],
  "shaders": [],
  "discord_id": "",
  "change_for": null
}