{
  "id": 216407,
  "name": "Tower Survivors",
  "slug": "tower-survivors",
  "year": null,
  "banner_url": "",
  "icon_url": "",
  "coverart": "https://lutris.net/media/igdb/cover_big/co57t3.jpg",
  "platforms": [],
  "provider_games": [
    {
      "name": "Tower Survivors",
      "slug": "tower-survivors",
      "service": "igdb"
    }
  ],
  "aliases": [],
  "shaders": [],
  "discord_id": "",
  "change_for": null
}