{
  "id": 267429,
  "name": "Multiplication Mayhem",
  "slug": "multiplication-mayhem",
  "year": null,
  "banner_url": "",
  "icon_url": "",
  "coverart": "https://lutris.net/media/igdb/cover_big/co7dyx.jpg",
  "platforms": [],
  "provider_games": [
    {
      "name": "Multiplication Mayhem",
      "slug": "multiplication-mayhem",
      "service": "igdb"
    }
  ],
  "aliases": [],
  "shaders": [],
  "discord_id": "",
  "change_for": null
}