{
  "id": 250413,
  "name": "Curfuffles",
  "slug": "curfuffles",
  "year": null,
  "banner_url": "",
  "icon_url": "",
  "coverart": null,
  "platforms": [],
  "provider_games": [
    {
      "name": "Curfuffles",
      "slug": "curfuffles",
      "service": "igdb"
    }
  ],
  "aliases": [],
  "shaders": [],
  "discord_id": "",
  "change_for": null
}