{
  "id": 184205,
  "name": "Pixelpusher",
  "slug": "pixelpusher",
  "year": null,
  "banner_url": "",
  "icon_url": "",
  "coverart": "https://lutris.net/media/igdb/cover_big/co7bif.jpg",
  "platforms": [],
  "provider_games": [
    {
      "name": "Pixelpusher",
      "slug": "pixelpusher",
      "service": "igdb"
    }
  ],
  "aliases": [],
  "shaders": [],
  "discord_id": "",
  "change_for": null
}