{
  "id": 67219,
  "name": "World Cup 1994",
  "slug": "world-cup-1994",
  "year": null,
  "banner_url": "",
  "icon_url": "",
  "coverart": "https://lutris.net/media/igdb/cover_big/bin1spyqdi7p9b2n8ck9.jpg",
  "platforms": [],
  "provider_games": [
    {
      "name": "World Cup 1994",
      "slug": "world-cup-1994",
      "service": "igdb"
    }
  ],
  "aliases": [],
  "shaders": [],
  "discord_id": "",
  "change_for": null
}