{
  "id": 152530,
  "name": "Gravity Well",
  "slug": "gravity-well",
  "year": null,
  "banner_url": "",
  "icon_url": "",
  "coverart": null,
  "platforms": [],
  "provider_games": [
    {
      "name": "Gravity Well",
      "slug": "gravity-well",
      "service": "igdb"
    }
  ],
  "aliases": [],
  "shaders": [],
  "discord_id": "",
  "change_for": null
}