{
  "id": 245447,
  "name": "VR Fitness",
  "slug": "vr-fitness--1",
  "year": null,
  "banner_url": "",
  "icon_url": "",
  "coverart": "https://lutris.net/media/igdb/cover_big/co6dup.jpg",
  "platforms": [],
  "provider_games": [
    {
      "name": "VR Fitness",
      "slug": "vr-fitness--1",
      "service": "igdb"
    }
  ],
  "aliases": [],
  "shaders": [],
  "discord_id": "",
  "change_for": null
}