{
  "id": 181943,
  "name": "Higurashi no Naku Koro ni: Minagoroshi",
  "slug": "higurashi-no-naku-koro-ni-minagoroshi",
  "year": 2005,
  "banner_url": "",
  "icon_url": "",
  "coverart": "https://lutris.net/media/igdb/cover_big/co47hh.jpg",
  "platforms": [
    {
      "name": "Linux"
    },
    {
      "name": "Mac"
    },
    {
      "name": "Windows"
    }
  ],
  "provider_games": [
    {
      "name": "Higurashi no Naku Koro ni: Minagoroshi",
      "slug": "higurashi-no-naku-koro-ni-minagoroshi",
      "service": "igdb"
    }
  ],
  "aliases": [],
  "shaders": [],
  "discord_id": "",
  "change_for": null
}