{
  "id": 190251,
  "name": "Undernauts: Labyrinth of Yomi",
  "slug": "undernauts-labyrinth-of-yomi",
  "year": 2020,
  "banner_url": "https://lutris.net/games/banner/undernauts-labyrinth-of-yomi.jpg",
  "icon_url": "",
  "coverart": "https://lutris.net/media/igdb/cover_big/co3daf.jpg",
  "platforms": [
    {
      "name": "Nintendo Switch"
    },
    {
      "name": "Sony Playstation 4"
    },
    {
      "name": "Windows"
    },
    {
      "name": "Xbox One"
    }
  ],
  "provider_games": [
    {
      "name": "Undernauts: Labyrinth of Yomi",
      "slug": "undernauts-labyrinth-of-yomi",
      "service": "igdb"
    },
    {
      "name": "Undernauts: Labyrinth of Yomi",
      "slug": "1570510",
      "service": "steam"
    }
  ],
  "aliases": [],
  "shaders": [],
  "discord_id": "",
  "change_for": null
}