{
  "id": 191861,
  "name": "Mago: The Villain's Burger",
  "slug": "mago-the-villains-burger",
  "year": 2022,
  "banner_url": "https://lutris.net/games/banner/mago-the-villains-burger.jpg",
  "icon_url": "https://lutris.net/games/icon/mago-the-villains-burger.png",
  "coverart": "https://lutris.net/media/igdb/cover_big/co4evw.jpg",
  "platforms": [
    {
      "name": "Windows"
    }
  ],
  "provider_games": [
    {
      "name": "Mago: The Villain's Burger",
      "slug": "mago-the-villains-burger",
      "service": "igdb"
    },
    {
      "name": "Mago: The Villain's Burger",
      "slug": "1809650",
      "service": "steam"
    }
  ],
  "aliases": [],
  "shaders": [],
  "discord_id": "",
  "change_for": null
}