{
  "id": 281782,
  "name": "Last Call",
  "slug": "last-call--2",
  "year": null,
  "banner_url": "",
  "icon_url": "",
  "coverart": "https://lutris.net/media/igdb/cover_big/co82qt.jpg",
  "platforms": [],
  "provider_games": [
    {
      "name": "Last Call",
      "slug": "last-call--2",
      "service": "igdb"
    }
  ],
  "aliases": [],
  "shaders": [],
  "discord_id": "",
  "change_for": null
}