{
  "id": 117274,
  "name": "Iris School of Wizardry -Vinculum Hearts-",
  "slug": "iris-school-of-wizardry-vinculum-hearts",
  "year": 2018,
  "banner_url": "",
  "icon_url": "",
  "coverart": "https://lutris.net/media/igdb/cover_big/co2tdc.jpg",
  "platforms": [
    {
      "name": "Nintendo Switch"
    }
  ],
  "provider_games": [
    {
      "name": "Iris School of Wizardry: Vinculum Hearts",
      "slug": "iris-school-of-wizardry-vinculum-hearts",
      "service": "igdb"
    }
  ],
  "aliases": [],
  "shaders": [],
  "discord_id": "",
  "change_for": null
}