{
  "id": 69490,
  "name": "Zero Killed",
  "slug": "zero-killed",
  "year": 2018,
  "banner_url": "",
  "icon_url": "",
  "coverart": "https://lutris.net/media/igdb/cover_big/a9bgcrbayc2rhkmi9wpy.jpg",
  "platforms": [
    {
      "name": "PlayStation VR"
    }
  ],
  "provider_games": [
    {
      "name": "Zero Killed",
      "slug": "zero-killed",
      "service": "igdb"
    }
  ],
  "aliases": [],
  "shaders": [],
  "discord_id": "",
  "change_for": null
}