{
  "id": 198018,
  "name": "XenoTown",
  "slug": "xenotown",
  "year": null,
  "banner_url": "",
  "icon_url": "",
  "coverart": "https://lutris.net/media/igdb/cover_big/co4j8z.jpg",
  "platforms": [],
  "provider_games": [
    {
      "name": "XenoTown",
      "slug": "xenotown",
      "service": "igdb"
    }
  ],
  "aliases": [],
  "shaders": [],
  "discord_id": "",
  "change_for": null
}