{
  "id": 14465,
  "name": "Yomawari: Night Alone",
  "slug": "yomawari-night-alone",
  "year": 2016,
  "banner_url": "https://lutris.net/games/banner/yomawari-night-alone.jpg",
  "icon_url": "https://lutris.net/games/icon/yomawari-night-alone.png",
  "coverart": "https://lutris.net/media/igdb/cover_big/co2nh3.jpg",
  "platforms": [
    {
      "name": "PlayStation Vita"
    },
    {
      "name": "Windows"
    }
  ],
  "provider_games": [
    {
      "name": "Yomawari: Night Alone",
      "slug": "477870",
      "service": "steam"
    },
    {
      "name": "Yomawari: Night Alone",
      "slug": "yomawari-night-alone",
      "service": "igdb"
    }
  ],
  "aliases": [],
  "shaders": [],
  "discord_id": "",
  "change_for": null
}