{
  "id": 151180,
  "name": "Dots!",
  "slug": "dots--2",
  "year": null,
  "banner_url": "",
  "icon_url": "",
  "coverart": "https://lutris.net/media/igdb/cover_big/co3uhw.jpg",
  "platforms": [],
  "provider_games": [
    {
      "name": "Dots!",
      "slug": "dots--2",
      "service": "igdb"
    }
  ],
  "aliases": [],
  "shaders": [],
  "discord_id": "",
  "change_for": null
}