{
  "id": 12341,
  "name": "Xing Chess",
  "slug": "xing-chess",
  "year": 2014,
  "banner_url": "https://lutris.net/games/banner/xing-chess.jpg",
  "icon_url": "",
  "coverart": null,
  "platforms": [
    {
      "name": "Windows"
    }
  ],
  "provider_games": [
    {
      "name": "Xing Chess",
      "slug": "xing-chess",
      "service": "igdb"
    }
  ],
  "aliases": [],
  "shaders": [],
  "discord_id": "",
  "change_for": null
}