{
  "id": 6596,
  "name": "WildStar",
  "slug": "wildstar",
  "year": 2014,
  "banner_url": "https://lutris.net/games/banner/wildstar.jpg",
  "icon_url": "https://lutris.net/games/icon/wildstar.png",
  "coverart": "https://lutris.net/media/igdb/cover_big/co1w60.jpg",
  "platforms": [
    {
      "name": "Windows"
    }
  ],
  "provider_games": [
    {
      "name": "WildStar",
      "slug": "376570",
      "service": "steam"
    },
    {
      "name": "WildStar",
      "slug": "wildstar",
      "service": "igdb"
    }
  ],
  "aliases": [],
  "shaders": [],
  "discord_id": "451546896167731220",
  "change_for": null
}