{
  "id": 216248,
  "name": "Olympian Knights",
  "slug": "olympian-knights",
  "year": null,
  "banner_url": "",
  "icon_url": "",
  "coverart": "https://lutris.net/media/igdb/cover_big/co588t.jpg",
  "platforms": [],
  "provider_games": [
    {
      "name": "Olympian Knights",
      "slug": "olympian-knights",
      "service": "igdb"
    }
  ],
  "aliases": [],
  "shaders": [],
  "discord_id": "",
  "change_for": null
}