{
  "id": 9991,
  "name": "No One Lives Forever",
  "slug": "no-one-lives-forever",
  "year": 2000,
  "banner_url": "https://lutris.net/games/banner/no-one-lives-forever.jpg",
  "icon_url": "",
  "coverart": "https://lutris.net/media/igdb/cover_big/co25un.jpg",
  "platforms": [
    {
      "name": "Mac"
    },
    {
      "name": "Sony PlayStation 2"
    },
    {
      "name": "Windows"
    }
  ],
  "provider_games": [
    {
      "name": "The Operative: No One Lives Forever",
      "slug": "the-operative-no-one-lives-forever",
      "service": "igdb"
    }
  ],
  "aliases": [
    {
      "slug": "the-operative-no-one-lives-forever",
      "name": "The Operative: No One Lives Forever"
    }
  ],
  "shaders": [],
  "discord_id": "",
  "change_for": null
}