{
  "id": 106514,
  "name": "Kono Subarashii Sekai ni Shukufuku wo! in the life!",
  "slug": "kono-subarashii-sekai-ni-shukufuku-wo-in-the-life",
  "year": 2016,
  "banner_url": "",
  "icon_url": "",
  "coverart": "https://lutris.net/media/igdb/cover_big/co2ud5.jpg",
  "platforms": [
    {
      "name": "Windows"
    }
  ],
  "provider_games": [
    {
      "name": "Kono Subarashii Sekai ni Shukufuku wo! In the Life!",
      "slug": "kono-subarashii-sekai-ni-shukufuku-wo-in-the-life",
      "service": "igdb"
    }
  ],
  "aliases": [],
  "shaders": [],
  "discord_id": "",
  "change_for": null
}