{
  "id": 156628,
  "name": "SD Gundam Gaiden: Knight Gundam Monogatari 3 - Densetsu no Kishi Dan",
  "slug": "sd-gundam-gaiden-knight-gundam-monogatari-3-densetsu-no-kishi-dan",
  "year": 1992,
  "banner_url": "",
  "icon_url": "",
  "coverart": "https://lutris.net/media/igdb/cover_big/co4v46.jpg",
  "platforms": [
    {
      "name": "Family Computer"
    }
  ],
  "provider_games": [
    {
      "name": "SD Gundam Gaiden: Knight Gundam Monogatari 3 - Densetsu no Kishi-dan",
      "slug": "sd-gundam-gaiden-knight-gundam-monogatari-3-densetsu-no-kishi-dan",
      "service": "igdb"
    }
  ],
  "aliases": [],
  "shaders": [],
  "discord_id": "",
  "change_for": null
}