{
  "id": 7591,
  "game_id": 710,
  "game_slug": "breath-of-death-vii",
  "name": "Breath of Death VII ",
  "year": 2010,
  "user": "king_dick",
  "runner": "winesteam",
  "slug": "breath-of-death-vii-steam",
  "version": "Steam",
  "description": null,
  "notes": "",
  "credits": "",
  "created_at": "2018-03-18T06:02:01.767000Z",
  "updated_at": "2018-04-26T00:30:06.241011Z",
  "draft": false,
  "published": true,
  "published_by": null,
  "rating": "",
  "is_playable": null,
  "steamid": 107300,
  "gogid": null,
  "gogslug": "",
  "humbleid": "",
  "humblestoreid": "",
  "humblestoreid_real": "",
  "script": {
    "game": {
      "appid": 107300,
      "arch": "win32",
      "prefix": "$GAMEDIR/prefix"
    },
    "installer": [
      {
        "task": {
          "arch": "win32",
          "description": "Creating Wine prefix",
          "name": "create_prefix",
          "prefix": "$GAMEDIR/prefix"
        }
      },
      {
        "task": {
          "app": "dotnet40",
          "name": "winetricks",
          "prefix": "$GAMEDIR/prefix",
          "silent": false
        }
      },
      {
        "task": {
          "app": "xna40",
          "name": "winetricks",
          "prefix": "$GAMEDIR/prefix",
          "silent": false
        }
      },
      {
        "task": {
          "app": "devenum",
          "name": "winetricks",
          "prefix": "$GAMEDIR/prefix",
          "silent": false
        }
      },
      {
        "task": {
          "app": "quartz",
          "name": "winetricks",
          "prefix": "$GAMEDIR/prefix",
          "silent": false
        }
      },
      {
        "task": {
          "app": "wmp9",
          "name": "winetricks",
          "prefix": "$GAMEDIR/prefix",
          "silent": false
        }
      },
      {
        "task": {
          "app": "qedit",
          "name": "winetricks",
          "prefix": "$GAMEDIR/prefix",
          "silent": false
        }
      },
      {
        "task": {
          "app": "dsdmo",
          "name": "winetricks",
          "prefix": "$GAMEDIR/prefix",
          "silent": false
        }
      }
    ]
  },
  "content": "game:\n  appid: 107300\n  arch: win32\n  prefix: $GAMEDIR/prefix\ninstaller:\n- task:\n    arch: win32\n    description: Creating Wine prefix\n    name: create_prefix\n    prefix: $GAMEDIR/prefix\n- task:\n    app: dotnet40\n    name: winetricks\n    prefix: $GAMEDIR/prefix\n    silent: false\n- task:\n    app: xna40\n    name: winetricks\n    prefix: $GAMEDIR/prefix\n    silent: false\n- task:\n    app: devenum\n    name: winetricks\n    prefix: $GAMEDIR/prefix\n    silent: false\n- task:\n    app: quartz\n    name: winetricks\n    prefix: $GAMEDIR/prefix\n    silent: false\n- task:\n    app: wmp9\n    name: winetricks\n    prefix: $GAMEDIR/prefix\n    silent: false\n- task:\n    app: qedit\n    name: winetricks\n    prefix: $GAMEDIR/prefix\n    silent: false\n- task:\n    app: dsdmo\n    name: winetricks\n    prefix: $GAMEDIR/prefix\n    silent: false\n",
  "discord_id": ""
}