{
  "id": 99222,
  "name": "rara racer",
  "slug": "rara-racer",
  "year": null,
  "banner_url": "",
  "icon_url": "",
  "coverart": "https://lutris.net/media/igdb/cover_big/co7yg7.jpg",
  "platforms": [],
  "provider_games": [
    {
      "name": "Rara Racer",
      "slug": "rara-racer",
      "service": "igdb"
    }
  ],
  "aliases": [],
  "shaders": [],
  "discord_id": "",
  "change_for": null
}