{
  "id": 253420,
  "name": "Niktophobia",
  "slug": "niktophobia",
  "year": null,
  "banner_url": "",
  "icon_url": "",
  "coverart": "https://lutris.net/media/igdb/cover_big/co6ubv.jpg",
  "platforms": [],
  "provider_games": [
    {
      "name": "Niktophobia",
      "slug": "niktophobia",
      "service": "igdb"
    }
  ],
  "aliases": [],
  "shaders": [],
  "discord_id": "",
  "change_for": null
}