{
  "id": 31092,
  "name": "The Settlers : Rise of an Empire - History Edition",
  "slug": "the-settlers-rise-of-an-empire-history-edition",
  "year": 2018,
  "banner_url": "https://lutris.net/games/banner/the-settlers-rise-of-an-empire-history-edition.jpg",
  "icon_url": "https://lutris.net/games/icon/the-settlers-rise-of-an-empire-history-edition.png",
  "coverart": "https://lutris.net/media/igdb/cover_big/co296n.jpg",
  "platforms": [
    {
      "name": "Windows"
    }
  ],
  "provider_games": [
    {
      "name": "The Settlers : Rise of an Empire - History Edition",
      "slug": "965310",
      "service": "steam"
    },
    {
      "name": "The Settlers: Rise of an Empire - History Edition",
      "slug": "the-settlers-rise-of-an-empire-history-edition",
      "service": "igdb"
    }
  ],
  "aliases": [],
  "shaders": [],
  "discord_id": "",
  "change_for": null
}