{
  "id": 88953,
  "name": "Secret Kingdom Defenders",
  "slug": "secret-kingdom-defenders",
  "year": 2018,
  "banner_url": "",
  "icon_url": "",
  "coverart": "https://lutris.net/media/igdb/cover_big/o5xb0bkdpem19iqfwwvl.jpg",
  "platforms": [
    {
      "name": "Android"
    }
  ],
  "provider_games": [
    {
      "name": "Secret Kingdom Defenders",
      "slug": "secret-kingdom-defenders",
      "service": "igdb"
    }
  ],
  "aliases": [],
  "shaders": [],
  "discord_id": "",
  "change_for": null
}