{
  "id": 197498,
  "name": "Warhammer 40,000: Shootas, Blood & Teef",
  "slug": "warhammer-40000-shootas-blood-and-teef",
  "year": null,
  "banner_url": "",
  "icon_url": "",
  "coverart": null,
  "platforms": [],
  "provider_games": [
    {
      "name": "Warhammer 40,000: Shootas, Blood & Teef",
      "slug": "warhammer-40000-shootas-blood-and-teef",
      "service": "igdb"
    }
  ],
  "aliases": [],
  "shaders": [],
  "discord_id": "",
  "change_for": null
}