{
  "id": 104656,
  "name": "Naruto Mobile",
  "slug": "naruto-mobile",
  "year": null,
  "banner_url": "",
  "icon_url": "",
  "coverart": "https://lutris.net/media/igdb/cover_big/co2qt3.jpg",
  "platforms": [],
  "provider_games": [
    {
      "name": "Naruto Mobile",
      "slug": "naruto-mobile",
      "service": "igdb"
    }
  ],
  "aliases": [],
  "shaders": [],
  "discord_id": "",
  "change_for": null
}