{
  "id": 111781,
  "name": "Zoo Sounds: Fun Educational Games for Kids",
  "slug": "zoo-sounds-fun-educational-games-for-kids",
  "year": null,
  "banner_url": "",
  "icon_url": "",
  "coverart": null,
  "platforms": [],
  "provider_games": [
    {
      "name": "Zoo Sounds: Fun Educational Games for Kids",
      "slug": "zoo-sounds-fun-educational-games-for-kids",
      "service": "igdb"
    }
  ],
  "aliases": [],
  "shaders": [],
  "discord_id": "",
  "change_for": null
}