{
  "id": 89750,
  "name": "Porkerpillar",
  "slug": "porkerpillar",
  "year": null,
  "banner_url": "",
  "icon_url": "",
  "coverart": "https://lutris.net/media/igdb/cover_big/lnirh0nnixzvjib7cmua.jpg",
  "platforms": [],
  "provider_games": [
    {
      "name": "Porkerpillar",
      "slug": "porkerpillar",
      "service": "igdb"
    }
  ],
  "aliases": [],
  "shaders": [],
  "discord_id": "",
  "change_for": null
}