{
  "id": 224499,
  "name": "Blitz Roads",
  "slug": "blitz-roads",
  "year": null,
  "banner_url": "",
  "icon_url": "",
  "coverart": "https://lutris.net/media/igdb/cover_big/co5bps.jpg",
  "platforms": [],
  "provider_games": [
    {
      "name": "Blitz Roads",
      "slug": "blitz-roads",
      "service": "igdb"
    }
  ],
  "aliases": [],
  "shaders": [],
  "discord_id": "",
  "change_for": null
}