{
  "id": 233516,
  "name": "Deathchron",
  "slug": "deathchron",
  "year": null,
  "banner_url": "",
  "icon_url": "",
  "coverart": "https://lutris.net/media/igdb/cover_big/co69s3.jpg",
  "platforms": [],
  "provider_games": [
    {
      "name": "Deathchron",
      "slug": "deathchron",
      "service": "igdb"
    }
  ],
  "aliases": [],
  "shaders": [],
  "discord_id": "",
  "change_for": null
}