{
  "id": 291010,
  "name": "Starsand Island",
  "slug": "starsand-island",
  "year": null,
  "banner_url": "",
  "icon_url": "",
  "coverart": "https://lutris.net/media/igdb/cover_big/co8la4.jpg",
  "platforms": [],
  "provider_games": [
    {
      "name": "Starsand Island",
      "slug": "starsand-island",
      "service": "igdb"
    }
  ],
  "aliases": [],
  "shaders": [],
  "discord_id": "",
  "change_for": null
}