{
  "id": 107290,
  "name": "Dark Castle",
  "slug": "dark-castle",
  "year": 1986,
  "banner_url": "",
  "icon_url": "",
  "coverart": "https://lutris.net/media/igdb/cover_big/ftsihd4cz5sycsalefns.jpg",
  "platforms": [
    {
      "name": "Amiga"
    },
    {
      "name": "Apple IIGS"
    },
    {
      "name": "Atari ST"
    },
    {
      "name": "Commodore C64/128"
    },
    {
      "name": "Mac"
    },
    {
      "name": "Philips CD-i"
    },
    {
      "name": "Sega Genesis / Mega Drive"
    }
  ],
  "provider_games": [
    {
      "name": "Dark Castle",
      "slug": "dark-castle",
      "service": "igdb"
    }
  ],
  "aliases": [],
  "shaders": [],
  "discord_id": "",
  "change_for": null
}