{
  "id": 116801,
  "name": "Ultracore",
  "slug": "ultracore",
  "year": 2019,
  "banner_url": "",
  "icon_url": "",
  "coverart": "https://lutris.net/media/igdb/cover_big/co2t7f.jpg",
  "platforms": [
    {
      "name": "Nintendo Switch"
    },
    {
      "name": "PlayStation Vita"
    },
    {
      "name": "Sega Genesis / Mega Drive"
    },
    {
      "name": "Sony Playstation 4"
    }
  ],
  "provider_games": [
    {
      "name": "Ultracore",
      "slug": "ultracore",
      "service": "igdb"
    }
  ],
  "aliases": [],
  "shaders": [],
  "discord_id": "",
  "change_for": null
}