{
  "id": 191128,
  "name": "Warhammer 40,000: Shootas, Blood & Teef",
  "slug": "warhammer-40000-shootas-blood-teef",
  "year": null,
  "banner_url": "https://lutris.net/games/banner/warhammer-40000-shootas-blood-teef.jpg",
  "icon_url": "",
  "coverart": null,
  "platforms": [],
  "provider_games": [
    {
      "name": "Warhammer 40,000: Shootas, Blood & Teef",
      "slug": "1103297949",
      "service": "gog"
    },
    {
      "name": "Warhammer 40,000: Shootas, Blood & Teef",
      "slug": "1324530",
      "service": "steam"
    }
  ],
  "aliases": [],
  "shaders": [],
  "discord_id": "",
  "change_for": null
}