{
  "id": 240988,
  "name": "Doodle Movie Quiz",
  "slug": "doodle-movie-quiz",
  "year": null,
  "banner_url": "",
  "icon_url": "",
  "coverart": null,
  "platforms": [],
  "provider_games": [
    {
      "name": "Doodle Movie Quiz",
      "slug": "doodle-movie-quiz",
      "service": "igdb"
    }
  ],
  "aliases": [],
  "shaders": [],
  "discord_id": "",
  "change_for": null
}