{
  "id": 181180,
  "name": "Warriors Orochi 3: Ultimate",
  "slug": "warriors-orochi-3-ultimate",
  "year": 2014,
  "banner_url": "",
  "icon_url": "",
  "coverart": "https://lutris.net/media/igdb/cover_big/co2sh9.jpg",
  "platforms": [
    {
      "name": "Nintendo Switch"
    },
    {
      "name": "PlayStation Vita"
    },
    {
      "name": "Sony Playstation 3"
    },
    {
      "name": "Sony Playstation 4"
    },
    {
      "name": "Xbox One"
    }
  ],
  "provider_games": [
    {
      "name": "Warriors Orochi 3: Ultimate",
      "slug": "warriors-orochi-3-ultimate",
      "service": "igdb"
    }
  ],
  "aliases": [],
  "shaders": [],
  "discord_id": "",
  "change_for": null
}