{
  "id": 295558,
  "name": "Cho Chabudai Gaeshi! 2",
  "slug": "cho-chabudai-gaeshi-2",
  "year": 2010,
  "banner_url": "",
  "icon_url": "",
  "coverart": "https://lutris.net/media/igdb/cover_big/co8oe4.jpg",
  "platforms": [
    {
      "name": "Arcade"
    }
  ],
  "provider_games": [
    {
      "name": "Cho Chabudai Gaeshi! 2",
      "slug": "cho-chabudai-gaeshi-2",
      "service": "igdb"
    }
  ],
  "aliases": [],
  "shaders": [],
  "discord_id": "",
  "change_for": null
}