{
  "id": 130599,
  "name": "Dave Mirra Freestyle BMX 3",
  "slug": "dave-mirra-freestyle-bmx-3",
  "year": 2002,
  "banner_url": "",
  "icon_url": "",
  "coverart": "https://lutris.net/media/igdb/cover_big/pw9pay2raost8jycijin.jpg",
  "platforms": [
    {
      "name": "Nintendo Game Boy Advance"
    }
  ],
  "provider_games": [
    {
      "name": "Dave Mirra Freestyle BMX 3",
      "slug": "dave-mirra-freestyle-bmx-3",
      "service": "igdb"
    }
  ],
  "aliases": [],
  "shaders": [],
  "discord_id": "",
  "change_for": null
}