{
  "id": 171328,
  "name": "Error 0: New World Found",
  "slug": "error-0-new-world-found",
  "year": null,
  "banner_url": "",
  "icon_url": "",
  "coverart": null,
  "platforms": [],
  "provider_games": [
    {
      "name": "Error 0: New World Found",
      "slug": "error-0-new-world-found",
      "service": "igdb"
    }
  ],
  "aliases": [],
  "shaders": [],
  "discord_id": "",
  "change_for": null
}