{
  "id": 233715,
  "name": "Genius Quiz DBZ",
  "slug": "genius-quiz-dbz",
  "year": 2016,
  "banner_url": "",
  "icon_url": "",
  "coverart": "https://lutris.net/media/igdb/cover_big/co69lu.jpg",
  "platforms": [
    {
      "name": "Android"
    }
  ],
  "provider_games": [
    {
      "name": "Genius Quiz DBZ",
      "slug": "genius-quiz-dbz",
      "service": "igdb"
    }
  ],
  "aliases": [],
  "shaders": [],
  "discord_id": "",
  "change_for": null
}