{
  "id": 226460,
  "name": "A Nightmare on Elm Street: Son of a Hundred Maniacs",
  "slug": "a-nightmare-on-elm-street-son-of-a-hundred-maniacs",
  "year": null,
  "banner_url": "",
  "icon_url": "",
  "coverart": "https://lutris.net/media/igdb/cover_big/co60lq.jpg",
  "platforms": [],
  "provider_games": [
    {
      "name": "A Nightmare on Elm Street: Son of a Hundred Maniacs",
      "slug": "a-nightmare-on-elm-street-son-of-a-hundred-maniacs",
      "service": "igdb"
    }
  ],
  "aliases": [],
  "shaders": [],
  "discord_id": "",
  "change_for": null
}