{
  "id": 133127,
  "name": "ScubaVenture",
  "slug": "scubaventure",
  "year": 1983,
  "banner_url": "",
  "icon_url": "",
  "coverart": "https://lutris.net/media/igdb/cover_big/uhtybbend2kywd5xcitg.jpg",
  "platforms": [],
  "provider_games": [
    {
      "name": "ScubaVenture",
      "slug": "scubaventure",
      "service": "igdb"
    }
  ],
  "aliases": [],
  "shaders": [],
  "discord_id": "",
  "change_for": null
}