{
  "id": 65923,
  "name": "Hi-Roller Battle",
  "slug": "hi-roller-battle",
  "year": null,
  "banner_url": "",
  "icon_url": "",
  "coverart": "https://lutris.net/media/igdb/cover_big/pz4pf2ojmxljgaqs9azc.jpg",
  "platforms": [],
  "provider_games": [
    {
      "name": "Hi-Roller Battle",
      "slug": "hi-roller-battle",
      "service": "igdb"
    }
  ],
  "aliases": [],
  "shaders": [],
  "discord_id": "",
  "change_for": null
}