{
  "id": 74288,
  "name": "Nova Escape - Space Runner",
  "slug": "nova-escape-space-runner",
  "year": null,
  "banner_url": "",
  "icon_url": "",
  "coverart": null,
  "platforms": [],
  "provider_games": [
    {
      "name": "Nova Escape - Space Runner",
      "slug": "nova-escape-space-runner",
      "service": "igdb"
    }
  ],
  "aliases": [],
  "shaders": [],
  "discord_id": "",
  "change_for": null
}