{
  "id": 18546,
  "game_id": 20513,
  "game_slug": "full-service",
  "name": "Full Service",
  "year": 2020,
  "user": "kimchitea",
  "runner": "linux",
  "slug": "full-service-itchio",
  "version": "itch.io",
  "description": null,
  "notes": "",
  "credits": "",
  "created_at": "2020-02-25T06:12:52.144000Z",
  "updated_at": "2024-04-03T05:34:36.137990Z",
  "draft": false,
  "published": true,
  "published_by": 20548,
  "rating": "",
  "is_playable": null,
  "steamid": 1223810,
  "gogid": null,
  "gogslug": "",
  "humbleid": "",
  "humblestoreid": "",
  "humblestoreid_real": "",
  "script": {
    "files": [
      {
        "file1": "N/A:Please select the game archive"
      }
    ],
    "game": {
      "exe": "FullService.sh"
    },
    "installer": [
      {
        "extract": {
          "file": "$file1"
        }
      },
      {
        "chmodx": "$GAMEDIR/FullService.sh"
      },
      {
        "chmodx": "$GAMEDIR/lib/linux-i686/FullService"
      },
      {
        "chmodx": "$GAMEDIR/lib/linux-x86_64/FullService"
      }
    ]
  },
  "content": "files:\n- file1: N/A:Please select the game archive\ngame:\n  exe: FullService.sh\ninstaller:\n- extract:\n    file: $file1\n- chmodx: $GAMEDIR/FullService.sh\n- chmodx: $GAMEDIR/lib/linux-i686/FullService\n- chmodx: $GAMEDIR/lib/linux-x86_64/FullService\n",
  "discord_id": ""
}