{
  "id": 22154,
  "name": "Dr. Dungeon's MADMAN!",
  "slug": "dr-dungeons-madman",
  "year": 2017,
  "banner_url": "https://lutris.net/games/banner/dr-dungeons-madman.jpg",
  "icon_url": "https://lutris.net/games/icon/dr-dungeons-madman.png",
  "coverart": "https://lutris.net/media/igdb/cover_big/co2awm.jpg",
  "platforms": [
    {
      "name": "Windows"
    }
  ],
  "provider_games": [
    {
      "name": "Dr. Dungeon's MADMAN!",
      "slug": "684570",
      "service": "steam"
    },
    {
      "name": "Dr. Dungeon's Madman!",
      "slug": "dr-dungeons-madman",
      "service": "igdb"
    }
  ],
  "aliases": [],
  "shaders": [],
  "discord_id": "",
  "change_for": null
}