{
  "id": 33221,
  "name": "RoboArena",
  "slug": "roboarena",
  "year": 2020,
  "banner_url": "https://lutris.net/games/banner/roboarena.jpg",
  "icon_url": "https://lutris.net/games/icon/roboarena.png",
  "coverart": "https://lutris.net/media/igdb/cover_big/co3ylt.jpg",
  "platforms": [
    {
      "name": "Windows"
    }
  ],
  "provider_games": [
    {
      "name": "RoboArena",
      "slug": "1051870",
      "service": "steam"
    },
    {
      "name": "RoboArena",
      "slug": "roboarena",
      "service": "igdb"
    }
  ],
  "aliases": [],
  "shaders": [],
  "discord_id": "",
  "change_for": null
}