{
  "id": 142526,
  "name": "Curse of Dragor",
  "slug": "curse-of-dragor",
  "year": 1995,
  "banner_url": "",
  "icon_url": "",
  "coverart": "https://lutris.net/media/igdb/cover_big/co3trg.jpg",
  "platforms": [
    {
      "name": "Mac"
    }
  ],
  "provider_games": [
    {
      "name": "Curse of Dragor",
      "slug": "curse-of-dragor",
      "service": "igdb"
    }
  ],
  "aliases": [],
  "shaders": [],
  "discord_id": "",
  "change_for": null
}