{
  "id": 12150,
  "name": "The Phantom of the Hospital",
  "slug": "the-phantom-of-the-hospital",
  "year": 2016,
  "banner_url": "https://lutris.net/games/banner/the-phantom-of-the-hospital.jpg",
  "icon_url": "",
  "coverart": null,
  "platforms": [
    {
      "name": "Linux"
    }
  ],
  "provider_games": [],
  "aliases": [],
  "shaders": [],
  "discord_id": "",
  "change_for": null
}