{
  "id": 88478,
  "name": "Truth or Dare Party",
  "slug": "truth-or-dare-party",
  "year": 2015,
  "banner_url": "",
  "icon_url": "",
  "coverart": "https://lutris.net/media/igdb/cover_big/fqagdua7yurgcm2do6t7.jpg",
  "platforms": [
    {
      "name": "Mac"
    }
  ],
  "provider_games": [
    {
      "name": "Truth or Dare Party",
      "slug": "truth-or-dare-party",
      "service": "igdb"
    }
  ],
  "aliases": [],
  "shaders": [],
  "discord_id": "",
  "change_for": null
}