{
  "id": 296498,
  "name": "Halloween Pumpkin Brawl",
  "slug": "halloween-pumpkin-brawl",
  "year": 2024,
  "banner_url": "",
  "icon_url": "",
  "coverart": null,
  "platforms": [
    {
      "name": "Sony Playstation 4"
    },
    {
      "name": "Sony PlayStation 5"
    }
  ],
  "provider_games": [
    {
      "name": "Halloween Pumpkin Brawl",
      "slug": "halloween-pumpkin-brawl",
      "service": "igdb"
    }
  ],
  "aliases": [],
  "shaders": [],
  "discord_id": "",
  "change_for": null
}