{
  "id": 1355,
  "name": "Poker Night 2",
  "slug": "poker-night-2",
  "year": 2013,
  "banner_url": "https://lutris.net/games/banner/poker-night-2.jpg",
  "icon_url": "https://lutris.net/games/icon/poker-night-2.png",
  "coverart": "https://lutris.net/media/igdb/cover_big/bdoqqyprgivzxqfn61qd.jpg",
  "platforms": [
    {
      "name": "Mac"
    },
    {
      "name": "Sony Playstation 3"
    },
    {
      "name": "Windows"
    },
    {
      "name": "Xbox 360"
    }
  ],
  "provider_games": [
    {
      "name": "Poker Night 2",
      "slug": "234710",
      "service": "steam"
    },
    {
      "name": "Poker Night 2",
      "slug": "poker-night-2",
      "service": "igdb"
    }
  ],
  "aliases": [],
  "shaders": [],
  "discord_id": "461039002796032000",
  "change_for": null
}