{
  "id": 246853,
  "name": "The Battle for Vega",
  "slug": "the-battle-for-vega",
  "year": null,
  "banner_url": "",
  "icon_url": "",
  "coverart": "https://lutris.net/media/igdb/cover_big/co6jir.jpg",
  "platforms": [],
  "provider_games": [
    {
      "name": "The Battle for Vega",
      "slug": "the-battle-for-vega",
      "service": "igdb"
    }
  ],
  "aliases": [],
  "shaders": [],
  "discord_id": "",
  "change_for": null
}