{
  "id": 40466,
  "name": "Ziggurat 2",
  "slug": "ziggurat-2",
  "year": 2020,
  "banner_url": "https://lutris.net/games/banner/ziggurat-2.jpg",
  "icon_url": "https://lutris.net/games/icon/ziggurat-2.png",
  "coverart": "https://lutris.net/media/igdb/cover_big/co2i29.jpg",
  "platforms": [
    {
      "name": "Linux"
    },
    {
      "name": "Mac"
    },
    {
      "name": "Windows"
    }
  ],
  "provider_games": [
    {
      "name": "Ziggurat 2",
      "slug": "1159560",
      "service": "steam"
    },
    {
      "name": "Ziggurat 2",
      "slug": "1427459497",
      "service": "gog"
    },
    {
      "name": "Ziggurat 2",
      "slug": "ziggurat-2",
      "service": "igdb"
    }
  ],
  "aliases": [],
  "shaders": [],
  "discord_id": "",
  "change_for": null
}