{
  "id": 92416,
  "name": "Weave the Line",
  "slug": "weave-the-line",
  "year": null,
  "banner_url": "",
  "icon_url": "",
  "coverart": null,
  "platforms": [],
  "provider_games": [
    {
      "name": "Weave the Line",
      "slug": "weave-the-line",
      "service": "igdb"
    }
  ],
  "aliases": [],
  "shaders": [],
  "discord_id": "",
  "change_for": null
}