{
  "id": 8628,
  "name": "Neon Space 2",
  "slug": "neon-space-2",
  "year": 2016,
  "banner_url": "https://lutris.net/games/banner/neon-space-2.jpg",
  "icon_url": "https://lutris.net/games/icon/neon-space-2.png",
  "coverart": "https://lutris.net/media/igdb/cover_big/co2d27.jpg",
  "platforms": [
    {
      "name": "Windows"
    }
  ],
  "provider_games": [
    {
      "name": "Neon Space 2",
      "slug": "505210",
      "service": "steam"
    },
    {
      "name": "Neon Space 2",
      "slug": "neon-space-2",
      "service": "igdb"
    }
  ],
  "aliases": [],
  "shaders": [],
  "discord_id": "",
  "change_for": null
}