{
  "id": 38901,
  "name": "Little Comet",
  "slug": "little-comet",
  "year": 2018,
  "banner_url": "https://lutris.net/games/banner/little-comet.jpg",
  "icon_url": "",
  "coverart": "https://lutris.net/media/igdb/cover_big/co45c6.jpg",
  "platforms": [
    {
      "name": "Windows"
    }
  ],
  "provider_games": [
    {
      "name": "Little Comet",
      "slug": "little-comet",
      "service": "igdb"
    }
  ],
  "aliases": [],
  "shaders": [],
  "discord_id": "",
  "change_for": null
}