{
  "id": 214180,
  "name": "Cooking Truck",
  "slug": "cooking-truck",
  "year": null,
  "banner_url": "",
  "icon_url": "",
  "coverart": null,
  "platforms": [],
  "provider_games": [
    {
      "name": "Cooking Truck",
      "slug": "cooking-truck",
      "service": "igdb"
    }
  ],
  "aliases": [],
  "shaders": [],
  "discord_id": "",
  "change_for": null
}