{
  "id": 163306,
  "name": "Youda Legend: The Golden Bird of Paradise",
  "slug": "youda-legend-the-golden-bird-of-paradise",
  "year": null,
  "banner_url": "",
  "icon_url": "",
  "coverart": "https://lutris.net/media/igdb/cover_big/co40lt.jpg",
  "platforms": [],
  "provider_games": [
    {
      "name": "Youda Legend: The Golden Bird of Paradise",
      "slug": "youda-legend-the-golden-bird-of-paradise",
      "service": "igdb"
    }
  ],
  "aliases": [],
  "shaders": [],
  "discord_id": "",
  "change_for": null
}