{
  "id": 164384,
  "name": "Shikigami no Shiro II",
  "slug": "shikigami-no-shiro-ii",
  "year": 2003,
  "banner_url": "",
  "icon_url": "",
  "coverart": "https://lutris.net/media/igdb/cover_big/co41bs.jpg",
  "platforms": [
    {
      "name": "Nintendo GameCube"
    }
  ],
  "provider_games": [
    {
      "name": "Shikigami no Shiro II",
      "slug": "shikigami-no-shiro-ii",
      "service": "igdb"
    }
  ],
  "aliases": [],
  "shaders": [],
  "discord_id": "",
  "change_for": null
}