{
  "id": 277158,
  "name": "Air Traffic Sim: Airport Dispatcher Simulator",
  "slug": "air-traffic-sim-airport-dispatcher-simulator",
  "year": 2024,
  "banner_url": "",
  "icon_url": "",
  "coverart": "https://lutris.net/media/igdb/cover_big/co7vhr.jpg",
  "platforms": [
    {
      "name": "Nintendo Switch"
    }
  ],
  "provider_games": [
    {
      "name": "Air Traffic Sim: Airport Dispatcher Simulator",
      "slug": "air-traffic-sim-airport-dispatcher-simulator",
      "service": "igdb"
    }
  ],
  "aliases": [],
  "shaders": [],
  "discord_id": "",
  "change_for": null
}