{
  "id": 373,
  "game_id": 363,
  "game_slug": "arcania-gothic-4",
  "name": "ArcaniA – Gothic 4",
  "year": 2010,
  "user": "strider",
  "runner": "steam",
  "slug": "arcania-gothic-4-proton",
  "version": "Proton",
  "description": "",
  "notes": "",
  "credits": "",
  "created_at": "2014-01-15T00:29:20.618000Z",
  "updated_at": "2021-05-04T02:43:01.142082Z",
  "draft": false,
  "published": true,
  "published_by": null,
  "rating": "",
  "is_playable": null,
  "steamid": 39690,
  "gogid": 1244052225,
  "gogslug": "arcania",
  "humbleid": "",
  "humblestoreid": "",
  "humblestoreid_real": "",
  "script": {
    "game": {
      "appid": 39690
    }
  },
  "content": "game:\n  appid: 39690\n",
  "discord_id": ""
}