{
  "id": 95303,
  "name": "Skater – Let's Skate",
  "slug": "skater-lets-skate",
  "year": 2018,
  "banner_url": "",
  "icon_url": "",
  "coverart": null,
  "platforms": [
    {
      "name": "Android"
    }
  ],
  "provider_games": [
    {
      "name": "Skater: Let's Skate",
      "slug": "skater-lets-skate",
      "service": "igdb"
    }
  ],
  "aliases": [],
  "shaders": [],
  "discord_id": "",
  "change_for": null
}