{
  "id": 34649,
  "game_id": 105200,
  "game_slug": "dinosaur-park-primeval-zoo",
  "name": "Dinosaur Park: Primeval Zoo",
  "year": 2021,
  "user": "vanstaveren",
  "runner": "steam",
  "slug": "dinosaur-park-primeval-zoo-steam",
  "version": "Steam",
  "description": "",
  "notes": "",
  "credits": "",
  "created_at": "2022-07-31T17:12:37.763002Z",
  "updated_at": "2023-01-11T06:01:58.202768Z",
  "draft": false,
  "published": true,
  "published_by": null,
  "rating": "",
  "is_playable": null,
  "steamid": 1844240,
  "gogid": null,
  "gogslug": "",
  "humbleid": "",
  "humblestoreid": "",
  "humblestoreid_real": "",
  "script": {
    "game": {
      "appid": 1844240
    }
  },
  "content": "game:\n  appid: 1844240\n",
  "discord_id": ""
}