{
  "id": 212300,
  "name": "Family Town",
  "slug": "family-town",
  "year": null,
  "banner_url": "",
  "icon_url": "",
  "coverart": "https://lutris.net/media/igdb/cover_big/co5eov.jpg",
  "platforms": [],
  "provider_games": [
    {
      "name": "Family Town",
      "slug": "family-town",
      "service": "igdb"
    }
  ],
  "aliases": [],
  "shaders": [],
  "discord_id": "",
  "change_for": null
}