{
  "id": 20740,
  "name": "Blowhards",
  "slug": "blowhards",
  "year": 2017,
  "banner_url": "https://lutris.net/games/banner/blowhards.jpg",
  "icon_url": "https://lutris.net/games/icon/blowhards.png",
  "coverart": "https://lutris.net/media/igdb/cover_big/co232u.jpg",
  "platforms": [
    {
      "name": "Windows"
    }
  ],
  "provider_games": [
    {
      "name": "Blowhards",
      "slug": "552000",
      "service": "steam"
    },
    {
      "name": "Blowhards",
      "slug": "blowhards",
      "service": "igdb"
    }
  ],
  "aliases": [],
  "shaders": [],
  "discord_id": "",
  "change_for": null
}