{
  "id": 159252,
  "name": "Gridders",
  "slug": "gridders",
  "year": 1994,
  "banner_url": "",
  "icon_url": "",
  "coverart": "https://lutris.net/media/igdb/cover_big/co3yqd.jpg",
  "platforms": [
    {
      "name": "3DO"
    }
  ],
  "provider_games": [
    {
      "name": "Gridders",
      "slug": "gridders",
      "service": "igdb"
    }
  ],
  "aliases": [],
  "shaders": [],
  "discord_id": "",
  "change_for": null
}