{
  "id": 133470,
  "name": "Wall Jump Stuff",
  "slug": "wall-jump-stuff",
  "year": null,
  "banner_url": "",
  "icon_url": "",
  "coverart": "https://lutris.net/media/igdb/cover_big/co3lab.jpg",
  "platforms": [],
  "provider_games": [
    {
      "name": "Wall Jump Stuff",
      "slug": "wall-jump-stuff",
      "service": "igdb"
    }
  ],
  "aliases": [],
  "shaders": [],
  "discord_id": "",
  "change_for": null
}