{
  "id": 175702,
  "name": "The Simpsons Pinball Party",
  "slug": "the-simpsons-pinball-party",
  "year": 2006,
  "banner_url": "",
  "icon_url": "",
  "coverart": null,
  "platforms": [
    {
      "name": "Nintendo Game Boy Advance"
    }
  ],
  "provider_games": [
    {
      "name": "The Simpsons Pinball Party",
      "slug": "the-simpsons-pinball-party",
      "service": "igdb"
    }
  ],
  "aliases": [],
  "shaders": [],
  "discord_id": "",
  "change_for": null
}