{
  "id": 256921,
  "name": "Mountain Bicycle Rider Simulator",
  "slug": "mountain-bicycle-rider-simulator",
  "year": null,
  "banner_url": "",
  "icon_url": "",
  "coverart": "https://lutris.net/media/igdb/cover_big/co711z.jpg",
  "platforms": [],
  "provider_games": [
    {
      "name": "Mountain Bicycle Rider Simulator",
      "slug": "mountain-bicycle-rider-simulator",
      "service": "igdb"
    }
  ],
  "aliases": [],
  "shaders": [],
  "discord_id": "",
  "change_for": null
}