{
  "id": 57615,
  "name": "Circlt",
  "slug": "circlt",
  "year": null,
  "banner_url": "",
  "icon_url": "",
  "coverart": "https://lutris.net/media/igdb/cover_big/o0klxx3rgxknabiqhrtu.jpg",
  "platforms": [],
  "provider_games": [
    {
      "name": "Circlt",
      "slug": "circlt",
      "service": "igdb"
    }
  ],
  "aliases": [],
  "shaders": [],
  "discord_id": "",
  "change_for": null
}