{
  "id": 3503,
  "name": "The Collider",
  "slug": "the-collider",
  "year": 2014,
  "banner_url": "https://lutris.net/games/banner/the-collider.jpg",
  "icon_url": "https://lutris.net/games/icon/the-collider.png",
  "coverart": "https://lutris.net/media/igdb/cover_big/co1kgn.jpg",
  "platforms": [
    {
      "name": "Linux"
    },
    {
      "name": "Mac"
    },
    {
      "name": "Windows"
    }
  ],
  "provider_games": [
    {
      "name": "The Collider",
      "slug": "the-collider",
      "service": "igdb"
    }
  ],
  "aliases": [],
  "shaders": [],
  "discord_id": "",
  "change_for": null
}