{
  "id": 179451,
  "name": "Logistics Inc",
  "slug": "logistics-inc",
  "year": null,
  "banner_url": "",
  "icon_url": "",
  "coverart": null,
  "platforms": [],
  "provider_games": [
    {
      "name": "Logistics Inc",
      "slug": "logistics-inc",
      "service": "igdb"
    }
  ],
  "aliases": [],
  "shaders": [],
  "discord_id": "",
  "change_for": null
}