{
  "id": 83685,
  "name": "Jackson",
  "slug": "jackson",
  "year": 1982,
  "banner_url": "",
  "icon_url": "",
  "coverart": null,
  "platforms": [],
  "provider_games": [
    {
      "name": "Jackson",
      "slug": "jackson",
      "service": "igdb"
    }
  ],
  "aliases": [],
  "shaders": [],
  "discord_id": "",
  "change_for": null
}