{
  "id": 21828,
  "name": "Deus Vult II",
  "slug": "deus-vult-ii",
  "year": 2008,
  "banner_url": "https://lutris.net/games/banner/deus-vult-ii.jpg",
  "icon_url": "",
  "coverart": "https://lutris.net/media/igdb/cover_big/co2iew.jpg",
  "platforms": [
    {
      "name": "Linux"
    },
    {
      "name": "Windows"
    }
  ],
  "provider_games": [
    {
      "name": "Deus Vult II",
      "slug": "deus-vult-ii",
      "service": "igdb"
    }
  ],
  "aliases": [],
  "shaders": [],
  "discord_id": "",
  "change_for": null
}