{
  "id": 235411,
  "name": "Grows: Journey to the Sunshine",
  "slug": "grows-journey-to-the-sunshine",
  "year": null,
  "banner_url": "",
  "icon_url": "",
  "coverart": null,
  "platforms": [],
  "provider_games": [
    {
      "name": "Grows: Journey to the Sunshine",
      "slug": "grows-journey-to-the-sunshine",
      "service": "igdb"
    }
  ],
  "aliases": [],
  "shaders": [],
  "discord_id": "",
  "change_for": null
}