{
  "id": 120459,
  "name": "Passengers: Awakening",
  "slug": "passengers-awakening",
  "year": 2017,
  "banner_url": "https://lutris.net/games/banner/passengers-awakening.jpg",
  "icon_url": "",
  "coverart": "https://lutris.net/media/igdb/cover_big/co2dt3.jpg",
  "platforms": [
    {
      "name": "Windows"
    }
  ],
  "provider_games": [
    {
      "name": "Passengers: Awakening",
      "slug": "601490",
      "service": "steam"
    },
    {
      "name": "Passengers: Awakening",
      "slug": "passengers-awakening",
      "service": "igdb"
    }
  ],
  "aliases": [],
  "shaders": [],
  "discord_id": "",
  "change_for": null
}