{
  "id": 173088,
  "name": "Riddle School 2: Legacy Edition",
  "slug": "riddle-school-2-legacy-edition",
  "year": 2020,
  "banner_url": "",
  "icon_url": "",
  "coverart": "https://lutris.net/media/igdb/cover_big/co47ul.jpg",
  "platforms": [
    {
      "name": "Mac"
    },
    {
      "name": "Windows"
    }
  ],
  "provider_games": [
    {
      "name": "Riddle School 2: Legacy Edition",
      "slug": "riddle-school-2-legacy-edition",
      "service": "igdb"
    }
  ],
  "aliases": [],
  "shaders": [],
  "discord_id": "",
  "change_for": null
}