{
  "id": 77581,
  "name": "Mr Driller: Drill Till You Drop",
  "slug": "mr-driller-drill-till-you-drop",
  "year": 2009,
  "banner_url": "",
  "icon_url": "",
  "coverart": "https://lutris.net/media/igdb/cover_big/sakfkki6w7bzur0fgdku.jpg",
  "platforms": [
    {
      "name": "Nintendo DS"
    },
    {
      "name": "Nintendo DSi"
    }
  ],
  "provider_games": [
    {
      "name": "Mr. Driller: Drill Till You Drop",
      "slug": "mr-driller-drill-till-you-drop",
      "service": "igdb"
    }
  ],
  "aliases": [],
  "shaders": [],
  "discord_id": "",
  "change_for": null
}