{
  "id": 59350,
  "name": "Platdude in A Bit of a Spin",
  "slug": "platdude-in-a-bit-of-a-spin",
  "year": 2014,
  "banner_url": "",
  "icon_url": "",
  "coverart": "https://lutris.net/media/igdb/cover_big/wqg1lebqnn69otvbb4ew.jpg",
  "platforms": [
    {
      "name": "Ouya"
    }
  ],
  "provider_games": [
    {
      "name": "Platdude in A Bit of a Spin",
      "slug": "platdude-in-a-bit-of-a-spin",
      "service": "igdb"
    }
  ],
  "aliases": [],
  "shaders": [],
  "discord_id": "",
  "change_for": null
}