{
  "id": 13576,
  "game_id": 10357,
  "game_slug": "phantasy-star-online-blue-burst",
  "name": "Phantasy Star Online: Blue Burst",
  "year": 2004,
  "user": "TankErdin",
  "runner": "wine",
  "slug": "phantasy-star-online-blue-bur-ephineapso",
  "version": "EphineaPSO",
  "description": "This installer is for the Ephinea private server for Phantasy Star Online: Blue Burst.  An account with Ephinea is required in order to access their servers.https://ephinea.pioneer2.net/",
  "notes": "Requires an account at ephinea.pioneer2.net",
  "credits": "",
  "created_at": "2019-05-17T01:32:06.674000Z",
  "updated_at": "2025-02-02T17:30:31.693933Z",
  "draft": false,
  "published": true,
  "published_by": 494,
  "rating": "",
  "is_playable": null,
  "steamid": null,
  "gogid": null,
  "gogslug": "",
  "humbleid": "",
  "humblestoreid": "",
  "humblestoreid_real": "",
  "script": {
    "files": [
      {
        "ephineapsobb": "http://files.pioneer2.net/Ephinea_PSOBB_Installer.exe"
      }
    ],
    "game": {
      "arch": "win64",
      "exe": "drive_c/EphineaPSO/online.exe",
      "prefix": "$GAMEDIR"
    },
    "installer": [
      {
        "task": {
          "app": "win7",
          "arch": "win64",
          "description": "Changing to Windows 7",
          "name": "winetricks",
          "prefix": "$GAMEDIR"
        }
      },
      {
        "task": {
          "arch": "win64",
          "args": "/S /D=C:\\\\EphineaPSO",
          "description": "Running Ephinea PSOBB Installer.",
          "executable": "ephineapsobb",
          "name": "wineexec",
          "prefix": "$GAMEDIR"
        }
      },
      {
        "task": {
          "key": "USE_D3D9",
          "name": "set_regedit",
          "path": "HKEY_CURRENT_USER\\Software\\SonicTeam\\PSOBB\\Ephinea",
          "type": "REG_DWORD",
          "value": "00000005"
        }
      }
    ],
    "wine": {
      "overrides": {
        "dinput8": "n,b"
      }
    }
  },
  "content": "files:\n- ephineapsobb: http://files.pioneer2.net/Ephinea_PSOBB_Installer.exe\ngame:\n  arch: win64\n  exe: drive_c/EphineaPSO/online.exe\n  prefix: $GAMEDIR\ninstaller:\n- task:\n    app: win7\n    arch: win64\n    description: Changing to Windows 7\n    name: winetricks\n    prefix: $GAMEDIR\n- task:\n    arch: win64\n    args: /S /D=C:\\\\EphineaPSO\n    description: Running Ephinea PSOBB Installer.\n    executable: ephineapsobb\n    name: wineexec\n    prefix: $GAMEDIR\n- task:\n    key: USE_D3D9\n    name: set_regedit\n    path: HKEY_CURRENT_USER\\Software\\SonicTeam\\PSOBB\\Ephinea\n    type: REG_DWORD\n    value: '00000005'\nwine:\n  overrides:\n    dinput8: n,b\n",
  "discord_id": "505152925115482112"
}