{
  "id": 138156,
  "name": "Phantasy Star Online 2 New Genesis: Aelio Nadar Deluxe Edition",
  "slug": "phantasy-star-online-2-new-genesis-aelio-nadar-deluxe-edition",
  "year": 2021,
  "banner_url": "",
  "icon_url": "",
  "coverart": "https://lutris.net/media/igdb/cover_big/co3r4c.jpg",
  "platforms": [
    {
      "name": "Xbox One"
    }
  ],
  "provider_games": [
    {
      "name": "Phantasy Star Online 2 New Genesis: Aelio Nadar Deluxe Edition",
      "slug": "phantasy-star-online-2-new-genesis-aelio-nadar-deluxe-edition",
      "service": "igdb"
    }
  ],
  "aliases": [],
  "shaders": [],
  "discord_id": "",
  "change_for": null
}