{
  "id": 122697,
  "name": "Struggle For Survival VR",
  "slug": "struggle-for-survival-vr",
  "year": null,
  "banner_url": "",
  "icon_url": "",
  "coverart": null,
  "platforms": [],
  "provider_games": [
    {
      "name": "Struggle For Survival VR",
      "slug": "struggle-for-survival-vr",
      "service": "igdb"
    }
  ],
  "aliases": [],
  "shaders": [],
  "discord_id": "",
  "change_for": null
}