{
  "id": 163827,
  "name": "Sam & Max: The Devil's Playhouse Episode 1 - The Penal Zone",
  "slug": "sam-and-max-the-devils-playhouse-episode-1-the-penal-zone",
  "year": 2010,
  "banner_url": "",
  "icon_url": "",
  "coverart": "https://lutris.net/media/igdb/cover_big/co40rj.jpg",
  "platforms": [
    {
      "name": "Mac"
    },
    {
      "name": "Sony Playstation 3"
    },
    {
      "name": "Windows"
    }
  ],
  "provider_games": [
    {
      "name": "Sam & Max: The Devil's Playhouse - Episode 1: The Penal Zone",
      "slug": "sam-and-max-the-devils-playhouse-episode-1-the-penal-zone",
      "service": "igdb"
    }
  ],
  "aliases": [],
  "shaders": [],
  "discord_id": "",
  "change_for": null
}