{
  "id": 139589,
  "name": "Solys",
  "slug": "solys",
  "year": null,
  "banner_url": "",
  "icon_url": "",
  "coverart": "https://lutris.net/media/igdb/cover_big/co3s19.jpg",
  "platforms": [],
  "provider_games": [
    {
      "name": "Solys",
      "slug": "solys",
      "service": "igdb"
    }
  ],
  "aliases": [],
  "shaders": [],
  "discord_id": "",
  "change_for": null
}