{
  "id": 293507,
  "name": "Good Luck Seducing an Ace Witch",
  "slug": "good-luck-seducing-an-ace-witch",
  "year": 2022,
  "banner_url": "",
  "icon_url": "",
  "coverart": "https://lutris.net/media/igdb/cover_big/co8kq1.jpg",
  "platforms": [
    {
      "name": "Windows"
    }
  ],
  "provider_games": [
    {
      "name": "Good Luck Seducing an Ace Witch",
      "slug": "good-luck-seducing-an-ace-witch",
      "service": "igdb"
    }
  ],
  "aliases": [],
  "shaders": [],
  "discord_id": "",
  "change_for": null
}