{
  "id": 77824,
  "name": "Monkey King Online",
  "slug": "monkey-king-online",
  "year": 2014,
  "banner_url": "",
  "icon_url": "",
  "coverart": "https://lutris.net/media/igdb/cover_big/kzezd2lhyn9d5perxmt7.jpg",
  "platforms": [
    {
      "name": "Browser"
    }
  ],
  "provider_games": [
    {
      "name": "Monkey King Online",
      "slug": "monkey-king-online",
      "service": "igdb"
    }
  ],
  "aliases": [],
  "shaders": [],
  "discord_id": "",
  "change_for": null
}