{
  "id": 192160,
  "name": "无尽大陆",
  "slug": "wu-jin-da-lu",
  "year": null,
  "banner_url": "https://lutris.net/games/banner/wu-jin-da-lu.jpg",
  "icon_url": "https://lutris.net/games/icon/wu-jin-da-lu.png",
  "coverart": null,
  "platforms": [],
  "provider_games": [
    {
      "name": "无尽大陆",
      "slug": "1928640",
      "service": "steam"
    }
  ],
  "aliases": [],
  "shaders": [],
  "discord_id": "",
  "change_for": null
}