{
  "id": 252256,
  "name": "Prostitute Simulator 2",
  "slug": "prostitute-simulator-2",
  "year": null,
  "banner_url": "",
  "icon_url": "",
  "coverart": "https://lutris.net/media/igdb/cover_big/co6sfz.jpg",
  "platforms": [],
  "provider_games": [
    {
      "name": "Prostitute Simulator 2",
      "slug": "prostitute-simulator-2",
      "service": "igdb"
    }
  ],
  "aliases": [],
  "shaders": [],
  "discord_id": "",
  "change_for": null
}