{
  "id": 214236,
  "name": "Super Arrow Online",
  "slug": "super-arrow-online",
  "year": null,
  "banner_url": "",
  "icon_url": "",
  "coverart": null,
  "platforms": [],
  "provider_games": [
    {
      "name": "Super Arrow Online",
      "slug": "super-arrow-online",
      "service": "igdb"
    }
  ],
  "aliases": [],
  "shaders": [],
  "discord_id": "",
  "change_for": null
}