{
  "id": 85356,
  "name": "Pro Baseball Family Stadium '87",
  "slug": "pro-baseball-family-stadium-87",
  "year": null,
  "banner_url": "",
  "icon_url": "",
  "coverart": null,
  "platforms": [],
  "provider_games": [
    {
      "name": "Pro Baseball Family Stadium '87",
      "slug": "pro-baseball-family-stadium-87",
      "service": "igdb"
    }
  ],
  "aliases": [],
  "shaders": [],
  "discord_id": "",
  "change_for": null
}