{
  "id": 81941,
  "name": "Mana Khemia: Student Alliance",
  "slug": "mana-khemia-student-alliance",
  "year": 2008,
  "banner_url": "",
  "icon_url": "",
  "coverart": "https://lutris.net/media/igdb/cover_big/sxju2tfbfq6zkxz0emeo.jpg",
  "platforms": [
    {
      "name": "Sony PSP"
    }
  ],
  "provider_games": [
    {
      "name": "Mana Khemia: Student Alliance",
      "slug": "mana-khemia-student-alliance",
      "service": "igdb"
    }
  ],
  "aliases": [],
  "shaders": [],
  "discord_id": "",
  "change_for": null
}