{
  "id": 147499,
  "name": "绿洲Oasis",
  "slug": "lu-zhou-oasis",
  "year": 2019,
  "banner_url": "",
  "icon_url": "",
  "coverart": "https://lutris.net/media/igdb/cover_big/co32tu.jpg",
  "platforms": [
    {
      "name": "Windows"
    }
  ],
  "provider_games": [
    {
      "name": "Lu Zhou: Oasis",
      "slug": "lu-zhou-oasis",
      "service": "igdb"
    }
  ],
  "aliases": [],
  "shaders": [],
  "discord_id": "",
  "change_for": null
}