{
  "id": 16731,
  "game_id": 30162,
  "game_slug": "3dmark-2001",
  "name": "3DMark 2001",
  "year": 2001,
  "user": "vanstaveren",
  "runner": "wine",
  "slug": "3dmark-2001-pro-se-complete",
  "version": "Pro SE, complete",
  "description": "* License: Legacy,\r\n* Hardware acceleration benchmark software,\r\n* Legacy key: 7QMF2-TSLJR-ESRDD-L3FJF,\r\n* Legacy user: Futuremark,\r\n* Tested: 3DMark 2001 to 2006. \r\n  They all 'work' with the Futuremark SystemInfo 4.15.0, \r\n  that \"comes from downloading and installing 2006\".\r\n* SystemInfo : 4.15.0,\r\n* MP3codec DirectShow,\r\n* DirectX: 8.1,\r\n* Visual C++: 2010.",
  "notes": "* You need to, install 3dmark_2006 first!",
  "credits": "",
  "created_at": "2019-11-09T21:27:41.624000Z",
  "updated_at": "2021-12-11T06:26:56.068617Z",
  "draft": false,
  "published": true,
  "published_by": 1,
  "rating": "",
  "is_playable": null,
  "steamid": null,
  "gogid": null,
  "gogslug": "",
  "humbleid": "",
  "humblestoreid": "",
  "humblestoreid_real": "",
  "script": {
    "files": [
      {
        "setup": "https://benchmarks.ul.com/downloads/3dmark2001.exe"
      }
    ],
    "game": {
      "arch": "win64",
      "exe": "$GAMEDIR/drive_c/Program Files (x86)/MadOnion.com/3DMark2001 SE/3DMark2001SE.exe",
      "prefix": "$GAMEDIR"
    },
    "installer": [
      {
        "task": {
          "arch": "win64",
          "description": "Creating 64-bit prefix ...",
          "name": "create_prefix",
          "prefix": "$GAMEDIR"
        }
      },
      {
        "task": {
          "app": "l3codecx",
          "description": "MP3codec DirectShow ...",
          "name": "winetricks"
        }
      },
      {
        "task": {
          "app": "vcrun2010",
          "description": "Visual C++ 2010 libraries ...",
          "name": "winetricks"
        }
      },
      {
        "task": {
          "app": "win81",
          "description": "Windows version 8.1 ...",
          "name": "winetricks"
        }
      },
      {
        "merge": {
          "description": "Copying SystemInfo 4.15.0 from 3dmark_2006 ...",
          "dst": "$GAMEDIR/drive_c/Program Files (x86)/Futuremark/Futuremark SystemInfo/",
          "src": "$GAMEDIR/../3dmark_2006/drive_c/Program Files (x86)/Futuremark/Futuremark SystemInfo/"
        }
      },
      {
        "move": {
          "dst": "$GAMEDIR",
          "src": "setup"
        }
      },
      {
        "task": {
          "description": "3DMark 2001 ...",
          "executable": "$GAMEDIR/3dmark2001.exe",
          "name": "wineexec",
          "prefix": "$GAMEDIR"
        }
      },
      {
        "task": {
          "description": "Register ExePath ...",
          "key": "ExePath",
          "name": "set_regedit",
          "path": "HKEY_LOCAL_MACHINE\\Software\\Wow6432Node\\MadOnion.com\\3DMark2001 SE",
          "type": "REG_SZ",
          "value": "C:\\\\Program Files (x86)\\\\MadOnion.com\\\\3DMark2001 SE\\\\3DMark2001SE.exe"
        }
      },
      {
        "task": {
          "description": "Register KeyCode ...",
          "key": "3DMarkRegKey",
          "name": "set_regedit",
          "path": "HKEY_LOCAL_MACHINE\\Software\\Wow6432Node\\MadOnion.com\\Registration2001",
          "type": "REG_SZ",
          "value": "7QMF2-TSLJR-ESRDD-L3FJF"
        }
      },
      {
        "task": {
          "description": "Register KeyCode ...",
          "key": "3DMarkRegName",
          "name": "set_regedit",
          "path": "HKEY_LOCAL_MACHINE\\Software\\Wow6432Node\\MadOnion.com\\Registration2001",
          "type": "REG_SZ",
          "value": "Futuremark"
        }
      }
    ],
    "wine": {
      "Desktop": true
    }
  },
  "content": "files:\n- setup: https://benchmarks.ul.com/downloads/3dmark2001.exe\ngame:\n  arch: win64\n  exe: $GAMEDIR/drive_c/Program Files (x86)/MadOnion.com/3DMark2001 SE/3DMark2001SE.exe\n  prefix: $GAMEDIR\ninstaller:\n- task:\n    arch: win64\n    description: Creating 64-bit prefix ...\n    name: create_prefix\n    prefix: $GAMEDIR\n- task:\n    app: l3codecx\n    description: MP3codec DirectShow ...\n    name: winetricks\n- task:\n    app: vcrun2010\n    description: Visual C++ 2010 libraries ...\n    name: winetricks\n- task:\n    app: win81\n    description: Windows version 8.1 ...\n    name: winetricks\n- merge:\n    description: Copying SystemInfo 4.15.0 from 3dmark_2006 ...\n    dst: $GAMEDIR/drive_c/Program Files (x86)/Futuremark/Futuremark SystemInfo/\n    src: $GAMEDIR/../3dmark_2006/drive_c/Program Files (x86)/Futuremark/Futuremark\n      SystemInfo/\n- move:\n    dst: $GAMEDIR\n    src: setup\n- task:\n    description: 3DMark 2001 ...\n    executable: $GAMEDIR/3dmark2001.exe\n    name: wineexec\n    prefix: $GAMEDIR\n- task:\n    description: Register ExePath ...\n    key: ExePath\n    name: set_regedit\n    path: HKEY_LOCAL_MACHINE\\Software\\Wow6432Node\\MadOnion.com\\3DMark2001 SE\n    type: REG_SZ\n    value: C:\\\\Program Files (x86)\\\\MadOnion.com\\\\3DMark2001 SE\\\\3DMark2001SE.exe\n- task:\n    description: Register KeyCode ...\n    key: 3DMarkRegKey\n    name: set_regedit\n    path: HKEY_LOCAL_MACHINE\\Software\\Wow6432Node\\MadOnion.com\\Registration2001\n    type: REG_SZ\n    value: 7QMF2-TSLJR-ESRDD-L3FJF\n- task:\n    description: Register KeyCode ...\n    key: 3DMarkRegName\n    name: set_regedit\n    path: HKEY_LOCAL_MACHINE\\Software\\Wow6432Node\\MadOnion.com\\Registration2001\n    type: REG_SZ\n    value: Futuremark\nwine:\n  Desktop: true\n",
  "discord_id": ""
}