{
  "id": 272645,
  "name": "Super Kids Racing: City Edition",
  "slug": "super-kids-racing-city-edition",
  "year": 2023,
  "banner_url": "",
  "icon_url": "",
  "coverart": "https://lutris.net/media/igdb/cover_big/co7wrm.jpg",
  "platforms": [
    {
      "name": "Sony Playstation 4"
    }
  ],
  "provider_games": [
    {
      "name": "Super Kids Racing: City Edition",
      "slug": "super-kids-racing-city-edition",
      "service": "igdb"
    }
  ],
  "aliases": [],
  "shaders": [],
  "discord_id": "",
  "change_for": null
}