{
  "id": 295533,
  "name": "Stargirl and the Thief from the Exploded Moon",
  "slug": "stargirl-and-the-thief-from-the-exploded-moon",
  "year": 2010,
  "banner_url": "",
  "icon_url": "",
  "coverart": null,
  "platforms": [
    {
      "name": "Windows"
    }
  ],
  "provider_games": [
    {
      "name": "Stargirl and the Thief from the Exploded Moon",
      "slug": "stargirl-and-the-thief-from-the-exploded-moon",
      "service": "igdb"
    }
  ],
  "aliases": [],
  "shaders": [],
  "discord_id": "",
  "change_for": null
}