{
  "id": 211918,
  "name": "Proton Bus Simulator Road",
  "slug": "proton-bus-simulator-road",
  "year": null,
  "banner_url": "",
  "icon_url": "",
  "coverart": "https://lutris.net/media/igdb/cover_big/co5mkb.jpg",
  "platforms": [],
  "provider_games": [
    {
      "name": "Proton Bus Simulator Road",
      "slug": "proton-bus-simulator-road",
      "service": "igdb"
    }
  ],
  "aliases": [],
  "shaders": [],
  "discord_id": "",
  "change_for": null
}