{
  "id": 13892,
  "game_id": 15937,
  "game_slug": "break-chance-memento",
  "name": "Break Chance Memento",
  "year": 2015,
  "user": "kimchitea",
  "runner": "steam",
  "slug": "break-chance-memento-steam-demo",
  "version": "Steam Demo",
  "description": null,
  "notes": "",
  "credits": "",
  "created_at": "2019-06-03T02:26:11.770534Z",
  "updated_at": "2019-06-13T06:22:38.756216Z",
  "draft": false,
  "published": true,
  "published_by": null,
  "rating": "",
  "is_playable": null,
  "steamid": 432130,
  "gogid": null,
  "gogslug": "",
  "humbleid": "",
  "humblestoreid": "",
  "humblestoreid_real": "",
  "script": {
    "game": {
      "appid": 442720
    }
  },
  "content": "game:\n  appid: 442720\n",
  "discord_id": ""
}