{
  "id": 266683,
  "name": "Project Code Neon Mafia",
  "slug": "project-code-neon-mafia",
  "year": 2024,
  "banner_url": "",
  "icon_url": "",
  "coverart": "https://lutris.net/media/igdb/cover_big/co7de2.jpg",
  "platforms": [
    {
      "name": "Nintendo Switch"
    }
  ],
  "provider_games": [
    {
      "name": "Project Code Neon Mafia",
      "slug": "project-code-neon-mafia",
      "service": "igdb"
    }
  ],
  "aliases": [],
  "shaders": [],
  "discord_id": "",
  "change_for": null
}