{
  "id": 45890,
  "name": "Pajama Sam's One Stop Fun Shop",
  "slug": "pajama-sams-one-stop-fun-shop",
  "year": 2000,
  "banner_url": "",
  "icon_url": "",
  "coverart": "https://lutris.net/media/igdb/cover_big/cykbuqfhn6pmw0u08ncp.jpg",
  "platforms": [
    {
      "name": "Windows"
    }
  ],
  "provider_games": [
    {
      "name": "Pajama Sam's One Stop Fun Shop",
      "slug": "pajama-sams-one-stop-fun-shop",
      "service": "igdb"
    }
  ],
  "aliases": [],
  "shaders": [],
  "discord_id": "",
  "change_for": null
}