{
  "id": 200668,
  "name": "Dig This!",
  "slug": "dig-this",
  "year": null,
  "banner_url": "",
  "icon_url": "",
  "coverart": "https://lutris.net/media/igdb/cover_big/co4bmv.jpg",
  "platforms": [],
  "provider_games": [
    {
      "name": "Dig This!",
      "slug": "dig-this",
      "service": "igdb"
    }
  ],
  "aliases": [],
  "shaders": [],
  "discord_id": "",
  "change_for": null
}