{
  "id": 29344,
  "game_id": 23612,
  "game_slug": "the-friends-of-ringo-ishikawa",
  "name": "The friends of Ringo Ishikawa",
  "year": 2018,
  "user": "vanstaveren",
  "runner": "steam",
  "slug": "the-friends-of-ringo-ishikawa-steam",
  "version": "Steam",
  "description": "",
  "notes": "",
  "credits": "",
  "created_at": "2021-09-05T18:33:51.800536Z",
  "updated_at": "2021-12-13T19:10:32.378467Z",
  "draft": false,
  "published": true,
  "published_by": null,
  "rating": "",
  "is_playable": null,
  "steamid": 846110,
  "gogid": 1735964318,
  "gogslug": "the_friends_of_ringo_ishikawa",
  "humbleid": "",
  "humblestoreid": "",
  "humblestoreid_real": "",
  "script": {
    "game": {
      "appid": 846110
    }
  },
  "content": "game:\n  appid: 846110\n",
  "discord_id": ""
}