{
  "id": 282042,
  "name": "Pest Apocalypse",
  "slug": "pest-apocalypse",
  "year": null,
  "banner_url": "",
  "icon_url": "",
  "coverart": "https://lutris.net/media/igdb/cover_big/co82m0.jpg",
  "platforms": [],
  "provider_games": [
    {
      "name": "Pest Apocalypse",
      "slug": "pest-apocalypse",
      "service": "igdb"
    }
  ],
  "aliases": [],
  "shaders": [],
  "discord_id": "",
  "change_for": null
}