{
  "id": 4673,
  "name": "Hot Tin Roof: The Cat That Wore A Fedora",
  "slug": "hot-tin-roof-the-cat-that-wore-a-fedora",
  "year": 2015,
  "banner_url": "https://lutris.net/games/banner/hot-tin-roof-the-cat-that-wore-a-fedora.jpg",
  "icon_url": "https://lutris.net/games/icon/hot-tin-roof-the-cat-that-wore-a-fedora.png",
  "coverart": "https://lutris.net/media/igdb/cover_big/uvjyoak5ir4se5anx5dj.jpg",
  "platforms": [
    {
      "name": "Linux"
    },
    {
      "name": "Mac"
    },
    {
      "name": "Windows"
    }
  ],
  "provider_games": [
    {
      "name": "Hot Tin Roof",
      "slug": "hottinroof",
      "service": "humblebundle"
    },
    {
      "name": "Hot Tin Roof: The Cat That Wore A Fedora",
      "slug": "253390",
      "service": "steam"
    },
    {
      "name": "Hot Tin Roof: The Cat That Wore A Fedora",
      "slug": "1424442317",
      "service": "gog"
    },
    {
      "name": "Hot Tin Roof: The Cat That Wore a Fedora",
      "slug": "hot-tin-roof-the-cat-that-wore-a-fedora",
      "service": "igdb"
    }
  ],
  "aliases": [
    {
      "slug": "hot-tin-roof",
      "name": "Hot Tin Roof"
    }
  ],
  "shaders": [],
  "discord_id": "",
  "change_for": null
}