{
  "id": 218140,
  "name": "Dead Pets Unleashed",
  "slug": "dead-pets-unleashed",
  "year": null,
  "banner_url": "",
  "icon_url": "",
  "coverart": "https://lutris.net/media/igdb/cover_big/co5g1t.jpg",
  "platforms": [],
  "provider_games": [
    {
      "name": "Dead Pets Unleashed",
      "slug": "dead-pets-unleashed",
      "service": "igdb"
    }
  ],
  "aliases": [],
  "shaders": [],
  "discord_id": "",
  "change_for": null
}