{
  "id": 55483,
  "name": "Little Monster at School",
  "slug": "little-monster-at-school",
  "year": 1993,
  "banner_url": "",
  "icon_url": "",
  "coverart": "https://lutris.net/media/igdb/cover_big/itnkosfqobwfk6mfhyhh.jpg",
  "platforms": [
    {
      "name": "Philips CD-i"
    }
  ],
  "provider_games": [
    {
      "name": "Little Monster at School",
      "slug": "little-monster-at-school",
      "service": "igdb"
    }
  ],
  "aliases": [],
  "shaders": [],
  "discord_id": "",
  "change_for": null
}