{
  "id": 112606,
  "name": "Afterlife: The Second Dimension",
  "slug": "afterlife-the-second-dimension",
  "year": 2014,
  "banner_url": "",
  "icon_url": "",
  "coverart": "https://lutris.net/media/igdb/cover_big/co31o5.jpg",
  "platforms": [
    {
      "name": "Windows"
    }
  ],
  "provider_games": [
    {
      "name": "Afterlife: The Second Dimension",
      "slug": "afterlife-the-second-dimension",
      "service": "igdb"
    }
  ],
  "aliases": [],
  "shaders": [],
  "discord_id": "",
  "change_for": null
}