{
  "id": 134928,
  "name": "Who Wants To Destroy An Alien",
  "slug": "who-wants-to-destroy-an-alien",
  "year": null,
  "banner_url": "",
  "icon_url": "",
  "coverart": "https://lutris.net/media/igdb/cover_big/co3n7l.jpg",
  "platforms": [],
  "provider_games": [
    {
      "name": "Who Wants to Destroy an Alien",
      "slug": "who-wants-to-destroy-an-alien",
      "service": "igdb"
    }
  ],
  "aliases": [],
  "shaders": [],
  "discord_id": "",
  "change_for": null
}