{
  "id": 296086,
  "name": "Little Dungeon Renovator",
  "slug": "little-dungeon-renovator",
  "year": 2023,
  "banner_url": "",
  "icon_url": "",
  "coverart": "https://lutris.net/media/igdb/cover_big/co8rju.jpg",
  "platforms": [
    {
      "name": "Nintendo Game Boy Color"
    }
  ],
  "provider_games": [
    {
      "name": "Little Dungeon Renovator",
      "slug": "little-dungeon-renovator",
      "service": "igdb"
    }
  ],
  "aliases": [],
  "shaders": [],
  "discord_id": "",
  "change_for": null
}