{
  "id": 3628,
  "name": "BattleForge",
  "slug": "battleforge",
  "year": 2009,
  "banner_url": "https://lutris.net/games/banner/battleforge.jpg",
  "icon_url": "https://lutris.net/games/icon/battleforge.png",
  "coverart": "https://lutris.net/media/igdb/cover_big/co2sfe.jpg",
  "platforms": [
    {
      "name": "Windows"
    }
  ],
  "provider_games": [
    {
      "name": "BattleForge",
      "slug": "24760",
      "service": "steam"
    },
    {
      "name": "BattleForge",
      "slug": "battleforge",
      "service": "igdb"
    }
  ],
  "aliases": [],
  "shaders": [],
  "discord_id": "",
  "change_for": null
}