{
  "id": 302671,
  "name": "Victoria: La Primera",
  "slug": "victoria-la-primera",
  "year": null,
  "banner_url": "",
  "icon_url": "",
  "coverart": "https://lutris.net/media/igdb/cover_big/co95zg.jpg",
  "platforms": [],
  "provider_games": [
    {
      "name": "Victoria: La Primera",
      "slug": "victoria-la-primera",
      "service": "igdb"
    }
  ],
  "aliases": [],
  "shaders": [],
  "discord_id": "",
  "change_for": null
}