{
  "id": 84415,
  "name": "MDK2: Armageddon",
  "slug": "mdk2-armageddon",
  "year": 2001,
  "banner_url": "",
  "icon_url": "",
  "coverart": null,
  "platforms": [
    {
      "name": "Sony PlayStation 2"
    }
  ],
  "provider_games": [
    {
      "name": "MDK2: Armageddon",
      "slug": "mdk2-armageddon",
      "service": "igdb"
    }
  ],
  "aliases": [],
  "shaders": [],
  "discord_id": "",
  "change_for": null
}