{
  "id": 216564,
  "name": "Happiness Charge Pretty Cure! Kawarun Collection",
  "slug": "happiness-charge-pretty-cure-kawarun-collection",
  "year": 2014,
  "banner_url": "",
  "icon_url": "",
  "coverart": "https://lutris.net/media/igdb/cover_big/co56px.jpg",
  "platforms": [
    {
      "name": "Nintendo 3DS"
    }
  ],
  "provider_games": [
    {
      "name": "Happiness Charge Pretty Cure! Kawarun Collection",
      "slug": "happiness-charge-pretty-cure-kawarun-collection",
      "service": "igdb"
    }
  ],
  "aliases": [],
  "shaders": [],
  "discord_id": "",
  "change_for": null
}