{
  "id": 139143,
  "name": "Gegege no Kitarou: Gyakushuu! Youma Daichisen",
  "slug": "gegege-no-kitarou-gyakushuu-youma-daichisen",
  "year": null,
  "banner_url": "",
  "icon_url": "",
  "coverart": "https://lutris.net/media/igdb/cover_big/co3rom.jpg",
  "platforms": [],
  "provider_games": [
    {
      "name": "Gegege no Kitarou: Gyakushuu! Youma Daichisen",
      "slug": "gegege-no-kitarou-gyakushuu-youma-daichisen",
      "service": "igdb"
    }
  ],
  "aliases": [],
  "shaders": [],
  "discord_id": "",
  "change_for": null
}