{
  "id": 30469,
  "name": "MO:Astray",
  "slug": "moastray",
  "year": 2019,
  "banner_url": "https://lutris.net/games/banner/moastray.jpg",
  "icon_url": "https://lutris.net/games/icon/moastray.png",
  "coverart": null,
  "platforms": [
    {
      "name": "Windows"
    }
  ],
  "provider_games": [
    {
      "name": "MO:Astray",
      "slug": "1104660",
      "service": "steam"
    }
  ],
  "aliases": [],
  "shaders": [],
  "discord_id": "",
  "change_for": null
}