{
  "id": 301756,
  "name": "Try 2 Sleep",
  "slug": "try-2-sleep",
  "year": null,
  "banner_url": "",
  "icon_url": "",
  "coverart": "https://lutris.net/media/igdb/cover_big/co934m.jpg",
  "platforms": [],
  "provider_games": [
    {
      "name": "Try 2 Sleep",
      "slug": "try-2-sleep",
      "service": "igdb"
    }
  ],
  "aliases": [],
  "shaders": [],
  "discord_id": "",
  "change_for": null
}