{
  "id": 239498,
  "name": "Bowling Islands",
  "slug": "bowling-islands",
  "year": null,
  "banner_url": "",
  "icon_url": "",
  "coverart": null,
  "platforms": [],
  "provider_games": [
    {
      "name": "Bowling Islands",
      "slug": "bowling-islands",
      "service": "igdb"
    }
  ],
  "aliases": [],
  "shaders": [],
  "discord_id": "",
  "change_for": null
}