{
  "id": 21145,
  "name": "Ready Player One: OASIS beta",
  "slug": "ready-player-one-oasis-beta",
  "year": null,
  "banner_url": "https://lutris.net/games/banner/ready-player-one-oasis-beta.jpg",
  "icon_url": "https://lutris.net/games/icon/ready-player-one-oasis-beta.png",
  "coverart": "https://lutris.net/media/igdb/cover_big/co4qy6.jpg",
  "platforms": [],
  "provider_games": [
    {
      "name": "Ready Player One: OASIS beta",
      "slug": "779650",
      "service": "steam"
    },
    {
      "name": "Ready Player One: OASIS beta",
      "slug": "ready-player-one-oasis-beta",
      "service": "igdb"
    }
  ],
  "aliases": [],
  "shaders": [],
  "discord_id": "",
  "change_for": null
}