{
  "id": 253554,
  "name": "The Witch of Shunrald",
  "slug": "the-witch-of-shunrald",
  "year": null,
  "banner_url": "",
  "icon_url": "",
  "coverart": "https://lutris.net/media/igdb/cover_big/co6tw6.jpg",
  "platforms": [],
  "provider_games": [
    {
      "name": "The Witch of Shunrald",
      "slug": "the-witch-of-shunrald",
      "service": "igdb"
    }
  ],
  "aliases": [],
  "shaders": [],
  "discord_id": "",
  "change_for": null
}