{
  "id": 59927,
  "name": "Spy of Deimos",
  "slug": "spy-of-deimos",
  "year": 2017,
  "banner_url": "",
  "icon_url": "",
  "coverart": "https://lutris.net/media/igdb/cover_big/l6x7qjuxo2ixon3inko2.jpg",
  "platforms": [
    {
      "name": "Windows"
    }
  ],
  "provider_games": [
    {
      "name": "Spy of Deimos",
      "slug": "spy-of-deimos",
      "service": "igdb"
    }
  ],
  "aliases": [],
  "shaders": [],
  "discord_id": "",
  "change_for": null
}