{
  "id": 15339,
  "name": "Agatha Christie: Evil under the Sun",
  "slug": "agatha-christie-evil-under-the-sun",
  "year": 2007,
  "banner_url": "https://lutris.net/games/banner/agatha-christie-evil-under-the-sun.jpg",
  "icon_url": "https://lutris.net/games/icon/agatha-christie-evil-under-the-sun.png",
  "coverart": "https://lutris.net/media/igdb/cover_big/co25dm.jpg",
  "platforms": [
    {
      "name": "Nintendo Wii"
    },
    {
      "name": "Windows"
    }
  ],
  "provider_games": [
    {
      "name": "Agatha Christie: Evil under the Sun",
      "slug": "39610",
      "service": "steam"
    },
    {
      "name": "Agatha Christie: Evil Under the Sun",
      "slug": "agatha-christie-evil-under-the-sun",
      "service": "igdb"
    }
  ],
  "aliases": [],
  "shaders": [],
  "discord_id": "",
  "change_for": null
}