{
  "id": 111834,
  "name": "Don't Shoot the Puppy",
  "slug": "dont-shoot-the-puppy",
  "year": 2006,
  "banner_url": "",
  "icon_url": "",
  "coverart": "https://lutris.net/media/igdb/cover_big/co2egn.jpg",
  "platforms": [
    {
      "name": "Browser"
    }
  ],
  "provider_games": [
    {
      "name": "Don't Shoot the Puppy",
      "slug": "dont-shoot-the-puppy",
      "service": "igdb"
    }
  ],
  "aliases": [],
  "shaders": [],
  "discord_id": "",
  "change_for": null
}