{
  "id": 147617,
  "name": "Official Wicked Vixen Silicone Scramble",
  "slug": "official-wicked-vixen-silicone-scramble",
  "year": null,
  "banner_url": "",
  "icon_url": "",
  "coverart": "https://lutris.net/media/igdb/cover_big/co3tcg.jpg",
  "platforms": [],
  "provider_games": [
    {
      "name": "Official Wicked Vixen Silicone Scramble",
      "slug": "official-wicked-vixen-silicone-scramble",
      "service": "igdb"
    }
  ],
  "aliases": [],
  "shaders": [],
  "discord_id": "",
  "change_for": null
}