{
  "id": 54809,
  "name": "Wondrous Magic",
  "slug": "wondrous-magic",
  "year": 1994,
  "banner_url": "",
  "icon_url": "",
  "coverart": "https://lutris.net/media/igdb/cover_big/hc1l8ejzxrifahui975w.jpg",
  "platforms": [
    {
      "name": "Super Nintendo"
    }
  ],
  "provider_games": [
    {
      "name": "Wondrous Magic",
      "slug": "wondrous-magic",
      "service": "igdb"
    }
  ],
  "aliases": [],
  "shaders": [],
  "discord_id": "",
  "change_for": null
}