{
  "id": 110581,
  "name": "3-D Vector Pong",
  "slug": "3-d-vector-pong",
  "year": 2008,
  "banner_url": "",
  "icon_url": "",
  "coverart": "https://lutris.net/media/igdb/cover_big/znnfbkzq0w8ai75lzoag.jpg",
  "platforms": [],
  "provider_games": [
    {
      "name": "3-D Vector Pong",
      "slug": "3-d-vector-pong",
      "service": "igdb"
    }
  ],
  "aliases": [],
  "shaders": [],
  "discord_id": "",
  "change_for": null
}