{
  "id": 29273,
  "name": "Mark H. Walker's Lock 'n Load: Heroes of Stalingrad",
  "slug": "mark-h-walkers-lock-n-load-heroes-of-stalingrad",
  "year": 2013,
  "banner_url": "https://lutris.net/games/banner/mark-h-walkers-lock-n-load-heroes-of-stalingrad.jpg",
  "icon_url": "",
  "coverart": "https://lutris.net/media/igdb/cover_big/co1yja.jpg",
  "platforms": [
    {
      "name": "Windows"
    }
  ],
  "provider_games": [
    {
      "name": "Mark H. Walker's Lock 'n Load: Heroes of Stalingrad",
      "slug": "mark-h-walkers-lock-n-load-heroes-of-stalingrad",
      "service": "igdb"
    }
  ],
  "aliases": [],
  "shaders": [],
  "discord_id": "",
  "change_for": null
}