{
  "id": 37123,
  "game_id": 4027,
  "game_slug": "speed-dreams",
  "name": "Speed Dreams",
  "year": 2008,
  "user": "johnnyfiction",
  "runner": "linux",
  "slug": "speed-dreams-223",
  "version": "2.2.3",
  "description": "",
  "notes": "",
  "credits": "",
  "created_at": "2023-03-14T21:11:22.709902Z",
  "updated_at": "2023-03-14T21:11:22.709938Z",
  "draft": false,
  "published": true,
  "published_by": null,
  "rating": "",
  "is_playable": null,
  "steamid": null,
  "gogid": null,
  "gogslug": "",
  "humbleid": "",
  "humblestoreid": "",
  "humblestoreid_real": "",
  "script": {
    "files": [
      {
        "file": "https://sourceforge.net/projects/speed-dreams/files/2.2.3/Speed-Dreams-2.2.3-x86_64.AppImage/download"
      }
    ],
    "game": {
      "exe": "$GAMEDIR/Speed-Dreams.AppImage"
    },
    "installer": [
      {
        "move": {
          "dst": "$GAMEDIR/Speed-Dreams.AppImage",
          "src": "file"
        }
      },
      {
        "chmodx": "$GAMEDIR/Speed-Dreams.AppImage"
      }
    ],
    "system": {
      "env": {
        "APPIMAGELAUNCHER_DISABLE": true
      }
    }
  },
  "content": "files:\n- file: https://sourceforge.net/projects/speed-dreams/files/2.2.3/Speed-Dreams-2.2.3-x86_64.AppImage/download\ngame:\n  exe: $GAMEDIR/Speed-Dreams.AppImage\ninstaller:\n- move:\n    dst: $GAMEDIR/Speed-Dreams.AppImage\n    src: file\n- chmodx: $GAMEDIR/Speed-Dreams.AppImage\nsystem:\n  env:\n    APPIMAGELAUNCHER_DISABLE: true\n",
  "discord_id": ""
}