{
  "id": 106023,
  "name": "Nano Assault Neo-X",
  "slug": "nano-assault-neo-x",
  "year": 2014,
  "banner_url": "",
  "icon_url": "",
  "coverart": "https://lutris.net/media/igdb/cover_big/su5euxuz7bhxcyetpasz.jpg",
  "platforms": [
    {
      "name": "Sony Playstation 4"
    }
  ],
  "provider_games": [
    {
      "name": "Nano Assault Neo-X",
      "slug": "nano-assault-neo-x",
      "service": "igdb"
    }
  ],
  "aliases": [],
  "shaders": [],
  "discord_id": "",
  "change_for": null
}