{
  "id": 60471,
  "name": "The Cosmic Tunnels",
  "slug": "the-cosmic-tunnels",
  "year": 1983,
  "banner_url": "",
  "icon_url": "",
  "coverart": "https://lutris.net/media/igdb/cover_big/et2ov97m5fdiculxiwsh.jpg",
  "platforms": [
    {
      "name": "Atari 8-bit"
    },
    {
      "name": "Commodore C64/128"
    }
  ],
  "provider_games": [
    {
      "name": "The Cosmic Tunnels",
      "slug": "the-cosmic-tunnels",
      "service": "igdb"
    }
  ],
  "aliases": [],
  "shaders": [],
  "discord_id": "",
  "change_for": null
}