{
  "id": 164766,
  "name": "Snapshot",
  "slug": "snapshot--1",
  "year": null,
  "banner_url": "",
  "icon_url": "",
  "coverart": "https://lutris.net/media/igdb/cover_big/co41pj.jpg",
  "platforms": [],
  "provider_games": [
    {
      "name": "Snapshot",
      "slug": "snapshot--1",
      "service": "igdb"
    }
  ],
  "aliases": [],
  "shaders": [],
  "discord_id": "",
  "change_for": null
}