{
  "id": 294476,
  "name": "A Treat and Some Tricks",
  "slug": "a-treat-and-some-tricks",
  "year": 2017,
  "banner_url": "",
  "icon_url": "",
  "coverart": "https://lutris.net/media/igdb/cover_big/co8n7l.jpg",
  "platforms": [
    {
      "name": "Windows"
    }
  ],
  "provider_games": [
    {
      "name": "A Treat and Some Tricks",
      "slug": "a-treat-and-some-tricks",
      "service": "igdb"
    }
  ],
  "aliases": [],
  "shaders": [],
  "discord_id": "",
  "change_for": null
}