{
  "id": 228708,
  "name": "Mari and Bayu - The Road Home",
  "slug": "mari-and-bayu-the-road-home-1",
  "year": 2022,
  "banner_url": "",
  "icon_url": "",
  "coverart": null,
  "platforms": [],
  "provider_games": [
    {
      "name": "Mari and Bayu - The Road Home",
      "slug": "1862308430",
      "service": "gog"
    }
  ],
  "aliases": [],
  "shaders": [],
  "discord_id": "",
  "change_for": null
}