{
  "id": 108130,
  "name": "Pico Tanks: Multiplayer Mayhem",
  "slug": "pico-tanks-multiplayer-mayhem",
  "year": 2019,
  "banner_url": "",
  "icon_url": "",
  "coverart": "https://lutris.net/media/igdb/cover_big/co2qyb.jpg",
  "platforms": [
    {
      "name": "Android"
    }
  ],
  "provider_games": [
    {
      "name": "Pico Tanks: Multiplayer Mayhem",
      "slug": "pico-tanks-multiplayer-mayhem",
      "service": "igdb"
    }
  ],
  "aliases": [],
  "shaders": [],
  "discord_id": "",
  "change_for": null
}