{
  "id": 83173,
  "name": "Wally o Sagase! Ehon no Kuni no Daiboken",
  "slug": "wally-o-sagase-ehon-no-kuni-no-daiboken",
  "year": 1993,
  "banner_url": "",
  "icon_url": "",
  "coverart": null,
  "platforms": [
    {
      "name": "Super Nintendo"
    }
  ],
  "provider_games": [
    {
      "name": "Wally o Sagase! Ehon no Kuni no Daiboken",
      "slug": "wally-o-sagase-ehon-no-kuni-no-daiboken",
      "service": "igdb"
    }
  ],
  "aliases": [],
  "shaders": [],
  "discord_id": "",
  "change_for": null
}