{
  "id": 18947,
  "game_id": 27816,
  "game_slug": "doom-eternal",
  "name": "DOOM Eternal",
  "year": 2020,
  "user": "bigberny",
  "runner": "steam",
  "slug": "doom-eternal-doom-eternal",
  "version": "Doom Eternal",
  "description": null,
  "notes": "",
  "credits": "",
  "created_at": "2020-03-18T23:31:31.930000Z",
  "updated_at": "2020-04-05T20:16:54.577720Z",
  "draft": false,
  "published": true,
  "published_by": 1,
  "rating": "",
  "is_playable": null,
  "steamid": 782330,
  "gogid": null,
  "gogslug": "",
  "humbleid": "",
  "humblestoreid": "",
  "humblestoreid_real": "",
  "script": {
    "game": {
      "appid": 782330
    }
  },
  "content": "game:\n  appid: 782330\n",
  "discord_id": ""
}