{
  "id": 87682,
  "name": "Crazy Sports Bundle",
  "slug": "crazy-sports-bundle",
  "year": 2016,
  "banner_url": "",
  "icon_url": "",
  "coverart": "https://lutris.net/media/igdb/cover_big/hcdzjr4b4hjfih4rs7zm.jpg",
  "platforms": [
    {
      "name": "Xbox One"
    }
  ],
  "provider_games": [
    {
      "name": "Crazy Sports Bundle",
      "slug": "crazy-sports-bundle",
      "service": "igdb"
    }
  ],
  "aliases": [],
  "shaders": [],
  "discord_id": "",
  "change_for": null
}