{
  "id": 83445,
  "name": "Parasol Stars: Rainbow Islands 2",
  "slug": "parasol-stars-rainbow-islands-2",
  "year": 1992,
  "banner_url": "",
  "icon_url": "",
  "coverart": "https://lutris.net/media/igdb/cover_big/co8sbk.jpg",
  "platforms": [
    {
      "name": "Amiga"
    }
  ],
  "provider_games": [
    {
      "name": "Parasol Stars: Rainbow Islands 2",
      "slug": "parasol-stars-rainbow-islands-2",
      "service": "igdb"
    }
  ],
  "aliases": [],
  "shaders": [],
  "discord_id": "",
  "change_for": null
}