{
  "id": 220809,
  "name": "Think Smart Labyrinth",
  "slug": "think-smart-labyrinth",
  "year": null,
  "banner_url": "",
  "icon_url": "",
  "coverart": null,
  "platforms": [],
  "provider_games": [
    {
      "name": "Think Smart Labyrinth",
      "slug": "think-smart-labyrinth",
      "service": "igdb"
    }
  ],
  "aliases": [],
  "shaders": [],
  "discord_id": "",
  "change_for": null
}