{
  "id": 46564,
  "name": "Snake's Game",
  "slug": "snakes-game",
  "year": null,
  "banner_url": "",
  "icon_url": "",
  "coverart": "https://lutris.net/media/igdb/cover_big/oflhrzfoc2ze8mjoujsr.jpg",
  "platforms": [],
  "provider_games": [
    {
      "name": "Snake's Game",
      "slug": "snakes-game",
      "service": "igdb"
    }
  ],
  "aliases": [],
  "shaders": [],
  "discord_id": "",
  "change_for": null
}