{
  "id": 63548,
  "name": "Wangan Midnight Maximum Tune 3",
  "slug": "wangan-midnight-maximum-tune-3",
  "year": null,
  "banner_url": "",
  "icon_url": "",
  "coverart": "https://lutris.net/media/igdb/cover_big/gck9nvtcsb4xnecng3p2.jpg",
  "platforms": [],
  "provider_games": [
    {
      "name": "Wangan Midnight Maximum Tune 3",
      "slug": "wangan-midnight-maximum-tune-3",
      "service": "igdb"
    }
  ],
  "aliases": [],
  "shaders": [],
  "discord_id": "",
  "change_for": null
}