{
  "id": 67965,
  "name": "Dr. Tool® Toy Factory",
  "slug": "dr-tool-r-toy-factory",
  "year": null,
  "banner_url": "",
  "icon_url": "",
  "coverart": "https://lutris.net/media/igdb/cover_big/akqsyi0bs8zrdyii9467.jpg",
  "platforms": [],
  "provider_games": [
    {
      "name": "Dr. Tool® Toy Factory",
      "slug": "dr-tool-r-toy-factory",
      "service": "igdb"
    }
  ],
  "aliases": [],
  "shaders": [],
  "discord_id": "",
  "change_for": null
}