{
  "id": 257295,
  "name": "Wings",
  "slug": "wings--1",
  "year": 1996,
  "banner_url": "",
  "icon_url": "",
  "coverart": "https://lutris.net/media/igdb/cover_big/co70rr.jpg",
  "platforms": [],
  "provider_games": [
    {
      "name": "Wings",
      "slug": "wings--1",
      "service": "igdb"
    }
  ],
  "aliases": [],
  "shaders": [],
  "discord_id": "",
  "change_for": null
}