{
  "id": 193113,
  "name": "Paladin's Oath",
  "slug": "paladins-oath",
  "year": null,
  "banner_url": "https://lutris.net/games/banner/paladins-oath.jpg",
  "icon_url": "",
  "coverart": "https://lutris.net/media/igdb/cover_big/co4g2r.jpg",
  "platforms": [],
  "provider_games": [
    {
      "name": "Paladin's Oath",
      "slug": "paladins-oath",
      "service": "igdb"
    },
    {
      "name": "Paladin's Oath",
      "slug": "1671590",
      "service": "steam"
    }
  ],
  "aliases": [],
  "shaders": [],
  "discord_id": "",
  "change_for": null
}