{
  "id": 71254,
  "name": "Fun School 4: for 5 to 7 Year Olds",
  "slug": "fun-school-4-for-5-to-7-year-olds",
  "year": null,
  "banner_url": "",
  "icon_url": "",
  "coverart": null,
  "platforms": [],
  "provider_games": [
    {
      "name": "Fun School 4: for 5 to 7 Year Olds",
      "slug": "fun-school-4-for-5-to-7-year-olds",
      "service": "igdb"
    }
  ],
  "aliases": [],
  "shaders": [],
  "discord_id": "",
  "change_for": null
}