{
  "id": 94900,
  "name": "Hurricane Ship Ghost",
  "slug": "hurricane-ship-ghost",
  "year": null,
  "banner_url": "",
  "icon_url": "",
  "coverart": null,
  "platforms": [],
  "provider_games": [
    {
      "name": "Hurricane Ship Ghost",
      "slug": "hurricane-ship-ghost",
      "service": "igdb"
    }
  ],
  "aliases": [],
  "shaders": [],
  "discord_id": "",
  "change_for": null
}