{
  "id": 25279,
  "name": "Nippon Marathon",
  "slug": "nippon-marathon",
  "year": 2018,
  "banner_url": "https://lutris.net/games/banner/nippon-marathon.jpg",
  "icon_url": "https://lutris.net/games/icon/nippon-marathon.png",
  "coverart": "https://lutris.net/media/igdb/cover_big/co1hmb.jpg",
  "platforms": [
    {
      "name": "Mac"
    },
    {
      "name": "Nintendo Switch"
    },
    {
      "name": "Sony Playstation 4"
    },
    {
      "name": "Windows"
    },
    {
      "name": "Xbox One"
    }
  ],
  "provider_games": [
    {
      "name": "Nippon Marathon",
      "slug": "746940",
      "service": "steam"
    },
    {
      "name": "Nippon Marathon",
      "slug": "nippon-marathon",
      "service": "igdb"
    }
  ],
  "aliases": [],
  "shaders": [],
  "discord_id": "",
  "change_for": null
}