{
  "id": 114986,
  "name": "Vampire Martina-Bloody Day 228",
  "slug": "vampire-martina-bloody-day-228",
  "year": 2020,
  "banner_url": "",
  "icon_url": "",
  "coverart": "https://lutris.net/media/igdb/cover_big/co1wd5.jpg",
  "platforms": [
    {
      "name": "Windows"
    }
  ],
  "provider_games": [
    {
      "name": "Vampire Martina-Bloody Day 228",
      "slug": "vampire-martina-bloody-day-228",
      "service": "igdb"
    }
  ],
  "aliases": [],
  "shaders": [],
  "discord_id": "",
  "change_for": null
}