{
  "id": 26365,
  "name": "Outward",
  "slug": "outward",
  "year": 2019,
  "banner_url": "https://lutris.net/games/banner/outward.jpg",
  "icon_url": "https://lutris.net/games/icon/outward.png",
  "coverart": "https://lutris.net/media/igdb/cover_big/co1iui.jpg",
  "platforms": [
    {
      "name": "Google Stadia"
    },
    {
      "name": "Sony Playstation 4"
    },
    {
      "name": "Windows"
    },
    {
      "name": "Xbox One"
    }
  ],
  "provider_games": [
    {
      "name": "Outward",
      "slug": "794260",
      "service": "steam"
    },
    {
      "name": "Outward",
      "slug": "outward",
      "service": "igdb"
    }
  ],
  "aliases": [],
  "shaders": [],
  "discord_id": "",
  "change_for": null
}