{
  "id": 122007,
  "name": "Elizabeth Find M.D.: Diagnosis Mystery - Season 2",
  "slug": "elizabeth-find-m-dot-d-diagnosis-mystery-season-2",
  "year": 2011,
  "banner_url": "",
  "icon_url": "",
  "coverart": "https://lutris.net/media/igdb/cover_big/djxye46upzpnvj4o0ffu.jpg",
  "platforms": [
    {
      "name": "Linux"
    },
    {
      "name": "Mac"
    },
    {
      "name": "Windows"
    }
  ],
  "provider_games": [
    {
      "name": "Elizabeth Find M.D.: Diagnosis Mystery - Season 2",
      "slug": "elizabeth-find-m-dot-d-diagnosis-mystery-season-2",
      "service": "igdb"
    }
  ],
  "aliases": [],
  "shaders": [],
  "discord_id": "",
  "change_for": null
}