{
  "id": 130879,
  "name": "Klondike: The Lost Expedition",
  "slug": "klondike-the-lost-expedition",
  "year": null,
  "banner_url": "",
  "icon_url": "",
  "coverart": null,
  "platforms": [
    {
      "name": "Browser"
    }
  ],
  "provider_games": [
    {
      "name": "Klondike: The Lost Expedition",
      "slug": "klondike-the-lost-expedition",
      "service": "igdb"
    }
  ],
  "aliases": [],
  "shaders": [],
  "discord_id": "",
  "change_for": null
}