{
  "id": 291169,
  "name": "Vague Lizards",
  "slug": "vague-lizards",
  "year": null,
  "banner_url": "",
  "icon_url": "",
  "coverart": "https://lutris.net/media/igdb/cover_big/co8l76.jpg",
  "platforms": [],
  "provider_games": [
    {
      "name": "Vague Lizards",
      "slug": "vague-lizards",
      "service": "igdb"
    }
  ],
  "aliases": [],
  "shaders": [],
  "discord_id": "",
  "change_for": null
}