{
  "id": 90768,
  "name": "Edge of Reality: Ring of Destiny",
  "slug": "edge-of-reality-ring-of-destiny",
  "year": null,
  "banner_url": "",
  "icon_url": "",
  "coverart": null,
  "platforms": [],
  "provider_games": [
    {
      "name": "Edge of Reality: Ring of Destiny",
      "slug": "edge-of-reality-ring-of-destiny",
      "service": "igdb"
    }
  ],
  "aliases": [],
  "shaders": [],
  "discord_id": "",
  "change_for": null
}