{
  "id": 77136,
  "name": "Dance Evolution",
  "slug": "dance-evolution",
  "year": 2010,
  "banner_url": "",
  "icon_url": "",
  "coverart": "https://lutris.net/media/igdb/cover_big/co21kf.jpg",
  "platforms": [
    {
      "name": "Xbox 360"
    }
  ],
  "provider_games": [
    {
      "name": "Dance Evolution",
      "slug": "dance-evolution",
      "service": "igdb"
    }
  ],
  "aliases": [],
  "shaders": [],
  "discord_id": "",
  "change_for": null
}