{
  "id": 200203,
  "name": "Dark Tales: Edgar Allan Poe's Speaking with the Dead",
  "slug": "dark-tales-edgar-allan-poes-speaking-with-the-dead",
  "year": null,
  "banner_url": "",
  "icon_url": "",
  "coverart": "https://lutris.net/media/igdb/cover_big/co4dy3.jpg",
  "platforms": [],
  "provider_games": [
    {
      "name": "Dark Tales: Edgar Allan Poe's Speaking with the Dead",
      "slug": "dark-tales-edgar-allan-poes-speaking-with-the-dead",
      "service": "igdb"
    }
  ],
  "aliases": [],
  "shaders": [],
  "discord_id": "",
  "change_for": null
}