{
  "id": 155931,
  "name": "Pizza Pop!",
  "slug": "pizza-pop",
  "year": 1992,
  "banner_url": "",
  "icon_url": "",
  "coverart": "https://lutris.net/media/igdb/cover_big/wfbbcskmx41pgf2z3fzk.jpg",
  "platforms": [
    {
      "name": "Family Computer"
    }
  ],
  "provider_games": [
    {
      "name": "Pizza Pop!",
      "slug": "pizza-pop",
      "service": "igdb"
    }
  ],
  "aliases": [],
  "shaders": [],
  "discord_id": "",
  "change_for": null
}