{
  "id": 93198,
  "name": "iAmBored Throw It Deluxe",
  "slug": "iambored-throw-it-deluxe",
  "year": null,
  "banner_url": "",
  "icon_url": "",
  "coverart": null,
  "platforms": [],
  "provider_games": [
    {
      "name": "iAmBored Throw It Deluxe",
      "slug": "iambored-throw-it-deluxe",
      "service": "igdb"
    }
  ],
  "aliases": [],
  "shaders": [],
  "discord_id": "",
  "change_for": null
}