{
  "id": 25978,
  "game_id": 583,
  "game_slug": "silent-hill-2-directors-cut",
  "name": "Silent Hill 2: Director's Cut",
  "year": 2002,
  "user": "legluondunet",
  "runner": "wine",
  "slug": "silent-hill-2-directors-cut-sh2e-fmv-audio-remas",
  "version": "SH2e FMV-Audio remastered packs",
  "description": "This installer is complementary to \"CD Director's Cut EU + SH2e\" one, it will add SH2e FMV-Audio remastered packs to previous install from SH2e",
  "notes": "- This installer will not install \"Silent Hill 2 Director's Cut EU\" but only SH2e FMV-Audio remastered packs. I separated the two installations because these two packs are too heavy: FMV --> 3,2 Go and audio --> 1,6 Go",
  "credits": "Big thanks to Elisha Riedlinger and all Silent Hill 2 Enhancement project devs team http://enhanced.townofsilenthill.com/SH2SH2e",
  "created_at": "2021-01-23T21:38:10.015000Z",
  "updated_at": "2023-01-19T10:30:51.823389Z",
  "draft": false,
  "published": false,
  "published_by": 494,
  "rating": "",
  "is_playable": null,
  "steamid": null,
  "gogid": null,
  "gogslug": "",
  "humbleid": "",
  "humblestoreid": "",
  "humblestoreid_real": "",
  "script": {
    "extends": "silent-hill-2-directors-cut",
    "files": [
      {
        "sh2efmv": "http://www.enhanced.townofsilenthill.com/SH2/files/SH2PC_Enhanced_FMV_Pack_1.5.2.zip"
      },
      {
        "sh2eaudio": "http://www.enhanced.townofsilenthill.com/SH2/files/SH2PC_Audio_Enhancement_Pack_2.0.3.zip"
      }
    ],
    "installer": [
      {
        "extract": {
          "dst": "$CACHE",
          "src": "sh2efmv"
        }
      },
      {
        "extract": {
          "dst": "$CACHE",
          "src": "sh2eaudio"
        }
      },
      {
        "merge": {
          "dst": "$GAMEDIR/drive_c/Program Files (x86)/Konami/Silent Hill 2 - Directors Cut/sh2e",
          "src": "$CACHE/SILENT HILL 2/sh2e"
        }
      }
    ]
  },
  "content": "extends: silent-hill-2-directors-cut\r\nfiles:\r\n- sh2efmv: http://www.enhanced.townofsilenthill.com/SH2/files/SH2PC_Enhanced_FMV_Pack_1.5.2.zip\r\n- sh2eaudio: http://www.enhanced.townofsilenthill.com/SH2/files/SH2PC_Audio_Enhancement_Pack_2.0.3.zip\r\ninstaller:\r\n- extract:\r\n    dst: $CACHE\r\n    src: sh2efmv\r\n- extract:\r\n    dst: $CACHE\r\n    src: sh2eaudio\r\n- merge:\r\n    dst: $GAMEDIR/drive_c/Program Files (x86)/Konami/Silent Hill 2 - Directors Cut/sh2e\r\n    src: $CACHE/SILENT HILL 2/sh2e",
  "discord_id": ""
}