{
  "id": 61718,
  "name": "Poker Pals",
  "slug": "poker-pals",
  "year": null,
  "banner_url": "",
  "icon_url": "",
  "coverart": null,
  "platforms": [],
  "provider_games": [
    {
      "name": "Poker Pals",
      "slug": "poker-pals",
      "service": "igdb"
    }
  ],
  "aliases": [],
  "shaders": [],
  "discord_id": "",
  "change_for": null
}