{
  "id": 58766,
  "name": "Check In, Knock Out",
  "slug": "check-in-knock-out",
  "year": null,
  "banner_url": "",
  "icon_url": "",
  "coverart": "https://lutris.net/media/igdb/cover_big/fymdhfhnvcnoedrnaemq.jpg",
  "platforms": [],
  "provider_games": [
    {
      "name": "Check In, Knock Out",
      "slug": "check-in-knock-out",
      "service": "igdb"
    }
  ],
  "aliases": [],
  "shaders": [],
  "discord_id": "",
  "change_for": null
}