{
  "id": 213895,
  "name": "Land of Towers",
  "slug": "land-of-towers",
  "year": 2023,
  "banner_url": "",
  "icon_url": "",
  "coverart": "https://lutris.net/media/igdb/cover_big/co5rxt.jpg",
  "platforms": [
    {
      "name": "SteamVR"
    }
  ],
  "provider_games": [
    {
      "name": "Land of Towers",
      "slug": "land-of-towers",
      "service": "igdb"
    }
  ],
  "aliases": [],
  "shaders": [],
  "discord_id": "",
  "change_for": null
}