{
  "id": 1334,
  "game_id": 3787,
  "game_slug": "dark-gates",
  "name": "Dark Gates",
  "year": 2015,
  "user": "Xodetaetl",
  "runner": "steam",
  "slug": "dark-gates-steam",
  "version": "Steam",
  "description": "",
  "notes": "",
  "credits": "",
  "created_at": "2015-02-25T19:39:42.838000Z",
  "updated_at": "2015-02-25T20:44:03.578000Z",
  "draft": false,
  "published": true,
  "published_by": null,
  "rating": "",
  "is_playable": null,
  "steamid": 333730,
  "gogid": null,
  "gogslug": "",
  "humbleid": "",
  "humblestoreid": "",
  "humblestoreid_real": "",
  "script": {
    "game": {
      "appid": 333730
    }
  },
  "content": "game:\n  appid: 333730\n",
  "discord_id": ""
}