{
  "id": 109571,
  "name": "beatmania IIDX 16 EMPRESS",
  "slug": "beatmania-iidx-16-empress",
  "year": 2008,
  "banner_url": "",
  "icon_url": "",
  "coverart": "https://lutris.net/media/igdb/cover_big/co2yau.jpg",
  "platforms": [
    {
      "name": "Sony PlayStation 2"
    }
  ],
  "provider_games": [
    {
      "name": "Beatmania IIDX 16 Empress",
      "slug": "beatmania-iidx-16-empress",
      "service": "igdb"
    }
  ],
  "aliases": [],
  "shaders": [],
  "discord_id": "",
  "change_for": null
}