{
  "id": 220645,
  "name": "Makeover Madness",
  "slug": "makeover-madness",
  "year": null,
  "banner_url": "",
  "icon_url": "",
  "coverart": null,
  "platforms": [],
  "provider_games": [
    {
      "name": "Makeover Madness",
      "slug": "makeover-madness",
      "service": "igdb"
    }
  ],
  "aliases": [],
  "shaders": [],
  "discord_id": "",
  "change_for": null
}