{
  "id": 40029,
  "name": "Raiders of the North Sea",
  "slug": "raiders-of-the-north-sea",
  "year": 2019,
  "banner_url": "https://lutris.net/games/banner/raiders-of-the-north-sea.jpg",
  "icon_url": "https://lutris.net/games/icon/raiders-of-the-north-sea.png",
  "coverart": "https://lutris.net/media/igdb/cover_big/co1nid.jpg",
  "platforms": [
    {
      "name": "Nintendo Switch"
    },
    {
      "name": "Windows"
    }
  ],
  "provider_games": [
    {
      "name": "Raiders of the North Sea",
      "slug": "965600",
      "service": "steam"
    },
    {
      "name": "Raiders of the North Sea",
      "slug": "raiders-of-the-north-sea",
      "service": "igdb"
    }
  ],
  "aliases": [],
  "shaders": [],
  "discord_id": "",
  "change_for": null
}