{
  "id": 73942,
  "name": "Kokoro Connect Yochi Random",
  "slug": "kokoro-connect-yochi-random",
  "year": null,
  "banner_url": "",
  "icon_url": "",
  "coverart": "https://lutris.net/media/igdb/cover_big/co4jnl.jpg",
  "platforms": [],
  "provider_games": [
    {
      "name": "Kokoro Connect: Yochi Random",
      "slug": "kokoro-connect-yochi-random",
      "service": "igdb"
    }
  ],
  "aliases": [],
  "shaders": [],
  "discord_id": "",
  "change_for": null
}