{
  "id": 153073,
  "name": "Puff Town",
  "slug": "puff-town",
  "year": 2021,
  "banner_url": "https://lutris.net/games/banner/puff-town.jpg",
  "icon_url": "",
  "coverart": "https://lutris.net/media/igdb/cover_big/co3xh7.jpg",
  "platforms": [
    {
      "name": "Windows"
    }
  ],
  "provider_games": [
    {
      "name": "Puff Town",
      "slug": "puff-town",
      "service": "igdb"
    },
    {
      "name": "Puff Town",
      "slug": "1742840",
      "service": "steam"
    }
  ],
  "aliases": [],
  "shaders": [],
  "discord_id": "",
  "change_for": null
}