{
  "id": 127468,
  "name": "Classic Bubble Bobble",
  "slug": "classic-bubble-bobble",
  "year": 1999,
  "banner_url": "",
  "icon_url": "",
  "coverart": "https://lutris.net/media/igdb/cover_big/cycnnrgay8lkyblmx9p2.jpg",
  "platforms": [
    {
      "name": "Nintendo Game Boy Color"
    }
  ],
  "provider_games": [
    {
      "name": "Classic Bubble Bobble",
      "slug": "classic-bubble-bobble",
      "service": "igdb"
    }
  ],
  "aliases": [],
  "shaders": [],
  "discord_id": "",
  "change_for": null
}