{
  "id": 140083,
  "name": "Erika to Satoru no Yume Bōken",
  "slug": "erika-to-satoru-no-yume-boken",
  "year": 1988,
  "banner_url": "",
  "icon_url": "",
  "coverart": "https://lutris.net/media/igdb/cover_big/rd9tdt3kxtadtyus3jgv.jpg",
  "platforms": [
    {
      "name": "Family Computer"
    }
  ],
  "provider_games": [
    {
      "name": "Erika to Satoru no Yume Bōken",
      "slug": "erika-to-satoru-no-yume-boken",
      "service": "igdb"
    }
  ],
  "aliases": [],
  "shaders": [],
  "discord_id": "",
  "change_for": null
}