{
  "id": 16654,
  "name": "Wizhood",
  "slug": "wizhood",
  "year": 2017,
  "banner_url": "https://lutris.net/games/banner/wizhood.jpg",
  "icon_url": "https://lutris.net/games/icon/wizhood.png",
  "coverart": null,
  "platforms": [
    {
      "name": "Windows"
    }
  ],
  "provider_games": [
    {
      "name": "Wizhood",
      "slug": "wizhood",
      "service": "igdb"
    }
  ],
  "aliases": [],
  "shaders": [],
  "discord_id": "",
  "change_for": null
}