{
  "id": 296582,
  "name": "Harry Potter: Quidditch Champions - Deluxe Edition",
  "slug": "harry-potter-quidditch-champions-deluxe-edition",
  "year": 2024,
  "banner_url": "",
  "icon_url": "",
  "coverart": "https://lutris.net/media/igdb/cover_big/co8v5n.jpg",
  "platforms": [
    {
      "name": "Sony PlayStation 5"
    }
  ],
  "provider_games": [
    {
      "name": "Harry Potter: Quidditch Champions - Deluxe Edition",
      "slug": "harry-potter-quidditch-champions-deluxe-edition",
      "service": "igdb"
    }
  ],
  "aliases": [],
  "shaders": [],
  "discord_id": "",
  "change_for": null
}