{
  "id": 12797,
  "name": "Akuya",
  "slug": "akuya",
  "year": 2016,
  "banner_url": "https://lutris.net/games/banner/akuya.jpg",
  "icon_url": "https://lutris.net/games/icon/akuya.png",
  "coverart": null,
  "platforms": [
    {
      "name": "Windows"
    }
  ],
  "provider_games": [
    {
      "name": "Akuya",
      "slug": "545490",
      "service": "steam"
    },
    {
      "name": "Akuya",
      "slug": "akuya",
      "service": "igdb"
    }
  ],
  "aliases": [],
  "shaders": [],
  "discord_id": "",
  "change_for": null
}