{
  "id": 56942,
  "name": "The Demon Rush",
  "slug": "the-demon-rush",
  "year": null,
  "banner_url": "",
  "icon_url": "",
  "coverart": "https://lutris.net/media/igdb/cover_big/z1cxbzmsrvhwtrznmfg2.jpg",
  "platforms": [],
  "provider_games": [
    {
      "name": "The Demon Rush",
      "slug": "the-demon-rush",
      "service": "igdb"
    }
  ],
  "aliases": [],
  "shaders": [],
  "discord_id": "",
  "change_for": null
}