{
  "id": 214518,
  "name": "Mosaique Neko Waifus 5",
  "slug": "mosaique-neko-waifus-5",
  "year": 2022,
  "banner_url": "https://lutris.net/games/banner/mosaique-neko-waifus-5.jpg",
  "icon_url": "",
  "coverart": "https://lutris.net/media/igdb/cover_big/co5qd1.jpg",
  "platforms": [
    {
      "name": "Windows"
    }
  ],
  "provider_games": [
    {
      "name": "Mosaique Neko Waifus 5",
      "slug": "mosaique-neko-waifus-5",
      "service": "igdb"
    },
    {
      "name": "Mosaique Neko Waifus 5",
      "slug": "2165610",
      "service": "steam"
    },
    {
      "name": "Mosaique Neko Waifus 5",
      "slug": "1727407524",
      "service": "gog"
    }
  ],
  "aliases": [],
  "shaders": [],
  "discord_id": "",
  "change_for": null
}