{
  "id": 91210,
  "name": "Virtual Babysitter Life: Happy Family Simulator",
  "slug": "virtual-babysitter-life-happy-family-simulator",
  "year": null,
  "banner_url": "",
  "icon_url": "",
  "coverart": null,
  "platforms": [],
  "provider_games": [
    {
      "name": "Virtual Babysitter Life: Happy Family Simulator",
      "slug": "virtual-babysitter-life-happy-family-simulator",
      "service": "igdb"
    }
  ],
  "aliases": [],
  "shaders": [],
  "discord_id": "",
  "change_for": null
}