{
  "id": 169390,
  "name": "A-Star Theft",
  "slug": "a-star-theft",
  "year": null,
  "banner_url": "",
  "icon_url": "",
  "coverart": "https://lutris.net/media/igdb/cover_big/co45rf.jpg",
  "platforms": [],
  "provider_games": [
    {
      "name": "A-Star Theft",
      "slug": "a-star-theft",
      "service": "igdb"
    }
  ],
  "aliases": [],
  "shaders": [],
  "discord_id": "",
  "change_for": null
}