{
  "id": 225601,
  "name": "Tab-Bot",
  "slug": "tab-bot",
  "year": null,
  "banner_url": "",
  "icon_url": "",
  "coverart": null,
  "platforms": [],
  "provider_games": [
    {
      "name": "Tab-Bot",
      "slug": "tab-bot",
      "service": "igdb"
    }
  ],
  "aliases": [],
  "shaders": [],
  "discord_id": "",
  "change_for": null
}