{
  "id": 99629,
  "name": "Terms and Conditions",
  "slug": "terms-and-conditions",
  "year": 2014,
  "banner_url": "",
  "icon_url": "",
  "coverart": null,
  "platforms": [
    {
      "name": "Browser"
    }
  ],
  "provider_games": [
    {
      "name": "Terms and Conditions",
      "slug": "terms-and-conditions",
      "service": "igdb"
    }
  ],
  "aliases": [],
  "shaders": [],
  "discord_id": "",
  "change_for": null
}