{
  "id": 162884,
  "name": "Almari",
  "slug": "almari",
  "year": null,
  "banner_url": "",
  "icon_url": "",
  "coverart": "https://lutris.net/media/igdb/cover_big/co3s41.jpg",
  "platforms": [],
  "provider_games": [
    {
      "name": "Almari",
      "slug": "almari",
      "service": "igdb"
    }
  ],
  "aliases": [],
  "shaders": [],
  "discord_id": "",
  "change_for": null
}