{
  "id": 97145,
  "name": "You are Never Alone",
  "slug": "you-are-never-alone",
  "year": null,
  "banner_url": "",
  "icon_url": "",
  "coverart": "https://lutris.net/media/igdb/cover_big/co2ev4.jpg",
  "platforms": [],
  "provider_games": [
    {
      "name": "You are Never Alone",
      "slug": "you-are-never-alone",
      "service": "igdb"
    }
  ],
  "aliases": [],
  "shaders": [],
  "discord_id": "",
  "change_for": null
}