{
  "id": 9691,
  "name": "MorphVOX Pro - Voice Changer",
  "slug": "morphvox-pro-voice-changer",
  "year": null,
  "banner_url": "https://lutris.net/games/banner/morphvox-pro-voice-changer.jpg",
  "icon_url": "https://lutris.net/games/icon/morphvox-pro-voice-changer.png",
  "coverart": null,
  "platforms": [],
  "provider_games": [
    {
      "name": "MorphVOX Pro 4 - Voice Changer",
      "slug": "269470",
      "service": "steam"
    }
  ],
  "aliases": [],
  "shaders": [],
  "discord_id": "",
  "change_for": null
}