{
  "id": 241058,
  "name": "Soccer: Goal Keeper cup",
  "slug": "soccer-goal-keeper-cup",
  "year": null,
  "banner_url": "",
  "icon_url": "",
  "coverart": null,
  "platforms": [],
  "provider_games": [
    {
      "name": "Soccer: Goal Keeper cup",
      "slug": "soccer-goal-keeper-cup",
      "service": "igdb"
    }
  ],
  "aliases": [],
  "shaders": [],
  "discord_id": "",
  "change_for": null
}