{
  "id": 210202,
  "name": "Japanese Escape Games: Renpou Keimusho kara no Dasshutsu",
  "slug": "japanese-escape-games-renpou-keimusho-kara-no-dasshutsu",
  "year": null,
  "banner_url": "",
  "icon_url": "",
  "coverart": null,
  "platforms": [],
  "provider_games": [
    {
      "name": "Japanese Escape Games: Renpou Keimusho kara no Dasshutsu",
      "slug": "japanese-escape-games-renpou-keimusho-kara-no-dasshutsu",
      "service": "igdb"
    }
  ],
  "aliases": [],
  "shaders": [],
  "discord_id": "",
  "change_for": null
}