{
  "id": 70252,
  "name": "Medarot 5: Susutake Mura no Tenkousei Kabuto/Kuwagata",
  "slug": "medarot-5-susutake-mura-no-tenkousei-kabuto-slash-kuwagata",
  "year": null,
  "banner_url": "",
  "icon_url": "",
  "coverart": "https://lutris.net/media/igdb/cover_big/co5wpe.jpg",
  "platforms": [],
  "provider_games": [
    {
      "name": "Medarot 5: Susutake Mura no Tenkousei Kabuto/Kuwagata",
      "slug": "medarot-5-susutake-mura-no-tenkousei-kabuto-slash-kuwagata",
      "service": "igdb"
    }
  ],
  "aliases": [],
  "shaders": [],
  "discord_id": "",
  "change_for": null
}