{
  "id": 206605,
  "name": "Fearless Four",
  "slug": "fearless-four",
  "year": null,
  "banner_url": "",
  "icon_url": "",
  "coverart": null,
  "platforms": [],
  "provider_games": [
    {
      "name": "Fearless Four",
      "slug": "fearless-four",
      "service": "igdb"
    }
  ],
  "aliases": [],
  "shaders": [],
  "discord_id": "",
  "change_for": null
}