{
  "id": 195291,
  "name": "The Moonlight Circus",
  "slug": "the-moonlight-circus",
  "year": null,
  "banner_url": "",
  "icon_url": "",
  "coverart": "https://lutris.net/media/igdb/cover_big/co4ph3.jpg",
  "platforms": [],
  "provider_games": [
    {
      "name": "The Moonlight Circus",
      "slug": "the-moonlight-circus",
      "service": "igdb"
    }
  ],
  "aliases": [],
  "shaders": [],
  "discord_id": "",
  "change_for": null
}