{
  "id": 75704,
  "name": "Doll's Ingram",
  "slug": "dolls-ingram",
  "year": null,
  "banner_url": "",
  "icon_url": "",
  "coverart": "https://lutris.net/media/igdb/cover_big/co8bqx.jpg",
  "platforms": [],
  "provider_games": [
    {
      "name": "Doll's Ingram",
      "slug": "dolls-ingram",
      "service": "igdb"
    }
  ],
  "aliases": [],
  "shaders": [],
  "discord_id": "",
  "change_for": null
}