{
  "id": 90804,
  "name": "Lightbot Jr: Coding Puzzles",
  "slug": "lightbot-jr-coding-puzzles",
  "year": null,
  "banner_url": "",
  "icon_url": "",
  "coverart": null,
  "platforms": [],
  "provider_games": [
    {
      "name": "Lightbot Jr: Coding Puzzles",
      "slug": "lightbot-jr-coding-puzzles",
      "service": "igdb"
    }
  ],
  "aliases": [],
  "shaders": [],
  "discord_id": "",
  "change_for": null
}