{
  "id": 263406,
  "name": "Chou Aniki: Otoko no Tamafuda",
  "slug": "chou-aniki-otoko-no-tamafuda",
  "year": 2000,
  "banner_url": "",
  "icon_url": "",
  "coverart": null,
  "platforms": [
    {
      "name": "WonderSwan"
    }
  ],
  "provider_games": [
    {
      "name": "Chou Aniki: Otoko no Tamafuda",
      "slug": "chou-aniki-otoko-no-tamafuda",
      "service": "igdb"
    }
  ],
  "aliases": [],
  "shaders": [],
  "discord_id": "",
  "change_for": null
}