{
  "id": 139682,
  "name": "Kingdom Hearts III Integrum Masterpiece: e-STORE Limited Edition",
  "slug": "kingdom-hearts-iii-integrum-masterpiece-e-store-limited-edition",
  "year": null,
  "banner_url": "",
  "icon_url": "",
  "coverart": "https://lutris.net/media/igdb/cover_big/co62fc.jpg",
  "platforms": [],
  "provider_games": [
    {
      "name": "Kingdom Hearts III Integrum Masterpiece: e-Store Limited Edition",
      "slug": "kingdom-hearts-iii-integrum-masterpiece-e-store-limited-edition",
      "service": "igdb"
    }
  ],
  "aliases": [],
  "shaders": [],
  "discord_id": "",
  "change_for": null
}