{
  "id": 45295,
  "name": "Jinyong Qunxia Zhuan",
  "slug": "jinyong-qunxia-zhuan",
  "year": null,
  "banner_url": "",
  "icon_url": "",
  "coverart": null,
  "platforms": [],
  "provider_games": [
    {
      "name": "Jinyong Qunxia Zhuan",
      "slug": "jinyong-qunxia-zhuan",
      "service": "igdb"
    }
  ],
  "aliases": [],
  "shaders": [],
  "discord_id": "",
  "change_for": null
}