{
  "id": 280733,
  "name": "Final Fight And Cadillacs 2",
  "slug": "final-fight-and-cadillacs-2",
  "year": 2021,
  "banner_url": "",
  "icon_url": "",
  "coverart": "https://lutris.net/media/igdb/cover_big/co8085.jpg",
  "platforms": [
    {
      "name": "Windows"
    }
  ],
  "provider_games": [
    {
      "name": "Final Fight And Cadillacs 2",
      "slug": "final-fight-and-cadillacs-2",
      "service": "igdb"
    }
  ],
  "aliases": [],
  "shaders": [],
  "discord_id": "",
  "change_for": null
}