{
  "id": 234181,
  "name": "Time Titans VR",
  "slug": "time-titans-vr",
  "year": null,
  "banner_url": "",
  "icon_url": "",
  "coverart": "https://lutris.net/media/igdb/cover_big/co651i.jpg",
  "platforms": [],
  "provider_games": [
    {
      "name": "Time Titans VR",
      "slug": "time-titans-vr",
      "service": "igdb"
    }
  ],
  "aliases": [],
  "shaders": [],
  "discord_id": "",
  "change_for": null
}