{
  "id": 231459,
  "name": "Chimera of Tactics 2",
  "slug": "chimera-of-tactics-2",
  "year": 2018,
  "banner_url": "",
  "icon_url": "",
  "coverart": null,
  "platforms": [
    {
      "name": "Windows"
    }
  ],
  "provider_games": [
    {
      "name": "Chimera of Tactics 2",
      "slug": "chimera-of-tactics-2",
      "service": "igdb"
    }
  ],
  "aliases": [],
  "shaders": [],
  "discord_id": "",
  "change_for": null
}