{
  "id": 150171,
  "name": "[R.U.M.A]",
  "slug": "r-dot-u-m-dot-a",
  "year": 2016,
  "banner_url": "",
  "icon_url": "",
  "coverart": "https://lutris.net/media/igdb/cover_big/ejjwrrslln5knsgnrppx.jpg",
  "platforms": [
    {
      "name": "Windows"
    }
  ],
  "provider_games": [
    {
      "name": "[R.U.M.A]",
      "slug": "r-dot-u-m-dot-a",
      "service": "igdb"
    }
  ],
  "aliases": [],
  "shaders": [],
  "discord_id": "",
  "change_for": null
}