{
  "id": 28333,
  "game_id": 42802,
  "game_slug": "propilkki2",
  "name": "ProPilkki2",
  "year": 2013,
  "user": "b3a99eec5de3ef4d0044b42e4d1690c1",
  "runner": "wine",
  "slug": "propilkki2-171",
  "version": "1.7.1",
  "description": "Do not create shortcuts",
  "notes": "-",
  "credits": "",
  "created_at": "2021-06-23T19:38:07.935000Z",
  "updated_at": "2024-04-03T02:26:04.582493Z",
  "draft": false,
  "published": true,
  "published_by": 51687,
  "rating": "",
  "is_playable": null,
  "steamid": null,
  "gogid": null,
  "gogslug": "",
  "humbleid": "",
  "humblestoreid": "",
  "humblestoreid_real": "",
  "script": {
    "files": [
      {
        "file_id": "http://mariapori.fi/mirror/P2Installer_v1.7.1.exe"
      }
    ],
    "game": {
      "arch": "win32",
      "args": null,
      "exe": "$GAMEDIR/ProPilkki2.exe",
      "prefix": "$GAMEDIR",
      "working_dir": "$GAMEDIR"
    },
    "installer": [
      {
        "dst": "$GAMEDIR",
        "move": null,
        "src": "file_id"
      },
      {
        "task": {
          "executable": "P2Installer_v1.7.1.exe",
          "name": "wineexec",
          "prefix": "$GAMEDIR"
        }
      }
    ],
    "system": {
      "env": {
        "SOMEENV": true,
        "WINEDLLOVERRIDES": "d3d11="
      },
      "terminal": true
    },
    "wine": {
      "Desktop": true,
      "overrides": {
        "ddraw.dll": "n"
      }
    }
  },
  "content": "files:\n- file_id: http://mariapori.fi/mirror/P2Installer_v1.7.1.exe\ngame:\n  arch: win32\n  args: null\n  exe: $GAMEDIR/ProPilkki2.exe\n  prefix: $GAMEDIR\n  working_dir: $GAMEDIR\ninstaller:\n- dst: $GAMEDIR\n  move: null\n  src: file_id\n- task:\n    executable: P2Installer_v1.7.1.exe\n    name: wineexec\n    prefix: $GAMEDIR\nsystem:\n  env:\n    SOMEENV: true\n    WINEDLLOVERRIDES: d3d11=\n  terminal: true\nwine:\n  Desktop: true\n  overrides:\n    ddraw.dll: n\n",
  "discord_id": ""
}