{
  "id": 231227,
  "name": "Crystal Winter",
  "slug": "crystal-winter",
  "year": null,
  "banner_url": "",
  "icon_url": "",
  "coverart": "https://lutris.net/media/igdb/cover_big/co64sv.jpg",
  "platforms": [],
  "provider_games": [
    {
      "name": "Crystal Winter",
      "slug": "crystal-winter",
      "service": "igdb"
    }
  ],
  "aliases": [],
  "shaders": [],
  "discord_id": "",
  "change_for": null
}