{
  "id": 5313,
  "name": "Horizon Shift",
  "slug": "horizon-shift",
  "year": 2015,
  "banner_url": "https://lutris.net/games/banner/horizon-shift.jpg",
  "icon_url": "https://lutris.net/games/icon/horizon-shift.png",
  "coverart": "https://lutris.net/media/igdb/cover_big/co2iqe.jpg",
  "platforms": [
    {
      "name": "Windows"
    }
  ],
  "provider_games": [
    {
      "name": "Horizon Shift",
      "slug": "326120",
      "service": "steam"
    },
    {
      "name": "Horizon Shift",
      "slug": "horizon-shift",
      "service": "igdb"
    }
  ],
  "aliases": [],
  "shaders": [],
  "discord_id": "",
  "change_for": null
}