{
  "id": 60511,
  "name": "Proxy Blade",
  "slug": "proxy-blade",
  "year": null,
  "banner_url": "",
  "icon_url": "",
  "coverart": "https://lutris.net/media/igdb/cover_big/h0vshukjtaayqtmndni3.jpg",
  "platforms": [],
  "provider_games": [
    {
      "name": "Proxy Blade",
      "slug": "proxy-blade",
      "service": "igdb"
    }
  ],
  "aliases": [],
  "shaders": [],
  "discord_id": "",
  "change_for": null
}