{
  "id": 208383,
  "name": "Interstellar Travel Package",
  "slug": "interstellar-travel-package",
  "year": null,
  "banner_url": "",
  "icon_url": "",
  "coverart": null,
  "platforms": [],
  "provider_games": [
    {
      "name": "Interstellar Travel Package",
      "slug": "interstellar-travel-package",
      "service": "igdb"
    }
  ],
  "aliases": [],
  "shaders": [],
  "discord_id": "",
  "change_for": null
}