{
  "id": 130560,
  "name": "Almost Hero",
  "slug": "almost-hero",
  "year": 2018,
  "banner_url": "",
  "icon_url": "",
  "coverart": "https://lutris.net/media/igdb/cover_big/co2yxp.jpg",
  "platforms": [
    {
      "name": "Android"
    },
    {
      "name": "NES"
    },
    {
      "name": "Windows"
    }
  ],
  "provider_games": [
    {
      "name": "Almost Hero",
      "slug": "almost-hero",
      "service": "igdb"
    }
  ],
  "aliases": [],
  "shaders": [],
  "discord_id": "",
  "change_for": null
}