{
  "id": 185051,
  "name": "Whale Tennis",
  "slug": "whale-tennis",
  "year": null,
  "banner_url": "",
  "icon_url": "",
  "coverart": null,
  "platforms": [],
  "provider_games": [
    {
      "name": "Whale Tennis",
      "slug": "whale-tennis",
      "service": "igdb"
    }
  ],
  "aliases": [],
  "shaders": [],
  "discord_id": "",
  "change_for": null
}