{
  "id": 144088,
  "name": "Pong-Tron",
  "slug": "pong-tron",
  "year": 1973,
  "banner_url": "",
  "icon_url": "",
  "coverart": "https://lutris.net/media/igdb/cover_big/xyibbx358ahoje6hnbkm.jpg",
  "platforms": [],
  "provider_games": [
    {
      "name": "Pong-Tron",
      "slug": "pong-tron",
      "service": "igdb"
    }
  ],
  "aliases": [],
  "shaders": [],
  "discord_id": "",
  "change_for": null
}