{
  "id": 253903,
  "name": "The Ravendree Oracle",
  "slug": "the-ravendree-oracle",
  "year": null,
  "banner_url": "",
  "icon_url": "",
  "coverart": "https://lutris.net/media/igdb/cover_big/co6to8.jpg",
  "platforms": [],
  "provider_games": [
    {
      "name": "The Ravendree Oracle",
      "slug": "the-ravendree-oracle",
      "service": "igdb"
    }
  ],
  "aliases": [],
  "shaders": [],
  "discord_id": "",
  "change_for": null
}