{
  "id": 4364,
  "game_id": 2629,
  "game_slug": "quest-for-infamy",
  "name": "Quest for Infamy",
  "year": 2014,
  "user": "FakeShemp",
  "runner": "linux",
  "slug": "quest-for-infamy-groupees",
  "version": "Groupees",
  "description": "",
  "notes": "",
  "credits": "",
  "created_at": "2017-06-15T16:38:46.943000Z",
  "updated_at": "2024-04-03T05:44:09.989983Z",
  "draft": false,
  "published": true,
  "published_by": null,
  "rating": "",
  "is_playable": null,
  "steamid": 264560,
  "gogid": 1207664993,
  "gogslug": "quest_for_infamy",
  "humbleid": "",
  "humblestoreid": "",
  "humblestoreid_real": "",
  "script": {
    "files": [
      {
        "file1": "N/A:Please select the Groupees archive"
      }
    ],
    "game": {
      "exe": "QFI.bin.x86_64",
      "launch_configs": [
        {
          "exe": "QFI.bin.x86",
          "name": "32 bit version"
        }
      ]
    },
    "installer": [
      {
        "extract": {
          "dst": "$CACHE",
          "file": "$file1"
        }
      },
      {
        "extract": {
          "dst": "$CACHE",
          "file": "$CACHE/qfi-1.0.1_2014-07-09.bin",
          "format": "zip"
        }
      },
      {
        "merge": {
          "dst": "$GAMEDIR",
          "src": "$CACHE/data/noarch"
        }
      },
      {
        "merge": {
          "dst": "$GAMEDIR",
          "src": "$CACHE/data/x86"
        }
      },
      {
        "merge": {
          "dst": "$GAMEDIR",
          "src": "$CACHE/data/x86_64"
        }
      }
    ]
  },
  "content": "files:\n- file1: N/A:Please select the Groupees archive\ngame:\n  exe: QFI.bin.x86_64\n  launch_configs:\n  - exe: QFI.bin.x86\n    name: 32 bit version\ninstaller:\n- extract:\n    dst: $CACHE\n    file: $file1\n- extract:\n    dst: $CACHE\n    file: $CACHE/qfi-1.0.1_2014-07-09.bin\n    format: zip\n- merge:\n    dst: $GAMEDIR\n    src: $CACHE/data/noarch\n- merge:\n    dst: $GAMEDIR\n    src: $CACHE/data/x86\n- merge:\n    dst: $GAMEDIR\n    src: $CACHE/data/x86_64\n",
  "discord_id": ""
}