{
  "id": 248851,
  "name": "Pretty Bubble: Flappy Adventures",
  "slug": "pretty-bubble-flappy-adventures",
  "year": null,
  "banner_url": "",
  "icon_url": "",
  "coverart": null,
  "platforms": [],
  "provider_games": [
    {
      "name": "Pretty Bubble: Flappy Adventures",
      "slug": "pretty-bubble-flappy-adventures",
      "service": "igdb"
    }
  ],
  "aliases": [],
  "shaders": [],
  "discord_id": "",
  "change_for": null
}