{
  "id": 14,
  "game_id": 28,
  "game_slug": "quake-ii",
  "name": "Quake II",
  "year": 1997,
  "user": "strider",
  "runner": "linux",
  "slug": "quake-ii-native-steam-data",
  "version": "Native + steam data",
  "description": "Requires to own the game on Steam. Uses the improved and open engine Yamagi",
  "notes": "",
  "credits": "",
  "created_at": "2013-06-24T19:32:10Z",
  "updated_at": "2024-04-03T05:34:42.435700Z",
  "draft": false,
  "published": true,
  "published_by": 1,
  "rating": "",
  "is_playable": null,
  "steamid": 2320,
  "gogid": 1441704824,
  "gogslug": "quake_ii_quad_damage",
  "humbleid": "",
  "humblestoreid": "",
  "humblestoreid_real": "",
  "script": {
    "files": [
      {
        "yamagi-quake2-x64": "https://lutris.nyc3.digitaloceanspaces.com/games/quake-2/yamagi-yquake2-7.30-x86_64.tar.gz"
      },
      {
        "quake2-data": "$STEAM:2320:baseq2"
      },
      {
        "quake2-music": "https://lutris.net/files/games/quake-2/quake2-music.tar.gz"
      }
    ],
    "game": {
      "exe": "quake2"
    },
    "installer": [
      {
        "extract": {
          "file": "yamagi-quake2-x64"
        }
      },
      {
        "merge": {
          "dst": "$GAMEDIR/baseq2",
          "src": "quake2-data"
        }
      },
      {
        "extract": {
          "dst": "$GAMEDIR/baseq2/music",
          "file": "quake2-music"
        }
      }
    ]
  },
  "content": "files:\n- yamagi-quake2-x64: https://lutris.nyc3.digitaloceanspaces.com/games/quake-2/yamagi-yquake2-7.30-x86_64.tar.gz\n- quake2-data: $STEAM:2320:baseq2\n- quake2-music: https://lutris.net/files/games/quake-2/quake2-music.tar.gz\ngame:\n  exe: quake2\ninstaller:\n- extract:\n    file: yamagi-quake2-x64\n- merge:\n    dst: $GAMEDIR/baseq2\n    src: quake2-data\n- extract:\n    dst: $GAMEDIR/baseq2/music\n    file: quake2-music\n",
  "discord_id": "498987709629464586"
}