{
  "id": 105749,
  "name": "Assassin's Creed IV: Black Flag - Buccaneer Edition",
  "slug": "assassins-creed-iv-black-flag-buccaneer-edition",
  "year": 2013,
  "banner_url": "",
  "icon_url": "",
  "coverart": "https://lutris.net/media/igdb/cover_big/co2tf6.jpg",
  "platforms": [
    {
      "name": "Nintendo Wii U"
    },
    {
      "name": "Sony Playstation 3"
    },
    {
      "name": "Windows"
    },
    {
      "name": "Xbox 360"
    }
  ],
  "provider_games": [
    {
      "name": "Assassin's Creed IV: Black Flag - Buccaneer Edition",
      "slug": "assassins-creed-iv-black-flag-buccaneer-edition",
      "service": "igdb"
    }
  ],
  "aliases": [],
  "shaders": [],
  "discord_id": "",
  "change_for": null
}