{
  "id": 172525,
  "name": "Paizei Mahjong Ryouga",
  "slug": "paizei-mahjong-ryouga",
  "year": 1995,
  "banner_url": "",
  "icon_url": "",
  "coverart": "https://lutris.net/media/igdb/cover_big/co4avx.jpg",
  "platforms": [
    {
      "name": "Satellaview"
    },
    {
      "name": "Super Nintendo"
    }
  ],
  "provider_games": [
    {
      "name": "Paizei Mahjong Ryouga",
      "slug": "paizei-mahjong-ryouga",
      "service": "igdb"
    }
  ],
  "aliases": [],
  "shaders": [],
  "discord_id": "",
  "change_for": null
}