{
  "id": 92936,
  "name": "Chimeras: The Signs of Prophecy",
  "slug": "chimeras-the-signs-of-prophecy",
  "year": null,
  "banner_url": "",
  "icon_url": "",
  "coverart": null,
  "platforms": [],
  "provider_games": [
    {
      "name": "Chimeras: The Signs of Prophecy",
      "slug": "chimeras-the-signs-of-prophecy",
      "service": "igdb"
    }
  ],
  "aliases": [],
  "shaders": [],
  "discord_id": "",
  "change_for": null
}