{
  "id": 185689,
  "name": "Baldi's Basics Birthday Bash",
  "slug": "baldis-basics-birthday-bash",
  "year": null,
  "banner_url": "",
  "icon_url": "",
  "coverart": "https://lutris.net/media/igdb/cover_big/co61gm.jpg",
  "platforms": [],
  "provider_games": [
    {
      "name": "Baldi's Basics Birthday Bash",
      "slug": "baldis-basics-birthday-bash",
      "service": "igdb"
    }
  ],
  "aliases": [],
  "shaders": [],
  "discord_id": "",
  "change_for": null
}