{
  "id": 150293,
  "name": "Die Bloody Nazi Die!",
  "slug": "die-bloody-nazi-die",
  "year": null,
  "banner_url": "",
  "icon_url": "",
  "coverart": "https://lutris.net/media/igdb/cover_big/co3ols.jpg",
  "platforms": [],
  "provider_games": [
    {
      "name": "Die Bloody Nazi Die!",
      "slug": "die-bloody-nazi-die",
      "service": "igdb"
    }
  ],
  "aliases": [],
  "shaders": [],
  "discord_id": "",
  "change_for": null
}