{
  "id": 304817,
  "name": "Trapped: Family Vacation",
  "slug": "trapped-family-vacation",
  "year": 2025,
  "banner_url": "",
  "icon_url": "",
  "coverart": "https://lutris.net/media/igdb/cover_big/co99tc.jpg",
  "platforms": [
    {
      "name": "Windows"
    }
  ],
  "provider_games": [
    {
      "name": "Trapped: Family Vacation",
      "slug": "trapped-family-vacation",
      "service": "igdb"
    }
  ],
  "aliases": [],
  "shaders": [],
  "discord_id": "",
  "change_for": null
}