{
  "id": 255135,
  "name": "Teenage Demon Slayer Society",
  "slug": "teenage-demon-slayer-society",
  "year": null,
  "banner_url": "",
  "icon_url": "",
  "coverart": "https://lutris.net/media/igdb/cover_big/co6xc3.jpg",
  "platforms": [
    {
      "name": "Windows"
    }
  ],
  "provider_games": [
    {
      "name": "Teenage Demon Slayer Society",
      "slug": "teenage-demon-slayer-society",
      "service": "igdb"
    }
  ],
  "aliases": [],
  "shaders": [],
  "discord_id": "",
  "change_for": null
}