{
  "id": 223084,
  "name": "Nintendo Mini Classics: Star Trek - The Next Generation",
  "slug": "nintendo-mini-classics-star-trek-the-next-generation--1",
  "year": 1998,
  "banner_url": "",
  "icon_url": "",
  "coverart": "https://lutris.net/media/igdb/cover_big/co4wr3.jpg",
  "platforms": [],
  "provider_games": [
    {
      "name": "Nintendo Mini Classics: Star Trek - The Next Generation",
      "slug": "nintendo-mini-classics-star-trek-the-next-generation--1",
      "service": "igdb"
    }
  ],
  "aliases": [],
  "shaders": [],
  "discord_id": "",
  "change_for": null
}