{
  "id": 242807,
  "name": "Cities: Skylines - Hotels & Retreats",
  "slug": "cities-skylines-hotels-and-retreats",
  "year": null,
  "banner_url": "",
  "icon_url": "",
  "coverart": "https://lutris.net/media/igdb/cover_big/co7f62.jpg",
  "platforms": [],
  "provider_games": [
    {
      "name": "Cities: Skylines - Hotels & Retreats",
      "slug": "cities-skylines-hotels-and-retreats",
      "service": "igdb"
    }
  ],
  "aliases": [],
  "shaders": [],
  "discord_id": "",
  "change_for": null
}