{
  "id": 15461,
  "name": "Duel of Summoners : The Mabinogi Trading Card Game",
  "slug": "duel-of-summoners-the-mabinogi-trading-card-game",
  "year": null,
  "banner_url": "https://lutris.net/games/banner/duel-of-summoners-the-mabinogi-trading-card-game.jpg",
  "icon_url": "https://lutris.net/games/icon/duel-of-summoners-the-mabinogi-trading-card-game.png",
  "coverart": null,
  "platforms": [],
  "provider_games": [
    {
      "name": "Duel of Summoners : The Mabinogi Trading Card Game",
      "slug": "688430",
      "service": "steam"
    }
  ],
  "aliases": [],
  "shaders": [],
  "discord_id": "",
  "change_for": null
}