{
  "id": 96442,
  "name": "Space Wars 3D Star Combat Simulator",
  "slug": "space-wars-3d-star-combat-simulator",
  "year": null,
  "banner_url": "",
  "icon_url": "",
  "coverart": null,
  "platforms": [],
  "provider_games": [
    {
      "name": "Space Wars 3D Star Combat Simulator",
      "slug": "space-wars-3d-star-combat-simulator",
      "service": "igdb"
    }
  ],
  "aliases": [],
  "shaders": [],
  "discord_id": "",
  "change_for": null
}