{
  "id": 44101,
  "name": "Vampire & Monsters: Hidden Object Games",
  "slug": "vampire-monsters-hidden-object-games",
  "year": null,
  "banner_url": "https://lutris.net/games/banner/vampire-monsters-hidden-object-games.jpg",
  "icon_url": "https://lutris.net/games/icon/vampire-monsters-hidden-object-games.png",
  "coverart": null,
  "platforms": [],
  "provider_games": [
    {
      "name": "Vampire & Monsters: Hidden Object Games",
      "slug": "1015080",
      "service": "steam"
    }
  ],
  "aliases": [],
  "shaders": [],
  "discord_id": "",
  "change_for": null
}