{
  "id": 50944,
  "name": "We Sing Encore",
  "slug": "we-sing-encore",
  "year": 2010,
  "banner_url": "",
  "icon_url": "",
  "coverart": "https://lutris.net/media/igdb/cover_big/z5skn8de8lokmn95f66w.jpg",
  "platforms": [
    {
      "name": "Nintendo Wii"
    }
  ],
  "provider_games": [
    {
      "name": "We Sing Encore",
      "slug": "we-sing-encore",
      "service": "igdb"
    }
  ],
  "aliases": [],
  "shaders": [],
  "discord_id": "",
  "change_for": null
}