{
  "id": 4635,
  "game_id": 11933,
  "game_slug": "dead-reefs",
  "name": "Dead Reefs",
  "year": 2007,
  "user": "FakeShemp",
  "runner": "wine",
  "slug": "dead-reefs-humble",
  "version": "Humble",
  "description": "",
  "notes": "",
  "credits": "",
  "created_at": "2017-06-26T16:58:05.850000Z",
  "updated_at": "2018-05-19T03:41:53.381098Z",
  "draft": false,
  "published": true,
  "published_by": null,
  "rating": "",
  "is_playable": null,
  "steamid": null,
  "gogid": null,
  "gogslug": "",
  "humbleid": "",
  "humblestoreid": "",
  "humblestoreid_real": "",
  "script": {
    "files": [
      {
        "file1": "N/A:Please select the Humble archive"
      }
    ],
    "game": {
      "arch": "win32",
      "exe": "drive_c/Program Files/The Adventure Company/Dead Reefs/Launcher.exe",
      "prefix": "$GAMEDIR"
    },
    "installer": [
      {
        "extract": {
          "dst": "$CACHE",
          "file": "$file1"
        }
      },
      {
        "task": {
          "executable": "$CACHE/setup.exe",
          "name": "wineexec",
          "prefix": "$GAMEDIR"
        }
      }
    ]
  },
  "content": "files:\n- file1: N/A:Please select the Humble archive\ngame:\n  arch: win32\n  exe: drive_c/Program Files/The Adventure Company/Dead Reefs/Launcher.exe\n  prefix: $GAMEDIR\ninstaller:\n- extract:\n    dst: $CACHE\n    file: $file1\n- task:\n    executable: $CACHE/setup.exe\n    name: wineexec\n    prefix: $GAMEDIR\n",
  "discord_id": ""
}