{
  "id": 286036,
  "name": "Doctor Who: Don't Blink",
  "slug": "doctor-who-dont-blink",
  "year": 2016,
  "banner_url": "",
  "icon_url": "",
  "coverart": "https://lutris.net/media/igdb/cover_big/co88do.jpg",
  "platforms": [
    {
      "name": "Browser"
    }
  ],
  "provider_games": [
    {
      "name": "Doctor Who: Don't Blink",
      "slug": "doctor-who-dont-blink",
      "service": "igdb"
    }
  ],
  "aliases": [],
  "shaders": [],
  "discord_id": "",
  "change_for": null
}