{
  "id": 197229,
  "name": "Christmas Celebration With Sakuya Izayoi",
  "slug": "christmas-celebration-with-sakuya-izayoi",
  "year": 2021,
  "banner_url": "",
  "icon_url": "",
  "coverart": "https://lutris.net/media/igdb/cover_big/co4l9u.jpg",
  "platforms": [
    {
      "name": "Windows"
    }
  ],
  "provider_games": [
    {
      "name": "Christmas Celebration With Sakuya Izayoi",
      "slug": "christmas-celebration-with-sakuya-izayoi",
      "service": "igdb"
    }
  ],
  "aliases": [],
  "shaders": [],
  "discord_id": "",
  "change_for": null
}