{
  "id": 35971,
  "name": "Super Casino",
  "slug": "super-casino",
  "year": 1984,
  "banner_url": "",
  "icon_url": "https://lutris.net/games/icon/super-casino.png",
  "coverart": null,
  "platforms": [
    {
      "name": "Arcade"
    }
  ],
  "provider_games": [
    {
      "name": "Super Casino",
      "slug": "sucasino",
      "service": "mame"
    }
  ],
  "aliases": [],
  "shaders": [],
  "discord_id": "",
  "change_for": null
}