{
  "id": 12243,
  "name": "Deus Machina Demonbane",
  "slug": "deus-machina-demonbane",
  "year": 2003,
  "banner_url": "https://lutris.net/games/banner/deus-machina-demonbane.jpg",
  "icon_url": "",
  "coverart": "https://lutris.net/media/igdb/cover_big/co2fch.jpg",
  "platforms": [
    {
      "name": "Sony PlayStation 2"
    },
    {
      "name": "Windows"
    }
  ],
  "provider_games": [
    {
      "name": "Deus Machina Demonbane",
      "slug": "deus-machina-demonbane",
      "service": "igdb"
    }
  ],
  "aliases": [],
  "shaders": [],
  "discord_id": "",
  "change_for": null
}