{
  "id": 66040,
  "name": "F-16 Multirole Fighter",
  "slug": "f-16-multirole-fighter--1",
  "year": null,
  "banner_url": "",
  "icon_url": "",
  "coverart": "https://lutris.net/media/igdb/cover_big/gnonqazchxxkngrpmzrr.jpg",
  "platforms": [],
  "provider_games": [
    {
      "name": "F-16 Multirole Fighter",
      "slug": "f-16-multirole-fighter--1",
      "service": "igdb"
    }
  ],
  "aliases": [],
  "shaders": [],
  "discord_id": "",
  "change_for": null
}