{
  "id": 105370,
  "name": "Rose of Starcross",
  "slug": "rose-of-starcross",
  "year": null,
  "banner_url": "",
  "icon_url": "",
  "coverart": "https://lutris.net/media/igdb/cover_big/co7rbg.jpg",
  "platforms": [],
  "provider_games": [
    {
      "name": "Rose of Starcross",
      "slug": "rose-of-starcross",
      "service": "igdb"
    }
  ],
  "aliases": [],
  "shaders": [],
  "discord_id": "",
  "change_for": null
}