{
  "id": 241913,
  "name": "Super High School Sports Day Crankathlon",
  "slug": "super-high-school-sports-day-crankathlon",
  "year": null,
  "banner_url": "",
  "icon_url": "",
  "coverart": null,
  "platforms": [],
  "provider_games": [
    {
      "name": "Super High School Sports Day Crankathlon",
      "slug": "super-high-school-sports-day-crankathlon",
      "service": "igdb"
    }
  ],
  "aliases": [],
  "shaders": [],
  "discord_id": "",
  "change_for": null
}