{
  "id": 86285,
  "name": "Agricultural Simulator 2012",
  "slug": "agricultural-simulator-2012",
  "year": 2011,
  "banner_url": "",
  "icon_url": "",
  "coverart": "https://lutris.net/media/igdb/cover_big/co1ua6.jpg",
  "platforms": [
    {
      "name": "Windows"
    }
  ],
  "provider_games": [
    {
      "name": "Agricultural Simulator 2012",
      "slug": "agricultural-simulator-2012",
      "service": "igdb"
    }
  ],
  "aliases": [],
  "shaders": [],
  "discord_id": "",
  "change_for": null
}