{
  "id": 184773,
  "name": "Promenade",
  "slug": "promenade",
  "year": null,
  "banner_url": "",
  "icon_url": "",
  "coverart": "https://lutris.net/media/igdb/cover_big/co4f4x.jpg",
  "platforms": [],
  "provider_games": [
    {
      "name": "Promenade",
      "slug": "promenade",
      "service": "igdb"
    }
  ],
  "aliases": [],
  "shaders": [],
  "discord_id": "",
  "change_for": null
}