{
  "id": 19815,
  "name": "ZomDay",
  "slug": "zomday",
  "year": 2017,
  "banner_url": "https://lutris.net/games/banner/zomday.jpg",
  "icon_url": "https://lutris.net/games/icon/zomday.png",
  "coverart": "https://lutris.net/media/igdb/cover_big/co272a.jpg",
  "platforms": [
    {
      "name": "Windows"
    }
  ],
  "provider_games": [
    {
      "name": "ZomDay",
      "slug": "681390",
      "service": "steam"
    },
    {
      "name": "ZomDay",
      "slug": "zomday",
      "service": "igdb"
    }
  ],
  "aliases": [],
  "shaders": [],
  "discord_id": "",
  "change_for": null
}