{
  "id": 2679,
  "name": "Super Panda Adventures",
  "slug": "super-panda-adventures",
  "year": 2014,
  "banner_url": "https://lutris.net/games/banner/super-panda-adventures.jpg",
  "icon_url": "https://lutris.net/games/icon/super-panda-adventures.png",
  "coverart": "https://lutris.net/media/igdb/cover_big/co2h9m.jpg",
  "platforms": [
    {
      "name": "Windows"
    }
  ],
  "provider_games": [
    {
      "name": "Super Panda Adventures",
      "slug": "311190",
      "service": "steam"
    },
    {
      "name": "Super Panda Adventures",
      "slug": "super-panda-adventures",
      "service": "igdb"
    }
  ],
  "aliases": [],
  "shaders": [],
  "discord_id": "",
  "change_for": null
}