{
  "id": 155759,
  "name": "Tierra: Adventure Mystery",
  "slug": "tierra-adventure-mystery",
  "year": 2021,
  "banner_url": "",
  "icon_url": "",
  "coverart": null,
  "platforms": [],
  "provider_games": [
    {
      "name": "Tierra: Adventure Mystery",
      "slug": "tierra-adventure-mystery",
      "service": "igdb"
    }
  ],
  "aliases": [],
  "shaders": [],
  "discord_id": "",
  "change_for": null
}