{
  "id": 42720,
  "name": "Zombie Solitaire 2 Chapter 3",
  "slug": "zombie-solitaire-2-chapter-3",
  "year": 2018,
  "banner_url": "https://lutris.net/games/banner/zombie-solitaire-2-chapter-3.jpg",
  "icon_url": "https://lutris.net/games/icon/zombie-solitaire-2-chapter-3.png",
  "coverart": "https://lutris.net/media/igdb/cover_big/co23v2.jpg",
  "platforms": [
    {
      "name": "Windows"
    }
  ],
  "provider_games": [
    {
      "name": "Zombie Solitaire 2 Chapter 3",
      "slug": "623180",
      "service": "steam"
    },
    {
      "name": "Zombie Solitaire 2 Chapter 3",
      "slug": "zombie-solitaire-2-chapter-3",
      "service": "igdb"
    }
  ],
  "aliases": [],
  "shaders": [],
  "discord_id": "",
  "change_for": null
}