{
  "id": 245503,
  "name": "X-Men: Sentinel Assault",
  "slug": "x-men-sentinel-assault",
  "year": 2005,
  "banner_url": "",
  "icon_url": "",
  "coverart": "https://lutris.net/media/igdb/cover_big/co7m7o.jpg",
  "platforms": [],
  "provider_games": [
    {
      "name": "X-Men: Sentinel Assault",
      "slug": "x-men-sentinel-assault",
      "service": "igdb"
    }
  ],
  "aliases": [],
  "shaders": [],
  "discord_id": "",
  "change_for": null
}