{
  "id": 146189,
  "name": "Princess Tomato in the Salad Kingdom",
  "slug": "princess-tomato-in-the-salad-kingdom",
  "year": 1988,
  "banner_url": "",
  "icon_url": "",
  "coverart": "https://lutris.net/media/igdb/cover_big/co3wep.jpg",
  "platforms": [
    {
      "name": "NES"
    },
    {
      "name": "Nintendo 3DS"
    },
    {
      "name": "Nintendo Wii"
    },
    {
      "name": "Nintendo Wii U"
    }
  ],
  "provider_games": [
    {
      "name": "Princess Tomato in the Salad Kingdom",
      "slug": "princess-tomato-in-the-salad-kingdom",
      "service": "igdb"
    }
  ],
  "aliases": [],
  "shaders": [],
  "discord_id": "",
  "change_for": null
}