{
  "id": 128727,
  "name": "Arcade Archives: THE LEGEND OF KAGE",
  "slug": "arcade-archives-the-legend-of-kage",
  "year": 2019,
  "banner_url": "",
  "icon_url": "",
  "coverart": "https://lutris.net/media/igdb/cover_big/co3ip7.jpg",
  "platforms": [
    {
      "name": "Nintendo Switch"
    },
    {
      "name": "Sony Playstation 4"
    }
  ],
  "provider_games": [
    {
      "name": "Arcade Archives: The Legend of Kage",
      "slug": "arcade-archives-the-legend-of-kage",
      "service": "igdb"
    }
  ],
  "aliases": [],
  "shaders": [],
  "discord_id": "",
  "change_for": null
}