{
  "id": 282829,
  "name": "The Ghost Town Treasure",
  "slug": "the-ghost-town-treasure",
  "year": 2017,
  "banner_url": "",
  "icon_url": "",
  "coverart": null,
  "platforms": [],
  "provider_games": [
    {
      "name": "The Ghost Town Treasure",
      "slug": "the-ghost-town-treasure",
      "service": "igdb"
    }
  ],
  "aliases": [],
  "shaders": [],
  "discord_id": "",
  "change_for": null
}