{
  "id": 165131,
  "name": "Lost Eidolons",
  "slug": "lost-eidolons",
  "year": 2022,
  "banner_url": "https://lutris.net/games/banner/lost-eidolons.jpg",
  "icon_url": "",
  "coverart": "https://lutris.net/media/igdb/cover_big/co41qf.jpg",
  "platforms": [
    {
      "name": "Windows"
    },
    {
      "name": "Xbox Series X|S"
    }
  ],
  "provider_games": [
    {
      "name": "Lost Eidolons",
      "slug": "lost-eidolons",
      "service": "igdb"
    },
    {
      "name": "Lost Eidolons",
      "slug": "1580520",
      "service": "steam"
    },
    {
      "name": "Lost Eidolons",
      "slug": "1316455012",
      "service": "gog"
    }
  ],
  "aliases": [],
  "shaders": [],
  "discord_id": "",
  "change_for": null
}