{
  "id": 305657,
  "name": "Motorbikes Pro 2025",
  "slug": "motorbikes-pro-2025",
  "year": null,
  "banner_url": "",
  "icon_url": "",
  "coverart": "https://lutris.net/media/igdb/cover_big/co9aqi.jpg",
  "platforms": [],
  "provider_games": [
    {
      "name": "Motorbikes Pro 2025",
      "slug": "motorbikes-pro-2025",
      "service": "igdb"
    }
  ],
  "aliases": [],
  "shaders": [],
  "discord_id": "",
  "change_for": null
}