{
  "id": 20230,
  "name": "FAR: Lone Sails",
  "slug": "far-lone-sails",
  "year": 2018,
  "banner_url": "https://lutris.net/games/banner/far-lone-sails.jpg",
  "icon_url": "https://lutris.net/games/icon/far-lone-sails.png",
  "coverart": "https://lutris.net/media/igdb/cover_big/co27qa.jpg",
  "platforms": [
    {
      "name": "Android"
    },
    {
      "name": "Mac"
    },
    {
      "name": "Nintendo Switch"
    },
    {
      "name": "Sony Playstation 4"
    },
    {
      "name": "Windows"
    },
    {
      "name": "Xbox One"
    }
  ],
  "provider_games": [
    {
      "name": "FAR: Lone Sails",
      "slug": "1736537203",
      "service": "gog"
    },
    {
      "name": "FAR: Lone Sails",
      "slug": "609320",
      "service": "steam"
    },
    {
      "name": "FAR: Lone Sails",
      "slug": "far-lone-sails",
      "service": "igdb"
    }
  ],
  "aliases": [],
  "shaders": [],
  "discord_id": "",
  "change_for": null
}