{
  "id": 211740,
  "name": "Decopins: Asset Fighters Series",
  "slug": "decopins-asset-fighters-series",
  "year": null,
  "banner_url": "",
  "icon_url": "",
  "coverart": "https://lutris.net/media/igdb/cover_big/co5f63.jpg",
  "platforms": [],
  "provider_games": [
    {
      "name": "Decopins: Asset Fighters Series",
      "slug": "decopins-asset-fighters-series",
      "service": "igdb"
    }
  ],
  "aliases": [],
  "shaders": [],
  "discord_id": "",
  "change_for": null
}