{
  "id": 207992,
  "name": "Everlove: Rose",
  "slug": "everlove-rose",
  "year": null,
  "banner_url": "",
  "icon_url": "",
  "coverart": null,
  "platforms": [],
  "provider_games": [
    {
      "name": "Everlove: Rose",
      "slug": "everlove-rose",
      "service": "igdb"
    }
  ],
  "aliases": [],
  "shaders": [],
  "discord_id": "",
  "change_for": null
}