{
  "id": 11647,
  "name": "Mimpi",
  "slug": "mimpi",
  "year": 2015,
  "banner_url": "https://lutris.net/games/banner/mimpi.jpg",
  "icon_url": "https://lutris.net/games/icon/mimpi.png",
  "coverart": "https://lutris.net/media/igdb/cover_big/co21cv.jpg",
  "platforms": [
    {
      "name": "Mac"
    },
    {
      "name": "Windows"
    }
  ],
  "provider_games": [
    {
      "name": "Mimpi",
      "slug": "332580",
      "service": "steam"
    },
    {
      "name": "Mimpi",
      "slug": "mimpi",
      "service": "igdb"
    }
  ],
  "aliases": [],
  "shaders": [],
  "discord_id": "",
  "change_for": null
}