{
  "id": 293048,
  "name": "Fish Chips and Bombs",
  "slug": "fish-chips-and-bombs",
  "year": null,
  "banner_url": "",
  "icon_url": "",
  "coverart": "https://lutris.net/media/igdb/cover_big/co8lz7.jpg",
  "platforms": [],
  "provider_games": [
    {
      "name": "Fish Chips and Bombs",
      "slug": "fish-chips-and-bombs",
      "service": "igdb"
    }
  ],
  "aliases": [],
  "shaders": [],
  "discord_id": "",
  "change_for": null
}