{
  "id": 83101,
  "name": "Soccer Yarou!: Challenge The World",
  "slug": "soccer-yarou-challenge-the-world",
  "year": 1999,
  "banner_url": "",
  "icon_url": "",
  "coverart": "https://lutris.net/media/igdb/cover_big/co6lwb.jpg",
  "platforms": [
    {
      "name": "WonderSwan"
    }
  ],
  "provider_games": [
    {
      "name": "Soccer Yarou!: Challenge the World",
      "slug": "soccer-yarou-challenge-the-world",
      "service": "igdb"
    }
  ],
  "aliases": [],
  "shaders": [],
  "discord_id": "",
  "change_for": null
}