{
  "id": 293057,
  "name": "Nezha Crossing the Sea",
  "slug": "nezha-crossing-the-sea",
  "year": null,
  "banner_url": "",
  "icon_url": "",
  "coverart": "https://lutris.net/media/igdb/cover_big/co8lxv.jpg",
  "platforms": [],
  "provider_games": [
    {
      "name": "Nezha Crossing the Sea",
      "slug": "nezha-crossing-the-sea",
      "service": "igdb"
    }
  ],
  "aliases": [],
  "shaders": [],
  "discord_id": "",
  "change_for": null
}