{
  "id": 153559,
  "name": "Memory Match Saga",
  "slug": "memory-match-saga",
  "year": null,
  "banner_url": "",
  "icon_url": "",
  "coverart": "https://lutris.net/media/igdb/cover_big/co3nt7.jpg",
  "platforms": [],
  "provider_games": [
    {
      "name": "Memory Match Saga",
      "slug": "memory-match-saga",
      "service": "igdb"
    }
  ],
  "aliases": [],
  "shaders": [],
  "discord_id": "",
  "change_for": null
}