{
  "id": 273415,
  "name": "Melting Passion",
  "slug": "melting-passion",
  "year": null,
  "banner_url": "",
  "icon_url": "",
  "coverart": "https://lutris.net/media/igdb/cover_big/co7qdu.jpg",
  "platforms": [],
  "provider_games": [
    {
      "name": "Melting Passion",
      "slug": "melting-passion",
      "service": "igdb"
    }
  ],
  "aliases": [],
  "shaders": [],
  "discord_id": "",
  "change_for": null
}