{
  "id": 181337,
  "name": "Strawberry Nauts: Complete Limited Edition",
  "slug": "strawberry-nauts-complete-limited-edition",
  "year": 2022,
  "banner_url": "",
  "icon_url": "",
  "coverart": "https://lutris.net/media/igdb/cover_big/co3zst.jpg",
  "platforms": [
    {
      "name": "Nintendo Switch"
    },
    {
      "name": "Sony Playstation 4"
    }
  ],
  "provider_games": [
    {
      "name": "Strawberry Nauts: Complete Limited Edition",
      "slug": "strawberry-nauts-complete-limited-edition",
      "service": "igdb"
    }
  ],
  "aliases": [],
  "shaders": [],
  "discord_id": "",
  "change_for": null
}