{
  "id": 152452,
  "name": "Journey To Valhalla",
  "slug": "journey-to-valhalla",
  "year": null,
  "banner_url": "",
  "icon_url": "",
  "coverart": null,
  "platforms": [],
  "provider_games": [
    {
      "name": "Journey to Valhalla",
      "slug": "journey-to-valhalla",
      "service": "igdb"
    }
  ],
  "aliases": [],
  "shaders": [],
  "discord_id": "",
  "change_for": null
}