{
  "id": 254271,
  "name": "Hatsuyuki Sakura: White Graduation",
  "slug": "hatsuyuki-sakura-white-graduation",
  "year": null,
  "banner_url": "",
  "icon_url": "",
  "coverart": null,
  "platforms": [],
  "provider_games": [
    {
      "name": "Hatsuyuki Sakura: White Graduation",
      "slug": "hatsuyuki-sakura-white-graduation",
      "service": "igdb"
    }
  ],
  "aliases": [],
  "shaders": [],
  "discord_id": "",
  "change_for": null
}