{
  "id": 307506,
  "name": "Harmony Chronicles: Demon Of The Void - Collector's Edition",
  "slug": "harmony-chronicles-demon-of-the-void-collectors-edition",
  "year": 2025,
  "banner_url": "",
  "icon_url": "",
  "coverart": "https://lutris.net/media/igdb/cover_big/co9fkn.jpg",
  "platforms": [
    {
      "name": "Xbox One"
    }
  ],
  "provider_games": [
    {
      "name": "Harmony Chronicles: Demon Of The Void - Collector's Edition",
      "slug": "harmony-chronicles-demon-of-the-void-collectors-edition",
      "service": "igdb"
    }
  ],
  "aliases": [],
  "shaders": [],
  "discord_id": "",
  "change_for": null
}