{
  "id": 145795,
  "name": "The Legend of Sword and Fairy 6: Limited Edition",
  "slug": "the-legend-of-sword-and-fairy-6-limited-edition",
  "year": null,
  "banner_url": "",
  "icon_url": "",
  "coverart": null,
  "platforms": [],
  "provider_games": [
    {
      "name": "The Legend of Sword and Fairy 6: Limited Edition",
      "slug": "the-legend-of-sword-and-fairy-6-limited-edition",
      "service": "igdb"
    }
  ],
  "aliases": [],
  "shaders": [],
  "discord_id": "",
  "change_for": null
}