{
  "id": 33114,
  "game_id": 151401,
  "game_slug": "mist-of-the-undead",
  "name": "Mist of the Undead",
  "year": 2020,
  "user": "vanstaveren",
  "runner": "steam",
  "slug": "mist-of-the-undead-steam",
  "version": "steam",
  "description": "",
  "notes": "",
  "credits": "",
  "created_at": "2022-05-07T21:15:37.790176Z",
  "updated_at": "2023-01-11T06:07:58.934368Z",
  "draft": false,
  "published": true,
  "published_by": null,
  "rating": "",
  "is_playable": null,
  "steamid": null,
  "gogid": null,
  "gogslug": "",
  "humbleid": "",
  "humblestoreid": "",
  "humblestoreid_real": "",
  "script": {
    "game": {
      "appid": 1373500
    }
  },
  "content": "game:\n  appid: 1373500\n",
  "discord_id": ""
}