{
  "id": 217336,
  "name": "Divine Duel",
  "slug": "divine-duel",
  "year": null,
  "banner_url": "",
  "icon_url": "",
  "coverart": "https://lutris.net/media/igdb/cover_big/co55go.jpg",
  "platforms": [],
  "provider_games": [
    {
      "name": "Divine Duel",
      "slug": "divine-duel",
      "service": "igdb"
    }
  ],
  "aliases": [],
  "shaders": [],
  "discord_id": "",
  "change_for": null
}