{
  "id": 282067,
  "name": "Fun with Ragdolls Plus",
  "slug": "fun-with-ragdolls-plus",
  "year": null,
  "banner_url": "",
  "icon_url": "",
  "coverart": "https://lutris.net/media/igdb/cover_big/co82ks.jpg",
  "platforms": [],
  "provider_games": [
    {
      "name": "Fun with Ragdolls Plus",
      "slug": "fun-with-ragdolls-plus",
      "service": "igdb"
    }
  ],
  "aliases": [],
  "shaders": [],
  "discord_id": "",
  "change_for": null
}