{
  "id": 8840,
  "name": "ABC Coloring Town",
  "slug": "abc-coloring-town",
  "year": 2016,
  "banner_url": "https://lutris.net/games/banner/abc-coloring-town.jpg",
  "icon_url": "https://lutris.net/games/icon/abc-coloring-town.png",
  "coverart": "https://lutris.net/media/igdb/cover_big/co2vpi.jpg",
  "platforms": [
    {
      "name": "Windows"
    }
  ],
  "provider_games": [
    {
      "name": "ABC Coloring Town",
      "slug": "478010",
      "service": "steam"
    },
    {
      "name": "ABC Coloring Town",
      "slug": "abc-coloring-town",
      "service": "igdb"
    }
  ],
  "aliases": [],
  "shaders": [],
  "discord_id": "",
  "change_for": null
}