{
  "id": 92130,
  "name": "Schneewittchen Mädchen Spiele",
  "slug": "schneewittchen-madchen-spiele",
  "year": null,
  "banner_url": "",
  "icon_url": "",
  "coverart": null,
  "platforms": [],
  "provider_games": [
    {
      "name": "Schneewittchen Mädchen Spiele",
      "slug": "schneewittchen-madchen-spiele",
      "service": "igdb"
    }
  ],
  "aliases": [],
  "shaders": [],
  "discord_id": "",
  "change_for": null
}