{
  "id": 267297,
  "name": "Undead Mayhem",
  "slug": "undead-mayhem",
  "year": null,
  "banner_url": "",
  "icon_url": "",
  "coverart": "https://lutris.net/media/igdb/cover_big/co7eb0.jpg",
  "platforms": [],
  "provider_games": [
    {
      "name": "Undead Mayhem",
      "slug": "undead-mayhem",
      "service": "igdb"
    }
  ],
  "aliases": [],
  "shaders": [],
  "discord_id": "",
  "change_for": null
}