{
  "id": 307128,
  "name": "Sonic 3D40 vs. Counterfeit",
  "slug": "sonic-3d40-vs-counterfeit",
  "year": null,
  "banner_url": "",
  "icon_url": "",
  "coverart": null,
  "platforms": [
    {
      "name": "Windows"
    }
  ],
  "provider_games": [
    {
      "name": "Sonic 3D40 vs. Counterfeit",
      "slug": "sonic-3d40-vs-counterfeit",
      "service": "igdb"
    }
  ],
  "aliases": [],
  "shaders": [],
  "discord_id": "",
  "change_for": null
}