{
  "id": 19576,
  "game_id": 115,
  "game_slug": "return-to-castle-wolfenstein",
  "name": "Return to Castle Wolfenstein",
  "year": 2001,
  "user": "strider",
  "runner": "linux",
  "slug": "return-to-castle-wolfenstein-gog-rtcwcoop",
  "version": "GOG + rtcwcoop",
  "description": "Adds online coop gameplay",
  "notes": "",
  "credits": "",
  "created_at": "2020-04-10T05:10:23.295000Z",
  "updated_at": "2020-04-10T05:14:02.427462Z",
  "draft": false,
  "published": true,
  "published_by": 1,
  "rating": "",
  "is_playable": null,
  "steamid": 9010,
  "gogid": 1441704976,
  "gogslug": "return_to_castle_wolfenstein",
  "humbleid": "",
  "humblestoreid": "",
  "humblestoreid_real": "",
  "script": {
    "files": [
      {
        "gog": "N/A:Select the Windows setup file downloaded from GOG"
      },
      {
        "inno": "http://constexpr.org/innoextract/files/snapshots/innoextract-1.8-dev-2019-01-13/innoextract-1.8-dev-2019-01-13-linux.tar.xz"
      },
      {
        "patch_data": "https://github.com/rtcwcoop/rtcwcoop/releases/download/1.0.2/patch-data-141.zip"
      },
      {
        "rtcwcoop": "https://github.com/rtcwcoop/rtcwcoop/releases/download/1.0.2/rtcwcoop-1.0.2-linux-x86_64.zip"
      }
    ],
    "game": {
      "exe": "rtcwcoop.x86_64"
    },
    "installer": [
      {
        "extract": {
          "dst": "$CACHE",
          "file": "inno"
        }
      },
      {
        "execute": {
          "args": "-d \"$CACHE\" \"$gog\"",
          "file": "$CACHE/innoextract"
        }
      },
      {
        "merge": {
          "dst": "$GAMEDIR",
          "src": "$CACHE/app"
        }
      },
      {
        "move": {
          "dst": "$GAMEDIR/main",
          "src": "$GAMEDIR/Main"
        }
      },
      {
        "extract": {
          "dst": "$GAMEDIR",
          "file": "patch_data"
        }
      },
      {
        "extract": {
          "dst": "$GAMEDIR",
          "file": "rtcwcoop"
        }
      }
    ]
  },
  "content": "files:\n- gog: N/A:Select the Windows setup file downloaded from GOG\n- inno: http://constexpr.org/innoextract/files/snapshots/innoextract-1.8-dev-2019-01-13/innoextract-1.8-dev-2019-01-13-linux.tar.xz\n- patch_data: https://github.com/rtcwcoop/rtcwcoop/releases/download/1.0.2/patch-data-141.zip\n- rtcwcoop: https://github.com/rtcwcoop/rtcwcoop/releases/download/1.0.2/rtcwcoop-1.0.2-linux-x86_64.zip\ngame:\n  exe: rtcwcoop.x86_64\ninstaller:\n- extract:\n    dst: $CACHE\n    file: inno\n- execute:\n    args: -d \"$CACHE\" \"$gog\"\n    file: $CACHE/innoextract\n- merge:\n    dst: $GAMEDIR\n    src: $CACHE/app\n- move:\n    dst: $GAMEDIR/main\n    src: $GAMEDIR/Main\n- extract:\n    dst: $GAMEDIR\n    file: patch_data\n- extract:\n    dst: $GAMEDIR\n    file: rtcwcoop\n",
  "discord_id": "505497930292133908"
}