{
  "id": 305587,
  "name": "Piano: Learn and Play - Ultra Happy Edition",
  "slug": "piano-learn-and-play-ultra-happy-edition",
  "year": 2024,
  "banner_url": "",
  "icon_url": "",
  "coverart": null,
  "platforms": [
    {
      "name": "Nintendo Switch"
    }
  ],
  "provider_games": [
    {
      "name": "Piano: Learn and Play - Ultra Happy Edition",
      "slug": "piano-learn-and-play-ultra-happy-edition",
      "service": "igdb"
    }
  ],
  "aliases": [],
  "shaders": [],
  "discord_id": "",
  "change_for": null
}