{
  "id": 274853,
  "name": "Hello Kitty's Pie Shop",
  "slug": "hello-kittys-pie-shop",
  "year": 2012,
  "banner_url": "",
  "icon_url": "",
  "coverart": "https://lutris.net/media/igdb/cover_big/co7sq2.jpg",
  "platforms": [
    {
      "name": "Android"
    }
  ],
  "provider_games": [
    {
      "name": "Hello Kitty's Pie Shop",
      "slug": "hello-kittys-pie-shop",
      "service": "igdb"
    }
  ],
  "aliases": [],
  "shaders": [],
  "discord_id": "",
  "change_for": null
}