{
  "id": 123261,
  "name": "Batman Forever: The Arcade Game",
  "slug": "batman-forever-the-arcade-game--1",
  "year": 1996,
  "banner_url": "",
  "icon_url": "",
  "coverart": "https://lutris.net/media/igdb/cover_big/co1lch.jpg",
  "platforms": [
    {
      "name": "Sega Saturn"
    },
    {
      "name": "Sony PlayStation"
    }
  ],
  "provider_games": [
    {
      "name": "Batman Forever: The Arcade Game",
      "slug": "batman-forever-the-arcade-game--1",
      "service": "igdb"
    }
  ],
  "aliases": [],
  "shaders": [],
  "discord_id": "",
  "change_for": null
}