{
  "id": 56782,
  "name": "Outside World",
  "slug": "outside-world",
  "year": null,
  "banner_url": "",
  "icon_url": "",
  "coverart": "https://lutris.net/media/igdb/cover_big/ptypnycpnjrxz6wmrqwe.jpg",
  "platforms": [],
  "provider_games": [
    {
      "name": "Outside World",
      "slug": "outside-world",
      "service": "igdb"
    }
  ],
  "aliases": [],
  "shaders": [],
  "discord_id": "",
  "change_for": null
}