{
  "id": 73119,
  "name": "Hidden Object: Turkey Trot",
  "slug": "hidden-object-turkey-trot",
  "year": null,
  "banner_url": "",
  "icon_url": "",
  "coverart": null,
  "platforms": [],
  "provider_games": [
    {
      "name": "Hidden Object: Turkey Trot",
      "slug": "hidden-object-turkey-trot",
      "service": "igdb"
    }
  ],
  "aliases": [],
  "shaders": [],
  "discord_id": "",
  "change_for": null
}