{
  "id": 76433,
  "name": "Activision Game Vault: Volume 1",
  "slug": "activision-game-vault-volume-1",
  "year": null,
  "banner_url": "",
  "icon_url": "",
  "coverart": "https://lutris.net/media/igdb/cover_big/co7jvy.jpg",
  "platforms": [],
  "provider_games": [
    {
      "name": "Activision Game Vault: Volume 1",
      "slug": "activision-game-vault-volume-1",
      "service": "igdb"
    }
  ],
  "aliases": [],
  "shaders": [],
  "discord_id": "",
  "change_for": null
}