{
  "id": 217357,
  "name": "Black Stigma",
  "slug": "black-stigma",
  "year": null,
  "banner_url": "",
  "icon_url": "",
  "coverart": "https://lutris.net/media/igdb/cover_big/co55ct.jpg",
  "platforms": [],
  "provider_games": [
    {
      "name": "Black Stigma",
      "slug": "black-stigma",
      "service": "igdb"
    }
  ],
  "aliases": [],
  "shaders": [],
  "discord_id": "",
  "change_for": null
}