{
  "id": 208099,
  "name": "Ultra Kaiju: Battle Breeders",
  "slug": "ultra-kaiju-battle-breeders",
  "year": null,
  "banner_url": "",
  "icon_url": "",
  "coverart": null,
  "platforms": [],
  "provider_games": [
    {
      "name": "Ultra Kaiju: Battle Breeders",
      "slug": "ultra-kaiju-battle-breeders",
      "service": "igdb"
    }
  ],
  "aliases": [],
  "shaders": [],
  "discord_id": "",
  "change_for": null
}