{
  "id": 171310,
  "name": "Pink Panther: Pinkadelic Pursuit",
  "slug": "pink-panther-pinkadelic-pursuit",
  "year": 2002,
  "banner_url": "",
  "icon_url": "",
  "coverart": "https://lutris.net/media/igdb/cover_big/co2k0b.jpg",
  "platforms": [
    {
      "name": "Nintendo Game Boy Advance"
    }
  ],
  "provider_games": [
    {
      "name": "Pink Panther: Pinkadelic Pursuit",
      "slug": "pink-panther-pinkadelic-pursuit",
      "service": "igdb"
    }
  ],
  "aliases": [],
  "shaders": [],
  "discord_id": "",
  "change_for": null
}