{
  "id": 61557,
  "name": "Oh Snap! The Photo Charades Game",
  "slug": "oh-snap-the-photo-charades-game",
  "year": null,
  "banner_url": "",
  "icon_url": "",
  "coverart": "https://lutris.net/media/igdb/cover_big/v99kyuy26s7lj5tqtshq.jpg",
  "platforms": [],
  "provider_games": [
    {
      "name": "Oh Snap! The Photo Charades Game",
      "slug": "oh-snap-the-photo-charades-game",
      "service": "igdb"
    }
  ],
  "aliases": [],
  "shaders": [],
  "discord_id": "",
  "change_for": null
}