{
  "id": 170659,
  "name": "Tauriel Teaches Typing",
  "slug": "tauriel-teaches-typing",
  "year": null,
  "banner_url": "",
  "icon_url": "",
  "coverart": null,
  "platforms": [],
  "provider_games": [
    {
      "name": "Tauriel Teaches Typing",
      "slug": "tauriel-teaches-typing",
      "service": "igdb"
    }
  ],
  "aliases": [],
  "shaders": [],
  "discord_id": "",
  "change_for": null
}