{
  "id": 52388,
  "name": "MX 2002 Featuring Ricky Carmichael",
  "slug": "mx-2002-featuring-ricky-carmichael",
  "year": 2001,
  "banner_url": "",
  "icon_url": "",
  "coverart": "https://lutris.net/media/igdb/cover_big/yjpkofui356rvgqoiwuu.jpg",
  "platforms": [
    {
      "name": "Sony PlayStation 2"
    }
  ],
  "provider_games": [
    {
      "name": "MX 2002 Featuring Ricky Carmichael",
      "slug": "mx-2002-featuring-ricky-carmichael",
      "service": "igdb"
    }
  ],
  "aliases": [],
  "shaders": [],
  "discord_id": "",
  "change_for": null
}