{
  "id": 56578,
  "name": "Ski Resort Extreme",
  "slug": "ski-resort-extreme",
  "year": 2004,
  "banner_url": "",
  "icon_url": "",
  "coverart": "https://lutris.net/media/igdb/cover_big/dvc7yq8pkic3pcohdhdv.jpg",
  "platforms": [
    {
      "name": "Windows"
    }
  ],
  "provider_games": [
    {
      "name": "Ski Resort Extreme",
      "slug": "ski-resort-extreme",
      "service": "igdb"
    }
  ],
  "aliases": [],
  "shaders": [],
  "discord_id": "",
  "change_for": null
}