{
  "id": 74532,
  "name": "Alternative Sphere",
  "slug": "alternative-sphere",
  "year": null,
  "banner_url": "",
  "icon_url": "",
  "coverart": "https://lutris.net/media/igdb/cover_big/co7ex7.jpg",
  "platforms": [],
  "provider_games": [
    {
      "name": "Alternative Sphere",
      "slug": "alternative-sphere",
      "service": "igdb"
    }
  ],
  "aliases": [],
  "shaders": [],
  "discord_id": "",
  "change_for": null
}