{
  "id": 294444,
  "name": "LEGO® The Lord of the Rings™",
  "slug": "lego-the-lord-of-the-ringstm",
  "year": 2012,
  "banner_url": "",
  "icon_url": "",
  "coverart": null,
  "platforms": [],
  "provider_games": [
    {
      "name": "LEGO® The Lord of the Rings™",
      "slug": "2095741221",
      "service": "gog"
    }
  ],
  "aliases": [],
  "shaders": [],
  "discord_id": "",
  "change_for": null
}