{
  "id": 64405,
  "name": "Major Bummer Dude: Lassi Quest RON",
  "slug": "major-bummer-dude-lassi-quest-ron",
  "year": null,
  "banner_url": "",
  "icon_url": "",
  "coverart": null,
  "platforms": [],
  "provider_games": [
    {
      "name": "Major Bummer Dude: Lassi Quest RON",
      "slug": "major-bummer-dude-lassi-quest-ron",
      "service": "igdb"
    }
  ],
  "aliases": [],
  "shaders": [],
  "discord_id": "",
  "change_for": null
}