{
  "id": 67791,
  "name": "Mazzembly 1997",
  "slug": "mazzembly-1997",
  "year": null,
  "banner_url": "",
  "icon_url": "",
  "coverart": null,
  "platforms": [],
  "provider_games": [
    {
      "name": "Mazzembly 1997",
      "slug": "mazzembly-1997",
      "service": "igdb"
    }
  ],
  "aliases": [],
  "shaders": [],
  "discord_id": "",
  "change_for": null
}