{
  "id": 68663,
  "name": "Gundam Memories: Tatakai no Kioku",
  "slug": "gundam-memories-tatakai-no-kioku",
  "year": null,
  "banner_url": "",
  "icon_url": "",
  "coverart": "https://lutris.net/media/igdb/cover_big/co75sx.jpg",
  "platforms": [],
  "provider_games": [
    {
      "name": "Gundam Memories: Tatakai no Kioku",
      "slug": "gundam-memories-tatakai-no-kioku",
      "service": "igdb"
    }
  ],
  "aliases": [],
  "shaders": [],
  "discord_id": "",
  "change_for": null
}