{
  "id": 27849,
  "game_id": 42333,
  "game_slug": "flain-tao-force-cubes",
  "name": "Flain: Tao Force & Cubes",
  "year": 2020,
  "user": "vanstaveren",
  "runner": "steam",
  "slug": "flain-tao-force-cubes-steam",
  "version": "steam",
  "description": null,
  "notes": "",
  "credits": "",
  "created_at": "2021-05-13T19:18:36.329200Z",
  "updated_at": "2021-12-13T19:10:34.516912Z",
  "draft": false,
  "published": true,
  "published_by": null,
  "rating": "",
  "is_playable": null,
  "steamid": null,
  "gogid": null,
  "gogslug": "",
  "humbleid": "",
  "humblestoreid": "",
  "humblestoreid_real": "",
  "script": {
    "game": {
      "appid": 1316520
    }
  },
  "content": "game:\n  appid: 1316520\n",
  "discord_id": ""
}