{
  "id": 65881,
  "name": "Wrath of Earth",
  "slug": "wrath-of-earth",
  "year": null,
  "banner_url": "",
  "icon_url": "",
  "coverart": "https://lutris.net/media/igdb/cover_big/co4r6c.jpg",
  "platforms": [],
  "provider_games": [
    {
      "name": "Wrath of Earth",
      "slug": "wrath-of-earth",
      "service": "igdb"
    }
  ],
  "aliases": [],
  "shaders": [],
  "discord_id": "",
  "change_for": null
}