{
  "id": 187857,
  "name": "Temporality",
  "slug": "temporality",
  "year": null,
  "banner_url": "",
  "icon_url": "",
  "coverart": "https://lutris.net/media/igdb/cover_big/co42z7.jpg",
  "platforms": [],
  "provider_games": [
    {
      "name": "Temporality",
      "slug": "temporality",
      "service": "igdb"
    }
  ],
  "aliases": [],
  "shaders": [],
  "discord_id": "",
  "change_for": null
}