{
  "id": 219394,
  "name": "Gost of Time",
  "slug": "gost-of-time",
  "year": null,
  "banner_url": "",
  "icon_url": "",
  "coverart": "https://lutris.net/media/igdb/cover_big/co5dsm.jpg",
  "platforms": [],
  "provider_games": [
    {
      "name": "Gost of Time",
      "slug": "gost-of-time",
      "service": "igdb"
    }
  ],
  "aliases": [],
  "shaders": [],
  "discord_id": "",
  "change_for": null
}