{
  "id": 268986,
  "name": "Youra",
  "slug": "youra",
  "year": null,
  "banner_url": "",
  "icon_url": "",
  "coverart": "https://lutris.net/media/igdb/cover_big/co7j3w.jpg",
  "platforms": [],
  "provider_games": [
    {
      "name": "Youra",
      "slug": "youra",
      "service": "igdb"
    }
  ],
  "aliases": [],
  "shaders": [],
  "discord_id": "",
  "change_for": null
}