{
  "id": 1824,
  "name": "Halo 2",
  "slug": "halo-2",
  "year": 2004,
  "banner_url": "https://lutris.net/games/banner/halo-2.jpg",
  "icon_url": "https://lutris.net/games/icon/halo-2.png",
  "coverart": "https://lutris.net/media/igdb/cover_big/co1x77.jpg",
  "platforms": [
    {
      "name": "Windows"
    },
    {
      "name": "Xbox"
    },
    {
      "name": "Xbox 360"
    },
    {
      "name": "Xbox One"
    }
  ],
  "provider_games": [
    {
      "name": "Halo 2",
      "slug": "halo-2",
      "service": "igdb"
    }
  ],
  "aliases": [],
  "shaders": [],
  "discord_id": "",
  "change_for": null
}