{
  "id": 136818,
  "name": "Underwater Space",
  "slug": "underwater-space",
  "year": null,
  "banner_url": "",
  "icon_url": "",
  "coverart": "https://lutris.net/media/igdb/cover_big/co3prc.jpg",
  "platforms": [],
  "provider_games": [
    {
      "name": "Underwater Space",
      "slug": "underwater-space",
      "service": "igdb"
    }
  ],
  "aliases": [],
  "shaders": [],
  "discord_id": "",
  "change_for": null
}