{
  "id": 155678,
  "name": "Dungeon and Puzzles",
  "slug": "dungeon-and-puzzles",
  "year": 2021,
  "banner_url": "https://lutris.net/games/banner/dungeon-and-puzzles.jpg",
  "icon_url": "",
  "coverart": "https://lutris.net/media/igdb/cover_big/co2nvd.jpg",
  "platforms": [
    {
      "name": "Nintendo Switch"
    },
    {
      "name": "Windows"
    }
  ],
  "provider_games": [
    {
      "name": "Dungeon and Puzzles",
      "slug": "1229060",
      "service": "steam"
    },
    {
      "name": "Dungeon and Puzzles",
      "slug": "dungeon-and-puzzles",
      "service": "igdb"
    }
  ],
  "aliases": [],
  "shaders": [],
  "discord_id": "",
  "change_for": null
}