{
  "id": 137769,
  "name": "DRAGON BALL Z: KAKAROT - Ultimate Edition",
  "slug": "dragon-ball-z-kakarot-ultimate-edition",
  "year": 2020,
  "banner_url": "",
  "icon_url": "",
  "coverart": "https://lutris.net/media/igdb/cover_big/co2kqe.jpg",
  "platforms": [
    {
      "name": "Sony Playstation 4"
    },
    {
      "name": "Windows"
    },
    {
      "name": "Xbox One"
    }
  ],
  "provider_games": [
    {
      "name": "Dragon Ball Z: Kakarot - Ultimate Edition",
      "slug": "dragon-ball-z-kakarot-ultimate-edition",
      "service": "igdb"
    }
  ],
  "aliases": [],
  "shaders": [],
  "discord_id": "",
  "change_for": null
}