{
  "id": 106482,
  "name": "Robotan Wars",
  "slug": "robotan-wars",
  "year": null,
  "banner_url": "",
  "icon_url": "",
  "coverart": "https://lutris.net/media/igdb/cover_big/co2ub2.jpg",
  "platforms": [],
  "provider_games": [
    {
      "name": "Robotan Wars",
      "slug": "robotan-wars",
      "service": "igdb"
    }
  ],
  "aliases": [],
  "shaders": [],
  "discord_id": "",
  "change_for": null
}