{
  "id": 147842,
  "name": "Trumpy Wall",
  "slug": "trumpy-wall",
  "year": null,
  "banner_url": "",
  "icon_url": "",
  "coverart": null,
  "platforms": [],
  "provider_games": [
    {
      "name": "Trumpy Wall",
      "slug": "trumpy-wall",
      "service": "igdb"
    }
  ],
  "aliases": [],
  "shaders": [],
  "discord_id": "",
  "change_for": null
}