{
  "id": 34002,
  "name": "E-Jan Sakurasou",
  "slug": "e-jan-sakurasou",
  "year": 1999,
  "banner_url": "",
  "icon_url": "https://lutris.net/games/icon/e-jan-sakurasou.png",
  "coverart": null,
  "platforms": [
    {
      "name": "Arcade"
    }
  ],
  "provider_games": [
    {
      "name": "E-Jan Sakurasou",
      "slug": "ejsakura",
      "service": "mame"
    }
  ],
  "aliases": [],
  "shaders": [],
  "discord_id": "",
  "change_for": null
}