{
  "id": 303099,
  "name": "Dark Dawn: The Chronicles of a Doll",
  "slug": "dark-dawn-the-chronicles-of-a-doll",
  "year": 2025,
  "banner_url": "",
  "icon_url": "",
  "coverart": "https://lutris.net/media/igdb/cover_big/co9510.jpg",
  "platforms": [
    {
      "name": "Nintendo Switch"
    },
    {
      "name": "Sony Playstation 4"
    },
    {
      "name": "Windows"
    },
    {
      "name": "Xbox Series X|S"
    }
  ],
  "provider_games": [
    {
      "name": "Dark Dawn: The Chronicles of a Doll",
      "slug": "dark-dawn-the-chronicles-of-a-doll",
      "service": "igdb"
    }
  ],
  "aliases": [],
  "shaders": [],
  "discord_id": "",
  "change_for": null
}