{
  "id": 17310,
  "name": "Air Boarder 64",
  "slug": "air-boarder-64",
  "year": 1998,
  "banner_url": "https://lutris.net/games/banner/air-boarder-64.jpg",
  "icon_url": "",
  "coverart": "https://lutris.net/media/igdb/cover_big/co3uo3.jpg",
  "platforms": [
    {
      "name": "Nintendo 64"
    }
  ],
  "provider_games": [
    {
      "name": "Air Boarder 64",
      "slug": "air-boarder-64",
      "service": "igdb"
    }
  ],
  "aliases": [],
  "shaders": [],
  "discord_id": "",
  "change_for": null
}