{
  "id": 277565,
  "name": "Nephilim Uprising",
  "slug": "nephilim-uprising",
  "year": null,
  "banner_url": "",
  "icon_url": "",
  "coverart": "https://lutris.net/media/igdb/cover_big/co7w4n.jpg",
  "platforms": [],
  "provider_games": [
    {
      "name": "Nephilim Uprising",
      "slug": "nephilim-uprising",
      "service": "igdb"
    }
  ],
  "aliases": [],
  "shaders": [],
  "discord_id": "",
  "change_for": null
}