{
  "id": 259840,
  "name": "Past Memos",
  "slug": "past-memos",
  "year": null,
  "banner_url": "",
  "icon_url": "",
  "coverart": "https://lutris.net/media/igdb/cover_big/co747q.jpg",
  "platforms": [],
  "provider_games": [
    {
      "name": "Past Memos",
      "slug": "past-memos",
      "service": "igdb"
    }
  ],
  "aliases": [],
  "shaders": [],
  "discord_id": "",
  "change_for": null
}