{
  "id": 170997,
  "name": "Pictoglyph",
  "slug": "pictoglyph",
  "year": null,
  "banner_url": "",
  "icon_url": "",
  "coverart": "https://lutris.net/media/igdb/cover_big/co4753.jpg",
  "platforms": [],
  "provider_games": [
    {
      "name": "Pictoglyph",
      "slug": "pictoglyph",
      "service": "igdb"
    }
  ],
  "aliases": [],
  "shaders": [],
  "discord_id": "",
  "change_for": null
}