{
  "id": 125306,
  "name": "Two Escapes",
  "slug": "two-escapes",
  "year": 2017,
  "banner_url": "https://lutris.net/games/banner/two-escapes.jpg",
  "icon_url": "",
  "coverart": null,
  "platforms": [
    {
      "name": "Linux"
    },
    {
      "name": "Mac"
    },
    {
      "name": "Windows"
    }
  ],
  "provider_games": [
    {
      "name": "Two Escapes",
      "slug": "692610",
      "service": "steam"
    },
    {
      "name": "Two Escapes",
      "slug": "two-escapes",
      "service": "igdb"
    }
  ],
  "aliases": [],
  "shaders": [],
  "discord_id": "",
  "change_for": null
}