{
  "id": 224215,
  "name": "Deadlink",
  "slug": "deadlink",
  "year": 2022,
  "banner_url": "https://lutris.net/games/banner/deadlink.jpg",
  "icon_url": "",
  "coverart": "https://lutris.net/media/igdb/cover_big/co4uj4.jpg",
  "platforms": [
    {
      "name": "Windows"
    }
  ],
  "provider_games": [
    {
      "name": "Deadlink",
      "slug": "1676130",
      "service": "steam"
    },
    {
      "name": "Deadlink",
      "slug": "deadlink",
      "service": "igdb"
    }
  ],
  "aliases": [],
  "shaders": [],
  "discord_id": "",
  "change_for": null
}