{
  "id": 89205,
  "name": "Jigsaw Puzzles Halloween",
  "slug": "jigsaw-puzzles-halloween",
  "year": null,
  "banner_url": "",
  "icon_url": "",
  "coverart": null,
  "platforms": [],
  "provider_games": [
    {
      "name": "Jigsaw Puzzles Halloween",
      "slug": "jigsaw-puzzles-halloween",
      "service": "igdb"
    }
  ],
  "aliases": [],
  "shaders": [],
  "discord_id": "",
  "change_for": null
}