{
  "id": 282008,
  "name": "Manly Mines",
  "slug": "manly-mines",
  "year": null,
  "banner_url": "",
  "icon_url": "",
  "coverart": "https://lutris.net/media/igdb/cover_big/co82ky.jpg",
  "platforms": [],
  "provider_games": [
    {
      "name": "Manly Mines",
      "slug": "manly-mines",
      "service": "igdb"
    }
  ],
  "aliases": [],
  "shaders": [],
  "discord_id": "",
  "change_for": null
}