{
  "id": 157342,
  "name": "The Blizzard 30-Year Celebration Collection",
  "slug": "the-blizzard-30-year-celebration-collection",
  "year": 2021,
  "banner_url": "",
  "icon_url": "",
  "coverart": "https://lutris.net/media/igdb/cover_big/co3k2s.jpg",
  "platforms": [
    {
      "name": "Nintendo Switch"
    },
    {
      "name": "Xbox One"
    }
  ],
  "provider_games": [
    {
      "name": "The Blizzard 30-Year Celebration Collection",
      "slug": "the-blizzard-30-year-celebration-collection",
      "service": "igdb"
    }
  ],
  "aliases": [],
  "shaders": [],
  "discord_id": "",
  "change_for": null
}