{
  "id": 251568,
  "name": "Gyakuten Puzzle Irekaeru Gyakuten",
  "slug": "gyakuten-puzzle-irekaeru-gyakuten",
  "year": 2011,
  "banner_url": "",
  "icon_url": "",
  "coverart": "https://lutris.net/media/igdb/cover_big/co6qfm.jpg",
  "platforms": [
    {
      "name": "Legacy Cellphone"
    }
  ],
  "provider_games": [
    {
      "name": "Gyakuten Puzzle Irekaeru Gyakuten",
      "slug": "gyakuten-puzzle-irekaeru-gyakuten",
      "service": "igdb"
    }
  ],
  "aliases": [],
  "shaders": [],
  "discord_id": "",
  "change_for": null
}