{
  "id": 305199,
  "name": "Shinya Ichi-ji no Koukanshu",
  "slug": "shinya-ichi-ji-no-koukanshu",
  "year": 2025,
  "banner_url": "",
  "icon_url": "",
  "coverart": "https://lutris.net/media/igdb/cover_big/co9b8z.jpg",
  "platforms": [
    {
      "name": "Windows"
    }
  ],
  "provider_games": [
    {
      "name": "Shinya Ichi-ji no Koukanshu",
      "slug": "shinya-ichi-ji-no-koukanshu",
      "service": "igdb"
    }
  ],
  "aliases": [],
  "shaders": [],
  "discord_id": "",
  "change_for": null
}