{
  "id": 10468,
  "name": "Legends of Pixelia",
  "slug": "legends-of-pixelia",
  "year": 2015,
  "banner_url": "https://lutris.net/games/banner/legends-of-pixelia.jpg",
  "icon_url": "https://lutris.net/games/icon/legends-of-pixelia.png",
  "coverart": "https://lutris.net/media/igdb/cover_big/co458f.jpg",
  "platforms": [
    {
      "name": "Linux"
    },
    {
      "name": "Mac"
    },
    {
      "name": "Windows"
    }
  ],
  "provider_games": [
    {
      "name": "Legends of Pixelia",
      "slug": "371530",
      "service": "steam"
    },
    {
      "name": "Legends of Pixelia",
      "slug": "legends-of-pixelia",
      "service": "igdb"
    }
  ],
  "aliases": [],
  "shaders": [],
  "discord_id": "",
  "change_for": null
}