{
  "id": 127196,
  "name": "Arthur and the Invisibles",
  "slug": "arthur-and-the-invisibles",
  "year": 2007,
  "banner_url": "",
  "icon_url": "",
  "coverart": "https://lutris.net/media/igdb/cover_big/co2di0.jpg",
  "platforms": [
    {
      "name": "Sony PlayStation 2"
    },
    {
      "name": "Sony PSP"
    },
    {
      "name": "Windows"
    }
  ],
  "provider_games": [
    {
      "name": "Arthur and the Invisibles",
      "slug": "arthur-and-the-invisibles",
      "service": "igdb"
    }
  ],
  "aliases": [],
  "shaders": [],
  "discord_id": "",
  "change_for": null
}