{
  "id": 114365,
  "name": "Woodo",
  "slug": "woodo",
  "year": null,
  "banner_url": "",
  "icon_url": "",
  "coverart": "https://lutris.net/media/igdb/cover_big/co39hf.jpg",
  "platforms": [],
  "provider_games": [
    {
      "name": "Woodo",
      "slug": "woodo",
      "service": "igdb"
    }
  ],
  "aliases": [],
  "shaders": [],
  "discord_id": "",
  "change_for": null
}