{
  "id": 257565,
  "name": "Fall of the Son",
  "slug": "fall-of-the-son",
  "year": null,
  "banner_url": "",
  "icon_url": "",
  "coverart": "https://lutris.net/media/igdb/cover_big/co70dg.jpg",
  "platforms": [],
  "provider_games": [
    {
      "name": "Fall of the Son",
      "slug": "fall-of-the-son",
      "service": "igdb"
    }
  ],
  "aliases": [],
  "shaders": [],
  "discord_id": "",
  "change_for": null
}