{
  "id": 30210,
  "name": "Boom Island",
  "slug": "boom-island",
  "year": 2017,
  "banner_url": "https://lutris.net/games/banner/boom-island.jpg",
  "icon_url": "https://lutris.net/games/icon/boom-island.png",
  "coverart": "https://lutris.net/media/igdb/cover_big/co3wt5.jpg",
  "platforms": [
    {
      "name": "Windows"
    }
  ],
  "provider_games": [
    {
      "name": "Boom Island",
      "slug": "717820",
      "service": "steam"
    },
    {
      "name": "Boom Island",
      "slug": "boom-island",
      "service": "igdb"
    }
  ],
  "aliases": [],
  "shaders": [],
  "discord_id": "",
  "change_for": null
}