{
  "id": 156837,
  "name": "Game de Seishun",
  "slug": "game-de-seishun",
  "year": null,
  "banner_url": "",
  "icon_url": "",
  "coverart": "https://lutris.net/media/igdb/cover_big/co48ly.jpg",
  "platforms": [],
  "provider_games": [
    {
      "name": "Game de Seishun",
      "slug": "game-de-seishun",
      "service": "igdb"
    }
  ],
  "aliases": [],
  "shaders": [],
  "discord_id": "",
  "change_for": null
}