{
  "id": 138544,
  "name": "Mikagami Sumika No Seifuku Katsudou",
  "slug": "mikagami-sumika-no-seifuku-katsudou",
  "year": 2018,
  "banner_url": "",
  "icon_url": "",
  "coverart": "https://lutris.net/media/igdb/cover_big/co30bb.jpg",
  "platforms": [
    {
      "name": "Sony Playstation 4"
    }
  ],
  "provider_games": [
    {
      "name": "Mikagami Sumika No Seifuku Katsudou",
      "slug": "mikagami-sumika-no-seifuku-katsudou",
      "service": "igdb"
    }
  ],
  "aliases": [],
  "shaders": [],
  "discord_id": "",
  "change_for": null
}