{
  "id": 108983,
  "name": "Cartoon Wars 2: Heroes",
  "slug": "cartoon-wars-2-heroes",
  "year": 2010,
  "banner_url": "",
  "icon_url": "",
  "coverart": "https://lutris.net/media/igdb/cover_big/co2xi5.jpg",
  "platforms": [],
  "provider_games": [
    {
      "name": "Cartoon Wars 2: Heroes",
      "slug": "cartoon-wars-2-heroes",
      "service": "igdb"
    }
  ],
  "aliases": [],
  "shaders": [],
  "discord_id": "",
  "change_for": null
}