{
  "id": 18633,
  "name": "Arena",
  "slug": "arena",
  "year": 1986,
  "banner_url": "https://lutris.net/games/banner/arena.jpg",
  "icon_url": "https://lutris.net/games/icon/arena.png",
  "coverart": "https://lutris.net/media/igdb/cover_big/ndlwligqlpsqol3vnoow.jpg",
  "platforms": [
    {
      "name": "Amiga"
    },
    {
      "name": "Atari ST"
    }
  ],
  "provider_games": [
    {
      "name": "Arena",
      "slug": "655200",
      "service": "steam"
    },
    {
      "name": "Arena",
      "slug": "arena",
      "service": "igdb"
    }
  ],
  "aliases": [],
  "shaders": [],
  "discord_id": "",
  "change_for": null
}