{
  "id": 52077,
  "name": "Enigma Force",
  "slug": "enigma-force",
  "year": 1985,
  "banner_url": "",
  "icon_url": "",
  "coverart": "https://lutris.net/media/igdb/cover_big/htrl7taxxmjml6rugaak.jpg",
  "platforms": [
    {
      "name": "Commodore C64/128"
    },
    {
      "name": "ZX Spectrum"
    }
  ],
  "provider_games": [
    {
      "name": "Enigma Force",
      "slug": "enigma-force",
      "service": "igdb"
    }
  ],
  "aliases": [],
  "shaders": [],
  "discord_id": "",
  "change_for": null
}