{
  "id": 262535,
  "name": "Edge of Survival",
  "slug": "edge-of-survival",
  "year": null,
  "banner_url": "",
  "icon_url": "",
  "coverart": "https://lutris.net/media/igdb/cover_big/co78sy.jpg",
  "platforms": [],
  "provider_games": [
    {
      "name": "Edge of Survival",
      "slug": "edge-of-survival",
      "service": "igdb"
    }
  ],
  "aliases": [],
  "shaders": [],
  "discord_id": "",
  "change_for": null
}