{
  "id": 224262,
  "name": "Bouhou Koumakyou 2",
  "slug": "bouhou-koumakyou-2",
  "year": 2014,
  "banner_url": "",
  "icon_url": "",
  "coverart": "https://lutris.net/media/igdb/cover_big/co4u96.jpg",
  "platforms": [
    {
      "name": "Windows"
    }
  ],
  "provider_games": [
    {
      "name": "Bouhou Koumakyou 2",
      "slug": "bouhou-koumakyou-2",
      "service": "igdb"
    }
  ],
  "aliases": [],
  "shaders": [],
  "discord_id": "",
  "change_for": null
}