{
  "id": 227833,
  "name": "Art Girl 2",
  "slug": "art-girl-2",
  "year": null,
  "banner_url": "",
  "icon_url": "",
  "coverart": "https://lutris.net/media/igdb/cover_big/co584j.jpg",
  "platforms": [],
  "provider_games": [
    {
      "name": "Art Girl 2",
      "slug": "art-girl-2",
      "service": "igdb"
    }
  ],
  "aliases": [],
  "shaders": [],
  "discord_id": "",
  "change_for": null
}