{
  "id": 23376,
  "game_id": 6529,
  "game_slug": "evolution",
  "name": "Evolution",
  "year": 2016,
  "user": "vanstaveren",
  "runner": "steam",
  "slug": "evolution-steam",
  "version": "Steam",
  "description": null,
  "notes": "",
  "credits": "",
  "created_at": "2020-09-15T19:12:39.147847Z",
  "updated_at": "2021-12-13T19:10:37.845723Z",
  "draft": false,
  "published": true,
  "published_by": null,
  "rating": "",
  "is_playable": null,
  "steamid": 391820,
  "gogid": null,
  "gogslug": "",
  "humbleid": "",
  "humblestoreid": "",
  "humblestoreid_real": "",
  "script": {
    "game": {
      "appid": 391820
    }
  },
  "content": "game:\n  appid: 391820\n",
  "discord_id": ""
}