{
  "id": 6577,
  "name": "Army Men: Air Attack",
  "slug": "army-men-air-attack",
  "year": 1999,
  "banner_url": "https://lutris.net/games/banner/army-men-air-attack.jpg",
  "icon_url": "",
  "coverart": "https://lutris.net/media/igdb/cover_big/co3bc3.jpg",
  "platforms": [
    {
      "name": "Nintendo 64"
    },
    {
      "name": "Sony PlayStation"
    },
    {
      "name": "Windows"
    }
  ],
  "provider_games": [
    {
      "name": "Army Men: Air Attack",
      "slug": "army-men-air-attack",
      "service": "igdb"
    }
  ],
  "aliases": [],
  "shaders": [],
  "discord_id": "",
  "change_for": null
}