{
  "id": 226563,
  "name": "Shugo Chara! Spirit! Chara Formation-Rhythm",
  "slug": "shugo-chara-spirit-chara-formation-rhythm",
  "year": 2009,
  "banner_url": "",
  "icon_url": "",
  "coverart": null,
  "platforms": [
    {
      "name": "Nintendo DS"
    }
  ],
  "provider_games": [
    {
      "name": "Shugo Chara! Spirit! Chara Formation-Rhythm",
      "slug": "shugo-chara-spirit-chara-formation-rhythm",
      "service": "igdb"
    }
  ],
  "aliases": [],
  "shaders": [],
  "discord_id": "",
  "change_for": null
}