{
  "id": 103629,
  "name": "Caves (Roguelike)",
  "slug": "caves-roguelike",
  "year": 2015,
  "banner_url": "",
  "icon_url": "",
  "coverart": "https://lutris.net/media/igdb/cover_big/co2mvx.jpg",
  "platforms": [
    {
      "name": "Android"
    },
    {
      "name": "Legacy Cellphone"
    }
  ],
  "provider_games": [
    {
      "name": "Caves (Roguelike)",
      "slug": "caves-roguelike",
      "service": "igdb"
    }
  ],
  "aliases": [],
  "shaders": [],
  "discord_id": "",
  "change_for": null
}