{
  "id": 291518,
  "name": "Brink of War",
  "slug": "brink-of-war",
  "year": null,
  "banner_url": "",
  "icon_url": "",
  "coverart": "https://lutris.net/media/igdb/cover_big/co8kif.jpg",
  "platforms": [],
  "provider_games": [
    {
      "name": "Brink of War",
      "slug": "brink-of-war",
      "service": "igdb"
    }
  ],
  "aliases": [],
  "shaders": [],
  "discord_id": "",
  "change_for": null
}