{
  "id": 117932,
  "name": "0D Beat Drop",
  "slug": "0d-beat-drop",
  "year": 2009,
  "banner_url": "",
  "icon_url": "",
  "coverart": "https://lutris.net/media/igdb/cover_big/tgixvlkngjp3fmwxnnqd.jpg",
  "platforms": [
    {
      "name": "Xbox 360"
    }
  ],
  "provider_games": [
    {
      "name": "0D Beat Drop",
      "slug": "0d-beat-drop",
      "service": "igdb"
    }
  ],
  "aliases": [],
  "shaders": [],
  "discord_id": "",
  "change_for": null
}