{
  "id": 12798,
  "name": "Button Tales",
  "slug": "button-tales",
  "year": 2016,
  "banner_url": "https://lutris.net/games/banner/button-tales.jpg",
  "icon_url": "https://lutris.net/games/icon/button-tales.png",
  "coverart": "https://lutris.net/media/igdb/cover_big/co3moe.jpg",
  "platforms": [
    {
      "name": "Windows"
    }
  ],
  "provider_games": [
    {
      "name": "Button Tales",
      "slug": "545590",
      "service": "steam"
    },
    {
      "name": "Button Tales",
      "slug": "button-tales",
      "service": "igdb"
    }
  ],
  "aliases": [],
  "shaders": [],
  "discord_id": "",
  "change_for": null
}