{
  "id": 301748,
  "name": "Wizards in Shorts",
  "slug": "wizards-in-shorts",
  "year": null,
  "banner_url": "",
  "icon_url": "",
  "coverart": "https://lutris.net/media/igdb/cover_big/co935h.jpg",
  "platforms": [],
  "provider_games": [
    {
      "name": "Wizards in Shorts",
      "slug": "wizards-in-shorts",
      "service": "igdb"
    }
  ],
  "aliases": [],
  "shaders": [],
  "discord_id": "",
  "change_for": null
}