{
  "id": 196077,
  "name": "Conquer Online",
  "slug": "conquer-online--1",
  "year": null,
  "banner_url": "",
  "icon_url": "",
  "coverart": null,
  "platforms": [],
  "provider_games": [
    {
      "name": "Conquer Online",
      "slug": "conquer-online--1",
      "service": "igdb"
    }
  ],
  "aliases": [],
  "shaders": [],
  "discord_id": "",
  "change_for": null
}