{
  "id": 14918,
  "name": "Danganronpa Another Episode: Ultra Despair Girls",
  "slug": "danganronpa-another-episode-ultra-despair-girls",
  "year": 2015,
  "banner_url": "https://lutris.net/games/banner/danganronpa-another-episode-ultra-despair-girls.jpg",
  "icon_url": "https://lutris.net/games/icon/danganronpa-another-episode-ultra-despair-girls.png",
  "coverart": "https://lutris.net/media/igdb/cover_big/co1n83.jpg",
  "platforms": [
    {
      "name": "PlayStation Vita"
    },
    {
      "name": "Sony Playstation 4"
    },
    {
      "name": "Windows"
    }
  ],
  "provider_games": [
    {
      "name": "Danganronpa Another Episode: Ultra Despair Girls",
      "slug": "555950",
      "service": "steam"
    },
    {
      "name": "Danganronpa Another Episode: Ultra Despair Girls",
      "slug": "danganronpa-another-episode-ultra-despair-girls",
      "service": "igdb"
    }
  ],
  "aliases": [],
  "shaders": [],
  "discord_id": "",
  "change_for": null
}