{
  "id": 204930,
  "name": "Yars: Recharged",
  "slug": "yars-recharged",
  "year": 2022,
  "banner_url": "https://lutris.net/games/banner/yars-recharged.jpg",
  "icon_url": "https://lutris.net/games/icon/yars-recharged.png",
  "coverart": "https://lutris.net/media/igdb/cover_big/co59jy.jpg",
  "platforms": [
    {
      "name": "Google Stadia"
    },
    {
      "name": "Nintendo Switch"
    },
    {
      "name": "Sony Playstation 4"
    },
    {
      "name": "Sony PlayStation 5"
    },
    {
      "name": "Windows"
    },
    {
      "name": "Xbox One"
    },
    {
      "name": "Xbox Series X|S"
    }
  ],
  "provider_games": [
    {
      "name": "Yars: Recharged",
      "slug": "yars-recharged",
      "service": "igdb"
    },
    {
      "name": "Yars: Recharged",
      "slug": "2019990",
      "service": "steam"
    }
  ],
  "aliases": [],
  "shaders": [],
  "discord_id": "",
  "change_for": null
}