{
  "id": 89380,
  "name": "I Spy With Lola: A Fun Word Game for Kids!",
  "slug": "i-spy-with-lola-a-fun-word-game-for-kids",
  "year": null,
  "banner_url": "",
  "icon_url": "",
  "coverart": null,
  "platforms": [],
  "provider_games": [
    {
      "name": "I Spy With Lola: A Fun Word Game for Kids!",
      "slug": "i-spy-with-lola-a-fun-word-game-for-kids",
      "service": "igdb"
    }
  ],
  "aliases": [],
  "shaders": [],
  "discord_id": "",
  "change_for": null
}