{
  "id": 251763,
  "name": "Mage Mayhem",
  "slug": "mage-mayhem",
  "year": null,
  "banner_url": "",
  "icon_url": "",
  "coverart": "https://lutris.net/media/igdb/cover_big/co6q8n.jpg",
  "platforms": [],
  "provider_games": [
    {
      "name": "Mage Mayhem",
      "slug": "mage-mayhem",
      "service": "igdb"
    }
  ],
  "aliases": [],
  "shaders": [],
  "discord_id": "",
  "change_for": null
}