{
  "id": 216089,
  "name": "ZodiacChild",
  "slug": "zodiacchild",
  "year": null,
  "banner_url": "",
  "icon_url": "",
  "coverart": "https://lutris.net/media/igdb/cover_big/co58eq.jpg",
  "platforms": [],
  "provider_games": [
    {
      "name": "ZodiacChild",
      "slug": "zodiacchild",
      "service": "igdb"
    }
  ],
  "aliases": [],
  "shaders": [],
  "discord_id": "",
  "change_for": null
}