{
  "id": 205349,
  "name": "Milk Bottle And Monster Girl 2",
  "slug": "milk-bottle-and-monster-girl-2",
  "year": 2022,
  "banner_url": "https://lutris.net/games/banner/milk-bottle-and-monster-girl-2.jpg",
  "icon_url": "https://lutris.net/games/icon/milk-bottle-and-monster-girl-2.png",
  "coverart": "https://lutris.net/media/igdb/cover_big/co5lcx.jpg",
  "platforms": [
    {
      "name": "Windows"
    }
  ],
  "provider_games": [
    {
      "name": "Milk Bottle And Monster Girl 2",
      "slug": "1917560",
      "service": "steam"
    },
    {
      "name": "Milk Bottle and Monster Girl 2",
      "slug": "milk-bottle-and-monster-girl-2",
      "service": "igdb"
    }
  ],
  "aliases": [],
  "shaders": [],
  "discord_id": "",
  "change_for": null
}