{
  "id": 21086,
  "name": "ActRaiser 2",
  "slug": "actraiser-2",
  "year": 1993,
  "banner_url": "https://lutris.net/games/banner/actraiser-2.jpg",
  "icon_url": "",
  "coverart": "https://lutris.net/media/igdb/cover_big/co287p.jpg",
  "platforms": [
    {
      "name": "Super Famicom"
    },
    {
      "name": "Super Nintendo"
    }
  ],
  "provider_games": [
    {
      "name": "ActRaiser 2",
      "slug": "actraiser-2",
      "service": "igdb"
    }
  ],
  "aliases": [],
  "shaders": [],
  "discord_id": "",
  "change_for": null
}