{
  "id": 282973,
  "name": "AquaBlitz: Alien Racer",
  "slug": "aquablitz-alien-racer",
  "year": null,
  "banner_url": "",
  "icon_url": "",
  "coverart": "https://lutris.net/media/igdb/cover_big/co841l.jpg",
  "platforms": [],
  "provider_games": [
    {
      "name": "AquaBlitz: Alien Racer",
      "slug": "aquablitz-alien-racer",
      "service": "igdb"
    }
  ],
  "aliases": [],
  "shaders": [],
  "discord_id": "",
  "change_for": null
}