{
  "id": 301119,
  "name": "Lunch-O-Matic",
  "slug": "lunch-o-matic",
  "year": 2007,
  "banner_url": "",
  "icon_url": "",
  "coverart": null,
  "platforms": [
    {
      "name": "Browser"
    }
  ],
  "provider_games": [
    {
      "name": "Lunch-O-Matic",
      "slug": "lunch-o-matic",
      "service": "igdb"
    }
  ],
  "aliases": [],
  "shaders": [],
  "discord_id": "",
  "change_for": null
}