{
  "id": 104535,
  "name": "Last Rebellion",
  "slug": "last-rebellion",
  "year": 2010,
  "banner_url": "",
  "icon_url": "",
  "coverart": "https://lutris.net/media/igdb/cover_big/co2qja.jpg",
  "platforms": [
    {
      "name": "Sony Playstation 3"
    }
  ],
  "provider_games": [
    {
      "name": "Last Rebellion",
      "slug": "last-rebellion",
      "service": "igdb"
    }
  ],
  "aliases": [],
  "shaders": [],
  "discord_id": "",
  "change_for": null
}