{
  "id": 196476,
  "name": "CatMxn: Chapter 1",
  "slug": "catmxn-chapter-1",
  "year": null,
  "banner_url": "",
  "icon_url": "",
  "coverart": "https://lutris.net/media/igdb/cover_big/co4n47.jpg",
  "platforms": [],
  "provider_games": [
    {
      "name": "CatMxn: Chapter 1",
      "slug": "catmxn-chapter-1",
      "service": "igdb"
    }
  ],
  "aliases": [],
  "shaders": [],
  "discord_id": "",
  "change_for": null
}