{
  "id": 58493,
  "name": "Castle Hassle",
  "slug": "castle-hassle",
  "year": 1983,
  "banner_url": "",
  "icon_url": "",
  "coverart": "https://lutris.net/media/igdb/cover_big/r9a11nwnwt6muhpwneys.jpg",
  "platforms": [
    {
      "name": "Atari 8-bit"
    }
  ],
  "provider_games": [
    {
      "name": "Castle Hassle",
      "slug": "castle-hassle",
      "service": "igdb"
    }
  ],
  "aliases": [],
  "shaders": [],
  "discord_id": "",
  "change_for": null
}