{
  "id": 224508,
  "name": "AI Dungeon",
  "slug": "ai-dungeon--1",
  "year": 2019,
  "banner_url": "",
  "icon_url": "",
  "coverart": "https://lutris.net/media/igdb/cover_big/co4x76.jpg",
  "platforms": [
    {
      "name": "Android"
    },
    {
      "name": "Browser"
    },
    {
      "name": "Windows"
    }
  ],
  "provider_games": [
    {
      "name": "AI Dungeon",
      "slug": "ai-dungeon--1",
      "service": "igdb"
    }
  ],
  "aliases": [],
  "shaders": [],
  "discord_id": "",
  "change_for": null
}