{
  "id": 946,
  "game_id": 2937,
  "game_slug": "cave-express",
  "name": "CaveExpress",
  "year": 2013,
  "user": "strider",
  "runner": "linux",
  "slug": "caveexpress-linux",
  "version": "linux",
  "description": "",
  "notes": "",
  "credits": "",
  "created_at": "2014-10-26T13:01:10.595000Z",
  "updated_at": "2024-04-03T05:34:40.536184Z",
  "draft": false,
  "published": true,
  "published_by": null,
  "rating": "",
  "is_playable": null,
  "steamid": null,
  "gogid": null,
  "gogslug": "",
  "humbleid": "",
  "humblestoreid": "",
  "humblestoreid_real": "",
  "script": {
    "files": [
      {
        "cave-express-archive": "https://lutris.net/files/games/cave-express/cave-express.tar.gz"
      }
    ],
    "game": {
      "exe": "caveexpress"
    },
    "installer": [
      {
        "extract": {
          "file": "cave-express-archive"
        }
      }
    ]
  },
  "content": "files:\n- cave-express-archive: https://lutris.net/files/games/cave-express/cave-express.tar.gz\ngame:\n  exe: caveexpress\ninstaller:\n- extract:\n    file: cave-express-archive\n",
  "discord_id": ""
}