{
  "id": 77057,
  "name": "Heavy Metal: Geomatrix",
  "slug": "heavy-metal-geomatrix",
  "year": 2001,
  "banner_url": "",
  "icon_url": "",
  "coverart": "https://lutris.net/media/igdb/cover_big/bulbdotdpgl1smr6zkpu.jpg",
  "platforms": [
    {
      "name": "Dreamcast"
    }
  ],
  "provider_games": [
    {
      "name": "Heavy Metal: Geomatrix",
      "slug": "heavy-metal-geomatrix",
      "service": "igdb"
    }
  ],
  "aliases": [],
  "shaders": [],
  "discord_id": "",
  "change_for": null
}