{
  "id": 169035,
  "name": "Lucadian Chronicles",
  "slug": "lucadian-chronicles",
  "year": 2014,
  "banner_url": "https://lutris.net/games/banner/lucadian-chronicles.jpg",
  "icon_url": "",
  "coverart": "https://lutris.net/media/igdb/cover_big/co45hy.jpg",
  "platforms": [
    {
      "name": "Mac"
    },
    {
      "name": "Nintendo Wii U"
    },
    {
      "name": "Windows"
    }
  ],
  "provider_games": [
    {
      "name": "Lucadian Chronicles",
      "slug": "392620",
      "service": "steam"
    },
    {
      "name": "Lucadian Chronicles",
      "slug": "lucadian-chronicles",
      "service": "igdb"
    }
  ],
  "aliases": [],
  "shaders": [],
  "discord_id": "",
  "change_for": null
}