{
  "id": 13377,
  "name": "Trapped With the Dolls VR",
  "slug": "trapped-with-the-dolls-vr",
  "year": 2017,
  "banner_url": "https://lutris.net/games/banner/trapped-with-the-dolls-vr.jpg",
  "icon_url": "https://lutris.net/games/icon/trapped-with-the-dolls-vr.png",
  "coverart": null,
  "platforms": [
    {
      "name": "Windows"
    }
  ],
  "provider_games": [
    {
      "name": "Trapped With the Dolls VR",
      "slug": "624920",
      "service": "steam"
    },
    {
      "name": "Trapped With the Dolls VR",
      "slug": "trapped-with-the-dolls-vr",
      "service": "igdb"
    }
  ],
  "aliases": [],
  "shaders": [],
  "discord_id": "",
  "change_for": null
}