{
  "id": 2561,
  "name": "Konung 2",
  "slug": "konung-2",
  "year": null,
  "banner_url": "https://lutris.net/games/banner/konung-2.jpg",
  "icon_url": "https://lutris.net/games/icon/konung-2.png",
  "coverart": null,
  "platforms": [],
  "provider_games": [
    {
      "name": "Konung 2",
      "slug": "289360",
      "service": "steam"
    }
  ],
  "aliases": [],
  "shaders": [],
  "discord_id": "",
  "change_for": null
}