{
  "id": 27247,
  "name": "Mega Man ZX",
  "slug": "mega-man-zx",
  "year": 2006,
  "banner_url": "https://lutris.net/games/banner/mega-man-zx.jpg",
  "icon_url": "",
  "coverart": "https://lutris.net/media/igdb/cover_big/co204b.jpg",
  "platforms": [
    {
      "name": "Nintendo DS"
    }
  ],
  "provider_games": [
    {
      "name": "Mega Man ZX",
      "slug": "mega-man-zx",
      "service": "igdb"
    }
  ],
  "aliases": [],
  "shaders": [],
  "discord_id": "",
  "change_for": null
}