{
  "id": 166972,
  "name": "Innocent Forest 2: The Bed in the Sky",
  "slug": "innocent-forest-2-the-bed-in-the-sky",
  "year": 2018,
  "banner_url": "https://lutris.net/games/banner/innocent-forest-2-the-bed-in-the-sky.jpg",
  "icon_url": "",
  "coverart": "https://lutris.net/media/igdb/cover_big/co43lx.jpg",
  "platforms": [
    {
      "name": "Windows"
    }
  ],
  "provider_games": [
    {
      "name": "Innocent Forest 2: The Bed in the Sky",
      "slug": "929180",
      "service": "steam"
    },
    {
      "name": "Innocent Forest 2: The Bed in the Sky",
      "slug": "innocent-forest-2-the-bed-in-the-sky",
      "service": "igdb"
    }
  ],
  "aliases": [],
  "shaders": [],
  "discord_id": "",
  "change_for": null
}