{
  "id": 259142,
  "name": "Battle of Rebels",
  "slug": "battle-of-rebels--1",
  "year": null,
  "banner_url": "",
  "icon_url": "",
  "coverart": "https://lutris.net/media/igdb/cover_big/co73c8.jpg",
  "platforms": [],
  "provider_games": [
    {
      "name": "Battle of Rebels",
      "slug": "battle-of-rebels--1",
      "service": "igdb"
    }
  ],
  "aliases": [],
  "shaders": [],
  "discord_id": "",
  "change_for": null
}