{
  "id": 59953,
  "name": "Blockman Forever",
  "slug": "blockman-forever",
  "year": null,
  "banner_url": "",
  "icon_url": "",
  "coverart": "https://lutris.net/media/igdb/cover_big/xe1amz8sg5db4loluvj7.jpg",
  "platforms": [],
  "provider_games": [
    {
      "name": "Blockman Forever",
      "slug": "blockman-forever",
      "service": "igdb"
    }
  ],
  "aliases": [],
  "shaders": [],
  "discord_id": "",
  "change_for": null
}