{
  "id": 39458,
  "name": "Extreme Mining",
  "slug": "extreme-mining",
  "year": 2019,
  "banner_url": "https://lutris.net/games/banner/extreme-mining.jpg",
  "icon_url": "",
  "coverart": "https://lutris.net/media/igdb/cover_big/co2b7x.jpg",
  "platforms": [
    {
      "name": "Windows"
    }
  ],
  "provider_games": [
    {
      "name": "Extreme Mining",
      "slug": "extreme-mining",
      "service": "igdb"
    }
  ],
  "aliases": [],
  "shaders": [],
  "discord_id": "",
  "change_for": null
}