{
  "id": 43586,
  "name": "Mishap 2: An Intentional Haunting",
  "slug": "mishap-2-an-intentional-haunting",
  "year": 2011,
  "banner_url": "https://lutris.net/games/banner/mishap-2-an-intentional-haunting.jpg",
  "icon_url": "https://lutris.net/games/icon/mishap-2-an-intentional-haunting.png",
  "coverart": "https://lutris.net/media/igdb/cover_big/ajcv3bxhx2mzshwfysr6.jpg",
  "platforms": [
    {
      "name": "Mac"
    },
    {
      "name": "Windows"
    }
  ],
  "provider_games": [
    {
      "name": "Mishap 2: An Intentional Haunting",
      "slug": "47570",
      "service": "steam"
    },
    {
      "name": "Mishap 2: An Intentional Haunting",
      "slug": "mishap-2-an-intentional-haunting",
      "service": "igdb"
    }
  ],
  "aliases": [],
  "shaders": [],
  "discord_id": "",
  "change_for": null
}