{
  "id": 81352,
  "name": "Ninja Throw HD",
  "slug": "ninja-throw-hd",
  "year": null,
  "banner_url": "",
  "icon_url": "",
  "coverart": null,
  "platforms": [],
  "provider_games": [
    {
      "name": "Ninja Throw HD",
      "slug": "ninja-throw-hd",
      "service": "igdb"
    }
  ],
  "aliases": [],
  "shaders": [],
  "discord_id": "",
  "change_for": null
}