{
  "id": 159243,
  "name": "The Last Bounty Hunter",
  "slug": "the-last-bounty-hunter",
  "year": 1994,
  "banner_url": "",
  "icon_url": "",
  "coverart": "https://lutris.net/media/igdb/cover_big/co3ynr.jpg",
  "platforms": [
    {
      "name": "3DO"
    },
    {
      "name": "Nintendo Wii"
    },
    {
      "name": "Sony Playstation 3"
    }
  ],
  "provider_games": [
    {
      "name": "The Last Bounty Hunter",
      "slug": "the-last-bounty-hunter",
      "service": "igdb"
    }
  ],
  "aliases": [],
  "shaders": [],
  "discord_id": "",
  "change_for": null
}