{
  "id": 42301,
  "name": "Project Morpheus: Prologue",
  "slug": "project-morpheus-prologue",
  "year": null,
  "banner_url": "https://lutris.net/games/banner/project-morpheus-prologue.jpg",
  "icon_url": "https://lutris.net/games/icon/project-morpheus-prologue.png",
  "coverart": null,
  "platforms": [],
  "provider_games": [
    {
      "name": "Project Morpheus: Prologue",
      "slug": "1414430",
      "service": "steam"
    }
  ],
  "aliases": [],
  "shaders": [],
  "discord_id": "",
  "change_for": null
}