{
  "id": 286315,
  "name": "Captain America: Brave New World",
  "slug": "captain-america-brave-new-world",
  "year": 2024,
  "banner_url": "",
  "icon_url": "",
  "coverart": "https://lutris.net/media/igdb/cover_big/co87x8.jpg",
  "platforms": [
    {
      "name": "Browser"
    }
  ],
  "provider_games": [
    {
      "name": "Captain America: Brave New World",
      "slug": "captain-america-brave-new-world",
      "service": "igdb"
    }
  ],
  "aliases": [],
  "shaders": [],
  "discord_id": "",
  "change_for": null
}