{
  "id": 221512,
  "name": "Lewis Carroll's Alice",
  "slug": "lewis-carrolls-alice",
  "year": null,
  "banner_url": "",
  "icon_url": "",
  "coverart": "https://lutris.net/media/igdb/cover_big/co5ivx.jpg",
  "platforms": [],
  "provider_games": [
    {
      "name": "Lewis Carroll's Alice",
      "slug": "lewis-carrolls-alice",
      "service": "igdb"
    }
  ],
  "aliases": [],
  "shaders": [],
  "discord_id": "",
  "change_for": null
}