{
  "id": 82937,
  "name": "Uncharted Waters Online: Episode Atlantis",
  "slug": "uncharted-waters-online-episode-atlantis",
  "year": 2014,
  "banner_url": "",
  "icon_url": "",
  "coverart": null,
  "platforms": [
    {
      "name": "Windows"
    }
  ],
  "provider_games": [
    {
      "name": "Uncharted Waters Online: Episode Atlantis",
      "slug": "uncharted-waters-online-episode-atlantis",
      "service": "igdb"
    }
  ],
  "aliases": [],
  "shaders": [],
  "discord_id": "",
  "change_for": null
}