{
  "id": 1358,
  "name": "Tom Clancy's Ghost Recon: Island Thunder",
  "slug": "tom-clancys-ghost-recon-island-thunder",
  "year": 2002,
  "banner_url": "https://lutris.net/games/banner/tom-clancys-ghost-recon-island-thunder.jpg",
  "icon_url": "https://lutris.net/games/icon/tom-clancys-ghost-recon-island-thunder.png",
  "coverart": "https://lutris.net/media/igdb/cover_big/naph2vbpodw45xummygb.jpg",
  "platforms": [
    {
      "name": "Windows"
    }
  ],
  "provider_games": [
    {
      "name": "Tom Clancy's Ghost Recon: Island Thunder",
      "slug": "13630",
      "service": "steam"
    },
    {
      "name": "Tom Clancy's Ghost Recon: Island Thunder",
      "slug": "tom-clancy-s-ghost-recon-island-thunder",
      "service": "igdb"
    }
  ],
  "aliases": [
    {
      "slug": "tom-clancy-s-ghost-recon-island-thunder",
      "name": "Tom Clancy's Ghost Recon: Island Thunder"
    }
  ],
  "shaders": [],
  "discord_id": "",
  "change_for": null
}