{
  "id": 300046,
  "name": "Tarnobol",
  "slug": "tarnobol",
  "year": 2020,
  "banner_url": "",
  "icon_url": "",
  "coverart": "https://lutris.net/media/igdb/cover_big/co8xd1.jpg",
  "platforms": [
    {
      "name": "Commodore C64/128"
    }
  ],
  "provider_games": [
    {
      "name": "Tarnobol",
      "slug": "tarnobol",
      "service": "igdb"
    }
  ],
  "aliases": [],
  "shaders": [],
  "discord_id": "",
  "change_for": null
}