{
  "id": 192558,
  "name": "Botty: Paper tales",
  "slug": "botty-paper-tales",
  "year": null,
  "banner_url": "",
  "icon_url": "",
  "coverart": "https://lutris.net/media/igdb/cover_big/co4pha.jpg",
  "platforms": [],
  "provider_games": [
    {
      "name": "Botty: Paper tales",
      "slug": "botty-paper-tales",
      "service": "igdb"
    }
  ],
  "aliases": [],
  "shaders": [],
  "discord_id": "",
  "change_for": null
}