{
  "id": 241612,
  "name": "Lil Baby Poop's Nightmares",
  "slug": "lil-baby-poops-nightmares",
  "year": null,
  "banner_url": "",
  "icon_url": "",
  "coverart": "https://lutris.net/media/igdb/cover_big/co5zx6.jpg",
  "platforms": [],
  "provider_games": [
    {
      "name": "Lil Baby Poop's Nightmares",
      "slug": "lil-baby-poops-nightmares",
      "service": "igdb"
    }
  ],
  "aliases": [],
  "shaders": [],
  "discord_id": "",
  "change_for": null
}