{
  "id": 250576,
  "name": "Castle Tintagel",
  "slug": "castle-tintagel",
  "year": null,
  "banner_url": "",
  "icon_url": "",
  "coverart": "https://lutris.net/media/igdb/cover_big/co772x.jpg",
  "platforms": [],
  "provider_games": [
    {
      "name": "Castle Tintagel",
      "slug": "castle-tintagel",
      "service": "igdb"
    }
  ],
  "aliases": [],
  "shaders": [],
  "discord_id": "",
  "change_for": null
}