{
  "id": 218619,
  "name": "Retro Invasion",
  "slug": "retro-invasion",
  "year": null,
  "banner_url": "",
  "icon_url": "",
  "coverart": "https://lutris.net/media/igdb/cover_big/co5me6.jpg",
  "platforms": [],
  "provider_games": [
    {
      "name": "Retro Invasion",
      "slug": "retro-invasion",
      "service": "igdb"
    }
  ],
  "aliases": [],
  "shaders": [],
  "discord_id": "",
  "change_for": null
}