{
  "id": 213557,
  "name": "Wunderling DX",
  "slug": "wunderling-dx",
  "year": 2020,
  "banner_url": "https://lutris.net/games/banner/wunderling-dx.jpg",
  "icon_url": "",
  "coverart": "https://lutris.net/media/igdb/cover_big/co5f2s.jpg",
  "platforms": [
    {
      "name": "Windows"
    }
  ],
  "provider_games": [
    {
      "name": "Wunderling DX",
      "slug": "732930",
      "service": "steam"
    },
    {
      "name": "Wunderling DX",
      "slug": "wunderling-dx",
      "service": "igdb"
    }
  ],
  "aliases": [],
  "shaders": [],
  "discord_id": "",
  "change_for": null
}