{
  "id": 4031,
  "game_id": 592,
  "game_slug": "red-faction-guerrilla",
  "name": "Red Faction: Guerrilla ",
  "year": 2009,
  "user": "hosef",
  "runner": "steam",
  "slug": "red-faction-guerrilla-proton",
  "version": "Proton",
  "description": "",
  "notes": "",
  "credits": "",
  "created_at": "2017-06-01T05:10:19.130000Z",
  "updated_at": "2021-05-04T02:43:02.556895Z",
  "draft": false,
  "published": true,
  "published_by": null,
  "rating": "",
  "is_playable": null,
  "steamid": 20500,
  "gogid": null,
  "gogslug": "",
  "humbleid": "",
  "humblestoreid": "",
  "humblestoreid_real": "",
  "script": {
    "game": {
      "appid": 20500
    }
  },
  "content": "game:\n  appid: 20500\n",
  "discord_id": ""
}