{
  "id": 11788,
  "name": "Gnomes Garden 2",
  "slug": "gnomes-garden-2",
  "year": 2016,
  "banner_url": "https://lutris.net/games/banner/gnomes-garden-2.jpg",
  "icon_url": "https://lutris.net/games/icon/gnomes-garden-2.png",
  "coverart": "https://lutris.net/media/igdb/cover_big/co240c.jpg",
  "platforms": [
    {
      "name": "Nintendo Switch"
    },
    {
      "name": "Sony Playstation 4"
    },
    {
      "name": "Windows"
    }
  ],
  "provider_games": [
    {
      "name": "Gnomes Garden 2",
      "slug": "449170",
      "service": "steam"
    },
    {
      "name": "Gnomes Garden 2",
      "slug": "gnomes-garden-2",
      "service": "igdb"
    }
  ],
  "aliases": [],
  "shaders": [],
  "discord_id": "",
  "change_for": null
}