{
  "id": 73422,
  "name": "GuitarFreaks 7thMIX",
  "slug": "guitarfreaks-7thmix",
  "year": null,
  "banner_url": "",
  "icon_url": "",
  "coverart": "https://lutris.net/media/igdb/cover_big/co7399.jpg",
  "platforms": [],
  "provider_games": [
    {
      "name": "GuitarFreaks 7thMix",
      "slug": "guitarfreaks-7thmix",
      "service": "igdb"
    }
  ],
  "aliases": [],
  "shaders": [],
  "discord_id": "",
  "change_for": null
}