{
  "id": 219478,
  "name": "IndividuaLand",
  "slug": "individualand",
  "year": null,
  "banner_url": "",
  "icon_url": "",
  "coverart": "https://lutris.net/media/igdb/cover_big/co5h8y.jpg",
  "platforms": [],
  "provider_games": [
    {
      "name": "IndividuaLand",
      "slug": "individualand",
      "service": "igdb"
    }
  ],
  "aliases": [],
  "shaders": [],
  "discord_id": "",
  "change_for": null
}