{
  "id": 88522,
  "name": "Just Freeskiing",
  "slug": "just-freeskiing",
  "year": 2018,
  "banner_url": "",
  "icon_url": "",
  "coverart": "https://lutris.net/media/igdb/cover_big/wirdeq02dejnvpbawsfg.jpg",
  "platforms": [],
  "provider_games": [
    {
      "name": "Just Freeskiing",
      "slug": "just-freeskiing",
      "service": "igdb"
    }
  ],
  "aliases": [],
  "shaders": [],
  "discord_id": "",
  "change_for": null
}