{
  "id": 207562,
  "name": "Nothing to Declare",
  "slug": "nothing-to-declare",
  "year": null,
  "banner_url": "",
  "icon_url": "",
  "coverart": "https://lutris.net/media/igdb/cover_big/co5r1w.jpg",
  "platforms": [
    {
      "name": "Oculus Quest"
    },
    {
      "name": "Oculus Quest 2"
    }
  ],
  "provider_games": [
    {
      "name": "Nothing to Declare",
      "slug": "nothing-to-declare",
      "service": "igdb"
    }
  ],
  "aliases": [],
  "shaders": [],
  "discord_id": "",
  "change_for": null
}