{
  "id": 255876,
  "name": "Among the Zombies",
  "slug": "among-the-zombies",
  "year": null,
  "banner_url": "",
  "icon_url": "",
  "coverart": "https://lutris.net/media/igdb/cover_big/co6xyb.jpg",
  "platforms": [],
  "provider_games": [
    {
      "name": "Among the Zombies",
      "slug": "among-the-zombies",
      "service": "igdb"
    }
  ],
  "aliases": [],
  "shaders": [],
  "discord_id": "",
  "change_for": null
}