{
  "id": 203064,
  "name": "Saint Spell's Love Guide to the Magical Student's Spellbook",
  "slug": "saint-spells-love-guide-to-the-magical-students-spellbook",
  "year": 2022,
  "banner_url": "",
  "icon_url": "",
  "coverart": "https://lutris.net/media/igdb/cover_big/co4hpw.jpg",
  "platforms": [
    {
      "name": "Linux"
    },
    {
      "name": "Mac"
    },
    {
      "name": "Windows"
    }
  ],
  "provider_games": [
    {
      "name": "Saint Spell's Love Guide to the Magical Student's Spellbook",
      "slug": "saint-spells-love-guide-to-the-magical-students-spellbook",
      "service": "igdb"
    }
  ],
  "aliases": [],
  "shaders": [],
  "discord_id": "",
  "change_for": null
}