{
  "id": 268954,
  "name": "The Lost Legends of Redwall: Feasts & Friends",
  "slug": "the-lost-legends-of-redwall-feasts-and-friends",
  "year": null,
  "banner_url": "",
  "icon_url": "",
  "coverart": "https://lutris.net/media/igdb/cover_big/co7j2i.jpg",
  "platforms": [],
  "provider_games": [
    {
      "name": "The Lost Legends of Redwall: Feasts & Friends",
      "slug": "the-lost-legends-of-redwall-feasts-and-friends",
      "service": "igdb"
    }
  ],
  "aliases": [],
  "shaders": [],
  "discord_id": "",
  "change_for": null
}