{
  "id": 102891,
  "name": "Garfield GO",
  "slug": "garfield-go",
  "year": 2017,
  "banner_url": "",
  "icon_url": "",
  "coverart": "https://lutris.net/media/igdb/cover_big/jqcjsmf0hkn6l8i3yqod.jpg",
  "platforms": [
    {
      "name": "Android"
    }
  ],
  "provider_games": [
    {
      "name": "Garfield GO",
      "slug": "garfield-go",
      "service": "igdb"
    }
  ],
  "aliases": [],
  "shaders": [],
  "discord_id": "",
  "change_for": null
}