{
  "id": 14083,
  "name": "FullBlast",
  "slug": "fullblast",
  "year": 2015,
  "banner_url": "https://lutris.net/games/banner/fullblast.jpg",
  "icon_url": "https://lutris.net/games/icon/fullblast.png",
  "coverart": "https://lutris.net/media/igdb/cover_big/co27q5.jpg",
  "platforms": [
    {
      "name": "Mac"
    },
    {
      "name": "Nintendo Switch"
    },
    {
      "name": "Nintendo Wii U"
    },
    {
      "name": "PlayStation Vita"
    },
    {
      "name": "Sony Playstation 4"
    },
    {
      "name": "Windows"
    },
    {
      "name": "Xbox One"
    }
  ],
  "provider_games": [
    {
      "name": "FullBlast",
      "slug": "429220",
      "service": "steam"
    },
    {
      "name": "FullBlast",
      "slug": "fullblast",
      "service": "igdb"
    }
  ],
  "aliases": [],
  "shaders": [],
  "discord_id": "",
  "change_for": null
}