{
  "id": 105656,
  "name": "Backpacker: The Lost Florence Gold Mine",
  "slug": "backpacker-the-lost-florence-gold-mine",
  "year": null,
  "banner_url": "",
  "icon_url": "",
  "coverart": "https://lutris.net/media/igdb/cover_big/co2t81.jpg",
  "platforms": [],
  "provider_games": [
    {
      "name": "Backpacker: The Lost Florence Gold Mine",
      "slug": "backpacker-the-lost-florence-gold-mine",
      "service": "igdb"
    }
  ],
  "aliases": [],
  "shaders": [],
  "discord_id": "",
  "change_for": null
}