{
  "id": 116853,
  "name": "Flowers Blooming at the End of Summer",
  "slug": "flowers-blooming-at-the-end-of-summer",
  "year": 2021,
  "banner_url": "https://lutris.net/games/banner/flowers-blooming-at-the-end-of-summer.jpg",
  "icon_url": "",
  "coverart": "https://lutris.net/media/igdb/cover_big/co2lqi.jpg",
  "platforms": [
    {
      "name": "Linux"
    },
    {
      "name": "Mac"
    },
    {
      "name": "Windows"
    }
  ],
  "provider_games": [
    {
      "name": "Flowers Blooming at the End of Summer",
      "slug": "1173010",
      "service": "steam"
    },
    {
      "name": "Flowers Blooming at the End of Summer",
      "slug": "flowers-blooming-at-the-end-of-summer",
      "service": "igdb"
    }
  ],
  "aliases": [],
  "shaders": [],
  "discord_id": "",
  "change_for": null
}