{
  "id": 277505,
  "name": "NineHells",
  "slug": "ninehells",
  "year": null,
  "banner_url": "",
  "icon_url": "",
  "coverart": "https://lutris.net/media/igdb/cover_big/co7w7s.jpg",
  "platforms": [],
  "provider_games": [
    {
      "name": "NineHells",
      "slug": "ninehells",
      "service": "igdb"
    }
  ],
  "aliases": [],
  "shaders": [],
  "discord_id": "",
  "change_for": null
}