{
  "id": 94054,
  "name": "Is it Love? - Adam - Story with Choices",
  "slug": "is-it-love-adam-story-with-choices",
  "year": null,
  "banner_url": "",
  "icon_url": "",
  "coverart": null,
  "platforms": [],
  "provider_games": [
    {
      "name": "Is it Love? - Adam - Story with Choices",
      "slug": "is-it-love-adam-story-with-choices",
      "service": "igdb"
    }
  ],
  "aliases": [],
  "shaders": [],
  "discord_id": "",
  "change_for": null
}