{
  "id": 98629,
  "name": "The Away Team: Lost Exodus",
  "slug": "the-away-team-lost-exodus",
  "year": null,
  "banner_url": "",
  "icon_url": "",
  "coverart": "https://lutris.net/media/igdb/cover_big/co8mov.jpg",
  "platforms": [],
  "provider_games": [
    {
      "name": "The Away Team: Lost Exodus",
      "slug": "the-away-team-lost-exodus",
      "service": "igdb"
    }
  ],
  "aliases": [],
  "shaders": [],
  "discord_id": "",
  "change_for": null
}