{
  "id": 84594,
  "name": "Watchmen: The End Is Nigh Complete Experience",
  "slug": "watchmen-the-end-is-nigh-complete-experience",
  "year": 2009,
  "banner_url": "",
  "icon_url": "",
  "coverart": "https://lutris.net/media/igdb/cover_big/sfcdu5wjtooafljjdvwr.jpg",
  "platforms": [
    {
      "name": "Sony Playstation 3"
    }
  ],
  "provider_games": [
    {
      "name": "Watchmen: The End Is Nigh Complete Experience",
      "slug": "watchmen-the-end-is-nigh-complete-experience",
      "service": "igdb"
    }
  ],
  "aliases": [],
  "shaders": [],
  "discord_id": "",
  "change_for": null
}