{
  "id": 3169,
  "name": "Cossacks: Art of War",
  "slug": "cossacks-art-of-war",
  "year": 2002,
  "banner_url": "https://lutris.net/games/banner/cossacks-art-of-war.jpg",
  "icon_url": "https://lutris.net/games/icon/cossacks-art-of-war.png",
  "coverart": null,
  "platforms": [
    {
      "name": "Windows"
    }
  ],
  "provider_games": [
    {
      "name": "Cossacks: Art of War",
      "slug": "4870",
      "service": "steam"
    },
    {
      "name": "Cossacks - Art Of War",
      "slug": "1207662823",
      "service": "gog"
    }
  ],
  "aliases": [],
  "shaders": [],
  "discord_id": "",
  "change_for": null
}