{
  "id": 10255,
  "name": "ASTRONEER",
  "slug": "astroneer",
  "year": 2016,
  "banner_url": "https://lutris.net/games/banner/astroneer.jpg",
  "icon_url": "https://lutris.net/games/icon/astroneer.png",
  "coverart": "https://lutris.net/media/igdb/cover_big/co1niz.jpg",
  "platforms": [
    {
      "name": "Nintendo Switch"
    },
    {
      "name": "Sony Playstation 4"
    },
    {
      "name": "Windows"
    },
    {
      "name": "Xbox One"
    }
  ],
  "provider_games": [
    {
      "name": "ASTRONEER",
      "slug": "361420",
      "service": "steam"
    },
    {
      "name": "Astroneer",
      "slug": "astroneer",
      "service": "igdb"
    },
    {
      "name": "Astroneer",
      "slug": "1453371719",
      "service": "gog"
    }
  ],
  "aliases": [],
  "shaders": [],
  "discord_id": "363428060604792832",
  "change_for": null
}