{
  "id": 250385,
  "name": "Tripitaka: The Pilgrimage of Tripitaka",
  "slug": "tripitaka-the-pilgrimage-of-tripitaka",
  "year": 1999,
  "banner_url": "",
  "icon_url": "",
  "coverart": "https://lutris.net/media/igdb/cover_big/co6oi9.jpg",
  "platforms": [
    {
      "name": "Mac"
    },
    {
      "name": "Windows"
    }
  ],
  "provider_games": [
    {
      "name": "Tripitaka: The Pilgrimage of Tripitaka",
      "slug": "tripitaka-the-pilgrimage-of-tripitaka",
      "service": "igdb"
    }
  ],
  "aliases": [],
  "shaders": [],
  "discord_id": "",
  "change_for": null
}