{
  "id": 272849,
  "name": "Streaming Girls 18+:- OnlyFap Live",
  "slug": "streaming-girls-18-plus-onlyfap-live",
  "year": null,
  "banner_url": "",
  "icon_url": "",
  "coverart": "https://lutris.net/media/igdb/cover_big/co7r1n.jpg",
  "platforms": [],
  "provider_games": [
    {
      "name": "Streaming Girls 18+:- OnlyFap Live",
      "slug": "streaming-girls-18-plus-onlyfap-live",
      "service": "igdb"
    }
  ],
  "aliases": [],
  "shaders": [],
  "discord_id": "",
  "change_for": null
}