{
  "id": 110481,
  "name": "Disney's Stitch: Experiment 626",
  "slug": "disneys-stitch-experiment-626",
  "year": 2002,
  "banner_url": "",
  "icon_url": "",
  "coverart": "https://lutris.net/media/igdb/cover_big/co1rye.jpg",
  "platforms": [
    {
      "name": "Sony PlayStation 2"
    }
  ],
  "provider_games": [
    {
      "name": "Disney's Stitch: Experiment 626",
      "slug": "disneys-stitch-experiment-626",
      "service": "igdb"
    }
  ],
  "aliases": [],
  "shaders": [],
  "discord_id": "",
  "change_for": null
}