{
  "id": 202092,
  "name": "Among Walls",
  "slug": "among-walls",
  "year": null,
  "banner_url": "",
  "icon_url": "",
  "coverart": "https://lutris.net/media/igdb/cover_big/co4mv3.jpg",
  "platforms": [],
  "provider_games": [
    {
      "name": "Among Walls",
      "slug": "among-walls",
      "service": "igdb"
    }
  ],
  "aliases": [],
  "shaders": [],
  "discord_id": "",
  "change_for": null
}