{
  "id": 18919,
  "name": "Creatio Ex Nihilo: Aition",
  "slug": "creatio-ex-nihilo-aition",
  "year": 2017,
  "banner_url": "https://lutris.net/games/banner/creatio-ex-nihilo-aition.jpg",
  "icon_url": "https://lutris.net/games/icon/creatio-ex-nihilo-aition.png",
  "coverart": null,
  "platforms": [
    {
      "name": "Windows"
    }
  ],
  "provider_games": [
    {
      "name": "Creatio Ex Nihilo: Aition",
      "slug": "738080",
      "service": "steam"
    },
    {
      "name": "Creatio Ex Nihilo: Aition",
      "slug": "creatio-ex-nihilo-aition",
      "service": "igdb"
    }
  ],
  "aliases": [],
  "shaders": [],
  "discord_id": "",
  "change_for": null
}