{
  "id": 39159,
  "game_id": 26909,
  "game_slug": "path-of-building",
  "name": "Path of Building Community",
  "year": 2016,
  "user": "bryewalks",
  "runner": "wine",
  "slug": "path-of-building-community-041",
  "version": "0.4.1",
  "description": "Path of Building PoE2",
  "notes": "",
  "credits": "",
  "created_at": "2025-01-21T21:56:36.332636Z",
  "updated_at": "2025-02-10T02:07:11.781137Z",
  "draft": false,
  "published": true,
  "published_by": 1,
  "rating": "",
  "is_playable": null,
  "steamid": null,
  "gogid": null,
  "gogslug": "",
  "humbleid": "",
  "humblestoreid": "",
  "humblestoreid_real": "",
  "script": {
    "files": [
      {
        "pob_poe2_zip": "https://github.com/PathOfBuildingCommunity/PathOfBuilding-PoE2/releases/download/v0.4.1/PathOfBuildingCommunity-PoE2-Portable.zip"
      }
    ],
    "game": {
      "exe": "Path of Building-PoE2.exe",
      "prefix": "$GAMEDIR"
    },
    "installer": [
      {
        "extract": {
          "dst": "$GAMEDIR",
          "file": "pob_poe2_zip"
        }
      }
    ]
  },
  "content": "files:\n- pob_poe2_zip: https://github.com/PathOfBuildingCommunity/PathOfBuilding-PoE2/releases/download/v0.4.1/PathOfBuildingCommunity-PoE2-Portable.zip\ngame:\n  exe: Path of Building-PoE2.exe\n  prefix: $GAMEDIR\ninstaller:\n- extract:\n    dst: $GAMEDIR\n    file: pob_poe2_zip\n",
  "discord_id": ""
}