{
  "id": 106600,
  "name": "Word Searcher",
  "slug": "word-searcher",
  "year": 2009,
  "banner_url": "",
  "icon_url": "",
  "coverart": "https://lutris.net/media/igdb/cover_big/qvw0cqjt1xfi2nlkkw3j.jpg",
  "platforms": [
    {
      "name": "Nintendo DSi"
    },
    {
      "name": "Nintendo Wii"
    }
  ],
  "provider_games": [
    {
      "name": "Word Searcher",
      "slug": "word-searcher",
      "service": "igdb"
    }
  ],
  "aliases": [],
  "shaders": [],
  "discord_id": "",
  "change_for": null
}