{
  "id": 189770,
  "name": "POSTAL: Brain Damaged",
  "slug": "postal-brain-damaged",
  "year": 2022,
  "banner_url": "https://lutris.net/games/banner/postal-brain-damaged.jpg",
  "icon_url": "",
  "coverart": "https://lutris.net/media/igdb/cover_big/co2lx9.jpg",
  "platforms": [
    {
      "name": "Windows"
    }
  ],
  "provider_games": [
    {
      "name": "POSTAL Brain Damaged",
      "slug": "1359980",
      "service": "steam"
    },
    {
      "name": "Postal: Brain Damaged",
      "slug": "postal-brain-damaged",
      "service": "igdb"
    },
    {
      "name": "POSTAL: Brain Damaged",
      "slug": "1747379624",
      "service": "gog"
    }
  ],
  "aliases": [],
  "shaders": [],
  "discord_id": "",
  "change_for": null
}