{
  "id": 293254,
  "name": "Athralis Tower Defense",
  "slug": "athralis-tower-defense",
  "year": null,
  "banner_url": "",
  "icon_url": "",
  "coverart": "https://lutris.net/media/igdb/cover_big/co8kid.jpg",
  "platforms": [],
  "provider_games": [
    {
      "name": "Athralis Tower Defense",
      "slug": "athralis-tower-defense",
      "service": "igdb"
    }
  ],
  "aliases": [],
  "shaders": [],
  "discord_id": "",
  "change_for": null
}