{
  "id": 166154,
  "name": "Tattoo and Girls",
  "slug": "tattoo-and-girls",
  "year": null,
  "banner_url": "",
  "icon_url": "",
  "coverart": "https://lutris.net/media/igdb/cover_big/co42y6.jpg",
  "platforms": [],
  "provider_games": [
    {
      "name": "Tattoo and Girls",
      "slug": "tattoo-and-girls",
      "service": "igdb"
    }
  ],
  "aliases": [],
  "shaders": [],
  "discord_id": "",
  "change_for": null
}