{
  "id": 255641,
  "name": "Crescite",
  "slug": "crescite",
  "year": null,
  "banner_url": "",
  "icon_url": "",
  "coverart": "https://lutris.net/media/igdb/cover_big/co6yco.jpg",
  "platforms": [],
  "provider_games": [
    {
      "name": "Crescite",
      "slug": "crescite",
      "service": "igdb"
    }
  ],
  "aliases": [],
  "shaders": [],
  "discord_id": "",
  "change_for": null
}