{
  "id": 211015,
  "name": "World Soccer: Winning Eleven 2006 Arcade Championship",
  "slug": "world-soccer-winning-eleven-2006-arcade-championship",
  "year": null,
  "banner_url": "",
  "icon_url": "",
  "coverart": "https://lutris.net/media/igdb/cover_big/co5vz0.jpg",
  "platforms": [
    {
      "name": "Arcade"
    }
  ],
  "provider_games": [
    {
      "name": "World Soccer Winning Eleven 2006 Arcade Championship",
      "slug": "world-soccer-winning-eleven-2006-arcade-championship",
      "service": "igdb"
    }
  ],
  "aliases": [],
  "shaders": [],
  "discord_id": "",
  "change_for": null
}