{
  "id": 286609,
  "name": "Digital Meow",
  "slug": "digital-meow",
  "year": null,
  "banner_url": "",
  "icon_url": "",
  "coverart": "https://lutris.net/media/igdb/cover_big/co8a0c.jpg",
  "platforms": [],
  "provider_games": [
    {
      "name": "Digital Meow",
      "slug": "digital-meow",
      "service": "igdb"
    }
  ],
  "aliases": [],
  "shaders": [],
  "discord_id": "",
  "change_for": null
}