{
  "id": 136639,
  "name": "Bombing Busters",
  "slug": "bombing-busters",
  "year": 2015,
  "banner_url": "",
  "icon_url": "",
  "coverart": "https://lutris.net/media/igdb/cover_big/co2pln.jpg",
  "platforms": [
    {
      "name": "Nintendo Switch"
    },
    {
      "name": "PlayStation Vita"
    },
    {
      "name": "Sony Playstation 4"
    },
    {
      "name": "Xbox One"
    }
  ],
  "provider_games": [
    {
      "name": "Bombing Busters",
      "slug": "bombing-busters",
      "service": "igdb"
    }
  ],
  "aliases": [],
  "shaders": [],
  "discord_id": "",
  "change_for": null
}