{
  "id": 235412,
  "name": "Boy & Wheel",
  "slug": "boy-and-wheel",
  "year": null,
  "banner_url": "",
  "icon_url": "",
  "coverart": null,
  "platforms": [],
  "provider_games": [
    {
      "name": "Boy & Wheel",
      "slug": "boy-and-wheel",
      "service": "igdb"
    }
  ],
  "aliases": [],
  "shaders": [],
  "discord_id": "",
  "change_for": null
}