{
  "id": 274430,
  "name": "Dream Runner",
  "slug": "dream-runner",
  "year": null,
  "banner_url": "",
  "icon_url": "",
  "coverart": "https://lutris.net/media/igdb/cover_big/co7sgh.jpg",
  "platforms": [],
  "provider_games": [
    {
      "name": "Dream Runner",
      "slug": "dream-runner",
      "service": "igdb"
    }
  ],
  "aliases": [],
  "shaders": [],
  "discord_id": "",
  "change_for": null
}