{
  "id": 222390,
  "name": "Abyss Fantasia",
  "slug": "abyss-fantasia",
  "year": null,
  "banner_url": "",
  "icon_url": "",
  "coverart": "https://lutris.net/media/igdb/cover_big/co56vo.jpg",
  "platforms": [],
  "provider_games": [
    {
      "name": "Abyss Fantasia",
      "slug": "abyss-fantasia",
      "service": "igdb"
    }
  ],
  "aliases": [],
  "shaders": [],
  "discord_id": "",
  "change_for": null
}