{
  "id": 203540,
  "name": "GirlHub",
  "slug": "girlhub",
  "year": null,
  "banner_url": "",
  "icon_url": "",
  "coverart": "https://lutris.net/media/igdb/cover_big/co4fm9.jpg",
  "platforms": [],
  "provider_games": [
    {
      "name": "GirlHub",
      "slug": "girlhub",
      "service": "igdb"
    }
  ],
  "aliases": [],
  "shaders": [],
  "discord_id": "",
  "change_for": null
}