{
  "id": 213758,
  "name": "Congo: The Movie",
  "slug": "congo-the-movie",
  "year": 1995,
  "banner_url": "",
  "icon_url": "",
  "coverart": "https://lutris.net/media/igdb/cover_big/co5wbp.jpg",
  "platforms": [],
  "provider_games": [
    {
      "name": "Congo: The Movie",
      "slug": "congo-the-movie",
      "service": "igdb"
    }
  ],
  "aliases": [],
  "shaders": [],
  "discord_id": "",
  "change_for": null
}