{
  "id": 266572,
  "name": "Snooze or Lose",
  "slug": "snooze-or-lose",
  "year": null,
  "banner_url": "",
  "icon_url": "",
  "coverart": null,
  "platforms": [],
  "provider_games": [
    {
      "name": "Snooze or Lose",
      "slug": "snooze-or-lose",
      "service": "igdb"
    }
  ],
  "aliases": [],
  "shaders": [],
  "discord_id": "",
  "change_for": null
}