{
  "id": 73783,
  "name": "Super Golf",
  "slug": "super-golf--1",
  "year": null,
  "banner_url": "",
  "icon_url": "",
  "coverart": "https://lutris.net/media/igdb/cover_big/co7o42.jpg",
  "platforms": [],
  "provider_games": [
    {
      "name": "Super Golf",
      "slug": "super-golf--1",
      "service": "igdb"
    }
  ],
  "aliases": [],
  "shaders": [],
  "discord_id": "",
  "change_for": null
}