{
  "id": 139099,
  "name": "Sonic at the Olympic Winter Games",
  "slug": "sonic-at-the-olympic-winter-games",
  "year": 2010,
  "banner_url": "",
  "icon_url": "",
  "coverart": "https://lutris.net/media/igdb/cover_big/wevnyfc52sr0dpfr8wej.jpg",
  "platforms": [],
  "provider_games": [
    {
      "name": "Sonic at the Olympic Winter Games",
      "slug": "sonic-at-the-olympic-winter-games",
      "service": "igdb"
    }
  ],
  "aliases": [],
  "shaders": [],
  "discord_id": "",
  "change_for": null
}