{
  "id": 57853,
  "name": "Stephen Huneck's PuzzleSpace",
  "slug": "stephen-hunecks-puzzlespace",
  "year": null,
  "banner_url": "",
  "icon_url": "",
  "coverart": null,
  "platforms": [],
  "provider_games": [
    {
      "name": "Stephen Huneck's PuzzleSpace",
      "slug": "stephen-hunecks-puzzlespace",
      "service": "igdb"
    }
  ],
  "aliases": [],
  "shaders": [],
  "discord_id": "",
  "change_for": null
}