{
  "id": 299782,
  "name": "One Turn Kill",
  "slug": "one-turn-kill",
  "year": null,
  "banner_url": "",
  "icon_url": "",
  "coverart": "https://lutris.net/media/igdb/cover_big/co8z34.jpg",
  "platforms": [],
  "provider_games": [
    {
      "name": "One Turn Kill",
      "slug": "one-turn-kill",
      "service": "igdb"
    }
  ],
  "aliases": [],
  "shaders": [],
  "discord_id": "",
  "change_for": null
}