{
  "id": 15133,
  "game_id": 29048,
  "game_slug": "commander-keen-2-the-earth-explodes",
  "name": "Commander Keen 2: The Earth Explodes",
  "year": 1990,
  "user": "appoloin",
  "runner": "dosbox",
  "slug": "commander-keen-2-the-earth-ex-ms-dos",
  "version": "MS-DOS",
  "description": null,
  "notes": "",
  "credits": "",
  "created_at": "2019-08-25T14:59:51.955860Z",
  "updated_at": "2019-09-10T01:24:42.491198Z",
  "draft": false,
  "published": true,
  "published_by": null,
  "rating": "",
  "is_playable": null,
  "steamid": null,
  "gogid": null,
  "gogslug": "",
  "humbleid": "",
  "humblestoreid": "",
  "humblestoreid_real": "",
  "script": {
    "files": [
      {
        "game": "N/A:Select the file Keen2.exe"
      }
    ],
    "game": {
      "main_file": "$GAMEDIR/commander_keen.conf"
    },
    "installer": [
      {
        "execute": {
          "args": "$GAMEDIR/HDD $GAMEDIR/HDD/keen2",
          "file": "mkdir"
        }
      },
      {
        "write_file": {
          "content": "#!/bin/bash\nsrc=$1\ndst=$2\nsrc_path=$(echo \"$1\" | sed -r \"s/(.+)\\/.+/\\1/\")\ncp -avr \"$src_path/.\"  \"$dst\"",
          "file": "$CACHE/bulkcopy.sh"
        }
      },
      {
        "chmodx": "$CACHE/bulkcopy.sh"
      },
      {
        "execute": {
          "args": "$game $GAMEDIR/HDD/keen2",
          "file": "$CACHE/bulkcopy.sh"
        }
      },
      {
        "write_file": {
          "content": "[cpu]\ncputype=386_slow\n[autoexec]\nmount C \"$GAMEDIR/HDD\" -t dir\nC:\ncd keen2\nkeen2.EXE\nexit",
          "file": "$GAMEDIR/commander_keen.conf"
        }
      }
    ]
  },
  "content": "files:\n- game: N/A:Select the file Keen2.exe\ngame:\n  main_file: $GAMEDIR/commander_keen.conf\ninstaller:\n- execute:\n    args: $GAMEDIR/HDD $GAMEDIR/HDD/keen2\n    file: mkdir\n- write_file:\n    content: '#!/bin/bash\n\n      src=$1\n\n      dst=$2\n\n      src_path=$(echo \"$1\" | sed -r \"s/(.+)\\/.+/\\1/\")\n\n      cp -avr \"$src_path/.\"  \"$dst\"'\n    file: $CACHE/bulkcopy.sh\n- chmodx: $CACHE/bulkcopy.sh\n- execute:\n    args: $game $GAMEDIR/HDD/keen2\n    file: $CACHE/bulkcopy.sh\n- write_file:\n    content: '[cpu]\n\n      cputype=386_slow\n\n      [autoexec]\n\n      mount C \"$GAMEDIR/HDD\" -t dir\n\n      C:\n\n      cd keen2\n\n      keen2.EXE\n\n      exit'\n    file: $GAMEDIR/commander_keen.conf\n",
  "discord_id": ""
}