{
  "id": 262567,
  "name": "Gold Grabbing Goblin",
  "slug": "gold-grabbing-goblin",
  "year": null,
  "banner_url": "",
  "icon_url": "",
  "coverart": "https://lutris.net/media/igdb/cover_big/co783k.jpg",
  "platforms": [],
  "provider_games": [
    {
      "name": "Gold Grabbing Goblin",
      "slug": "gold-grabbing-goblin",
      "service": "igdb"
    }
  ],
  "aliases": [],
  "shaders": [],
  "discord_id": "",
  "change_for": null
}