{
  "id": 21282,
  "name": "Cute Hedgehog",
  "slug": "cute-hedgehog",
  "year": null,
  "banner_url": "https://lutris.net/games/banner/cute-hedgehog.jpg",
  "icon_url": "https://lutris.net/games/icon/cute-hedgehog.png",
  "coverart": null,
  "platforms": [],
  "provider_games": [
    {
      "name": "Cute Hedgehog",
      "slug": "cute-hedgehog",
      "service": "igdb"
    }
  ],
  "aliases": [],
  "shaders": [],
  "discord_id": "",
  "change_for": null
}