{
  "id": 110272,
  "name": "Be Rich",
  "slug": "be-rich",
  "year": null,
  "banner_url": "",
  "icon_url": "",
  "coverart": "https://lutris.net/media/igdb/cover_big/co8xsy.jpg",
  "platforms": [],
  "provider_games": [
    {
      "name": "Be Rich",
      "slug": "be-rich",
      "service": "igdb"
    }
  ],
  "aliases": [],
  "shaders": [],
  "discord_id": "",
  "change_for": null
}