{
  "id": 3159,
  "name": "Brigade E5: New Jagged Union",
  "slug": "brigade-e5-new-jagged-union",
  "year": 2005,
  "banner_url": "https://lutris.net/games/banner/brigade-e5-new-jagged-union.jpg",
  "icon_url": "https://lutris.net/games/icon/brigade-e5-new-jagged-union.png",
  "coverart": "https://lutris.net/media/igdb/cover_big/co3mkw.jpg",
  "platforms": [
    {
      "name": "Windows"
    }
  ],
  "provider_games": [
    {
      "name": "Brigade E5: New Jagged Union",
      "slug": "296210",
      "service": "steam"
    },
    {
      "name": "Brigade E5: New Jagged Union",
      "slug": "brigade-e5-new-jagged-union",
      "service": "igdb"
    },
    {
      "name": "Brigade E5: New Jagged Union",
      "slug": "1195536799",
      "service": "gog"
    }
  ],
  "aliases": [],
  "shaders": [],
  "discord_id": "",
  "change_for": null
}