{
  "id": 280148,
  "name": "Ghost For Hire",
  "slug": "ghost-for-hire",
  "year": null,
  "banner_url": "",
  "icon_url": "",
  "coverart": "https://lutris.net/media/igdb/cover_big/co80w2.jpg",
  "platforms": [],
  "provider_games": [
    {
      "name": "Ghost For Hire",
      "slug": "ghost-for-hire",
      "service": "igdb"
    }
  ],
  "aliases": [],
  "shaders": [],
  "discord_id": "",
  "change_for": null
}