{
  "id": 283,
  "name": "Awesomenauts",
  "slug": "awesomenauts",
  "year": 2012,
  "banner_url": "https://lutris.net/games/banner/awesomenauts.jpg",
  "icon_url": "https://lutris.net/games/icon/awesomenauts.png",
  "coverart": "https://lutris.net/media/igdb/cover_big/co2sld.jpg",
  "platforms": [
    {
      "name": "Linux"
    },
    {
      "name": "Mac"
    },
    {
      "name": "Sony Playstation 3"
    },
    {
      "name": "Windows"
    },
    {
      "name": "Xbox 360"
    }
  ],
  "provider_games": [
    {
      "name": "Awesomenauts",
      "slug": "204300",
      "service": "steam"
    },
    {
      "name": "Awesomenauts",
      "slug": "awesomenauts",
      "service": "igdb"
    }
  ],
  "aliases": [],
  "shaders": [],
  "discord_id": "447488337519968257",
  "change_for": null
}