{
  "id": 67411,
  "name": "Kartong - Death by Cardboard!",
  "slug": "kartong-death-by-cardboard",
  "year": null,
  "banner_url": "",
  "icon_url": "",
  "coverart": "https://lutris.net/media/igdb/cover_big/d17ficpfrbopvewleow1.jpg",
  "platforms": [],
  "provider_games": [
    {
      "name": "Kartong - Death by Cardboard!",
      "slug": "kartong-death-by-cardboard",
      "service": "igdb"
    }
  ],
  "aliases": [],
  "shaders": [],
  "discord_id": "",
  "change_for": null
}