{
  "id": 41291,
  "name": "Super Solvers: OutNumbered!",
  "slug": "super-solvers-outnumbered",
  "year": 1990,
  "banner_url": "https://lutris.net/games/banner/super-solvers-outnumbered.jpg",
  "icon_url": "",
  "coverart": "https://lutris.net/media/igdb/cover_big/fxpld0whzmat1qup4hde.jpg",
  "platforms": [
    {
      "name": "Mac"
    },
    {
      "name": "MS-DOS"
    },
    {
      "name": "Windows"
    }
  ],
  "provider_games": [
    {
      "name": "Super Solvers: OutNumbered!",
      "slug": "super-solvers-outnumbered",
      "service": "igdb"
    }
  ],
  "aliases": [],
  "shaders": [],
  "discord_id": "",
  "change_for": null
}