{
  "id": 161287,
  "name": "Fight Bots",
  "slug": "fight-bots",
  "year": null,
  "banner_url": "",
  "icon_url": "",
  "coverart": "https://lutris.net/media/igdb/cover_big/co3znf.jpg",
  "platforms": [],
  "provider_games": [
    {
      "name": "Fight Bots",
      "slug": "fight-bots",
      "service": "igdb"
    }
  ],
  "aliases": [],
  "shaders": [],
  "discord_id": "",
  "change_for": null
}