{
  "id": 108062,
  "name": "Sangoku Hime 4: Tenka Ryouran Tenmei no Koi Emaki",
  "slug": "sangoku-hime-4-tenka-ryouran-tenmei-no-koi-emaki",
  "year": 2016,
  "banner_url": "",
  "icon_url": "",
  "coverart": "https://lutris.net/media/igdb/cover_big/co2w8v.jpg",
  "platforms": [
    {
      "name": "PlayStation Vita"
    },
    {
      "name": "Sony Playstation 4"
    }
  ],
  "provider_games": [
    {
      "name": "Sangoku Hime 4: Tenka Ryouran Tenmei no Koi Emaki",
      "slug": "sangoku-hime-4-tenka-ryouran-tenmei-no-koi-emaki",
      "service": "igdb"
    }
  ],
  "aliases": [],
  "shaders": [],
  "discord_id": "",
  "change_for": null
}