{
  "id": 11650,
  "name": "P-3 Biotic",
  "slug": "p-3-biotic",
  "year": 2016,
  "banner_url": "https://lutris.net/games/banner/p-3-biotic.jpg",
  "icon_url": "https://lutris.net/games/icon/p-3-biotic.png",
  "coverart": null,
  "platforms": [
    {
      "name": "Windows"
    }
  ],
  "provider_games": [
    {
      "name": "P-3 Biotic",
      "slug": "311940",
      "service": "steam"
    },
    {
      "name": "P-3 Biotic",
      "slug": "p-3-biotic",
      "service": "igdb"
    }
  ],
  "aliases": [],
  "shaders": [],
  "discord_id": "",
  "change_for": null
}