{
  "id": 253880,
  "name": "Demon's Blood",
  "slug": "demons-blood",
  "year": null,
  "banner_url": "",
  "icon_url": "",
  "coverart": "https://lutris.net/media/igdb/cover_big/co6tol.jpg",
  "platforms": [],
  "provider_games": [
    {
      "name": "Demon's Blood",
      "slug": "demons-blood",
      "service": "igdb"
    }
  ],
  "aliases": [],
  "shaders": [],
  "discord_id": "",
  "change_for": null
}