{
  "id": 248339,
  "name": "En Garde!",
  "slug": "en-garde--1",
  "year": 2023,
  "banner_url": "",
  "icon_url": "",
  "coverart": "https://lutris.net/media/igdb/cover_big/co6ldq.jpg",
  "platforms": [
    {
      "name": "Windows"
    }
  ],
  "provider_games": [
    {
      "name": "En Garde!",
      "slug": "en-garde--1",
      "service": "igdb"
    },
    {
      "name": "En Garde!",
      "slug": "1589319779",
      "service": "gog"
    }
  ],
  "aliases": [],
  "shaders": [],
  "discord_id": "",
  "change_for": null
}