{
  "id": 107713,
  "name": "Puzzle & Action: Ichidant-R GG",
  "slug": "puzzle-and-action-ichidant-r-gg",
  "year": 1994,
  "banner_url": "",
  "icon_url": "",
  "coverart": "https://lutris.net/media/igdb/cover_big/co6yol.jpg",
  "platforms": [
    {
      "name": "Sega Game Gear"
    }
  ],
  "provider_games": [
    {
      "name": "Puzzle & Action: Ichidant-R GG",
      "slug": "puzzle-and-action-ichidant-r-gg",
      "service": "igdb"
    }
  ],
  "aliases": [],
  "shaders": [],
  "discord_id": "",
  "change_for": null
}