{
  "id": 224,
  "game_id": 494,
  "game_slug": "cubemen-2",
  "name": "Cubemen 2",
  "year": 2013,
  "user": "strider",
  "runner": "steam",
  "slug": "cubemen-2-steam",
  "version": "steam",
  "description": null,
  "notes": "",
  "credits": "",
  "created_at": "2013-12-19T23:56:18.922000Z",
  "updated_at": "2013-12-19T23:56:18.922000Z",
  "draft": false,
  "published": true,
  "published_by": null,
  "rating": "",
  "is_playable": null,
  "steamid": 228440,
  "gogid": null,
  "gogslug": "",
  "humbleid": "cubemen2",
  "humblestoreid": "cubemen2",
  "humblestoreid_real": "cubemen2",
  "script": {
    "game": {
      "appid": 228440
    }
  },
  "content": "game:\n  appid: 228440\n",
  "discord_id": ""
}