{
  "id": 107881,
  "name": "Napple Tale: Arsia in Daydream",
  "slug": "napple-tale-arsia-in-daydream",
  "year": 2000,
  "banner_url": "",
  "icon_url": "",
  "coverart": "https://lutris.net/media/igdb/cover_big/co2vxm.jpg",
  "platforms": [
    {
      "name": "Dreamcast"
    }
  ],
  "provider_games": [
    {
      "name": "Napple Tale: Arsia in Daydream",
      "slug": "napple-tale-arsia-in-daydream",
      "service": "igdb"
    }
  ],
  "aliases": [],
  "shaders": [],
  "discord_id": "",
  "change_for": null
}