{
  "id": 198521,
  "name": "Dead Profit",
  "slug": "dead-profit",
  "year": null,
  "banner_url": "",
  "icon_url": "",
  "coverart": "https://lutris.net/media/igdb/cover_big/co4iox.jpg",
  "platforms": [],
  "provider_games": [
    {
      "name": "Dead Profit",
      "slug": "dead-profit",
      "service": "igdb"
    }
  ],
  "aliases": [],
  "shaders": [],
  "discord_id": "",
  "change_for": null
}