{
  "id": 100293,
  "name": "Blood Bullets & Ballet",
  "slug": "blood-bullets-and-ballet",
  "year": null,
  "banner_url": "",
  "icon_url": "",
  "coverart": "https://lutris.net/media/igdb/cover_big/co2ain.jpg",
  "platforms": [],
  "provider_games": [
    {
      "name": "Blood Bullets & Ballet",
      "slug": "blood-bullets-and-ballet",
      "service": "igdb"
    }
  ],
  "aliases": [],
  "shaders": [],
  "discord_id": "",
  "change_for": null
}