{
  "id": 131958,
  "name": "Magic Exposure: Yuri Visual Novel",
  "slug": "magic-exposure-yuri-visual-novel",
  "year": null,
  "banner_url": "",
  "icon_url": "",
  "coverart": "https://lutris.net/media/igdb/cover_big/co3ard.jpg",
  "platforms": [],
  "provider_games": [
    {
      "name": "Magic Exposure: Yuri Visual Novel",
      "slug": "magic-exposure-yuri-visual-novel",
      "service": "igdb"
    }
  ],
  "aliases": [],
  "shaders": [],
  "discord_id": "",
  "change_for": null
}