{
  "id": 234867,
  "name": "Great Warriors",
  "slug": "great-warriors",
  "year": 2021,
  "banner_url": "",
  "icon_url": "",
  "coverart": null,
  "platforms": [
    {
      "name": "Windows"
    }
  ],
  "provider_games": [
    {
      "name": "Great Warriors",
      "slug": "great-warriors",
      "service": "igdb"
    }
  ],
  "aliases": [],
  "shaders": [],
  "discord_id": "",
  "change_for": null
}