{
  "id": 176614,
  "name": "Grotto",
  "slug": "grotto",
  "year": 2021,
  "banner_url": "https://lutris.net/games/banner/grotto.jpg",
  "icon_url": "",
  "coverart": "https://lutris.net/media/igdb/cover_big/co2ye8.jpg",
  "platforms": [
    {
      "name": "Nintendo Switch"
    },
    {
      "name": "Sony Playstation 4"
    },
    {
      "name": "Windows"
    },
    {
      "name": "Xbox One"
    }
  ],
  "provider_games": [
    {
      "name": "Grotto",
      "slug": "1330646559",
      "service": "gog"
    },
    {
      "name": "Grotto",
      "slug": "grotto",
      "service": "igdb"
    },
    {
      "name": "Grotto",
      "slug": "1538850",
      "service": "steam"
    }
  ],
  "aliases": [],
  "shaders": [],
  "discord_id": "",
  "change_for": null
}