{
  "id": 281597,
  "name": "Lurking for Love",
  "slug": "lurking-for-love",
  "year": null,
  "banner_url": "",
  "icon_url": "",
  "coverart": "https://lutris.net/media/igdb/cover_big/co8342.jpg",
  "platforms": [],
  "provider_games": [
    {
      "name": "Lurking for Love",
      "slug": "lurking-for-love",
      "service": "igdb"
    }
  ],
  "aliases": [],
  "shaders": [],
  "discord_id": "",
  "change_for": null
}