{
  "id": 164350,
  "name": "Glider Sim",
  "slug": "glider-sim",
  "year": null,
  "banner_url": "",
  "icon_url": "",
  "coverart": "https://lutris.net/media/igdb/cover_big/co41b8.jpg",
  "platforms": [],
  "provider_games": [
    {
      "name": "Glider Sim",
      "slug": "glider-sim",
      "service": "igdb"
    }
  ],
  "aliases": [],
  "shaders": [],
  "discord_id": "",
  "change_for": null
}