{
  "id": 82649,
  "name": "city of lambs",
  "slug": "city-of-lambs",
  "year": null,
  "banner_url": "",
  "icon_url": "",
  "coverart": "https://lutris.net/media/igdb/cover_big/v9ej3mi8ckxliuvjvlv6.jpg",
  "platforms": [],
  "provider_games": [
    {
      "name": "City of Lambs",
      "slug": "city-of-lambs",
      "service": "igdb"
    }
  ],
  "aliases": [],
  "shaders": [],
  "discord_id": "",
  "change_for": null
}