{
  "id": 175129,
  "name": "Bogey Blows Golf Simulator",
  "slug": "bogey-blows-golf-simulator",
  "year": null,
  "banner_url": "",
  "icon_url": "",
  "coverart": null,
  "platforms": [],
  "provider_games": [
    {
      "name": "Bogey Blows Golf Simulator",
      "slug": "bogey-blows-golf-simulator",
      "service": "igdb"
    }
  ],
  "aliases": [],
  "shaders": [],
  "discord_id": "",
  "change_for": null
}