{
  "id": 38428,
  "name": "Rising Hell",
  "slug": "rising-hell",
  "year": 2019,
  "banner_url": "https://lutris.net/games/banner/rising-hell.jpg",
  "icon_url": "https://lutris.net/games/icon/rising-hell.png",
  "coverart": "https://lutris.net/media/igdb/cover_big/co2f3r.jpg",
  "platforms": [
    {
      "name": "Nintendo Switch"
    },
    {
      "name": "Sony Playstation 4"
    },
    {
      "name": "Windows"
    },
    {
      "name": "Xbox One"
    }
  ],
  "provider_games": [
    {
      "name": "Rising Hell",
      "slug": "657000",
      "service": "steam"
    },
    {
      "name": "Rising Hell",
      "slug": "2004528134",
      "service": "gog"
    },
    {
      "name": "Rising Hell",
      "slug": "rising-hell",
      "service": "igdb"
    }
  ],
  "aliases": [],
  "shaders": [],
  "discord_id": "",
  "change_for": null
}