{
  "id": 37557,
  "game_id": 190511,
  "game_slug": "marvels-spider-man-miles-morales",
  "name": "Marvel's Spider-Man: Miles Morales",
  "year": 2020,
  "user": "sr98vn",
  "runner": "steam",
  "slug": "marvels-spider-man-miles-mora-steam",
  "version": "Steam",
  "description": "",
  "notes": "",
  "credits": "",
  "created_at": "2023-06-16T00:06:21.147655Z",
  "updated_at": "2023-06-16T00:06:21.147675Z",
  "draft": false,
  "published": true,
  "published_by": null,
  "rating": "",
  "is_playable": null,
  "steamid": 1817190,
  "gogid": null,
  "gogslug": "",
  "humbleid": "",
  "humblestoreid": "",
  "humblestoreid_real": "",
  "script": {
    "game": {
      "appid": 1817190
    }
  },
  "content": "game:\n  appid: 1817190\n",
  "discord_id": ""
}