{
  "id": 60517,
  "name": "Living Legends: Frozen Beauty",
  "slug": "living-legends-frozen-beauty",
  "year": 2016,
  "banner_url": "",
  "icon_url": "",
  "coverart": "https://lutris.net/media/igdb/cover_big/nfwbgboc5mzxgzailyam.jpg",
  "platforms": [
    {
      "name": "Android"
    },
    {
      "name": "Windows"
    }
  ],
  "provider_games": [
    {
      "name": "Living Legends: Frozen Beauty",
      "slug": "living-legends-frozen-beauty",
      "service": "igdb"
    }
  ],
  "aliases": [],
  "shaders": [],
  "discord_id": "",
  "change_for": null
}