{
  "id": 299491,
  "name": "Dragon Spirits in Fight",
  "slug": "dragon-spirits-in-fight",
  "year": null,
  "banner_url": "",
  "icon_url": "",
  "coverart": "https://lutris.net/media/igdb/cover_big/co8zc0.jpg",
  "platforms": [],
  "provider_games": [
    {
      "name": "Dragon Spirits in Fight",
      "slug": "dragon-spirits-in-fight",
      "service": "igdb"
    }
  ],
  "aliases": [],
  "shaders": [],
  "discord_id": "",
  "change_for": null
}