{
  "id": 243266,
  "name": "Spirit of the Backwaters",
  "slug": "spirit-of-the-backwaters",
  "year": null,
  "banner_url": "",
  "icon_url": "",
  "coverart": "https://lutris.net/media/igdb/cover_big/co6fwu.jpg",
  "platforms": [],
  "provider_games": [
    {
      "name": "Spirit of the Backwaters",
      "slug": "spirit-of-the-backwaters",
      "service": "igdb"
    }
  ],
  "aliases": [],
  "shaders": [],
  "discord_id": "",
  "change_for": null
}