{
  "id": 71286,
  "name": "Diabolika",
  "slug": "diabolika",
  "year": 2009,
  "banner_url": "",
  "icon_url": "",
  "coverart": "https://lutris.net/media/igdb/cover_big/w6t7mrdewbnqkeeynlrc.jpg",
  "platforms": [],
  "provider_games": [
    {
      "name": "Diabolika",
      "slug": "diabolika",
      "service": "igdb"
    }
  ],
  "aliases": [],
  "shaders": [],
  "discord_id": "",
  "change_for": null
}