{
  "id": 66484,
  "name": "Playhouse Disney: Stanley Tiger Tales",
  "slug": "playhouse-disney-stanley-tiger-tales",
  "year": 2001,
  "banner_url": "",
  "icon_url": "",
  "coverart": "https://lutris.net/media/igdb/cover_big/co1w22.jpg",
  "platforms": [
    {
      "name": "Mac"
    },
    {
      "name": "Windows"
    }
  ],
  "provider_games": [
    {
      "name": "Playhouse Disney: Stanley Tiger Tales",
      "slug": "playhouse-disney-stanley-tiger-tales",
      "service": "igdb"
    }
  ],
  "aliases": [],
  "shaders": [],
  "discord_id": "",
  "change_for": null
}