{
  "id": 63370,
  "name": "NewU Fitness First Personal Trainer",
  "slug": "newu-fitness-first-personal-trainer",
  "year": null,
  "banner_url": "",
  "icon_url": "",
  "coverart": "https://lutris.net/media/igdb/cover_big/co2d0h.jpg",
  "platforms": [],
  "provider_games": [
    {
      "name": "NewU Fitness First Personal Trainer",
      "slug": "newu-fitness-first-personal-trainer",
      "service": "igdb"
    }
  ],
  "aliases": [],
  "shaders": [],
  "discord_id": "",
  "change_for": null
}