{
  "id": 38756,
  "name": "Hello Charlotte: Requiem Aeternam Deo",
  "slug": "hello-charlotte-requiem-aeternam-deo",
  "year": 2016,
  "banner_url": "https://lutris.net/games/banner/hello-charlotte-requiem-aeternam-deo.jpg",
  "icon_url": "",
  "coverart": null,
  "platforms": [
    {
      "name": "Windows"
    }
  ],
  "provider_games": [],
  "aliases": [],
  "shaders": [],
  "discord_id": "",
  "change_for": null
}