{
  "id": 73117,
  "name": "Monster Galaxy: The Zodiac Islands",
  "slug": "monster-galaxy-the-zodiac-islands",
  "year": null,
  "banner_url": "",
  "icon_url": "",
  "coverart": "https://lutris.net/media/igdb/cover_big/co94qa.jpg",
  "platforms": [],
  "provider_games": [
    {
      "name": "Monster Galaxy: The Zodiac Islands",
      "slug": "monster-galaxy-the-zodiac-islands",
      "service": "igdb"
    }
  ],
  "aliases": [],
  "shaders": [],
  "discord_id": "",
  "change_for": null
}