{
  "id": 268875,
  "name": "Ocean Mirror",
  "slug": "ocean-mirror",
  "year": null,
  "banner_url": "",
  "icon_url": "",
  "coverart": "https://lutris.net/media/igdb/cover_big/co7j5h.jpg",
  "platforms": [],
  "provider_games": [
    {
      "name": "Ocean Mirror",
      "slug": "ocean-mirror",
      "service": "igdb"
    }
  ],
  "aliases": [],
  "shaders": [],
  "discord_id": "",
  "change_for": null
}