{
  "id": 23550,
  "name": "Mr. Sweet",
  "slug": "mr-sweet",
  "year": null,
  "banner_url": "https://lutris.net/games/banner/mr-sweet.jpg",
  "icon_url": "https://lutris.net/games/icon/mr-sweet.png",
  "coverart": null,
  "platforms": [],
  "provider_games": [
    {
      "name": "Mr. Sweet",
      "slug": "839230",
      "service": "steam"
    },
    {
      "name": "Mr. Sweet",
      "slug": "mr-sweet",
      "service": "igdb"
    }
  ],
  "aliases": [],
  "shaders": [],
  "discord_id": "",
  "change_for": null
}