{
  "id": 65771,
  "name": "Starships Unlimited",
  "slug": "starships-unlimited",
  "year": null,
  "banner_url": "",
  "icon_url": "",
  "coverart": null,
  "platforms": [],
  "provider_games": [
    {
      "name": "Starships Unlimited",
      "slug": "starships-unlimited",
      "service": "igdb"
    }
  ],
  "aliases": [],
  "shaders": [],
  "discord_id": "",
  "change_for": null
}