{
  "id": 190271,
  "name": "Wrath of the Mad King",
  "slug": "wrath-of-the-mad-king",
  "year": 2022,
  "banner_url": "",
  "icon_url": "",
  "coverart": "https://lutris.net/media/igdb/cover_big/co3nfa.jpg",
  "platforms": [
    {
      "name": "Mac"
    },
    {
      "name": "Windows"
    }
  ],
  "provider_games": [
    {
      "name": "Wrath of the Mad King",
      "slug": "wrath-of-the-mad-king",
      "service": "igdb"
    }
  ],
  "aliases": [],
  "shaders": [],
  "discord_id": "",
  "change_for": null
}