{
  "id": 306936,
  "name": "Polygon Wars",
  "slug": "polygon-wars",
  "year": null,
  "banner_url": "",
  "icon_url": "",
  "coverart": null,
  "platforms": [],
  "provider_games": [
    {
      "name": "Polygon Wars",
      "slug": "polygon-wars",
      "service": "igdb"
    }
  ],
  "aliases": [],
  "shaders": [],
  "discord_id": "",
  "change_for": null
}