{
  "id": 266455,
  "name": "Banana Quest",
  "slug": "banana-quest--1",
  "year": 1996,
  "banner_url": "",
  "icon_url": "",
  "coverart": "https://lutris.net/media/igdb/cover_big/co7dmd.jpg",
  "platforms": [],
  "provider_games": [
    {
      "name": "Banana Quest",
      "slug": "banana-quest--1",
      "service": "igdb"
    }
  ],
  "aliases": [],
  "shaders": [],
  "discord_id": "",
  "change_for": null
}