{
  "id": 162838,
  "name": "When The Night Comes",
  "slug": "when-the-night-comes",
  "year": 2018,
  "banner_url": "https://lutris.net/games/banner/when-the-night-comes.jpg",
  "icon_url": "",
  "coverart": "https://lutris.net/media/igdb/cover_big/co3n5d.jpg",
  "platforms": [
    {
      "name": "Linux"
    },
    {
      "name": "Mac"
    },
    {
      "name": "Windows"
    }
  ],
  "provider_games": [
    {
      "name": "When The Night Comes",
      "slug": "1400870",
      "service": "steam"
    },
    {
      "name": "When the Night Comes",
      "slug": "when-the-night-comes",
      "service": "igdb"
    }
  ],
  "aliases": [],
  "shaders": [],
  "discord_id": "",
  "change_for": null
}