{
  "id": 176821,
  "name": "Tony Hawk's Proving Ground",
  "slug": "tony-hawk-s-proving-ground",
  "year": 2007,
  "banner_url": "",
  "icon_url": "",
  "coverart": "https://lutris.net/media/igdb/cover_big/co2dso.jpg",
  "platforms": [
    {
      "name": "Nintendo DS"
    },
    {
      "name": "Nintendo Wii"
    },
    {
      "name": "Sony PlayStation 2"
    },
    {
      "name": "Sony Playstation 3"
    },
    {
      "name": "Xbox 360"
    }
  ],
  "provider_games": [
    {
      "name": "Tony Hawk's Proving Ground",
      "slug": "tony-hawk-s-proving-ground",
      "service": "igdb"
    }
  ],
  "aliases": [],
  "shaders": [],
  "discord_id": "",
  "change_for": null
}