{
  "id": 30516,
  "name": "Overtake",
  "slug": "overtake",
  "year": 1992,
  "banner_url": "https://lutris.net/games/banner/overtake.jpg",
  "icon_url": "",
  "coverart": "https://lutris.net/media/igdb/cover_big/co1ygc.jpg",
  "platforms": [
    {
      "name": "X68000"
    }
  ],
  "provider_games": [
    {
      "name": "Overtake",
      "slug": "overtake",
      "service": "igdb"
    }
  ],
  "aliases": [],
  "shaders": [],
  "discord_id": "",
  "change_for": null
}