{
  "id": 194852,
  "name": "Chalkboard Pinball",
  "slug": "chalkboard-pinball",
  "year": 2015,
  "banner_url": "",
  "icon_url": "",
  "coverart": "https://lutris.net/media/igdb/cover_big/co84pg.jpg",
  "platforms": [],
  "provider_games": [
    {
      "name": "Chalkboard Pinball",
      "slug": "chalkboard-pinball",
      "service": "igdb"
    }
  ],
  "aliases": [],
  "shaders": [],
  "discord_id": "",
  "change_for": null
}