{
  "id": 57137,
  "name": "Battle Dodge Ball 3",
  "slug": "battle-dodge-ball-3",
  "year": null,
  "banner_url": "",
  "icon_url": "",
  "coverart": "https://lutris.net/media/igdb/cover_big/i16ams18wsdjfsrgcp4h.jpg",
  "platforms": [],
  "provider_games": [
    {
      "name": "Battle Dodge Ball 3",
      "slug": "battle-dodge-ball-3",
      "service": "igdb"
    }
  ],
  "aliases": [],
  "shaders": [],
  "discord_id": "",
  "change_for": null
}