{
  "id": 13051,
  "name": "Ascender",
  "slug": "ascender",
  "year": 2017,
  "banner_url": "https://lutris.net/games/banner/ascender.jpg",
  "icon_url": "https://lutris.net/games/icon/ascender.png",
  "coverart": "https://lutris.net/media/igdb/cover_big/co28a1.jpg",
  "platforms": [
    {
      "name": "Linux"
    },
    {
      "name": "Mac"
    },
    {
      "name": "Windows"
    }
  ],
  "provider_games": [
    {
      "name": "Ascender",
      "slug": "598230",
      "service": "steam"
    },
    {
      "name": "Ascender",
      "slug": "ascender",
      "service": "igdb"
    }
  ],
  "aliases": [],
  "shaders": [],
  "discord_id": "",
  "change_for": null
}