{
  "id": 172117,
  "name": "Red Faction: Battlegrounds",
  "slug": "red-faction-battlegrounds",
  "year": 2011,
  "banner_url": "",
  "icon_url": "",
  "coverart": "https://lutris.net/media/igdb/cover_big/ksql3wo8zelpgbcpnn5w.jpg",
  "platforms": [
    {
      "name": "Sony Playstation 3"
    },
    {
      "name": "Windows"
    },
    {
      "name": "Xbox 360"
    }
  ],
  "provider_games": [
    {
      "name": "Red Faction: Battlegrounds",
      "slug": "red-faction-battlegrounds",
      "service": "igdb"
    }
  ],
  "aliases": [],
  "shaders": [],
  "discord_id": "",
  "change_for": null
}