{
  "id": 186874,
  "name": "Paralyzis",
  "slug": "paralyzis",
  "year": null,
  "banner_url": "",
  "icon_url": "",
  "coverart": null,
  "platforms": [],
  "provider_games": [
    {
      "name": "Paralyzis",
      "slug": "paralyzis",
      "service": "igdb"
    }
  ],
  "aliases": [],
  "shaders": [],
  "discord_id": "",
  "change_for": null
}