{
  "id": 46347,
  "name": "Skateboard Party 2",
  "slug": "skateboard-party-2",
  "year": null,
  "banner_url": "",
  "icon_url": "",
  "coverart": "https://lutris.net/media/igdb/cover_big/pwliknsq5qggu4tcrwlg.jpg",
  "platforms": [],
  "provider_games": [
    {
      "name": "Skateboard Party 2",
      "slug": "skateboard-party-2",
      "service": "igdb"
    }
  ],
  "aliases": [],
  "shaders": [],
  "discord_id": "",
  "change_for": null
}