{
  "id": 291645,
  "name": "Getaway Grand Prix",
  "slug": "getaway-grand-prix",
  "year": null,
  "banner_url": "",
  "icon_url": "",
  "coverart": "https://lutris.net/media/igdb/cover_big/co8kev.jpg",
  "platforms": [],
  "provider_games": [
    {
      "name": "Getaway Grand Prix",
      "slug": "getaway-grand-prix",
      "service": "igdb"
    }
  ],
  "aliases": [],
  "shaders": [],
  "discord_id": "",
  "change_for": null
}