{
  "id": 301758,
  "name": "Last Pickup",
  "slug": "last-pickup",
  "year": null,
  "banner_url": "",
  "icon_url": "",
  "coverart": "https://lutris.net/media/igdb/cover_big/co934i.jpg",
  "platforms": [],
  "provider_games": [
    {
      "name": "Last Pickup",
      "slug": "last-pickup",
      "service": "igdb"
    }
  ],
  "aliases": [],
  "shaders": [],
  "discord_id": "",
  "change_for": null
}