{
  "id": 261636,
  "name": "Machine Fable",
  "slug": "machine-fable",
  "year": null,
  "banner_url": "",
  "icon_url": "",
  "coverart": "https://lutris.net/media/igdb/cover_big/co76j3.jpg",
  "platforms": [],
  "provider_games": [
    {
      "name": "Machine Fable",
      "slug": "machine-fable",
      "service": "igdb"
    }
  ],
  "aliases": [],
  "shaders": [],
  "discord_id": "",
  "change_for": null
}