{
  "id": 95633,
  "name": "Silent Depth Submarine Sim",
  "slug": "silent-depth-submarine-sim",
  "year": null,
  "banner_url": "",
  "icon_url": "",
  "coverart": null,
  "platforms": [],
  "provider_games": [
    {
      "name": "Silent Depth Submarine Sim",
      "slug": "silent-depth-submarine-sim",
      "service": "igdb"
    }
  ],
  "aliases": [],
  "shaders": [],
  "discord_id": "",
  "change_for": null
}