{
  "id": 11790,
  "game_id": 14248,
  "game_slug": "jydge",
  "name": "JYDGE",
  "year": 2017,
  "user": "Nobu",
  "runner": "linux",
  "slug": "jydge-gog",
  "version": "GOG",
  "description": null,
  "notes": "",
  "credits": "",
  "created_at": "2019-02-01T00:25:11.992000Z",
  "updated_at": "2019-03-30T00:24:00.578353Z",
  "draft": false,
  "published": true,
  "published_by": 19464,
  "rating": "",
  "is_playable": null,
  "steamid": 654050,
  "gogid": 1352176936,
  "gogslug": "jydge",
  "humbleid": "drmfreebuilds_z67zk",
  "humblestoreid": "drmfreebuilds_z67zk",
  "humblestoreid_real": "jydge",
  "script": {
    "files": [
      {
        "goginstaller": "N/A:Please select the GOG.com Linux installer"
      }
    ],
    "game": {
      "exe": "start.sh"
    },
    "installer": [
      {
        "extract": {
          "dst": "$CACHE/GOG",
          "file": "goginstaller",
          "format": "zip"
        }
      },
      {
        "merge": {
          "dst": "$GAMEDIR",
          "src": "$CACHE/GOG/data/noarch/"
        }
      }
    ]
  },
  "content": "files:\n- goginstaller: N/A:Please select the GOG.com Linux installer\ngame:\n  exe: start.sh\ninstaller:\n- extract:\n    dst: $CACHE/GOG\n    file: goginstaller\n    format: zip\n- merge:\n    dst: $GAMEDIR\n    src: $CACHE/GOG/data/noarch/\n",
  "discord_id": ""
}