{
  "id": 54196,
  "name": "Shin Ikkaku Senkin",
  "slug": "shin-ikkaku-senkin",
  "year": 1995,
  "banner_url": "",
  "icon_url": "",
  "coverart": "https://lutris.net/media/igdb/cover_big/bnilwztj0psmwfdqwop9.jpg",
  "platforms": [
    {
      "name": "Super Nintendo"
    }
  ],
  "provider_games": [
    {
      "name": "Shin Ikkaku Senkin",
      "slug": "shin-ikkaku-senkin",
      "service": "igdb"
    }
  ],
  "aliases": [],
  "shaders": [],
  "discord_id": "",
  "change_for": null
}