{
  "id": 235804,
  "name": "Kaikyuu no Eshi",
  "slug": "kaikyuu-no-eshi",
  "year": null,
  "banner_url": "",
  "icon_url": "",
  "coverart": "https://lutris.net/media/igdb/cover_big/co67a3.jpg",
  "platforms": [],
  "provider_games": [
    {
      "name": "Kaikyuu no Eshi",
      "slug": "kaikyuu-no-eshi",
      "service": "igdb"
    }
  ],
  "aliases": [],
  "shaders": [],
  "discord_id": "",
  "change_for": null
}