{
  "id": 87569,
  "name": "Souptoys",
  "slug": "souptoys",
  "year": null,
  "banner_url": "",
  "icon_url": "",
  "coverart": "https://lutris.net/media/igdb/cover_big/xblcmgglmhwuxvn5rz0s.jpg",
  "platforms": [],
  "provider_games": [
    {
      "name": "Souptoys",
      "slug": "souptoys",
      "service": "igdb"
    }
  ],
  "aliases": [],
  "shaders": [],
  "discord_id": "",
  "change_for": null
}