{
  "id": 10640,
  "name": "Puzzle Chronicles",
  "slug": "puzzle-chronicles",
  "year": 2010,
  "banner_url": "https://lutris.net/games/banner/puzzle-chronicles.jpg",
  "icon_url": "https://lutris.net/games/icon/puzzle-chronicles.png",
  "coverart": "https://lutris.net/media/igdb/cover_big/co2d2j.jpg",
  "platforms": [
    {
      "name": "Linux"
    },
    {
      "name": "Nintendo DS"
    },
    {
      "name": "Sony Playstation 3"
    },
    {
      "name": "Sony PSP"
    },
    {
      "name": "Windows"
    },
    {
      "name": "Xbox 360"
    }
  ],
  "provider_games": [
    {
      "name": "Puzzle Chronicles",
      "slug": "19020",
      "service": "steam"
    },
    {
      "name": "Puzzle Chronicles",
      "slug": "puzzle-chronicles",
      "service": "igdb"
    }
  ],
  "aliases": [],
  "shaders": [],
  "discord_id": "",
  "change_for": null
}