{
  "id": 216350,
  "name": "World At War 85 Digital",
  "slug": "world-at-war-85-digital",
  "year": null,
  "banner_url": "",
  "icon_url": "",
  "coverart": "https://lutris.net/media/igdb/cover_big/co57ys.jpg",
  "platforms": [],
  "provider_games": [
    {
      "name": "World At War 85 Digital",
      "slug": "world-at-war-85-digital",
      "service": "igdb"
    }
  ],
  "aliases": [],
  "shaders": [],
  "discord_id": "",
  "change_for": null
}