{
  "id": 3798,
  "name": "Ostrich Island",
  "slug": "ostrich-island",
  "year": 2015,
  "banner_url": "https://lutris.net/games/banner/ostrich-island.jpg",
  "icon_url": "",
  "coverart": "https://lutris.net/media/igdb/cover_big/gleb5booczhnpehzfwhl.jpg",
  "platforms": [
    {
      "name": "Linux"
    },
    {
      "name": "Mac"
    },
    {
      "name": "Windows"
    },
    {
      "name": "Xbox One"
    }
  ],
  "provider_games": [
    {
      "name": "Ostrich Island",
      "slug": "337270",
      "service": "steam"
    },
    {
      "name": "Ostrich Island",
      "slug": "ostrich-island",
      "service": "igdb"
    }
  ],
  "aliases": [],
  "shaders": [],
  "discord_id": "",
  "change_for": null
}