{
  "id": 285137,
  "name": "Slide Puzzle World History",
  "slug": "slide-puzzle-world-history",
  "year": 2024,
  "banner_url": "",
  "icon_url": "",
  "coverart": "https://lutris.net/media/igdb/cover_big/co879w.jpg",
  "platforms": [
    {
      "name": "Nintendo Switch"
    }
  ],
  "provider_games": [
    {
      "name": "Slide Puzzle World History",
      "slug": "slide-puzzle-world-history",
      "service": "igdb"
    }
  ],
  "aliases": [],
  "shaders": [],
  "discord_id": "",
  "change_for": null
}