{
  "id": 133843,
  "name": "Artificiality-人造物-",
  "slug": "artificiality-ren-zao-wu",
  "year": null,
  "banner_url": "",
  "icon_url": "",
  "coverart": "https://lutris.net/media/igdb/cover_big/co3loc.jpg",
  "platforms": [],
  "provider_games": [
    {
      "name": "Artificiality-人造物-",
      "slug": "artificiality-ren-zao-wu",
      "service": "igdb"
    }
  ],
  "aliases": [],
  "shaders": [],
  "discord_id": "",
  "change_for": null
}