{
  "id": 148661,
  "name": "Planetoid Pioneers Online",
  "slug": "planetoid-pioneers-online",
  "year": null,
  "banner_url": "",
  "icon_url": "",
  "coverart": "https://lutris.net/media/igdb/cover_big/co3vf6.jpg",
  "platforms": [],
  "provider_games": [
    {
      "name": "Planetoid Pioneers Online",
      "slug": "planetoid-pioneers-online",
      "service": "igdb"
    }
  ],
  "aliases": [],
  "shaders": [],
  "discord_id": "",
  "change_for": null
}