{
  "id": 28611,
  "name": "Reformers Intl Ver",
  "slug": "reformers-intl-ver",
  "year": 2018,
  "banner_url": "https://lutris.net/games/banner/reformers-intl-ver.jpg",
  "icon_url": "https://lutris.net/games/icon/reformers-intl-ver.png",
  "coverart": "https://lutris.net/media/igdb/cover_big/co3ye5.jpg",
  "platforms": [
    {
      "name": "Windows"
    }
  ],
  "provider_games": [
    {
      "name": "Reformers Intl Ver",
      "slug": "865180",
      "service": "steam"
    },
    {
      "name": "Reformers Intl Ver",
      "slug": "reformers-intl-ver",
      "service": "igdb"
    }
  ],
  "aliases": [],
  "shaders": [],
  "discord_id": "",
  "change_for": null
}