{
  "id": 303235,
  "name": "Wallace & Gromit Adventures",
  "slug": "wallace-and-gromit-adventures",
  "year": 2009,
  "banner_url": "",
  "icon_url": "",
  "coverart": "https://lutris.net/media/igdb/cover_big/co8zmk.jpg",
  "platforms": [
    {
      "name": "Legacy Cellphone"
    }
  ],
  "provider_games": [
    {
      "name": "Wallace & Gromit Adventures",
      "slug": "wallace-and-gromit-adventures",
      "service": "igdb"
    }
  ],
  "aliases": [],
  "shaders": [],
  "discord_id": "",
  "change_for": null
}