{
  "id": 141906,
  "name": "VR Horror Survival Zombie Battle",
  "slug": "vr-horror-survival-zombie-battle",
  "year": 2021,
  "banner_url": "",
  "icon_url": "",
  "coverart": "https://lutris.net/media/igdb/cover_big/co3t5q.jpg",
  "platforms": [
    {
      "name": "Windows"
    }
  ],
  "provider_games": [
    {
      "name": "VR Horror Survival Zombie Battle",
      "slug": "vr-horror-survival-zombie-battle",
      "service": "igdb"
    }
  ],
  "aliases": [],
  "shaders": [],
  "discord_id": "",
  "change_for": null
}