{
  "id": 122777,
  "name": "MEET.HUNTER",
  "slug": "meet-dot-hunter",
  "year": 2018,
  "banner_url": "",
  "icon_url": "",
  "coverart": null,
  "platforms": [
    {
      "name": "Windows"
    }
  ],
  "provider_games": [
    {
      "name": "Meet.Hunter",
      "slug": "meet-dot-hunter",
      "service": "igdb"
    }
  ],
  "aliases": [],
  "shaders": [],
  "discord_id": "",
  "change_for": null
}