{
  "id": 24135,
  "name": "Steel Rats",
  "slug": "steel-rats",
  "year": 2018,
  "banner_url": "https://lutris.net/games/banner/steel-rats.jpg",
  "icon_url": "",
  "coverart": "https://lutris.net/media/igdb/cover_big/co24a0.jpg",
  "platforms": [
    {
      "name": "Sony Playstation 4"
    },
    {
      "name": "Windows"
    },
    {
      "name": "Xbox One"
    }
  ],
  "provider_games": [
    {
      "name": "Steel Rats™",
      "slug": "1452983471",
      "service": "gog"
    },
    {
      "name": "Steel Rats™ Demo",
      "slug": "1519056121",
      "service": "gog"
    },
    {
      "name": "Steel Rats",
      "slug": "steel-rats",
      "service": "igdb"
    },
    {
      "name": "Steel Rats",
      "slug": "619700",
      "service": "steam"
    }
  ],
  "aliases": [],
  "shaders": [],
  "discord_id": "",
  "change_for": null
}