{
  "id": 90608,
  "name": "Flying Duckling",
  "slug": "flying-duckling",
  "year": null,
  "banner_url": "",
  "icon_url": "",
  "coverart": null,
  "platforms": [],
  "provider_games": [
    {
      "name": "Flying Duckling",
      "slug": "flying-duckling",
      "service": "igdb"
    }
  ],
  "aliases": [],
  "shaders": [],
  "discord_id": "",
  "change_for": null
}