{
  "id": 287251,
  "name": "A Kiss Of Salt Water",
  "slug": "a-kiss-of-salt-water",
  "year": 2023,
  "banner_url": "",
  "icon_url": "",
  "coverart": "https://lutris.net/media/igdb/cover_big/co88lr.jpg",
  "platforms": [
    {
      "name": "Commodore C64/128"
    }
  ],
  "provider_games": [
    {
      "name": "A Kiss Of Salt Water",
      "slug": "a-kiss-of-salt-water",
      "service": "igdb"
    }
  ],
  "aliases": [],
  "shaders": [],
  "discord_id": "",
  "change_for": null
}