{
  "id": 203772,
  "name": "Project Shanto Rancher",
  "slug": "project-shanto-rancher",
  "year": null,
  "banner_url": "",
  "icon_url": "",
  "coverart": "https://lutris.net/media/igdb/cover_big/co4eeh.jpg",
  "platforms": [],
  "provider_games": [
    {
      "name": "Project Shanto Rancher",
      "slug": "project-shanto-rancher",
      "service": "igdb"
    }
  ],
  "aliases": [],
  "shaders": [],
  "discord_id": "",
  "change_for": null
}