{
  "id": 195862,
  "name": "DarkOrbit: Reloaded",
  "slug": "darkorbit-reloaded",
  "year": null,
  "banner_url": "",
  "icon_url": "",
  "coverart": null,
  "platforms": [
    {
      "name": "Windows"
    }
  ],
  "provider_games": [
    {
      "name": "DarkOrbit: Reloaded",
      "slug": "darkorbit-reloaded",
      "service": "igdb"
    }
  ],
  "aliases": [],
  "shaders": [],
  "discord_id": "",
  "change_for": null
}