{
  "id": 217207,
  "name": "Petz: My Baby Panda",
  "slug": "petz-my-baby-panda",
  "year": null,
  "banner_url": "",
  "icon_url": "",
  "coverart": "https://lutris.net/media/igdb/cover_big/co55s6.jpg",
  "platforms": [
    {
      "name": "Nintendo DS"
    }
  ],
  "provider_games": [
    {
      "name": "Petz: My Baby Panda",
      "slug": "petz-my-baby-panda",
      "service": "igdb"
    }
  ],
  "aliases": [],
  "shaders": [],
  "discord_id": "",
  "change_for": null
}