{
  "id": 39944,
  "name": "Dungeon Siege: Legends of Aranna",
  "slug": "dungeon-siege-legends-of-aranna",
  "year": 2003,
  "banner_url": "https://lutris.net/games/banner/dungeon-siege-legends-of-aranna.jpg",
  "icon_url": "",
  "coverart": "https://lutris.net/media/igdb/cover_big/co25oz.jpg",
  "platforms": [
    {
      "name": "Windows"
    }
  ],
  "provider_games": [
    {
      "name": "Dungeon Siege: Legends of Aranna",
      "slug": "dungeon-siege-legends-of-aranna",
      "service": "igdb"
    }
  ],
  "aliases": [],
  "shaders": [],
  "discord_id": "",
  "change_for": null
}