{
  "id": 91576,
  "name": "Jetpack Jake!",
  "slug": "jetpack-jake",
  "year": null,
  "banner_url": "",
  "icon_url": "",
  "coverart": null,
  "platforms": [],
  "provider_games": [
    {
      "name": "Jetpack Jake!",
      "slug": "jetpack-jake",
      "service": "igdb"
    }
  ],
  "aliases": [],
  "shaders": [],
  "discord_id": "",
  "change_for": null
}