{
  "id": 281132,
  "name": "The Death of Rebirth",
  "slug": "the-death-of-rebirth",
  "year": null,
  "banner_url": "",
  "icon_url": "",
  "coverart": "https://lutris.net/media/igdb/cover_big/co7zn7.jpg",
  "platforms": [],
  "provider_games": [
    {
      "name": "The Death of Rebirth",
      "slug": "the-death-of-rebirth",
      "service": "igdb"
    }
  ],
  "aliases": [],
  "shaders": [],
  "discord_id": "",
  "change_for": null
}