{
  "id": 13511,
  "name": "The Assembly",
  "slug": "the-assembly",
  "year": 2016,
  "banner_url": "https://lutris.net/games/banner/the-assembly.jpg",
  "icon_url": "https://lutris.net/games/icon/the-assembly.png",
  "coverart": "https://lutris.net/media/igdb/cover_big/co23bn.jpg",
  "platforms": [
    {
      "name": "Oculus Rift"
    },
    {
      "name": "PlayStation VR"
    },
    {
      "name": "Sony Playstation 4"
    },
    {
      "name": "SteamVR"
    },
    {
      "name": "Windows"
    },
    {
      "name": "Xbox One"
    }
  ],
  "provider_games": [
    {
      "name": "The Assembly",
      "slug": "373650",
      "service": "steam"
    },
    {
      "name": "The Assembly",
      "slug": "the-assembly",
      "service": "igdb"
    }
  ],
  "aliases": [],
  "shaders": [],
  "discord_id": "",
  "change_for": null
}