{
  "id": 1932,
  "name": "Hinterland",
  "slug": "hinterland",
  "year": 2008,
  "banner_url": "https://lutris.net/games/banner/hinterland.jpg",
  "icon_url": "https://lutris.net/games/icon/hinterland.png",
  "coverart": "https://lutris.net/media/igdb/cover_big/co2n1r.jpg",
  "platforms": [
    {
      "name": "Windows"
    }
  ],
  "provider_games": [
    {
      "name": "Hinterland",
      "slug": "17140",
      "service": "steam"
    },
    {
      "name": "Hinterland",
      "slug": "hinterland",
      "service": "igdb"
    }
  ],
  "aliases": [],
  "shaders": [],
  "discord_id": "",
  "change_for": null
}