{
  "id": 58516,
  "name": "Campaign Series: Middle East 1948-1985",
  "slug": "campaign-series-middle-east-1948-1985",
  "year": 2015,
  "banner_url": "",
  "icon_url": "",
  "coverart": "https://lutris.net/media/igdb/cover_big/co1ymg.jpg",
  "platforms": [
    {
      "name": "Windows"
    }
  ],
  "provider_games": [
    {
      "name": "Campaign Series: Middle East 1948-1985",
      "slug": "campaign-series-middle-east-1948-1985",
      "service": "igdb"
    }
  ],
  "aliases": [],
  "shaders": [],
  "discord_id": "",
  "change_for": null
}