{
  "id": 79689,
  "name": "Mujintou Monogatari 4",
  "slug": "mujintou-monogatari-4",
  "year": 1998,
  "banner_url": "",
  "icon_url": "",
  "coverart": "https://lutris.net/media/igdb/cover_big/dapeq2fmxpxnu8wozvcq.jpg",
  "platforms": [
    {
      "name": "Windows"
    }
  ],
  "provider_games": [
    {
      "name": "Mujintou Monogatari 4",
      "slug": "mujintou-monogatari-4",
      "service": "igdb"
    }
  ],
  "aliases": [],
  "shaders": [],
  "discord_id": "",
  "change_for": null
}