{
  "id": 207816,
  "name": "Hokuto no Ken 4: Shichisei Hakenden - Hokuto Shinken no Kanata he",
  "slug": "hokuto-no-ken-4-shichisei-hakenden-hokuto-shinken-no-kanata-he",
  "year": 1991,
  "banner_url": "",
  "icon_url": "",
  "coverart": null,
  "platforms": [
    {
      "name": "Family Computer"
    }
  ],
  "provider_games": [
    {
      "name": "Hokuto no Ken 4: Shichisei Hakenden - Hokuto Shinken no Kanata he",
      "slug": "hokuto-no-ken-4-shichisei-hakenden-hokuto-shinken-no-kanata-he",
      "service": "igdb"
    }
  ],
  "aliases": [],
  "shaders": [],
  "discord_id": "",
  "change_for": null
}