{
  "id": 6592,
  "name": "Golf With Your Friends",
  "slug": "golf-with-your-friends",
  "year": 2016,
  "banner_url": "https://lutris.net/games/banner/golf-with-your-friends.jpg",
  "icon_url": "https://lutris.net/games/icon/golf-with-your-friends.png",
  "coverart": "https://lutris.net/media/igdb/cover_big/co2m85.jpg",
  "platforms": [
    {
      "name": "Linux"
    },
    {
      "name": "Mac"
    },
    {
      "name": "Nintendo Switch"
    },
    {
      "name": "Sony Playstation 4"
    },
    {
      "name": "Windows"
    },
    {
      "name": "Xbox One"
    }
  ],
  "provider_games": [
    {
      "name": "Golf With Your Friends",
      "slug": "431240",
      "service": "steam"
    },
    {
      "name": "Golf With Your Friends",
      "slug": "golf-with-your-friends",
      "service": "igdb"
    }
  ],
  "aliases": [],
  "shaders": [],
  "discord_id": "356954034701205504",
  "change_for": null
}