{
  "id": 91195,
  "name": "Dr. Panda Restaurant 3",
  "slug": "dr-panda-restaurant-3",
  "year": null,
  "banner_url": "",
  "icon_url": "",
  "coverart": null,
  "platforms": [],
  "provider_games": [
    {
      "name": "Dr. Panda Restaurant 3",
      "slug": "dr-panda-restaurant-3",
      "service": "igdb"
    }
  ],
  "aliases": [],
  "shaders": [],
  "discord_id": "",
  "change_for": null
}