{
  "id": 4202,
  "game_id": 2254,
  "game_slug": "unholy-heights",
  "name": "Unholy Heights",
  "year": 2013,
  "user": "FakeShemp",
  "runner": "wine",
  "slug": "unholy-heights-humble",
  "version": "Humble",
  "description": "",
  "notes": "",
  "credits": "",
  "created_at": "2017-06-07T22:06:13.816000Z",
  "updated_at": "2018-05-19T03:41:52.154545Z",
  "draft": false,
  "published": true,
  "published_by": null,
  "rating": "",
  "is_playable": null,
  "steamid": 249330,
  "gogid": 1207661823,
  "gogslug": "unholy_heights",
  "humbleid": "unholyheights",
  "humblestoreid": "unholyheights",
  "humblestoreid_real": "unholyheights",
  "script": {
    "files": [
      {
        "file1": "N/A:Please select the Humble archive"
      }
    ],
    "game": {
      "arch": "win32",
      "exe": "drive_c/Program Files/Unholy Heights/UnholyHeights.exe",
      "prefix": "$GAMEDIR"
    },
    "installer": [
      {
        "extract": {
          "dst": "$GAMEDIR/drive_c/Program Files/Unholy Heights",
          "file": "$file1"
        }
      },
      {
        "task": {
          "app": "xna40",
          "name": "winetricks",
          "prefix": "$GAMEDIR"
        }
      }
    ]
  },
  "content": "files:\n- file1: N/A:Please select the Humble archive\ngame:\n  arch: win32\n  exe: drive_c/Program Files/Unholy Heights/UnholyHeights.exe\n  prefix: $GAMEDIR\ninstaller:\n- extract:\n    dst: $GAMEDIR/drive_c/Program Files/Unholy Heights\n    file: $file1\n- task:\n    app: xna40\n    name: winetricks\n    prefix: $GAMEDIR\n",
  "discord_id": ""
}