{
  "id": 205483,
  "name": "Resident Evil Village Gold Edition Gameplay Demo",
  "slug": "resident-evil-village-gold-edition-gameplay-demo",
  "year": null,
  "banner_url": "https://lutris.net/games/banner/resident-evil-village-gold-edition-gameplay-demo.jpg",
  "icon_url": "https://lutris.net/games/icon/resident-evil-village-gold-edition-gameplay-demo.png",
  "coverart": null,
  "platforms": [],
  "provider_games": [
    {
      "name": "Resident Evil Village Gold Edition Gameplay Demo",
      "slug": "2062120",
      "service": "steam"
    }
  ],
  "aliases": [],
  "shaders": [],
  "discord_id": "",
  "change_for": null
}