{
  "id": 176714,
  "name": "It Came from the Desert",
  "slug": "it-came-from-the-desert",
  "year": 1989,
  "banner_url": "",
  "icon_url": "",
  "coverart": "https://lutris.net/media/igdb/cover_big/co323m.jpg",
  "platforms": [
    {
      "name": "Amiga"
    }
  ],
  "provider_games": [
    {
      "name": "It Came from the Desert",
      "slug": "it-came-from-the-desert",
      "service": "igdb"
    }
  ],
  "aliases": [],
  "shaders": [],
  "discord_id": "",
  "change_for": null
}