{
  "id": 70730,
  "name": "March! Offworld Recon",
  "slug": "march-offworld-recon",
  "year": null,
  "banner_url": "",
  "icon_url": "",
  "coverart": "https://lutris.net/media/igdb/cover_big/co9fqg.jpg",
  "platforms": [],
  "provider_games": [
    {
      "name": "March! Offworld Recon",
      "slug": "march-offworld-recon",
      "service": "igdb"
    }
  ],
  "aliases": [],
  "shaders": [],
  "discord_id": "",
  "change_for": null
}