{
  "id": 200206,
  "name": "Redemption Cemetery: Dead Park",
  "slug": "redemption-cemetery-dead-park",
  "year": null,
  "banner_url": "",
  "icon_url": "",
  "coverart": "https://lutris.net/media/igdb/cover_big/co4dy0.jpg",
  "platforms": [],
  "provider_games": [
    {
      "name": "Redemption Cemetery: Dead Park",
      "slug": "redemption-cemetery-dead-park",
      "service": "igdb"
    }
  ],
  "aliases": [],
  "shaders": [],
  "discord_id": "",
  "change_for": null
}