{
  "id": 282160,
  "name": "I Am Dog",
  "slug": "i-am-dog",
  "year": null,
  "banner_url": "",
  "icon_url": "",
  "coverart": "https://lutris.net/media/igdb/cover_big/co82fk.jpg",
  "platforms": [],
  "provider_games": [
    {
      "name": "I Am Dog",
      "slug": "i-am-dog",
      "service": "igdb"
    }
  ],
  "aliases": [],
  "shaders": [],
  "discord_id": "",
  "change_for": null
}