{
  "id": 30522,
  "name": "GODS Remastered",
  "slug": "gods-remastered",
  "year": 2018,
  "banner_url": "https://lutris.net/games/banner/gods-remastered.jpg",
  "icon_url": "https://lutris.net/games/icon/gods-remastered.png",
  "coverart": "https://lutris.net/media/igdb/cover_big/co27pc.jpg",
  "platforms": [
    {
      "name": "Mac"
    },
    {
      "name": "Nintendo Switch"
    },
    {
      "name": "Sony Playstation 4"
    },
    {
      "name": "Windows"
    },
    {
      "name": "Xbox One"
    }
  ],
  "provider_games": [
    {
      "name": "GODS Remastered",
      "slug": "628720",
      "service": "steam"
    },
    {
      "name": "Gods Remastered",
      "slug": "gods-remastered",
      "service": "igdb"
    }
  ],
  "aliases": [],
  "shaders": [],
  "discord_id": "",
  "change_for": null
}