{
  "id": 150579,
  "name": "Droid Guier",
  "slug": "droid-guier",
  "year": null,
  "banner_url": "",
  "icon_url": "",
  "coverart": "https://lutris.net/media/igdb/cover_big/co3ozo.jpg",
  "platforms": [],
  "provider_games": [
    {
      "name": "Droid Guier",
      "slug": "droid-guier",
      "service": "igdb"
    }
  ],
  "aliases": [],
  "shaders": [],
  "discord_id": "",
  "change_for": null
}