{
  "id": 223243,
  "name": "My High School Cat Girlfriend",
  "slug": "my-high-school-cat-girlfriend",
  "year": 2020,
  "banner_url": "",
  "icon_url": "",
  "coverart": "https://lutris.net/media/igdb/cover_big/co4wib.jpg",
  "platforms": [
    {
      "name": "Android"
    }
  ],
  "provider_games": [
    {
      "name": "My High School Cat Girlfriend",
      "slug": "my-high-school-cat-girlfriend",
      "service": "igdb"
    }
  ],
  "aliases": [],
  "shaders": [],
  "discord_id": "",
  "change_for": null
}