{
  "id": 144873,
  "name": "Tales of Symphonia: Dawn of the New World",
  "slug": "tales-of-symphonia-dawn-of-the-new-world",
  "year": 2008,
  "banner_url": "",
  "icon_url": "",
  "coverart": "https://lutris.net/media/igdb/cover_big/co1sue.jpg",
  "platforms": [
    {
      "name": "Nintendo Wii"
    },
    {
      "name": "Sony Playstation 3"
    }
  ],
  "provider_games": [
    {
      "name": "Tales of Symphonia: Dawn of the New World",
      "slug": "tales-of-symphonia-dawn-of-the-new-world",
      "service": "igdb"
    }
  ],
  "aliases": [],
  "shaders": [],
  "discord_id": "",
  "change_for": null
}