{
  "id": 146906,
  "name": "Grandia II HD Remaster",
  "slug": "grandia-ii-hd-remaster",
  "year": 2015,
  "banner_url": "",
  "icon_url": "",
  "coverart": "https://lutris.net/media/igdb/cover_big/co2fs3.jpg",
  "platforms": [
    {
      "name": "Windows"
    }
  ],
  "provider_games": [
    {
      "name": "Grandia II HD Remaster",
      "slug": "grandia-ii-hd-remaster",
      "service": "igdb"
    }
  ],
  "aliases": [],
  "shaders": [],
  "discord_id": "",
  "change_for": null
}