{
  "id": 96808,
  "name": "ROAD RACING : EXTREME TRAFFIC DRIVING",
  "slug": "road-racing-extreme-traffic-driving",
  "year": null,
  "banner_url": "",
  "icon_url": "",
  "coverart": null,
  "platforms": [],
  "provider_games": [
    {
      "name": "Road Racing: Extreme Traffic Driving",
      "slug": "road-racing-extreme-traffic-driving",
      "service": "igdb"
    }
  ],
  "aliases": [],
  "shaders": [],
  "discord_id": "",
  "change_for": null
}