{
  "id": 165490,
  "name": "Hero Mini Maker",
  "slug": "hero-mini-maker",
  "year": null,
  "banner_url": "",
  "icon_url": "",
  "coverart": "https://lutris.net/media/igdb/cover_big/co42dd.jpg",
  "platforms": [],
  "provider_games": [
    {
      "name": "Hero Mini Maker",
      "slug": "hero-mini-maker",
      "service": "igdb"
    }
  ],
  "aliases": [],
  "shaders": [],
  "discord_id": "",
  "change_for": null
}