{
  "id": 270675,
  "name": "Nightfall Warriors",
  "slug": "nightfall-warriors",
  "year": 2023,
  "banner_url": "",
  "icon_url": "",
  "coverart": "https://lutris.net/media/igdb/cover_big/co7nec.jpg",
  "platforms": [
    {
      "name": "Oculus Quest"
    },
    {
      "name": "Oculus VR"
    }
  ],
  "provider_games": [
    {
      "name": "Nightfall Warriors",
      "slug": "nightfall-warriors",
      "service": "igdb"
    }
  ],
  "aliases": [],
  "shaders": [],
  "discord_id": "",
  "change_for": null
}