{
  "id": 292052,
  "name": "Crash-Land Fantasy",
  "slug": "crash-land-fantasy",
  "year": null,
  "banner_url": "",
  "icon_url": "",
  "coverart": "https://lutris.net/media/igdb/cover_big/co8jot.jpg",
  "platforms": [],
  "provider_games": [
    {
      "name": "Crash-Land Fantasy",
      "slug": "crash-land-fantasy",
      "service": "igdb"
    }
  ],
  "aliases": [],
  "shaders": [],
  "discord_id": "",
  "change_for": null
}