{
  "id": 139199,
  "name": "Shenmue I & II: Limited Edition",
  "slug": "shenmue-i-and-ii-limited-edition",
  "year": null,
  "banner_url": "",
  "icon_url": "",
  "coverart": null,
  "platforms": [],
  "provider_games": [
    {
      "name": "Shenmue I & II: Limited Edition",
      "slug": "shenmue-i-and-ii-limited-edition",
      "service": "igdb"
    }
  ],
  "aliases": [],
  "shaders": [],
  "discord_id": "",
  "change_for": null
}