{
  "id": 175256,
  "name": "Lemon: Kageetei Nostalgia",
  "slug": "lemon-kageetei-nostalgia",
  "year": null,
  "banner_url": "",
  "icon_url": "",
  "coverart": "https://lutris.net/media/igdb/cover_big/co48pl.jpg",
  "platforms": [],
  "provider_games": [
    {
      "name": "Lemon: Kageetei Nostalgia",
      "slug": "lemon-kageetei-nostalgia",
      "service": "igdb"
    }
  ],
  "aliases": [],
  "shaders": [],
  "discord_id": "",
  "change_for": null
}