{
  "id": 32921,
  "name": "Julius",
  "slug": "julius",
  "year": 2019,
  "banner_url": "https://lutris.net/games/banner/julius.jpg",
  "icon_url": "",
  "coverart": null,
  "platforms": [
    {
      "name": "Linux"
    },
    {
      "name": "Nintendo Switch"
    },
    {
      "name": "Windows"
    }
  ],
  "provider_games": [],
  "aliases": [],
  "shaders": [],
  "discord_id": "",
  "change_for": null
}