{
  "id": 122344,
  "name": "Rubber Toys",
  "slug": "rubber-toys",
  "year": 2017,
  "banner_url": "",
  "icon_url": "",
  "coverart": "https://lutris.net/media/igdb/cover_big/bxwgcui2ncox2ftxpw9i.jpg",
  "platforms": [
    {
      "name": "Windows"
    }
  ],
  "provider_games": [
    {
      "name": "Rubber Toys",
      "slug": "rubber-toys",
      "service": "igdb"
    }
  ],
  "aliases": [],
  "shaders": [],
  "discord_id": "",
  "change_for": null
}