{
  "id": 197125,
  "name": "Attack on Time",
  "slug": "attack-on-time",
  "year": null,
  "banner_url": "",
  "icon_url": "",
  "coverart": null,
  "platforms": [],
  "provider_games": [
    {
      "name": "Attack on Time",
      "slug": "attack-on-time",
      "service": "igdb"
    }
  ],
  "aliases": [],
  "shaders": [],
  "discord_id": "",
  "change_for": null
}