{
  "id": 240934,
  "name": "Sudoku Portal",
  "slug": "sudoku-portal",
  "year": null,
  "banner_url": "",
  "icon_url": "",
  "coverart": null,
  "platforms": [],
  "provider_games": [
    {
      "name": "Sudoku Portal",
      "slug": "sudoku-portal",
      "service": "igdb"
    }
  ],
  "aliases": [],
  "shaders": [],
  "discord_id": "",
  "change_for": null
}