{
  "id": 84450,
  "name": "Ruff & Tumble",
  "slug": "ruff-and-tumble",
  "year": 1999,
  "banner_url": "",
  "icon_url": "",
  "coverart": null,
  "platforms": [
    {
      "name": "Sony PlayStation"
    }
  ],
  "provider_games": [
    {
      "name": "Ruff & Tumble",
      "slug": "ruff-and-tumble",
      "service": "igdb"
    }
  ],
  "aliases": [],
  "shaders": [],
  "discord_id": "",
  "change_for": null
}