{
  "id": 94822,
  "name": "Mini Golf Star Retro Golf Game",
  "slug": "mini-golf-star-retro-golf-game",
  "year": null,
  "banner_url": "",
  "icon_url": "",
  "coverart": null,
  "platforms": [],
  "provider_games": [
    {
      "name": "Mini Golf Star Retro Golf Game",
      "slug": "mini-golf-star-retro-golf-game",
      "service": "igdb"
    }
  ],
  "aliases": [],
  "shaders": [],
  "discord_id": "",
  "change_for": null
}