{
  "id": 140028,
  "name": "Daydream",
  "slug": "daydream--1",
  "year": null,
  "banner_url": "",
  "icon_url": "",
  "coverart": "https://lutris.net/media/igdb/cover_big/co3s7m.jpg",
  "platforms": [],
  "provider_games": [
    {
      "name": "Daydream",
      "slug": "daydream--1",
      "service": "igdb"
    }
  ],
  "aliases": [],
  "shaders": [],
  "discord_id": "",
  "change_for": null
}