{
  "id": 96863,
  "name": "Hunters Gate",
  "slug": "hunters-gate",
  "year": 2016,
  "banner_url": "",
  "icon_url": "",
  "coverart": "https://lutris.net/media/igdb/cover_big/zmo9kfgixwaouc3rslvx.jpg",
  "platforms": [
    {
      "name": "Daydream"
    }
  ],
  "provider_games": [
    {
      "name": "Hunters Gate",
      "slug": "hunters-gate",
      "service": "igdb"
    }
  ],
  "aliases": [],
  "shaders": [],
  "discord_id": "",
  "change_for": null
}