{
  "id": 262265,
  "name": "Flying Tigers",
  "slug": "flying-tigers",
  "year": 1994,
  "banner_url": "",
  "icon_url": "",
  "coverart": "https://lutris.net/media/igdb/cover_big/co7680.jpg",
  "platforms": [],
  "provider_games": [
    {
      "name": "Flying Tigers",
      "slug": "flying-tigers",
      "service": "igdb"
    }
  ],
  "aliases": [],
  "shaders": [],
  "discord_id": "",
  "change_for": null
}