{
  "id": 238413,
  "name": "Cat's Request",
  "slug": "cats-request",
  "year": null,
  "banner_url": "",
  "icon_url": "",
  "coverart": "https://lutris.net/media/igdb/cover_big/co64zs.jpg",
  "platforms": [],
  "provider_games": [
    {
      "name": "Cat's Request",
      "slug": "cats-request",
      "service": "igdb"
    }
  ],
  "aliases": [],
  "shaders": [],
  "discord_id": "",
  "change_for": null
}