{
  "id": 247811,
  "name": "Press Axe",
  "slug": "press-axe",
  "year": null,
  "banner_url": "",
  "icon_url": "",
  "coverart": "https://lutris.net/media/igdb/cover_big/co6kz9.jpg",
  "platforms": [],
  "provider_games": [
    {
      "name": "Press Axe",
      "slug": "press-axe",
      "service": "igdb"
    }
  ],
  "aliases": [],
  "shaders": [],
  "discord_id": "",
  "change_for": null
}