{
  "id": 57807,
  "name": "Unstoppable",
  "slug": "unstoppable",
  "year": null,
  "banner_url": "",
  "icon_url": "",
  "coverart": "https://lutris.net/media/igdb/cover_big/hhyca9pn52g88ivlnmsj.jpg",
  "platforms": [],
  "provider_games": [
    {
      "name": "Unstoppable",
      "slug": "unstoppable",
      "service": "igdb"
    }
  ],
  "aliases": [],
  "shaders": [],
  "discord_id": "",
  "change_for": null
}