{
  "id": 202035,
  "name": "Marble Ball Friends",
  "slug": "marble-ball-friends",
  "year": null,
  "banner_url": "",
  "icon_url": "",
  "coverart": "https://lutris.net/media/igdb/cover_big/co4nee.jpg",
  "platforms": [],
  "provider_games": [
    {
      "name": "Marble Ball Friends",
      "slug": "marble-ball-friends",
      "service": "igdb"
    }
  ],
  "aliases": [],
  "shaders": [],
  "discord_id": "",
  "change_for": null
}