{
  "id": 270341,
  "name": "Ear Canal Simulator 3000",
  "slug": "ear-canal-simulator-3000",
  "year": 2017,
  "banner_url": "",
  "icon_url": "",
  "coverart": null,
  "platforms": [
    {
      "name": "Browser"
    }
  ],
  "provider_games": [
    {
      "name": "Ear Canal Simulator 3000",
      "slug": "ear-canal-simulator-3000",
      "service": "igdb"
    }
  ],
  "aliases": [],
  "shaders": [],
  "discord_id": "",
  "change_for": null
}