{
  "id": 252281,
  "name": "Capybara Quest",
  "slug": "capybara-quest",
  "year": 2022,
  "banner_url": "",
  "icon_url": "",
  "coverart": "https://lutris.net/media/igdb/cover_big/co6sda.jpg",
  "platforms": [
    {
      "name": "Nintendo Game Boy Color"
    }
  ],
  "provider_games": [
    {
      "name": "Capybara Quest",
      "slug": "capybara-quest",
      "service": "igdb"
    }
  ],
  "aliases": [],
  "shaders": [],
  "discord_id": "",
  "change_for": null
}