{
  "id": 228953,
  "name": "Pokémon Crown",
  "slug": "pokemon-crown",
  "year": 2022,
  "banner_url": "https://lutris.net/games/banner/pokemon-crown.jpg",
  "icon_url": "",
  "coverart": null,
  "platforms": [
    {
      "name": "Nintendo Game Boy Advance"
    }
  ],
  "provider_games": [],
  "aliases": [],
  "shaders": [],
  "discord_id": "",
  "change_for": null
}