{
  "id": 285820,
  "name": "Four Second Forever",
  "slug": "four-second-forever",
  "year": null,
  "banner_url": "",
  "icon_url": "",
  "coverart": "https://lutris.net/media/igdb/cover_big/co88k4.jpg",
  "platforms": [],
  "provider_games": [
    {
      "name": "Four Second Forever",
      "slug": "four-second-forever",
      "service": "igdb"
    }
  ],
  "aliases": [],
  "shaders": [],
  "discord_id": "",
  "change_for": null
}