{
  "id": 66308,
  "name": "Beyond Time",
  "slug": "beyond-time",
  "year": null,
  "banner_url": "",
  "icon_url": "",
  "coverart": "https://lutris.net/media/igdb/cover_big/idyhkkycg665txogt02h.jpg",
  "platforms": [],
  "provider_games": [
    {
      "name": "Beyond Time",
      "slug": "beyond-time",
      "service": "igdb"
    }
  ],
  "aliases": [],
  "shaders": [],
  "discord_id": "",
  "change_for": null
}