{
  "id": 9737,
  "game_id": 15340,
  "game_slug": "faerie-solitaire-remastered",
  "name": "Faerie Solitaire Remastered",
  "year": 2017,
  "user": "kimchitea",
  "runner": "steam",
  "slug": "faerie-solitaire-remastered-proton",
  "version": "Proton",
  "description": null,
  "notes": "",
  "credits": "",
  "created_at": "2018-08-15T02:02:01.007936Z",
  "updated_at": "2021-05-04T02:43:07.108122Z",
  "draft": false,
  "published": true,
  "published_by": null,
  "rating": "",
  "is_playable": null,
  "steamid": 583930,
  "gogid": null,
  "gogslug": "",
  "humbleid": "",
  "humblestoreid": "",
  "humblestoreid_real": "",
  "script": {
    "game": {
      "appid": 583930
    }
  },
  "content": "game:\n  appid: 583930\n",
  "discord_id": ""
}