{
  "id": 126709,
  "name": "Mech League Boxing",
  "slug": "mech-league-boxing",
  "year": 2017,
  "banner_url": "https://lutris.net/games/banner/mech-league-boxing.jpg",
  "icon_url": "",
  "coverart": null,
  "platforms": [
    {
      "name": "Windows"
    }
  ],
  "provider_games": [
    {
      "name": "Mech League Boxing",
      "slug": "609010",
      "service": "steam"
    },
    {
      "name": "Mech League Boxing",
      "slug": "mech-league-boxing",
      "service": "igdb"
    }
  ],
  "aliases": [],
  "shaders": [],
  "discord_id": "",
  "change_for": null
}