{
  "id": 196121,
  "name": "Obama Boss Fight",
  "slug": "obama-boss-fight",
  "year": 2021,
  "banner_url": "https://lutris.net/games/banner/obama-boss-fight.jpg",
  "icon_url": "",
  "coverart": "https://lutris.net/media/igdb/cover_big/co4f7d.jpg",
  "platforms": [
    {
      "name": "Windows"
    }
  ],
  "provider_games": [
    {
      "name": "Obama Boss Fight",
      "slug": "obama-boss-fight",
      "service": "igdb"
    },
    {
      "name": "Obama Boss Fight",
      "slug": "1762270",
      "service": "steam"
    }
  ],
  "aliases": [],
  "shaders": [],
  "discord_id": "",
  "change_for": null
}