{
  "id": 173796,
  "name": "Gun & Frontier",
  "slug": "gun-and-frontier",
  "year": 1991,
  "banner_url": "",
  "icon_url": "",
  "coverart": "https://lutris.net/media/igdb/cover_big/co2ev9.jpg",
  "platforms": [],
  "provider_games": [
    {
      "name": "Gun & Frontier",
      "slug": "gun-and-frontier",
      "service": "igdb"
    }
  ],
  "aliases": [],
  "shaders": [],
  "discord_id": "",
  "change_for": null
}