{
  "id": 174937,
  "name": "R-Type III: The Third Lightning",
  "slug": "r-type-iii-the-third-lightning",
  "year": 1993,
  "banner_url": "",
  "icon_url": "",
  "coverart": "https://lutris.net/media/igdb/cover_big/co25vl.jpg",
  "platforms": [
    {
      "name": "Nintendo Game Boy Advance"
    },
    {
      "name": "Nintendo Wii"
    },
    {
      "name": "Super Nintendo"
    }
  ],
  "provider_games": [
    {
      "name": "R-Type III: The Third Lightning",
      "slug": "r-type-iii-the-third-lightning",
      "service": "igdb"
    }
  ],
  "aliases": [],
  "shaders": [],
  "discord_id": "",
  "change_for": null
}