{
  "id": 241804,
  "name": "Cava-Cava",
  "slug": "cava-cava",
  "year": 2007,
  "banner_url": "",
  "icon_url": "",
  "coverart": "https://lutris.net/media/igdb/cover_big/co5zuk.jpg",
  "platforms": [
    {
      "name": "Sega Master System"
    }
  ],
  "provider_games": [
    {
      "name": "Cava-Cava",
      "slug": "cava-cava",
      "service": "igdb"
    }
  ],
  "aliases": [],
  "shaders": [],
  "discord_id": "",
  "change_for": null
}