{
  "id": 233665,
  "name": "Lethal Dose",
  "slug": "lethal-dose",
  "year": null,
  "banner_url": "",
  "icon_url": "",
  "coverart": "https://lutris.net/media/igdb/cover_big/co69nk.jpg",
  "platforms": [],
  "provider_games": [
    {
      "name": "Lethal Dose",
      "slug": "lethal-dose",
      "service": "igdb"
    }
  ],
  "aliases": [],
  "shaders": [],
  "discord_id": "",
  "change_for": null
}