{
  "id": 24953,
  "name": "Arena of the Gods",
  "slug": "arena-of-the-gods",
  "year": null,
  "banner_url": "https://lutris.net/games/banner/arena-of-the-gods.jpg",
  "icon_url": "https://lutris.net/games/icon/arena-of-the-gods.png",
  "coverart": null,
  "platforms": [],
  "provider_games": [
    {
      "name": "Arena of the Gods",
      "slug": "827560",
      "service": "steam"
    },
    {
      "name": "Arena of the Gods",
      "slug": "arena-of-the-gods",
      "service": "igdb"
    }
  ],
  "aliases": [],
  "shaders": [],
  "discord_id": "",
  "change_for": null
}