{
  "id": 162857,
  "name": "Ultra ADHD",
  "slug": "ultra-adhd",
  "year": null,
  "banner_url": "",
  "icon_url": "",
  "coverart": "https://lutris.net/media/igdb/cover_big/co4s7t.jpg",
  "platforms": [],
  "provider_games": [
    {
      "name": "Ultra ADHD",
      "slug": "ultra-adhd",
      "service": "igdb"
    }
  ],
  "aliases": [],
  "shaders": [],
  "discord_id": "",
  "change_for": null
}