{
  "id": 151405,
  "name": "初颜 - The Prototype",
  "slug": "chu-yan-the-prototype",
  "year": 2018,
  "banner_url": "",
  "icon_url": "",
  "coverart": "https://lutris.net/media/igdb/cover_big/co299r.jpg",
  "platforms": [
    {
      "name": "Windows"
    }
  ],
  "provider_games": [
    {
      "name": "初颜 - The Prototype",
      "slug": "chu-yan-the-prototype",
      "service": "igdb"
    }
  ],
  "aliases": [],
  "shaders": [],
  "discord_id": "",
  "change_for": null
}