{
  "id": 142058,
  "name": "BoatMan",
  "slug": "boatman",
  "year": null,
  "banner_url": "",
  "icon_url": "",
  "coverart": "https://lutris.net/media/igdb/cover_big/co3tht.jpg",
  "platforms": [],
  "provider_games": [
    {
      "name": "BoatMan",
      "slug": "boatman",
      "service": "igdb"
    }
  ],
  "aliases": [],
  "shaders": [],
  "discord_id": "",
  "change_for": null
}