{
  "id": 234695,
  "name": "Dungeon Hunter Survival",
  "slug": "dungeon-hunter-survival",
  "year": 2023,
  "banner_url": "",
  "icon_url": "",
  "coverart": "https://lutris.net/media/igdb/cover_big/co68ks.jpg",
  "platforms": [
    {
      "name": "Android"
    }
  ],
  "provider_games": [
    {
      "name": "Dungeon Hunter Survival",
      "slug": "dungeon-hunter-survival",
      "service": "igdb"
    }
  ],
  "aliases": [],
  "shaders": [],
  "discord_id": "",
  "change_for": null
}