{
  "id": 191160,
  "name": "Thrillville®: Off the Rails™",
  "slug": "thrillville-off-the-railstm",
  "year": 2007,
  "banner_url": "",
  "icon_url": "",
  "coverart": null,
  "platforms": [],
  "provider_games": [
    {
      "name": "Thrillville®: Off the Rails™",
      "slug": "1505509034",
      "service": "gog"
    }
  ],
  "aliases": [],
  "shaders": [],
  "discord_id": "",
  "change_for": null
}