{
  "id": 54253,
  "name": "Fanatic Earth",
  "slug": "fanatic-earth",
  "year": 2014,
  "banner_url": "",
  "icon_url": "",
  "coverart": "https://lutris.net/media/igdb/cover_big/ga4dh0uuu1ggklxpano7.jpg",
  "platforms": [
    {
      "name": "Android"
    }
  ],
  "provider_games": [
    {
      "name": "Fanatic Earth",
      "slug": "fanatic-earth",
      "service": "igdb"
    }
  ],
  "aliases": [],
  "shaders": [],
  "discord_id": "",
  "change_for": null
}