{
  "id": 159313,
  "name": "Red White Yellow",
  "slug": "red-white-yellow",
  "year": 2021,
  "banner_url": "",
  "icon_url": "",
  "coverart": "https://lutris.net/media/igdb/cover_big/co3btg.jpg",
  "platforms": [
    {
      "name": "Nintendo Switch"
    },
    {
      "name": "Windows"
    }
  ],
  "provider_games": [
    {
      "name": "Red White Yellow",
      "slug": "red-white-yellow",
      "service": "igdb"
    }
  ],
  "aliases": [],
  "shaders": [],
  "discord_id": "",
  "change_for": null
}