{
  "id": 243372,
  "name": "Boxnauts",
  "slug": "boxnauts--1",
  "year": null,
  "banner_url": "",
  "icon_url": "",
  "coverart": "https://lutris.net/media/igdb/cover_big/co6gnv.jpg",
  "platforms": [],
  "provider_games": [
    {
      "name": "Boxnauts",
      "slug": "boxnauts--1",
      "service": "igdb"
    }
  ],
  "aliases": [],
  "shaders": [],
  "discord_id": "",
  "change_for": null
}