{
  "id": 196573,
  "name": "Zeus Quest Remastered",
  "slug": "zeus-quest-remastered--1",
  "year": 2018,
  "banner_url": "",
  "icon_url": "",
  "coverart": null,
  "platforms": [
    {
      "name": "Nintendo Switch"
    }
  ],
  "provider_games": [
    {
      "name": "Zeus Quest Remastered",
      "slug": "zeus-quest-remastered--1",
      "service": "igdb"
    }
  ],
  "aliases": [],
  "shaders": [],
  "discord_id": "",
  "change_for": null
}