{
  "id": 2992,
  "name": "Viscera Cleanup Detail",
  "slug": "viscera-cleanup-detail",
  "year": 2015,
  "banner_url": "https://lutris.net/games/banner/viscera-cleanup-detail.jpg",
  "icon_url": "https://lutris.net/games/icon/viscera-cleanup-detail.png",
  "coverart": "https://lutris.net/media/igdb/cover_big/co24ky.jpg",
  "platforms": [
    {
      "name": "Mac"
    },
    {
      "name": "Windows"
    }
  ],
  "provider_games": [
    {
      "name": "Viscera Cleanup Detail",
      "slug": "246900",
      "service": "steam"
    },
    {
      "name": "Viscera Cleanup Detail",
      "slug": "viscera-cleanup-detail",
      "service": "igdb"
    }
  ],
  "aliases": [],
  "shaders": [],
  "discord_id": "",
  "change_for": null
}