{
  "id": 261880,
  "name": "Hamburgers En Route to Switzerland",
  "slug": "hamburgers-en-route-to-switzerland",
  "year": 2020,
  "banner_url": "",
  "icon_url": "",
  "coverart": "https://lutris.net/media/igdb/cover_big/co76x4.jpg",
  "platforms": [
    {
      "name": "Virtual Boy"
    }
  ],
  "provider_games": [
    {
      "name": "Hamburgers En Route to Switzerland",
      "slug": "hamburgers-en-route-to-switzerland",
      "service": "igdb"
    }
  ],
  "aliases": [],
  "shaders": [],
  "discord_id": "",
  "change_for": null
}