{
  "id": 207986,
  "name": "Pantaji Yeodongsaeng : Sujipyeong Bangchi RPG",
  "slug": "pantaji-yeodongsaeng-sujipyeong-bangchi-rpg",
  "year": null,
  "banner_url": "",
  "icon_url": "",
  "coverart": null,
  "platforms": [],
  "provider_games": [
    {
      "name": "Pantaji Yeodongsaeng : Sujipyeong Bangchi RPG",
      "slug": "pantaji-yeodongsaeng-sujipyeong-bangchi-rpg",
      "service": "igdb"
    }
  ],
  "aliases": [],
  "shaders": [],
  "discord_id": "",
  "change_for": null
}