{
  "id": 158093,
  "name": "RTL Freestyle Skiing",
  "slug": "rtl-freestyle-skiing",
  "year": 2014,
  "banner_url": "",
  "icon_url": "",
  "coverart": null,
  "platforms": [],
  "provider_games": [
    {
      "name": "RTL Freestyle Skiing",
      "slug": "rtl-freestyle-skiing",
      "service": "igdb"
    }
  ],
  "aliases": [],
  "shaders": [],
  "discord_id": "",
  "change_for": null
}