{
  "id": 269443,
  "name": "Arctic Eggs",
  "slug": "arctic-eggs",
  "year": null,
  "banner_url": "",
  "icon_url": "",
  "coverart": "https://lutris.net/media/igdb/cover_big/co7k0l.jpg",
  "platforms": [],
  "provider_games": [
    {
      "name": "Arctic Eggs",
      "slug": "arctic-eggs",
      "service": "igdb"
    }
  ],
  "aliases": [],
  "shaders": [],
  "discord_id": "",
  "change_for": null
}