{
  "id": 296138,
  "name": "Z.O.N.A: Shadow of Limansk Redux",
  "slug": "z-dot-o-n-dot-a-shadow-of-limansk-redux",
  "year": 2021,
  "banner_url": "",
  "icon_url": "",
  "coverart": null,
  "platforms": [
    {
      "name": "Android"
    }
  ],
  "provider_games": [
    {
      "name": "Z.O.N.A: Shadow of Limansk Redux",
      "slug": "z-dot-o-n-dot-a-shadow-of-limansk-redux",
      "service": "igdb"
    }
  ],
  "aliases": [],
  "shaders": [],
  "discord_id": "",
  "change_for": null
}