{
  "id": 168676,
  "name": "Lands of Raynar",
  "slug": "lands-of-raynar",
  "year": null,
  "banner_url": "",
  "icon_url": "",
  "coverart": "https://lutris.net/media/igdb/cover_big/co4554.jpg",
  "platforms": [],
  "provider_games": [
    {
      "name": "Lands of Raynar",
      "slug": "lands-of-raynar",
      "service": "igdb"
    }
  ],
  "aliases": [],
  "shaders": [],
  "discord_id": "",
  "change_for": null
}