{
  "id": 67871,
  "name": "Sega Top Five",
  "slug": "sega-top-five",
  "year": null,
  "banner_url": "",
  "icon_url": "",
  "coverart": "https://lutris.net/media/igdb/cover_big/vb5zitwsjjkulkk2xetd.jpg",
  "platforms": [],
  "provider_games": [
    {
      "name": "Sega Top Five",
      "slug": "sega-top-five",
      "service": "igdb"
    }
  ],
  "aliases": [],
  "shaders": [],
  "discord_id": "",
  "change_for": null
}