{
  "id": 81822,
  "name": "WWE Mobile Madness",
  "slug": "wwe-mobile-madness",
  "year": null,
  "banner_url": "",
  "icon_url": "",
  "coverart": null,
  "platforms": [],
  "provider_games": [
    {
      "name": "WWE Mobile Madness",
      "slug": "wwe-mobile-madness",
      "service": "igdb"
    }
  ],
  "aliases": [],
  "shaders": [],
  "discord_id": "",
  "change_for": null
}