{
  "id": 291057,
  "name": "Cyber Tunnel Escape",
  "slug": "cyber-tunnel-escape",
  "year": null,
  "banner_url": "",
  "icon_url": "",
  "coverart": "https://lutris.net/media/igdb/cover_big/co8l9l.jpg",
  "platforms": [],
  "provider_games": [
    {
      "name": "Cyber Tunnel Escape",
      "slug": "cyber-tunnel-escape",
      "service": "igdb"
    }
  ],
  "aliases": [],
  "shaders": [],
  "discord_id": "",
  "change_for": null
}