{
  "id": 113936,
  "name": "Smash Bash Crash",
  "slug": "smash-bash-crash",
  "year": 2017,
  "banner_url": "",
  "icon_url": "",
  "coverart": "https://lutris.net/media/igdb/cover_big/qhlsvdwi0svx5cubm80h.jpg",
  "platforms": [
    {
      "name": "Windows"
    }
  ],
  "provider_games": [
    {
      "name": "Smash Bash Crash",
      "slug": "smash-bash-crash",
      "service": "igdb"
    }
  ],
  "aliases": [],
  "shaders": [],
  "discord_id": "",
  "change_for": null
}