{
  "id": 107127,
  "name": "Space Ace HD",
  "slug": "space-ace-hd",
  "year": null,
  "banner_url": "",
  "icon_url": "",
  "coverart": "https://lutris.net/media/igdb/cover_big/co4tfy.jpg",
  "platforms": [],
  "provider_games": [
    {
      "name": "Space Ace HD",
      "slug": "space-ace-hd",
      "service": "igdb"
    }
  ],
  "aliases": [],
  "shaders": [],
  "discord_id": "",
  "change_for": null
}