{
  "id": 191574,
  "name": "Command And Conquer : Generals Evolution",
  "slug": "command-and-conquer-generals-evolution",
  "year": 2021,
  "banner_url": "https://lutris.net/games/banner/command-and-conquer-generals-evolution.jpg",
  "icon_url": "",
  "coverart": null,
  "platforms": [
    {
      "name": "Windows"
    }
  ],
  "provider_games": [],
  "aliases": [],
  "shaders": [],
  "discord_id": "",
  "change_for": null
}