{
  "id": 301744,
  "name": "Drunk Alien",
  "slug": "drunk-alien",
  "year": null,
  "banner_url": "",
  "icon_url": "",
  "coverart": "https://lutris.net/media/igdb/cover_big/co935f.jpg",
  "platforms": [],
  "provider_games": [
    {
      "name": "Drunk Alien",
      "slug": "drunk-alien",
      "service": "igdb"
    }
  ],
  "aliases": [],
  "shaders": [],
  "discord_id": "",
  "change_for": null
}