{
  "id": 35753,
  "name": "Sky Love",
  "slug": "sky-love",
  "year": 1979,
  "banner_url": "",
  "icon_url": "https://lutris.net/games/icon/sky-love.png",
  "coverart": null,
  "platforms": [
    {
      "name": "Arcade"
    }
  ],
  "provider_games": [
    {
      "name": "Sky Love",
      "slug": "skylove",
      "service": "mame"
    }
  ],
  "aliases": [],
  "shaders": [],
  "discord_id": "",
  "change_for": null
}