{
  "id": 87241,
  "name": "Kaden Garth",
  "slug": "kaden-garth",
  "year": 1989,
  "banner_url": "",
  "icon_url": "",
  "coverart": "https://lutris.net/media/igdb/cover_big/zoq1vcucmafspqjsxovn.jpg",
  "platforms": [
    {
      "name": "Atari ST"
    }
  ],
  "provider_games": [
    {
      "name": "Kaden Garth",
      "slug": "kaden-garth",
      "service": "igdb"
    }
  ],
  "aliases": [],
  "shaders": [],
  "discord_id": "",
  "change_for": null
}