{
  "id": 147737,
  "name": "NEONARCADE: adventure puzzle muse",
  "slug": "neonarcade-adventure-puzzle-muse",
  "year": null,
  "banner_url": "",
  "icon_url": "",
  "coverart": null,
  "platforms": [],
  "provider_games": [
    {
      "name": "NeonArcade: Adventure Puzzle Muse",
      "slug": "neonarcade-adventure-puzzle-muse",
      "service": "igdb"
    }
  ],
  "aliases": [],
  "shaders": [],
  "discord_id": "",
  "change_for": null
}