{
  "id": 52110,
  "name": "All New World of Lemmings",
  "slug": "all-new-world-of-lemmings",
  "year": 1994,
  "banner_url": "",
  "icon_url": "",
  "coverart": "https://lutris.net/media/igdb/cover_big/fllfudkrfephxefs6sqq.jpg",
  "platforms": [
    {
      "name": "Amiga"
    }
  ],
  "provider_games": [
    {
      "name": "All New World of Lemmings",
      "slug": "all-new-world-of-lemmings",
      "service": "igdb"
    }
  ],
  "aliases": [],
  "shaders": [],
  "discord_id": "",
  "change_for": null
}