{
  "id": 133666,
  "name": "Anime Artist 3: Harem",
  "slug": "anime-artist-3-harem",
  "year": null,
  "banner_url": "https://lutris.net/games/banner/anime-artist-3-harem.jpg",
  "icon_url": "",
  "coverart": "https://lutris.net/media/igdb/cover_big/co3liv.jpg",
  "platforms": [],
  "provider_games": [
    {
      "name": "Anime Artist 3: Harem",
      "slug": "anime-artist-3-harem",
      "service": "igdb"
    },
    {
      "name": "Anime Artist 3: Harem",
      "slug": "1458590",
      "service": "steam"
    }
  ],
  "aliases": [],
  "shaders": [],
  "discord_id": "",
  "change_for": null
}