{
  "id": 118261,
  "name": "Supralympic Runners",
  "slug": "supralympic-runners",
  "year": null,
  "banner_url": "https://lutris.net/games/banner/supralympic-runners.jpg",
  "icon_url": "",
  "coverart": null,
  "platforms": [],
  "provider_games": [
    {
      "name": "Supralympic Runners",
      "slug": "840300",
      "service": "steam"
    },
    {
      "name": "Supralympic Runners",
      "slug": "supralympic-runners",
      "service": "igdb"
    }
  ],
  "aliases": [],
  "shaders": [],
  "discord_id": "",
  "change_for": null
}