{
  "id": 284406,
  "name": "Cubed and Dangerous",
  "slug": "cubed-and-dangerous",
  "year": null,
  "banner_url": "",
  "icon_url": "",
  "coverart": "https://lutris.net/media/igdb/cover_big/co86tu.jpg",
  "platforms": [],
  "provider_games": [
    {
      "name": "Cubed and Dangerous",
      "slug": "cubed-and-dangerous",
      "service": "igdb"
    }
  ],
  "aliases": [],
  "shaders": [],
  "discord_id": "",
  "change_for": null
}