{
  "id": 5763,
  "name": "Broken Dreams",
  "slug": "broken-dreams",
  "year": 2016,
  "banner_url": "https://lutris.net/games/banner/broken-dreams.jpg",
  "icon_url": "https://lutris.net/games/icon/broken-dreams.png",
  "coverart": "https://lutris.net/media/igdb/cover_big/yuimoxeqjmn17tyhfatk.jpg",
  "platforms": [
    {
      "name": "Linux"
    },
    {
      "name": "Mac"
    },
    {
      "name": "Windows"
    }
  ],
  "provider_games": [
    {
      "name": "Broken Dreams",
      "slug": "444480",
      "service": "steam"
    },
    {
      "name": "Broken Dreams",
      "slug": "broken-dreams",
      "service": "igdb"
    }
  ],
  "aliases": [],
  "shaders": [],
  "discord_id": "",
  "change_for": null
}