{
  "id": 275940,
  "name": "Easter 2024 Puzzle",
  "slug": "easter-2024-puzzle",
  "year": null,
  "banner_url": "",
  "icon_url": "",
  "coverart": "https://lutris.net/media/igdb/cover_big/co7urv.jpg",
  "platforms": [],
  "provider_games": [
    {
      "name": "Easter 2024 Puzzle",
      "slug": "easter-2024-puzzle",
      "service": "igdb"
    }
  ],
  "aliases": [],
  "shaders": [],
  "discord_id": "",
  "change_for": null
}