{
  "id": 193999,
  "name": "A Frail Qubit",
  "slug": "a-frail-qubit",
  "year": null,
  "banner_url": "",
  "icon_url": "",
  "coverart": "https://lutris.net/media/igdb/cover_big/co4j4e.jpg",
  "platforms": [],
  "provider_games": [
    {
      "name": "A Frail Qubit",
      "slug": "a-frail-qubit",
      "service": "igdb"
    }
  ],
  "aliases": [],
  "shaders": [],
  "discord_id": "",
  "change_for": null
}