{
  "id": 69021,
  "name": "Zan: Kagerō no Toki",
  "slug": "zan-kagero-no-toki",
  "year": null,
  "banner_url": "",
  "icon_url": "",
  "coverart": "https://lutris.net/media/igdb/cover_big/r9zb6imfckmw1yv65wty.jpg",
  "platforms": [],
  "provider_games": [
    {
      "name": "Zan: Kagerō no Toki",
      "slug": "zan-kagero-no-toki",
      "service": "igdb"
    }
  ],
  "aliases": [],
  "shaders": [],
  "discord_id": "",
  "change_for": null
}