{
  "id": 105495,
  "name": "Ike Ike! Sorena-chan! Shooting Star!",
  "slug": "ike-ike-sorena-chan-shooting-star",
  "year": 2021,
  "banner_url": "",
  "icon_url": "",
  "coverart": "https://lutris.net/media/igdb/cover_big/co38ts.jpg",
  "platforms": [
    {
      "name": "Android"
    }
  ],
  "provider_games": [
    {
      "name": "Ike Ike! Sorena-chan! Shooting Star!",
      "slug": "ike-ike-sorena-chan-shooting-star",
      "service": "igdb"
    }
  ],
  "aliases": [],
  "shaders": [],
  "discord_id": "",
  "change_for": null
}