{
  "id": 7123,
  "name": "Star Drifter",
  "slug": "star-drifter",
  "year": 1985,
  "banner_url": "https://lutris.net/games/banner/star-drifter.jpg",
  "icon_url": "https://lutris.net/games/icon/star-drifter.png",
  "coverart": "https://lutris.net/media/igdb/cover_big/b1zaerubozabudzreoif.jpg",
  "platforms": [
    {
      "name": "BBC Microcomputer System"
    }
  ],
  "provider_games": [
    {
      "name": "Star Drifter",
      "slug": "485330",
      "service": "steam"
    },
    {
      "name": "Star Drifter",
      "slug": "star-drifter",
      "service": "igdb"
    }
  ],
  "aliases": [],
  "shaders": [],
  "discord_id": "",
  "change_for": null
}