{
  "id": 201671,
  "name": "Bomberman",
  "slug": "bomberman--7",
  "year": null,
  "banner_url": "",
  "icon_url": "",
  "coverart": "https://lutris.net/media/igdb/cover_big/co4odi.jpg",
  "platforms": [],
  "provider_games": [
    {
      "name": "Bomberman",
      "slug": "bomberman--7",
      "service": "igdb"
    }
  ],
  "aliases": [],
  "shaders": [],
  "discord_id": "",
  "change_for": null
}