{
  "id": 139243,
  "name": "Devicereign",
  "slug": "devicereign",
  "year": 1999,
  "banner_url": "",
  "icon_url": "",
  "coverart": "https://lutris.net/media/igdb/cover_big/co3rlj.jpg",
  "platforms": [
    {
      "name": "Sony PlayStation"
    }
  ],
  "provider_games": [
    {
      "name": "Devicereign",
      "slug": "devicereign",
      "service": "igdb"
    }
  ],
  "aliases": [],
  "shaders": [],
  "discord_id": "",
  "change_for": null
}