{
  "id": 48696,
  "name": "Professional Farmer 2017: Gold Edition",
  "slug": "professional-farmer-2017-gold-edition",
  "year": null,
  "banner_url": "",
  "icon_url": "",
  "coverart": "https://lutris.net/media/igdb/cover_big/o2epe8xqu07ndynd5nlb.jpg",
  "platforms": [],
  "provider_games": [
    {
      "name": "Professional Farmer 2017: Gold Edition",
      "slug": "professional-farmer-2017-gold-edition",
      "service": "igdb"
    }
  ],
  "aliases": [],
  "shaders": [],
  "discord_id": "",
  "change_for": null
}