{
  "id": 224971,
  "name": "Fairy Fencer F: Refrain Chord",
  "slug": "fairy-fencer-f-refrain-chord",
  "year": 2022,
  "banner_url": "https://lutris.net/games/banner/fairy-fencer-f-refrain-chord.jpg",
  "icon_url": "",
  "coverart": "https://lutris.net/media/igdb/cover_big/co536p.jpg",
  "platforms": [
    {
      "name": "Nintendo Switch"
    },
    {
      "name": "Sony Playstation 4"
    },
    {
      "name": "Sony PlayStation 5"
    }
  ],
  "provider_games": [
    {
      "name": "Fairy Fencer F: Refrain Chord",
      "slug": "fairy-fencer-f-refrain-chord",
      "service": "igdb"
    },
    {
      "name": "Fairy Fencer F: Refrain Chord",
      "slug": "2228390",
      "service": "steam"
    }
  ],
  "aliases": [],
  "shaders": [],
  "discord_id": "",
  "change_for": null
}