{
  "id": 289923,
  "name": "AMSCII Invasor",
  "slug": "amscii-invasor",
  "year": 2024,
  "banner_url": "",
  "icon_url": "",
  "coverart": null,
  "platforms": [
    {
      "name": "Amstrad CPC"
    }
  ],
  "provider_games": [
    {
      "name": "AMSCII Invasor",
      "slug": "amscii-invasor",
      "service": "igdb"
    }
  ],
  "aliases": [],
  "shaders": [],
  "discord_id": "",
  "change_for": null
}