{
  "id": 47172,
  "name": "Empire",
  "slug": "empire",
  "year": 1971,
  "banner_url": "",
  "icon_url": "",
  "coverart": "https://lutris.net/media/igdb/cover_big/pyk5dgk8sw1z9b0szvww.jpg",
  "platforms": [
    {
      "name": "HP 2100"
    },
    {
      "name": "PDP-11"
    }
  ],
  "provider_games": [
    {
      "name": "Empire",
      "slug": "empire",
      "service": "igdb"
    }
  ],
  "aliases": [],
  "shaders": [],
  "discord_id": "",
  "change_for": null
}