{
  "id": 217311,
  "name": "Mortal Dark",
  "slug": "mortal-dark",
  "year": 2022,
  "banner_url": "",
  "icon_url": "",
  "coverart": "https://lutris.net/media/igdb/cover_big/co55im.jpg",
  "platforms": [],
  "provider_games": [
    {
      "name": "Mortal Dark",
      "slug": "mortal-dark",
      "service": "igdb"
    }
  ],
  "aliases": [],
  "shaders": [],
  "discord_id": "",
  "change_for": null
}