{
  "id": 112004,
  "name": "Bakushou Jinsei 64: Mezase! Resort Ou",
  "slug": "bakushou-jinsei-64-mezase-resort-ou",
  "year": 1998,
  "banner_url": "",
  "icon_url": "",
  "coverart": "https://lutris.net/media/igdb/cover_big/co2f4z.jpg",
  "platforms": [
    {
      "name": "Nintendo 64"
    }
  ],
  "provider_games": [
    {
      "name": "Bakushou Jinsei 64: Mezase! Resort-ou",
      "slug": "bakushou-jinsei-64-mezase-resort-ou",
      "service": "igdb"
    }
  ],
  "aliases": [],
  "shaders": [],
  "discord_id": "",
  "change_for": null
}