{
  "id": 20087,
  "name": "Space Escape",
  "slug": "space-escape",
  "year": 2018,
  "banner_url": "https://lutris.net/games/banner/space-escape.jpg",
  "icon_url": "https://lutris.net/games/icon/space-escape.png",
  "coverart": "https://lutris.net/media/igdb/cover_big/co6r1b.jpg",
  "platforms": [
    {
      "name": "Windows"
    }
  ],
  "provider_games": [
    {
      "name": "Space Escape",
      "slug": "815830",
      "service": "steam"
    },
    {
      "name": "Space Escape",
      "slug": "space-escape",
      "service": "igdb"
    }
  ],
  "aliases": [],
  "shaders": [],
  "discord_id": "",
  "change_for": null
}