{
  "id": 51841,
  "name": "Combat Lynx",
  "slug": "combat-lynx",
  "year": 1984,
  "banner_url": "",
  "icon_url": "",
  "coverart": "https://lutris.net/media/igdb/cover_big/fu6utcifytpbgqfjwu7b.jpg",
  "platforms": [
    {
      "name": "Acorn Electron"
    },
    {
      "name": "Amstrad CPC"
    },
    {
      "name": "BBC Microcomputer System"
    },
    {
      "name": "Commodore C64/128"
    },
    {
      "name": "ZX Spectrum"
    }
  ],
  "provider_games": [
    {
      "name": "Combat Lynx",
      "slug": "combat-lynx",
      "service": "igdb"
    }
  ],
  "aliases": [],
  "shaders": [],
  "discord_id": "",
  "change_for": null
}