{
  "id": 194413,
  "name": "Dome Keeper",
  "slug": "dome-keeper",
  "year": null,
  "banner_url": "https://lutris.net/games/banner/dome-keeper.jpg",
  "icon_url": "",
  "coverart": "https://lutris.net/media/igdb/cover_big/co4qic.jpg",
  "platforms": [],
  "provider_games": [
    {
      "name": "Dome Keeper",
      "slug": "dome-keeper",
      "service": "igdb"
    },
    {
      "name": "Dome Keeper",
      "slug": "1637320",
      "service": "steam"
    },
    {
      "name": "Dome Keeper",
      "slug": "1635627436",
      "service": "gog"
    }
  ],
  "aliases": [],
  "shaders": [],
  "discord_id": "",
  "change_for": null
}