{
  "id": 140137,
  "name": "Gigantosaurus: The Game",
  "slug": "gigantosaurus-the-game",
  "year": 2020,
  "banner_url": "https://lutris.net/games/banner/gigantosaurus-the-game.jpg",
  "icon_url": "",
  "coverart": "https://lutris.net/media/igdb/cover_big/co20m0.jpg",
  "platforms": [
    {
      "name": "Google Stadia"
    },
    {
      "name": "Nintendo Switch"
    },
    {
      "name": "Sony Playstation 4"
    },
    {
      "name": "Windows"
    },
    {
      "name": "Xbox One"
    }
  ],
  "provider_games": [
    {
      "name": "Gigantosaurus The Game",
      "slug": "1177020",
      "service": "steam"
    },
    {
      "name": "Gigantosaurus: The Game",
      "slug": "gigantosaurus-the-game",
      "service": "igdb"
    }
  ],
  "aliases": [],
  "shaders": [],
  "discord_id": "",
  "change_for": null
}