{
  "id": 246770,
  "name": "Ride or Die!",
  "slug": "ride-or-die",
  "year": null,
  "banner_url": "",
  "icon_url": "",
  "coverart": "https://lutris.net/media/igdb/cover_big/co6nnz.jpg",
  "platforms": [],
  "provider_games": [
    {
      "name": "Ride or Die!",
      "slug": "ride-or-die",
      "service": "igdb"
    }
  ],
  "aliases": [],
  "shaders": [],
  "discord_id": "",
  "change_for": null
}