{
  "id": 209542,
  "name": "IPL Quiz 2022 Cricket Champion",
  "slug": "ipl-quiz-2022-cricket-champion",
  "year": 2022,
  "banner_url": "",
  "icon_url": "",
  "coverart": "https://lutris.net/media/igdb/cover_big/co69g3.jpg",
  "platforms": [
    {
      "name": "Android"
    }
  ],
  "provider_games": [
    {
      "name": "IPL Quiz 2022 Cricket Champion",
      "slug": "ipl-quiz-2022-cricket-champion",
      "service": "igdb"
    }
  ],
  "aliases": [],
  "shaders": [],
  "discord_id": "",
  "change_for": null
}