{
  "id": 56149,
  "name": "Sekai Saikyou Ginsei Shogi",
  "slug": "sekai-saikyou-ginsei-shogi",
  "year": null,
  "banner_url": "",
  "icon_url": "",
  "coverart": "https://lutris.net/media/igdb/cover_big/p7bn5zv7pmlsp81b4rzi.jpg",
  "platforms": [],
  "provider_games": [
    {
      "name": "Sekai Saikyou Ginsei Shogi",
      "slug": "sekai-saikyou-ginsei-shogi",
      "service": "igdb"
    }
  ],
  "aliases": [],
  "shaders": [],
  "discord_id": "",
  "change_for": null
}