{
  "id": 14537,
  "name": "Codename: Panzers, Phase One",
  "slug": "codename-panzers-phase-one",
  "year": 2004,
  "banner_url": "https://lutris.net/games/banner/codename-panzers-phase-one.jpg",
  "icon_url": "https://lutris.net/games/icon/codename-panzers-phase-one.png",
  "coverart": "https://lutris.net/media/igdb/cover_big/co1ya4.jpg",
  "platforms": [
    {
      "name": "Windows"
    }
  ],
  "provider_games": [
    {
      "name": "Codename Panzers: Phase One",
      "slug": "1455704049",
      "service": "gog"
    },
    {
      "name": "Codename: Panzers, Phase One",
      "slug": "411310",
      "service": "steam"
    },
    {
      "name": "Codename: Panzers - Phase One",
      "slug": "codename-panzers-phase-one",
      "service": "igdb"
    }
  ],
  "aliases": [],
  "shaders": [],
  "discord_id": "",
  "change_for": null
}