{
  "id": 140740,
  "name": "Cubox: Awakening of Gods",
  "slug": "cubox-awakening-of-gods",
  "year": null,
  "banner_url": "",
  "icon_url": "",
  "coverart": "https://lutris.net/media/igdb/cover_big/co3snt.jpg",
  "platforms": [],
  "provider_games": [
    {
      "name": "Cubox: Awakening of Gods",
      "slug": "cubox-awakening-of-gods",
      "service": "igdb"
    }
  ],
  "aliases": [],
  "shaders": [],
  "discord_id": "",
  "change_for": null
}