{
  "id": 281073,
  "name": "Darkest Light",
  "slug": "darkest-light",
  "year": null,
  "banner_url": "",
  "icon_url": "",
  "coverart": "https://lutris.net/media/igdb/cover_big/co7zl7.jpg",
  "platforms": [],
  "provider_games": [
    {
      "name": "Darkest Light",
      "slug": "darkest-light",
      "service": "igdb"
    }
  ],
  "aliases": [],
  "shaders": [],
  "discord_id": "",
  "change_for": null
}