{
  "id": 77903,
  "name": "GO Series: Portable Shrine Wars",
  "slug": "go-series-portable-shrine-wars",
  "year": 2011,
  "banner_url": "",
  "icon_url": "",
  "coverart": "https://lutris.net/media/igdb/cover_big/iw1hnweiaxmt0z4rv7v6.jpg",
  "platforms": [
    {
      "name": "Nintendo DSi"
    }
  ],
  "provider_games": [
    {
      "name": "GO Series: Portable Shrine Wars",
      "slug": "go-series-portable-shrine-wars",
      "service": "igdb"
    }
  ],
  "aliases": [],
  "shaders": [],
  "discord_id": "",
  "change_for": null
}