{
  "id": 52341,
  "name": "High Frontier",
  "slug": "high-frontier",
  "year": 1987,
  "banner_url": "",
  "icon_url": "",
  "coverart": "https://lutris.net/media/igdb/cover_big/l3ax3keppiyj8oawstmq.jpg",
  "platforms": [
    {
      "name": "Amstrad CPC"
    },
    {
      "name": "Commodore C64/128"
    },
    {
      "name": "ZX Spectrum"
    }
  ],
  "provider_games": [
    {
      "name": "High Frontier",
      "slug": "high-frontier",
      "service": "igdb"
    }
  ],
  "aliases": [],
  "shaders": [],
  "discord_id": "",
  "change_for": null
}