{
  "id": 196586,
  "name": "Undead Breakout",
  "slug": "undead-breakout",
  "year": 2017,
  "banner_url": "",
  "icon_url": "",
  "coverart": null,
  "platforms": [],
  "provider_games": [
    {
      "name": "Undead Breakout",
      "slug": "undead-breakout",
      "service": "igdb"
    }
  ],
  "aliases": [],
  "shaders": [],
  "discord_id": "",
  "change_for": null
}