{
  "id": 250626,
  "name": "D.F.R.: The Light",
  "slug": "dfr-the-light",
  "year": null,
  "banner_url": "https://lutris.net/games/banner/dfr-the-light.jpg",
  "icon_url": "https://lutris.net/games/icon/dfr-the-light.png",
  "coverart": null,
  "platforms": [],
  "provider_games": [
    {
      "name": "D.F.R.: The Light",
      "slug": "747750",
      "service": "steam"
    }
  ],
  "aliases": [],
  "shaders": [],
  "discord_id": "",
  "change_for": null
}