{
  "id": 268208,
  "name": "The Book of the Dead: Lost Souls",
  "slug": "the-book-of-the-dead-lost-souls",
  "year": 2006,
  "banner_url": "",
  "icon_url": "",
  "coverart": "https://lutris.net/media/igdb/cover_big/co7ht4.jpg",
  "platforms": [
    {
      "name": "Windows"
    }
  ],
  "provider_games": [
    {
      "name": "The Book of the Dead: Lost Souls",
      "slug": "the-book-of-the-dead-lost-souls",
      "service": "igdb"
    }
  ],
  "aliases": [],
  "shaders": [],
  "discord_id": "",
  "change_for": null
}