{
  "id": 256877,
  "name": "AI Stories",
  "slug": "ai-stories",
  "year": 2023,
  "banner_url": "https://lutris.net/games/banner/ai-stories.jpg",
  "icon_url": "",
  "coverart": "https://lutris.net/media/igdb/cover_big/co7rds.jpg",
  "platforms": [
    {
      "name": "Linux"
    },
    {
      "name": "Windows"
    }
  ],
  "provider_games": [
    {
      "name": "AI Stories",
      "slug": "ai-stories",
      "service": "igdb"
    }
  ],
  "aliases": [],
  "shaders": [],
  "discord_id": "",
  "change_for": null
}