{
  "id": 221993,
  "name": "Rebel Riders",
  "slug": "rebel-riders",
  "year": null,
  "banner_url": "",
  "icon_url": "",
  "coverart": null,
  "platforms": [],
  "provider_games": [
    {
      "name": "Rebel Riders",
      "slug": "rebel-riders",
      "service": "igdb"
    }
  ],
  "aliases": [],
  "shaders": [],
  "discord_id": "",
  "change_for": null
}