{
  "id": 178837,
  "name": "High Stakes",
  "slug": "high-stakes--1",
  "year": null,
  "banner_url": "",
  "icon_url": "",
  "coverart": "https://lutris.net/media/igdb/cover_big/co7osj.jpg",
  "platforms": [],
  "provider_games": [
    {
      "name": "High Stakes",
      "slug": "high-stakes--1",
      "service": "igdb"
    }
  ],
  "aliases": [],
  "shaders": [],
  "discord_id": "",
  "change_for": null
}