{
  "id": 243714,
  "name": "Magic Machine Gun",
  "slug": "magic-machine-gun",
  "year": null,
  "banner_url": "",
  "icon_url": "",
  "coverart": "https://lutris.net/media/igdb/cover_big/co6gdw.jpg",
  "platforms": [],
  "provider_games": [
    {
      "name": "Magic Machine Gun",
      "slug": "magic-machine-gun",
      "service": "igdb"
    }
  ],
  "aliases": [],
  "shaders": [],
  "discord_id": "",
  "change_for": null
}