{
  "id": 148434,
  "name": "Venture Arctic",
  "slug": "venture-arctic",
  "year": null,
  "banner_url": "https://lutris.net/games/banner/venture-arctic.jpg",
  "icon_url": "",
  "coverart": "https://lutris.net/media/igdb/cover_big/zpkw2ilk7hjt1xzu8xiy.jpg",
  "platforms": [],
  "provider_games": [
    {
      "name": "Venture Arctic",
      "slug": "795230",
      "service": "steam"
    },
    {
      "name": "Venture Arctic",
      "slug": "venture-arctic",
      "service": "igdb"
    }
  ],
  "aliases": [],
  "shaders": [],
  "discord_id": "",
  "change_for": null
}