{
  "id": 81866,
  "name": "Ultimate Golf Simulation",
  "slug": "ultimate-golf-simulation",
  "year": null,
  "banner_url": "",
  "icon_url": "",
  "coverart": "https://lutris.net/media/igdb/cover_big/qou9bvbpqatd481qbz7k.jpg",
  "platforms": [],
  "provider_games": [
    {
      "name": "Ultimate Golf Simulation",
      "slug": "ultimate-golf-simulation",
      "service": "igdb"
    }
  ],
  "aliases": [],
  "shaders": [],
  "discord_id": "",
  "change_for": null
}