{
  "id": 61652,
  "name": "Forgotten Lands: First Colony",
  "slug": "forgotten-lands-first-colony",
  "year": null,
  "banner_url": "",
  "icon_url": "",
  "coverart": "https://lutris.net/media/igdb/cover_big/a1za1ybwwdroujo6wum9.jpg",
  "platforms": [],
  "provider_games": [
    {
      "name": "Forgotten Lands: First Colony",
      "slug": "forgotten-lands-first-colony",
      "service": "igdb"
    }
  ],
  "aliases": [],
  "shaders": [],
  "discord_id": "",
  "change_for": null
}