{
  "id": 231367,
  "name": "Evan, Daniel and Friends. Vol 2",
  "slug": "evan-daniel-and-friends-vol-2",
  "year": null,
  "banner_url": "",
  "icon_url": "",
  "coverart": "https://lutris.net/media/igdb/cover_big/co67vz.jpg",
  "platforms": [
    {
      "name": "Sony Playstation 4"
    }
  ],
  "provider_games": [
    {
      "name": "Evan, Daniel and Friends. Vol 2",
      "slug": "evan-daniel-and-friends-vol-2",
      "service": "igdb"
    }
  ],
  "aliases": [],
  "shaders": [],
  "discord_id": "",
  "change_for": null
}