{
  "id": 101400,
  "name": "A.M.C.: Astro Marine Corps",
  "slug": "a-dot-m-c-dot-astro-marine-corps",
  "year": 1989,
  "banner_url": "",
  "icon_url": "",
  "coverart": "https://lutris.net/media/igdb/cover_big/co2gaw.jpg",
  "platforms": [
    {
      "name": "Amiga"
    },
    {
      "name": "Amstrad CPC"
    },
    {
      "name": "Atari ST"
    },
    {
      "name": "Commodore C64/128"
    },
    {
      "name": "MSX"
    },
    {
      "name": "ZX Spectrum"
    }
  ],
  "provider_games": [
    {
      "name": "A.M.C.: Astro Marine Corps",
      "slug": "a-dot-m-c-dot-astro-marine-corps",
      "service": "igdb"
    }
  ],
  "aliases": [],
  "shaders": [],
  "discord_id": "",
  "change_for": null
}