{
  "id": 197505,
  "name": "Momotaro Dentetsu G: Gold Deck wo Tsukure!",
  "slug": "momotaro-dentetsu-g-gold-deck-wo-tsukure",
  "year": 2005,
  "banner_url": "",
  "icon_url": "",
  "coverart": null,
  "platforms": [
    {
      "name": "Nintendo Game Boy Advance"
    }
  ],
  "provider_games": [
    {
      "name": "Momotaro Dentetsu G: Gold Deck wo Tsukure!",
      "slug": "momotaro-dentetsu-g-gold-deck-wo-tsukure",
      "service": "igdb"
    }
  ],
  "aliases": [],
  "shaders": [],
  "discord_id": "",
  "change_for": null
}