{
  "id": 294979,
  "name": "Sonic Adventures Revisited",
  "slug": "sonic-adventures-revisited",
  "year": null,
  "banner_url": "",
  "icon_url": "",
  "coverart": "https://lutris.net/media/igdb/cover_big/co8ss4.jpg",
  "platforms": [
    {
      "name": "Windows"
    }
  ],
  "provider_games": [
    {
      "name": "Sonic Adventures Revisited",
      "slug": "sonic-adventures-revisited",
      "service": "igdb"
    }
  ],
  "aliases": [],
  "shaders": [],
  "discord_id": "",
  "change_for": null
}