{
  "id": 111235,
  "name": "Puzzle & Action: Tant-R",
  "slug": "puzzle-and-action-tant-r",
  "year": 1992,
  "banner_url": "",
  "icon_url": "",
  "coverart": "https://lutris.net/media/igdb/cover_big/co2z06.jpg",
  "platforms": [
    {
      "name": "Sega Genesis / Mega Drive"
    }
  ],
  "provider_games": [
    {
      "name": "Puzzle & Action: Tant-R",
      "slug": "puzzle-and-action-tant-r",
      "service": "igdb"
    }
  ],
  "aliases": [],
  "shaders": [],
  "discord_id": "",
  "change_for": null
}