{
  "id": 149942,
  "name": "OneShot: Fading Memory",
  "slug": "oneshot-fading-memory",
  "year": 2021,
  "banner_url": "",
  "icon_url": "",
  "coverart": "https://lutris.net/media/igdb/cover_big/co3r8o.jpg",
  "platforms": [
    {
      "name": "Windows"
    }
  ],
  "provider_games": [
    {
      "name": "OneShot: Fading Memory",
      "slug": "oneshot-fading-memory",
      "service": "igdb"
    }
  ],
  "aliases": [],
  "shaders": [],
  "discord_id": "",
  "change_for": null
}