{
  "id": 203840,
  "name": "Gekko: Episode of Minato",
  "slug": "gekko-episode-of-minato",
  "year": null,
  "banner_url": "",
  "icon_url": "",
  "coverart": "https://lutris.net/media/igdb/cover_big/co4ecd.jpg",
  "platforms": [],
  "provider_games": [
    {
      "name": "Gekko: Episode of Minato",
      "slug": "gekko-episode-of-minato",
      "service": "igdb"
    }
  ],
  "aliases": [],
  "shaders": [],
  "discord_id": "",
  "change_for": null
}