{
  "id": 163246,
  "name": "Pugovki",
  "slug": "pugovki",
  "year": null,
  "banner_url": "",
  "icon_url": "",
  "coverart": "https://lutris.net/media/igdb/cover_big/co40l3.jpg",
  "platforms": [],
  "provider_games": [
    {
      "name": "Pugovki",
      "slug": "pugovki",
      "service": "igdb"
    }
  ],
  "aliases": [],
  "shaders": [],
  "discord_id": "",
  "change_for": null
}