{
  "id": 22032,
  "name": "Art of Murder - Cards of Destiny",
  "slug": "art-of-murder-cards-of-destiny",
  "year": 2009,
  "banner_url": "https://lutris.net/games/banner/art-of-murder-cards-of-destiny.jpg",
  "icon_url": "https://lutris.net/games/icon/art-of-murder-cards-of-destiny.png",
  "coverart": "https://lutris.net/media/igdb/cover_big/co1to4.jpg",
  "platforms": [
    {
      "name": "Windows"
    }
  ],
  "provider_games": [
    {
      "name": "Art of Murder - Cards of Destiny",
      "slug": "836770",
      "service": "steam"
    },
    {
      "name": "Art of Murder: Cards of Destiny",
      "slug": "art-of-murder-cards-of-destiny",
      "service": "igdb"
    }
  ],
  "aliases": [],
  "shaders": [],
  "discord_id": "",
  "change_for": null
}