{
  "id": 177306,
  "name": "MotoGP 13",
  "slug": "motogp-13",
  "year": 2013,
  "banner_url": "",
  "icon_url": "",
  "coverart": "https://lutris.net/media/igdb/cover_big/co2fyb.jpg",
  "platforms": [
    {
      "name": "PlayStation Vita"
    },
    {
      "name": "Sony Playstation 3"
    },
    {
      "name": "Windows"
    },
    {
      "name": "Xbox 360"
    }
  ],
  "provider_games": [
    {
      "name": "MotoGP 13",
      "slug": "motogp-13",
      "service": "igdb"
    }
  ],
  "aliases": [],
  "shaders": [],
  "discord_id": "",
  "change_for": null
}