{
  "id": 29905,
  "name": "Deathlike: Awakening",
  "slug": "deathlike-awakening",
  "year": 2017,
  "banner_url": "https://lutris.net/games/banner/deathlike-awakening.jpg",
  "icon_url": "https://lutris.net/games/icon/deathlike-awakening.png",
  "coverart": "https://lutris.net/media/igdb/cover_big/co2ar1.jpg",
  "platforms": [
    {
      "name": "Windows"
    }
  ],
  "provider_games": [
    {
      "name": "Deathlike: Awakening",
      "slug": "570230",
      "service": "steam"
    },
    {
      "name": "Deathlike: Awakening",
      "slug": "deathlike-awakening",
      "service": "igdb"
    }
  ],
  "aliases": [],
  "shaders": [],
  "discord_id": "",
  "change_for": null
}