{
  "id": 296965,
  "name": "Lost Diskettes Vol. 1",
  "slug": "lost-diskettes-vol-1",
  "year": 2024,
  "banner_url": "",
  "icon_url": "",
  "coverart": "https://lutris.net/media/igdb/cover_big/co8w1c.jpg",
  "platforms": [
    {
      "name": "Windows"
    }
  ],
  "provider_games": [
    {
      "name": "Lost Diskettes Vol. 1",
      "slug": "lost-diskettes-vol-1",
      "service": "igdb"
    }
  ],
  "aliases": [],
  "shaders": [],
  "discord_id": "",
  "change_for": null
}