{
  "id": 4143,
  "name": "Square Heroes",
  "slug": "square-heroes",
  "year": 2015,
  "banner_url": "https://lutris.net/games/banner/square-heroes.jpg",
  "icon_url": "https://lutris.net/games/icon/square-heroes.png",
  "coverart": "https://lutris.net/media/igdb/cover_big/co2re8.jpg",
  "platforms": [
    {
      "name": "Linux"
    },
    {
      "name": "Mac"
    },
    {
      "name": "Sony Playstation 4"
    },
    {
      "name": "Windows"
    }
  ],
  "provider_games": [
    {
      "name": "Square Heroes",
      "slug": "334560",
      "service": "steam"
    },
    {
      "name": "Square Heroes",
      "slug": "square-heroes",
      "service": "igdb"
    }
  ],
  "aliases": [],
  "shaders": [],
  "discord_id": "",
  "change_for": null
}