{
  "id": 257868,
  "name": "New Arc Line",
  "slug": "new-arc-line",
  "year": 2024,
  "banner_url": "",
  "icon_url": "",
  "coverart": "https://lutris.net/media/igdb/cover_big/co716b.jpg",
  "platforms": [
    {
      "name": "Sony PlayStation 5"
    },
    {
      "name": "Windows"
    },
    {
      "name": "Xbox Series X|S"
    }
  ],
  "provider_games": [
    {
      "name": "New Arc Line",
      "slug": "1388065821",
      "service": "gog"
    },
    {
      "name": "New Arc Line",
      "slug": "new-arc-line",
      "service": "igdb"
    }
  ],
  "aliases": [],
  "shaders": [],
  "discord_id": "",
  "change_for": null
}