{
  "id": 45514,
  "name": "King of the Monsters 2: The Next Thing",
  "slug": "king-of-the-monsters-2-the-next-thing",
  "year": null,
  "banner_url": "",
  "icon_url": "",
  "coverart": "https://lutris.net/media/igdb/cover_big/co8tdw.jpg",
  "platforms": [],
  "provider_games": [
    {
      "name": "King of the Monsters 2: The Next Thing",
      "slug": "king-of-the-monsters-2-the-next-thing",
      "service": "igdb"
    },
    {
      "name": "KING OF THE MONSTERS 2: THE NEXT THING",
      "slug": "1867335796",
      "service": "gog"
    }
  ],
  "aliases": [],
  "shaders": [],
  "discord_id": "",
  "change_for": null
}