{
  "id": 252914,
  "name": "Taboo Trial",
  "slug": "taboo-trial",
  "year": null,
  "banner_url": "",
  "icon_url": "",
  "coverart": "https://lutris.net/media/igdb/cover_big/co6utv.jpg",
  "platforms": [],
  "provider_games": [
    {
      "name": "Taboo Trial",
      "slug": "taboo-trial",
      "service": "igdb"
    }
  ],
  "aliases": [],
  "shaders": [],
  "discord_id": "",
  "change_for": null
}