{
  "id": 14195,
  "game_id": 28120,
  "game_slug": "portal-still-alive",
  "name": "Portal: Still Alive",
  "year": 2017,
  "user": "penguinsandpeople",
  "runner": "steam",
  "slug": "portal-still-alive-steammoddb",
  "version": "Steam/ModDB",
  "description": "The file that is required for installation is named \"Portal-StillAlive_Release.7z\" and can be downloaded here;https://www.moddb.com/mods/portal-still-alive-pc/downloads",
  "notes": "I found (possibly as a result of this bug: https://github.com/lutris/lutris/issues/1999) that on the first run the installer will request to install Portal, even though it is already installed.  Agreeing to install Portal results in a second entry for Portal in the library and the installer quitting without finishing the installation of the mod (which may be another bug).  A second run of the installer will succeed, as Lutris now believes that Portal is installed and continues without that step.",
  "credits": "",
  "created_at": "2019-06-18T21:50:35.878000Z",
  "updated_at": "2024-04-03T04:58:42.035068Z",
  "draft": false,
  "published": true,
  "published_by": 1,
  "rating": "",
  "is_playable": null,
  "steamid": null,
  "gogid": null,
  "gogslug": "",
  "humbleid": "",
  "humblestoreid": "",
  "humblestoreid_real": "",
  "script": {
    "files": [
      {
        "archive": "N/A:Please locate and select the Portal-StillAlive_Release.7z file"
      }
    ],
    "game": {
      "appid": 400,
      "args": "-game $STEAM_DATA_DIR/steamapps/sourcemods/portal-stillalive"
    },
    "installer": [
      {
        "execute": {
          "command": "7zr x -o$STEAM_DATA_DIR/steamapps/sourcemods/ -i!Portal-StillAlive $archive"
        }
      },
      {
        "move": {
          "dst": "$STEAM_DATA_DIR/steamapps/sourcemods/portal-stillalive",
          "src": "$STEAM_DATA_DIR/steamapps/sourcemods/Portal-StillAlive"
        }
      }
    ],
    "requires": "portal-steam",
    "require-binaries": "7zr"
  },
  "content": "files:\r\n- archive: N/A:Please locate and select the Portal-StillAlive_Release.7z file\r\ngame:\r\n  appid: 400\r\n  args: -game $STEAM_DATA_DIR/steamapps/sourcemods/portal-stillalive\r\ninstaller:\r\n- execute:\r\n    command: 7zr x -o$STEAM_DATA_DIR/steamapps/sourcemods/ -i!Portal-StillAlive $archive\r\n- move:\r\n    dst: $STEAM_DATA_DIR/steamapps/sourcemods/portal-stillalive\r\n    src: $STEAM_DATA_DIR/steamapps/sourcemods/Portal-StillAlive\r\nrequires: portal-steam\r\nrequire-binaries: 7zr",
  "discord_id": ""
}