{
  "id": 288372,
  "name": "Invasion of the Geminorons",
  "slug": "invasion-of-the-geminorons",
  "year": 2022,
  "banner_url": "",
  "icon_url": "",
  "coverart": "https://lutris.net/media/igdb/cover_big/co8az4.jpg",
  "platforms": [
    {
      "name": "Nintendo Game Boy Color"
    }
  ],
  "provider_games": [
    {
      "name": "Invasion of the Geminorons",
      "slug": "invasion-of-the-geminorons",
      "service": "igdb"
    }
  ],
  "aliases": [],
  "shaders": [],
  "discord_id": "",
  "change_for": null
}