{
  "id": 193881,
  "name": "Railway Islands",
  "slug": "railway-islands--1",
  "year": null,
  "banner_url": "",
  "icon_url": "",
  "coverart": "https://lutris.net/media/igdb/cover_big/co4lq8.jpg",
  "platforms": [],
  "provider_games": [
    {
      "name": "Railway Islands",
      "slug": "railway-islands--1",
      "service": "igdb"
    }
  ],
  "aliases": [],
  "shaders": [],
  "discord_id": "",
  "change_for": null
}