{
  "id": 262842,
  "name": "Jery Mice vs Cats: Home Invasion",
  "slug": "jery-mice-vs-cats-home-invasion",
  "year": null,
  "banner_url": "",
  "icon_url": "",
  "coverart": "https://lutris.net/media/igdb/cover_big/co77jd.jpg",
  "platforms": [],
  "provider_games": [
    {
      "name": "Jery Mice vs Cats: Home Invasion",
      "slug": "jery-mice-vs-cats-home-invasion",
      "service": "igdb"
    }
  ],
  "aliases": [],
  "shaders": [],
  "discord_id": "",
  "change_for": null
}