{
  "id": 270656,
  "name": "Rong Yu Zhi Hui Guan",
  "slug": "rong-yu-zhi-hui-guan",
  "year": 2020,
  "banner_url": "",
  "icon_url": "",
  "coverart": "https://lutris.net/media/igdb/cover_big/co7nj3.jpg",
  "platforms": [
    {
      "name": "Android"
    },
    {
      "name": "Mac"
    }
  ],
  "provider_games": [
    {
      "name": "Rong Yu Zhi Hui Guan",
      "slug": "rong-yu-zhi-hui-guan",
      "service": "igdb"
    }
  ],
  "aliases": [],
  "shaders": [],
  "discord_id": "",
  "change_for": null
}