{
  "id": 251701,
  "name": "Spiders in the Bath",
  "slug": "spiders-in-the-bath",
  "year": null,
  "banner_url": "",
  "icon_url": "",
  "coverart": null,
  "platforms": [],
  "provider_games": [
    {
      "name": "Spiders in the Bath",
      "slug": "spiders-in-the-bath",
      "service": "igdb"
    }
  ],
  "aliases": [],
  "shaders": [],
  "discord_id": "",
  "change_for": null
}