{
  "id": 188314,
  "name": "Half An Hour",
  "slug": "half-an-hour",
  "year": null,
  "banner_url": "",
  "icon_url": "",
  "coverart": null,
  "platforms": [],
  "provider_games": [
    {
      "name": "Half An Hour",
      "slug": "half-an-hour",
      "service": "igdb"
    }
  ],
  "aliases": [],
  "shaders": [],
  "discord_id": "",
  "change_for": null
}