{
  "id": 162686,
  "name": "Pokémon Tetris",
  "slug": "pokemon-tetris",
  "year": 2002,
  "banner_url": "",
  "icon_url": "",
  "coverart": "https://lutris.net/media/igdb/cover_big/co3bdd.jpg",
  "platforms": [
    {
      "name": "Pokémon mini"
    }
  ],
  "provider_games": [
    {
      "name": "Pokémon Tetris",
      "slug": "pokemon-tetris",
      "service": "igdb"
    }
  ],
  "aliases": [],
  "shaders": [],
  "discord_id": "",
  "change_for": null
}