{
  "id": 23075,
  "game_id": 29214,
  "game_slug": "control",
  "name": "Control",
  "year": 2019,
  "user": "sr98vn",
  "runner": "steam",
  "slug": "control-steam-proton",
  "version": "Steam Proton",
  "description": null,
  "notes": "",
  "credits": "",
  "created_at": "2020-08-28T01:17:04.760628Z",
  "updated_at": "2021-12-13T19:17:49.984897Z",
  "draft": false,
  "published": true,
  "published_by": null,
  "rating": "",
  "is_playable": null,
  "steamid": 870780,
  "gogid": 2049187585,
  "gogslug": "control_ultimate_edition",
  "humbleid": "",
  "humblestoreid": "",
  "humblestoreid_real": "",
  "script": {
    "game": {
      "appid": 870780
    }
  },
  "content": "game:\n  appid: 870780\n",
  "discord_id": ""
}