{
  "id": 22331,
  "name": "Spa Mania 2",
  "slug": "spa-mania-2",
  "year": 2016,
  "banner_url": "https://lutris.net/games/banner/spa-mania-2.jpg",
  "icon_url": "https://lutris.net/games/icon/spa-mania-2.png",
  "coverart": "https://lutris.net/media/igdb/cover_big/co1scx.jpg",
  "platforms": [
    {
      "name": "Windows"
    }
  ],
  "provider_games": [
    {
      "name": "Spa Mania 2",
      "slug": "527930",
      "service": "steam"
    },
    {
      "name": "Spa Mania 2",
      "slug": "spa-mania-2",
      "service": "igdb"
    }
  ],
  "aliases": [],
  "shaders": [],
  "discord_id": "",
  "change_for": null
}