{
  "id": 286295,
  "name": "Skizz",
  "slug": "skizz",
  "year": null,
  "banner_url": "",
  "icon_url": "",
  "coverart": "https://lutris.net/media/igdb/cover_big/co88ah.jpg",
  "platforms": [],
  "provider_games": [
    {
      "name": "Skizz",
      "slug": "skizz",
      "service": "igdb"
    }
  ],
  "aliases": [],
  "shaders": [],
  "discord_id": "",
  "change_for": null
}