{
  "id": 235459,
  "name": "The Final Bastion",
  "slug": "the-final-bastion",
  "year": null,
  "banner_url": "",
  "icon_url": "",
  "coverart": "https://lutris.net/media/igdb/cover_big/co664c.jpg",
  "platforms": [],
  "provider_games": [
    {
      "name": "The Final Bastion",
      "slug": "the-final-bastion",
      "service": "igdb"
    }
  ],
  "aliases": [],
  "shaders": [],
  "discord_id": "",
  "change_for": null
}