{
  "id": 252931,
  "name": "Sex City: 2069",
  "slug": "sex-city-2069",
  "year": null,
  "banner_url": "",
  "icon_url": "",
  "coverart": "https://lutris.net/media/igdb/cover_big/co6uro.jpg",
  "platforms": [],
  "provider_games": [
    {
      "name": "Sex City: 2069",
      "slug": "sex-city-2069",
      "service": "igdb"
    }
  ],
  "aliases": [],
  "shaders": [],
  "discord_id": "",
  "change_for": null
}