{
  "id": 1337,
  "game_id": 3778,
  "game_slug": "across-the-rhine",
  "name": "Across The Rhine",
  "year": 2014,
  "user": "Xodetaetl",
  "runner": "steam",
  "slug": "across-the-rhine-steam",
  "version": "Steam",
  "description": "",
  "notes": "",
  "credits": "",
  "created_at": "2015-02-25T19:41:19.444000Z",
  "updated_at": "2015-02-25T20:44:03.392000Z",
  "draft": false,
  "published": true,
  "published_by": null,
  "rating": "",
  "is_playable": null,
  "steamid": 329620,
  "gogid": 1750732815,
  "gogslug": "across_the_rhine",
  "humbleid": "",
  "humblestoreid": "",
  "humblestoreid_real": "",
  "script": {
    "game": {
      "appid": 329620
    }
  },
  "content": "game:\n  appid: 329620\n",
  "discord_id": ""
}