{
  "id": 201451,
  "name": "Micro Stunt Machina",
  "slug": "micro-stunt-machina",
  "year": null,
  "banner_url": "",
  "icon_url": "",
  "coverart": "https://lutris.net/media/igdb/cover_big/co4ls3.jpg",
  "platforms": [],
  "provider_games": [
    {
      "name": "Micro Stunt Machina",
      "slug": "micro-stunt-machina",
      "service": "igdb"
    }
  ],
  "aliases": [],
  "shaders": [],
  "discord_id": "",
  "change_for": null
}