{
  "id": 251734,
  "name": "Oyako de Manabu SDGs",
  "slug": "oyako-de-manabu-sdgs",
  "year": null,
  "banner_url": "",
  "icon_url": "",
  "coverart": null,
  "platforms": [],
  "provider_games": [
    {
      "name": "Oyako de Manabu SDGs",
      "slug": "oyako-de-manabu-sdgs",
      "service": "igdb"
    }
  ],
  "aliases": [],
  "shaders": [],
  "discord_id": "",
  "change_for": null
}