{
  "id": 64871,
  "name": "My Stop Smoking Coach with Allen Carr",
  "slug": "my-stop-smoking-coach-with-allen-carr",
  "year": null,
  "banner_url": "",
  "icon_url": "",
  "coverart": "https://lutris.net/media/igdb/cover_big/zrfvi4bx1rkcddd6cn0o.jpg",
  "platforms": [],
  "provider_games": [
    {
      "name": "My Stop Smoking Coach with Allen Carr",
      "slug": "my-stop-smoking-coach-with-allen-carr",
      "service": "igdb"
    }
  ],
  "aliases": [],
  "shaders": [],
  "discord_id": "",
  "change_for": null
}