{
  "id": 18054,
  "name": "JAILBREAK",
  "slug": "jailbreak",
  "year": null,
  "banner_url": "https://lutris.net/games/banner/jailbreak.jpg",
  "icon_url": "https://lutris.net/games/icon/jailbreak.png",
  "coverart": null,
  "platforms": [],
  "provider_games": [
    {
      "name": "Jailbreak",
      "slug": "jailbreak",
      "service": "igdb"
    }
  ],
  "aliases": [],
  "shaders": [],
  "discord_id": "",
  "change_for": null
}