{
  "id": 127684,
  "name": "Fire Emblem: Gilmore Girls",
  "slug": "fire-emblem-gilmore-girls",
  "year": 2021,
  "banner_url": "",
  "icon_url": "",
  "coverart": "https://lutris.net/media/igdb/cover_big/co2yke.jpg",
  "platforms": [
    {
      "name": "Nintendo Game Boy Advance"
    }
  ],
  "provider_games": [
    {
      "name": "Fire Emblem: Gilmore Girls",
      "slug": "fire-emblem-gilmore-girls",
      "service": "igdb"
    }
  ],
  "aliases": [],
  "shaders": [],
  "discord_id": "",
  "change_for": null
}