{
  "id": 213982,
  "name": "Gravity Magician",
  "slug": "gravity-magician",
  "year": null,
  "banner_url": "",
  "icon_url": "",
  "coverart": "https://lutris.net/media/igdb/cover_big/co5t06.jpg",
  "platforms": [],
  "provider_games": [
    {
      "name": "Gravity Magician",
      "slug": "gravity-magician",
      "service": "igdb"
    }
  ],
  "aliases": [],
  "shaders": [],
  "discord_id": "",
  "change_for": null
}