{
  "id": 38390,
  "game_id": 182287,
  "game_slug": "dungeon-siege-ii",
  "name": "Dungeon Siege II",
  "year": 2005,
  "user": "vanstaveren",
  "runner": "steam",
  "slug": "dungeon-siege-ii-steam",
  "version": "steam",
  "description": "",
  "notes": "",
  "credits": "",
  "created_at": "2024-04-03T01:49:24.340795Z",
  "updated_at": "2024-04-03T01:49:24.340817Z",
  "draft": false,
  "published": true,
  "published_by": null,
  "rating": "",
  "is_playable": null,
  "steamid": null,
  "gogid": 1837106902,
  "gogslug": "dungeon_siege_collection",
  "humbleid": "",
  "humblestoreid": "",
  "humblestoreid_real": "",
  "script": {
    "game": {
      "appid": 39200
    }
  },
  "content": "game:\n  appid: 39200\n",
  "discord_id": ""
}