{
  "id": 52869,
  "name": "Canyon Climber",
  "slug": "canyon-climber",
  "year": 1982,
  "banner_url": "",
  "icon_url": "",
  "coverart": "https://lutris.net/media/igdb/cover_big/oljuzwioeqxq93zamrbp.jpg",
  "platforms": [
    {
      "name": "Apple II"
    },
    {
      "name": "Atari 8-bit"
    },
    {
      "name": "NEC PC-6000 Series"
    },
    {
      "name": "TRS-80 Color Computer"
    }
  ],
  "provider_games": [
    {
      "name": "Canyon Climber",
      "slug": "canyon-climber",
      "service": "igdb"
    }
  ],
  "aliases": [],
  "shaders": [],
  "discord_id": "",
  "change_for": null
}