{
  "id": 147768,
  "name": "Dark Wish",
  "slug": "dark-wish",
  "year": 2019,
  "banner_url": "https://lutris.net/games/banner/dark-wish.jpg",
  "icon_url": "",
  "coverart": null,
  "platforms": [
    {
      "name": "Linux"
    },
    {
      "name": "Windows"
    }
  ],
  "provider_games": [
    {
      "name": "Dark Wish",
      "slug": "762630",
      "service": "steam"
    },
    {
      "name": "Dark Wish",
      "slug": "dark-wish",
      "service": "igdb"
    }
  ],
  "aliases": [],
  "shaders": [],
  "discord_id": "",
  "change_for": null
}