{
  "id": 48485,
  "name": "The Apprentice",
  "slug": "the-apprentice--1",
  "year": 1994,
  "banner_url": "",
  "icon_url": "",
  "coverart": "https://lutris.net/media/igdb/cover_big/co1lnq.jpg",
  "platforms": [
    {
      "name": "Philips CD-i"
    }
  ],
  "provider_games": [
    {
      "name": "The Apprentice",
      "slug": "the-apprentice--1",
      "service": "igdb"
    }
  ],
  "aliases": [],
  "shaders": [],
  "discord_id": "",
  "change_for": null
}