{
  "id": 9069,
  "name": "The Corporate Machine",
  "slug": "the-corporate-machine",
  "year": 2015,
  "banner_url": "https://lutris.net/games/banner/the-corporate-machine.jpg",
  "icon_url": "https://lutris.net/games/icon/the-corporate-machine.png",
  "coverart": "https://lutris.net/media/igdb/cover_big/co434h.jpg",
  "platforms": [
    {
      "name": "Windows"
    }
  ],
  "provider_games": [
    {
      "name": "The Corporate Machine",
      "slug": "351080",
      "service": "steam"
    },
    {
      "name": "The Corporate Machine",
      "slug": "the-corporate-machine",
      "service": "igdb"
    }
  ],
  "aliases": [],
  "shaders": [],
  "discord_id": "",
  "change_for": null
}