{
  "id": 21816,
  "game_id": 37421,
  "game_slug": "noise-hunters",
  "name": "Noise Hunters",
  "year": null,
  "user": "vanstaveren",
  "runner": "steam",
  "slug": "noise-hunters-steam",
  "version": "steam",
  "description": null,
  "notes": "",
  "credits": "",
  "created_at": "2020-06-22T08:30:03.097913Z",
  "updated_at": "2021-12-13T19:10:38.584834Z",
  "draft": false,
  "published": true,
  "published_by": null,
  "rating": "",
  "is_playable": null,
  "steamid": null,
  "gogid": null,
  "gogslug": "",
  "humbleid": "",
  "humblestoreid": "",
  "humblestoreid_real": "",
  "script": {
    "game": {
      "appid": 1303440
    }
  },
  "content": "game:\n  appid: 1303440\n",
  "discord_id": ""
}