{
  "id": 227855,
  "name": "Alone in the Grey",
  "slug": "alone-in-the-grey--1",
  "year": null,
  "banner_url": "",
  "icon_url": "",
  "coverart": "https://lutris.net/media/igdb/cover_big/co4rht.jpg",
  "platforms": [],
  "provider_games": [
    {
      "name": "Alone in the Grey",
      "slug": "alone-in-the-grey--1",
      "service": "igdb"
    }
  ],
  "aliases": [],
  "shaders": [],
  "discord_id": "",
  "change_for": null
}