{
  "id": 203103,
  "name": "The Game of Life 3",
  "slug": "the-game-of-life-3",
  "year": 1996,
  "banner_url": "",
  "icon_url": "",
  "coverart": null,
  "platforms": [
    {
      "name": "Super Famicom"
    }
  ],
  "provider_games": [
    {
      "name": "The Game of Life 3",
      "slug": "the-game-of-life-3",
      "service": "igdb"
    }
  ],
  "aliases": [],
  "shaders": [],
  "discord_id": "",
  "change_for": null
}