{
  "id": 198024,
  "name": "Ploc",
  "slug": "ploc",
  "year": null,
  "banner_url": "",
  "icon_url": "",
  "coverart": "https://lutris.net/media/igdb/cover_big/co4jev.jpg",
  "platforms": [],
  "provider_games": [
    {
      "name": "Ploc",
      "slug": "ploc",
      "service": "igdb"
    }
  ],
  "aliases": [],
  "shaders": [],
  "discord_id": "",
  "change_for": null
}