{
  "id": 198132,
  "name": "Hidden Western",
  "slug": "hidden-western",
  "year": null,
  "banner_url": "",
  "icon_url": "",
  "coverart": "https://lutris.net/media/igdb/cover_big/co4j73.jpg",
  "platforms": [],
  "provider_games": [
    {
      "name": "Hidden Western",
      "slug": "hidden-western",
      "service": "igdb"
    }
  ],
  "aliases": [],
  "shaders": [],
  "discord_id": "",
  "change_for": null
}