{
  "id": 135129,
  "name": "Contract Work",
  "slug": "contract-work",
  "year": null,
  "banner_url": "",
  "icon_url": "",
  "coverart": "https://lutris.net/media/igdb/cover_big/co3nj0.jpg",
  "platforms": [],
  "provider_games": [
    {
      "name": "Contract Work",
      "slug": "contract-work",
      "service": "igdb"
    }
  ],
  "aliases": [],
  "shaders": [],
  "discord_id": "",
  "change_for": null
}