{
  "id": 191477,
  "name": "The Seventh Sign -Mr.Sister-",
  "slug": "the-seventh-sign-mrsister-",
  "year": null,
  "banner_url": "https://lutris.net/games/banner/the-seventh-sign-mrsister-.jpg",
  "icon_url": "",
  "coverart": null,
  "platforms": [],
  "provider_games": [
    {
      "name": "The Seventh Sign -Mr.Sister-",
      "slug": "1827581176",
      "service": "gog"
    }
  ],
  "aliases": [],
  "shaders": [],
  "discord_id": "",
  "change_for": null
}