{
  "id": 18829,
  "name": "PooSky",
  "slug": "poosky",
  "year": 2017,
  "banner_url": "https://lutris.net/games/banner/poosky.jpg",
  "icon_url": "https://lutris.net/games/icon/poosky.png",
  "coverart": "https://lutris.net/media/igdb/cover_big/co8dp4.jpg",
  "platforms": [
    {
      "name": "Windows"
    }
  ],
  "provider_games": [
    {
      "name": "PooSky",
      "slug": "715840",
      "service": "steam"
    },
    {
      "name": "PooSky",
      "slug": "poosky",
      "service": "igdb"
    }
  ],
  "aliases": [],
  "shaders": [],
  "discord_id": "",
  "change_for": null
}