{
  "id": 167353,
  "name": "The Monster of Memory: Destiny",
  "slug": "the-monster-of-memory-destiny",
  "year": null,
  "banner_url": "",
  "icon_url": "",
  "coverart": "https://lutris.net/media/igdb/cover_big/co43zd.jpg",
  "platforms": [],
  "provider_games": [
    {
      "name": "The Monster of Memory: Destiny",
      "slug": "the-monster-of-memory-destiny",
      "service": "igdb"
    }
  ],
  "aliases": [],
  "shaders": [],
  "discord_id": "",
  "change_for": null
}