{
  "id": 26915,
  "name": "AIPD - Artificial Intelligence Police Department",
  "slug": "aipd-artificial-intelligence-police-department",
  "year": 2016,
  "banner_url": "https://lutris.net/games/banner/aipd-artificial-intelligence-police-department.jpg",
  "icon_url": "https://lutris.net/games/icon/aipd-artificial-intelligence-police-department.png",
  "coverart": "https://lutris.net/media/igdb/cover_big/lg60m41ujogsajvnwqyc.jpg",
  "platforms": [
    {
      "name": "Sony Playstation 4"
    },
    {
      "name": "Windows"
    },
    {
      "name": "Xbox One"
    }
  ],
  "provider_games": [
    {
      "name": "AIPD - Artificial Intelligence Police Department",
      "slug": "390930",
      "service": "steam"
    },
    {
      "name": "AIPD - Artificial Intelligence Police Department",
      "slug": "aipd-artificial-intelligence-police-department",
      "service": "igdb"
    }
  ],
  "aliases": [],
  "shaders": [],
  "discord_id": "",
  "change_for": null
}