{
  "id": 110570,
  "name": "Entity",
  "slug": "entity--1",
  "year": 1993,
  "banner_url": "",
  "icon_url": "",
  "coverart": "https://lutris.net/media/igdb/cover_big/co2z9n.jpg",
  "platforms": [
    {
      "name": "Amiga"
    }
  ],
  "provider_games": [
    {
      "name": "Entity",
      "slug": "entity--1",
      "service": "igdb"
    }
  ],
  "aliases": [],
  "shaders": [],
  "discord_id": "",
  "change_for": null
}