{
  "id": 185430,
  "name": "To The HeIghts of My Heart",
  "slug": "to-the-heights-of-my-heart",
  "year": null,
  "banner_url": "",
  "icon_url": "",
  "coverart": null,
  "platforms": [],
  "provider_games": [
    {
      "name": "To the HeIghts of My Heart",
      "slug": "to-the-heights-of-my-heart",
      "service": "igdb"
    }
  ],
  "aliases": [],
  "shaders": [],
  "discord_id": "",
  "change_for": null
}