{
  "id": 16678,
  "name": "Blaster Cop",
  "slug": "blaster-cop",
  "year": 2017,
  "banner_url": "https://lutris.net/games/banner/blaster-cop.jpg",
  "icon_url": "https://lutris.net/games/icon/blaster-cop.png",
  "coverart": "https://lutris.net/media/igdb/cover_big/co29y8.jpg",
  "platforms": [
    {
      "name": "Windows"
    }
  ],
  "provider_games": [
    {
      "name": "Blaster Cop",
      "slug": "blaster-cop",
      "service": "igdb"
    }
  ],
  "aliases": [],
  "shaders": [],
  "discord_id": "",
  "change_for": null
}