{
  "id": 211465,
  "name": "Are You Afraid of the Dark",
  "slug": "are-you-afraid-of-the-dark",
  "year": null,
  "banner_url": "",
  "icon_url": "",
  "coverart": "https://lutris.net/media/igdb/cover_big/co5fdc.jpg",
  "platforms": [],
  "provider_games": [
    {
      "name": "Are You Afraid of the Dark",
      "slug": "are-you-afraid-of-the-dark",
      "service": "igdb"
    }
  ],
  "aliases": [],
  "shaders": [],
  "discord_id": "",
  "change_for": null
}