{
  "id": 275826,
  "name": "Oblivion Eve",
  "slug": "oblivion-eve",
  "year": 2024,
  "banner_url": "",
  "icon_url": "",
  "coverart": "https://lutris.net/media/igdb/cover_big/co7v8c.jpg",
  "platforms": [
    {
      "name": "Browser"
    },
    {
      "name": "Linux"
    },
    {
      "name": "Mac"
    },
    {
      "name": "Windows"
    }
  ],
  "provider_games": [
    {
      "name": "Oblivion Eve",
      "slug": "oblivion-eve",
      "service": "igdb"
    }
  ],
  "aliases": [],
  "shaders": [],
  "discord_id": "",
  "change_for": null
}