{
  "id": 197544,
  "name": "Idle Luca",
  "slug": "idle-luca",
  "year": null,
  "banner_url": "",
  "icon_url": "",
  "coverart": "https://lutris.net/media/igdb/cover_big/co63c2.jpg",
  "platforms": [],
  "provider_games": [
    {
      "name": "Idle Luca",
      "slug": "idle-luca",
      "service": "igdb"
    }
  ],
  "aliases": [],
  "shaders": [],
  "discord_id": "",
  "change_for": null
}