{
  "id": 78896,
  "name": "Radar Simulation",
  "slug": "radar-simulation",
  "year": null,
  "banner_url": "",
  "icon_url": "",
  "coverart": null,
  "platforms": [],
  "provider_games": [
    {
      "name": "Radar Simulation",
      "slug": "radar-simulation",
      "service": "igdb"
    }
  ],
  "aliases": [],
  "shaders": [],
  "discord_id": "",
  "change_for": null
}