{
  "id": 22726,
  "name": "Cluster Dust",
  "slug": "cluster-dust",
  "year": 2018,
  "banner_url": "https://lutris.net/games/banner/cluster-dust.jpg",
  "icon_url": "https://lutris.net/games/icon/cluster-dust.png",
  "coverart": null,
  "platforms": [
    {
      "name": "Windows"
    }
  ],
  "provider_games": [
    {
      "name": "Cluster Dust",
      "slug": "802070",
      "service": "steam"
    },
    {
      "name": "Cluster Dust",
      "slug": "cluster-dust",
      "service": "igdb"
    }
  ],
  "aliases": [],
  "shaders": [],
  "discord_id": "",
  "change_for": null
}