{
  "id": 53199,
  "name": "Blockade Runner",
  "slug": "blockade-runner",
  "year": 1983,
  "banner_url": "",
  "icon_url": "",
  "coverart": "https://lutris.net/media/igdb/cover_big/co1pil.jpg",
  "platforms": [
    {
      "name": "Colecovision"
    },
    {
      "name": "Commodore C64/128"
    },
    {
      "name": "Intellivision"
    },
    {
      "name": "MSX"
    }
  ],
  "provider_games": [
    {
      "name": "Blockade Runner",
      "slug": "blockade-runner",
      "service": "igdb"
    }
  ],
  "aliases": [],
  "shaders": [],
  "discord_id": "",
  "change_for": null
}