{
  "id": 35123,
  "name": "Nitro Ball",
  "slug": "nitro-ball",
  "year": 1992,
  "banner_url": "https://lutris.net/games/banner/nitro-ball.jpg",
  "icon_url": "https://lutris.net/games/icon/nitro-ball.png",
  "coverart": "https://lutris.net/media/igdb/cover_big/zajj3o5vwpynt2n4o9fn.jpg",
  "platforms": [
    {
      "name": "Arcade"
    }
  ],
  "provider_games": [
    {
      "name": "Nitro Ball",
      "slug": "nitrobal",
      "service": "mame"
    },
    {
      "name": "Nitro Ball",
      "slug": "nitro-ball",
      "service": "igdb"
    }
  ],
  "aliases": [],
  "shaders": [],
  "discord_id": "",
  "change_for": null
}