{
  "id": 124009,
  "name": "Amelia's Curse",
  "slug": "amelias-curse",
  "year": 2018,
  "banner_url": "",
  "icon_url": "",
  "coverart": null,
  "platforms": [
    {
      "name": "Windows"
    }
  ],
  "provider_games": [
    {
      "name": "Amelia's Curse",
      "slug": "amelias-curse",
      "service": "igdb"
    }
  ],
  "aliases": [],
  "shaders": [],
  "discord_id": "",
  "change_for": null
}