{
  "id": 121291,
  "name": "Another Hardcore Game",
  "slug": "another-hardcore-game",
  "year": null,
  "banner_url": "",
  "icon_url": "",
  "coverart": null,
  "platforms": [],
  "provider_games": [
    {
      "name": "Another Hardcore Game",
      "slug": "another-hardcore-game",
      "service": "igdb"
    }
  ],
  "aliases": [],
  "shaders": [],
  "discord_id": "",
  "change_for": null
}