{
  "id": 252929,
  "name": "Wizard's Owl: Magic Delivery",
  "slug": "wizards-owl-magic-delivery",
  "year": null,
  "banner_url": "",
  "icon_url": "",
  "coverart": "https://lutris.net/media/igdb/cover_big/co6usa.jpg",
  "platforms": [],
  "provider_games": [
    {
      "name": "Wizard's Owl: Magic Delivery",
      "slug": "wizards-owl-magic-delivery",
      "service": "igdb"
    }
  ],
  "aliases": [],
  "shaders": [],
  "discord_id": "",
  "change_for": null
}