{
  "id": 167809,
  "name": "Karma City Police",
  "slug": "karma-city-police",
  "year": null,
  "banner_url": "https://lutris.net/games/banner/karma-city-police.jpg",
  "icon_url": "",
  "coverart": "https://lutris.net/media/igdb/cover_big/co44fj.jpg",
  "platforms": [],
  "provider_games": [
    {
      "name": "Karma City Police",
      "slug": "1270850",
      "service": "steam"
    },
    {
      "name": "Karma City Police",
      "slug": "karma-city-police",
      "service": "igdb"
    }
  ],
  "aliases": [],
  "shaders": [],
  "discord_id": "",
  "change_for": null
}