{
  "id": 163362,
  "name": "New Yankee in King Arthur's Court 4: Collector's Edition",
  "slug": "new-yankee-in-king-arthurs-court-4-collectors-edition",
  "year": null,
  "banner_url": "",
  "icon_url": "",
  "coverart": "https://lutris.net/media/igdb/cover_big/co40n6.jpg",
  "platforms": [],
  "provider_games": [
    {
      "name": "New Yankee in King Arthur's Court 4: Collector's Edition",
      "slug": "new-yankee-in-king-arthurs-court-4-collectors-edition",
      "service": "igdb"
    }
  ],
  "aliases": [],
  "shaders": [],
  "discord_id": "",
  "change_for": null
}