{
  "id": 293702,
  "name": "DeathGearX",
  "slug": "deathgearx",
  "year": null,
  "banner_url": "",
  "icon_url": "",
  "coverart": "https://lutris.net/media/igdb/cover_big/co8n3b.jpg",
  "platforms": [],
  "provider_games": [
    {
      "name": "DeathGearX",
      "slug": "deathgearx",
      "service": "igdb"
    }
  ],
  "aliases": [],
  "shaders": [],
  "discord_id": "",
  "change_for": null
}