{
  "id": 1998,
  "game_id": 5363,
  "game_slug": "world-war-ii-gi",
  "name": "World War II GI",
  "year": 1999,
  "user": "dennisjj4",
  "runner": "steam",
  "slug": "world-war-ii-gi-steam",
  "version": "Steam",
  "description": "",
  "notes": "",
  "credits": "",
  "created_at": "2016-02-28T21:06:06.825065Z",
  "updated_at": "2016-03-03T13:32:47.225338Z",
  "draft": false,
  "published": true,
  "published_by": null,
  "rating": "",
  "is_playable": null,
  "steamid": 376750,
  "gogid": 1625778777,
  "gogslug": "tnt_war_bundle",
  "humbleid": "",
  "humblestoreid": "",
  "humblestoreid_real": "",
  "script": {
    "game": {
      "appid": 376750
    }
  },
  "content": "game:\n  appid: 376750\n",
  "discord_id": ""
}