{
  "id": 38929,
  "name": "Online Simulator",
  "slug": "online-simulator",
  "year": 2019,
  "banner_url": "https://lutris.net/games/banner/online-simulator.jpg",
  "icon_url": "",
  "coverart": "https://lutris.net/media/igdb/cover_big/co2cog.jpg",
  "platforms": [
    {
      "name": "Windows"
    }
  ],
  "provider_games": [
    {
      "name": "Online Simulator",
      "slug": "online-simulator",
      "service": "igdb"
    }
  ],
  "aliases": [],
  "shaders": [],
  "discord_id": "",
  "change_for": null
}