{
  "id": 137277,
  "name": "EscapeRoute",
  "slug": "escaperoute",
  "year": null,
  "banner_url": "",
  "icon_url": "",
  "coverart": "https://lutris.net/media/igdb/cover_big/co3qcz.jpg",
  "platforms": [],
  "provider_games": [
    {
      "name": "EscapeRoute",
      "slug": "escaperoute",
      "service": "igdb"
    }
  ],
  "aliases": [],
  "shaders": [],
  "discord_id": "",
  "change_for": null
}