{
  "id": 223588,
  "name": "Cosmic Strike: The Last Sub Sector",
  "slug": "cosmic-strike-the-last-sub-sector",
  "year": 2023,
  "banner_url": "",
  "icon_url": "",
  "coverart": "https://lutris.net/media/igdb/cover_big/co4vw3.jpg",
  "platforms": [
    {
      "name": "Windows"
    }
  ],
  "provider_games": [
    {
      "name": "Cosmic Strike: The Last Sub Sector",
      "slug": "cosmic-strike-the-last-sub-sector",
      "service": "igdb"
    }
  ],
  "aliases": [],
  "shaders": [],
  "discord_id": "",
  "change_for": null
}