{
  "id": 203140,
  "name": "RPG Tsukuuru 2003",
  "slug": "rpg-tsukuuru-2003",
  "year": 2002,
  "banner_url": "",
  "icon_url": "",
  "coverart": null,
  "platforms": [
    {
      "name": "Windows"
    }
  ],
  "provider_games": [
    {
      "name": "RPG Tsukuuru 2003",
      "slug": "rpg-tsukuuru-2003",
      "service": "igdb"
    }
  ],
  "aliases": [],
  "shaders": [],
  "discord_id": "",
  "change_for": null
}