{
  "id": 271859,
  "name": "Claris the Princess Knight",
  "slug": "claris-the-princess-knight",
  "year": null,
  "banner_url": "https://lutris.net/games/banner/claris-the-princess-knight.jpg",
  "icon_url": "https://lutris.net/games/icon/claris-the-princess-knight.png",
  "coverart": null,
  "platforms": [],
  "provider_games": [
    {
      "name": "Claris the Princess Knight",
      "slug": "1948920",
      "service": "steam"
    }
  ],
  "aliases": [],
  "shaders": [],
  "discord_id": "",
  "change_for": null
}