{
  "id": 228718,
  "name": "Craftomation 101: Programming & Craft",
  "slug": "craftomation-101-programming-craft",
  "year": null,
  "banner_url": "",
  "icon_url": "",
  "coverart": null,
  "platforms": [],
  "provider_games": [
    {
      "name": "Craftomation 101: Programming & Craft",
      "slug": "1311462573",
      "service": "gog"
    }
  ],
  "aliases": [],
  "shaders": [],
  "discord_id": "",
  "change_for": null
}