{
  "id": 277291,
  "name": "Something is Missing...",
  "slug": "something-is-missing-dot-dot-dot",
  "year": null,
  "banner_url": "",
  "icon_url": "",
  "coverart": "https://lutris.net/media/igdb/cover_big/co7vys.jpg",
  "platforms": [
    {
      "name": "Browser"
    }
  ],
  "provider_games": [
    {
      "name": "Something is Missing...",
      "slug": "something-is-missing-dot-dot-dot",
      "service": "igdb"
    }
  ],
  "aliases": [],
  "shaders": [],
  "discord_id": "",
  "change_for": null
}