{
  "id": 117356,
  "name": "Pocket Academy",
  "slug": "pocket-academy",
  "year": 2019,
  "banner_url": "https://lutris.net/games/banner/pocket-academy.jpg",
  "icon_url": "",
  "coverart": "https://lutris.net/media/igdb/cover_big/wuy661wxx8zp7nnznwur.jpg",
  "platforms": [
    {
      "name": "Nintendo Switch"
    },
    {
      "name": "Sony Playstation 4"
    }
  ],
  "provider_games": [
    {
      "name": "Pocket Academy",
      "slug": "pocket-academy",
      "service": "igdb"
    },
    {
      "name": "Pocket Academy",
      "slug": "1921760",
      "service": "steam"
    }
  ],
  "aliases": [],
  "shaders": [],
  "discord_id": "",
  "change_for": null
}