{
  "id": 219684,
  "name": "Planet Theta",
  "slug": "planet-theta",
  "year": null,
  "banner_url": "",
  "icon_url": "",
  "coverart": "https://lutris.net/media/igdb/cover_big/co5kii.jpg",
  "platforms": [],
  "provider_games": [
    {
      "name": "Planet Theta",
      "slug": "planet-theta",
      "service": "igdb"
    }
  ],
  "aliases": [],
  "shaders": [],
  "discord_id": "",
  "change_for": null
}