{
  "id": 284366,
  "name": "SYNC Sam, Sam, and Friends Studios",
  "slug": "sync-sam-sam-and-friends-studios",
  "year": 2024,
  "banner_url": "",
  "icon_url": "",
  "coverart": null,
  "platforms": [],
  "provider_games": [],
  "aliases": [],
  "shaders": [],
  "discord_id": "",
  "change_for": null
}