{
  "id": 56632,
  "name": "Lights, Camera, Party!",
  "slug": "lights-camera-party",
  "year": 2012,
  "banner_url": "",
  "icon_url": "",
  "coverart": "https://lutris.net/media/igdb/cover_big/trzdvoep7pjgfruru5yy.jpg",
  "platforms": [
    {
      "name": "Sony Playstation 3"
    }
  ],
  "provider_games": [
    {
      "name": "Lights, Camera, Party!",
      "slug": "lights-camera-party",
      "service": "igdb"
    }
  ],
  "aliases": [],
  "shaders": [],
  "discord_id": "",
  "change_for": null
}