{
  "id": 147119,
  "name": "Command: Modern Air / Naval Operations WOTY",
  "slug": "command-modern-air-slash-naval-operations-woty",
  "year": 2014,
  "banner_url": "",
  "icon_url": "",
  "coverart": "https://lutris.net/media/igdb/cover_big/co3nhh.jpg",
  "platforms": [
    {
      "name": "Windows"
    }
  ],
  "provider_games": [
    {
      "name": "Command: Modern Air / Naval Operations WOTY",
      "slug": "command-modern-air-slash-naval-operations-woty",
      "service": "igdb"
    }
  ],
  "aliases": [],
  "shaders": [],
  "discord_id": "",
  "change_for": null
}