{
  "id": 225231,
  "name": "Unoffensible",
  "slug": "unoffensible",
  "year": null,
  "banner_url": "",
  "icon_url": "",
  "coverart": "https://lutris.net/media/igdb/cover_big/co5ib5.jpg",
  "platforms": [],
  "provider_games": [
    {
      "name": "Unoffensible",
      "slug": "unoffensible",
      "service": "igdb"
    }
  ],
  "aliases": [],
  "shaders": [],
  "discord_id": "",
  "change_for": null
}