{
  "id": 239334,
  "name": "Brick Breaker Star: Space King",
  "slug": "brick-breaker-star-space-king",
  "year": 2016,
  "banner_url": "",
  "icon_url": "",
  "coverart": null,
  "platforms": [
    {
      "name": "Android"
    }
  ],
  "provider_games": [
    {
      "name": "Brick Breaker Star: Space King",
      "slug": "brick-breaker-star-space-king",
      "service": "igdb"
    }
  ],
  "aliases": [],
  "shaders": [],
  "discord_id": "",
  "change_for": null
}