{
  "id": 37044,
  "name": "Ingrid's Back!",
  "slug": "ingrids-back",
  "year": 1988,
  "banner_url": "https://lutris.net/games/banner/ingrids-back.jpg",
  "icon_url": "",
  "coverart": "https://lutris.net/media/igdb/cover_big/djgxuk1fput8dqkxskbi.jpg",
  "platforms": [
    {
      "name": "Amiga"
    },
    {
      "name": "Amstrad CPC"
    },
    {
      "name": "Apple II"
    },
    {
      "name": "Atari 8-bit"
    },
    {
      "name": "Atari ST"
    },
    {
      "name": "BBC Microcomputer System"
    },
    {
      "name": "Commodore C64/128"
    },
    {
      "name": "Mac"
    },
    {
      "name": "MS-DOS"
    },
    {
      "name": "ZX Spectrum"
    }
  ],
  "provider_games": [
    {
      "name": "Ingrid's Back!",
      "slug": "ingrids-back",
      "service": "igdb"
    }
  ],
  "aliases": [],
  "shaders": [],
  "discord_id": "",
  "change_for": null
}