{
  "id": 159879,
  "name": "Cartographers",
  "slug": "cartographers",
  "year": 2020,
  "banner_url": "",
  "icon_url": "",
  "coverart": "https://lutris.net/media/igdb/cover_big/co88r1.jpg",
  "platforms": [],
  "provider_games": [
    {
      "name": "Cartographers",
      "slug": "cartographers",
      "service": "igdb"
    }
  ],
  "aliases": [],
  "shaders": [],
  "discord_id": "",
  "change_for": null
}