{
  "id": 67485,
  "name": "#Modarchive Story",
  "slug": "number-modarchive-story",
  "year": null,
  "banner_url": "",
  "icon_url": "",
  "coverart": "https://lutris.net/media/igdb/cover_big/bek3419zbuqrwyvndq59.jpg",
  "platforms": [],
  "provider_games": [
    {
      "name": "#Modarchive Story",
      "slug": "number-modarchive-story",
      "service": "igdb"
    }
  ],
  "aliases": [],
  "shaders": [],
  "discord_id": "",
  "change_for": null
}