{
  "id": 274797,
  "name": "Earth Editor",
  "slug": "earth-editor",
  "year": 2008,
  "banner_url": "",
  "icon_url": "",
  "coverart": "https://lutris.net/media/igdb/cover_big/co7stv.jpg",
  "platforms": [
    {
      "name": "Android"
    },
    {
      "name": "Browser"
    }
  ],
  "provider_games": [
    {
      "name": "Earth Editor",
      "slug": "earth-editor",
      "service": "igdb"
    }
  ],
  "aliases": [],
  "shaders": [],
  "discord_id": "",
  "change_for": null
}