{
  "id": 213088,
  "name": "Electrical Safety VR Training",
  "slug": "electrical-safety-vr-training",
  "year": 2022,
  "banner_url": "",
  "icon_url": "",
  "coverart": "https://lutris.net/media/igdb/cover_big/co5swz.jpg",
  "platforms": [
    {
      "name": "Windows"
    }
  ],
  "provider_games": [
    {
      "name": "Electrical Safety VR Training",
      "slug": "electrical-safety-vr-training",
      "service": "igdb"
    }
  ],
  "aliases": [],
  "shaders": [],
  "discord_id": "",
  "change_for": null
}