{
  "id": 287976,
  "name": "Listen, Think, Meow!",
  "slug": "listen-think-meow",
  "year": null,
  "banner_url": "",
  "icon_url": "",
  "coverart": "https://lutris.net/media/igdb/cover_big/co8b30.jpg",
  "platforms": [],
  "provider_games": [
    {
      "name": "Listen, Think, Meow!",
      "slug": "listen-think-meow",
      "service": "igdb"
    }
  ],
  "aliases": [],
  "shaders": [],
  "discord_id": "",
  "change_for": null
}