{
  "id": 193931,
  "name": "Shelter Zero",
  "slug": "shelter-zero",
  "year": null,
  "banner_url": "",
  "icon_url": "",
  "coverart": null,
  "platforms": [],
  "provider_games": [
    {
      "name": "Shelter Zero",
      "slug": "shelter-zero",
      "service": "igdb"
    }
  ],
  "aliases": [],
  "shaders": [],
  "discord_id": "",
  "change_for": null
}