{
  "id": 307495,
  "name": "Paradise of Freedom",
  "slug": "paradise-of-freedom",
  "year": null,
  "banner_url": "",
  "icon_url": "",
  "coverart": "https://lutris.net/media/igdb/cover_big/co9fl7.jpg",
  "platforms": [],
  "provider_games": [
    {
      "name": "Paradise of Freedom",
      "slug": "paradise-of-freedom",
      "service": "igdb"
    }
  ],
  "aliases": [],
  "shaders": [],
  "discord_id": "",
  "change_for": null
}