{
  "id": 256235,
  "name": "Back & Forth 2",
  "slug": "back-and-forth-2",
  "year": null,
  "banner_url": "",
  "icon_url": "",
  "coverart": null,
  "platforms": [],
  "provider_games": [
    {
      "name": "Back & Forth 2",
      "slug": "back-and-forth-2",
      "service": "igdb"
    }
  ],
  "aliases": [],
  "shaders": [],
  "discord_id": "",
  "change_for": null
}