{
  "id": 12569,
  "game_id": 19908,
  "game_slug": "warhammer-40000-gladius-relics-of-war",
  "name": "Warhammer 40,000: Gladius - Relics of War",
  "year": 2018,
  "user": "cxf",
  "runner": "steam",
  "slug": "warhammer-40000-gladius-relic-steam",
  "version": "Steam",
  "description": null,
  "notes": "",
  "credits": "",
  "created_at": "2019-03-30T02:03:50.676519Z",
  "updated_at": "2019-03-30T02:03:56.147684Z",
  "draft": false,
  "published": true,
  "published_by": null,
  "rating": "",
  "is_playable": null,
  "steamid": 489630,
  "gogid": 1604634952,
  "gogslug": "warhammer_40000_gladius_relics_of_war",
  "humbleid": "",
  "humblestoreid": "",
  "humblestoreid_real": "",
  "script": {
    "game": {
      "appid": 489630
    }
  },
  "content": "game:\n  appid: 489630\n",
  "discord_id": ""
}