{
  "id": 194708,
  "name": "Caesars Palace Roulette",
  "slug": "caesars-palace-roulette",
  "year": null,
  "banner_url": "",
  "icon_url": "",
  "coverart": "https://lutris.net/media/igdb/cover_big/co4qek.jpg",
  "platforms": [],
  "provider_games": [
    {
      "name": "Caesars Palace Roulette",
      "slug": "caesars-palace-roulette",
      "service": "igdb"
    }
  ],
  "aliases": [],
  "shaders": [],
  "discord_id": "",
  "change_for": null
}