{
  "id": 6042,
  "name": "Thea: The Awakening",
  "slug": "thea-the-awakening",
  "year": 2015,
  "banner_url": "https://lutris.net/games/banner/thea-the-awakening.jpg",
  "icon_url": "https://lutris.net/games/icon/thea-the-awakening.png",
  "coverart": "https://lutris.net/media/igdb/cover_big/co2220.jpg",
  "platforms": [
    {
      "name": "Nintendo Switch"
    },
    {
      "name": "Windows"
    },
    {
      "name": "Xbox One"
    }
  ],
  "provider_games": [
    {
      "name": "Thea: The Awakening",
      "slug": "1452699415",
      "service": "gog"
    },
    {
      "name": "Thea: The Awakening",
      "slug": "378720",
      "service": "steam"
    },
    {
      "name": "Thea: The Awakening",
      "slug": "thea-the-awakening",
      "service": "igdb"
    }
  ],
  "aliases": [],
  "shaders": [],
  "discord_id": "",
  "change_for": null
}