{
  "id": 133704,
  "name": "Archer VR",
  "slug": "archer-vr",
  "year": null,
  "banner_url": "",
  "icon_url": "",
  "coverart": "https://lutris.net/media/igdb/cover_big/co3lmb.jpg",
  "platforms": [],
  "provider_games": [
    {
      "name": "Archer VR",
      "slug": "archer-vr",
      "service": "igdb"
    }
  ],
  "aliases": [],
  "shaders": [],
  "discord_id": "",
  "change_for": null
}