{
  "id": 248551,
  "name": "Yatzy Addict+",
  "slug": "yatzy-addict-plus",
  "year": null,
  "banner_url": "",
  "icon_url": "",
  "coverart": null,
  "platforms": [],
  "provider_games": [
    {
      "name": "Yatzy Addict+",
      "slug": "yatzy-addict-plus",
      "service": "igdb"
    }
  ],
  "aliases": [],
  "shaders": [],
  "discord_id": "",
  "change_for": null
}