{
  "id": 263104,
  "name": "Expiri: Tenebris",
  "slug": "expiri-tenebris",
  "year": null,
  "banner_url": "",
  "icon_url": "",
  "coverart": "https://lutris.net/media/igdb/cover_big/co77lj.jpg",
  "platforms": [],
  "provider_games": [
    {
      "name": "Expiri: Tenebris",
      "slug": "expiri-tenebris",
      "service": "igdb"
    }
  ],
  "aliases": [],
  "shaders": [],
  "discord_id": "",
  "change_for": null
}