{
  "id": 38597,
  "game_id": 138466,
  "game_slug": "you-suck-at-parking",
  "name": "You Suck at Parking",
  "year": 2022,
  "user": "vanstaveren",
  "runner": "steam",
  "slug": "you-suck-at-parking-steam",
  "version": "steam",
  "description": "",
  "notes": "",
  "credits": "",
  "created_at": "2024-06-29T22:06:22.484687Z",
  "updated_at": "2024-06-29T22:06:22.484715Z",
  "draft": false,
  "published": true,
  "published_by": null,
  "rating": "",
  "is_playable": null,
  "steamid": 837880,
  "gogid": null,
  "gogslug": "",
  "humbleid": "",
  "humblestoreid": "",
  "humblestoreid_real": "",
  "script": {
    "game": {
      "appid": 837880
    }
  },
  "content": "game:\n  appid: 837880\n",
  "discord_id": ""
}