{
  "id": 10055,
  "name": "Comicado",
  "slug": "comicado",
  "year": null,
  "banner_url": "https://lutris.net/games/banner/comicado.jpg",
  "icon_url": "https://lutris.net/games/icon/comicado.png",
  "coverart": null,
  "platforms": [],
  "provider_games": [
    {
      "name": "Comicado",
      "slug": "264420",
      "service": "steam"
    },
    {
      "name": "Comicado",
      "slug": "comicado",
      "service": "igdb"
    }
  ],
  "aliases": [],
  "shaders": [],
  "discord_id": "",
  "change_for": null
}