{
  "id": 38207,
  "name": "Sakura Succubus",
  "slug": "sakura-succubus",
  "year": 2020,
  "banner_url": "https://lutris.net/games/banner/sakura-succubus.jpg",
  "icon_url": "https://lutris.net/games/icon/sakura-succubus.png",
  "coverart": "https://lutris.net/media/igdb/cover_big/co2lz8.jpg",
  "platforms": [
    {
      "name": "Linux"
    },
    {
      "name": "Mac"
    },
    {
      "name": "Nintendo Switch"
    },
    {
      "name": "Sony Playstation 4"
    },
    {
      "name": "Sony PlayStation 5"
    },
    {
      "name": "Windows"
    }
  ],
  "provider_games": [
    {
      "name": "Sakura Succubus",
      "slug": "1202310",
      "service": "steam"
    },
    {
      "name": "Sakura Succubus",
      "slug": "sakura-succubus",
      "service": "igdb"
    }
  ],
  "aliases": [],
  "shaders": [],
  "discord_id": "",
  "change_for": null
}