{
  "id": 295421,
  "name": "Fall Squad Guys: Stumble Knockout Royale",
  "slug": "fall-squad-guys-stumble-knockout-royale",
  "year": 2020,
  "banner_url": "",
  "icon_url": "",
  "coverart": null,
  "platforms": [
    {
      "name": "Android"
    }
  ],
  "provider_games": [
    {
      "name": "Fall Squad Guys: Stumble Knockout Royale",
      "slug": "fall-squad-guys-stumble-knockout-royale",
      "service": "igdb"
    }
  ],
  "aliases": [],
  "shaders": [],
  "discord_id": "",
  "change_for": null
}