{
  "id": 192360,
  "name": "Two Handed Mage",
  "slug": "two-handed-mage",
  "year": null,
  "banner_url": "",
  "icon_url": "",
  "coverart": null,
  "platforms": [],
  "provider_games": [
    {
      "name": "Two Handed Mage",
      "slug": "two-handed-mage",
      "service": "igdb"
    }
  ],
  "aliases": [],
  "shaders": [],
  "discord_id": "",
  "change_for": null
}