{
  "id": 86461,
  "name": "Posh Boutique",
  "slug": "posh-boutique",
  "year": null,
  "banner_url": "",
  "icon_url": "",
  "coverart": null,
  "platforms": [],
  "provider_games": [
    {
      "name": "Posh Boutique",
      "slug": "posh-boutique",
      "service": "igdb"
    }
  ],
  "aliases": [],
  "shaders": [],
  "discord_id": "",
  "change_for": null
}