{
  "id": 246072,
  "name": "Hotel Renovator: Five Star Edition",
  "slug": "hotel-renovator-five-star-edition",
  "year": null,
  "banner_url": "",
  "icon_url": "",
  "coverart": "https://lutris.net/media/igdb/cover_big/co6ixd.jpg",
  "platforms": [],
  "provider_games": [
    {
      "name": "Hotel Renovator: Five Star Edition",
      "slug": "hotel-renovator-five-star-edition",
      "service": "igdb"
    }
  ],
  "aliases": [],
  "shaders": [],
  "discord_id": "",
  "change_for": null
}