{
  "id": 53481,
  "name": "Mindwheel",
  "slug": "mindwheel",
  "year": 1984,
  "banner_url": "",
  "icon_url": "",
  "coverart": "https://lutris.net/media/igdb/cover_big/kwh6ims4zwiggcdccxbh.jpg",
  "platforms": [
    {
      "name": "Apple II"
    },
    {
      "name": "Atari 8-bit"
    },
    {
      "name": "Atari ST"
    },
    {
      "name": "Commodore C64/128"
    }
  ],
  "provider_games": [
    {
      "name": "Mindwheel",
      "slug": "mindwheel",
      "service": "igdb"
    }
  ],
  "aliases": [],
  "shaders": [],
  "discord_id": "",
  "change_for": null
}