{
  "id": 126511,
  "name": "Love at Elevation",
  "slug": "love-at-elevation",
  "year": null,
  "banner_url": "",
  "icon_url": "",
  "coverart": null,
  "platforms": [],
  "provider_games": [
    {
      "name": "Love at Elevation",
      "slug": "love-at-elevation",
      "service": "igdb"
    }
  ],
  "aliases": [],
  "shaders": [],
  "discord_id": "",
  "change_for": null
}