{
  "id": 307565,
  "name": "The Inheritance of Crimson Manor: Victorian Edition",
  "slug": "the-inheritance-of-crimson-manor-victorian-edition",
  "year": null,
  "banner_url": "",
  "icon_url": "",
  "coverart": null,
  "platforms": [],
  "provider_games": [
    {
      "name": "The Inheritance of Crimson Manor: Victorian Edition",
      "slug": "the-inheritance-of-crimson-manor-victorian-edition",
      "service": "igdb"
    }
  ],
  "aliases": [],
  "shaders": [],
  "discord_id": "",
  "change_for": null
}