{
  "id": 74592,
  "name": "Fost - Ghost Vs Fox",
  "slug": "fost-ghost-vs-fox",
  "year": null,
  "banner_url": "",
  "icon_url": "",
  "coverart": null,
  "platforms": [],
  "provider_games": [
    {
      "name": "Fost - Ghost Vs Fox",
      "slug": "fost-ghost-vs-fox",
      "service": "igdb"
    }
  ],
  "aliases": [],
  "shaders": [],
  "discord_id": "",
  "change_for": null
}