{
  "id": 38448,
  "name": "Gates Of Nowhere",
  "slug": "gates-of-nowhere",
  "year": 2017,
  "banner_url": "https://lutris.net/games/banner/gates-of-nowhere.jpg",
  "icon_url": "https://lutris.net/games/icon/gates-of-nowhere.png",
  "coverart": "https://lutris.net/media/igdb/cover_big/co28dk.jpg",
  "platforms": [
    {
      "name": "Windows"
    }
  ],
  "provider_games": [
    {
      "name": "Gates Of Nowhere",
      "slug": "614260",
      "service": "steam"
    },
    {
      "name": "Gates of Nowhere",
      "slug": "gates-of-nowhere",
      "service": "igdb"
    }
  ],
  "aliases": [],
  "shaders": [],
  "discord_id": "",
  "change_for": null
}