{
  "id": 290136,
  "name": "Where Ghost Cats",
  "slug": "where-ghost-cats",
  "year": null,
  "banner_url": "",
  "icon_url": "",
  "coverart": "https://lutris.net/media/igdb/cover_big/co8e9r.jpg",
  "platforms": [],
  "provider_games": [
    {
      "name": "Where Ghost Cats",
      "slug": "where-ghost-cats",
      "service": "igdb"
    }
  ],
  "aliases": [],
  "shaders": [],
  "discord_id": "",
  "change_for": null
}