{
  "id": 60824,
  "name": "International Racing Squirrels",
  "slug": "international-racing-squirrels",
  "year": null,
  "banner_url": "",
  "icon_url": "",
  "coverart": "https://lutris.net/media/igdb/cover_big/pd3roouijg8dhylpqewu.jpg",
  "platforms": [],
  "provider_games": [
    {
      "name": "International Racing Squirrels",
      "slug": "international-racing-squirrels",
      "service": "igdb"
    }
  ],
  "aliases": [],
  "shaders": [],
  "discord_id": "",
  "change_for": null
}