{
  "id": 192871,
  "name": "Nightmare Farm",
  "slug": "nightmare-farm",
  "year": 2019,
  "banner_url": "",
  "icon_url": "",
  "coverart": "https://lutris.net/media/igdb/cover_big/co4kcr.jpg",
  "platforms": [],
  "provider_games": [
    {
      "name": "Nightmare Farm",
      "slug": "nightmare-farm",
      "service": "igdb"
    }
  ],
  "aliases": [],
  "shaders": [],
  "discord_id": "",
  "change_for": null
}