{
  "id": 218540,
  "name": "Underworld Re: Card",
  "slug": "underworld-re-card",
  "year": null,
  "banner_url": "",
  "icon_url": "",
  "coverart": "https://lutris.net/media/igdb/cover_big/co5i9m.jpg",
  "platforms": [],
  "provider_games": [
    {
      "name": "Underworld Re: Card",
      "slug": "underworld-re-card",
      "service": "igdb"
    }
  ],
  "aliases": [],
  "shaders": [],
  "discord_id": "",
  "change_for": null
}