{
  "id": 132965,
  "name": "1066",
  "slug": "1066",
  "year": 2009,
  "banner_url": "",
  "icon_url": "",
  "coverart": "https://lutris.net/media/igdb/cover_big/co4qpu.jpg",
  "platforms": [
    {
      "name": "Browser"
    }
  ],
  "provider_games": [
    {
      "name": "Super Mario Bros.: The Lost Levels",
      "slug": "super-mario-bros-the-lost-levels",
      "service": "igdb"
    },
    {
      "name": "1066",
      "slug": "1066",
      "service": "igdb"
    }
  ],
  "aliases": [],
  "shaders": [],
  "discord_id": "",
  "change_for": null
}