{
  "id": 152510,
  "name": "Eseapner",
  "slug": "eseapner",
  "year": 2017,
  "banner_url": "https://lutris.net/games/banner/eseapner.jpg",
  "icon_url": "",
  "coverart": "https://lutris.net/media/igdb/cover_big/co2b58.jpg",
  "platforms": [
    {
      "name": "Windows"
    }
  ],
  "provider_games": [
    {
      "name": "Eseapner",
      "slug": "740500",
      "service": "steam"
    },
    {
      "name": "Eseapner",
      "slug": "eseapner",
      "service": "igdb"
    }
  ],
  "aliases": [],
  "shaders": [],
  "discord_id": "",
  "change_for": null
}