{
  "id": 120612,
  "name": "Alien Attack: Pocket Edition",
  "slug": "alien-attack-pocket-edition",
  "year": 2018,
  "banner_url": "",
  "icon_url": "",
  "coverart": null,
  "platforms": [
    {
      "name": "Windows"
    }
  ],
  "provider_games": [
    {
      "name": "Alien Attack: Pocket Edition",
      "slug": "alien-attack-pocket-edition",
      "service": "igdb"
    }
  ],
  "aliases": [],
  "shaders": [],
  "discord_id": "",
  "change_for": null
}