{
  "id": 194680,
  "name": "Lone Elven Wanderer",
  "slug": "lone-elven-wanderer",
  "year": null,
  "banner_url": "",
  "icon_url": "",
  "coverart": "https://lutris.net/media/igdb/cover_big/co4qhu.jpg",
  "platforms": [],
  "provider_games": [
    {
      "name": "Lone Elven Wanderer",
      "slug": "lone-elven-wanderer",
      "service": "igdb"
    }
  ],
  "aliases": [],
  "shaders": [],
  "discord_id": "",
  "change_for": null
}