{
  "id": 172947,
  "name": "Traffic Cop",
  "slug": "traffic-cop",
  "year": 2015,
  "banner_url": "https://lutris.net/games/banner/traffic-cop.jpg",
  "icon_url": "",
  "coverart": "https://lutris.net/media/igdb/cover_big/co47rv.jpg",
  "platforms": [],
  "provider_games": [
    {
      "name": "Traffic Cop",
      "slug": "756340",
      "service": "steam"
    },
    {
      "name": "Traffic Cop",
      "slug": "traffic-cop",
      "service": "igdb"
    }
  ],
  "aliases": [],
  "shaders": [],
  "discord_id": "",
  "change_for": null
}