{
  "id": 96789,
  "name": "Monster Rain",
  "slug": "monster-rain",
  "year": null,
  "banner_url": "",
  "icon_url": "",
  "coverart": null,
  "platforms": [],
  "provider_games": [
    {
      "name": "Monster Rain",
      "slug": "monster-rain",
      "service": "igdb"
    }
  ],
  "aliases": [],
  "shaders": [],
  "discord_id": "",
  "change_for": null
}