{
  "id": 91592,
  "name": "RUSSIAN PEACE DUCK : TAKE MY NALOGI",
  "slug": "russian-peace-duck-take-my-nalogi",
  "year": null,
  "banner_url": "",
  "icon_url": "",
  "coverart": null,
  "platforms": [],
  "provider_games": [
    {
      "name": "Russian Peace Duck: Take My Nalogi",
      "slug": "russian-peace-duck-take-my-nalogi",
      "service": "igdb"
    }
  ],
  "aliases": [],
  "shaders": [],
  "discord_id": "",
  "change_for": null
}