{
  "id": 241770,
  "name": "My Swordsman",
  "slug": "my-swordsman",
  "year": null,
  "banner_url": "",
  "icon_url": "",
  "coverart": "https://lutris.net/media/igdb/cover_big/co5zn3.jpg",
  "platforms": [],
  "provider_games": [
    {
      "name": "My Swordsman",
      "slug": "my-swordsman",
      "service": "igdb"
    }
  ],
  "aliases": [],
  "shaders": [],
  "discord_id": "",
  "change_for": null
}