{
  "id": 14221,
  "name": "CDF Ghostship",
  "slug": "cdf-ghostship",
  "year": 2015,
  "banner_url": "https://lutris.net/games/banner/cdf-ghostship.jpg",
  "icon_url": "https://lutris.net/games/icon/cdf-ghostship.png",
  "coverart": "https://lutris.net/media/igdb/cover_big/mapcqkzawayw4ibqfj2f.jpg",
  "platforms": [
    {
      "name": "Windows"
    }
  ],
  "provider_games": [
    {
      "name": "CDF Ghostship",
      "slug": "263640",
      "service": "steam"
    },
    {
      "name": "CDF Ghostship",
      "slug": "cdf-ghostship",
      "service": "igdb"
    }
  ],
  "aliases": [],
  "shaders": [],
  "discord_id": "",
  "change_for": null
}