{
  "id": 287912,
  "name": "Barako the Pirate",
  "slug": "barako-the-pirate",
  "year": null,
  "banner_url": "",
  "icon_url": "",
  "coverart": "https://lutris.net/media/igdb/cover_big/co8b5p.jpg",
  "platforms": [],
  "provider_games": [
    {
      "name": "Barako the Pirate",
      "slug": "barako-the-pirate",
      "service": "igdb"
    }
  ],
  "aliases": [],
  "shaders": [],
  "discord_id": "",
  "change_for": null
}