{
  "id": 501,
  "name": "Bullet Candy",
  "slug": "bullet-candy",
  "year": 2007,
  "banner_url": "https://lutris.net/games/banner/bullet-candy.jpg",
  "icon_url": "https://lutris.net/games/icon/bullet-candy.png",
  "coverart": "https://lutris.net/media/igdb/cover_big/o4d6zhy6arpb4pjzu4rd.jpg",
  "platforms": [
    {
      "name": "Linux"
    },
    {
      "name": "Windows"
    }
  ],
  "provider_games": [
    {
      "name": "Bullet Candy",
      "slug": "6600",
      "service": "steam"
    },
    {
      "name": "Bullet Candy",
      "slug": "bullet-candy",
      "service": "igdb"
    }
  ],
  "aliases": [],
  "shaders": [],
  "discord_id": "",
  "change_for": null
}