{
  "id": 7953,
  "game_id": 3371,
  "game_slug": "nba-2k15",
  "name": "NBA 2K15",
  "year": 2014,
  "user": "tgm4883",
  "runner": "winesteam",
  "slug": "nba-2k15-steam",
  "version": "Steam",
  "description": null,
  "notes": "- If playing with a xbox 360 controller the dpad shows up as a player in the team selection screen (although the dpad works fine in the game). \r\n\r\n- One of the players wasd for controllers (and is the default selected) when choosing sides.",
  "credits": "",
  "created_at": "2018-04-21T18:13:02.216000Z",
  "updated_at": "2023-06-13T01:34:36.216059Z",
  "draft": false,
  "published": true,
  "published_by": 19464,
  "rating": "",
  "is_playable": null,
  "steamid": 282350,
  "gogid": null,
  "gogslug": "",
  "humbleid": "",
  "humblestoreid": "",
  "humblestoreid_real": "",
  "script": {
    "game": {
      "appid": 282350,
      "arch": "win64",
      "prefix": "$GAMEDIR/prefix"
    },
    "installer": [
      {
        "task": {
          "arch": "win64",
          "name": "create_prefix",
          "prefix": "$GAMEDIR/prefix"
        }
      },
      {
        "task": {
          "app": "vcrun2010",
          "arch": "win64",
          "description": "Installing VisualC++ Runtime vcrun2010",
          "name": "winetricks",
          "prefix": "$GAMEDIR/prefix"
        }
      },
      {
        "task": {
          "app": "dsound",
          "arch": "win64",
          "name": "winetricks",
          "prefix": "$GAMEDIR/prefix"
        }
      }
    ],
    "system": {
      "env": {
        "DXVK_HUD": 0
      },
      "pulse_latency": true
    },
    "winesteam": {
      "overrides": {
        "xaudio2_7": "native,builtin"
      },
      "x360ce-path": "$GAMEDIR",
      "x360ce-xinput9": true
    }
  },
  "content": "game:\n  appid: 282350\n  arch: win64\n  prefix: $GAMEDIR/prefix\ninstaller:\n- task:\n    arch: win64\n    name: create_prefix\n    prefix: $GAMEDIR/prefix\n- task:\n    app: vcrun2010\n    arch: win64\n    description: Installing VisualC++ Runtime vcrun2010\n    name: winetricks\n    prefix: $GAMEDIR/prefix\n- task:\n    app: dsound\n    arch: win64\n    name: winetricks\n    prefix: $GAMEDIR/prefix\nsystem:\n  env:\n    DXVK_HUD: 0\n  pulse_latency: true\nwinesteam:\n  overrides:\n    xaudio2_7: native,builtin\n  x360ce-path: $GAMEDIR\n  x360ce-xinput9: true\n",
  "discord_id": ""
}