{
  "id": 57452,
  "name": "Neilos",
  "slug": "neilos",
  "year": null,
  "banner_url": "",
  "icon_url": "",
  "coverart": "https://lutris.net/media/igdb/cover_big/kkiqv68xplggmdqsdozn.jpg",
  "platforms": [],
  "provider_games": [
    {
      "name": "Neilos",
      "slug": "neilos",
      "service": "igdb"
    }
  ],
  "aliases": [],
  "shaders": [],
  "discord_id": "",
  "change_for": null
}