{
  "id": 66341,
  "name": "3D Ultra Minigolf Adventures: Carnival",
  "slug": "3d-ultra-minigolf-adventures-carnival",
  "year": null,
  "banner_url": "",
  "icon_url": "",
  "coverart": "https://lutris.net/media/igdb/cover_big/yrcdwwmog6obwll2yx1p.jpg",
  "platforms": [],
  "provider_games": [
    {
      "name": "3D Ultra Minigolf Adventures: Carnival",
      "slug": "3d-ultra-minigolf-adventures-carnival",
      "service": "igdb"
    }
  ],
  "aliases": [],
  "shaders": [],
  "discord_id": "",
  "change_for": null
}