{
  "id": 278835,
  "name": "Speedway Challenge 2024",
  "slug": "speedway-challenge-2024",
  "year": null,
  "banner_url": "",
  "icon_url": "",
  "coverart": "https://lutris.net/media/igdb/cover_big/co7xgw.jpg",
  "platforms": [],
  "provider_games": [
    {
      "name": "Speedway Challenge 2024",
      "slug": "speedway-challenge-2024",
      "service": "igdb"
    }
  ],
  "aliases": [],
  "shaders": [],
  "discord_id": "",
  "change_for": null
}