{
  "id": 199935,
  "name": "RedShip",
  "slug": "redship",
  "year": null,
  "banner_url": "",
  "icon_url": "",
  "coverart": "https://lutris.net/media/igdb/cover_big/co4f3l.jpg",
  "platforms": [],
  "provider_games": [
    {
      "name": "RedShip",
      "slug": "redship",
      "service": "igdb"
    }
  ],
  "aliases": [],
  "shaders": [],
  "discord_id": "",
  "change_for": null
}