{
  "id": 223760,
  "name": "Yummy Tales 2",
  "slug": "yummy-tales-2",
  "year": null,
  "banner_url": "",
  "icon_url": "",
  "coverart": null,
  "platforms": [],
  "provider_games": [
    {
      "name": "Yummy Tales 2",
      "slug": "yummy-tales-2",
      "service": "igdb"
    }
  ],
  "aliases": [],
  "shaders": [],
  "discord_id": "",
  "change_for": null
}