{
  "id": 22848,
  "name": "Great Mountain Experience",
  "slug": "great-mountain-experience",
  "year": null,
  "banner_url": "https://lutris.net/games/banner/great-mountain-experience.jpg",
  "icon_url": "https://lutris.net/games/icon/great-mountain-experience.png",
  "coverart": null,
  "platforms": [],
  "provider_games": [
    {
      "name": "Great Mountain Experience",
      "slug": "853830",
      "service": "steam"
    },
    {
      "name": "Great Mountain Experience",
      "slug": "great-mountain-experience",
      "service": "igdb"
    }
  ],
  "aliases": [],
  "shaders": [],
  "discord_id": "",
  "change_for": null
}