{
  "id": 58015,
  "name": "Fairy Tail: Dragon Slayers",
  "slug": "fairy-tail-dragon-slayers",
  "year": null,
  "banner_url": "",
  "icon_url": "",
  "coverart": null,
  "platforms": [],
  "provider_games": [
    {
      "name": "Fairy Tail: Dragon Slayers",
      "slug": "fairy-tail-dragon-slayers",
      "service": "igdb"
    }
  ],
  "aliases": [],
  "shaders": [],
  "discord_id": "",
  "change_for": null
}