{
  "id": 117868,
  "name": "The Water Horse: Legend of the Deep",
  "slug": "the-water-horse-legend-of-the-deep",
  "year": 2002,
  "banner_url": "",
  "icon_url": "",
  "coverart": "https://lutris.net/media/igdb/cover_big/co3gmo.jpg",
  "platforms": [
    {
      "name": "Nintendo DS"
    },
    {
      "name": "Sony PlayStation 2"
    },
    {
      "name": "Windows"
    }
  ],
  "provider_games": [
    {
      "name": "The Water Horse: Legend of the Deep",
      "slug": "the-water-horse-legend-of-the-deep",
      "service": "igdb"
    }
  ],
  "aliases": [],
  "shaders": [],
  "discord_id": "",
  "change_for": null
}