{
  "id": 178329,
  "name": "Dead or Alive ++",
  "slug": "dead-or-alive-plus-plus",
  "year": 1998,
  "banner_url": "",
  "icon_url": "",
  "coverart": "https://lutris.net/media/igdb/cover_big/co49m3.jpg",
  "platforms": [],
  "provider_games": [
    {
      "name": "Dead or Alive ++",
      "slug": "dead-or-alive-plus-plus",
      "service": "igdb"
    }
  ],
  "aliases": [],
  "shaders": [],
  "discord_id": "",
  "change_for": null
}