{
  "id": 188312,
  "name": "Hug me I'm cold",
  "slug": "hug-me-im-cold",
  "year": null,
  "banner_url": "",
  "icon_url": "",
  "coverart": "https://lutris.net/media/igdb/cover_big/co4s0f.jpg",
  "platforms": [],
  "provider_games": [
    {
      "name": "Hug me I'm cold",
      "slug": "hug-me-im-cold",
      "service": "igdb"
    }
  ],
  "aliases": [],
  "shaders": [],
  "discord_id": "",
  "change_for": null
}