{
  "id": 51415,
  "name": "Warm Gun",
  "slug": "warm-gun",
  "year": 2012,
  "banner_url": "",
  "icon_url": "",
  "coverart": "https://lutris.net/media/igdb/cover_big/rmcjhqnosnblsnfbhcfw.jpg",
  "platforms": [],
  "provider_games": [
    {
      "name": "Warm Gun",
      "slug": "warm-gun",
      "service": "igdb"
    }
  ],
  "aliases": [],
  "shaders": [],
  "discord_id": "",
  "change_for": null
}