{
  "id": 228281,
  "name": "Double Dungeons",
  "slug": "double-dungeons--1",
  "year": null,
  "banner_url": "",
  "icon_url": "",
  "coverart": null,
  "platforms": [],
  "provider_games": [
    {
      "name": "Double Dungeons",
      "slug": "double-dungeons--1",
      "service": "igdb"
    }
  ],
  "aliases": [],
  "shaders": [],
  "discord_id": "",
  "change_for": null
}