{
  "id": 155005,
  "name": "Like an Angel",
  "slug": "like-an-angel",
  "year": null,
  "banner_url": "https://lutris.net/games/banner/like-an-angel.jpg",
  "icon_url": "",
  "coverart": "https://lutris.net/media/igdb/cover_big/co3xgd.jpg",
  "platforms": [],
  "provider_games": [
    {
      "name": "Like an Angel",
      "slug": "like-an-angel",
      "service": "igdb"
    },
    {
      "name": "Like an Angel",
      "slug": "1671510",
      "service": "steam"
    }
  ],
  "aliases": [],
  "shaders": [],
  "discord_id": "",
  "change_for": null
}