{
  "id": 3447,
  "name": "Always Sometimes Monsters",
  "slug": "always-sometimes-monsters",
  "year": 2014,
  "banner_url": "https://lutris.net/games/banner/always-sometimes-monsters.jpg",
  "icon_url": "https://lutris.net/games/icon/always-sometimes-monsters.png",
  "coverart": "https://lutris.net/media/igdb/cover_big/co1r1x.jpg",
  "platforms": [
    {
      "name": "Android"
    },
    {
      "name": "Linux"
    },
    {
      "name": "Mac"
    },
    {
      "name": "Nintendo Switch"
    },
    {
      "name": "Sony Playstation 4"
    },
    {
      "name": "Windows"
    }
  ],
  "provider_games": [
    {
      "name": "Always Sometimes Monsters",
      "slug": "1207664583",
      "service": "gog"
    },
    {
      "name": "Always Sometimes Monsters",
      "slug": "alwayssometimesmonsters",
      "service": "humblebundle"
    },
    {
      "name": "Always Sometimes Monsters",
      "slug": "274310",
      "service": "steam"
    },
    {
      "name": "Always Sometimes Monsters",
      "slug": "always-sometimes-monsters",
      "service": "igdb"
    }
  ],
  "aliases": [],
  "shaders": [],
  "discord_id": "",
  "change_for": null
}