{
  "id": 243832,
  "name": "Aurendor",
  "slug": "aurendor",
  "year": null,
  "banner_url": "",
  "icon_url": "",
  "coverart": "https://lutris.net/media/igdb/cover_big/co6e4z.jpg",
  "platforms": [],
  "provider_games": [
    {
      "name": "Aurendor",
      "slug": "aurendor",
      "service": "igdb"
    }
  ],
  "aliases": [],
  "shaders": [],
  "discord_id": "",
  "change_for": null
}