{
  "id": 292427,
  "name": "Stick It!",
  "slug": "stick-it",
  "year": null,
  "banner_url": "",
  "icon_url": "",
  "coverart": "https://lutris.net/media/igdb/cover_big/co8mfj.jpg",
  "platforms": [],
  "provider_games": [
    {
      "name": "Stick It!",
      "slug": "stick-it",
      "service": "igdb"
    }
  ],
  "aliases": [],
  "shaders": [],
  "discord_id": "",
  "change_for": null
}