{
  "id": 179224,
  "name": "Retreat To Enen",
  "slug": "retreat-to-enen",
  "year": null,
  "banner_url": "https://lutris.net/games/banner/retreat-to-enen.jpg",
  "icon_url": "",
  "coverart": "https://lutris.net/media/igdb/cover_big/co3p6z.jpg",
  "platforms": [
    {
      "name": "Windows"
    }
  ],
  "provider_games": [
    {
      "name": "Retreat to Enen",
      "slug": "retreat-to-enen",
      "service": "igdb"
    },
    {
      "name": "Retreat To Enen",
      "slug": "1556490",
      "service": "steam"
    },
    {
      "name": "Retreat to Enen",
      "slug": "1840846196",
      "service": "gog"
    }
  ],
  "aliases": [],
  "shaders": [],
  "discord_id": "",
  "change_for": null
}