{
  "id": 20413,
  "name": "Squares",
  "slug": "squares",
  "year": 2015,
  "banner_url": "https://lutris.net/games/banner/squares.jpg",
  "icon_url": "https://lutris.net/games/icon/squares.png",
  "coverart": "https://lutris.net/media/igdb/cover_big/co2cf4.jpg",
  "platforms": [
    {
      "name": "PlayStation Vita"
    }
  ],
  "provider_games": [
    {
      "name": "Squares",
      "slug": "786750",
      "service": "steam"
    },
    {
      "name": "Squares",
      "slug": "squares",
      "service": "igdb"
    }
  ],
  "aliases": [],
  "shaders": [],
  "discord_id": "",
  "change_for": null
}