{
  "id": 164305,
  "name": "Ghost Town Mine Ride & Shootin' Gallery",
  "slug": "ghost-town-mine-ride-and-shootin-gallery",
  "year": 2016,
  "banner_url": "",
  "icon_url": "",
  "coverart": "https://lutris.net/media/igdb/cover_big/co419q.jpg",
  "platforms": [
    {
      "name": "Windows"
    }
  ],
  "provider_games": [
    {
      "name": "Ghost Town Mine Ride & Shootin' Gallery",
      "slug": "ghost-town-mine-ride-and-shootin-gallery",
      "service": "igdb"
    }
  ],
  "aliases": [],
  "shaders": [],
  "discord_id": "",
  "change_for": null
}