{
  "id": 94036,
  "name": "ZOMBIE LAST STANDS",
  "slug": "zombie-last-stands",
  "year": 2016,
  "banner_url": "",
  "icon_url": "",
  "coverart": "https://lutris.net/media/igdb/cover_big/co1kum.jpg",
  "platforms": [
    {
      "name": "Android"
    }
  ],
  "provider_games": [
    {
      "name": "Zombie Last Stands",
      "slug": "zombie-last-stands",
      "service": "igdb"
    }
  ],
  "aliases": [],
  "shaders": [],
  "discord_id": "",
  "change_for": null
}