{
  "id": 115811,
  "name": "Dragon Marked for Death: Frontline Fighters",
  "slug": "dragon-marked-for-death-frontline-fighters",
  "year": 2019,
  "banner_url": "",
  "icon_url": "",
  "coverart": "https://lutris.net/media/igdb/cover_big/co4jfi.jpg",
  "platforms": [
    {
      "name": "Nintendo Switch"
    }
  ],
  "provider_games": [
    {
      "name": "Dragon Marked for Death: Frontline Fighters",
      "slug": "dragon-marked-for-death-frontline-fighters",
      "service": "igdb"
    }
  ],
  "aliases": [],
  "shaders": [],
  "discord_id": "",
  "change_for": null
}