{
  "id": 219365,
  "name": "Nona's Game",
  "slug": "nonas-game",
  "year": null,
  "banner_url": "",
  "icon_url": "",
  "coverart": "https://lutris.net/media/igdb/cover_big/co5jsv.jpg",
  "platforms": [],
  "provider_games": [
    {
      "name": "Nona's Game",
      "slug": "nonas-game",
      "service": "igdb"
    }
  ],
  "aliases": [],
  "shaders": [],
  "discord_id": "",
  "change_for": null
}