{
  "id": 268582,
  "name": "Taxi Taxi Taxi",
  "slug": "taxi-taxi-taxi",
  "year": null,
  "banner_url": "",
  "icon_url": "",
  "coverart": "https://lutris.net/media/igdb/cover_big/co7gft.jpg",
  "platforms": [],
  "provider_games": [
    {
      "name": "Taxi Taxi Taxi",
      "slug": "taxi-taxi-taxi",
      "service": "igdb"
    }
  ],
  "aliases": [],
  "shaders": [],
  "discord_id": "",
  "change_for": null
}