{
  "id": 58197,
  "name": "VoxelMaze",
  "slug": "voxelmaze",
  "year": null,
  "banner_url": "",
  "icon_url": "",
  "coverart": "https://lutris.net/media/igdb/cover_big/zqs8ueb5cljtfoxtdkjq.jpg",
  "platforms": [],
  "provider_games": [
    {
      "name": "VoxelMaze",
      "slug": "voxelmaze",
      "service": "igdb"
    }
  ],
  "aliases": [],
  "shaders": [],
  "discord_id": "",
  "change_for": null
}