{
  "id": 263717,
  "name": "LineMaze",
  "slug": "linemaze",
  "year": null,
  "banner_url": "",
  "icon_url": "",
  "coverart": "https://lutris.net/media/igdb/cover_big/co794z.jpg",
  "platforms": [],
  "provider_games": [
    {
      "name": "LineMaze",
      "slug": "linemaze",
      "service": "igdb"
    }
  ],
  "aliases": [],
  "shaders": [],
  "discord_id": "",
  "change_for": null
}