{
  "id": 293161,
  "name": "Loppi Puzzle Magazine: Hirameku Puzzle Dai-2-gou",
  "slug": "loppi-puzzle-magazine-hirameku-puzzle-dai-2-gou",
  "year": 2001,
  "banner_url": "",
  "icon_url": "",
  "coverart": "https://lutris.net/media/igdb/cover_big/co8iy8.jpg",
  "platforms": [
    {
      "name": "Nintendo Game Boy Color"
    }
  ],
  "provider_games": [
    {
      "name": "Loppi Puzzle Magazine: Hirameku Puzzle Dai-2-gou",
      "slug": "loppi-puzzle-magazine-hirameku-puzzle-dai-2-gou",
      "service": "igdb"
    }
  ],
  "aliases": [],
  "shaders": [],
  "discord_id": "",
  "change_for": null
}