{
  "id": 3533,
  "name": "Distance",
  "slug": "distance",
  "year": 2014,
  "banner_url": "https://lutris.net/games/banner/distance.jpg",
  "icon_url": "https://lutris.net/games/icon/distance.png",
  "coverart": "https://lutris.net/media/igdb/cover_big/i4ro9zah58pxnlmlucja.jpg",
  "platforms": [
    {
      "name": "Linux"
    },
    {
      "name": "Mac"
    },
    {
      "name": "Sony Playstation 4"
    },
    {
      "name": "Windows"
    }
  ],
  "provider_games": [
    {
      "name": "Distance",
      "slug": "233610",
      "service": "steam"
    },
    {
      "name": "Distance",
      "slug": "distance",
      "service": "igdb"
    }
  ],
  "aliases": [],
  "shaders": [],
  "discord_id": "496575580070871040",
  "change_for": null
}