{
  "id": 2151,
  "name": "Stranded",
  "slug": "stranded",
  "year": 2014,
  "banner_url": "https://lutris.net/games/banner/stranded.jpg",
  "icon_url": "https://lutris.net/games/icon/stranded.png",
  "coverart": "https://lutris.net/media/igdb/cover_big/co2hp8.jpg",
  "platforms": [
    {
      "name": "Linux"
    },
    {
      "name": "Mac"
    },
    {
      "name": "Windows"
    }
  ],
  "provider_games": [
    {
      "name": "Stranded",
      "slug": "295250",
      "service": "steam"
    },
    {
      "name": "Stranded",
      "slug": "stranded",
      "service": "igdb"
    }
  ],
  "aliases": [],
  "shaders": [],
  "discord_id": "",
  "change_for": null
}