{
  "id": 28288,
  "name": "Flight Unlimited",
  "slug": "flight-unlimited",
  "year": 1995,
  "banner_url": "https://lutris.net/games/banner/flight-unlimited.jpg",
  "icon_url": "",
  "coverart": "https://lutris.net/media/igdb/cover_big/orwlfvcgaxjg1wmknzbf.jpg",
  "platforms": [
    {
      "name": "Mac"
    },
    {
      "name": "MS-DOS"
    },
    {
      "name": "Windows"
    }
  ],
  "provider_games": [
    {
      "name": "Flight Unlimited",
      "slug": "flight-unlimited",
      "service": "igdb"
    }
  ],
  "aliases": [],
  "shaders": [],
  "discord_id": "",
  "change_for": null
}