{
  "id": 99160,
  "name": "Spiders",
  "slug": "spiders--1",
  "year": null,
  "banner_url": "",
  "icon_url": "",
  "coverart": "https://lutris.net/media/igdb/cover_big/co1sv6.jpg",
  "platforms": [],
  "provider_games": [
    {
      "name": "Spiders",
      "slug": "spiders--1",
      "service": "igdb"
    }
  ],
  "aliases": [],
  "shaders": [],
  "discord_id": "",
  "change_for": null
}