{
  "id": 71549,
  "name": "5 In One Fun Pak",
  "slug": "5-in-one-fun-pak",
  "year": null,
  "banner_url": "",
  "icon_url": "",
  "coverart": "https://lutris.net/media/igdb/cover_big/co6o7h.jpg",
  "platforms": [],
  "provider_games": [
    {
      "name": "5 In One Fun Pak",
      "slug": "5-in-one-fun-pak",
      "service": "igdb"
    }
  ],
  "aliases": [],
  "shaders": [],
  "discord_id": "",
  "change_for": null
}