{
  "id": 61063,
  "name": "Otherworld: Spring of Shadows",
  "slug": "otherworld-spring-of-shadows",
  "year": null,
  "banner_url": "",
  "icon_url": "",
  "coverart": "https://lutris.net/media/igdb/cover_big/vmnxpuhnxfnlsfkwq99t.jpg",
  "platforms": [],
  "provider_games": [
    {
      "name": "Otherworld: Spring of Shadows",
      "slug": "otherworld-spring-of-shadows",
      "service": "igdb"
    }
  ],
  "aliases": [],
  "shaders": [],
  "discord_id": "",
  "change_for": null
}