{
  "id": 12573,
  "game_id": 496,
  "game_slug": "eador-genesis",
  "name": "Eador. Genesis",
  "year": 2013,
  "user": "cxf",
  "runner": "wine",
  "slug": "eador-genesis-gog",
  "version": "GOG",
  "description": null,
  "notes": "",
  "credits": "",
  "created_at": "2019-03-30T21:21:43.000205Z",
  "updated_at": "2019-03-30T21:21:47.465712Z",
  "draft": false,
  "published": true,
  "published_by": null,
  "rating": "",
  "is_playable": null,
  "steamid": 235660,
  "gogid": 1207659147,
  "gogslug": "eador_genesis",
  "humbleid": "",
  "humblestoreid": "",
  "humblestoreid_real": "",
  "script": {
    "files": [
      {
        "setup": "N/A:Select the Linux installer downloaded from GOG"
      }
    ],
    "game": {
      "arch": "win64",
      "exe": "drive_c/GOG Games/Eador - Genesis/Eador.exe",
      "prefix": "$GAMEDIR"
    },
    "installer": [
      {
        "task": {
          "name": "create_prefix",
          "prefix": "$GAMEDIR"
        }
      },
      {
        "task": {
          "args": "/LANG=en /SP- /SUPPRESSMSGBOXES",
          "executable": "setup",
          "name": "wineexec",
          "prefix": "$GAMEDIR"
        }
      }
    ]
  },
  "content": "files:\n- setup: N/A:Select the Linux installer downloaded from GOG\ngame:\n  arch: win64\n  exe: drive_c/GOG Games/Eador - Genesis/Eador.exe\n  prefix: $GAMEDIR\ninstaller:\n- task:\n    name: create_prefix\n    prefix: $GAMEDIR\n- task:\n    args: /LANG=en /SP- /SUPPRESSMSGBOXES\n    executable: setup\n    name: wineexec\n    prefix: $GAMEDIR\n",
  "discord_id": ""
}