{
  "id": 113880,
  "name": "ACA NEOGEO THE KING OF FIGHTERS '99",
  "slug": "aca-neogeo-the-king-of-fighters-99",
  "year": 2017,
  "banner_url": "",
  "icon_url": "",
  "coverart": "https://lutris.net/media/igdb/cover_big/co1qzk.jpg",
  "platforms": [
    {
      "name": "Nintendo Switch"
    },
    {
      "name": "Sony Playstation 4"
    },
    {
      "name": "Xbox One"
    }
  ],
  "provider_games": [
    {
      "name": "ACA NEOGEO THE KING OF FIGHTERS '99",
      "slug": "aca-neogeo-the-king-of-fighters-99",
      "service": "igdb"
    }
  ],
  "aliases": [],
  "shaders": [],
  "discord_id": "",
  "change_for": null
}