{
  "id": 239015,
  "name": "Ninjas in the Dungeon",
  "slug": "ninjas-in-the-dungeon",
  "year": null,
  "banner_url": "",
  "icon_url": "",
  "coverart": "https://lutris.net/media/igdb/cover_big/co63yk.jpg",
  "platforms": [],
  "provider_games": [
    {
      "name": "Ninjas in the Dungeon",
      "slug": "ninjas-in-the-dungeon",
      "service": "igdb"
    }
  ],
  "aliases": [],
  "shaders": [],
  "discord_id": "",
  "change_for": null
}