{
  "id": 73489,
  "name": "Ejihon Tantei Jimusho",
  "slug": "ejihon-tantei-jimusho",
  "year": null,
  "banner_url": "",
  "icon_url": "",
  "coverart": null,
  "platforms": [],
  "provider_games": [
    {
      "name": "Ejihon Tantei Jimusho",
      "slug": "ejihon-tantei-jimusho",
      "service": "igdb"
    }
  ],
  "aliases": [],
  "shaders": [],
  "discord_id": "",
  "change_for": null
}