{
  "id": 16202,
  "name": "The Daring Mermaid Expedition",
  "slug": "the-daring-mermaid-expedition",
  "year": 2016,
  "banner_url": "https://lutris.net/games/banner/the-daring-mermaid-expedition.jpg",
  "icon_url": "https://lutris.net/games/icon/the-daring-mermaid-expedition.png",
  "coverart": null,
  "platforms": [
    {
      "name": "Linux"
    },
    {
      "name": "Mac"
    },
    {
      "name": "Windows"
    }
  ],
  "provider_games": [
    {
      "name": "The Daring Mermaid Expedition",
      "slug": "443830",
      "service": "steam"
    },
    {
      "name": "The Daring Mermaid Expedition",
      "slug": "the-daring-mermaid-expedition",
      "service": "igdb"
    }
  ],
  "aliases": [],
  "shaders": [],
  "discord_id": "",
  "change_for": null
}