{
  "id": 246931,
  "name": "Crushing Depths",
  "slug": "crushing-depths",
  "year": null,
  "banner_url": "",
  "icon_url": "",
  "coverart": "https://lutris.net/media/igdb/cover_big/co6jh0.jpg",
  "platforms": [],
  "provider_games": [
    {
      "name": "Crushing Depths",
      "slug": "crushing-depths",
      "service": "igdb"
    }
  ],
  "aliases": [],
  "shaders": [],
  "discord_id": "",
  "change_for": null
}