{
  "id": 210347,
  "name": "Beast Darling!: Kemomimi Danshi to Himitsu no Ryou",
  "slug": "beast-darling-kemomimi-danshi-to-himitsu-no-ryou",
  "year": null,
  "banner_url": "",
  "icon_url": "",
  "coverart": "https://lutris.net/media/igdb/cover_big/co699o.jpg",
  "platforms": [],
  "provider_games": [
    {
      "name": "Beast Darling!: Kemomimi Danshi to Himitsu no Ryou",
      "slug": "beast-darling-kemomimi-danshi-to-himitsu-no-ryou",
      "service": "igdb"
    }
  ],
  "aliases": [],
  "shaders": [],
  "discord_id": "",
  "change_for": null
}