{
  "id": 171898,
  "name": "Zumba Kids",
  "slug": "zumba-kids",
  "year": 2013,
  "banner_url": "",
  "icon_url": "",
  "coverart": "https://lutris.net/media/igdb/cover_big/co22uc.jpg",
  "platforms": [
    {
      "name": "Nintendo Wii"
    },
    {
      "name": "Xbox 360"
    }
  ],
  "provider_games": [
    {
      "name": "Zumba Kids",
      "slug": "zumba-kids",
      "service": "igdb"
    }
  ],
  "aliases": [],
  "shaders": [],
  "discord_id": "",
  "change_for": null
}