{
  "id": 42112,
  "name": "Tiny Bird Garden Deluxe",
  "slug": "tiny-bird-garden-deluxe",
  "year": 2018,
  "banner_url": "https://lutris.net/games/banner/tiny-bird-garden-deluxe.jpg",
  "icon_url": "https://lutris.net/games/icon/tiny-bird-garden-deluxe.png",
  "coverart": "https://lutris.net/media/igdb/cover_big/co296s.jpg",
  "platforms": [
    {
      "name": "Mac"
    },
    {
      "name": "Windows"
    }
  ],
  "provider_games": [
    {
      "name": "Tiny Bird Garden Deluxe",
      "slug": "945440",
      "service": "steam"
    },
    {
      "name": "Tiny Bird Garden Deluxe",
      "slug": "tiny-bird-garden-deluxe",
      "service": "igdb"
    }
  ],
  "aliases": [],
  "shaders": [],
  "discord_id": "",
  "change_for": null
}