{
  "id": 157803,
  "name": "Vegas Connection: Casino Kara Ai o Komete",
  "slug": "vegas-connection-casino-kara-ai-o-komete",
  "year": 1989,
  "banner_url": "",
  "icon_url": "",
  "coverart": "https://lutris.net/media/igdb/cover_big/co744y.jpg",
  "platforms": [
    {
      "name": "Family Computer"
    }
  ],
  "provider_games": [
    {
      "name": "Vegas Connection: Casino Kara Ai o Komete",
      "slug": "vegas-connection-casino-kara-ai-o-komete",
      "service": "igdb"
    }
  ],
  "aliases": [],
  "shaders": [],
  "discord_id": "",
  "change_for": null
}