{
  "id": 20367,
  "name": "Space Shaft",
  "slug": "space-shaft",
  "year": 2018,
  "banner_url": "https://lutris.net/games/banner/space-shaft.jpg",
  "icon_url": "https://lutris.net/games/icon/space-shaft.png",
  "coverart": null,
  "platforms": [
    {
      "name": "Windows"
    }
  ],
  "provider_games": [
    {
      "name": "Space Shaft",
      "slug": "747700",
      "service": "steam"
    },
    {
      "name": "Space Shaft",
      "slug": "space-shaft",
      "service": "igdb"
    }
  ],
  "aliases": [],
  "shaders": [],
  "discord_id": "",
  "change_for": null
}