{
  "id": 281221,
  "name": "Blackout: Uma Aventura Energética",
  "slug": "blackout-uma-aventura-energetica",
  "year": 1999,
  "banner_url": "",
  "icon_url": "",
  "coverart": "https://lutris.net/media/igdb/cover_big/co7zeh.jpg",
  "platforms": [
    {
      "name": "Windows"
    }
  ],
  "provider_games": [
    {
      "name": "Blackout: Uma Aventura Energética",
      "slug": "blackout-uma-aventura-energetica",
      "service": "igdb"
    }
  ],
  "aliases": [],
  "shaders": [],
  "discord_id": "",
  "change_for": null
}