{
  "id": 6717,
  "name": "Movie Studio 13 Platinum - Steam Powered",
  "slug": "movie-studio-13-platinum-steam-powered",
  "year": null,
  "banner_url": "https://lutris.net/games/banner/movie-studio-13-platinum-steam-powered.jpg",
  "icon_url": "https://lutris.net/games/icon/movie-studio-13-platinum-steam-powered.png",
  "coverart": null,
  "platforms": [],
  "provider_games": [
    {
      "name": "VEGAS Movie Studio 13 Platinum - Steam Powered",
      "slug": "330070",
      "service": "steam"
    }
  ],
  "aliases": [],
  "shaders": [],
  "discord_id": "",
  "change_for": null
}