{
  "id": 126669,
  "name": "ComixPlay #1: The Endless Incident",
  "slug": "comixplay-number-1-the-endless-incident",
  "year": 2016,
  "banner_url": "",
  "icon_url": "",
  "coverart": "https://lutris.net/media/igdb/cover_big/yzrr1s9l7nobxpmusxl8.jpg",
  "platforms": [
    {
      "name": "Mac"
    },
    {
      "name": "Windows"
    }
  ],
  "provider_games": [
    {
      "name": "ComixPlay #1: The Endless Incident",
      "slug": "comixplay-number-1-the-endless-incident",
      "service": "igdb"
    }
  ],
  "aliases": [],
  "shaders": [],
  "discord_id": "",
  "change_for": null
}