{
  "id": 272934,
  "name": "Immortalis",
  "slug": "immortalis--1",
  "year": null,
  "banner_url": "",
  "icon_url": "",
  "coverart": "https://lutris.net/media/igdb/cover_big/co7qx2.jpg",
  "platforms": [],
  "provider_games": [
    {
      "name": "Immortalis",
      "slug": "immortalis--1",
      "service": "igdb"
    }
  ],
  "aliases": [],
  "shaders": [],
  "discord_id": "",
  "change_for": null
}