{
  "id": 23100,
  "name": "best game eu",
  "slug": "best-game-eu",
  "year": 2018,
  "banner_url": "https://lutris.net/games/banner/best-game-eu.jpg",
  "icon_url": "https://lutris.net/games/icon/best-game-eu.png",
  "coverart": "https://lutris.net/media/igdb/cover_big/co2998.jpg",
  "platforms": [
    {
      "name": "Windows"
    }
  ],
  "provider_games": [
    {
      "name": "best game eu",
      "slug": "850330",
      "service": "steam"
    },
    {
      "name": "Best Game EU",
      "slug": "best-game-eu",
      "service": "igdb"
    }
  ],
  "aliases": [],
  "shaders": [],
  "discord_id": "",
  "change_for": null
}