{
  "id": 281949,
  "name": "School Girls Dance",
  "slug": "school-girls-dance",
  "year": null,
  "banner_url": "",
  "icon_url": "",
  "coverart": null,
  "platforms": [
    {
      "name": "Android"
    }
  ],
  "provider_games": [
    {
      "name": "School Girls Dance",
      "slug": "school-girls-dance",
      "service": "igdb"
    }
  ],
  "aliases": [],
  "shaders": [],
  "discord_id": "",
  "change_for": null
}