{
  "id": 64365,
  "name": "Clueless: The CD-ROM",
  "slug": "clueless-the-cd-rom",
  "year": null,
  "banner_url": "",
  "icon_url": "",
  "coverart": "https://lutris.net/media/igdb/cover_big/a6ztbwcokabsw44qzi3b.jpg",
  "platforms": [],
  "provider_games": [
    {
      "name": "Clueless: The CD-ROM",
      "slug": "clueless-the-cd-rom",
      "service": "igdb"
    }
  ],
  "aliases": [],
  "shaders": [],
  "discord_id": "",
  "change_for": null
}