{
  "id": 118144,
  "name": "ECKN+",
  "slug": "eckn-plus",
  "year": 2008,
  "banner_url": "",
  "icon_url": "",
  "coverart": "https://lutris.net/media/igdb/cover_big/co3gz5.jpg",
  "platforms": [
    {
      "name": "Atari 8-bit"
    }
  ],
  "provider_games": [
    {
      "name": "Eckn+",
      "slug": "eckn-plus",
      "service": "igdb"
    }
  ],
  "aliases": [],
  "shaders": [],
  "discord_id": "",
  "change_for": null
}