{
  "id": 17056,
  "name": "Unlikely Stickman",
  "slug": "unlikely-stickman",
  "year": 2017,
  "banner_url": "https://lutris.net/games/banner/unlikely-stickman.jpg",
  "icon_url": "https://lutris.net/games/icon/unlikely-stickman.png",
  "coverart": null,
  "platforms": [
    {
      "name": "Windows"
    }
  ],
  "provider_games": [
    {
      "name": "Unlikely Stickman",
      "slug": "unlikely-stickman",
      "service": "igdb"
    }
  ],
  "aliases": [],
  "shaders": [],
  "discord_id": "",
  "change_for": null
}