{
  "id": 174107,
  "name": "Lords and Villeins",
  "slug": "lords-and-villeins--1",
  "year": null,
  "banner_url": "",
  "icon_url": "",
  "coverart": "https://lutris.net/media/igdb/cover_big/co78l4.jpg",
  "platforms": [],
  "provider_games": [
    {
      "name": "Lords and Villeins",
      "slug": "1740243150",
      "service": "gog"
    },
    {
      "name": "Lords and Villeins",
      "slug": "lords-and-villeins--1",
      "service": "igdb"
    }
  ],
  "aliases": [],
  "shaders": [],
  "discord_id": "",
  "change_for": null
}