{
  "id": 214017,
  "name": "The Sentient Box",
  "slug": "the-sentient-box",
  "year": null,
  "banner_url": "",
  "icon_url": "",
  "coverart": "https://lutris.net/media/igdb/cover_big/co5sz1.jpg",
  "platforms": [],
  "provider_games": [
    {
      "name": "The Sentient Box",
      "slug": "the-sentient-box",
      "service": "igdb"
    }
  ],
  "aliases": [],
  "shaders": [],
  "discord_id": "",
  "change_for": null
}