{
  "id": 8717,
  "name": "Russian Front",
  "slug": "russian-front",
  "year": 2015,
  "banner_url": "https://lutris.net/games/banner/russian-front.jpg",
  "icon_url": "https://lutris.net/games/icon/russian-front.png",
  "coverart": "https://lutris.net/media/igdb/cover_big/co2l9s.jpg",
  "platforms": [
    {
      "name": "Mac"
    },
    {
      "name": "Windows"
    }
  ],
  "provider_games": [
    {
      "name": "Russian Front",
      "slug": "385960",
      "service": "steam"
    },
    {
      "name": "Russian Front",
      "slug": "russian-front",
      "service": "igdb"
    }
  ],
  "aliases": [],
  "shaders": [],
  "discord_id": "",
  "change_for": null
}