{
  "id": 286200,
  "name": "Tic-Tac-Toe Bolt",
  "slug": "tic-tac-toe-bolt",
  "year": 2024,
  "banner_url": "",
  "icon_url": "",
  "coverart": "https://lutris.net/media/igdb/cover_big/co87x7.jpg",
  "platforms": [],
  "provider_games": [
    {
      "name": "Tic-Tac-Toe Bolt",
      "slug": "tic-tac-toe-bolt",
      "service": "igdb"
    }
  ],
  "aliases": [],
  "shaders": [],
  "discord_id": "",
  "change_for": null
}