{
  "id": 301093,
  "name": "Muppet Babies: Thinking and Sorting",
  "slug": "muppet-babies-thinking-and-sorting",
  "year": 2007,
  "banner_url": "",
  "icon_url": "",
  "coverart": "https://lutris.net/media/igdb/cover_big/co8yi5.jpg",
  "platforms": [
    {
      "name": "Windows"
    }
  ],
  "provider_games": [
    {
      "name": "Muppet Babies: Thinking and Sorting",
      "slug": "muppet-babies-thinking-and-sorting",
      "service": "igdb"
    }
  ],
  "aliases": [],
  "shaders": [],
  "discord_id": "",
  "change_for": null
}