{
  "id": 46851,
  "name": "Happy Farm",
  "slug": "happy-farm",
  "year": null,
  "banner_url": "",
  "icon_url": "",
  "coverart": "https://lutris.net/media/igdb/cover_big/jt4psbtr1w3v7wydj8cw.jpg",
  "platforms": [],
  "provider_games": [
    {
      "name": "Happy Farm",
      "slug": "happy-farm",
      "service": "igdb"
    }
  ],
  "aliases": [],
  "shaders": [],
  "discord_id": "",
  "change_for": null
}