{
  "id": 166764,
  "name": "House Flipper City",
  "slug": "house-flipper-city",
  "year": null,
  "banner_url": "",
  "icon_url": "",
  "coverart": "https://lutris.net/media/igdb/cover_big/co43do.jpg",
  "platforms": [],
  "provider_games": [
    {
      "name": "House Flipper City",
      "slug": "house-flipper-city",
      "service": "igdb"
    }
  ],
  "aliases": [],
  "shaders": [],
  "discord_id": "",
  "change_for": null
}