{
  "id": 38272,
  "name": "妄想破绽",
  "slug": "wang-xiang-po-zhan",
  "year": null,
  "banner_url": "https://lutris.net/games/banner/wang-xiang-po-zhan.jpg",
  "icon_url": "https://lutris.net/games/icon/wang-xiang-po-zhan.png",
  "coverart": "https://lutris.net/media/igdb/cover_big/co1zkw.jpg",
  "platforms": [],
  "provider_games": [
    {
      "name": "妄想破绽",
      "slug": "1108320",
      "service": "steam"
    },
    {
      "name": "妄想破绽",
      "slug": "wang-xiang-po-zhan",
      "service": "igdb"
    }
  ],
  "aliases": [],
  "shaders": [],
  "discord_id": "",
  "change_for": null
}