{
  "id": 14487,
  "game_id": 945,
  "game_slug": "velvet-assassin",
  "name": "Velvet Assassin",
  "year": 2009,
  "user": "gusantoniassi",
  "runner": "winesteam",
  "slug": "velvet-assassin-steam",
  "version": "Steam",
  "description": null,
  "notes": "Install the required Physx dependencies to fix the \"Failed to init ageia physics sdk\" error message.",
  "credits": "",
  "created_at": "2019-07-09T16:21:25.861000Z",
  "updated_at": "2019-10-18T07:58:01.206863Z",
  "draft": false,
  "published": true,
  "published_by": 19464,
  "rating": "",
  "is_playable": null,
  "steamid": 16720,
  "gogid": null,
  "gogslug": "",
  "humbleid": "",
  "humblestoreid": "",
  "humblestoreid_real": "",
  "script": {
    "game": {
      "appid": 16720,
      "prefix": "$GAMEDIR/prefix"
    },
    "installer": [
      {
        "task": {
          "name": "create_prefix",
          "prefix": "$GAMEDIR/prefix"
        }
      },
      {
        "task": {
          "app": "d3dx9",
          "description": "Installing d3dx9",
          "name": "winetricks",
          "prefix": "$GAMEDIR/prefix"
        }
      },
      {
        "task": {
          "app": "physx",
          "description": "Installing physx",
          "name": "winetricks",
          "prefix": "$GAMEDIR/prefix"
        }
      },
      {
        "task": {
          "app": "vcrun2008",
          "description": "Installing vcrun2008",
          "name": "winetricks",
          "prefix": "$GAMEDIR/prefix"
        }
      },
      {
        "task": {
          "app": "vcrun2010 win7",
          "description": "Installing vcrun2010",
          "name": "winetricks",
          "prefix": "$GAMEDIR/prefix"
        }
      }
    ],
    "winesteam": {
      "UseGLSL": "disabled"
    }
  },
  "content": "game:\n  appid: 16720\n  prefix: $GAMEDIR/prefix\ninstaller:\n- task:\n    name: create_prefix\n    prefix: $GAMEDIR/prefix\n- task:\n    app: d3dx9\n    description: Installing d3dx9\n    name: winetricks\n    prefix: $GAMEDIR/prefix\n- task:\n    app: physx\n    description: Installing physx\n    name: winetricks\n    prefix: $GAMEDIR/prefix\n- task:\n    app: vcrun2008\n    description: Installing vcrun2008\n    name: winetricks\n    prefix: $GAMEDIR/prefix\n- task:\n    app: vcrun2010 win7\n    description: Installing vcrun2010\n    name: winetricks\n    prefix: $GAMEDIR/prefix\nwinesteam:\n  UseGLSL: disabled\n",
  "discord_id": ""
}