{
  "id": 8588,
  "name": "Overload Playable Teaser",
  "slug": "overload-playable-teaser",
  "year": 2016,
  "banner_url": "https://lutris.net/games/banner/overload-playable-teaser.jpg",
  "icon_url": "https://lutris.net/games/icon/overload-playable-teaser.png",
  "coverart": "https://lutris.net/media/igdb/cover_big/co6q0f.jpg",
  "platforms": [
    {
      "name": "Linux"
    },
    {
      "name": "Mac"
    },
    {
      "name": "Windows"
    }
  ],
  "provider_games": [
    {
      "name": "Overload - Playable Teaser",
      "slug": "1245077743",
      "service": "gog"
    },
    {
      "name": "Overload Playable Teaser",
      "slug": "450220",
      "service": "steam"
    },
    {
      "name": "Overload Playable Teaser",
      "slug": "overload-playable-teaser",
      "service": "igdb"
    }
  ],
  "aliases": [],
  "shaders": [],
  "discord_id": "",
  "change_for": null
}