{
  "id": 123904,
  "name": "Haunted Manor: Painted Beauties - Collector's Edition",
  "slug": "haunted-manor-painted-beauties-collectors-edition",
  "year": null,
  "banner_url": "",
  "icon_url": "",
  "coverart": null,
  "platforms": [],
  "provider_games": [
    {
      "name": "Haunted Manor: Painted Beauties - Collector's Edition",
      "slug": "haunted-manor-painted-beauties-collectors-edition",
      "service": "igdb"
    }
  ],
  "aliases": [],
  "shaders": [],
  "discord_id": "",
  "change_for": null
}