{
  "id": 158020,
  "name": "Race Of Champions",
  "slug": "race-of-champions",
  "year": 2011,
  "banner_url": "",
  "icon_url": "",
  "coverart": null,
  "platforms": [],
  "provider_games": [
    {
      "name": "Race of Champions",
      "slug": "race-of-champions",
      "service": "igdb"
    }
  ],
  "aliases": [],
  "shaders": [],
  "discord_id": "",
  "change_for": null
}