{
  "id": 66015,
  "name": "Front Mission 2089: Border of Madness",
  "slug": "front-mission-2089-border-of-madness",
  "year": 2008,
  "banner_url": "",
  "icon_url": "",
  "coverart": "https://lutris.net/media/igdb/cover_big/iupksgek4jce3cjitcnu.jpg",
  "platforms": [
    {
      "name": "Nintendo DS"
    }
  ],
  "provider_games": [
    {
      "name": "Front Mission 2089: Border of Madness",
      "slug": "front-mission-2089-border-of-madness",
      "service": "igdb"
    }
  ],
  "aliases": [],
  "shaders": [],
  "discord_id": "",
  "change_for": null
}