{
  "id": 285896,
  "name": "Zhigu Military Exorcist",
  "slug": "zhigu-military-exorcist",
  "year": null,
  "banner_url": "",
  "icon_url": "",
  "coverart": "https://lutris.net/media/igdb/cover_big/co88s6.jpg",
  "platforms": [],
  "provider_games": [
    {
      "name": "Zhigu Military Exorcist",
      "slug": "zhigu-military-exorcist",
      "service": "igdb"
    }
  ],
  "aliases": [],
  "shaders": [],
  "discord_id": "",
  "change_for": null
}