{
  "id": 225438,
  "name": "Blood Under the Bridge",
  "slug": "blood-under-the-bridge",
  "year": 2019,
  "banner_url": "",
  "icon_url": "",
  "coverart": "https://lutris.net/media/igdb/cover_big/co4rvb.jpg",
  "platforms": [
    {
      "name": "Browser"
    }
  ],
  "provider_games": [
    {
      "name": "Blood Under the Bridge",
      "slug": "blood-under-the-bridge",
      "service": "igdb"
    }
  ],
  "aliases": [],
  "shaders": [],
  "discord_id": "",
  "change_for": null
}