{
  "id": 171901,
  "name": "WWE '13",
  "slug": "wwe-13",
  "year": 2012,
  "banner_url": "",
  "icon_url": "",
  "coverart": "https://lutris.net/media/igdb/cover_big/co2sjj.jpg",
  "platforms": [
    {
      "name": "Nintendo Wii"
    },
    {
      "name": "Sony Playstation 3"
    },
    {
      "name": "Xbox 360"
    }
  ],
  "provider_games": [
    {
      "name": "WWE '13",
      "slug": "wwe-13",
      "service": "igdb"
    }
  ],
  "aliases": [],
  "shaders": [],
  "discord_id": "",
  "change_for": null
}