{
  "id": 88752,
  "name": "Kids Mosaic Art Shape and Color Picture Puzzles",
  "slug": "kids-mosaic-art-shape-and-color-picture-puzzles",
  "year": null,
  "banner_url": "",
  "icon_url": "",
  "coverart": null,
  "platforms": [],
  "provider_games": [
    {
      "name": "Kids Mosaic Art Shape and Color Picture Puzzles",
      "slug": "kids-mosaic-art-shape-and-color-picture-puzzles",
      "service": "igdb"
    }
  ],
  "aliases": [],
  "shaders": [],
  "discord_id": "",
  "change_for": null
}