{
  "id": 262809,
  "name": "Kindan no Shinrei Shashin",
  "slug": "kindan-no-shinrei-shashin",
  "year": null,
  "banner_url": "",
  "icon_url": "",
  "coverart": null,
  "platforms": [],
  "provider_games": [
    {
      "name": "Kindan no Shinrei Shashin",
      "slug": "kindan-no-shinrei-shashin",
      "service": "igdb"
    }
  ],
  "aliases": [],
  "shaders": [],
  "discord_id": "",
  "change_for": null
}