{
  "id": 66119,
  "name": "Point of Destruction",
  "slug": "point-of-destruction",
  "year": null,
  "banner_url": "",
  "icon_url": "",
  "coverart": "https://lutris.net/media/igdb/cover_big/lfjtgqh2nnj0386uwwn0.jpg",
  "platforms": [],
  "provider_games": [
    {
      "name": "Point of Destruction",
      "slug": "point-of-destruction",
      "service": "igdb"
    }
  ],
  "aliases": [],
  "shaders": [],
  "discord_id": "",
  "change_for": null
}