{
  "id": 212261,
  "name": "Finger Soccer",
  "slug": "finger-soccer",
  "year": null,
  "banner_url": "",
  "icon_url": "",
  "coverart": "https://lutris.net/media/igdb/cover_big/co5epy.jpg",
  "platforms": [],
  "provider_games": [
    {
      "name": "Finger Soccer",
      "slug": "finger-soccer",
      "service": "igdb"
    }
  ],
  "aliases": [],
  "shaders": [],
  "discord_id": "",
  "change_for": null
}