{
  "id": 258821,
  "name": "Cats Hidden in Maple Hollow",
  "slug": "cats-hidden-in-maple-hollow",
  "year": null,
  "banner_url": "",
  "icon_url": "",
  "coverart": "https://lutris.net/media/igdb/cover_big/co7168.jpg",
  "platforms": [],
  "provider_games": [
    {
      "name": "Cats Hidden in Maple Hollow",
      "slug": "cats-hidden-in-maple-hollow",
      "service": "igdb"
    },
    {
      "name": "Cats Hidden in Maple Hollow",
      "slug": "1267786997",
      "service": "gog"
    }
  ],
  "aliases": [],
  "shaders": [],
  "discord_id": "",
  "change_for": null
}