{
  "id": 80974,
  "name": "Dylan Dog: Storia di Nessuno",
  "slug": "dylan-dog-storia-di-nessuno",
  "year": 1993,
  "banner_url": "",
  "icon_url": "",
  "coverart": "https://lutris.net/media/igdb/cover_big/fmbdhil4ooajdv3deuoo.jpg",
  "platforms": [
    {
      "name": "Amiga"
    }
  ],
  "provider_games": [
    {
      "name": "Dylan Dog: Storia di Nessuno",
      "slug": "dylan-dog-storia-di-nessuno",
      "service": "igdb"
    }
  ],
  "aliases": [],
  "shaders": [],
  "discord_id": "",
  "change_for": null
}