{
  "id": 37044,
  "game_id": 102768,
  "game_slug": "defective-holiday",
  "name": "Defective Holiday",
  "year": 2020,
  "user": "vanstaveren",
  "runner": "steam",
  "slug": "defective-holiday-steam",
  "version": "steam",
  "description": "",
  "notes": "Video not working ...",
  "credits": "",
  "created_at": "2023-02-21T01:56:00.899907Z",
  "updated_at": "2023-02-21T01:56:00.899933Z",
  "draft": false,
  "published": true,
  "published_by": null,
  "rating": "",
  "is_playable": null,
  "steamid": null,
  "gogid": null,
  "gogslug": "",
  "humbleid": "",
  "humblestoreid": "",
  "humblestoreid_real": "",
  "script": {
    "game": {
      "appid": 1281890
    }
  },
  "content": "game:\n  appid: 1281890\n",
  "discord_id": ""
}