{
  "id": 55889,
  "name": "Littlest Pet Shop: Jungle",
  "slug": "littlest-pet-shop-jungle",
  "year": 2008,
  "banner_url": "",
  "icon_url": "",
  "coverart": "https://lutris.net/media/igdb/cover_big/b2zrjpkgaulleekzi315.jpg",
  "platforms": [
    {
      "name": "Nintendo DS"
    }
  ],
  "provider_games": [
    {
      "name": "Littlest Pet Shop: Jungle",
      "slug": "littlest-pet-shop-jungle",
      "service": "igdb"
    }
  ],
  "aliases": [],
  "shaders": [],
  "discord_id": "",
  "change_for": null
}