{
  "id": 126619,
  "name": "D.C. S#*!storm",
  "slug": "dc-s-number-star-storm",
  "year": null,
  "banner_url": "",
  "icon_url": "",
  "coverart": null,
  "platforms": [],
  "provider_games": [
    {
      "name": "D.C. S#*!storm",
      "slug": "dc-s-number-star-storm",
      "service": "igdb"
    }
  ],
  "aliases": [],
  "shaders": [],
  "discord_id": "",
  "change_for": null
}