{
  "id": 35452,
  "name": "R2D Tank",
  "slug": "r2d-tank",
  "year": 1980,
  "banner_url": "",
  "icon_url": "https://lutris.net/games/icon/r2d-tank.png",
  "coverart": "https://lutris.net/media/igdb/cover_big/co7ec0.jpg",
  "platforms": [
    {
      "name": "Arcade"
    }
  ],
  "provider_games": [
    {
      "name": "R2D Tank",
      "slug": "r2dtank",
      "service": "mame"
    },
    {
      "name": "R2D Tank",
      "slug": "r2d-tank",
      "service": "igdb"
    }
  ],
  "aliases": [],
  "shaders": [],
  "discord_id": "",
  "change_for": null
}