{
  "id": 283900,
  "name": "Denjarus Pacche-san Moriya's Journey 4",
  "slug": "denjarus-pacche-san-moriyas-journey-4",
  "year": 2013,
  "banner_url": "",
  "icon_url": "",
  "coverart": "https://lutris.net/media/igdb/cover_big/co8448.jpg",
  "platforms": [
    {
      "name": "Windows"
    }
  ],
  "provider_games": [
    {
      "name": "Denjarus Pacche-san Moriya's Journey 4",
      "slug": "denjarus-pacche-san-moriyas-journey-4",
      "service": "igdb"
    }
  ],
  "aliases": [],
  "shaders": [],
  "discord_id": "",
  "change_for": null
}