{
  "id": 191460,
  "name": "The First Samurai",
  "slug": "the-first-samurai",
  "year": null,
  "banner_url": "",
  "icon_url": "",
  "coverart": null,
  "platforms": [],
  "provider_games": [
    {
      "name": "The First Samurai",
      "slug": "2108159473",
      "service": "gog"
    }
  ],
  "aliases": [],
  "shaders": [],
  "discord_id": "",
  "change_for": null
}