{
  "id": 113381,
  "name": "Inside Out Thought Bubbles",
  "slug": "inside-out-thought-bubbles",
  "year": 2015,
  "banner_url": "",
  "icon_url": "",
  "coverart": "https://lutris.net/media/igdb/cover_big/co1h8g.jpg",
  "platforms": [
    {
      "name": "Android"
    }
  ],
  "provider_games": [
    {
      "name": "Inside Out: Thought Bubbles",
      "slug": "inside-out-thought-bubbles",
      "service": "igdb"
    }
  ],
  "aliases": [],
  "shaders": [],
  "discord_id": "",
  "change_for": null
}