{
  "id": 245917,
  "name": "Summer Daze: Tilly's Tale",
  "slug": "summer-daze-tillys-tale",
  "year": 2023,
  "banner_url": "",
  "icon_url": "",
  "coverart": "https://lutris.net/media/igdb/cover_big/co6ix2.jpg",
  "platforms": [
    {
      "name": "Nintendo Switch"
    }
  ],
  "provider_games": [
    {
      "name": "Summer Daze: Tilly's Tale",
      "slug": "summer-daze-tillys-tale",
      "service": "igdb"
    }
  ],
  "aliases": [],
  "shaders": [],
  "discord_id": "",
  "change_for": null
}