{
  "id": 218278,
  "name": "Sofia the First",
  "slug": "sofia-the-first",
  "year": null,
  "banner_url": "",
  "icon_url": "",
  "coverart": "https://lutris.net/media/igdb/cover_big/co534g.jpg",
  "platforms": [],
  "provider_games": [
    {
      "name": "Sofia the First",
      "slug": "sofia-the-first",
      "service": "igdb"
    }
  ],
  "aliases": [],
  "shaders": [],
  "discord_id": "",
  "change_for": null
}