{
  "id": 110018,
  "name": "Mangia'",
  "slug": "mangia",
  "year": 1983,
  "banner_url": "",
  "icon_url": "",
  "coverart": "https://lutris.net/media/igdb/cover_big/xkkwg7pm0y4xdnquvsla.jpg",
  "platforms": [],
  "provider_games": [
    {
      "name": "Mangia'",
      "slug": "mangia",
      "service": "igdb"
    }
  ],
  "aliases": [],
  "shaders": [],
  "discord_id": "",
  "change_for": null
}