{
  "id": 14349,
  "name": "Vegas Pro 13 Edit",
  "slug": "vegas-pro-13-edit",
  "year": null,
  "banner_url": "https://lutris.net/games/banner/vegas-pro-13-edit.jpg",
  "icon_url": "https://lutris.net/games/icon/vegas-pro-13-edit.png",
  "coverart": null,
  "platforms": [
    {
      "name": "Windows"
    }
  ],
  "provider_games": [
    {
      "name": "Vegas Pro 13 Edit - Steam Powered",
      "slug": "278210",
      "service": "steam"
    }
  ],
  "aliases": [
    {
      "slug": "vegas-pro-13-edit-steam-powered",
      "name": "Vegas Pro 13 Edit - Steam Powered"
    }
  ],
  "shaders": [],
  "discord_id": "",
  "change_for": null
}