{
  "id": 133283,
  "name": "Aetheria Online",
  "slug": "aetheria-online",
  "year": null,
  "banner_url": "",
  "icon_url": "",
  "coverart": "https://lutris.net/media/igdb/cover_big/co3l2d.jpg",
  "platforms": [],
  "provider_games": [
    {
      "name": "Aetheria Online",
      "slug": "aetheria-online",
      "service": "igdb"
    }
  ],
  "aliases": [],
  "shaders": [],
  "discord_id": "",
  "change_for": null
}