{
  "id": 272288,
  "name": "Card Fencer",
  "slug": "card-fencer",
  "year": null,
  "banner_url": "",
  "icon_url": "",
  "coverart": "https://lutris.net/media/igdb/cover_big/co7p9x.jpg",
  "platforms": [],
  "provider_games": [
    {
      "name": "Card Fencer",
      "slug": "card-fencer",
      "service": "igdb"
    }
  ],
  "aliases": [],
  "shaders": [],
  "discord_id": "",
  "change_for": null
}