{
  "id": 271498,
  "name": "Hitou Dungeon",
  "slug": "hitou-dungeon",
  "year": null,
  "banner_url": "",
  "icon_url": "",
  "coverart": "https://lutris.net/media/igdb/cover_big/co7o4e.jpg",
  "platforms": [],
  "provider_games": [
    {
      "name": "Hitou Dungeon",
      "slug": "hitou-dungeon",
      "service": "igdb"
    }
  ],
  "aliases": [],
  "shaders": [],
  "discord_id": "",
  "change_for": null
}