{
  "id": 266100,
  "name": "Fish Fighter",
  "slug": "fish-fighter",
  "year": null,
  "banner_url": "",
  "icon_url": "",
  "coverart": "https://lutris.net/media/igdb/cover_big/co7e3i.jpg",
  "platforms": [],
  "provider_games": [
    {
      "name": "Fish Fighter",
      "slug": "fish-fighter",
      "service": "igdb"
    }
  ],
  "aliases": [],
  "shaders": [],
  "discord_id": "",
  "change_for": null
}