{
  "id": 153148,
  "name": "Space Cruise",
  "slug": "space-cruise",
  "year": null,
  "banner_url": "",
  "icon_url": "",
  "coverart": null,
  "platforms": [],
  "provider_games": [
    {
      "name": "Space Cruise",
      "slug": "space-cruise",
      "service": "igdb"
    }
  ],
  "aliases": [],
  "shaders": [],
  "discord_id": "",
  "change_for": null
}