{
  "id": 229899,
  "name": "Ballotron Oceans",
  "slug": "ballotron-oceans",
  "year": 2023,
  "banner_url": "",
  "icon_url": "",
  "coverart": "https://lutris.net/media/igdb/cover_big/co616r.jpg",
  "platforms": [
    {
      "name": "Xbox One"
    },
    {
      "name": "Xbox Series X|S"
    }
  ],
  "provider_games": [
    {
      "name": "Ballotron Oceans",
      "slug": "ballotron-oceans",
      "service": "igdb"
    }
  ],
  "aliases": [],
  "shaders": [],
  "discord_id": "",
  "change_for": null
}