{
  "id": 236267,
  "name": "Yuma",
  "slug": "yuma",
  "year": null,
  "banner_url": "",
  "icon_url": "",
  "coverart": "https://lutris.net/media/igdb/cover_big/co64p3.jpg",
  "platforms": [],
  "provider_games": [
    {
      "name": "Yuma",
      "slug": "yuma",
      "service": "igdb"
    }
  ],
  "aliases": [],
  "shaders": [],
  "discord_id": "",
  "change_for": null
}