{
  "id": 255761,
  "name": "Yebushou: Defeat Pirates",
  "slug": "yebushou-defeat-pirates",
  "year": null,
  "banner_url": "",
  "icon_url": "",
  "coverart": "https://lutris.net/media/igdb/cover_big/co6y44.jpg",
  "platforms": [],
  "provider_games": [
    {
      "name": "Yebushou: Defeat Pirates",
      "slug": "yebushou-defeat-pirates",
      "service": "igdb"
    }
  ],
  "aliases": [],
  "shaders": [],
  "discord_id": "",
  "change_for": null
}