{
  "id": 56356,
  "name": "Cue Club",
  "slug": "cue-club",
  "year": 2003,
  "banner_url": "",
  "icon_url": "",
  "coverart": "https://lutris.net/media/igdb/cover_big/rongkqss9q3xdtd7lfdi.jpg",
  "platforms": [
    {
      "name": "Windows"
    }
  ],
  "provider_games": [
    {
      "name": "Cue Club",
      "slug": "cue-club",
      "service": "igdb"
    }
  ],
  "aliases": [],
  "shaders": [],
  "discord_id": "",
  "change_for": null
}