{
  "id": 270320,
  "name": "Gendai Daisenryaku 2002",
  "slug": "gendai-daisenryaku-2002",
  "year": 2002,
  "banner_url": "",
  "icon_url": "",
  "coverart": "https://lutris.net/media/igdb/cover_big/co7lul.jpg",
  "platforms": [
    {
      "name": "Windows"
    }
  ],
  "provider_games": [
    {
      "name": "Gendai Daisenryaku 2002",
      "slug": "gendai-daisenryaku-2002",
      "service": "igdb"
    }
  ],
  "aliases": [],
  "shaders": [],
  "discord_id": "",
  "change_for": null
}