{
  "id": 254713,
  "name": "One Life to Alice",
  "slug": "one-life-to-alice",
  "year": null,
  "banner_url": "",
  "icon_url": "",
  "coverart": "https://lutris.net/media/igdb/cover_big/co6w9g.jpg",
  "platforms": [],
  "provider_games": [
    {
      "name": "One Life to Alice",
      "slug": "one-life-to-alice",
      "service": "igdb"
    }
  ],
  "aliases": [],
  "shaders": [],
  "discord_id": "",
  "change_for": null
}