{
  "id": 31258,
  "name": "Hermes: War of the Gods",
  "slug": "hermes-war-of-the-gods",
  "year": null,
  "banner_url": "https://lutris.net/games/banner/hermes-war-of-the-gods.jpg",
  "icon_url": "https://lutris.net/games/icon/hermes-war-of-the-gods.png",
  "coverart": "https://lutris.net/media/igdb/cover_big/co42cm.jpg",
  "platforms": [],
  "provider_games": [
    {
      "name": "Hermes: War of the Gods",
      "slug": "1197700",
      "service": "steam"
    },
    {
      "name": "Hermes: War of the Gods",
      "slug": "hermes-war-of-the-gods",
      "service": "igdb"
    }
  ],
  "aliases": [],
  "shaders": [],
  "discord_id": "",
  "change_for": null
}