{
  "id": 68129,
  "name": "Family Games Compendium",
  "slug": "family-games-compendium",
  "year": null,
  "banner_url": "",
  "icon_url": "",
  "coverart": "https://lutris.net/media/igdb/cover_big/ehmqlaux2ci7dwpczf7u.jpg",
  "platforms": [],
  "provider_games": [
    {
      "name": "Family Games Compendium",
      "slug": "family-games-compendium",
      "service": "igdb"
    }
  ],
  "aliases": [],
  "shaders": [],
  "discord_id": "",
  "change_for": null
}