{
  "id": 219873,
  "name": "Inductor",
  "slug": "inductor",
  "year": null,
  "banner_url": "",
  "icon_url": "",
  "coverart": "https://lutris.net/media/igdb/cover_big/co5h8z.jpg",
  "platforms": [],
  "provider_games": [
    {
      "name": "Inductor",
      "slug": "inductor",
      "service": "igdb"
    }
  ],
  "aliases": [],
  "shaders": [],
  "discord_id": "",
  "change_for": null
}