{
  "id": 88984,
  "name": "Rooftop Snipers",
  "slug": "rooftop-snipers",
  "year": 2017,
  "banner_url": "",
  "icon_url": "",
  "coverart": "https://lutris.net/media/igdb/cover_big/d5g7leqqbsikcj6haad2.jpg",
  "platforms": [],
  "provider_games": [
    {
      "name": "Rooftop Snipers",
      "slug": "rooftop-snipers",
      "service": "igdb"
    }
  ],
  "aliases": [],
  "shaders": [],
  "discord_id": "",
  "change_for": null
}