{
  "id": 270466,
  "name": "Caça Vampiro",
  "slug": "caca-vampiro",
  "year": null,
  "banner_url": "",
  "icon_url": "",
  "coverart": "https://lutris.net/media/igdb/cover_big/co7lci.jpg",
  "platforms": [],
  "provider_games": [
    {
      "name": "Caça Vampiro",
      "slug": "caca-vampiro",
      "service": "igdb"
    }
  ],
  "aliases": [],
  "shaders": [],
  "discord_id": "",
  "change_for": null
}