{
  "id": 194350,
  "name": "MoonFall: Butterfly Lovers",
  "slug": "moonfall-butterfly-lovers",
  "year": null,
  "banner_url": "https://lutris.net/games/banner/moonfall-butterfly-lovers.jpg",
  "icon_url": "",
  "coverart": "https://lutris.net/media/igdb/cover_big/co4fpq.jpg",
  "platforms": [],
  "provider_games": [
    {
      "name": "MoonFall: Butterfly Lovers",
      "slug": "moonfall-butterfly-lovers",
      "service": "igdb"
    },
    {
      "name": "MoonFall / Butterfly Lovers",
      "slug": "1639230",
      "service": "steam"
    }
  ],
  "aliases": [],
  "shaders": [],
  "discord_id": "",
  "change_for": null
}