{
  "id": 46678,
  "name": "The Town",
  "slug": "the-town",
  "year": null,
  "banner_url": "",
  "icon_url": "",
  "coverart": "https://lutris.net/media/igdb/cover_big/ekqt9bvpuivls6gbgfka.jpg",
  "platforms": [],
  "provider_games": [
    {
      "name": "The Town",
      "slug": "the-town",
      "service": "igdb"
    }
  ],
  "aliases": [],
  "shaders": [],
  "discord_id": "",
  "change_for": null
}