{
  "id": 178652,
  "name": "COCKHEAD: BIG KAHUNA BAR",
  "slug": "cockhead-big-kahuna-bar",
  "year": null,
  "banner_url": "",
  "icon_url": "",
  "coverart": "https://lutris.net/media/igdb/cover_big/co2ln0.jpg",
  "platforms": [
    {
      "name": "Windows"
    }
  ],
  "provider_games": [
    {
      "name": "Cockhead: Big Kahuna Bar",
      "slug": "cockhead-big-kahuna-bar",
      "service": "igdb"
    }
  ],
  "aliases": [],
  "shaders": [],
  "discord_id": "",
  "change_for": null
}