{
  "id": 280576,
  "name": "SOS: Forgotten Planet",
  "slug": "sos-forgotten-planet",
  "year": null,
  "banner_url": "",
  "icon_url": "",
  "coverart": "https://lutris.net/media/igdb/cover_big/co7z5f.jpg",
  "platforms": [],
  "provider_games": [
    {
      "name": "SOS: Forgotten Planet",
      "slug": "sos-forgotten-planet",
      "service": "igdb"
    }
  ],
  "aliases": [],
  "shaders": [],
  "discord_id": "",
  "change_for": null
}