{
  "id": 17237,
  "game_id": 29166,
  "game_slug": "blazing-chrome",
  "name": "Blazing Chrome",
  "year": 2019,
  "user": "1985a",
  "runner": "wine",
  "slug": "blazing-chrome-gog",
  "version": "GOG",
  "description": "In Blazing Chrome, machines rule the world and the few humans left are on the edge of total extermination, lacking power, prestige or status among their metal and circuits overlords. Bring your best pal and kick some metal butts to free the humankind while enjoying a classic run’n’gun, fully loaded with action and exciting fights!\r\n\r\nDash through 5 apocalyptic environments with hundred of robots-enemies to blow to pieces.",
  "notes": "",
  "credits": "",
  "created_at": "2019-12-08T21:29:56.956618Z",
  "updated_at": "2023-06-13T01:36:25.741523Z",
  "draft": true,
  "published": true,
  "published_by": null,
  "rating": "",
  "is_playable": null,
  "steamid": 609110,
  "gogid": 1725796924,
  "gogslug": "blazing_chrome",
  "humbleid": "",
  "humblestoreid": "",
  "humblestoreid_real": "",
  "script": {
    "files": [
      {
        "gogsetup": "N/A:Select the game's setup file"
      },
      {
        "mf_install_verb": "https://lutris.nyc3.digitaloceanspaces.com/tools/winetricks/mf_install.verb"
      }
    ],
    "game": {
      "exe": "drive_c/GOG Games/Blazing Chrome/Blazing Chrome.exe",
      "prefix": "$GAMEDIR"
    },
    "installer": [
      {
        "task": {
          "name": "create_prefix",
          "prefix": "$GAMEDIR"
        }
      },
      {
        "task": {
          "app": "mf",
          "name": "winetricks"
        }
      },
      {
        "task": {
          "args": "/SP- /SUPPRESSMSGBOXES",
          "description": "Installing game",
          "executable": "gogsetup",
          "name": "wineexec"
        }
      }
    ],
    "wine": {
      "esync": false
    }
  },
  "content": "files:\n- gogsetup: N/A:Select the game's setup file\n- mf_install_verb: https://lutris.nyc3.digitaloceanspaces.com/tools/winetricks/mf_install.verb\ngame:\n  exe: drive_c/GOG Games/Blazing Chrome/Blazing Chrome.exe\n  prefix: $GAMEDIR\ninstaller:\n- task:\n    name: create_prefix\n    prefix: $GAMEDIR\n- task:\n    app: mf\n    name: winetricks\n- task:\n    args: /SP- /SUPPRESSMSGBOXES\n    description: Installing game\n    executable: gogsetup\n    name: wineexec\nwine:\n  esync: false\n",
  "discord_id": ""
}