{
  "id": 36693,
  "name": "Patrician II - Quest for Power",
  "slug": "patrician-ii-quest-for-power",
  "year": 2001,
  "banner_url": "",
  "icon_url": "",
  "coverart": "https://lutris.net/media/igdb/cover_big/hi7ywgnz8siasewohrxe.jpg",
  "platforms": [
    {
      "name": "Windows"
    }
  ],
  "provider_games": [
    {
      "name": "Patrician II - Quest for Power",
      "slug": "1207663933",
      "service": "gog"
    },
    {
      "name": "Patrician II: Quest for Power",
      "slug": "patrician-ii-quest-for-power",
      "service": "igdb"
    }
  ],
  "aliases": [],
  "shaders": [],
  "discord_id": "",
  "change_for": null
}