{
  "id": 222491,
  "name": "Cutie Tutti Frutti",
  "slug": "cutie-tutti-frutti",
  "year": 2022,
  "banner_url": "",
  "icon_url": "",
  "coverart": "https://lutris.net/media/igdb/cover_big/co5dc6.jpg",
  "platforms": [
    {
      "name": "Windows"
    }
  ],
  "provider_games": [
    {
      "name": "Cutie Tutti Frutti",
      "slug": "cutie-tutti-frutti",
      "service": "igdb"
    }
  ],
  "aliases": [],
  "shaders": [],
  "discord_id": "",
  "change_for": null
}