{
  "id": 10080,
  "name": "Prehistoric isle 2",
  "slug": "prehistoric-isle-2",
  "year": 1999,
  "banner_url": "https://lutris.net/games/banner/prehistoric-isle-2.jpg",
  "icon_url": "",
  "coverart": "https://lutris.net/media/igdb/cover_big/co3g36.jpg",
  "platforms": [
    {
      "name": "Arcade"
    },
    {
      "name": "Neo Geo AES"
    },
    {
      "name": "Neo Geo MVS"
    },
    {
      "name": "Nintendo Switch"
    },
    {
      "name": "Sony Playstation 4"
    },
    {
      "name": "Xbox One"
    }
  ],
  "provider_games": [
    {
      "name": "Prehistoric Isle 2",
      "slug": "prehistoric-isle-2",
      "service": "igdb"
    }
  ],
  "aliases": [],
  "shaders": [],
  "discord_id": "",
  "change_for": null
}