{
  "id": 3781,
  "name": "Runes of Brennos",
  "slug": "runes-of-brennos",
  "year": 2015,
  "banner_url": "https://lutris.net/games/banner/runes-of-brennos.jpg",
  "icon_url": "",
  "coverart": "https://lutris.net/media/igdb/cover_big/co2v89.jpg",
  "platforms": [
    {
      "name": "Mac"
    },
    {
      "name": "Windows"
    }
  ],
  "provider_games": [
    {
      "name": "Runes of Brennos",
      "slug": "330450",
      "service": "steam"
    },
    {
      "name": "Runes of Brennos",
      "slug": "runes-of-brennos",
      "service": "igdb"
    }
  ],
  "aliases": [],
  "shaders": [],
  "discord_id": "",
  "change_for": null
}