{
  "id": 22373,
  "game_id": 17802,
  "game_slug": "head-goal",
  "name": "Head Goal",
  "year": null,
  "user": "vanstaveren",
  "runner": "steam",
  "slug": "head-goal-steam",
  "version": "Steam",
  "description": null,
  "notes": "",
  "credits": "",
  "created_at": "2020-07-15T01:32:17.625415Z",
  "updated_at": "2021-12-13T19:10:38.257851Z",
  "draft": false,
  "published": true,
  "published_by": null,
  "rating": "",
  "is_playable": null,
  "steamid": 687850,
  "gogid": null,
  "gogslug": "",
  "humbleid": "",
  "humblestoreid": "",
  "humblestoreid_real": "",
  "script": {
    "game": {
      "appid": 687850
    }
  },
  "content": "game:\n  appid: 687850\n",
  "discord_id": ""
}