{
  "id": 60790,
  "name": "Domo Jump",
  "slug": "domo-jump",
  "year": null,
  "banner_url": "",
  "icon_url": "",
  "coverart": "https://lutris.net/media/igdb/cover_big/aapy5ljxfi8lfookgt0n.jpg",
  "platforms": [],
  "provider_games": [
    {
      "name": "Domo Jump",
      "slug": "domo-jump",
      "service": "igdb"
    }
  ],
  "aliases": [],
  "shaders": [],
  "discord_id": "",
  "change_for": null
}