{
  "id": 10432,
  "name": "Filthy Lucre",
  "slug": "filthy-lucre",
  "year": 2016,
  "banner_url": "https://lutris.net/games/banner/filthy-lucre.jpg",
  "icon_url": "https://lutris.net/games/icon/filthy-lucre.png",
  "coverart": "https://lutris.net/media/igdb/cover_big/co2q5e.jpg",
  "platforms": [
    {
      "name": "Sony Playstation 4"
    },
    {
      "name": "Windows"
    }
  ],
  "provider_games": [
    {
      "name": "Filthy Lucre",
      "slug": "533010",
      "service": "steam"
    },
    {
      "name": "Filthy Lucre",
      "slug": "filthy-lucre",
      "service": "igdb"
    }
  ],
  "aliases": [],
  "shaders": [],
  "discord_id": "",
  "change_for": null
}