{
  "id": 1066,
  "game_id": 3461,
  "game_slug": "infinity-runner",
  "name": "Infinity Runner",
  "year": 2014,
  "user": "Xodetaetl",
  "runner": "steam",
  "slug": "infinity-runner-steam",
  "version": "Steam",
  "description": "",
  "notes": "",
  "credits": "",
  "created_at": "2014-11-13T09:42:53.550000Z",
  "updated_at": "2014-11-13T09:42:59.102000Z",
  "draft": false,
  "published": true,
  "published_by": null,
  "rating": "",
  "is_playable": null,
  "steamid": 279920,
  "gogid": null,
  "gogslug": "",
  "humbleid": "",
  "humblestoreid": "",
  "humblestoreid_real": "",
  "script": {
    "game": {
      "appid": 279920
    }
  },
  "content": "game:\n  appid: 279920\n",
  "discord_id": ""
}