{
  "id": 31838,
  "name": "NeoCube",
  "slug": "neocube",
  "year": 2017,
  "banner_url": "https://lutris.net/games/banner/neocube.jpg",
  "icon_url": "https://lutris.net/games/icon/neocube.png",
  "coverart": "https://lutris.net/media/igdb/cover_big/po5s5rihkldknxplcjic.jpg",
  "platforms": [
    {
      "name": "Mac"
    },
    {
      "name": "Windows"
    }
  ],
  "provider_games": [
    {
      "name": "NeoCube",
      "slug": "671580",
      "service": "steam"
    },
    {
      "name": "NeoCube",
      "slug": "neocube",
      "service": "igdb"
    }
  ],
  "aliases": [],
  "shaders": [],
  "discord_id": "",
  "change_for": null
}