{
  "id": 251665,
  "name": "Crazy Fishing Champion",
  "slug": "crazy-fishing-champion",
  "year": null,
  "banner_url": "",
  "icon_url": "",
  "coverart": null,
  "platforms": [],
  "provider_games": [
    {
      "name": "Crazy Fishing Champion",
      "slug": "crazy-fishing-champion",
      "service": "igdb"
    }
  ],
  "aliases": [],
  "shaders": [],
  "discord_id": "",
  "change_for": null
}