{
  "id": 152290,
  "name": "Chronicle of Daneya",
  "slug": "chronicle-of-daneya",
  "year": null,
  "banner_url": "",
  "icon_url": "",
  "coverart": "https://lutris.net/media/igdb/cover_big/co3n4c.jpg",
  "platforms": [],
  "provider_games": [
    {
      "name": "Chronicle of Daneya",
      "slug": "chronicle-of-daneya",
      "service": "igdb"
    }
  ],
  "aliases": [],
  "shaders": [],
  "discord_id": "",
  "change_for": null
}