{
  "id": 269031,
  "name": "Touhou Mashousei: Fairies of Sorcery",
  "slug": "touhou-mashousei-fairies-of-sorcery",
  "year": 2012,
  "banner_url": "",
  "icon_url": "",
  "coverart": "https://lutris.net/media/igdb/cover_big/co7iqf.jpg",
  "platforms": [
    {
      "name": "Windows"
    }
  ],
  "provider_games": [
    {
      "name": "Touhou Mashousei: Fairies of Sorcery",
      "slug": "touhou-mashousei-fairies-of-sorcery",
      "service": "igdb"
    }
  ],
  "aliases": [],
  "shaders": [],
  "discord_id": "",
  "change_for": null
}