{
  "id": 33362,
  "name": "Autumn Moon",
  "slug": "autumn-moon",
  "year": 1999,
  "banner_url": "",
  "icon_url": "https://lutris.net/games/icon/autumn-moon.png",
  "coverart": null,
  "platforms": [
    {
      "name": "Arcade"
    }
  ],
  "provider_games": [
    {
      "name": "Autumn Moon",
      "slug": "autmoon",
      "service": "mame"
    }
  ],
  "aliases": [],
  "shaders": [],
  "discord_id": "",
  "change_for": null
}