{
  "id": 26130,
  "name": "Valkyrie Profile: Lenneth",
  "slug": "valkyrie-profile-lenneth",
  "year": 2006,
  "banner_url": "https://lutris.net/games/banner/valkyrie-profile-lenneth.jpg",
  "icon_url": "",
  "coverart": "https://lutris.net/media/igdb/cover_big/co25zz.jpg",
  "platforms": [
    {
      "name": "Android"
    },
    {
      "name": "Sony PSP"
    }
  ],
  "provider_games": [
    {
      "name": "Valkyrie Profile: Lenneth",
      "slug": "valkyrie-profile-lenneth",
      "service": "igdb"
    }
  ],
  "aliases": [],
  "shaders": [],
  "discord_id": "",
  "change_for": null
}