{
  "id": 6255,
  "name": "Wipeout 64",
  "slug": "wipeout-64",
  "year": 1998,
  "banner_url": "https://lutris.net/games/banner/wipeout-64.jpg",
  "icon_url": "",
  "coverart": "https://lutris.net/media/igdb/cover_big/co39yq.jpg",
  "platforms": [
    {
      "name": "Nintendo 64"
    }
  ],
  "provider_games": [
    {
      "name": "Wipeout 64",
      "slug": "wipeout-64",
      "service": "igdb"
    }
  ],
  "aliases": [],
  "shaders": [],
  "discord_id": "",
  "change_for": null
}