{
  "id": 236860,
  "name": "Parking Adventure HD",
  "slug": "parking-adventure-hd",
  "year": null,
  "banner_url": "",
  "icon_url": "",
  "coverart": null,
  "platforms": [],
  "provider_games": [
    {
      "name": "Parking Adventure HD",
      "slug": "parking-adventure-hd",
      "service": "igdb"
    }
  ],
  "aliases": [],
  "shaders": [],
  "discord_id": "",
  "change_for": null
}