{
  "id": 252530,
  "name": "Pokémon Red Version",
  "slug": "pokemon-red-version",
  "year": 1996,
  "banner_url": "",
  "icon_url": "",
  "coverart": null,
  "platforms": [
    {
      "name": "Game Boy"
    },
    {
      "name": "Nintendo 3DS"
    }
  ],
  "provider_games": [
    {
      "name": "Pokémon Red Version",
      "slug": "pokemon-red-version",
      "service": "igdb"
    }
  ],
  "aliases": [],
  "shaders": [],
  "discord_id": "",
  "change_for": null
}