{
  "id": 74128,
  "name": "Evertile: Battle Arena",
  "slug": "evertile-battle-arena",
  "year": null,
  "banner_url": "",
  "icon_url": "",
  "coverart": null,
  "platforms": [],
  "provider_games": [
    {
      "name": "Evertile: Battle Arena",
      "slug": "evertile-battle-arena",
      "service": "igdb"
    }
  ],
  "aliases": [],
  "shaders": [],
  "discord_id": "",
  "change_for": null
}