{
  "id": 113404,
  "name": "Jade's Dungeon Descent",
  "slug": "jades-dungeon-descent",
  "year": null,
  "banner_url": "",
  "icon_url": "",
  "coverart": null,
  "platforms": [],
  "provider_games": [
    {
      "name": "Jade's Dungeon Descent",
      "slug": "jades-dungeon-descent",
      "service": "igdb"
    }
  ],
  "aliases": [],
  "shaders": [],
  "discord_id": "",
  "change_for": null
}