{
  "id": 97884,
  "name": "GRIP: Garage Bundle Pack",
  "slug": "grip-garage-bundle-pack",
  "year": null,
  "banner_url": "",
  "icon_url": "",
  "coverart": null,
  "platforms": [],
  "provider_games": [
    {
      "name": "Grip: Garage Bundle Pack",
      "slug": "grip-garage-bundle-pack",
      "service": "igdb"
    }
  ],
  "aliases": [],
  "shaders": [],
  "discord_id": "",
  "change_for": null
}