{
  "id": 65603,
  "name": "Legend of the Red Dragon II: New World",
  "slug": "legend-of-the-red-dragon-ii-new-world",
  "year": null,
  "banner_url": "",
  "icon_url": "",
  "coverart": null,
  "platforms": [],
  "provider_games": [
    {
      "name": "Legend of the Red Dragon II: New World",
      "slug": "legend-of-the-red-dragon-ii-new-world",
      "service": "igdb"
    }
  ],
  "aliases": [],
  "shaders": [],
  "discord_id": "",
  "change_for": null
}