{
  "id": 1108,
  "name": "I Am Alive",
  "slug": "i-am-alive",
  "year": 2012,
  "banner_url": "https://lutris.net/games/banner/i-am-alive.jpg",
  "icon_url": "https://lutris.net/games/icon/i-am-alive.png",
  "coverart": "https://lutris.net/media/igdb/cover_big/co2sn0.jpg",
  "platforms": [
    {
      "name": "Sony Playstation 3"
    },
    {
      "name": "Windows"
    },
    {
      "name": "Xbox 360"
    }
  ],
  "provider_games": [
    {
      "name": "I Am Alive",
      "slug": "214250",
      "service": "steam"
    },
    {
      "name": "I Am Alive",
      "slug": "i-am-alive",
      "service": "igdb"
    }
  ],
  "aliases": [],
  "shaders": [],
  "discord_id": "425454053795823626",
  "change_for": null
}