{
  "id": 68205,
  "name": "Tall Unlimited",
  "slug": "tall-unlimited",
  "year": null,
  "banner_url": "",
  "icon_url": "",
  "coverart": "https://lutris.net/media/igdb/cover_big/ng31snlfmcnzm6itoxo2.jpg",
  "platforms": [],
  "provider_games": [
    {
      "name": "Tall Unlimited",
      "slug": "tall-unlimited",
      "service": "igdb"
    }
  ],
  "aliases": [],
  "shaders": [],
  "discord_id": "",
  "change_for": null
}