{
  "id": 112885,
  "name": "Super Smash T.V.",
  "slug": "super-smash-tv",
  "year": 1992,
  "banner_url": "",
  "icon_url": "",
  "coverart": "https://lutris.net/media/igdb/cover_big/co2w0h.jpg",
  "platforms": [
    {
      "name": "Sega Game Gear"
    },
    {
      "name": "Sega Genesis / Mega Drive"
    },
    {
      "name": "Super Nintendo"
    }
  ],
  "provider_games": [
    {
      "name": "Super Smash T.V.",
      "slug": "super-smash-tv",
      "service": "igdb"
    }
  ],
  "aliases": [],
  "shaders": [],
  "discord_id": "",
  "change_for": null
}