{
  "id": 74528,
  "name": "Daitoshokan no Hitsujikai: Houkago Shippo Days",
  "slug": "daitoshokan-no-hitsujikai-houkago-shippo-days",
  "year": null,
  "banner_url": "",
  "icon_url": "",
  "coverart": "https://lutris.net/media/igdb/cover_big/co5afy.jpg",
  "platforms": [],
  "provider_games": [
    {
      "name": "Daitoshokan no Hitsujikai: Houkago Shippo Days",
      "slug": "daitoshokan-no-hitsujikai-houkago-shippo-days",
      "service": "igdb"
    }
  ],
  "aliases": [],
  "shaders": [],
  "discord_id": "",
  "change_for": null
}