{
  "id": 137863,
  "name": "Phantasy Star Online 2 New Genesis: Limited Edition",
  "slug": "phantasy-star-online-2-new-genesis-limited-edition",
  "year": 2021,
  "banner_url": "",
  "icon_url": "",
  "coverart": "https://lutris.net/media/igdb/cover_big/co2ytn.jpg",
  "platforms": [
    {
      "name": "Nintendo Switch"
    },
    {
      "name": "Sony Playstation 4"
    }
  ],
  "provider_games": [
    {
      "name": "Phantasy Star Online 2 New Genesis: Limited Edition",
      "slug": "phantasy-star-online-2-new-genesis-limited-edition",
      "service": "igdb"
    }
  ],
  "aliases": [],
  "shaders": [],
  "discord_id": "",
  "change_for": null
}