{
  "id": 176067,
  "name": "Hollywood Poker Pro",
  "slug": "hollywood-poker-pro",
  "year": 1992,
  "banner_url": "",
  "icon_url": "",
  "coverart": "https://lutris.net/media/igdb/cover_big/fqxj73zdymn0amoum8tn.jpg",
  "platforms": [
    {
      "name": "Amiga"
    }
  ],
  "provider_games": [
    {
      "name": "Hollywood Poker Pro",
      "slug": "hollywood-poker-pro",
      "service": "igdb"
    }
  ],
  "aliases": [],
  "shaders": [],
  "discord_id": "",
  "change_for": null
}