{
  "id": 88366,
  "name": "Sniper Shooter 3D - SWAT Missions Pro",
  "slug": "sniper-shooter-3d-swat-missions-pro",
  "year": 2017,
  "banner_url": "",
  "icon_url": "",
  "coverart": "https://lutris.net/media/igdb/cover_big/buqdiyhobrcxk0yq8msg.jpg",
  "platforms": [
    {
      "name": "Mac"
    }
  ],
  "provider_games": [
    {
      "name": "Sniper Shooter 3D: SWAT Missions Pro",
      "slug": "sniper-shooter-3d-swat-missions-pro",
      "service": "igdb"
    }
  ],
  "aliases": [],
  "shaders": [],
  "discord_id": "",
  "change_for": null
}