{
  "id": 254238,
  "name": "Heroes of Egypt: The Curse of Sethos - Collector's Edition",
  "slug": "heroes-of-egypt-the-curse-of-sethos-collectors-edition",
  "year": null,
  "banner_url": "",
  "icon_url": "",
  "coverart": "https://lutris.net/media/igdb/cover_big/co6vm5.jpg",
  "platforms": [],
  "provider_games": [
    {
      "name": "Heroes of Egypt: The Curse of Sethos - Collector's Edition",
      "slug": "heroes-of-egypt-the-curse-of-sethos-collectors-edition",
      "service": "igdb"
    }
  ],
  "aliases": [],
  "shaders": [],
  "discord_id": "",
  "change_for": null
}