{
  "id": 48886,
  "name": "Golden Marriage",
  "slug": "golden-marriage",
  "year": null,
  "banner_url": "",
  "icon_url": "",
  "coverart": null,
  "platforms": [],
  "provider_games": [
    {
      "name": "Golden Marriage",
      "slug": "golden-marriage",
      "service": "igdb"
    }
  ],
  "aliases": [],
  "shaders": [],
  "discord_id": "",
  "change_for": null
}