{
  "id": 66076,
  "name": "World Championship Snooker",
  "slug": "world-championship-snooker",
  "year": null,
  "banner_url": "",
  "icon_url": "",
  "coverart": "https://lutris.net/media/igdb/cover_big/abde9u0g9m1qqx6bzxl8.jpg",
  "platforms": [],
  "provider_games": [
    {
      "name": "World Championship Snooker",
      "slug": "world-championship-snooker",
      "service": "igdb"
    }
  ],
  "aliases": [],
  "shaders": [],
  "discord_id": "",
  "change_for": null
}