{
  "id": 134929,
  "name": "Who's Lila?",
  "slug": "whos-lila",
  "year": null,
  "banner_url": "https://lutris.net/games/banner/whos-lila.jpg",
  "icon_url": "",
  "coverart": "https://lutris.net/media/igdb/cover_big/co3n7k.jpg",
  "platforms": [],
  "provider_games": [
    {
      "name": "Who's Lila?",
      "slug": "whos-lila",
      "service": "igdb"
    },
    {
      "name": "Who's Lila?",
      "slug": "1697700",
      "service": "steam"
    }
  ],
  "aliases": [],
  "shaders": [],
  "discord_id": "",
  "change_for": null
}