{
  "id": 37547,
  "game_id": 242454,
  "game_slug": "cheatbreaker",
  "name": "CheatBreaker",
  "year": 2017,
  "user": "Strikerfx",
  "runner": "wine",
  "slug": "cheatbreaker-240",
  "version": "2.4.0",
  "description": "",
  "notes": "",
  "credits": "Maintained by Striker\r\ndiscord - notstriker",
  "created_at": "2023-06-07T08:35:53.008834Z",
  "updated_at": "2023-11-21T03:34:02.828980Z",
  "draft": false,
  "published": true,
  "published_by": 1,
  "rating": "",
  "is_playable": null,
  "steamid": null,
  "gogid": null,
  "gogslug": "",
  "humbleid": "",
  "humblestoreid": "",
  "humblestoreid_real": "",
  "script": {
    "files": [
      {
        "setup": "https://github.com/CheatBreakerNet/Launcher/releases/download/2.4.0/CheatBreaker_Setup.exe"
      }
    ],
    "game": {
      "arch": "win64",
      "exe": "drive_c/users/$USER/AppData/Local/Programs/cheatbreaker/CheatBreaker.exe",
      "prefix": "$GAMEDIR"
    },
    "installer": [
      {
        "task": {
          "arch": "win64",
          "description": "Creating Wine prefix...",
          "name": "create_prefix",
          "prefix": "$GAMEDIR"
        }
      },
      {
        "task": {
          "arch": "win64",
          "description": "Installing Cheat:Breaker...",
          "executable": "setup",
          "name": "wineexec",
          "prefix": "$GAMEDIR"
        }
      }
    ]
  },
  "content": "files:\n- setup: https://github.com/CheatBreakerNet/Launcher/releases/download/2.4.0/CheatBreaker_Setup.exe\ngame:\n  arch: win64\n  exe: drive_c/users/$USER/AppData/Local/Programs/cheatbreaker/CheatBreaker.exe\n  prefix: $GAMEDIR\ninstaller:\n- task:\n    arch: win64\n    description: Creating Wine prefix...\n    name: create_prefix\n    prefix: $GAMEDIR\n- task:\n    arch: win64\n    description: Installing Cheat:Breaker...\n    executable: setup\n    name: wineexec\n    prefix: $GAMEDIR\n",
  "discord_id": ""
}