{
  "id": 87290,
  "name": "Roman Sacrifice in Córdoba",
  "slug": "roman-sacrifice-in-cordoba",
  "year": 2017,
  "banner_url": "",
  "icon_url": "",
  "coverart": null,
  "platforms": [
    {
      "name": "Windows"
    }
  ],
  "provider_games": [
    {
      "name": "Roman Sacrifice in Córdoba",
      "slug": "roman-sacrifice-in-cordoba",
      "service": "igdb"
    }
  ],
  "aliases": [],
  "shaders": [],
  "discord_id": "",
  "change_for": null
}