{
  "id": 105417,
  "name": "Ace Lightning",
  "slug": "ace-lightning",
  "year": 2002,
  "banner_url": "",
  "icon_url": "",
  "coverart": "https://lutris.net/media/igdb/cover_big/co2six.jpg",
  "platforms": [
    {
      "name": "Nintendo Game Boy Advance"
    },
    {
      "name": "Sony PlayStation 2"
    },
    {
      "name": "Windows"
    }
  ],
  "provider_games": [
    {
      "name": "Ace Lightning",
      "slug": "ace-lightning",
      "service": "igdb"
    }
  ],
  "aliases": [],
  "shaders": [],
  "discord_id": "",
  "change_for": null
}