{
  "id": 241870,
  "name": "Death Corridor",
  "slug": "death-corridor",
  "year": null,
  "banner_url": "",
  "icon_url": "",
  "coverart": null,
  "platforms": [],
  "provider_games": [
    {
      "name": "Death Corridor",
      "slug": "death-corridor",
      "service": "igdb"
    }
  ],
  "aliases": [],
  "shaders": [],
  "discord_id": "",
  "change_for": null
}