{
  "id": 140151,
  "name": "Demon Keeper 2+",
  "slug": "demon-keeper-2-plus",
  "year": null,
  "banner_url": "",
  "icon_url": "",
  "coverart": "https://lutris.net/media/igdb/cover_big/co3s90.jpg",
  "platforms": [],
  "provider_games": [
    {
      "name": "Demon Keeper 2+",
      "slug": "demon-keeper-2-plus",
      "service": "igdb"
    }
  ],
  "aliases": [],
  "shaders": [],
  "discord_id": "",
  "change_for": null
}