{
  "id": 48037,
  "name": "Dungeon Siege III: Limited Edition",
  "slug": "dungeon-siege-iii-limited-edition",
  "year": 2011,
  "banner_url": "",
  "icon_url": "",
  "coverart": "https://lutris.net/media/igdb/cover_big/co60jq.jpg",
  "platforms": [
    {
      "name": "Sony Playstation 3"
    }
  ],
  "provider_games": [
    {
      "name": "Dungeon Siege III: Limited Edition",
      "slug": "dungeon-siege-iii-limited-edition",
      "service": "igdb"
    }
  ],
  "aliases": [],
  "shaders": [],
  "discord_id": "",
  "change_for": null
}