{
  "id": 284378,
  "name": "The Witcher 3 REDkit",
  "slug": "the-witcher-3-redkit",
  "year": 2024,
  "banner_url": "https://lutris.net/games/banner/the-witcher-3-redkit.jpg",
  "icon_url": "",
  "coverart": null,
  "platforms": [],
  "provider_games": [
    {
      "name": "The Witcher 3 REDkit",
      "slug": "2684660",
      "service": "steam"
    },
    {
      "name": "The Witcher 3 REDkit",
      "slug": "1441199941",
      "service": "gog"
    }
  ],
  "aliases": [],
  "shaders": [],
  "discord_id": "",
  "change_for": null
}