{
  "id": 1143,
  "game_id": 1032,
  "game_slug": "aquanox-2-revelation",
  "name": "AquaNox 2: Revelation",
  "year": 2003,
  "user": "Xodetaetl",
  "runner": "steam",
  "slug": "aquanox-2-revelation-proton",
  "version": "Proton",
  "description": "",
  "notes": "",
  "credits": "",
  "created_at": "2014-11-27T13:44:13.032000Z",
  "updated_at": "2021-05-04T02:43:01.322801Z",
  "draft": false,
  "published": true,
  "published_by": null,
  "rating": "",
  "is_playable": null,
  "steamid": 39640,
  "gogid": 1207658851,
  "gogslug": "aquanox_2_revelation",
  "humbleid": "",
  "humblestoreid": "",
  "humblestoreid_real": "",
  "script": {
    "game": {
      "appid": 39640
    }
  },
  "content": "game:\n  appid: 39640\n",
  "discord_id": ""
}