{
  "id": 192793,
  "name": "Living Art",
  "slug": "living-art",
  "year": null,
  "banner_url": "",
  "icon_url": "",
  "coverart": "https://lutris.net/media/igdb/cover_big/co4luf.jpg",
  "platforms": [],
  "provider_games": [
    {
      "name": "Living Art",
      "slug": "living-art",
      "service": "igdb"
    }
  ],
  "aliases": [],
  "shaders": [],
  "discord_id": "",
  "change_for": null
}