{
  "id": 279312,
  "name": "Warrior Lords",
  "slug": "warrior-lords",
  "year": null,
  "banner_url": "",
  "icon_url": "",
  "coverart": "https://lutris.net/media/igdb/cover_big/co80pl.jpg",
  "platforms": [],
  "provider_games": [
    {
      "name": "Warrior Lords",
      "slug": "warrior-lords",
      "service": "igdb"
    }
  ],
  "aliases": [],
  "shaders": [],
  "discord_id": "",
  "change_for": null
}