{
  "id": 246967,
  "name": "MorDobble: Spot The Match",
  "slug": "mordobble-spot-the-match",
  "year": null,
  "banner_url": "",
  "icon_url": "",
  "coverart": "https://lutris.net/media/igdb/cover_big/co6jfu.jpg",
  "platforms": [],
  "provider_games": [
    {
      "name": "MorDobble: Spot The Match",
      "slug": "mordobble-spot-the-match",
      "service": "igdb"
    }
  ],
  "aliases": [],
  "shaders": [],
  "discord_id": "",
  "change_for": null
}