{
  "id": 263478,
  "name": "Starpuffs",
  "slug": "starpuffs",
  "year": null,
  "banner_url": "",
  "icon_url": "",
  "coverart": "https://lutris.net/media/igdb/cover_big/co79iq.jpg",
  "platforms": [],
  "provider_games": [
    {
      "name": "Starpuffs",
      "slug": "starpuffs",
      "service": "igdb"
    }
  ],
  "aliases": [],
  "shaders": [],
  "discord_id": "",
  "change_for": null
}