{
  "id": 263743,
  "name": "Sailaway III",
  "slug": "sailaway-iii",
  "year": null,
  "banner_url": "",
  "icon_url": "",
  "coverart": "https://lutris.net/media/igdb/cover_big/co794f.jpg",
  "platforms": [],
  "provider_games": [
    {
      "name": "Sailaway III",
      "slug": "sailaway-iii",
      "service": "igdb"
    }
  ],
  "aliases": [],
  "shaders": [],
  "discord_id": "",
  "change_for": null
}