{
  "id": 205025,
  "name": "Mardock Scramble: The First Compression",
  "slug": "mardock-scramble-the-first-compression",
  "year": null,
  "banner_url": "https://lutris.net/games/banner/mardock-scramble-the-first-compression.jpg",
  "icon_url": "https://lutris.net/games/icon/mardock-scramble-the-first-compression.png",
  "coverart": null,
  "platforms": [],
  "provider_games": [
    {
      "name": "Mardock Scramble: The First Compression",
      "slug": "518520",
      "service": "steam"
    }
  ],
  "aliases": [],
  "shaders": [],
  "discord_id": "",
  "change_for": null
}