{
  "id": 131500,
  "name": "Rabbids 3D",
  "slug": "rabbids-3d",
  "year": 2011,
  "banner_url": "",
  "icon_url": "",
  "coverart": "https://lutris.net/media/igdb/cover_big/vjxyfgjorp2gag7bty9g.jpg",
  "platforms": [
    {
      "name": "Nintendo 3DS"
    }
  ],
  "provider_games": [
    {
      "name": "Rabbids 3D",
      "slug": "rabbids-3d",
      "service": "igdb"
    }
  ],
  "aliases": [],
  "shaders": [],
  "discord_id": "",
  "change_for": null
}