{
  "id": 112641,
  "name": "Joe Danger Touch",
  "slug": "joe-danger-touch",
  "year": 2013,
  "banner_url": "",
  "icon_url": "",
  "coverart": "https://lutris.net/media/igdb/cover_big/co2sfc.jpg",
  "platforms": [
    {
      "name": "Android"
    },
    {
      "name": "Ouya"
    }
  ],
  "provider_games": [
    {
      "name": "Joe Danger Touch",
      "slug": "joe-danger-touch",
      "service": "igdb"
    }
  ],
  "aliases": [],
  "shaders": [],
  "discord_id": "",
  "change_for": null
}