{
  "id": 289828,
  "name": "GGPoker",
  "slug": "ggpoker",
  "year": 2017,
  "banner_url": "https://lutris.net/games/banner/ggpoker.jpg",
  "icon_url": "",
  "coverart": null,
  "platforms": [
    {
      "name": "Android"
    },
    {
      "name": "macOS"
    },
    {
      "name": "Windows"
    }
  ],
  "provider_games": [],
  "aliases": [],
  "shaders": [],
  "discord_id": "",
  "change_for": null
}