{
  "id": 282400,
  "name": "Arcane Lands",
  "slug": "arcane-lands",
  "year": null,
  "banner_url": "",
  "icon_url": "",
  "coverart": "https://lutris.net/media/igdb/cover_big/co826f.jpg",
  "platforms": [],
  "provider_games": [
    {
      "name": "Arcane Lands",
      "slug": "arcane-lands",
      "service": "igdb"
    }
  ],
  "aliases": [],
  "shaders": [],
  "discord_id": "",
  "change_for": null
}