{
  "id": 18547,
  "game_id": 31816,
  "game_slug": "earth-defense-team-star-guardians-episode-1",
  "name": "Earth Defense Team Star Guardians. Episode 1",
  "year": 2018,
  "user": "kimchitea",
  "runner": "wine",
  "slug": "earth-defense-team-star-guard-dlsite-english",
  "version": "DLsite English",
  "description": null,
  "notes": "Does not maintain aspect ratio in fullscreen mode.",
  "credits": "",
  "created_at": "2020-02-25T06:43:56.932597Z",
  "updated_at": "2023-06-13T01:36:21.940208Z",
  "draft": true,
  "published": true,
  "published_by": 1,
  "rating": "",
  "is_playable": null,
  "steamid": null,
  "gogid": null,
  "gogslug": "",
  "humbleid": "",
  "humblestoreid": "",
  "humblestoreid_real": "",
  "script": {
    "files": [
      {
        "file1": "N/A:Please select the game archive"
      }
    ],
    "game": {
      "arch": "win64",
      "exe": "$GAMEDIR/SG_ep1_English.exe",
      "prefix": "$GAMEDIR/prefix"
    },
    "installer": [
      {
        "extract": {
          "dst": "$CACHE",
          "src": "file1"
        }
      },
      {
        "merge": {
          "dst": "$GAMEDIR",
          "src": "$CACHE/For Windows English"
        }
      },
      {
        "task": {
          "app": "renderer=gdi",
          "name": "winetricks",
          "prefix": "$GAMEDIR",
          "silent": true
        }
      }
    ]
  },
  "content": "files:\n- file1: N/A:Please select the game archive\ngame:\n  arch: win64\n  exe: $GAMEDIR/SG_ep1_English.exe\n  prefix: $GAMEDIR/prefix\ninstaller:\n- extract:\n    dst: $CACHE\n    src: file1\n- merge:\n    dst: $GAMEDIR\n    src: $CACHE/For Windows English\n- task:\n    app: renderer=gdi\n    name: winetricks\n    prefix: $GAMEDIR\n    silent: true\n",
  "discord_id": ""
}