{
  "id": 53073,
  "name": "Germany 1985",
  "slug": "germany-1985",
  "year": 1982,
  "banner_url": "",
  "icon_url": "",
  "coverart": "https://lutris.net/media/igdb/cover_big/bezvqeliepnsbwxbvve2.jpg",
  "platforms": [
    {
      "name": "Apple II"
    },
    {
      "name": "Commodore C64/128"
    }
  ],
  "provider_games": [
    {
      "name": "Germany 1985",
      "slug": "germany-1985",
      "service": "igdb"
    }
  ],
  "aliases": [],
  "shaders": [],
  "discord_id": "",
  "change_for": null
}