{
  "id": 254692,
  "name": "Hope of Bion",
  "slug": "hope-of-bion",
  "year": null,
  "banner_url": "",
  "icon_url": "",
  "coverart": "https://lutris.net/media/igdb/cover_big/co6wkt.jpg",
  "platforms": [],
  "provider_games": [
    {
      "name": "Hope of Bion",
      "slug": "hope-of-bion",
      "service": "igdb"
    }
  ],
  "aliases": [],
  "shaders": [],
  "discord_id": "",
  "change_for": null
}