{
  "id": 224602,
  "name": "Bike Jump",
  "slug": "bike-jump",
  "year": null,
  "banner_url": "",
  "icon_url": "",
  "coverart": "https://lutris.net/media/igdb/cover_big/co4tyi.jpg",
  "platforms": [],
  "provider_games": [
    {
      "name": "Bike Jump",
      "slug": "bike-jump",
      "service": "igdb"
    }
  ],
  "aliases": [],
  "shaders": [],
  "discord_id": "",
  "change_for": null
}