{
  "id": 8442,
  "name": "Multimirror",
  "slug": "multimirror",
  "year": 2016,
  "banner_url": "https://lutris.net/games/banner/multimirror.jpg",
  "icon_url": "https://lutris.net/games/icon/multimirror.png",
  "coverart": "https://lutris.net/media/igdb/cover_big/co8dn7.jpg",
  "platforms": [
    {
      "name": "Linux"
    },
    {
      "name": "Mac"
    },
    {
      "name": "Windows"
    }
  ],
  "provider_games": [
    {
      "name": "Multimirror",
      "slug": "533860",
      "service": "steam"
    },
    {
      "name": "Multimirror",
      "slug": "multimirror",
      "service": "igdb"
    }
  ],
  "aliases": [],
  "shaders": [],
  "discord_id": "",
  "change_for": null
}