{
  "id": 163171,
  "name": "Enchanted Cavern 2",
  "slug": "enchanted-cavern-2",
  "year": null,
  "banner_url": "",
  "icon_url": "",
  "coverart": "https://lutris.net/media/igdb/cover_big/co40jz.jpg",
  "platforms": [],
  "provider_games": [
    {
      "name": "Enchanted Cavern 2",
      "slug": "enchanted-cavern-2",
      "service": "igdb"
    }
  ],
  "aliases": [],
  "shaders": [],
  "discord_id": "",
  "change_for": null
}