{
  "id": 262581,
  "name": "Geometry Survivor",
  "slug": "geometry-survivor",
  "year": null,
  "banner_url": "",
  "icon_url": "",
  "coverart": "https://lutris.net/media/igdb/cover_big/co783v.jpg",
  "platforms": [],
  "provider_games": [
    {
      "name": "Geometry Survivor",
      "slug": "geometry-survivor",
      "service": "igdb"
    }
  ],
  "aliases": [],
  "shaders": [],
  "discord_id": "",
  "change_for": null
}