{
  "id": 1922,
  "name": "Choplifter HD",
  "slug": "choplifter-hd",
  "year": 2012,
  "banner_url": "https://lutris.net/games/banner/choplifter-hd.jpg",
  "icon_url": "https://lutris.net/games/icon/choplifter-hd.png",
  "coverart": "https://lutris.net/media/igdb/cover_big/co20kz.jpg",
  "platforms": [
    {
      "name": "Linux"
    },
    {
      "name": "Sony Playstation 3"
    },
    {
      "name": "Windows"
    }
  ],
  "provider_games": [
    {
      "name": "Choplifter HD",
      "slug": "202070",
      "service": "steam"
    },
    {
      "name": "Choplifter HD",
      "slug": "choplifter-hd",
      "service": "igdb"
    }
  ],
  "aliases": [],
  "shaders": [],
  "discord_id": "",
  "change_for": null
}