{
  "id": 146409,
  "name": "Tac-Scan",
  "slug": "tac-scan",
  "year": 1982,
  "banner_url": "",
  "icon_url": "",
  "coverart": "https://lutris.net/media/igdb/cover_big/yibqqvsfhdvuhecpilkk.jpg",
  "platforms": [],
  "provider_games": [
    {
      "name": "Tac-Scan",
      "slug": "tac-scan",
      "service": "igdb"
    }
  ],
  "aliases": [],
  "shaders": [],
  "discord_id": "",
  "change_for": null
}