{
  "id": 163581,
  "name": "In the pines, in the pines, where the sun never shines",
  "slug": "in-the-pines-in-the-pines-where-the-sun-never-shines",
  "year": null,
  "banner_url": "",
  "icon_url": "",
  "coverart": "https://lutris.net/media/igdb/cover_big/co6kp7.jpg",
  "platforms": [],
  "provider_games": [
    {
      "name": "In the pines, in the pines, where the sun never shines",
      "slug": "in-the-pines-in-the-pines-where-the-sun-never-shines",
      "service": "igdb"
    }
  ],
  "aliases": [],
  "shaders": [],
  "discord_id": "",
  "change_for": null
}