{
  "id": 181632,
  "name": "Tomato Worm",
  "slug": "tomato-worm",
  "year": null,
  "banner_url": "",
  "icon_url": "",
  "coverart": null,
  "platforms": [],
  "provider_games": [
    {
      "name": "Tomato Worm",
      "slug": "tomato-worm",
      "service": "igdb"
    }
  ],
  "aliases": [],
  "shaders": [],
  "discord_id": "",
  "change_for": null
}