{
  "id": 44293,
  "name": "Chupa Chupa VR",
  "slug": "chupa-chupa-vr",
  "year": 2020,
  "banner_url": "https://lutris.net/games/banner/chupa-chupa-vr.jpg",
  "icon_url": "https://lutris.net/games/icon/chupa-chupa-vr.png",
  "coverart": "https://lutris.net/media/igdb/cover_big/co2s4v.jpg",
  "platforms": [
    {
      "name": "Oculus VR"
    },
    {
      "name": "SteamVR"
    },
    {
      "name": "Windows"
    }
  ],
  "provider_games": [
    {
      "name": "Chupa Chupa VR",
      "slug": "1336160",
      "service": "steam"
    },
    {
      "name": "Chupa Chupa VR",
      "slug": "chupa-chupa-vr",
      "service": "igdb"
    }
  ],
  "aliases": [],
  "shaders": [],
  "discord_id": "",
  "change_for": null
}