{
  "id": 282796,
  "name": "Ghost Moon High Noon",
  "slug": "ghost-moon-high-noon",
  "year": null,
  "banner_url": "",
  "icon_url": "",
  "coverart": "https://lutris.net/media/igdb/cover_big/co83u5.jpg",
  "platforms": [],
  "provider_games": [
    {
      "name": "Ghost Moon High Noon",
      "slug": "ghost-moon-high-noon",
      "service": "igdb"
    }
  ],
  "aliases": [],
  "shaders": [],
  "discord_id": "",
  "change_for": null
}