{
  "id": 138723,
  "name": "Twin Breaker: A Sacred Symbols Adventure - Limited Edition",
  "slug": "twin-breaker-a-sacred-symbols-adventure-limited-edition",
  "year": null,
  "banner_url": "",
  "icon_url": "",
  "coverart": null,
  "platforms": [],
  "provider_games": [
    {
      "name": "Twin Breaker: A Sacred Symbols Adventure - Limited Edition",
      "slug": "twin-breaker-a-sacred-symbols-adventure-limited-edition",
      "service": "igdb"
    }
  ],
  "aliases": [],
  "shaders": [],
  "discord_id": "",
  "change_for": null
}