{
  "id": 12589,
  "name": "Music Wars Empire",
  "slug": "music-wars-empire",
  "year": 2016,
  "banner_url": "https://lutris.net/games/banner/music-wars-empire.jpg",
  "icon_url": "https://lutris.net/games/icon/music-wars-empire.png",
  "coverart": null,
  "platforms": [
    {
      "name": "Windows"
    }
  ],
  "provider_games": [
    {
      "name": "Music Wars Empire",
      "slug": "479100",
      "service": "steam"
    },
    {
      "name": "Music Wars Empire",
      "slug": "music-wars-empire",
      "service": "igdb"
    }
  ],
  "aliases": [],
  "shaders": [],
  "discord_id": "",
  "change_for": null
}