{
  "id": 258730,
  "name": "Willow Guard",
  "slug": "willow-guard",
  "year": null,
  "banner_url": "",
  "icon_url": "",
  "coverart": "https://lutris.net/media/igdb/cover_big/co71gt.jpg",
  "platforms": [],
  "provider_games": [
    {
      "name": "Willow Guard",
      "slug": "willow-guard",
      "service": "igdb"
    }
  ],
  "aliases": [],
  "shaders": [],
  "discord_id": "",
  "change_for": null
}