{
  "id": 163029,
  "name": "First Kiss Story II",
  "slug": "first-kiss-story-ii",
  "year": 2002,
  "banner_url": "",
  "icon_url": "",
  "coverart": "https://lutris.net/media/igdb/cover_big/co1sr1.jpg",
  "platforms": [
    {
      "name": "Dreamcast"
    }
  ],
  "provider_games": [
    {
      "name": "First Kiss Story II",
      "slug": "first-kiss-story-ii",
      "service": "igdb"
    }
  ],
  "aliases": [],
  "shaders": [],
  "discord_id": "",
  "change_for": null
}