{
  "id": 238654,
  "name": "Project Box",
  "slug": "project-box--1",
  "year": null,
  "banner_url": "",
  "icon_url": "",
  "coverart": "https://lutris.net/media/igdb/cover_big/co653t.jpg",
  "platforms": [],
  "provider_games": [
    {
      "name": "Project Box",
      "slug": "project-box--1",
      "service": "igdb"
    }
  ],
  "aliases": [],
  "shaders": [],
  "discord_id": "",
  "change_for": null
}