{
  "id": 13399,
  "name": "The Freeman Chronicles: Episode 1",
  "slug": "the-freeman-chronicles-episode-1",
  "year": null,
  "banner_url": "https://lutris.net/games/banner/the-freeman-chronicles-episode-1.jpg",
  "icon_url": "https://lutris.net/games/icon/the-freeman-chronicles-episode-1.png",
  "coverart": null,
  "platforms": [],
  "provider_games": [
    {
      "name": "Half-Life - The Freeman Chronicles: Episode 1",
      "slug": "646170",
      "service": "steam"
    }
  ],
  "aliases": [],
  "shaders": [],
  "discord_id": "",
  "change_for": null
}