{
  "id": 228037,
  "name": "Racing: Breakthrough Gaming Arcade - 4 Player Cooperation Edition",
  "slug": "racing-breakthrough-gaming-arcade-4-player-cooperation-edition",
  "year": 2021,
  "banner_url": "",
  "icon_url": "",
  "coverart": "https://lutris.net/media/igdb/cover_big/co4xig.jpg",
  "platforms": [
    {
      "name": "Sony Playstation 4"
    }
  ],
  "provider_games": [
    {
      "name": "Racing: Breakthrough Gaming Arcade - 4 Player Cooperation Edition",
      "slug": "racing-breakthrough-gaming-arcade-4-player-cooperation-edition",
      "service": "igdb"
    }
  ],
  "aliases": [],
  "shaders": [],
  "discord_id": "",
  "change_for": null
}