{
  "id": 14360,
  "game_id": 9825,
  "game_slug": "watch-dogs-2",
  "name": "Watch Dogs 2",
  "year": 2016,
  "user": "dermeister",
  "runner": "wine",
  "slug": "watch-dogs-2-ubisoft-connect",
  "version": "Ubisoft Connect",
  "description": "Installs and sets up the game via Ubisoft Connect.",
  "notes": "-The installer provides a pre-generated DXVK state cache to provide a mostly stutter-free experience. As a result, it will cause a temporary performance hit while the shaders are being compiled. The FPS will rise back up after it has finished.\r\n-The Uplay overlay is automatically disabled, and will cause problems if enabled. Do not enable it.\r\n-Easy Anti Cheat does not work and as a result any multiplayer functionality will not work, it is also disabled using the launch commands from above.\r\n-If alt-tabbing, the game will sometimes rapidly try to regain focus and then lose focus. As if its spazzing out.",
  "credits": "",
  "created_at": "2019-06-30T20:34:17.926000Z",
  "updated_at": "2023-06-13T01:34:41.263037Z",
  "draft": false,
  "published": true,
  "published_by": 64834,
  "rating": "",
  "is_playable": null,
  "steamid": 447040,
  "gogid": null,
  "gogslug": "",
  "humbleid": "",
  "humblestoreid": "",
  "humblestoreid_real": "",
  "script": {
    "files": [
      {
        "dx2010": "https://lutris.net/files/tools/directx-2010.tar.gz"
      },
      {
        "ubiconnect": "https://ubistatic3-a.akamaihd.net/orbit/launcher_installer/UbisoftConnectInstaller.exe"
      },
      {
        "cache": "https://github.com/Cervoxx/DXVKCACHE/raw/master/WD2-cache.tar.xz"
      }
    ],
    "game": {
      "arch": "win64",
      "args": "uplay://launch/2688/0 -eac_launcher -nosplash",
      "exe": "drive_c/Program Files (x86)/Ubisoft/Ubisoft Game Launcher/UbisoftConnect.exe",
      "prefix": "$GAMEDIR"
    },
    "installer": [
      {
        "task": {
          "arch": "win64",
          "description": "Creating 64bit Wine prefix...",
          "name": "create_prefix",
          "prefix": "$GAMEDIR"
        }
      },
      {
        "write_file": {
          "content": "overlay: \n  enabled: false\n",
          "file": "$GAMEDIR/drive_c/users/$USER/Local Settings/Application Data/Ubisoft Game Launcher/settings.yml"
        }
      },
      {
        "extract": {
          "dst": "$CACHE/dxsetup",
          "file": "dx2010"
        }
      },
      {
        "extract": {
          "dst": "$GAMEDIR",
          "file": "cache"
        }
      },
      {
        "task": {
          "arch": "win64",
          "args": "/silent",
          "description": "Installing prerequisites...",
          "executable": "$CACHE/dxsetup/DXSETUP.exe",
          "name": "wineexec",
          "prefix": "$GAMEDIR"
        }
      },
      {
        "task": {
          "app": "arial vcrun2010 vcrun2012 win7 d3dcompiler_43",
          "description": "Installing prerequisites...",
          "name": "winetricks",
          "prefix": "$GAMEDIR"
        }
      },
      {
        "task": {
          "args": "/S",
          "description": "Installing Ubisoft Connect...",
          "executable": "ubiconnect",
          "name": "wineexec",
          "prefix": "$GAMEDIR"
        }
      }
    ],
    "system": {
      "env": {
        "DXVK_CONFIG_FILE": "$GAMEDIR/dxvk.conf",
        "DXVK_HUD": "compiler",
        "DXVK_STATE_CACHE_PATH": "$GAMEDIR",
        "__GL_SHADER_DISK_CACHE": 1,
        "__GL_SHADER_DISK_CACHE_PATH": "$GAMEDIR"
      }
    }
  },
  "content": "files:\n- dx2010: https://lutris.net/files/tools/directx-2010.tar.gz\n- ubiconnect: https://ubistatic3-a.akamaihd.net/orbit/launcher_installer/UbisoftConnectInstaller.exe\n- cache: https://github.com/Cervoxx/DXVKCACHE/raw/master/WD2-cache.tar.xz\ngame:\n  arch: win64\n  args: uplay://launch/2688/0 -eac_launcher -nosplash\n  exe: drive_c/Program Files (x86)/Ubisoft/Ubisoft Game Launcher/UbisoftConnect.exe\n  prefix: $GAMEDIR\ninstaller:\n- task:\n    arch: win64\n    description: Creating 64bit Wine prefix...\n    name: create_prefix\n    prefix: $GAMEDIR\n- write_file:\n    content: \"overlay: \\n  enabled: false\\n\"\n    file: $GAMEDIR/drive_c/users/$USER/Local Settings/Application Data/Ubisoft Game\n      Launcher/settings.yml\n- extract:\n    dst: $CACHE/dxsetup\n    file: dx2010\n- extract:\n    dst: $GAMEDIR\n    file: cache\n- task:\n    arch: win64\n    args: /silent\n    description: Installing prerequisites...\n    executable: $CACHE/dxsetup/DXSETUP.exe\n    name: wineexec\n    prefix: $GAMEDIR\n- task:\n    app: arial vcrun2010 vcrun2012 win7 d3dcompiler_43\n    description: Installing prerequisites...\n    name: winetricks\n    prefix: $GAMEDIR\n- task:\n    args: /S\n    description: Installing Ubisoft Connect...\n    executable: ubiconnect\n    name: wineexec\n    prefix: $GAMEDIR\nsystem:\n  env:\n    DXVK_CONFIG_FILE: $GAMEDIR/dxvk.conf\n    DXVK_HUD: compiler\n    DXVK_STATE_CACHE_PATH: $GAMEDIR\n    __GL_SHADER_DISK_CACHE: 1\n    __GL_SHADER_DISK_CACHE_PATH: $GAMEDIR\n",
  "discord_id": ""
}