{
  "id": 4170,
  "name": "Magnifico",
  "slug": "magnifico",
  "year": 2014,
  "banner_url": "https://lutris.net/games/banner/magnifico.jpg",
  "icon_url": "https://lutris.net/games/icon/magnifico.png",
  "coverart": "https://lutris.net/media/igdb/cover_big/co3mt2.jpg",
  "platforms": [
    {
      "name": "Android"
    },
    {
      "name": "Windows"
    }
  ],
  "provider_games": [
    {
      "name": "Magnifico",
      "slug": "320400",
      "service": "steam"
    },
    {
      "name": "Magnifico",
      "slug": "magnifico",
      "service": "igdb"
    }
  ],
  "aliases": [],
  "shaders": [],
  "discord_id": "",
  "change_for": null
}