{
  "id": 142209,
  "name": "A-Train 3D: City Simulator",
  "slug": "a-train-3d-city-simulator",
  "year": 2015,
  "banner_url": "",
  "icon_url": "",
  "coverart": "https://lutris.net/media/igdb/cover_big/heaukhoundnlnemsibco.jpg",
  "platforms": [
    {
      "name": "Nintendo 3DS"
    }
  ],
  "provider_games": [
    {
      "name": "A-Train 3D: City Simulator",
      "slug": "a-train-3d-city-simulator",
      "service": "igdb"
    }
  ],
  "aliases": [],
  "shaders": [],
  "discord_id": "",
  "change_for": null
}