{
  "id": 282040,
  "name": "Prickle",
  "slug": "prickle",
  "year": null,
  "banner_url": "",
  "icon_url": "",
  "coverart": "https://lutris.net/media/igdb/cover_big/co82m4.jpg",
  "platforms": [],
  "provider_games": [
    {
      "name": "Prickle",
      "slug": "prickle",
      "service": "igdb"
    }
  ],
  "aliases": [],
  "shaders": [],
  "discord_id": "",
  "change_for": null
}