{
  "id": 121022,
  "name": "Birdtual Reality",
  "slug": "birdtual-reality",
  "year": 2016,
  "banner_url": "",
  "icon_url": "",
  "coverart": null,
  "platforms": [
    {
      "name": "Windows"
    }
  ],
  "provider_games": [
    {
      "name": "Birdtual Reality",
      "slug": "birdtual-reality",
      "service": "igdb"
    }
  ],
  "aliases": [],
  "shaders": [],
  "discord_id": "",
  "change_for": null
}