{
  "id": 7968,
  "name": "New York Taxi Simulator",
  "slug": "new-york-taxi-simulator",
  "year": 2016,
  "banner_url": "https://lutris.net/games/banner/new-york-taxi-simulator.jpg",
  "icon_url": "https://lutris.net/games/icon/new-york-taxi-simulator.png",
  "coverart": "https://lutris.net/media/igdb/cover_big/co2cfi.jpg",
  "platforms": [
    {
      "name": "Windows"
    }
  ],
  "provider_games": [
    {
      "name": "New York Taxi Simulator",
      "slug": "446470",
      "service": "steam"
    },
    {
      "name": "New York Taxi Simulator",
      "slug": "new-york-taxi-simulator",
      "service": "igdb"
    }
  ],
  "aliases": [],
  "shaders": [],
  "discord_id": "",
  "change_for": null
}