{
  "id": 83588,
  "name": "Sonic Wings Limited",
  "slug": "sonic-wings-limited",
  "year": 1996,
  "banner_url": "",
  "icon_url": "",
  "coverart": "https://lutris.net/media/igdb/cover_big/co71eq.jpg",
  "platforms": [],
  "provider_games": [
    {
      "name": "Sonic Wings Limited",
      "slug": "sonic-wings-limited",
      "service": "igdb"
    }
  ],
  "aliases": [],
  "shaders": [],
  "discord_id": "",
  "change_for": null
}