{
  "id": 184189,
  "name": "Marty McFart",
  "slug": "marty-mcfart",
  "year": null,
  "banner_url": "",
  "icon_url": "",
  "coverart": null,
  "platforms": [],
  "provider_games": [
    {
      "name": "Marty McFart",
      "slug": "marty-mcfart",
      "service": "igdb"
    }
  ],
  "aliases": [],
  "shaders": [],
  "discord_id": "",
  "change_for": null
}