{
  "id": 148051,
  "name": "Warhammer Age of Sigmar: Soul Arena",
  "slug": "warhammer-age-of-sigmar-soul-arena",
  "year": null,
  "banner_url": "",
  "icon_url": "",
  "coverart": "https://lutris.net/media/igdb/cover_big/co3lu5.jpg",
  "platforms": [],
  "provider_games": [
    {
      "name": "Warhammer Age of Sigmar: Soul Arena",
      "slug": "warhammer-age-of-sigmar-soul-arena",
      "service": "igdb"
    }
  ],
  "aliases": [],
  "shaders": [],
  "discord_id": "",
  "change_for": null
}