{
  "id": 33847,
  "name": "Double Dealer",
  "slug": "double-dealer",
  "year": 1991,
  "banner_url": "",
  "icon_url": "https://lutris.net/games/icon/double-dealer.png",
  "coverart": null,
  "platforms": [
    {
      "name": "Arcade"
    }
  ],
  "provider_games": [
    {
      "name": "Double Dealer",
      "slug": "ddealer",
      "service": "mame"
    }
  ],
  "aliases": [],
  "shaders": [],
  "discord_id": "",
  "change_for": null
}