{
  "id": 210071,
  "name": "Chickip Dancers: Nori-nori Dance de Kokoro mo Odoru",
  "slug": "chickip-dancers-nori-nori-dance-de-kokoro-mo-odoru",
  "year": null,
  "banner_url": "",
  "icon_url": "",
  "coverart": null,
  "platforms": [],
  "provider_games": [
    {
      "name": "Chickip Dancers: Nori-nori Dance de Kokoro mo Odoru",
      "slug": "chickip-dancers-nori-nori-dance-de-kokoro-mo-odoru",
      "service": "igdb"
    }
  ],
  "aliases": [],
  "shaders": [],
  "discord_id": "",
  "change_for": null
}