{
  "id": 29956,
  "name": "The Outer Worlds",
  "slug": "the-outer-worlds",
  "year": 2019,
  "banner_url": "https://lutris.net/games/banner/the-outer-worlds.jpg",
  "icon_url": "https://lutris.net/games/icon/the-outer-worlds.png",
  "coverart": "https://lutris.net/media/igdb/cover_big/co2eew.jpg",
  "platforms": [
    {
      "name": "Nintendo Switch"
    },
    {
      "name": "Sony Playstation 4"
    },
    {
      "name": "Windows"
    },
    {
      "name": "Xbox One"
    }
  ],
  "provider_games": [
    {
      "name": "The Outer Worlds",
      "slug": "the-outer-worlds",
      "service": "igdb"
    },
    {
      "name": "The Outer Worlds",
      "slug": "1242541569",
      "service": "gog"
    },
    {
      "name": "The Outer Worlds",
      "slug": "578650",
      "service": "steam"
    }
  ],
  "aliases": [],
  "shaders": [],
  "discord_id": "",
  "change_for": null
}