{
  "id": 29592,
  "name": "Warhammer: Battle for Atluma",
  "slug": "warhammer-battle-for-atluma",
  "year": 2006,
  "banner_url": "https://lutris.net/games/banner/warhammer-battle-for-atluma.jpg",
  "icon_url": "",
  "coverart": "https://lutris.net/media/igdb/cover_big/co2o05.jpg",
  "platforms": [
    {
      "name": "Sony PSP"
    }
  ],
  "provider_games": [
    {
      "name": "Warhammer: Battle for Atluma",
      "slug": "warhammer-battle-for-atluma",
      "service": "igdb"
    }
  ],
  "aliases": [],
  "shaders": [],
  "discord_id": "",
  "change_for": null
}