{
  "id": 231770,
  "name": "Dragon Buster 100",
  "slug": "dragon-buster-100",
  "year": 2006,
  "banner_url": "",
  "icon_url": "",
  "coverart": null,
  "platforms": [
    {
      "name": "Plug & Play"
    }
  ],
  "provider_games": [
    {
      "name": "Dragon Buster 100",
      "slug": "dragon-buster-100",
      "service": "igdb"
    }
  ],
  "aliases": [],
  "shaders": [],
  "discord_id": "",
  "change_for": null
}