{
  "id": 4373,
  "game_id": 7057,
  "game_slug": "lunas-wandering-stars",
  "name": "Luna's Wandering Stars",
  "year": 2015,
  "user": "FakeShemp",
  "runner": "wine",
  "slug": "lunas-wandering-stars-indiegamestand",
  "version": "IndieGameStand",
  "description": "",
  "notes": "",
  "credits": "",
  "created_at": "2017-06-15T19:27:05.621092Z",
  "updated_at": "2018-05-19T03:41:50.042803Z",
  "draft": false,
  "published": true,
  "published_by": null,
  "rating": "",
  "is_playable": null,
  "steamid": 330660,
  "gogid": null,
  "gogslug": "",
  "humbleid": "",
  "humblestoreid": "",
  "humblestoreid_real": "",
  "script": {
    "files": [
      {
        "file1": "N/A:Please select the IndieGameStand archive"
      }
    ],
    "game": {
      "arch": "win32",
      "exe": "drive_c/Program Files/Luna's Wandering Stars/LWS_Launcher.exe",
      "prefix": "$GAMEDIR"
    },
    "installer": [
      {
        "extract": {
          "dst": "$GAMEDIR/drive_c/Program Files/Luna's Wandering Stars",
          "file": "$file1"
        }
      }
    ]
  },
  "content": "files:\n- file1: N/A:Please select the IndieGameStand archive\ngame:\n  arch: win32\n  exe: drive_c/Program Files/Luna's Wandering Stars/LWS_Launcher.exe\n  prefix: $GAMEDIR\ninstaller:\n- extract:\n    dst: $GAMEDIR/drive_c/Program Files/Luna's Wandering Stars\n    file: $file1\n",
  "discord_id": ""
}