{
  "id": 249521,
  "name": "Movie Battles II",
  "slug": "movie-battles-ii",
  "year": 2003,
  "banner_url": "https://lutris.net/games/banner/movie-battles-ii.jpg",
  "icon_url": "",
  "coverart": null,
  "platforms": [
    {
      "name": "Linux"
    },
    {
      "name": "Mac"
    },
    {
      "name": "Windows"
    }
  ],
  "provider_games": [],
  "aliases": [],
  "shaders": [],
  "discord_id": "",
  "change_for": null
}