{
  "id": 117226,
  "name": "Venture Towns",
  "slug": "venture-towns",
  "year": 2011,
  "banner_url": "https://lutris.net/games/banner/venture-towns.jpg",
  "icon_url": "",
  "coverart": "https://lutris.net/media/igdb/cover_big/dljyh8ezvi1gdvagwcnf.jpg",
  "platforms": [
    {
      "name": "Android"
    },
    {
      "name": "Nintendo Switch"
    },
    {
      "name": "Sony Playstation 4"
    }
  ],
  "provider_games": [
    {
      "name": "Venture Towns",
      "slug": "venture-towns",
      "service": "igdb"
    },
    {
      "name": "Venture Towns",
      "slug": "1923670",
      "service": "steam"
    }
  ],
  "aliases": [],
  "shaders": [],
  "discord_id": "",
  "change_for": null
}