{
  "id": 226047,
  "name": "Night Loops",
  "slug": "night-loops",
  "year": 2023,
  "banner_url": "",
  "icon_url": "",
  "coverart": "https://lutris.net/media/igdb/cover_big/co4r7m.jpg",
  "platforms": [
    {
      "name": "Windows"
    }
  ],
  "provider_games": [
    {
      "name": "Night Loops",
      "slug": "night-loops",
      "service": "igdb"
    },
    {
      "name": "Night Loops",
      "slug": "1934784150",
      "service": "gog"
    }
  ],
  "aliases": [],
  "shaders": [],
  "discord_id": "",
  "change_for": null
}