{
  "id": 235814,
  "name": "Kabuto",
  "slug": "kabuto",
  "year": null,
  "banner_url": "",
  "icon_url": "",
  "coverart": "https://lutris.net/media/igdb/cover_big/co67cv.jpg",
  "platforms": [],
  "provider_games": [
    {
      "name": "Kabuto",
      "slug": "kabuto",
      "service": "igdb"
    }
  ],
  "aliases": [],
  "shaders": [],
  "discord_id": "",
  "change_for": null
}