{
  "id": 247080,
  "name": "Bite Size Terrors: Erobos Heaven",
  "slug": "bite-size-terrors-erobos-heaven",
  "year": null,
  "banner_url": "",
  "icon_url": "",
  "coverart": "https://lutris.net/media/igdb/cover_big/co6je5.jpg",
  "platforms": [],
  "provider_games": [
    {
      "name": "Bite Size Terrors: Erobos Heaven",
      "slug": "bite-size-terrors-erobos-heaven",
      "service": "igdb"
    }
  ],
  "aliases": [],
  "shaders": [],
  "discord_id": "",
  "change_for": null
}