{
  "id": 147299,
  "name": "Rainbow Duck",
  "slug": "rainbow-duck",
  "year": 2017,
  "banner_url": "https://lutris.net/games/banner/rainbow-duck.jpg",
  "icon_url": "",
  "coverart": "https://lutris.net/media/igdb/cover_big/g2fbqgx8r37bduniixsx.jpg",
  "platforms": [
    {
      "name": "Windows"
    }
  ],
  "provider_games": [
    {
      "name": "Rainbow Duck",
      "slug": "681150",
      "service": "steam"
    },
    {
      "name": "Rainbow Duck",
      "slug": "rainbow-duck",
      "service": "igdb"
    }
  ],
  "aliases": [],
  "shaders": [],
  "discord_id": "",
  "change_for": null
}