{
  "id": 19482,
  "name": "Gray Skies, Dark Waters",
  "slug": "gray-skies-dark-waters",
  "year": 2017,
  "banner_url": "https://lutris.net/games/banner/gray-skies-dark-waters.jpg",
  "icon_url": "https://lutris.net/games/icon/gray-skies-dark-waters.png",
  "coverart": "https://lutris.net/media/igdb/cover_big/co2bis.jpg",
  "platforms": [
    {
      "name": "Linux"
    },
    {
      "name": "Mac"
    },
    {
      "name": "Windows"
    }
  ],
  "provider_games": [
    {
      "name": "Gray Skies, Dark Waters",
      "slug": "543070",
      "service": "steam"
    },
    {
      "name": "Gray Skies, Dark Waters",
      "slug": "gray-skies-dark-waters",
      "service": "igdb"
    }
  ],
  "aliases": [],
  "shaders": [],
  "discord_id": "",
  "change_for": null
}