{
  "id": 34302,
  "name": "Grand Striker 2",
  "slug": "grand-striker-2",
  "year": 1996,
  "banner_url": "",
  "icon_url": "https://lutris.net/games/icon/grand-striker-2.png",
  "coverart": "https://lutris.net/media/igdb/cover_big/y5h1d9paht3lzidjfpvm.jpg",
  "platforms": [
    {
      "name": "Arcade"
    }
  ],
  "provider_games": [
    {
      "name": "Grand Striker 2",
      "slug": "gstrik2",
      "service": "mame"
    },
    {
      "name": "Grand Striker 2",
      "slug": "grand-striker-2",
      "service": "igdb"
    }
  ],
  "aliases": [],
  "shaders": [],
  "discord_id": "",
  "change_for": null
}