{
  "id": 223491,
  "name": "My Rental Girlfriend",
  "slug": "my-rental-girlfriend",
  "year": 2019,
  "banner_url": "",
  "icon_url": "",
  "coverart": "https://lutris.net/media/igdb/cover_big/co4wav.jpg",
  "platforms": [
    {
      "name": "Android"
    }
  ],
  "provider_games": [
    {
      "name": "My Rental Girlfriend",
      "slug": "my-rental-girlfriend",
      "service": "igdb"
    }
  ],
  "aliases": [],
  "shaders": [],
  "discord_id": "",
  "change_for": null
}