{
  "id": 219989,
  "name": "Bravery",
  "slug": "bravery",
  "year": null,
  "banner_url": "",
  "icon_url": "",
  "coverart": "https://lutris.net/media/igdb/cover_big/co5c5l.jpg",
  "platforms": [],
  "provider_games": [
    {
      "name": "Bravery",
      "slug": "bravery",
      "service": "igdb"
    }
  ],
  "aliases": [],
  "shaders": [],
  "discord_id": "",
  "change_for": null
}