{
  "id": 33546,
  "name": "Burnin' Rubber",
  "slug": "burnin-rubber",
  "year": 1982,
  "banner_url": "https://lutris.net/games/banner/burnin-rubber.jpg",
  "icon_url": "https://lutris.net/games/icon/burnin-rubber.png",
  "coverart": "https://lutris.net/media/igdb/cover_big/co3w5k.jpg",
  "platforms": [
    {
      "name": "Arcade"
    },
    {
      "name": "Commodore C64/128"
    }
  ],
  "provider_games": [
    {
      "name": "Burnin' Rubber",
      "slug": "brubber",
      "service": "mame"
    },
    {
      "name": "Burnin Rubber",
      "slug": "burnin-rubber",
      "service": "igdb"
    }
  ],
  "aliases": [],
  "shaders": [],
  "discord_id": "",
  "change_for": null
}