{
  "id": 289651,
  "name": "Shiny Days",
  "slug": "shiny-days",
  "year": 2012,
  "banner_url": "https://lutris.net/games/banner/shiny-days.jpg",
  "icon_url": "",
  "coverart": null,
  "platforms": [
    {
      "name": "Blu-ray Player"
    },
    {
      "name": "DVD Player"
    },
    {
      "name": "Windows"
    }
  ],
  "provider_games": [],
  "aliases": [],
  "shaders": [],
  "discord_id": "",
  "change_for": null
}