{
  "id": 30143,
  "name": "CB Chara Wars - Ushinawareta Gag",
  "slug": "cb-chara-wars-ushinawareta-gag",
  "year": 1992,
  "banner_url": "https://lutris.net/games/banner/cb-chara-wars-ushinawareta-gag.jpg",
  "icon_url": "",
  "coverart": "https://lutris.net/media/igdb/cover_big/gorf0uszx3v7n9mjngii.jpg",
  "platforms": [
    {
      "name": "Super Nintendo"
    }
  ],
  "provider_games": [
    {
      "name": "CB Chara Wars: Ushinawareta Gag",
      "slug": "cb-chara-wars-ushinawareta-gag",
      "service": "igdb"
    }
  ],
  "aliases": [],
  "shaders": [],
  "discord_id": "",
  "change_for": null
}