{
  "id": 195091,
  "name": "Mega Business M: Business World",
  "slug": "mega-business-m-business-world",
  "year": null,
  "banner_url": "",
  "icon_url": "",
  "coverart": null,
  "platforms": [],
  "provider_games": [
    {
      "name": "Mega Business M: Business World",
      "slug": "mega-business-m-business-world",
      "service": "igdb"
    }
  ],
  "aliases": [],
  "shaders": [],
  "discord_id": "",
  "change_for": null
}