{
  "id": 210639,
  "name": "A Simple Mistake",
  "slug": "a-simple-mistake",
  "year": null,
  "banner_url": "",
  "icon_url": "",
  "coverart": null,
  "platforms": [],
  "provider_games": [
    {
      "name": "A Simple Mistake",
      "slug": "a-simple-mistake",
      "service": "igdb"
    }
  ],
  "aliases": [],
  "shaders": [],
  "discord_id": "",
  "change_for": null
}