{
  "id": 160460,
  "name": "The Legend of Zelda: Link's Awakening - Artbook Set",
  "slug": "the-legend-of-zelda-links-awakening-artbook-set",
  "year": 2019,
  "banner_url": "",
  "icon_url": "",
  "coverart": "https://lutris.net/media/igdb/cover_big/co3z6r.jpg",
  "platforms": [
    {
      "name": "Nintendo Switch"
    }
  ],
  "provider_games": [
    {
      "name": "The Legend of Zelda: Link's Awakening - Artbook Set",
      "slug": "the-legend-of-zelda-links-awakening-artbook-set",
      "service": "igdb"
    }
  ],
  "aliases": [],
  "shaders": [],
  "discord_id": "",
  "change_for": null
}