{
  "id": 291742,
  "name": "Find X",
  "slug": "find-x",
  "year": null,
  "banner_url": "",
  "icon_url": "",
  "coverart": "https://lutris.net/media/igdb/cover_big/co8k9z.jpg",
  "platforms": [],
  "provider_games": [
    {
      "name": "Find X",
      "slug": "find-x",
      "service": "igdb"
    }
  ],
  "aliases": [],
  "shaders": [],
  "discord_id": "",
  "change_for": null
}