{
  "id": 113763,
  "name": "The Super Spy",
  "slug": "the-super-spy",
  "year": 1990,
  "banner_url": "",
  "icon_url": "",
  "coverart": "https://lutris.net/media/igdb/cover_big/d8ubmolv8w9y9zsopuyu.jpg",
  "platforms": [
    {
      "name": "Neo Geo AES"
    },
    {
      "name": "Neo Geo CD"
    },
    {
      "name": "Neo Geo MVS"
    }
  ],
  "provider_games": [
    {
      "name": "The Super Spy",
      "slug": "the-super-spy",
      "service": "igdb"
    },
    {
      "name": "THE SUPER SPY",
      "slug": "1217573536",
      "service": "gog"
    }
  ],
  "aliases": [],
  "shaders": [],
  "discord_id": "",
  "change_for": null
}