{
  "id": 234987,
  "name": "Heroes of Pure Land",
  "slug": "heroes-of-pure-land",
  "year": null,
  "banner_url": "",
  "icon_url": "",
  "coverart": null,
  "platforms": [],
  "provider_games": [
    {
      "name": "Heroes of Pure Land",
      "slug": "heroes-of-pure-land",
      "service": "igdb"
    }
  ],
  "aliases": [],
  "shaders": [],
  "discord_id": "",
  "change_for": null
}