{
  "id": 105168,
  "name": "Outpost: Glacier",
  "slug": "outpost-glacier",
  "year": null,
  "banner_url": "",
  "icon_url": "",
  "coverart": "https://lutris.net/media/igdb/cover_big/co2qws.jpg",
  "platforms": [],
  "provider_games": [
    {
      "name": "Outpost: Glacier",
      "slug": "outpost-glacier",
      "service": "igdb"
    }
  ],
  "aliases": [],
  "shaders": [],
  "discord_id": "",
  "change_for": null
}