{
  "id": 240419,
  "name": "Weeny Adventure",
  "slug": "weeny-adventure",
  "year": 2020,
  "banner_url": "",
  "icon_url": "",
  "coverart": null,
  "platforms": [
    {
      "name": "Android"
    }
  ],
  "provider_games": [
    {
      "name": "Weeny Adventure",
      "slug": "weeny-adventure",
      "service": "igdb"
    }
  ],
  "aliases": [],
  "shaders": [],
  "discord_id": "",
  "change_for": null
}