{
  "id": 65312,
  "name": "Full Tilt! 2 Pinball",
  "slug": "full-tilt-2-pinball",
  "year": null,
  "banner_url": "",
  "icon_url": "",
  "coverart": null,
  "platforms": [],
  "provider_games": [
    {
      "name": "Full Tilt! 2 Pinball",
      "slug": "full-tilt-2-pinball",
      "service": "igdb"
    }
  ],
  "aliases": [],
  "shaders": [],
  "discord_id": "",
  "change_for": null
}