{
  "id": 45649,
  "name": "Castle Fantasia: Seimadaisen",
  "slug": "castle-fantasia-seimadaisen",
  "year": null,
  "banner_url": "",
  "icon_url": "",
  "coverart": "https://lutris.net/media/igdb/cover_big/lhwwxlpq7hzhbb6n35lb.jpg",
  "platforms": [],
  "provider_games": [
    {
      "name": "Castle Fantasia: Seimadaisen",
      "slug": "castle-fantasia-seimadaisen",
      "service": "igdb"
    }
  ],
  "aliases": [],
  "shaders": [],
  "discord_id": "",
  "change_for": null
}