{
  "id": 249296,
  "name": "Freeman",
  "slug": "freeman",
  "year": null,
  "banner_url": "",
  "icon_url": "",
  "coverart": "https://lutris.net/media/igdb/cover_big/co6mpd.jpg",
  "platforms": [],
  "provider_games": [
    {
      "name": "Freeman",
      "slug": "freeman",
      "service": "igdb"
    }
  ],
  "aliases": [],
  "shaders": [],
  "discord_id": "",
  "change_for": null
}