{
  "id": 249411,
  "name": "Grapploteer",
  "slug": "grapploteer",
  "year": null,
  "banner_url": "",
  "icon_url": "",
  "coverart": "https://lutris.net/media/igdb/cover_big/co6md8.jpg",
  "platforms": [],
  "provider_games": [
    {
      "name": "Grapploteer",
      "slug": "grapploteer",
      "service": "igdb"
    }
  ],
  "aliases": [],
  "shaders": [],
  "discord_id": "",
  "change_for": null
}