{
  "id": 297263,
  "name": "The Irritatis: The Road",
  "slug": "the-irritatis-the-road",
  "year": 2015,
  "banner_url": "",
  "icon_url": "",
  "coverart": "https://lutris.net/media/igdb/cover_big/co8u2k.jpg",
  "platforms": [
    {
      "name": "Browser"
    }
  ],
  "provider_games": [
    {
      "name": "The Irritatis: The Road",
      "slug": "the-irritatis-the-road",
      "service": "igdb"
    }
  ],
  "aliases": [],
  "shaders": [],
  "discord_id": "",
  "change_for": null
}