{
  "id": 277315,
  "name": "So Much Stuff 2: Collector's Edition",
  "slug": "so-much-stuff-2-collectors-edition",
  "year": 2024,
  "banner_url": "",
  "icon_url": "",
  "coverart": null,
  "platforms": [
    {
      "name": "Nintendo Switch"
    }
  ],
  "provider_games": [
    {
      "name": "So Much Stuff 2: Collector's Edition",
      "slug": "so-much-stuff-2-collectors-edition",
      "service": "igdb"
    }
  ],
  "aliases": [],
  "shaders": [],
  "discord_id": "",
  "change_for": null
}