{
  "id": 109210,
  "name": "Build-a-Bear Workshop: Welcome to Hugsville",
  "slug": "build-a-bear-workshop-welcome-to-hugsville",
  "year": 2010,
  "banner_url": "",
  "icon_url": "",
  "coverart": "https://lutris.net/media/igdb/cover_big/briftfkpksa5iqeohjq8.jpg",
  "platforms": [
    {
      "name": "Nintendo DS"
    }
  ],
  "provider_games": [
    {
      "name": "Build-a-Bear Workshop: Welcome to Hugsville",
      "slug": "build-a-bear-workshop-welcome-to-hugsville",
      "service": "igdb"
    }
  ],
  "aliases": [],
  "shaders": [],
  "discord_id": "",
  "change_for": null
}