{
  "id": 27044,
  "name": "World Machine",
  "slug": "world-machine",
  "year": null,
  "banner_url": "https://lutris.net/games/banner/world-machine.jpg",
  "icon_url": "",
  "coverart": null,
  "platforms": [
    {
      "name": "Windows"
    }
  ],
  "provider_games": [],
  "aliases": [],
  "shaders": [],
  "discord_id": "",
  "change_for": null
}