{
  "id": 112438,
  "name": "My Little Helper: Spring Cleaning",
  "slug": "my-little-helper-spring-cleaning",
  "year": null,
  "banner_url": "",
  "icon_url": "",
  "coverart": "https://lutris.net/media/igdb/cover_big/co31cj.jpg",
  "platforms": [
    {
      "name": "Nintendo DS"
    }
  ],
  "provider_games": [
    {
      "name": "My Little Helper: Spring Cleaning",
      "slug": "my-little-helper-spring-cleaning",
      "service": "igdb"
    }
  ],
  "aliases": [],
  "shaders": [],
  "discord_id": "",
  "change_for": null
}