{
  "id": 4656,
  "name": "NotGTAV",
  "slug": "notgtav",
  "year": 2015,
  "banner_url": "https://lutris.net/games/banner/notgtav.jpg",
  "icon_url": "https://lutris.net/games/icon/notgtav.png",
  "coverart": "https://lutris.net/media/igdb/cover_big/h0wtln8a60qntqthklwi.jpg",
  "platforms": [
    {
      "name": "Windows"
    }
  ],
  "provider_games": [
    {
      "name": "NotTheNameWeWanted",
      "slug": "369580",
      "service": "steam"
    },
    {
      "name": "NotGTAV",
      "slug": "notgtav",
      "service": "igdb"
    }
  ],
  "aliases": [],
  "shaders": [],
  "discord_id": "",
  "change_for": null
}