{
  "id": 13465,
  "name": "Astronaut Simulator",
  "slug": "astronaut-simulator",
  "year": 2015,
  "banner_url": "https://lutris.net/games/banner/astronaut-simulator.jpg",
  "icon_url": "https://lutris.net/games/icon/astronaut-simulator.png",
  "coverart": null,
  "platforms": [
    {
      "name": "Windows"
    }
  ],
  "provider_games": [
    {
      "name": "Astronaut Simulator",
      "slug": "356770",
      "service": "steam"
    },
    {
      "name": "Astronaut Simulator",
      "slug": "astronaut-simulator",
      "service": "igdb"
    }
  ],
  "aliases": [],
  "shaders": [],
  "discord_id": "",
  "change_for": null
}