{
  "id": 232182,
  "name": "Teenage Mutant Ninja Turtles HD",
  "slug": "teenage-mutant-ninja-turtles-hd",
  "year": 2019,
  "banner_url": "",
  "icon_url": "",
  "coverart": "https://lutris.net/media/igdb/cover_big/co6p0x.jpg",
  "platforms": [
    {
      "name": "Windows"
    }
  ],
  "provider_games": [
    {
      "name": "Teenage Mutant Ninja Turtles HD",
      "slug": "teenage-mutant-ninja-turtles-hd",
      "service": "igdb"
    }
  ],
  "aliases": [],
  "shaders": [],
  "discord_id": "",
  "change_for": null
}