{
  "id": 184685,
  "name": "Find Your Girlfriend",
  "slug": "find-your-girlfriend",
  "year": null,
  "banner_url": "",
  "icon_url": "",
  "coverart": null,
  "platforms": [],
  "provider_games": [
    {
      "name": "Find Your Girlfriend",
      "slug": "find-your-girlfriend",
      "service": "igdb"
    }
  ],
  "aliases": [],
  "shaders": [],
  "discord_id": "",
  "change_for": null
}