{
  "id": 138966,
  "name": "Johnny Turbo's Arcade: Express Raider",
  "slug": "johnny-turbos-arcade-express-raider",
  "year": 2018,
  "banner_url": "",
  "icon_url": "",
  "coverart": "https://lutris.net/media/igdb/cover_big/sgstepaua9boil45x4qo.jpg",
  "platforms": [
    {
      "name": "Nintendo Switch"
    }
  ],
  "provider_games": [
    {
      "name": "Johnny Turbo's Arcade: Express Raider",
      "slug": "johnny-turbos-arcade-express-raider",
      "service": "igdb"
    }
  ],
  "aliases": [],
  "shaders": [],
  "discord_id": "",
  "change_for": null
}