{
  "id": 303994,
  "name": "2024: Mosaic Retrospective",
  "slug": "2024-mosaic-retrospective",
  "year": 2024,
  "banner_url": "",
  "icon_url": "",
  "coverart": "https://lutris.net/media/igdb/cover_big/co98m5.jpg",
  "platforms": [
    {
      "name": "Mac"
    },
    {
      "name": "Windows"
    }
  ],
  "provider_games": [
    {
      "name": "2024: Mosaic Retrospective",
      "slug": "2024-mosaic-retrospective",
      "service": "igdb"
    }
  ],
  "aliases": [],
  "shaders": [],
  "discord_id": "",
  "change_for": null
}