{
  "id": 120762,
  "name": "Grotesque Tactics 2: Dungeons and Donuts",
  "slug": "grotesque-tactics-2-dungeons-and-donuts--1",
  "year": 2011,
  "banner_url": "",
  "icon_url": "",
  "coverart": "https://lutris.net/media/igdb/cover_big/ybm7m7xbl2fhymewfonh.jpg",
  "platforms": [
    {
      "name": "Windows"
    }
  ],
  "provider_games": [
    {
      "name": "Grotesque Tactics 2: Dungeons and Donuts",
      "slug": "grotesque-tactics-2-dungeons-and-donuts--1",
      "service": "igdb"
    }
  ],
  "aliases": [],
  "shaders": [],
  "discord_id": "",
  "change_for": null
}