{
  "id": 94053,
  "name": "Versus Pixels Battle 3D",
  "slug": "versus-pixels-battle-3d",
  "year": null,
  "banner_url": "",
  "icon_url": "",
  "coverart": null,
  "platforms": [],
  "provider_games": [
    {
      "name": "Versus Pixels Battle 3D",
      "slug": "versus-pixels-battle-3d",
      "service": "igdb"
    }
  ],
  "aliases": [],
  "shaders": [],
  "discord_id": "",
  "change_for": null
}