{
  "id": 79018,
  "name": "Darkened Skye",
  "slug": "darkened-skye",
  "year": 2002,
  "banner_url": "",
  "icon_url": "",
  "coverart": "https://lutris.net/media/igdb/cover_big/co2i93.jpg",
  "platforms": [
    {
      "name": "Nintendo GameCube"
    },
    {
      "name": "Windows"
    }
  ],
  "provider_games": [
    {
      "name": "Darkened Skye",
      "slug": "darkened-skye",
      "service": "igdb"
    }
  ],
  "aliases": [],
  "shaders": [],
  "discord_id": "",
  "change_for": null
}