{
  "id": 223360,
  "name": "3rd Space Incursion",
  "slug": "3rd-space-incursion",
  "year": null,
  "banner_url": "",
  "icon_url": "",
  "coverart": null,
  "platforms": [],
  "provider_games": [
    {
      "name": "3rd Space Incursion",
      "slug": "3rd-space-incursion",
      "service": "igdb"
    }
  ],
  "aliases": [],
  "shaders": [],
  "discord_id": "",
  "change_for": null
}