{
  "id": 87033,
  "name": "Dotcom (.com)",
  "slug": "dotcom-dot-com",
  "year": null,
  "banner_url": "",
  "icon_url": "",
  "coverart": null,
  "platforms": [
    {
      "name": "Windows"
    }
  ],
  "provider_games": [
    {
      "name": "Dotcom (.com)",
      "slug": "dotcom-dot-com",
      "service": "igdb"
    }
  ],
  "aliases": [],
  "shaders": [],
  "discord_id": "",
  "change_for": null
}