{
  "id": 100054,
  "name": "Ninja Knight",
  "slug": "ninja-knight",
  "year": 2017,
  "banner_url": "",
  "icon_url": "",
  "coverart": "https://lutris.net/media/igdb/cover_big/co2614.jpg",
  "platforms": [
    {
      "name": "Android"
    }
  ],
  "provider_games": [
    {
      "name": "Ninja Knight",
      "slug": "ninja-knight",
      "service": "igdb"
    }
  ],
  "aliases": [],
  "shaders": [],
  "discord_id": "",
  "change_for": null
}