{
  "id": 115005,
  "name": "副作用之瞳 (Tilcolity Eyes)",
  "slug": "fu-zuo-yong-zhi-tong-tilcolity-eyes",
  "year": null,
  "banner_url": "",
  "icon_url": "",
  "coverart": "https://lutris.net/media/igdb/cover_big/co376l.jpg",
  "platforms": [],
  "provider_games": [
    {
      "name": "副作用之瞳 (Tilcolity Eyes)",
      "slug": "fu-zuo-yong-zhi-tong-tilcolity-eyes",
      "service": "igdb"
    }
  ],
  "aliases": [],
  "shaders": [],
  "discord_id": "",
  "change_for": null
}