{
  "id": 285235,
  "name": "1986 A Long Five Days",
  "slug": "1986-a-long-five-days",
  "year": null,
  "banner_url": "",
  "icon_url": "",
  "coverart": "https://lutris.net/media/igdb/cover_big/co87eh.jpg",
  "platforms": [],
  "provider_games": [
    {
      "name": "1986 A Long Five Days",
      "slug": "1986-a-long-five-days",
      "service": "igdb"
    }
  ],
  "aliases": [],
  "shaders": [],
  "discord_id": "",
  "change_for": null
}