{
  "id": 18078,
  "name": "Star Trek: Deep Space Nine: The Fallen",
  "slug": "star-trek-deep-space-nine-the-fallen",
  "year": 2000,
  "banner_url": "https://lutris.net/games/banner/star-trek-deep-space-nine-the-fallen.jpg",
  "icon_url": "",
  "coverart": "https://lutris.net/media/igdb/cover_big/co2jev.jpg",
  "platforms": [
    {
      "name": "Mac"
    },
    {
      "name": "Windows"
    }
  ],
  "provider_games": [
    {
      "name": "Star Trek: Deep Space Nine - The Fallen",
      "slug": "star-trek-deep-space-nine-the-fallen",
      "service": "igdb"
    }
  ],
  "aliases": [],
  "shaders": [],
  "discord_id": "",
  "change_for": null
}