{
  "id": 3637,
  "name": "Shattered Union",
  "slug": "shattered-union",
  "year": 2005,
  "banner_url": "https://lutris.net/games/banner/shattered-union.jpg",
  "icon_url": "https://lutris.net/games/icon/shattered-union.png",
  "coverart": "https://lutris.net/media/igdb/cover_big/co410m.jpg",
  "platforms": [
    {
      "name": "Windows"
    }
  ],
  "provider_games": [
    {
      "name": "Shattered Union",
      "slug": "3960",
      "service": "steam"
    },
    {
      "name": "Shattered Union",
      "slug": "shattered-union",
      "service": "igdb"
    }
  ],
  "aliases": [],
  "shaders": [],
  "discord_id": "",
  "change_for": null
}