{
  "id": 85269,
  "name": "Nintendogs: Best Friends",
  "slug": "nintendogs-best-friends",
  "year": 2005,
  "banner_url": "",
  "icon_url": "",
  "coverart": "https://lutris.net/media/igdb/cover_big/k6e9hmenuvdoafgk092f.jpg",
  "platforms": [
    {
      "name": "Nintendo DS"
    }
  ],
  "provider_games": [
    {
      "name": "Nintendogs: Best Friends",
      "slug": "nintendogs-best-friends",
      "service": "igdb"
    }
  ],
  "aliases": [],
  "shaders": [],
  "discord_id": "",
  "change_for": null
}