{
  "id": 5582,
  "name": "Unpossible",
  "slug": "unpossible",
  "year": 2015,
  "banner_url": "https://lutris.net/games/banner/unpossible.jpg",
  "icon_url": "https://lutris.net/games/icon/unpossible.png",
  "coverart": "https://lutris.net/media/igdb/cover_big/swscupatba0ygw6u9vrq.jpg",
  "platforms": [
    {
      "name": "Linux"
    },
    {
      "name": "Mac"
    },
    {
      "name": "Windows"
    }
  ],
  "provider_games": [
    {
      "name": "Unpossible",
      "slug": "300400",
      "service": "steam"
    },
    {
      "name": "Unpossible",
      "slug": "unpossible",
      "service": "igdb"
    }
  ],
  "aliases": [],
  "shaders": [],
  "discord_id": "",
  "change_for": null
}