{
  "id": 29998,
  "name": "Among Us",
  "slug": "among-us",
  "year": 2018,
  "banner_url": "https://lutris.net/games/banner/among-us.jpg",
  "icon_url": "https://lutris.net/games/icon/among-us.png",
  "coverart": "https://lutris.net/media/igdb/cover_big/co45rg.jpg",
  "platforms": [
    {
      "name": "Android"
    },
    {
      "name": "Nintendo Switch"
    },
    {
      "name": "Sony Playstation 4"
    },
    {
      "name": "Sony PlayStation 5"
    },
    {
      "name": "Windows"
    },
    {
      "name": "Xbox One"
    },
    {
      "name": "Xbox Series X|S"
    }
  ],
  "provider_games": [
    {
      "name": "Among Us",
      "slug": "945360",
      "service": "steam"
    },
    {
      "name": "Among Us",
      "slug": "among-us",
      "service": "igdb"
    }
  ],
  "aliases": [],
  "shaders": [],
  "discord_id": "",
  "change_for": null
}