{
  "id": 235560,
  "name": "Dylan the Driller",
  "slug": "dylan-the-driller",
  "year": null,
  "banner_url": "",
  "icon_url": "",
  "coverart": null,
  "platforms": [],
  "provider_games": [
    {
      "name": "Dylan the Driller",
      "slug": "dylan-the-driller",
      "service": "igdb"
    }
  ],
  "aliases": [],
  "shaders": [],
  "discord_id": "",
  "change_for": null
}