{
  "id": 70943,
  "name": "2win Ghost",
  "slug": "2win-ghost",
  "year": null,
  "banner_url": "",
  "icon_url": "",
  "coverart": "https://lutris.net/media/igdb/cover_big/co6ewi.jpg",
  "platforms": [],
  "provider_games": [
    {
      "name": "2win Ghost",
      "slug": "2win-ghost",
      "service": "igdb"
    }
  ],
  "aliases": [],
  "shaders": [],
  "discord_id": "",
  "change_for": null
}