{
  "id": 235763,
  "name": "100 Days",
  "slug": "100-days--1",
  "year": 2016,
  "banner_url": "",
  "icon_url": "",
  "coverart": null,
  "platforms": [
    {
      "name": "Windows Phone"
    }
  ],
  "provider_games": [
    {
      "name": "100 Days",
      "slug": "100-days--1",
      "service": "igdb"
    }
  ],
  "aliases": [],
  "shaders": [],
  "discord_id": "",
  "change_for": null
}