{
  "id": 226273,
  "name": "Fractal City",
  "slug": "fractal-city",
  "year": null,
  "banner_url": "",
  "icon_url": "",
  "coverart": "https://lutris.net/media/igdb/cover_big/co4qtm.jpg",
  "platforms": [],
  "provider_games": [
    {
      "name": "Fractal City",
      "slug": "fractal-city",
      "service": "igdb"
    }
  ],
  "aliases": [],
  "shaders": [],
  "discord_id": "",
  "change_for": null
}