{
  "id": 241609,
  "name": "Endless Nesla",
  "slug": "endless-nesla",
  "year": null,
  "banner_url": "",
  "icon_url": "",
  "coverart": "https://lutris.net/media/igdb/cover_big/co5zwx.jpg",
  "platforms": [],
  "provider_games": [
    {
      "name": "Endless Nesla",
      "slug": "endless-nesla",
      "service": "igdb"
    }
  ],
  "aliases": [],
  "shaders": [],
  "discord_id": "",
  "change_for": null
}