{
  "id": 13158,
  "name": "Nano Project",
  "slug": "nano-project",
  "year": 2017,
  "banner_url": "https://lutris.net/games/banner/nano-project.jpg",
  "icon_url": "https://lutris.net/games/icon/nano-project.png",
  "coverart": null,
  "platforms": [
    {
      "name": "Windows"
    }
  ],
  "provider_games": [
    {
      "name": "Nano Project",
      "slug": "622320",
      "service": "steam"
    },
    {
      "name": "Nano Project",
      "slug": "nano-project",
      "service": "igdb"
    }
  ],
  "aliases": [],
  "shaders": [],
  "discord_id": "",
  "change_for": null
}