{
  "id": 125051,
  "name": "Alpha Kimori: Great Doubt - Episode One",
  "slug": "alpha-kimori-great-doubt-episode-one",
  "year": 2014,
  "banner_url": "",
  "icon_url": "",
  "coverart": "https://lutris.net/media/igdb/cover_big/co20op.jpg",
  "platforms": [
    {
      "name": "Windows"
    }
  ],
  "provider_games": [
    {
      "name": "Alpha Kimori: Great Doubt - Episode One",
      "slug": "alpha-kimori-great-doubt-episode-one",
      "service": "igdb"
    }
  ],
  "aliases": [],
  "shaders": [],
  "discord_id": "",
  "change_for": null
}