{
  "id": 305362,
  "name": "Bad Faith",
  "slug": "bad-faith--1",
  "year": 2021,
  "banner_url": "",
  "icon_url": "",
  "coverart": null,
  "platforms": [
    {
      "name": "Mac"
    },
    {
      "name": "Windows"
    }
  ],
  "provider_games": [
    {
      "name": "Bad Faith",
      "slug": "bad-faith--1",
      "service": "igdb"
    }
  ],
  "aliases": [],
  "shaders": [],
  "discord_id": "",
  "change_for": null
}