{
  "id": 91246,
  "name": "Royal Blade",
  "slug": "royal-blade",
  "year": null,
  "banner_url": "",
  "icon_url": "",
  "coverart": null,
  "platforms": [],
  "provider_games": [
    {
      "name": "Royal Blade",
      "slug": "royal-blade",
      "service": "igdb"
    }
  ],
  "aliases": [],
  "shaders": [],
  "discord_id": "",
  "change_for": null
}