{
  "id": 32646,
  "name": "What Are You Stupid",
  "slug": "what-are-you-stupid",
  "year": 2018,
  "banner_url": "https://lutris.net/games/banner/what-are-you-stupid.jpg",
  "icon_url": "https://lutris.net/games/icon/what-are-you-stupid.png",
  "coverart": "https://lutris.net/media/igdb/cover_big/gps0xqpu8ku4op2f0ikh.jpg",
  "platforms": [
    {
      "name": "Mac"
    },
    {
      "name": "Windows"
    }
  ],
  "provider_games": [
    {
      "name": "What Are You Stupid",
      "slug": "839570",
      "service": "steam"
    },
    {
      "name": "What Are You Stupid",
      "slug": "what-are-you-stupid",
      "service": "igdb"
    }
  ],
  "aliases": [],
  "shaders": [],
  "discord_id": "",
  "change_for": null
}