{
  "id": 61749,
  "name": "Shinseiki Odysselya II",
  "slug": "shinseiki-odysselya-ii",
  "year": null,
  "banner_url": "",
  "icon_url": "",
  "coverart": "https://lutris.net/media/igdb/cover_big/wir6xi0dgayjro0mnw8b.jpg",
  "platforms": [],
  "provider_games": [
    {
      "name": "Shinseiki Odysselya II",
      "slug": "shinseiki-odysselya-ii",
      "service": "igdb"
    }
  ],
  "aliases": [],
  "shaders": [],
  "discord_id": "",
  "change_for": null
}