{
  "id": 160484,
  "name": "Merry Gear Solid 2: Ghosts of Christmas Past",
  "slug": "merry-gear-solid-2-ghosts-of-christmas-past",
  "year": 2009,
  "banner_url": "",
  "icon_url": "",
  "coverart": "https://lutris.net/media/igdb/cover_big/co3z6h.jpg",
  "platforms": [
    {
      "name": "Windows"
    }
  ],
  "provider_games": [
    {
      "name": "Merry Gear Solid 2: Ghosts of Christmas Past",
      "slug": "merry-gear-solid-2-ghosts-of-christmas-past",
      "service": "igdb"
    }
  ],
  "aliases": [],
  "shaders": [],
  "discord_id": "",
  "change_for": null
}