{
  "id": 1099,
  "game_id": 3475,
  "game_slug": "shadowrun-dragonfall-directors-cut",
  "name": "Shadowrun: Dragonfall - Director's Cut",
  "year": 2014,
  "user": "Xodetaetl",
  "runner": "linux",
  "slug": "shadowrun-dragonfall-director-gog",
  "version": "GOG",
  "description": "",
  "notes": "Requires the latest version of GOG's Linux installer.",
  "credits": "",
  "created_at": "2014-11-17T15:03:30.012000Z",
  "updated_at": "2021-12-24T01:25:13.960882Z",
  "draft": false,
  "published": true,
  "published_by": 64834,
  "rating": "",
  "is_playable": null,
  "steamid": 300550,
  "gogid": 1207660913,
  "gogslug": "shadowrun_trilogy",
  "humbleid": "shadowrun_dragonfall_dc",
  "humblestoreid": "shadowrun_dragonfall_dc",
  "humblestoreid_real": "shadowrun-dragonfall-directors-cut",
  "script": {
    "files": [
      {
        "goginstaller": "N/A:Please select the GOG.com Linux installer"
      }
    ],
    "game": {
      "exe": "start.sh"
    },
    "installer": [
      {
        "extract": {
          "dst": "$CACHE/GOG",
          "file": "goginstaller",
          "format": "zip"
        }
      },
      {
        "merge": {
          "dst": "$GAMEDIR",
          "src": "$CACHE/GOG/data/noarch/"
        }
      }
    ]
  },
  "content": "files:\n- goginstaller: N/A:Please select the GOG.com Linux installer\ngame:\n  exe: start.sh\ninstaller:\n- extract:\n    dst: $CACHE/GOG\n    file: goginstaller\n    format: zip\n- merge:\n    dst: $GAMEDIR\n    src: $CACHE/GOG/data/noarch/\n",
  "discord_id": ""
}