{
  "id": 80581,
  "name": "3D Invaders",
  "slug": "3d-invaders",
  "year": null,
  "banner_url": "",
  "icon_url": "",
  "coverart": null,
  "platforms": [
    {
      "name": "Amstrad CPC"
    }
  ],
  "provider_games": [
    {
      "name": "3D Invaders",
      "slug": "3d-invaders",
      "service": "igdb"
    }
  ],
  "aliases": [],
  "shaders": [],
  "discord_id": "",
  "change_for": null
}