{
  "id": 29444,
  "name": "Theory of Fear",
  "slug": "theory-of-fear",
  "year": 2017,
  "banner_url": "https://lutris.net/games/banner/theory-of-fear.jpg",
  "icon_url": "https://lutris.net/games/icon/theory-of-fear.png",
  "coverart": null,
  "platforms": [
    {
      "name": "Windows"
    }
  ],
  "provider_games": [
    {
      "name": "Theory of Fear",
      "slug": "605180",
      "service": "steam"
    },
    {
      "name": "Theory of Fear",
      "slug": "theory-of-fear",
      "service": "igdb"
    }
  ],
  "aliases": [],
  "shaders": [],
  "discord_id": "",
  "change_for": null
}