{
  "id": 89315,
  "name": "Word Charm",
  "slug": "word-charm",
  "year": 2017,
  "banner_url": "",
  "icon_url": "",
  "coverart": "https://lutris.net/media/igdb/cover_big/eyrnmlvuighg6q9klayq.jpg",
  "platforms": [],
  "provider_games": [
    {
      "name": "Word Charm",
      "slug": "word-charm",
      "service": "igdb"
    }
  ],
  "aliases": [],
  "shaders": [],
  "discord_id": "",
  "change_for": null
}