{
  "id": 91860,
  "name": "SpongeBob Marbles & Slides",
  "slug": "spongebob-marbles-and-slides",
  "year": 2010,
  "banner_url": "",
  "icon_url": "",
  "coverart": "https://lutris.net/media/igdb/cover_big/co1myc.jpg",
  "platforms": [
    {
      "name": "Android"
    }
  ],
  "provider_games": [
    {
      "name": "SpongeBob Marbles & Slides",
      "slug": "spongebob-marbles-and-slides",
      "service": "igdb"
    }
  ],
  "aliases": [],
  "shaders": [],
  "discord_id": "",
  "change_for": null
}