{
  "id": 232202,
  "name": "ForbiddenWord",
  "slug": "forbiddenword",
  "year": null,
  "banner_url": "",
  "icon_url": "",
  "coverart": "https://lutris.net/media/igdb/cover_big/co6alz.jpg",
  "platforms": [],
  "provider_games": [
    {
      "name": "ForbiddenWord",
      "slug": "forbiddenword",
      "service": "igdb"
    }
  ],
  "aliases": [],
  "shaders": [],
  "discord_id": "",
  "change_for": null
}