{
  "id": 183082,
  "name": "Draw No More",
  "slug": "draw-no-more",
  "year": null,
  "banner_url": "",
  "icon_url": "",
  "coverart": "https://lutris.net/media/igdb/cover_big/co6g7s.jpg",
  "platforms": [],
  "provider_games": [
    {
      "name": "Draw No More",
      "slug": "draw-no-more",
      "service": "igdb"
    }
  ],
  "aliases": [],
  "shaders": [],
  "discord_id": "",
  "change_for": null
}