{
  "id": 15521,
  "game_id": 29379,
  "game_slug": "elvira-mistress-of-the-dark",
  "name": "Elvira: Mistress of the Dark",
  "year": 1990,
  "user": "appoloin",
  "runner": "scummvm",
  "slug": "elvira-mistress-of-the-dark-ms-dos",
  "version": "MS-DOS",
  "description": null,
  "notes": "",
  "credits": "",
  "created_at": "2019-09-14T08:56:58.098486Z",
  "updated_at": "2023-01-11T07:39:33.416655Z",
  "draft": false,
  "published": true,
  "published_by": null,
  "rating": "",
  "is_playable": null,
  "steamid": null,
  "gogid": 1403214533,
  "gogslug": "elviras_horror_bundle",
  "humbleid": "",
  "humblestoreid": "",
  "humblestoreid_real": "",
  "script": {
    "files": [
      {
        "game": "N/A:Select the file Setup.exe"
      }
    ],
    "game": {
      "game_id": "elvira1",
      "path": "$GAMEDIR"
    },
    "installer": [
      {
        "write_file": {
          "content": "#!/bin/bash\nsrc=$1\ndst=$2\nsrc_path=$(echo \"$1\" | sed -r \"s/(.+)\\/.+/\\1/\")\nfind \"$src_path\" -type f \\( -iname \"*.MUS\" -o -iname \"*.SND\" -o -iname \"*.VGA\" -o -iname \"GAMEPC\" -o -iname \"ICON.DAT\" -o -iname \"INSTR.DAT\" -o -iname \"START\" -o -iname \"TABLES*\" -o -iname \"TBLLIST\" \\) -exec cp {} \"$dst\" \\;",
          "file": "$CACHE/selectcopy.sh"
        }
      },
      {
        "chmodx": "$CACHE/selectcopy.sh"
      },
      {
        "execute": {
          "args": "$game $GAMEDIR",
          "file": "$CACHE/selectcopy.sh"
        }
      }
    ]
  },
  "content": "files:\n- game: N/A:Select the file Setup.exe\ngame:\n  game_id: elvira1\n  path: $GAMEDIR\ninstaller:\n- write_file:\n    content: '#!/bin/bash\n\n      src=$1\n\n      dst=$2\n\n      src_path=$(echo \"$1\" | sed -r \"s/(.+)\\/.+/\\1/\")\n\n      find \"$src_path\" -type f \\( -iname \"*.MUS\" -o -iname \"*.SND\" -o -iname \"*.VGA\"\n      -o -iname \"GAMEPC\" -o -iname \"ICON.DAT\" -o -iname \"INSTR.DAT\" -o -iname \"START\"\n      -o -iname \"TABLES*\" -o -iname \"TBLLIST\" \\) -exec cp {} \"$dst\" \\;'\n    file: $CACHE/selectcopy.sh\n- chmodx: $CACHE/selectcopy.sh\n- execute:\n    args: $game $GAMEDIR\n    file: $CACHE/selectcopy.sh\n",
  "discord_id": ""
}