{
  "id": 58171,
  "name": "Keisan Game: Sansuu 4 Nen",
  "slug": "keisan-game-sansuu-4-nen",
  "year": 1986,
  "banner_url": "",
  "icon_url": "",
  "coverart": "https://lutris.net/media/igdb/cover_big/nian4h8hjggxptlazmvm.jpg",
  "platforms": [
    {
      "name": "NES"
    }
  ],
  "provider_games": [
    {
      "name": "Keisan Game: Sansuu 4-nen",
      "slug": "keisan-game-sansuu-4-nen",
      "service": "igdb"
    }
  ],
  "aliases": [],
  "shaders": [],
  "discord_id": "",
  "change_for": null
}