{
  "id": 247071,
  "name": "Freelancer Simulator",
  "slug": "freelancer-simulator",
  "year": null,
  "banner_url": "",
  "icon_url": "",
  "coverart": "https://lutris.net/media/igdb/cover_big/co6jec.jpg",
  "platforms": [],
  "provider_games": [
    {
      "name": "Freelancer Simulator",
      "slug": "freelancer-simulator",
      "service": "igdb"
    }
  ],
  "aliases": [],
  "shaders": [],
  "discord_id": "",
  "change_for": null
}