{
  "id": 193459,
  "name": "Hex Mahjong 3D",
  "slug": "hex-mahjong-3d",
  "year": 2014,
  "banner_url": "",
  "icon_url": "",
  "coverart": null,
  "platforms": [],
  "provider_games": [
    {
      "name": "Hex Mahjong 3D",
      "slug": "hex-mahjong-3d",
      "service": "igdb"
    }
  ],
  "aliases": [],
  "shaders": [],
  "discord_id": "",
  "change_for": null
}