{
  "id": 193563,
  "name": "Fear the Spotlight",
  "slug": "fear-the-spotlight",
  "year": null,
  "banner_url": "",
  "icon_url": "",
  "coverart": "https://lutris.net/media/igdb/cover_big/co4pd0.jpg",
  "platforms": [],
  "provider_games": [
    {
      "name": "Fear the Spotlight",
      "slug": "fear-the-spotlight",
      "service": "igdb"
    }
  ],
  "aliases": [],
  "shaders": [],
  "discord_id": "",
  "change_for": null
}