{
  "id": 533,
  "game_id": 2058,
  "game_slug": "myth-ii-soulblighter",
  "name": "Myth II: Soulblighter",
  "year": 1998,
  "user": "Xodetaetl",
  "runner": "wine",
  "slug": "myth-ii-soulblighter-hd-movies",
  "version": "HD movies",
  "description": "Replaces the original cutscenes with resampled 640x264 videos.",
  "notes": "",
  "credits": "",
  "created_at": "2014-08-10T16:33:08.899000Z",
  "updated_at": "2018-05-19T03:41:48.587725Z",
  "draft": false,
  "published": true,
  "published_by": null,
  "rating": "",
  "is_playable": null,
  "steamid": null,
  "gogid": null,
  "gogslug": "",
  "humbleid": "",
  "humblestoreid": "",
  "humblestoreid_real": "",
  "script": {
    "files": [
      {
        "file1": "http://ovocean.com/partage/lutris/myth2/quicktime_cutscenes.tar.gz"
      },
      {
        "file2": "http://ovocean.com/partage/lutris/myth2/quicktimeinstaller.exe"
      },
      {
        "file3": "http://ovocean.com/partage/lutris/myth2/quicktimeinstaller.ini"
      }
    ],
    "game": {
      "arch": "win32",
      "exe": "drive_c/Program Files/Myth II/Myth II.exe",
      "prefix": "$GAMEDIR"
    },
    "installer": [
      {
        "extract": {
          "dst": "$GAMEDIR/drive_c/Program Files/Myth II/cutscenes",
          "file": "file1"
        }
      },
      {
        "task": {
          "executable": "file2",
          "name": "wineexec",
          "prefix": "$GAMEDIR"
        }
      },
      {
        "task": {
          "args": "/im qttask.exe",
          "executable": "taskkill",
          "name": "wineexec",
          "prefix": "$GAMEDIR"
        }
      }
    ],
    "requires": "myth-ii-soulblighter-cd"
  },
  "content": "files:\n- file1: http://ovocean.com/partage/lutris/myth2/quicktime_cutscenes.tar.gz\n- file2: http://ovocean.com/partage/lutris/myth2/quicktimeinstaller.exe\n- file3: http://ovocean.com/partage/lutris/myth2/quicktimeinstaller.ini\ngame:\n  arch: win32\n  exe: drive_c/Program Files/Myth II/Myth II.exe\n  prefix: $GAMEDIR\ninstaller:\n- extract:\n    dst: $GAMEDIR/drive_c/Program Files/Myth II/cutscenes\n    file: file1\n- task:\n    executable: file2\n    name: wineexec\n    prefix: $GAMEDIR\n- task:\n    args: /im qttask.exe\n    executable: taskkill\n    name: wineexec\n    prefix: $GAMEDIR\nrequires: myth-ii-soulblighter-cd\n",
  "discord_id": ""
}