{
  "id": 123391,
  "name": "Du Lac & Fey: Dance of Death",
  "slug": "du-lac-and-fey-dance-of-death",
  "year": 2019,
  "banner_url": "",
  "icon_url": "",
  "coverart": "https://lutris.net/media/igdb/cover_big/co1jbr.jpg",
  "platforms": [
    {
      "name": "Windows"
    }
  ],
  "provider_games": [
    {
      "name": "Du Lac & Fey: Dance of Death",
      "slug": "du-lac-and-fey-dance-of-death",
      "service": "igdb"
    }
  ],
  "aliases": [],
  "shaders": [],
  "discord_id": "",
  "change_for": null
}