{
  "id": 56479,
  "name": "Pool Hall Pro",
  "slug": "pool-hall-pro",
  "year": 2009,
  "banner_url": "",
  "icon_url": "",
  "coverart": "https://lutris.net/media/igdb/cover_big/qkrkzemoodxvrsyeq5na.jpg",
  "platforms": [
    {
      "name": "Nintendo Wii"
    }
  ],
  "provider_games": [
    {
      "name": "Pool Hall Pro",
      "slug": "pool-hall-pro",
      "service": "igdb"
    }
  ],
  "aliases": [],
  "shaders": [],
  "discord_id": "",
  "change_for": null
}