{
  "id": 214249,
  "name": "Rat Cage",
  "slug": "rat-cage",
  "year": null,
  "banner_url": "",
  "icon_url": "",
  "coverart": "https://lutris.net/media/igdb/cover_big/co5t3n.jpg",
  "platforms": [],
  "provider_games": [
    {
      "name": "Rat Cage",
      "slug": "rat-cage",
      "service": "igdb"
    }
  ],
  "aliases": [],
  "shaders": [],
  "discord_id": "",
  "change_for": null
}