{
  "id": 86236,
  "name": "5 Realms of Cards",
  "slug": "5-realms-of-cards",
  "year": null,
  "banner_url": "",
  "icon_url": "",
  "coverart": "https://lutris.net/media/igdb/cover_big/co99yb.jpg",
  "platforms": [],
  "provider_games": [
    {
      "name": "5 Realms of Cards",
      "slug": "5-realms-of-cards",
      "service": "igdb"
    }
  ],
  "aliases": [],
  "shaders": [],
  "discord_id": "",
  "change_for": null
}