{
  "id": 295843,
  "name": "Sonic The Hedgehog 2D",
  "slug": "sonic-the-hedgehog-2d",
  "year": 2011,
  "banner_url": "",
  "icon_url": "",
  "coverart": "https://lutris.net/media/igdb/cover_big/co8soa.jpg",
  "platforms": [
    {
      "name": "Windows"
    }
  ],
  "provider_games": [
    {
      "name": "Sonic The Hedgehog 2D",
      "slug": "sonic-the-hedgehog-2d",
      "service": "igdb"
    }
  ],
  "aliases": [],
  "shaders": [],
  "discord_id": "",
  "change_for": null
}