{
  "id": 6493,
  "game_id": 2027,
  "game_slug": "zen-puzzle-garden",
  "name": "Zen Puzzle Garden",
  "year": 2003,
  "user": "fanotriel",
  "runner": "linux",
  "slug": "zen-puzzle-garden-demo",
  "version": "Demo",
  "description": null,
  "notes": "",
  "credits": "",
  "created_at": "2017-11-30T01:24:02.633560Z",
  "updated_at": "2024-04-03T05:34:14.011181Z",
  "draft": false,
  "published": true,
  "published_by": null,
  "rating": "",
  "is_playable": null,
  "steamid": null,
  "gogid": null,
  "gogslug": "",
  "humbleid": "zenpuzzlegarden",
  "humblestoreid": "zenpuzzlegarden",
  "humblestoreid_real": "zenpuzzlegarden",
  "script": {
    "files": [
      {
        "game": "http://www.lexaloffle.com/dl/demos/zen-puzzle-garden-demo_1.3_i386.tar.gz"
      }
    ],
    "game": {
      "exe": "zen"
    },
    "installer": [
      {
        "extract": {
          "dst": "$GAMEDIR",
          "file": "game"
        }
      }
    ]
  },
  "content": "files:\n- game: http://www.lexaloffle.com/dl/demos/zen-puzzle-garden-demo_1.3_i386.tar.gz\ngame:\n  exe: zen\ninstaller:\n- extract:\n    dst: $GAMEDIR\n    file: game\n",
  "discord_id": ""
}