{
  "id": 10589,
  "name": "Fantasy General",
  "slug": "fantasy-general",
  "year": 1996,
  "banner_url": "https://lutris.net/games/banner/fantasy-general.jpg",
  "icon_url": "",
  "coverart": "https://lutris.net/media/igdb/cover_big/co2jkd.jpg",
  "platforms": [
    {
      "name": "Linux"
    },
    {
      "name": "Windows"
    }
  ],
  "provider_games": [
    {
      "name": "Fantasy General",
      "slug": "1430136345",
      "service": "gog"
    },
    {
      "name": "Fantasy General",
      "slug": "fantasy-general",
      "service": "igdb"
    },
    {
      "name": "Fantasy General",
      "slug": "1741120",
      "service": "steam"
    }
  ],
  "aliases": [],
  "shaders": [],
  "discord_id": "",
  "change_for": null
}