{
  "id": 18239,
  "name": "Neckbeards: Basement Arena",
  "slug": "neckbeards-basement-arena",
  "year": 2017,
  "banner_url": "https://lutris.net/games/banner/neckbeards-basement-arena.jpg",
  "icon_url": "https://lutris.net/games/icon/neckbeards-basement-arena.png",
  "coverart": "https://lutris.net/media/igdb/cover_big/fqhp1a308mlk09ixduuv.jpg",
  "platforms": [
    {
      "name": "Linux"
    },
    {
      "name": "Windows"
    }
  ],
  "provider_games": [
    {
      "name": "Neckbeards: Basement Arena",
      "slug": "693380",
      "service": "steam"
    },
    {
      "name": "Neckbeards: Basement Arena",
      "slug": "neckbeards-basement-arena",
      "service": "igdb"
    }
  ],
  "aliases": [],
  "shaders": [],
  "discord_id": "",
  "change_for": null
}