{
  "id": 113214,
  "name": "Barbie: Vacation Adventure",
  "slug": "barbie-vacation-adventure",
  "year": 1994,
  "banner_url": "",
  "icon_url": "",
  "coverart": "https://lutris.net/media/igdb/cover_big/co25bn.jpg",
  "platforms": [
    {
      "name": "Sega Genesis / Mega Drive"
    },
    {
      "name": "Super Nintendo"
    }
  ],
  "provider_games": [
    {
      "name": "Barbie: Vacation Adventure",
      "slug": "barbie-vacation-adventure",
      "service": "igdb"
    }
  ],
  "aliases": [],
  "shaders": [],
  "discord_id": "",
  "change_for": null
}