{
  "id": 44147,
  "name": "Ancient Abyss",
  "slug": "ancient-abyss",
  "year": 2021,
  "banner_url": "https://lutris.net/games/banner/ancient-abyss.jpg",
  "icon_url": "https://lutris.net/games/icon/ancient-abyss.png",
  "coverart": "https://lutris.net/media/igdb/cover_big/co2noy.jpg",
  "platforms": [
    {
      "name": "Windows"
    }
  ],
  "provider_games": [
    {
      "name": "Ancient Abyss",
      "slug": "973450",
      "service": "steam"
    },
    {
      "name": "Ancient Abyss",
      "slug": "ancient-abyss",
      "service": "igdb"
    }
  ],
  "aliases": [],
  "shaders": [],
  "discord_id": "",
  "change_for": null
}