{
  "id": 106444,
  "name": "Wizard Card Game",
  "slug": "wizard-card-game",
  "year": null,
  "banner_url": "",
  "icon_url": "",
  "coverart": null,
  "platforms": [],
  "provider_games": [
    {
      "name": "Wizard Card Game",
      "slug": "wizard-card-game",
      "service": "igdb"
    }
  ],
  "aliases": [],
  "shaders": [],
  "discord_id": "",
  "change_for": null
}