{
  "id": 273025,
  "name": "The Social Engineer",
  "slug": "the-social-engineer",
  "year": null,
  "banner_url": "",
  "icon_url": "",
  "coverart": "https://lutris.net/media/igdb/cover_big/co7qv0.jpg",
  "platforms": [],
  "provider_games": [
    {
      "name": "The Social Engineer",
      "slug": "the-social-engineer",
      "service": "igdb"
    }
  ],
  "aliases": [],
  "shaders": [],
  "discord_id": "",
  "change_for": null
}