{
  "id": 35304,
  "name": "Plump Pop",
  "slug": "plump-pop",
  "year": 1987,
  "banner_url": "",
  "icon_url": "https://lutris.net/games/icon/plump-pop.png",
  "coverart": "https://lutris.net/media/igdb/cover_big/dqyllzfnnx4wczapqjlt.jpg",
  "platforms": [
    {
      "name": "Arcade"
    }
  ],
  "provider_games": [
    {
      "name": "Plump Pop",
      "slug": "plumppop",
      "service": "mame"
    },
    {
      "name": "Plump Pop",
      "slug": "plump-pop",
      "service": "igdb"
    }
  ],
  "aliases": [],
  "shaders": [],
  "discord_id": "",
  "change_for": null
}