{
  "id": 45894,
  "name": "Legend of Mir 3",
  "slug": "legend-of-mir-3",
  "year": 2005,
  "banner_url": "",
  "icon_url": "",
  "coverart": "https://lutris.net/media/igdb/cover_big/xv2o380ijxwurycbgryz.jpg",
  "platforms": [
    {
      "name": "Windows"
    }
  ],
  "provider_games": [
    {
      "name": "Legend of Mir 3",
      "slug": "legend-of-mir-3",
      "service": "igdb"
    }
  ],
  "aliases": [],
  "shaders": [],
  "discord_id": "",
  "change_for": null
}