{
  "id": 21250,
  "name": "Evil",
  "slug": "evil",
  "year": 2017,
  "banner_url": "https://lutris.net/games/banner/evil.jpg",
  "icon_url": "https://lutris.net/games/icon/evil.png",
  "coverart": "https://lutris.net/media/igdb/cover_big/co4nz9.jpg",
  "platforms": [
    {
      "name": "Windows"
    }
  ],
  "provider_games": [
    {
      "name": "Evil",
      "slug": "594640",
      "service": "steam"
    },
    {
      "name": "Evil",
      "slug": "evil",
      "service": "igdb"
    }
  ],
  "aliases": [],
  "shaders": [],
  "discord_id": "",
  "change_for": null
}