{
  "id": 184706,
  "name": "INFINIROOM",
  "slug": "infiniroom",
  "year": null,
  "banner_url": "",
  "icon_url": "",
  "coverart": "https://lutris.net/media/igdb/cover_big/co81g6.jpg",
  "platforms": [],
  "provider_games": [
    {
      "name": "Infiniroom",
      "slug": "infiniroom",
      "service": "igdb"
    }
  ],
  "aliases": [],
  "shaders": [],
  "discord_id": "",
  "change_for": null
}