{
  "id": 32129,
  "name": "Exile III: Ruined World",
  "slug": "exile-iii-ruined-world",
  "year": 1996,
  "banner_url": "https://lutris.net/games/banner/exile-iii-ruined-world.jpg",
  "icon_url": "",
  "coverart": "https://lutris.net/media/igdb/cover_big/pvoghqsa3hdbwvdzunlo.jpg",
  "platforms": [
    {
      "name": "Linux"
    },
    {
      "name": "Mac"
    },
    {
      "name": "Windows"
    }
  ],
  "provider_games": [
    {
      "name": "Exile III: Ruined World",
      "slug": "exile-iii-ruined-world",
      "service": "igdb"
    }
  ],
  "aliases": [],
  "shaders": [],
  "discord_id": "",
  "change_for": null
}