{
  "id": 299674,
  "name": "House of Horror: 7 Psychos",
  "slug": "house-of-horror-7-psychos",
  "year": 2024,
  "banner_url": "",
  "icon_url": "",
  "coverart": "https://lutris.net/media/igdb/cover_big/co8yxx.jpg",
  "platforms": [
    {
      "name": "Nintendo Switch"
    }
  ],
  "provider_games": [
    {
      "name": "House of Horror: 7 Psychos",
      "slug": "house-of-horror-7-psychos",
      "service": "igdb"
    }
  ],
  "aliases": [],
  "shaders": [],
  "discord_id": "",
  "change_for": null
}