{
  "id": 21229,
  "name": "The Golden Scallop",
  "slug": "the-golden-scallop",
  "year": null,
  "banner_url": "https://lutris.net/games/banner/the-golden-scallop.jpg",
  "icon_url": "https://lutris.net/games/icon/the-golden-scallop.png",
  "coverart": null,
  "platforms": [],
  "provider_games": [
    {
      "name": "The Golden Scallop",
      "slug": "382770",
      "service": "steam"
    }
  ],
  "aliases": [],
  "shaders": [],
  "discord_id": "",
  "change_for": null
}