{
  "id": 299643,
  "name": "Matematyka Dodawanie i odejmowanie",
  "slug": "matematyka-dodawanie-i-odejmowanie",
  "year": null,
  "banner_url": "",
  "icon_url": "",
  "coverart": "https://lutris.net/media/igdb/cover_big/co8vvm.jpg",
  "platforms": [
    {
      "name": "Windows"
    }
  ],
  "provider_games": [
    {
      "name": "Matematyka Dodawanie i odejmowanie",
      "slug": "matematyka-dodawanie-i-odejmowanie",
      "service": "igdb"
    }
  ],
  "aliases": [],
  "shaders": [],
  "discord_id": "",
  "change_for": null
}