{
  "id": 283832,
  "name": "Golden Apple",
  "slug": "golden-apple",
  "year": 1983,
  "banner_url": "",
  "icon_url": "",
  "coverart": "https://lutris.net/media/igdb/cover_big/co8479.jpg",
  "platforms": [
    {
      "name": "ZX Spectrum"
    }
  ],
  "provider_games": [
    {
      "name": "Golden Apple",
      "slug": "golden-apple",
      "service": "igdb"
    }
  ],
  "aliases": [],
  "shaders": [],
  "discord_id": "",
  "change_for": null
}