{
  "id": 115496,
  "name": "Stronghold Crusader 2: Special Edition",
  "slug": "stronghold-crusader-2-special-edition",
  "year": null,
  "banner_url": "",
  "icon_url": "",
  "coverart": null,
  "platforms": [],
  "provider_games": [
    {
      "name": "Stronghold Crusader 2: Special Edition",
      "slug": "stronghold-crusader-2-special-edition",
      "service": "igdb"
    }
  ],
  "aliases": [],
  "shaders": [],
  "discord_id": "",
  "change_for": null
}