{
  "id": 276929,
  "name": "Dangerous Galaxy",
  "slug": "dangerous-galaxy",
  "year": null,
  "banner_url": "",
  "icon_url": "",
  "coverart": "https://lutris.net/media/igdb/cover_big/co7wor.jpg",
  "platforms": [],
  "provider_games": [
    {
      "name": "Dangerous Galaxy",
      "slug": "dangerous-galaxy",
      "service": "igdb"
    }
  ],
  "aliases": [],
  "shaders": [],
  "discord_id": "",
  "change_for": null
}