{
  "id": 8613,
  "name": "LuckCatchers",
  "slug": "luckcatchers",
  "year": 2016,
  "banner_url": "https://lutris.net/games/banner/luckcatchers.jpg",
  "icon_url": "https://lutris.net/games/icon/luckcatchers.png",
  "coverart": "https://lutris.net/media/igdb/cover_big/ptsujn6k7sz6jreqbwti.jpg",
  "platforms": [
    {
      "name": "Windows"
    }
  ],
  "provider_games": [
    {
      "name": "LuckCatchers",
      "slug": "454540",
      "service": "steam"
    },
    {
      "name": "LuckCatchers",
      "slug": "luckcatchers",
      "service": "igdb"
    }
  ],
  "aliases": [],
  "shaders": [],
  "discord_id": "",
  "change_for": null
}