{
  "id": 4059,
  "name": "Performous",
  "slug": "performous",
  "year": 2007,
  "banner_url": "https://lutris.net/games/banner/performous.jpg",
  "icon_url": "",
  "coverart": "https://lutris.net/media/igdb/cover_big/ovzwmlt8hqru5hheffy5.jpg",
  "platforms": [
    {
      "name": "Linux"
    },
    {
      "name": "Windows"
    }
  ],
  "provider_games": [
    {
      "name": "Performous",
      "slug": "performous",
      "service": "igdb"
    }
  ],
  "aliases": [],
  "shaders": [],
  "discord_id": "",
  "change_for": null
}