{
  "id": 136198,
  "name": "Dream Of Salmon",
  "slug": "dream-of-salmon",
  "year": null,
  "banner_url": "",
  "icon_url": "",
  "coverart": "https://lutris.net/media/igdb/cover_big/co3oyk.jpg",
  "platforms": [],
  "provider_games": [
    {
      "name": "Dream of Salmon",
      "slug": "dream-of-salmon",
      "service": "igdb"
    }
  ],
  "aliases": [],
  "shaders": [],
  "discord_id": "",
  "change_for": null
}