{
  "id": 256574,
  "name": "Polygon Race",
  "slug": "polygon-race",
  "year": null,
  "banner_url": "",
  "icon_url": "",
  "coverart": "https://lutris.net/media/igdb/cover_big/co6zb9.jpg",
  "platforms": [],
  "provider_games": [
    {
      "name": "Polygon Race",
      "slug": "polygon-race",
      "service": "igdb"
    }
  ],
  "aliases": [],
  "shaders": [],
  "discord_id": "",
  "change_for": null
}