{
  "id": 225195,
  "name": "Space Penguins",
  "slug": "space-penguins",
  "year": null,
  "banner_url": "",
  "icon_url": "",
  "coverart": "https://lutris.net/media/igdb/cover_big/co4s9o.jpg",
  "platforms": [],
  "provider_games": [
    {
      "name": "Space Penguins",
      "slug": "space-penguins",
      "service": "igdb"
    }
  ],
  "aliases": [],
  "shaders": [],
  "discord_id": "",
  "change_for": null
}