{
  "id": 146106,
  "name": "Arctic",
  "slug": "arctic",
  "year": 1989,
  "banner_url": "",
  "icon_url": "",
  "coverart": "https://lutris.net/media/igdb/cover_big/zq3hwn8rflhuvcg7tudq.jpg",
  "platforms": [
    {
      "name": "Family Computer"
    },
    {
      "name": "MSX"
    }
  ],
  "provider_games": [
    {
      "name": "Arctic",
      "slug": "arctic",
      "service": "igdb"
    }
  ],
  "aliases": [],
  "shaders": [],
  "discord_id": "",
  "change_for": null
}