{
  "id": 56225,
  "name": "Sanrio Puro Land All-Characters",
  "slug": "sanrio-puro-land-all-characters",
  "year": 2003,
  "banner_url": "",
  "icon_url": "",
  "coverart": null,
  "platforms": [
    {
      "name": "Nintendo Game Boy Advance"
    }
  ],
  "provider_games": [
    {
      "name": "Sanrio Puro Land All-Characters",
      "slug": "sanrio-puro-land-all-characters",
      "service": "igdb"
    }
  ],
  "aliases": [],
  "shaders": [],
  "discord_id": "",
  "change_for": null
}