{
  "id": 288490,
  "name": "Gundam Breaker 4: Ultimate Edition",
  "slug": "gundam-breaker-4-ultimate-edition",
  "year": 2024,
  "banner_url": "",
  "icon_url": "",
  "coverart": "https://lutris.net/media/igdb/cover_big/co8qgw.jpg",
  "platforms": [
    {
      "name": "Nintendo Switch"
    }
  ],
  "provider_games": [
    {
      "name": "Gundam Breaker 4: Ultimate Edition",
      "slug": "gundam-breaker-4-ultimate-edition",
      "service": "igdb"
    }
  ],
  "aliases": [],
  "shaders": [],
  "discord_id": "",
  "change_for": null
}