{
  "id": 140351,
  "name": "Alien Destroyer",
  "slug": "alien-destroyer",
  "year": null,
  "banner_url": "",
  "icon_url": "",
  "coverart": "https://lutris.net/media/igdb/cover_big/ehiun6lthyan1na7pbzo.jpg",
  "platforms": [
    {
      "name": "ZX Spectrum"
    }
  ],
  "provider_games": [
    {
      "name": "Alien Destroyer",
      "slug": "alien-destroyer",
      "service": "igdb"
    }
  ],
  "aliases": [],
  "shaders": [],
  "discord_id": "",
  "change_for": null
}