{
  "id": 21466,
  "name": "The House in Fata Morgana: A Requiem for Innocence",
  "slug": "the-house-in-fata-morgana-a-requiem-for-innocence",
  "year": 2018,
  "banner_url": "https://lutris.net/games/banner/the-house-in-fata-morgana-a-requiem-for-innocence.jpg",
  "icon_url": "https://lutris.net/games/icon/the-house-in-fata-morgana-a-requiem-for-innocence.png",
  "coverart": "https://lutris.net/media/igdb/cover_big/co43un.jpg",
  "platforms": [
    {
      "name": "Windows"
    }
  ],
  "provider_games": [
    {
      "name": "The House in Fata Morgana: A Requiem for Innocence",
      "slug": "804700",
      "service": "steam"
    },
    {
      "name": "The House in Fata Morgana: A Requiem for Innocence",
      "slug": "the-house-in-fata-morgana-a-requiem-for-innocence",
      "service": "igdb"
    }
  ],
  "aliases": [],
  "shaders": [],
  "discord_id": "",
  "change_for": null
}