{
  "id": 248341,
  "name": "Star Trucker",
  "slug": "star-trucker",
  "year": 2024,
  "banner_url": "",
  "icon_url": "",
  "coverart": "https://lutris.net/media/igdb/cover_big/co6lv0.jpg",
  "platforms": [
    {
      "name": "Windows"
    }
  ],
  "provider_games": [
    {
      "name": "Star Trucker",
      "slug": "star-trucker",
      "service": "igdb"
    },
    {
      "name": "Star Trucker",
      "slug": "1179639449",
      "service": "gog"
    }
  ],
  "aliases": [],
  "shaders": [],
  "discord_id": "",
  "change_for": null
}