{
  "id": 73838,
  "name": "Soft de Hard na Monogatari 2",
  "slug": "soft-de-hard-na-monogatari-2",
  "year": null,
  "banner_url": "",
  "icon_url": "",
  "coverart": null,
  "platforms": [],
  "provider_games": [
    {
      "name": "Soft de Hard na Monogatari 2",
      "slug": "soft-de-hard-na-monogatari-2",
      "service": "igdb"
    }
  ],
  "aliases": [],
  "shaders": [],
  "discord_id": "",
  "change_for": null
}