{
  "id": 4541,
  "name": "Crest",
  "slug": "crest",
  "year": 2015,
  "banner_url": "https://lutris.net/games/banner/crest.jpg",
  "icon_url": "https://lutris.net/games/icon/crest.png",
  "coverart": "https://lutris.net/media/igdb/cover_big/co2e26.jpg",
  "platforms": [
    {
      "name": "Linux"
    },
    {
      "name": "Mac"
    },
    {
      "name": "Windows"
    }
  ],
  "provider_games": [
    {
      "name": "Crest",
      "slug": "341710",
      "service": "steam"
    },
    {
      "name": "Crest",
      "slug": "crest",
      "service": "igdb"
    }
  ],
  "aliases": [],
  "shaders": [],
  "discord_id": "",
  "change_for": null
}