{
  "id": 76460,
  "name": "Emergency Ambulance Simulator 2013",
  "slug": "emergency-ambulance-simulator-2013",
  "year": null,
  "banner_url": "",
  "icon_url": "",
  "coverart": null,
  "platforms": [],
  "provider_games": [
    {
      "name": "Emergency Ambulance Simulator 2013",
      "slug": "emergency-ambulance-simulator-2013",
      "service": "igdb"
    }
  ],
  "aliases": [],
  "shaders": [],
  "discord_id": "",
  "change_for": null
}