{
  "id": 139118,
  "name": "19:03 Ueno Hatsu Yakou Ressha",
  "slug": "19-03-ueno-hatsu-yakou-ressha",
  "year": null,
  "banner_url": "",
  "icon_url": "",
  "coverart": "https://lutris.net/media/igdb/cover_big/co3rgp.jpg",
  "platforms": [],
  "provider_games": [
    {
      "name": "19:03 Ueno Hatsu Yakou Ressha",
      "slug": "19-03-ueno-hatsu-yakou-ressha",
      "service": "igdb"
    }
  ],
  "aliases": [],
  "shaders": [],
  "discord_id": "",
  "change_for": null
}