{
  "id": 56515,
  "name": "Chrysler Classic Racing",
  "slug": "chrysler-classic-racing",
  "year": 2008,
  "banner_url": "",
  "icon_url": "",
  "coverart": "https://lutris.net/media/igdb/cover_big/bhiwwdyp4by2dtrrym1u.jpg",
  "platforms": [
    {
      "name": "Nintendo Wii"
    }
  ],
  "provider_games": [
    {
      "name": "Chrysler Classic Racing",
      "slug": "chrysler-classic-racing",
      "service": "igdb"
    }
  ],
  "aliases": [],
  "shaders": [],
  "discord_id": "",
  "change_for": null
}