{
  "id": 33124,
  "name": "Stigmatized Property | 事故物件",
  "slug": "stigmatized-property",
  "year": 2019,
  "banner_url": "https://lutris.net/games/banner/stigmatized-property.jpg",
  "icon_url": "https://lutris.net/games/icon/stigmatized-property.png",
  "coverart": null,
  "platforms": [
    {
      "name": "Windows"
    }
  ],
  "provider_games": [
    {
      "name": "Stigmatized Property | 事故物件",
      "slug": "1162680",
      "service": "steam"
    },
    {
      "name": "Stigmatized Property",
      "slug": "stigmatized-property",
      "service": "igdb"
    }
  ],
  "aliases": [],
  "shaders": [],
  "discord_id": "",
  "change_for": null
}