{
  "id": 171091,
  "name": "Pumpkin Farmer",
  "slug": "pumpkin-farmer",
  "year": null,
  "banner_url": "",
  "icon_url": "",
  "coverart": "https://lutris.net/media/igdb/cover_big/co476w.jpg",
  "platforms": [],
  "provider_games": [
    {
      "name": "Pumpkin Farmer",
      "slug": "pumpkin-farmer",
      "service": "igdb"
    }
  ],
  "aliases": [],
  "shaders": [],
  "discord_id": "",
  "change_for": null
}