{
  "id": 215281,
  "name": "She's Got a Thing for a Spring",
  "slug": "shes-got-a-thing-for-a-spring",
  "year": 1997,
  "banner_url": "",
  "icon_url": "",
  "coverart": "https://lutris.net/media/igdb/cover_big/co84g6.jpg",
  "platforms": [
    {
      "name": "Browser"
    },
    {
      "name": "Linux"
    },
    {
      "name": "Mac"
    },
    {
      "name": "Windows"
    }
  ],
  "provider_games": [
    {
      "name": "She's Got a Thing for a Spring",
      "slug": "shes-got-a-thing-for-a-spring",
      "service": "igdb"
    }
  ],
  "aliases": [],
  "shaders": [],
  "discord_id": "",
  "change_for": null
}