{
  "id": 100663,
  "name": "Edaqa's Room: Prototype",
  "slug": "edaqas-room-prototype",
  "year": 2020,
  "banner_url": "",
  "icon_url": "",
  "coverart": "https://lutris.net/media/igdb/cover_big/co2exi.jpg",
  "platforms": [
    {
      "name": "Browser"
    }
  ],
  "provider_games": [
    {
      "name": "Edaqa's Room: Prototype",
      "slug": "edaqas-room-prototype",
      "service": "igdb"
    }
  ],
  "aliases": [],
  "shaders": [],
  "discord_id": "",
  "change_for": null
}