{
  "id": 164174,
  "name": "Simple Fear",
  "slug": "simple-fear",
  "year": null,
  "banner_url": "",
  "icon_url": "",
  "coverart": "https://lutris.net/media/igdb/cover_big/co414o.jpg",
  "platforms": [],
  "provider_games": [
    {
      "name": "Simple Fear",
      "slug": "simple-fear",
      "service": "igdb"
    }
  ],
  "aliases": [],
  "shaders": [],
  "discord_id": "",
  "change_for": null
}