{
  "id": 124628,
  "name": "VR Audio Visualizer",
  "slug": "vr-audio-visualizer",
  "year": 2017,
  "banner_url": "https://lutris.net/games/banner/vr-audio-visualizer.jpg",
  "icon_url": "",
  "coverart": null,
  "platforms": [
    {
      "name": "Windows"
    }
  ],
  "provider_games": [
    {
      "name": "VR Audio Visualizer",
      "slug": "601760",
      "service": "steam"
    },
    {
      "name": "VR Audio Visualizer",
      "slug": "vr-audio-visualizer",
      "service": "igdb"
    }
  ],
  "aliases": [],
  "shaders": [],
  "discord_id": "",
  "change_for": null
}