{
  "id": 283587,
  "name": "Parabator 3 - Rush of the Wind",
  "slug": "parabator-3-rush-of-the-wind",
  "year": 2024,
  "banner_url": "https://lutris.net/games/banner/parabator-3-rush-of-the-wind.jpg",
  "icon_url": "",
  "coverart": null,
  "platforms": [
    {
      "name": "Linux"
    },
    {
      "name": "Windows"
    }
  ],
  "provider_games": [],
  "aliases": [],
  "shaders": [],
  "discord_id": "",
  "change_for": null
}