{
  "id": 303574,
  "name": "House of Souls",
  "slug": "house-of-souls",
  "year": null,
  "banner_url": "",
  "icon_url": "",
  "coverart": "https://lutris.net/media/igdb/cover_big/co96jj.jpg",
  "platforms": [],
  "provider_games": [
    {
      "name": "House of Souls",
      "slug": "house-of-souls",
      "service": "igdb"
    }
  ],
  "aliases": [],
  "shaders": [],
  "discord_id": "",
  "change_for": null
}