{
  "id": 68710,
  "name": "DOVEZ",
  "slug": "dovez",
  "year": null,
  "banner_url": "",
  "icon_url": "",
  "coverart": "https://lutris.net/media/igdb/cover_big/avqqlo5hiyi50urphun9.jpg",
  "platforms": [],
  "provider_games": [
    {
      "name": "Dovez",
      "slug": "dovez",
      "service": "igdb"
    }
  ],
  "aliases": [],
  "shaders": [],
  "discord_id": "",
  "change_for": null
}