{
  "id": 196022,
  "name": "Climb! A Mountain in Your Pocket",
  "slug": "climb-a-mountain-in-your-pocket",
  "year": 2017,
  "banner_url": "",
  "icon_url": "",
  "coverart": "https://lutris.net/media/igdb/cover_big/co6g6y.jpg",
  "platforms": [],
  "provider_games": [
    {
      "name": "Climb! A Mountain in Your Pocket",
      "slug": "climb-a-mountain-in-your-pocket",
      "service": "igdb"
    }
  ],
  "aliases": [],
  "shaders": [],
  "discord_id": "",
  "change_for": null
}