{
  "id": 145790,
  "name": "Harvest Moon: Light of Hope - Complete Special Edition",
  "slug": "harvest-moon-light-of-hope-complete-special-edition",
  "year": null,
  "banner_url": "",
  "icon_url": "",
  "coverart": "https://lutris.net/media/igdb/cover_big/co4dwi.jpg",
  "platforms": [],
  "provider_games": [
    {
      "name": "Harvest Moon: Light of Hope - Complete Special Edition",
      "slug": "harvest-moon-light-of-hope-complete-special-edition",
      "service": "igdb"
    }
  ],
  "aliases": [],
  "shaders": [],
  "discord_id": "",
  "change_for": null
}