{
  "id": 77432,
  "name": "ESPN NFL Football",
  "slug": "espn-nfl-football",
  "year": 2003,
  "banner_url": "",
  "icon_url": "",
  "coverart": "https://lutris.net/media/igdb/cover_big/xwaqrvsmjdqeflcrnicf.jpg",
  "platforms": [
    {
      "name": "Sony PlayStation 2"
    }
  ],
  "provider_games": [
    {
      "name": "ESPN NFL Football",
      "slug": "espn-nfl-football",
      "service": "igdb"
    }
  ],
  "aliases": [],
  "shaders": [],
  "discord_id": "",
  "change_for": null
}