{
  "id": 60223,
  "name": "Huygen's Disclosure",
  "slug": "huygens-disclosure",
  "year": 1996,
  "banner_url": "",
  "icon_url": "",
  "coverart": "https://lutris.net/media/igdb/cover_big/co1kdw.jpg",
  "platforms": [
    {
      "name": "Windows"
    }
  ],
  "provider_games": [
    {
      "name": "Huygen's Disclosure",
      "slug": "huygens-disclosure",
      "service": "igdb"
    }
  ],
  "aliases": [],
  "shaders": [],
  "discord_id": "",
  "change_for": null
}