{
  "id": 86346,
  "name": "Crelo Kingdom",
  "slug": "crelo-kingdom",
  "year": null,
  "banner_url": "",
  "icon_url": "",
  "coverart": null,
  "platforms": [],
  "provider_games": [
    {
      "name": "Crelo Kingdom",
      "slug": "crelo-kingdom",
      "service": "igdb"
    }
  ],
  "aliases": [],
  "shaders": [],
  "discord_id": "",
  "change_for": null
}