{
  "id": 2977,
  "name": "Rebuild: Gangs of Deadsville",
  "slug": "rebuild-gangs-of-deadsville",
  "year": null,
  "banner_url": "https://lutris.net/games/banner/rebuild-gangs-of-deadsville.jpg",
  "icon_url": "https://lutris.net/games/icon/rebuild-gangs-of-deadsville.png",
  "coverart": "https://lutris.net/media/igdb/cover_big/ffq3slnqk9owzf84bd0i.jpg",
  "platforms": [],
  "provider_games": [
    {
      "name": "Rebuild 3: Gangs of Deadsville",
      "slug": "257170",
      "service": "steam"
    },
    {
      "name": "Rebuild: Gangs of Deadsville",
      "slug": "rebuild-gangs-of-deadsville",
      "service": "igdb"
    }
  ],
  "aliases": [],
  "shaders": [],
  "discord_id": "",
  "change_for": null
}