{
  "id": 8465,
  "name": "Angeldust",
  "slug": "angeldust",
  "year": 2019,
  "banner_url": "https://lutris.net/games/banner/angeldust.jpg",
  "icon_url": "https://lutris.net/games/icon/angeldust.png",
  "coverart": "https://lutris.net/media/igdb/cover_big/co1v91.jpg",
  "platforms": [
    {
      "name": "Android"
    },
    {
      "name": "Linux"
    },
    {
      "name": "Mac"
    },
    {
      "name": "Windows"
    }
  ],
  "provider_games": [
    {
      "name": "Angeldust",
      "slug": "488440",
      "service": "steam"
    },
    {
      "name": "Angeldust",
      "slug": "angeldust",
      "service": "igdb"
    }
  ],
  "aliases": [],
  "shaders": [],
  "discord_id": "",
  "change_for": null
}