{
  "id": 73324,
  "name": "Air Attack Pack",
  "slug": "air-attack-pack",
  "year": null,
  "banner_url": "",
  "icon_url": "",
  "coverart": null,
  "platforms": [],
  "provider_games": [
    {
      "name": "Air Attack Pack",
      "slug": "air-attack-pack",
      "service": "igdb"
    }
  ],
  "aliases": [],
  "shaders": [],
  "discord_id": "",
  "change_for": null
}