{
  "id": 220544,
  "name": "Magnaflux Runner",
  "slug": "magnaflux-runner",
  "year": 1994,
  "banner_url": "",
  "icon_url": "",
  "coverart": null,
  "platforms": [
    {
      "name": "Windows"
    }
  ],
  "provider_games": [
    {
      "name": "Magnaflux Runner",
      "slug": "magnaflux-runner",
      "service": "igdb"
    }
  ],
  "aliases": [],
  "shaders": [],
  "discord_id": "",
  "change_for": null
}