{
  "id": 35603,
  "game_id": 205300,
  "game_slug": "2tinycowboys",
  "name": "2tinycowboys",
  "year": 2022,
  "user": "vanstaveren",
  "runner": "steam",
  "slug": "2tinycowboys-steam",
  "version": "steam",
  "description": "",
  "notes": "",
  "credits": "",
  "created_at": "2022-10-06T19:22:56.709586Z",
  "updated_at": "2023-01-11T06:07:59.978084Z",
  "draft": false,
  "published": true,
  "published_by": null,
  "rating": "",
  "is_playable": null,
  "steamid": null,
  "gogid": null,
  "gogslug": "",
  "humbleid": "",
  "humblestoreid": "",
  "humblestoreid_real": "",
  "script": {
    "game": {
      "appid": 2133330
    }
  },
  "content": "game:\n  appid: 2133330\n",
  "discord_id": ""
}