{
  "id": 158192,
  "name": "Toy Balls HD",
  "slug": "toy-balls-hd",
  "year": 2013,
  "banner_url": "",
  "icon_url": "",
  "coverart": null,
  "platforms": [],
  "provider_games": [
    {
      "name": "Toy Balls HD",
      "slug": "toy-balls-hd",
      "service": "igdb"
    }
  ],
  "aliases": [],
  "shaders": [],
  "discord_id": "",
  "change_for": null
}