{
  "id": 112033,
  "name": "WCW vs. nWo: World Tour",
  "slug": "wcw-vs-nwo-world-tour",
  "year": 1997,
  "banner_url": "",
  "icon_url": "",
  "coverart": "https://lutris.net/media/igdb/cover_big/pfrm1ntdyf48l4puiwfb.jpg",
  "platforms": [
    {
      "name": "Nintendo 64"
    }
  ],
  "provider_games": [
    {
      "name": "WCW vs. nWo: World Tour",
      "slug": "wcw-vs-nwo-world-tour",
      "service": "igdb"
    }
  ],
  "aliases": [],
  "shaders": [],
  "discord_id": "",
  "change_for": null
}