{
  "id": 293446,
  "name": "Dakota Winchester's Adventures 2",
  "slug": "dakota-winchesters-adventures-2",
  "year": 2014,
  "banner_url": "",
  "icon_url": "",
  "coverart": "https://lutris.net/media/igdb/cover_big/co8krz.jpg",
  "platforms": [
    {
      "name": "Windows"
    }
  ],
  "provider_games": [
    {
      "name": "Dakota Winchester's Adventures 2",
      "slug": "dakota-winchesters-adventures-2",
      "service": "igdb"
    }
  ],
  "aliases": [],
  "shaders": [],
  "discord_id": "",
  "change_for": null
}