{
  "id": 51144,
  "name": "Babar: To The Rescue",
  "slug": "babar-to-the-rescue",
  "year": 2006,
  "banner_url": "",
  "icon_url": "",
  "coverart": "https://lutris.net/media/igdb/cover_big/updzfvuae7ga04zoym6z.jpg",
  "platforms": [
    {
      "name": "Nintendo Game Boy Advance"
    }
  ],
  "provider_games": [
    {
      "name": "Babar: To the Rescue",
      "slug": "babar-to-the-rescue",
      "service": "igdb"
    }
  ],
  "aliases": [],
  "shaders": [],
  "discord_id": "",
  "change_for": null
}