{
  "id": 164778,
  "name": "Smile To Fly",
  "slug": "smile-to-fly",
  "year": null,
  "banner_url": "",
  "icon_url": "",
  "coverart": "https://lutris.net/media/igdb/cover_big/co41oy.jpg",
  "platforms": [],
  "provider_games": [
    {
      "name": "Smile to Fly",
      "slug": "smile-to-fly",
      "service": "igdb"
    }
  ],
  "aliases": [],
  "shaders": [],
  "discord_id": "",
  "change_for": null
}