{
  "id": 87473,
  "name": "SWAT Elite Troops",
  "slug": "swat-elite-troops",
  "year": 2008,
  "banner_url": "",
  "icon_url": "",
  "coverart": "https://lutris.net/media/igdb/cover_big/o14oxfy0dct4k3gkh6qp.jpg",
  "platforms": [
    {
      "name": "Legacy Cellphone"
    }
  ],
  "provider_games": [
    {
      "name": "SWAT Elite Troops",
      "slug": "swat-elite-troops",
      "service": "igdb"
    }
  ],
  "aliases": [],
  "shaders": [],
  "discord_id": "",
  "change_for": null
}