{
  "id": 6213,
  "game_id": 1097,
  "game_slug": "zigfrak",
  "name": "Zigfrak",
  "year": 2013,
  "user": "FakeShemp",
  "runner": "linux",
  "slug": "zigfrak-157",
  "version": "1.5.7",
  "description": "",
  "notes": "",
  "credits": "",
  "created_at": "2017-11-01T17:58:40.982032Z",
  "updated_at": "2024-04-03T05:34:06.226606Z",
  "draft": false,
  "published": true,
  "published_by": null,
  "rating": "",
  "is_playable": null,
  "steamid": 259430,
  "gogid": null,
  "gogslug": "",
  "humbleid": "",
  "humblestoreid": "",
  "humblestoreid_real": "",
  "script": {
    "files": [
      {
        "file1": "http://zigfrak.com/download/linux/Zigfrak-Linux-r1_5_7.tar.gz"
      }
    ],
    "game": {
      "exe": "Zigfrak.x86_64"
    },
    "installer": [
      {
        "extract": {
          "file": "$file1"
        }
      }
    ]
  },
  "content": "files:\n- file1: http://zigfrak.com/download/linux/Zigfrak-Linux-r1_5_7.tar.gz\ngame:\n  exe: Zigfrak.x86_64\ninstaller:\n- extract:\n    file: $file1\n",
  "discord_id": ""
}