{
  "id": 246193,
  "name": "Big Sword Hero",
  "slug": "big-sword-hero",
  "year": null,
  "banner_url": "",
  "icon_url": "",
  "coverart": "https://lutris.net/media/igdb/cover_big/co6huj.jpg",
  "platforms": [],
  "provider_games": [
    {
      "name": "Big Sword Hero",
      "slug": "big-sword-hero",
      "service": "igdb"
    }
  ],
  "aliases": [],
  "shaders": [],
  "discord_id": "",
  "change_for": null
}