{
  "id": 175578,
  "name": "Command & Conquer: Red Alert 3 – Uprising",
  "slug": "command-conquer-red-alert-3-uprising",
  "year": 2009,
  "banner_url": "",
  "icon_url": "",
  "coverart": "https://lutris.net/media/igdb/cover_big/co2ps4.jpg",
  "platforms": [
    {
      "name": "Windows"
    }
  ],
  "provider_games": [
    {
      "name": "Command & Conquer: Red Alert 3 – Uprising",
      "slug": "command-conquer-red-alert-3-uprising",
      "service": "igdb"
    }
  ],
  "aliases": [],
  "shaders": [],
  "discord_id": "",
  "change_for": null
}