{
  "id": 240267,
  "name": "TabTab Apocalypse",
  "slug": "tabtab-apocalypse",
  "year": null,
  "banner_url": "",
  "icon_url": "",
  "coverart": null,
  "platforms": [],
  "provider_games": [
    {
      "name": "TabTab Apocalypse",
      "slug": "tabtab-apocalypse",
      "service": "igdb"
    }
  ],
  "aliases": [],
  "shaders": [],
  "discord_id": "",
  "change_for": null
}