{
  "id": 105724,
  "name": "I've Got A Brand New Pair Of Legs",
  "slug": "ive-got-a-brand-new-pair-of-legs",
  "year": 2020,
  "banner_url": "",
  "icon_url": "",
  "coverart": "https://lutris.net/media/igdb/cover_big/co2tdd.jpg",
  "platforms": [
    {
      "name": "Android"
    }
  ],
  "provider_games": [
    {
      "name": "I've Got a Brand New Pair of Legs",
      "slug": "ive-got-a-brand-new-pair-of-legs",
      "service": "igdb"
    }
  ],
  "aliases": [],
  "shaders": [],
  "discord_id": "",
  "change_for": null
}