{
  "id": 251013,
  "name": "American Eristics",
  "slug": "american-eristics",
  "year": null,
  "banner_url": "",
  "icon_url": "",
  "coverart": "https://lutris.net/media/igdb/cover_big/co6pqh.jpg",
  "platforms": [],
  "provider_games": [
    {
      "name": "American Eristics",
      "slug": "american-eristics",
      "service": "igdb"
    }
  ],
  "aliases": [],
  "shaders": [],
  "discord_id": "",
  "change_for": null
}