{
  "id": 157674,
  "name": "HIND: The Russian Combat Helicopter Simulation",
  "slug": "hind-the-russian-combat-helicopter-simulation",
  "year": 1996,
  "banner_url": "",
  "icon_url": "",
  "coverart": "https://lutris.net/media/igdb/cover_big/a56jkoxnqslctvlvvzxz.jpg",
  "platforms": [],
  "provider_games": [
    {
      "name": "747",
      "slug": "747",
      "service": "igdb"
    },
    {
      "name": "HIND: The Russian Combat Helicopter Simulation",
      "slug": "hind-the-russian-combat-helicopter-simulation",
      "service": "igdb"
    }
  ],
  "aliases": [],
  "shaders": [],
  "discord_id": "",
  "change_for": null
}