{
  "id": 150497,
  "name": "Its Fun To Break Things",
  "slug": "its-fun-to-break-things",
  "year": null,
  "banner_url": "",
  "icon_url": "",
  "coverart": null,
  "platforms": [],
  "provider_games": [
    {
      "name": "Its Fun to Break Things",
      "slug": "its-fun-to-break-things",
      "service": "igdb"
    }
  ],
  "aliases": [],
  "shaders": [],
  "discord_id": "",
  "change_for": null
}