{
  "id": 81507,
  "name": "X-Pipes Evolution",
  "slug": "x-pipes-evolution",
  "year": 2013,
  "banner_url": "",
  "icon_url": "",
  "coverart": "https://lutris.net/media/igdb/cover_big/dzwkudixrtly8kzmgnyf.jpg",
  "platforms": [
    {
      "name": "Mac"
    }
  ],
  "provider_games": [
    {
      "name": "X-Pipes Evolution",
      "slug": "x-pipes-evolution",
      "service": "igdb"
    }
  ],
  "aliases": [],
  "shaders": [],
  "discord_id": "",
  "change_for": null
}