{
  "id": 1397,
  "name": "EVE Online",
  "slug": "eve-online",
  "year": 2003,
  "banner_url": "https://lutris.net/games/banner/eve-online.jpg",
  "icon_url": "https://lutris.net/games/icon/eve-online.png",
  "coverart": "https://lutris.net/media/igdb/cover_big/co1mvq.jpg",
  "platforms": [
    {
      "name": "Mac"
    },
    {
      "name": "Windows"
    }
  ],
  "provider_games": [
    {
      "name": "EVE Online",
      "slug": "8500",
      "service": "steam"
    },
    {
      "name": "Eve Online",
      "slug": "eve-online",
      "service": "igdb"
    }
  ],
  "aliases": [],
  "shaders": [],
  "discord_id": "363413402300710912",
  "change_for": null
}