{
  "id": 279046,
  "name": "Master Blaster",
  "slug": "master-blaster--2",
  "year": null,
  "banner_url": "",
  "icon_url": "",
  "coverart": "https://lutris.net/media/igdb/cover_big/co7xn6.jpg",
  "platforms": [],
  "provider_games": [
    {
      "name": "Master Blaster",
      "slug": "master-blaster--2",
      "service": "igdb"
    }
  ],
  "aliases": [],
  "shaders": [],
  "discord_id": "",
  "change_for": null
}