{
  "id": 44383,
  "name": "Future Girls",
  "slug": "future-girls",
  "year": 2020,
  "banner_url": "https://lutris.net/games/banner/future-girls.jpg",
  "icon_url": "https://lutris.net/games/icon/future-girls.png",
  "coverart": "https://lutris.net/media/igdb/cover_big/co3zyn.jpg",
  "platforms": [
    {
      "name": "Windows"
    }
  ],
  "provider_games": [
    {
      "name": "Future Girls",
      "slug": "1160610",
      "service": "steam"
    },
    {
      "name": "Future Girls",
      "slug": "future-girls",
      "service": "igdb"
    }
  ],
  "aliases": [],
  "shaders": [],
  "discord_id": "",
  "change_for": null
}