{
  "id": 159097,
  "name": "Best of Arcade Games - Air Hockey",
  "slug": "best-of-arcade-games-air-hockey",
  "year": 2015,
  "banner_url": "",
  "icon_url": "",
  "coverart": "https://lutris.net/media/igdb/cover_big/borixsowtodjgaheggjx.jpg",
  "platforms": [
    {
      "name": "Nintendo 3DS"
    }
  ],
  "provider_games": [
    {
      "name": "Best of Arcade Games: Air Hockey",
      "slug": "best-of-arcade-games-air-hockey",
      "service": "igdb"
    }
  ],
  "aliases": [],
  "shaders": [],
  "discord_id": "",
  "change_for": null
}