{
  "id": 210615,
  "name": "Tokimeki Factory Vol.2",
  "slug": "tokimeki-factory-vol-dot-2",
  "year": 2005,
  "banner_url": "",
  "icon_url": "",
  "coverart": "https://lutris.net/media/igdb/cover_big/co5i7r.jpg",
  "platforms": [
    {
      "name": "Mac"
    },
    {
      "name": "Windows"
    }
  ],
  "provider_games": [
    {
      "name": "Tokimeki Factory Vol.2",
      "slug": "tokimeki-factory-vol-dot-2",
      "service": "igdb"
    }
  ],
  "aliases": [],
  "shaders": [],
  "discord_id": "",
  "change_for": null
}