{
  "id": 259369,
  "name": "Nyan Nyan Tower",
  "slug": "nyan-nyan-tower",
  "year": 2001,
  "banner_url": "",
  "icon_url": "",
  "coverart": null,
  "platforms": [
    {
      "name": "Windows"
    }
  ],
  "provider_games": [
    {
      "name": "Nyan Nyan Tower",
      "slug": "nyan-nyan-tower",
      "service": "igdb"
    }
  ],
  "aliases": [],
  "shaders": [],
  "discord_id": "",
  "change_for": null
}