{
  "id": 259830,
  "name": "Tomboy: Love in Hot Forge",
  "slug": "tomboy-love-in-hot-forge",
  "year": null,
  "banner_url": "",
  "icon_url": "",
  "coverart": "https://lutris.net/media/igdb/cover_big/co746v.jpg",
  "platforms": [],
  "provider_games": [
    {
      "name": "Tomboy: Love in Hot Forge",
      "slug": "tomboy-love-in-hot-forge",
      "service": "igdb"
    }
  ],
  "aliases": [],
  "shaders": [],
  "discord_id": "",
  "change_for": null
}