{
  "id": 170198,
  "name": "Tommy's Tragedy",
  "slug": "tommys-tragedy",
  "year": null,
  "banner_url": "",
  "icon_url": "",
  "coverart": "https://lutris.net/media/igdb/cover_big/co46fm.jpg",
  "platforms": [],
  "provider_games": [
    {
      "name": "Tommy's Tragedy",
      "slug": "tommys-tragedy",
      "service": "igdb"
    }
  ],
  "aliases": [],
  "shaders": [],
  "discord_id": "",
  "change_for": null
}