{
  "id": 281006,
  "name": "Queen Wanda",
  "slug": "queen-wanda",
  "year": null,
  "banner_url": "",
  "icon_url": "",
  "coverart": "https://lutris.net/media/igdb/cover_big/co7zfw.jpg",
  "platforms": [],
  "provider_games": [
    {
      "name": "Queen Wanda",
      "slug": "queen-wanda",
      "service": "igdb"
    }
  ],
  "aliases": [],
  "shaders": [],
  "discord_id": "",
  "change_for": null
}