{
  "id": 71288,
  "name": "Singer Izek",
  "slug": "singer-izek",
  "year": null,
  "banner_url": "",
  "icon_url": "",
  "coverart": null,
  "platforms": [],
  "provider_games": [
    {
      "name": "Singer Izek",
      "slug": "singer-izek",
      "service": "igdb"
    }
  ],
  "aliases": [],
  "shaders": [],
  "discord_id": "",
  "change_for": null
}