{
  "id": 182327,
  "name": "Kingdom: New Lands - Royal Edition",
  "slug": "kingdom-new-lands-royal-edition",
  "year": null,
  "banner_url": "",
  "icon_url": "",
  "coverart": "https://lutris.net/media/igdb/cover_big/co3cd0.jpg",
  "platforms": [],
  "provider_games": [
    {
      "name": "Kingdom: New Lands - Royal Edition",
      "slug": "kingdom-new-lands-royal-edition",
      "service": "igdb"
    }
  ],
  "aliases": [],
  "shaders": [],
  "discord_id": "",
  "change_for": null
}