{
  "id": 167229,
  "name": "The Invasion of Area 51",
  "slug": "the-invasion-of-area-51",
  "year": 2019,
  "banner_url": "",
  "icon_url": "",
  "coverart": "https://lutris.net/media/igdb/cover_big/co43vc.jpg",
  "platforms": [
    {
      "name": "Windows"
    }
  ],
  "provider_games": [
    {
      "name": "The Invasion of Area 51",
      "slug": "the-invasion-of-area-51",
      "service": "igdb"
    }
  ],
  "aliases": [],
  "shaders": [],
  "discord_id": "",
  "change_for": null
}