{
  "id": 82368,
  "name": "Dizzy Ball",
  "slug": "dizzy-ball",
  "year": 2016,
  "banner_url": "",
  "icon_url": "",
  "coverart": "https://lutris.net/media/igdb/cover_big/dbuvgsfmuqasqbyggfxn.jpg",
  "platforms": [
    {
      "name": "Android"
    }
  ],
  "provider_games": [
    {
      "name": "Dizzy Ball",
      "slug": "dizzy-ball",
      "service": "igdb"
    }
  ],
  "aliases": [],
  "shaders": [],
  "discord_id": "",
  "change_for": null
}