{
  "id": 281136,
  "name": "Dragon Island Adventure",
  "slug": "dragon-island-adventure",
  "year": null,
  "banner_url": "",
  "icon_url": "",
  "coverart": "https://lutris.net/media/igdb/cover_big/co7zn0.jpg",
  "platforms": [],
  "provider_games": [
    {
      "name": "Dragon Island Adventure",
      "slug": "dragon-island-adventure",
      "service": "igdb"
    }
  ],
  "aliases": [],
  "shaders": [],
  "discord_id": "",
  "change_for": null
}