{
  "id": 240092,
  "name": "Wizard Hentai Survivors",
  "slug": "wizard-hentai-survivors",
  "year": null,
  "banner_url": "",
  "icon_url": "",
  "coverart": "https://lutris.net/media/igdb/cover_big/co628k.jpg",
  "platforms": [],
  "provider_games": [
    {
      "name": "Wizard Hentai Survivors",
      "slug": "wizard-hentai-survivors",
      "service": "igdb"
    }
  ],
  "aliases": [],
  "shaders": [],
  "discord_id": "",
  "change_for": null
}