{
  "id": 247798,
  "name": "Destruct Blocks",
  "slug": "destruct-blocks",
  "year": null,
  "banner_url": "",
  "icon_url": "",
  "coverart": "https://lutris.net/media/igdb/cover_big/co6kw4.jpg",
  "platforms": [],
  "provider_games": [
    {
      "name": "Destruct Blocks",
      "slug": "destruct-blocks",
      "service": "igdb"
    }
  ],
  "aliases": [],
  "shaders": [],
  "discord_id": "",
  "change_for": null
}