{
  "id": 305534,
  "name": "Fat Boy Raids The Cookie Factory",
  "slug": "fat-boy-raids-the-cookie-factory",
  "year": 1997,
  "banner_url": "",
  "icon_url": "",
  "coverart": "https://lutris.net/media/igdb/cover_big/co9127.jpg",
  "platforms": [
    {
      "name": "Browser"
    }
  ],
  "provider_games": [
    {
      "name": "Fat Boy Raids The Cookie Factory",
      "slug": "fat-boy-raids-the-cookie-factory",
      "service": "igdb"
    }
  ],
  "aliases": [],
  "shaders": [],
  "discord_id": "",
  "change_for": null
}