{
  "id": 53960,
  "name": "Vector Vaders Remix",
  "slug": "vector-vaders-remix",
  "year": 1999,
  "banner_url": "",
  "icon_url": "",
  "coverart": "https://lutris.net/media/igdb/cover_big/v3bggxloxflwza9lmoza.jpg",
  "platforms": [
    {
      "name": "Vectrex"
    }
  ],
  "provider_games": [
    {
      "name": "Vector Vaders Remix",
      "slug": "vector-vaders-remix",
      "service": "igdb"
    }
  ],
  "aliases": [],
  "shaders": [],
  "discord_id": "",
  "change_for": null
}