{
  "id": 183500,
  "name": "WhiteRoom",
  "slug": "whiteroom",
  "year": null,
  "banner_url": "",
  "icon_url": "",
  "coverart": null,
  "platforms": [],
  "provider_games": [
    {
      "name": "WhiteRoom",
      "slug": "whiteroom",
      "service": "igdb"
    }
  ],
  "aliases": [],
  "shaders": [],
  "discord_id": "",
  "change_for": null
}