{
  "id": 106140,
  "name": "PC Fútbol",
  "slug": "pc-futbol",
  "year": 1993,
  "banner_url": "",
  "icon_url": "",
  "coverart": "https://lutris.net/media/igdb/cover_big/co2txo.jpg",
  "platforms": [],
  "provider_games": [
    {
      "name": "PC Fútbol",
      "slug": "pc-futbol",
      "service": "igdb"
    }
  ],
  "aliases": [],
  "shaders": [],
  "discord_id": "",
  "change_for": null
}