{
  "id": 176166,
  "name": "Ochige Designer Tsukutte Pon!",
  "slug": "ochige-designer-tsukutte-pon",
  "year": 1997,
  "banner_url": "",
  "icon_url": "",
  "coverart": "https://lutris.net/media/igdb/cover_big/co4968.jpg",
  "platforms": [
    {
      "name": "Sega Saturn"
    }
  ],
  "provider_games": [
    {
      "name": "Ochige Designer Tsukutte Pon!",
      "slug": "ochige-designer-tsukutte-pon",
      "service": "igdb"
    }
  ],
  "aliases": [],
  "shaders": [],
  "discord_id": "",
  "change_for": null
}