{
  "id": 56847,
  "name": "Daisenryaku Portable 2",
  "slug": "daisenryaku-portable-2",
  "year": null,
  "banner_url": "",
  "icon_url": "",
  "coverart": "https://lutris.net/media/igdb/cover_big/kesygwk2mhtt0kuawgdf.jpg",
  "platforms": [],
  "provider_games": [
    {
      "name": "Daisenryaku Portable 2",
      "slug": "daisenryaku-portable-2",
      "service": "igdb"
    }
  ],
  "aliases": [],
  "shaders": [],
  "discord_id": "",
  "change_for": null
}