{
  "id": 281398,
  "name": "Dream Mists",
  "slug": "dream-mists",
  "year": null,
  "banner_url": "",
  "icon_url": "",
  "coverart": "https://lutris.net/media/igdb/cover_big/co7z42.jpg",
  "platforms": [],
  "provider_games": [
    {
      "name": "Dream Mists",
      "slug": "dream-mists",
      "service": "igdb"
    }
  ],
  "aliases": [],
  "shaders": [],
  "discord_id": "",
  "change_for": null
}