{
  "id": 5055,
  "name": "Alter World",
  "slug": "alter-world",
  "year": 2015,
  "banner_url": "https://lutris.net/games/banner/alter-world.jpg",
  "icon_url": "https://lutris.net/games/icon/alter-world.png",
  "coverart": "https://lutris.net/media/igdb/cover_big/a7h80nshtesiibixsa3j.jpg",
  "platforms": [
    {
      "name": "Linux"
    },
    {
      "name": "Mac"
    },
    {
      "name": "New Nintendo 3DS"
    },
    {
      "name": "Nintendo 3DS"
    },
    {
      "name": "Windows"
    }
  ],
  "provider_games": [
    {
      "name": "Alter World",
      "slug": "357280",
      "service": "steam"
    },
    {
      "name": "Alter World",
      "slug": "alter-world",
      "service": "igdb"
    }
  ],
  "aliases": [],
  "shaders": [],
  "discord_id": "",
  "change_for": null
}