{
  "id": 1519,
  "game_id": 2962,
  "game_slug": "wakfu",
  "name": "WAKFU",
  "year": 2012,
  "user": "ERIIX",
  "runner": "linux",
  "slug": "wakfu-standalone-32-bit",
  "version": "Standalone 32-bit",
  "description": "Use Ankama account to login. Account does not need to be linked with Steam.  Content download will require an extended period of time on first run.",
  "notes": "",
  "credits": "",
  "created_at": "2015-04-30T02:09:30.115000Z",
  "updated_at": "2024-04-03T05:34:51.546835Z",
  "draft": false,
  "published": true,
  "published_by": null,
  "rating": "",
  "is_playable": null,
  "steamid": 215080,
  "gogid": null,
  "gogslug": "",
  "humbleid": "",
  "humblestoreid": "",
  "humblestoreid_real": "",
  "script": {
    "files": [
      {
        "main": {
          "filename": "wakfu-x86.tar.gz",
          "url": "http://download.wakfu.com/full/linux/"
        }
      }
    ],
    "game": {
      "exe": "Wakfu"
    },
    "installer": [
      {
        "extract": {
          "file": "main",
          "type": "tgz"
        }
      },
      {
        "chmodx": "$GAMEDIR/Wakfu"
      }
    ]
  },
  "content": "files:\n- main:\n    filename: wakfu-x86.tar.gz\n    url: http://download.wakfu.com/full/linux/\ngame:\n  exe: Wakfu\ninstaller:\n- extract:\n    file: main\n    type: tgz\n- chmodx: $GAMEDIR/Wakfu\n",
  "discord_id": "443155990414622730"
}