{
  "id": 23435,
  "name": "MaSzyna",
  "slug": "maszyna",
  "year": 2001,
  "banner_url": "https://lutris.net/games/banner/maszyna.jpg",
  "icon_url": "",
  "coverart": null,
  "platforms": [
    {
      "name": "Windows"
    }
  ],
  "provider_games": [
    {
      "name": "MaSzyna",
      "slug": "maszyna",
      "service": "igdb"
    }
  ],
  "aliases": [],
  "shaders": [],
  "discord_id": "",
  "change_for": null
}