{
  "id": 9146,
  "name": "Frog Fractions",
  "slug": "frog-fractions",
  "year": 2012,
  "banner_url": "https://lutris.net/games/banner/frog-fractions.jpg",
  "icon_url": "https://lutris.net/games/icon/frog-fractions.png",
  "coverart": "https://lutris.net/media/igdb/cover_big/co22hc.jpg",
  "platforms": [
    {
      "name": "Browser"
    }
  ],
  "provider_games": [
    {
      "name": "Frog Fractions",
      "slug": "frog-fractions",
      "service": "igdb"
    }
  ],
  "aliases": [],
  "shaders": [],
  "discord_id": "",
  "change_for": null
}