{
  "id": 198438,
  "name": "Yum Collector",
  "slug": "yum-collector",
  "year": null,
  "banner_url": "",
  "icon_url": "",
  "coverart": "https://lutris.net/media/igdb/cover_big/co4ip8.jpg",
  "platforms": [],
  "provider_games": [
    {
      "name": "Yum Collector",
      "slug": "yum-collector",
      "service": "igdb"
    }
  ],
  "aliases": [],
  "shaders": [],
  "discord_id": "",
  "change_for": null
}