{
  "id": 21089,
  "game_id": 37051,
  "game_slug": "myth-adventure-game",
  "name": "Myth (Adventure game)",
  "year": 1989,
  "user": "appoloin",
  "runner": "frotz",
  "slug": "myth-adventure-game-ms-dos",
  "version": "MS-DOS",
  "description": null,
  "notes": "",
  "credits": "",
  "created_at": "2020-05-31T10:18:17.299000Z",
  "updated_at": "2020-05-31T10:26:37.277304Z",
  "draft": false,
  "published": true,
  "published_by": 20548,
  "rating": "",
  "is_playable": null,
  "steamid": null,
  "gogid": null,
  "gogslug": "",
  "humbleid": "",
  "humblestoreid": "",
  "humblestoreid_real": "",
  "script": {
    "files": [
      {
        "game": "N/A:Select the MAG file"
      },
      {
        "game1": "N/A:Select the GXF file"
      }
    ],
    "game": {
      "story": "$GAMEDIR/Myth.mag"
    },
    "installer": [
      {
        "execute": {
          "args": "$game $GAMEDIR/Myth.mag",
          "file": "/bin/cp"
        }
      },
      {
        "execute": {
          "args": "$game1 $GAMEDIR/Myth.gfx",
          "file": "/bin/cp"
        }
      }
    ]
  },
  "content": "files:\n- game: N/A:Select the MAG file\n- game1: N/A:Select the GXF file\ngame:\n  story: $GAMEDIR/Myth.mag\ninstaller:\n- execute:\n    args: $game $GAMEDIR/Myth.mag\n    file: /bin/cp\n- execute:\n    args: $game1 $GAMEDIR/Myth.gfx\n    file: /bin/cp\n",
  "discord_id": ""
}