{
  "id": 181111,
  "name": "Show do Milhão Volume 3",
  "slug": "show-do-milhao-volume-3",
  "year": 2000,
  "banner_url": "",
  "icon_url": "",
  "coverart": "https://lutris.net/media/igdb/cover_big/co2884.jpg",
  "platforms": [
    {
      "name": "Windows"
    }
  ],
  "provider_games": [
    {
      "name": "Show do Milhão Volume 3",
      "slug": "show-do-milhao-volume-3",
      "service": "igdb"
    }
  ],
  "aliases": [],
  "shaders": [],
  "discord_id": "",
  "change_for": null
}