{
  "id": 9522,
  "name": "Fractasia VR",
  "slug": "fractasia-vr",
  "year": 2016,
  "banner_url": "https://lutris.net/games/banner/fractasia-vr.jpg",
  "icon_url": "https://lutris.net/games/icon/fractasia-vr.png",
  "coverart": null,
  "platforms": [
    {
      "name": "Windows"
    }
  ],
  "provider_games": [
    {
      "name": "Fractasia VR",
      "slug": "495450",
      "service": "steam"
    },
    {
      "name": "Fractasia VR",
      "slug": "fractasia-vr",
      "service": "igdb"
    }
  ],
  "aliases": [],
  "shaders": [],
  "discord_id": "",
  "change_for": null
}