{
  "id": 127014,
  "name": "Anguna: Scourge of the Goblin King",
  "slug": "anguna-scourge-of-the-goblin-king",
  "year": 2021,
  "banner_url": "",
  "icon_url": "",
  "coverart": "https://lutris.net/media/igdb/cover_big/co30vc.jpg",
  "platforms": [
    {
      "name": "NES"
    }
  ],
  "provider_games": [
    {
      "name": "Anguna: Scourge of the Goblin King",
      "slug": "anguna-scourge-of-the-goblin-king",
      "service": "igdb"
    }
  ],
  "aliases": [],
  "shaders": [],
  "discord_id": "",
  "change_for": null
}