{
  "id": 298628,
  "name": "Calvar: The Darkest Gate",
  "slug": "calvar-the-darkest-gate",
  "year": null,
  "banner_url": "",
  "icon_url": "",
  "coverart": null,
  "platforms": [
    {
      "name": "Windows"
    }
  ],
  "provider_games": [
    {
      "name": "Calvar: The Darkest Gate",
      "slug": "calvar-the-darkest-gate",
      "service": "igdb"
    }
  ],
  "aliases": [],
  "shaders": [],
  "discord_id": "",
  "change_for": null
}