{
  "id": 192531,
  "name": "Hotel Manager Simulator",
  "slug": "hotel-manager-simulator",
  "year": null,
  "banner_url": "",
  "icon_url": "",
  "coverart": "https://lutris.net/media/igdb/cover_big/co4poh.jpg",
  "platforms": [],
  "provider_games": [
    {
      "name": "Hotel Manager Simulator",
      "slug": "hotel-manager-simulator",
      "service": "igdb"
    }
  ],
  "aliases": [],
  "shaders": [],
  "discord_id": "",
  "change_for": null
}