{
  "id": 10646,
  "name": "RainBlood Chronicles: Mirage",
  "slug": "rainblood-chronicles-mirage",
  "year": null,
  "banner_url": "https://lutris.net/games/banner/rainblood-chronicles-mirage.jpg",
  "icon_url": "https://lutris.net/games/icon/rainblood-chronicles-mirage.png",
  "coverart": null,
  "platforms": [],
  "provider_games": [
    {
      "name": "RainBlood Chronicles: Mirage",
      "slug": "240660",
      "service": "steam"
    }
  ],
  "aliases": [],
  "shaders": [],
  "discord_id": "",
  "change_for": null
}