{
  "id": 100205,
  "name": "Isometric & Karate Exercise: Wii de Kotsuban Fitness",
  "slug": "isometric-and-karate-exercise-wii-de-kotsuban-fitness",
  "year": 2009,
  "banner_url": "",
  "icon_url": "",
  "coverart": "https://lutris.net/media/igdb/cover_big/co28ux.jpg",
  "platforms": [
    {
      "name": "Nintendo Wii"
    }
  ],
  "provider_games": [
    {
      "name": "Isometric & Karate Exercise: Wii de Kotsuban Fitness",
      "slug": "isometric-and-karate-exercise-wii-de-kotsuban-fitness",
      "service": "igdb"
    }
  ],
  "aliases": [],
  "shaders": [],
  "discord_id": "",
  "change_for": null
}