{
  "id": 210039,
  "name": "Gakuen Alice: Kira-kira Memory Kiss",
  "slug": "gakuen-alice-kira-kira-memory-kiss",
  "year": 2006,
  "banner_url": "",
  "icon_url": "",
  "coverart": "https://lutris.net/media/igdb/cover_big/co4v1x.jpg",
  "platforms": [
    {
      "name": "Sony PlayStation 2"
    }
  ],
  "provider_games": [
    {
      "name": "Gakuen Alice: Kira-kira Memory Kiss",
      "slug": "gakuen-alice-kira-kira-memory-kiss",
      "service": "igdb"
    }
  ],
  "aliases": [],
  "shaders": [],
  "discord_id": "",
  "change_for": null
}