{
  "id": 41935,
  "name": "Rebirth:Mr Wang",
  "slug": "rebirthmr-wang",
  "year": null,
  "banner_url": "https://lutris.net/games/banner/rebirthmr-wang.jpg",
  "icon_url": "https://lutris.net/games/icon/rebirthmr-wang.png",
  "coverart": null,
  "platforms": [],
  "provider_games": [
    {
      "name": "Rebirth:Mr Wang",
      "slug": "1394800",
      "service": "steam"
    }
  ],
  "aliases": [],
  "shaders": [],
  "discord_id": "",
  "change_for": null
}