{
  "id": 211499,
  "name": "Kiniro no Korda Starlight Orchestra",
  "slug": "kiniro-no-korda-starlight-orchestra",
  "year": null,
  "banner_url": "",
  "icon_url": "",
  "coverart": null,
  "platforms": [],
  "provider_games": [
    {
      "name": "Kiniro no Korda Starlight Orchestra",
      "slug": "kiniro-no-korda-starlight-orchestra",
      "service": "igdb"
    }
  ],
  "aliases": [],
  "shaders": [],
  "discord_id": "",
  "change_for": null
}