{
  "id": 241668,
  "name": "Spellzone",
  "slug": "spellzone",
  "year": 2019,
  "banner_url": "",
  "icon_url": "",
  "coverart": null,
  "platforms": [
    {
      "name": "Windows"
    }
  ],
  "provider_games": [
    {
      "name": "Spellzone",
      "slug": "spellzone",
      "service": "igdb"
    }
  ],
  "aliases": [],
  "shaders": [],
  "discord_id": "",
  "change_for": null
}