{
  "id": 35772,
  "name": "Joker Poker With Hi-Lo Double-Up",
  "slug": "joker-poker-with-hi-lo-double-up",
  "year": 1985,
  "banner_url": "",
  "icon_url": "https://lutris.net/games/icon/joker-poker-with-hi-lo-double-up.png",
  "coverart": null,
  "platforms": [
    {
      "name": "Arcade"
    }
  ],
  "provider_games": [
    {
      "name": "Joker Poker With Hi-Lo Double-Up",
      "slug": "smsjoker",
      "service": "mame"
    }
  ],
  "aliases": [],
  "shaders": [],
  "discord_id": "",
  "change_for": null
}