{
  "id": 274123,
  "name": "Sítio do Picapau Amarelo: Calendário da Turma do Sítio",
  "slug": "sitio-do-picapau-amarelo-calendario-da-turma-do-sitio",
  "year": 2002,
  "banner_url": "",
  "icon_url": "",
  "coverart": "https://lutris.net/media/igdb/cover_big/co7rmn.jpg",
  "platforms": [
    {
      "name": "Windows"
    }
  ],
  "provider_games": [
    {
      "name": "Sítio do Picapau Amarelo: Calendário da Turma do Sítio",
      "slug": "sitio-do-picapau-amarelo-calendario-da-turma-do-sitio",
      "service": "igdb"
    }
  ],
  "aliases": [],
  "shaders": [],
  "discord_id": "",
  "change_for": null
}