{
  "id": 302088,
  "name": "Train Simulator: Doitsu Tetsudou Rhine-gawa Sagan-sen",
  "slug": "train-simulator-doitsu-tetsudou-rhine-gawa-sagan-sen",
  "year": 1997,
  "banner_url": "",
  "icon_url": "",
  "coverart": null,
  "platforms": [
    {
      "name": "Mac"
    },
    {
      "name": "Windows"
    }
  ],
  "provider_games": [
    {
      "name": "Train Simulator: Doitsu Tetsudou Rhine-gawa Sagan-sen",
      "slug": "train-simulator-doitsu-tetsudou-rhine-gawa-sagan-sen",
      "service": "igdb"
    }
  ],
  "aliases": [],
  "shaders": [],
  "discord_id": "",
  "change_for": null
}