{
  "id": 99904,
  "name": "Animal Land Satsujin Jiken",
  "slug": "animal-land-satsujin-jiken",
  "year": 1987,
  "banner_url": "",
  "icon_url": "",
  "coverart": "https://lutris.net/media/igdb/cover_big/co2199.jpg",
  "platforms": [
    {
      "name": "MSX"
    }
  ],
  "provider_games": [
    {
      "name": "Animal Land Satsujin Jiken",
      "slug": "animal-land-satsujin-jiken",
      "service": "igdb"
    }
  ],
  "aliases": [],
  "shaders": [],
  "discord_id": "",
  "change_for": null
}