{
  "id": 6925,
  "name": "High Strangeness",
  "slug": "high-strangeness",
  "year": 2015,
  "banner_url": "https://lutris.net/games/banner/high-strangeness.jpg",
  "icon_url": "https://lutris.net/games/icon/high-strangeness.png",
  "coverart": "https://lutris.net/media/igdb/cover_big/jjshpk5uxrnwubclzocm.jpg",
  "platforms": [
    {
      "name": "Mac"
    },
    {
      "name": "Nintendo Wii U"
    },
    {
      "name": "Windows"
    }
  ],
  "provider_games": [
    {
      "name": "High Strangeness",
      "slug": "268340",
      "service": "steam"
    },
    {
      "name": "High Strangeness",
      "slug": "high-strangeness",
      "service": "igdb"
    }
  ],
  "aliases": [],
  "shaders": [],
  "discord_id": "",
  "change_for": null
}