{
  "id": 40197,
  "name": "CyberLink PhotoDirector 10 Ultra",
  "slug": "cyberlink-photodirector-10-ultra",
  "year": null,
  "banner_url": "https://lutris.net/games/banner/cyberlink-photodirector-10-ultra.jpg",
  "icon_url": "https://lutris.net/games/icon/cyberlink-photodirector-10-ultra.png",
  "coverart": null,
  "platforms": [],
  "provider_games": [
    {
      "name": "CyberLink PhotoDirector 10 Ultra",
      "slug": "892050",
      "service": "steam"
    }
  ],
  "aliases": [],
  "shaders": [],
  "discord_id": "",
  "change_for": null
}