{
  "id": 52149,
  "name": "Rules of Engagement 2",
  "slug": "rules-of-engagement-2",
  "year": 1993,
  "banner_url": "",
  "icon_url": "",
  "coverart": "https://lutris.net/media/igdb/cover_big/bcofwxsgcq2y14klyycl.jpg",
  "platforms": [
    {
      "name": "Amiga"
    }
  ],
  "provider_games": [
    {
      "name": "Rules of Engagement 2",
      "slug": "rules-of-engagement-2",
      "service": "igdb"
    }
  ],
  "aliases": [],
  "shaders": [],
  "discord_id": "",
  "change_for": null
}