{
  "id": 56831,
  "name": "Phantom Club",
  "slug": "phantom-club",
  "year": 1987,
  "banner_url": "",
  "icon_url": "",
  "coverart": "https://lutris.net/media/igdb/cover_big/uphyms65jmkcqjfwrsd6.jpg",
  "platforms": [
    {
      "name": "Amstrad CPC"
    },
    {
      "name": "ZX Spectrum"
    }
  ],
  "provider_games": [
    {
      "name": "Phantom Club",
      "slug": "phantom-club",
      "service": "igdb"
    }
  ],
  "aliases": [],
  "shaders": [],
  "discord_id": "",
  "change_for": null
}