{
  "id": 2770,
  "game_id": 2954,
  "game_slug": "star-wars-rogue-squadron",
  "name": "Star Wars: Rogue Squadron 3D",
  "year": 1998,
  "user": "strider",
  "runner": "wine",
  "slug": "star-wars-rogue-squadron-cd-nglide-103",
  "version": "CD (nGlide 1.03)",
  "description": "CD Version with new installer",
  "notes": "",
  "credits": "",
  "created_at": "2016-09-23T23:23:24.148000Z",
  "updated_at": "2018-12-14T03:46:11.906419Z",
  "draft": false,
  "published": true,
  "published_by": 1,
  "rating": "",
  "is_playable": null,
  "steamid": 455910,
  "gogid": 1421404950,
  "gogslug": "star_wars_rogue_squadron_3d",
  "humbleid": "",
  "humblestoreid": "",
  "humblestoreid_real": "",
  "script": {
    "files": [
      {
        "rogue-installer": "http://github.com/medfreeman/RogueSquadron3DInstaller/raw/master/RS3DInstaller-0.96_nglide_103.exe"
      }
    ],
    "game": {
      "arch": "win32",
      "exe": "drive_c/Program Files/LucasArts/ROGUE/ROGUE.EXE",
      "prefix": "GAMEDIR"
    },
    "installer": [
      {
        "insert-disc": {
          "message": "Insert the Rogue Squadron CD to continue",
          "requires": "rogue"
        }
      },
      {
        "task": {
          "args": "/nocdprompt",
          "description": "Installing Rogue Squadron",
          "executable": "${rogue-installer}",
          "name": "wineexec",
          "prefix": "GAMEDIR"
        }
      },
      {
        "task": {
          "app": "dsound",
          "name": "winetricks",
          "prefix": "GAMEDIR"
        }
      },
      {
        "task": {
          "description": "Enable Windows 98 compatibility mode",
          "key": "Version",
          "name": "set_regedit",
          "path": "HKEY_CURRENT_USER\\Software\\Wine",
          "prefix": "GAMEDIR",
          "value": "win98"
        }
      }
    ]
  },
  "content": "files:\n- rogue-installer: http://github.com/medfreeman/RogueSquadron3DInstaller/raw/master/RS3DInstaller-0.96_nglide_103.exe\ngame:\n  arch: win32\n  exe: drive_c/Program Files/LucasArts/ROGUE/ROGUE.EXE\n  prefix: GAMEDIR\ninstaller:\n- insert-disc:\n    message: Insert the Rogue Squadron CD to continue\n    requires: rogue\n- task:\n    args: /nocdprompt\n    description: Installing Rogue Squadron\n    executable: ${rogue-installer}\n    name: wineexec\n    prefix: GAMEDIR\n- task:\n    app: dsound\n    name: winetricks\n    prefix: GAMEDIR\n- task:\n    description: Enable Windows 98 compatibility mode\n    key: Version\n    name: set_regedit\n    path: HKEY_CURRENT_USER\\Software\\Wine\n    prefix: GAMEDIR\n    value: win98\n",
  "discord_id": null
}