{
  "id": 31866,
  "game_id": 5085,
  "game_slug": "bio-menace",
  "name": "Bio Menace",
  "year": 1993,
  "user": "KeenanW",
  "runner": "dosbox",
  "slug": "bio-menace-zoom-platform",
  "version": "ZOOM Platform",
  "description": "",
  "notes": "",
  "credits": "",
  "created_at": "2022-02-13T00:57:47.969464Z",
  "updated_at": "2023-01-11T07:35:52.484101Z",
  "draft": false,
  "published": true,
  "published_by": null,
  "rating": "",
  "is_playable": null,
  "steamid": 358180,
  "gogid": 1449569170,
  "gogslug": "bio_menace",
  "humbleid": "",
  "humblestoreid": "",
  "humblestoreid_real": "",
  "script": {
    "files": [
      {
        "setup": "N/A:Select the Windows installer downloaded from Zoom Platform"
      }
    ],
    "game": {
      "main_file": "$GAMEDIR/biomenace_lutris.conf"
    },
    "installer": [
      {
        "extract": {
          "description": "Extract Zoom Platform installer",
          "dst": "$GAMEDIR",
          "file": "setup"
        }
      },
      {
        "write_file": {
          "content": "[sdl]\nfullscreen       = true\nfullresolution   = desktop\noutput           = openglpp\n[cpu]\ncore             = auto\ncputype          = auto\ncycles           = max\ncycleup          = 1000\ncycledown        = 1000\n[render]\naspect           = true\n[autoexec]\n# Lines in this section will be run at startup.\n@echo off\ncls\nmount C \"$GAMEDIR\"\nc:\ngoto launcher\n:launcher\ncls\nECHO  ------------------------------------------\nECHO   Bio Menace\nECHO  ------------------------------------------\nECHO   1) Dr. Mangle`s Lab (Episode 1)\nECHO   2) The Hidden Lab (Episode 2)\nECHO   3) Master Cain (Episode 3)\nECHO  ------------------------------------------\nECHO   4) Exit\nECHO  ------------------------------------------\nchoice /c1234 /s Which program do you want to run? [1-4]: /n\nif errorlevel 4 goto exit\nif errorlevel 3 goto ep3\nif errorlevel 2 goto ep2\nif errorlevel 1 goto ep1\n:ep1\ncls\nBioPatch\nBMENACE1\ngoto exit\n:ep2\ncls\nBioPatch\nBMENACE2\ngoto exit\n:ep3\ncls\nBioPatch\nBMENACE3\ngoto exit\n:exit\nexit",
          "file": "$GAMEDIR/biomenace_lutris.conf"
        }
      }
    ]
  },
  "content": "files:\n- setup: N/A:Select the Windows installer downloaded from Zoom Platform\ngame:\n  main_file: $GAMEDIR/biomenace_lutris.conf\ninstaller:\n- extract:\n    description: Extract Zoom Platform installer\n    dst: $GAMEDIR\n    file: setup\n- write_file:\n    content: '[sdl]\n\n      fullscreen       = true\n\n      fullresolution   = desktop\n\n      output           = openglpp\n\n      [cpu]\n\n      core             = auto\n\n      cputype          = auto\n\n      cycles           = max\n\n      cycleup          = 1000\n\n      cycledown        = 1000\n\n      [render]\n\n      aspect           = true\n\n      [autoexec]\n\n      # Lines in this section will be run at startup.\n\n      @echo off\n\n      cls\n\n      mount C \"$GAMEDIR\"\n\n      c:\n\n      goto launcher\n\n      :launcher\n\n      cls\n\n      ECHO  ------------------------------------------\n\n      ECHO   Bio Menace\n\n      ECHO  ------------------------------------------\n\n      ECHO   1) Dr. Mangle`s Lab (Episode 1)\n\n      ECHO   2) The Hidden Lab (Episode 2)\n\n      ECHO   3) Master Cain (Episode 3)\n\n      ECHO  ------------------------------------------\n\n      ECHO   4) Exit\n\n      ECHO  ------------------------------------------\n\n      choice /c1234 /s Which program do you want to run? [1-4]: /n\n\n      if errorlevel 4 goto exit\n\n      if errorlevel 3 goto ep3\n\n      if errorlevel 2 goto ep2\n\n      if errorlevel 1 goto ep1\n\n      :ep1\n\n      cls\n\n      BioPatch\n\n      BMENACE1\n\n      goto exit\n\n      :ep2\n\n      cls\n\n      BioPatch\n\n      BMENACE2\n\n      goto exit\n\n      :ep3\n\n      cls\n\n      BioPatch\n\n      BMENACE3\n\n      goto exit\n\n      :exit\n\n      exit'\n    file: $GAMEDIR/biomenace_lutris.conf\n",
  "discord_id": ""
}