{
  "id": 110387,
  "name": "Jet de GO! Let's Go By Airliner",
  "slug": "jet-de-go-lets-go-by-airliner",
  "year": 2000,
  "banner_url": "",
  "icon_url": "",
  "coverart": "https://lutris.net/media/igdb/cover_big/co2z3t.jpg",
  "platforms": [
    {
      "name": "Sony PlayStation"
    },
    {
      "name": "Windows"
    }
  ],
  "provider_games": [
    {
      "name": "Jet de GO! Let's Go By Airliner",
      "slug": "jet-de-go-lets-go-by-airliner",
      "service": "igdb"
    }
  ],
  "aliases": [],
  "shaders": [],
  "discord_id": "",
  "change_for": null
}