{
  "id": 38457,
  "game_id": 126,
  "game_slug": "final-doom",
  "name": "Final Doom",
  "year": 1996,
  "user": "legluondunet",
  "runner": "wine",
  "slug": "final-doom-brutal-doom-mod",
  "version": "Brutal Doom mod",
  "description": "Play \"Final Doom\" with \"Brutal Doom mod\" on Linux!",
  "notes": "- Brutal Doom mod:  adds realistic gore, dismemberments, headshots, executions, lightning effects, particles, makes enemies smarter and harder, makes gun louder and beefier, and adds epic new boss battles\r\n- During install, you will need to provide \"TNT.WAD\" and \"PLUTONIA.WAD\" files from any \"Final Doom\" GOG or Steam install",
  "credits": "- Brutal Doom mod: https://www.moddb.com/mods/brutal-doom\r\n- Lutris script maintained by legluondunet: https://github.com/legluondunet/MyLittleLutrisScripts",
  "created_at": "2024-05-19T08:48:58.703783Z",
  "updated_at": "2024-05-19T10:18:48.760045Z",
  "draft": false,
  "published": true,
  "published_by": 494,
  "rating": "",
  "is_playable": null,
  "steamid": 2290,
  "gogid": 1435848742,
  "gogslug": "doom_ii",
  "humbleid": "",
  "humblestoreid": "",
  "humblestoreid_real": "",
  "script": {
    "files": [
      {
        "mod": "N/A:Please select Brutal Doom mod archive available for download at https://www.moddb.com/mods/brutal-doom/downloads/brutal-doom-v22-beta-test-3"
      },
      {
        "engine": "https://github.com/legluondunet/mlls-tools/raw/master/GZDoom/gzdoom-windows.zip"
      },
      {
        "engine_cfg": "https://github.com/legluondunet/mlls-tools/raw/master/GZDoom/gzdoom-windows_cfg.zip"
      }
    ],
    "game": {
      "exe": "drive_c/Final Doom/gzdoom.exe",
      "prefix": "$GAMEDIR"
    },
    "installer": [
      {
        "task": {
          "arch": "win64",
          "description": "Preparing wineprefix...",
          "name": "create_prefix",
          "prefix": "$GAMEDIR"
        }
      },
      {
        "extract": {
          "dst": "$GAMEDIR/drive_c/Final Doom",
          "file": "engine"
        }
      },
      {
        "extract": {
          "dst": "$GAMEDIR/drive_c/Final Doom",
          "file": "engine_cfg"
        }
      },
      {
        "extract": {
          "dst": "$GAMEDIR/drive_c/Final Doom/mods",
          "file": "mod"
        }
      },
      {
        "insert-disc": {
          "description": "Please browse folder where is located your Final DOom GOG or Steam install, we need PLUTONIA.WAD file. Autodetect will not work here, use \"Browse\" button.",
          "requires": "plutonia.wad"
        }
      },
      {
        "execute": {
          "command": "unset LD_LIBRARY_PATH; cd \"$GAMEDIR/drive_c/Final Doom\"; ls \"$DISC\" | grep -i plutonia.wad | xargs -I {} cp \"$DISC/{}\" plutonia.wad;"
        }
      },
      {
        "insert-disc": {
          "description": "Please browse folder where is located your Final Doom GOG or Steam install, we need TNT.WAD file. Autodetect will not work here, use \"Browse\" button.",
          "requires": "tnt.wad"
        }
      },
      {
        "execute": {
          "command": "unset LD_LIBRARY_PATH; cd \"$GAMEDIR/drive_c/Final Doom\"; ls \"$DISC\" | grep -i tnt.wad | xargs -I {} cp \"$DISC/{}\" tnt.wad;"
        }
      }
    ]
  },
  "content": "files:\n- mod: N/A:Please select Brutal Doom mod archive available for download at https://www.moddb.com/mods/brutal-doom/downloads/brutal-doom-v22-beta-test-3\n- engine: https://github.com/legluondunet/mlls-tools/raw/master/GZDoom/gzdoom-windows.zip\n- engine_cfg: https://github.com/legluondunet/mlls-tools/raw/master/GZDoom/gzdoom-windows_cfg.zip\ngame:\n  exe: drive_c/Final Doom/gzdoom.exe\n  prefix: $GAMEDIR\ninstaller:\n- task:\n    arch: win64\n    description: Preparing wineprefix...\n    name: create_prefix\n    prefix: $GAMEDIR\n- extract:\n    dst: $GAMEDIR/drive_c/Final Doom\n    file: engine\n- extract:\n    dst: $GAMEDIR/drive_c/Final Doom\n    file: engine_cfg\n- extract:\n    dst: $GAMEDIR/drive_c/Final Doom/mods\n    file: mod\n- insert-disc:\n    description: Please browse folder where is located your Final DOom GOG or Steam\n      install, we need PLUTONIA.WAD file. Autodetect will not work here, use \"Browse\"\n      button.\n    requires: plutonia.wad\n- execute:\n    command: unset LD_LIBRARY_PATH; cd \"$GAMEDIR/drive_c/Final Doom\"; ls \"$DISC\" |\n      grep -i plutonia.wad | xargs -I {} cp \"$DISC/{}\" plutonia.wad;\n- insert-disc:\n    description: Please browse folder where is located your Final Doom GOG or Steam\n      install, we need TNT.WAD file. Autodetect will not work here, use \"Browse\" button.\n    requires: tnt.wad\n- execute:\n    command: unset LD_LIBRARY_PATH; cd \"$GAMEDIR/drive_c/Final Doom\"; ls \"$DISC\" |\n      grep -i tnt.wad | xargs -I {} cp \"$DISC/{}\" tnt.wad;\n",
  "discord_id": ""
}