{
  "id": 258472,
  "name": "Axembler",
  "slug": "axembler",
  "year": null,
  "banner_url": "",
  "icon_url": "",
  "coverart": "https://lutris.net/media/igdb/cover_big/co71mj.jpg",
  "platforms": [],
  "provider_games": [
    {
      "name": "Axembler",
      "slug": "axembler",
      "service": "igdb"
    }
  ],
  "aliases": [],
  "shaders": [],
  "discord_id": "",
  "change_for": null
}