{
  "id": 269956,
  "name": "Helldivers 2",
  "slug": "helldivers-2",
  "year": 2024,
  "banner_url": "https://lutris.net/games/banner/helldivers-2.jpg",
  "icon_url": "",
  "coverart": null,
  "platforms": [
    {
      "name": "Sony PlayStation 5"
    },
    {
      "name": "Windows"
    }
  ],
  "provider_games": [
    {
      "name": "Helldivers 2",
      "slug": "helldivers-2",
      "service": "igdb"
    }
  ],
  "aliases": [],
  "shaders": [],
  "discord_id": "",
  "change_for": null
}