{
  "id": 236376,
  "name": "Mystery Trackers: Fall of Iron Rock - Collector's Edition",
  "slug": "mystery-trackers-fall-of-iron-rock-collectors-edition",
  "year": 2022,
  "banner_url": "",
  "icon_url": "",
  "coverart": "https://lutris.net/media/igdb/cover_big/co63ty.jpg",
  "platforms": [
    {
      "name": "Windows"
    }
  ],
  "provider_games": [
    {
      "name": "Mystery Trackers: Fall of Iron Rock - Collector's Edition",
      "slug": "mystery-trackers-fall-of-iron-rock-collectors-edition",
      "service": "igdb"
    }
  ],
  "aliases": [],
  "shaders": [],
  "discord_id": "",
  "change_for": null
}