{
  "id": 199144,
  "name": "Last Gary",
  "slug": "last-gary",
  "year": null,
  "banner_url": "",
  "icon_url": "",
  "coverart": "https://lutris.net/media/igdb/cover_big/co4ex0.jpg",
  "platforms": [],
  "provider_games": [
    {
      "name": "Last Gary",
      "slug": "last-gary",
      "service": "igdb"
    }
  ],
  "aliases": [],
  "shaders": [],
  "discord_id": "",
  "change_for": null
}