{
  "id": 15365,
  "game_id": 14464,
  "game_slug": "call-of-cthulhu-prisoner-of-ice",
  "name": "Call of Cthulhu: Prisoner of Ice",
  "year": 1995,
  "user": "legluondunet",
  "runner": "dosbox",
  "slug": "call-of-cthulhu-prisoner-of-i-gog-windows-setup-ex",
  "version": "GOG + Windows setup exe",
  "description": "\"Call of Cthulhu: Prisoner of Ice\" GOG edition for Dosbox.",
  "notes": "- This script will need the GOG windows setup executable.",
  "credits": "",
  "created_at": "2019-09-07T14:44:02.143000Z",
  "updated_at": "2022-02-03T06:41:29.332888Z",
  "draft": false,
  "published": true,
  "published_by": 494,
  "rating": "",
  "is_playable": null,
  "steamid": 359620,
  "gogid": 1432222749,
  "gogslug": "call_of_cthulhu_prisoner_of_ice",
  "humbleid": "",
  "humblestoreid": "",
  "humblestoreid_real": "",
  "script": {
    "custom-name": "Call of Cthulhu - Prisoner of Ice - GOG",
    "files": [
      {
        "install": "N/A:Please select the GOG installer"
      },
      {
        "inno": "http://constexpr.org/innoextract/files/snapshots/innoextract-1.8-dev-2019-01-13/innoextract-1.8-dev-2019-01-13-linux.tar.xz"
      },
      {
        "script": "https://github.com/legluondunet/MyLittleLutrisScripts/raw/master/Call%20of%20Cthulhu%20-%20Prisoner%20of%20Ice/clean.sh"
      }
    ],
    "game": {
      "config_file": "$GAMEDIR/dosbox_conf/dosbox_poi_single.conf",
      "main_file": "$GAMEDIR/dosbox_conf/dosbox_poi.conf"
    },
    "installer": [
      {
        "extract": {
          "dst": "$CACHE",
          "file": "inno"
        }
      },
      {
        "execute": {
          "args": "-d \"$CACHE\" \"$install\"",
          "file": "$CACHE/innoextract"
        }
      },
      {
        "merge": {
          "dst": "$GAMEDIR",
          "src": "$CACHE/app"
        }
      },
      {
        "chmodx": "script"
      },
      {
        "execute": {
          "file": "script"
        }
      }
    ]
  },
  "content": "custom-name: Call of Cthulhu - Prisoner of Ice - GOG\nfiles:\n- install: N/A:Please select the GOG installer\n- inno: http://constexpr.org/innoextract/files/snapshots/innoextract-1.8-dev-2019-01-13/innoextract-1.8-dev-2019-01-13-linux.tar.xz\n- script: https://github.com/legluondunet/MyLittleLutrisScripts/raw/master/Call%20of%20Cthulhu%20-%20Prisoner%20of%20Ice/clean.sh\ngame:\n  config_file: $GAMEDIR/dosbox_conf/dosbox_poi_single.conf\n  main_file: $GAMEDIR/dosbox_conf/dosbox_poi.conf\ninstaller:\n- extract:\n    dst: $CACHE\n    file: inno\n- execute:\n    args: -d \"$CACHE\" \"$install\"\n    file: $CACHE/innoextract\n- merge:\n    dst: $GAMEDIR\n    src: $CACHE/app\n- chmodx: script\n- execute:\n    file: script\n",
  "discord_id": ""
}