{
  "id": 303583,
  "name": "Fisherman",
  "slug": "fisherman",
  "year": null,
  "banner_url": "",
  "icon_url": "",
  "coverart": "https://lutris.net/media/igdb/cover_big/co96kn.jpg",
  "platforms": [],
  "provider_games": [
    {
      "name": "Fisherman",
      "slug": "fisherman",
      "service": "igdb"
    }
  ],
  "aliases": [],
  "shaders": [],
  "discord_id": "",
  "change_for": null
}