{
  "id": 253317,
  "name": "Desert Dungeons",
  "slug": "desert-dungeons",
  "year": null,
  "banner_url": "",
  "icon_url": "",
  "coverart": "https://lutris.net/media/igdb/cover_big/co6u6q.jpg",
  "platforms": [],
  "provider_games": [
    {
      "name": "Desert Dungeons",
      "slug": "desert-dungeons",
      "service": "igdb"
    }
  ],
  "aliases": [],
  "shaders": [],
  "discord_id": "",
  "change_for": null
}