{
  "id": 1322,
  "game_id": 3813,
  "game_slug": "cubot",
  "name": "Cubot",
  "year": 2015,
  "user": "Xodetaetl",
  "runner": "steam",
  "slug": "cubot-steam",
  "version": "Steam",
  "description": "",
  "notes": "",
  "credits": "",
  "created_at": "2015-02-25T19:31:01.092000Z",
  "updated_at": "2015-02-25T20:44:04.330000Z",
  "draft": false,
  "published": true,
  "published_by": null,
  "rating": "",
  "is_playable": null,
  "steamid": 340280,
  "gogid": null,
  "gogslug": "",
  "humbleid": "",
  "humblestoreid": "",
  "humblestoreid_real": "",
  "script": {
    "game": {
      "appid": 340280
    }
  },
  "content": "game:\n  appid: 340280\n",
  "discord_id": ""
}