{
  "id": 96817,
  "name": "Ilulissat Water Taxi",
  "slug": "ilulissat-water-taxi",
  "year": null,
  "banner_url": "",
  "icon_url": "",
  "coverart": null,
  "platforms": [],
  "provider_games": [
    {
      "name": "Ilulissat Water Taxi",
      "slug": "ilulissat-water-taxi",
      "service": "igdb"
    }
  ],
  "aliases": [],
  "shaders": [],
  "discord_id": "",
  "change_for": null
}