{
  "id": 105834,
  "name": "Grand Prix II",
  "slug": "grand-prix-ii",
  "year": 1996,
  "banner_url": "",
  "icon_url": "",
  "coverart": "https://lutris.net/media/igdb/cover_big/co2q9q.jpg",
  "platforms": [],
  "provider_games": [
    {
      "name": "Grand Prix II",
      "slug": "grand-prix-ii",
      "service": "igdb"
    }
  ],
  "aliases": [],
  "shaders": [],
  "discord_id": "",
  "change_for": null
}