{
  "id": 1763,
  "name": "Shadow Harvest: Phantom Ops",
  "slug": "shadow-harvest-phantom-ops",
  "year": 2011,
  "banner_url": "https://lutris.net/games/banner/shadow-harvest-phantom-ops.jpg",
  "icon_url": "https://lutris.net/games/icon/shadow-harvest-phantom-ops.png",
  "coverart": "https://lutris.net/media/igdb/cover_big/smjzgbw1vtxxuxfuc3fb.jpg",
  "platforms": [
    {
      "name": "Linux"
    },
    {
      "name": "Windows"
    }
  ],
  "provider_games": [
    {
      "name": "Shadow Harvest: Phantom Ops",
      "slug": "92700",
      "service": "steam"
    },
    {
      "name": "Shadow Harvest: Phantom Ops",
      "slug": "shadow-harvest-phantom-ops",
      "service": "igdb"
    }
  ],
  "aliases": [],
  "shaders": [],
  "discord_id": "",
  "change_for": null
}