{
  "id": 267042,
  "name": "Akai Onna",
  "slug": "akai-onna",
  "year": null,
  "banner_url": "",
  "icon_url": "",
  "coverart": "https://lutris.net/media/igdb/cover_big/co7eo3.jpg",
  "platforms": [],
  "provider_games": [
    {
      "name": "Akai Onna",
      "slug": "akai-onna",
      "service": "igdb"
    }
  ],
  "aliases": [],
  "shaders": [],
  "discord_id": "",
  "change_for": null
}