{
  "id": 169858,
  "name": "Fred The Rubber Ducky",
  "slug": "fred-the-rubber-ducky",
  "year": null,
  "banner_url": "",
  "icon_url": "",
  "coverart": "https://lutris.net/media/igdb/cover_big/co465x.jpg",
  "platforms": [],
  "provider_games": [
    {
      "name": "Fred the Rubber Ducky",
      "slug": "fred-the-rubber-ducky",
      "service": "igdb"
    }
  ],
  "aliases": [],
  "shaders": [],
  "discord_id": "",
  "change_for": null
}