{
  "id": 306577,
  "name": "The Land Before Time: Toddler Time",
  "slug": "the-land-before-time-toddler-time",
  "year": 1999,
  "banner_url": "",
  "icon_url": "",
  "coverart": "https://lutris.net/media/igdb/cover_big/co9byl.jpg",
  "platforms": [
    {
      "name": "Mac"
    },
    {
      "name": "Windows"
    }
  ],
  "provider_games": [
    {
      "name": "The Land Before Time: Toddler Time",
      "slug": "the-land-before-time-toddler-time",
      "service": "igdb"
    }
  ],
  "aliases": [],
  "shaders": [],
  "discord_id": "",
  "change_for": null
}