{
  "id": 283996,
  "name": "My Bitter Sweet Romance",
  "slug": "my-bitter-sweet-romance",
  "year": null,
  "banner_url": "",
  "icon_url": "",
  "coverart": null,
  "platforms": [
    {
      "name": "Android"
    }
  ],
  "provider_games": [
    {
      "name": "My Bitter Sweet Romance",
      "slug": "my-bitter-sweet-romance",
      "service": "igdb"
    }
  ],
  "aliases": [],
  "shaders": [],
  "discord_id": "",
  "change_for": null
}