{
  "id": 169246,
  "name": "Calm Down, Stalin: The First Person",
  "slug": "calm-down-stalin-the-first-person",
  "year": 2021,
  "banner_url": "",
  "icon_url": "",
  "coverart": "https://lutris.net/media/igdb/cover_big/co45mn.jpg",
  "platforms": [
    {
      "name": "Windows"
    }
  ],
  "provider_games": [
    {
      "name": "Calm Down, Stalin: The First Person",
      "slug": "calm-down-stalin-the-first-person",
      "service": "igdb"
    }
  ],
  "aliases": [],
  "shaders": [],
  "discord_id": "",
  "change_for": null
}