{
  "id": 186066,
  "name": "Fiscal Jesters",
  "slug": "fiscal-jesters",
  "year": null,
  "banner_url": "",
  "icon_url": "",
  "coverart": null,
  "platforms": [],
  "provider_games": [
    {
      "name": "Fiscal Jesters",
      "slug": "fiscal-jesters",
      "service": "igdb"
    }
  ],
  "aliases": [],
  "shaders": [],
  "discord_id": "",
  "change_for": null
}