{
  "id": 65068,
  "name": "Atari Hits 2006",
  "slug": "atari-hits-2006",
  "year": null,
  "banner_url": "",
  "icon_url": "",
  "coverart": "https://lutris.net/media/igdb/cover_big/cnxpmvxm8fwnxcitbrrs.jpg",
  "platforms": [],
  "provider_games": [
    {
      "name": "Atari Hits 2006",
      "slug": "atari-hits-2006",
      "service": "igdb"
    }
  ],
  "aliases": [],
  "shaders": [],
  "discord_id": "",
  "change_for": null
}