{
  "id": 250315,
  "name": "Kill Crab",
  "slug": "kill-crab",
  "year": null,
  "banner_url": "",
  "icon_url": "",
  "coverart": "https://lutris.net/media/igdb/cover_big/co6oz9.jpg",
  "platforms": [],
  "provider_games": [
    {
      "name": "Kill Crab",
      "slug": "kill-crab",
      "service": "igdb"
    }
  ],
  "aliases": [],
  "shaders": [],
  "discord_id": "",
  "change_for": null
}