{
  "id": 12458,
  "game_id": 24162,
  "game_slug": "my-brother-rabbit",
  "name": "My Brother Rabbit",
  "year": 2018,
  "user": "Nobu",
  "runner": "linux",
  "slug": "my-brother-rabbit-gog",
  "version": "GOG",
  "description": null,
  "notes": "",
  "credits": "",
  "created_at": "2019-03-21T18:47:27.403771Z",
  "updated_at": "2019-03-24T00:00:02.753721Z",
  "draft": false,
  "published": true,
  "published_by": null,
  "rating": "",
  "is_playable": null,
  "steamid": 855640,
  "gogid": 1531168671,
  "gogslug": "my_brother_rabbit",
  "humbleid": "",
  "humblestoreid": "",
  "humblestoreid_real": "",
  "script": {
    "files": [
      {
        "goginstaller": "N/A:Please select the GOG.com Linux installer"
      }
    ],
    "game": {
      "exe": "start.sh"
    },
    "installer": [
      {
        "extract": {
          "dst": "$CACHE/GOG",
          "file": "goginstaller",
          "format": "zip"
        }
      },
      {
        "merge": {
          "dst": "$GAMEDIR",
          "src": "$CACHE/GOG/data/noarch/"
        }
      }
    ]
  },
  "content": "files:\r\n- goginstaller: N/A:Please select the GOG.com Linux installer\r\ngame:\r\n  exe: start.sh\r\ninstaller:\r\n- extract:\r\n    dst: $CACHE/GOG\r\n    file: goginstaller\r\n    format: zip\r\n- merge:\r\n    dst: $GAMEDIR\r\n    src: $CACHE/GOG/data/noarch/",
  "discord_id": ""
}