{
  "id": 149005,
  "name": "Bullet Hell ADVANCED",
  "slug": "bullet-hell-advanced",
  "year": null,
  "banner_url": "",
  "icon_url": "",
  "coverart": "https://lutris.net/media/igdb/cover_big/co38n0.jpg",
  "platforms": [],
  "provider_games": [
    {
      "name": "Bullet Hell Advanced",
      "slug": "bullet-hell-advanced",
      "service": "igdb"
    }
  ],
  "aliases": [],
  "shaders": [],
  "discord_id": "",
  "change_for": null
}