{
  "id": 4200,
  "name": "Frozen State",
  "slug": "frozen-state",
  "year": 2014,
  "banner_url": "https://lutris.net/games/banner/frozen-state.jpg",
  "icon_url": "https://lutris.net/games/icon/frozen-state.png",
  "coverart": "https://lutris.net/media/igdb/cover_big/co1mps.jpg",
  "platforms": [
    {
      "name": "Linux"
    },
    {
      "name": "Mac"
    },
    {
      "name": "Windows"
    }
  ],
  "provider_games": [
    {
      "name": "Frozen State",
      "slug": "270270",
      "service": "steam"
    },
    {
      "name": "Frozen State",
      "slug": "frozen-state",
      "service": "igdb"
    }
  ],
  "aliases": [],
  "shaders": [],
  "discord_id": "",
  "change_for": null
}