{
  "id": 176621,
  "name": "Instant Sports Winter Games",
  "slug": "instant-sports-winter-games",
  "year": 2021,
  "banner_url": "",
  "icon_url": "",
  "coverart": "https://lutris.net/media/igdb/cover_big/co3jq0.jpg",
  "platforms": [
    {
      "name": "Nintendo Switch"
    }
  ],
  "provider_games": [
    {
      "name": "Instant Sports Winter Games",
      "slug": "instant-sports-winter-games",
      "service": "igdb"
    }
  ],
  "aliases": [],
  "shaders": [],
  "discord_id": "",
  "change_for": null
}