{
  "id": 290616,
  "name": "10 Second Mixtape",
  "slug": "10-second-mixtape",
  "year": null,
  "banner_url": "",
  "icon_url": "",
  "coverart": "https://lutris.net/media/igdb/cover_big/co8j2l.jpg",
  "platforms": [],
  "provider_games": [
    {
      "name": "10 Second Mixtape",
      "slug": "10-second-mixtape",
      "service": "igdb"
    }
  ],
  "aliases": [],
  "shaders": [],
  "discord_id": "",
  "change_for": null
}