{
  "id": 191728,
  "name": "Sanctum Beta",
  "slug": "sanctum-beta",
  "year": null,
  "banner_url": "https://lutris.net/games/banner/sanctum-beta.jpg",
  "icon_url": "https://lutris.net/games/icon/sanctum-beta.png",
  "coverart": null,
  "platforms": [],
  "provider_games": [
    {
      "name": "Sanctum Beta",
      "slug": "214050",
      "service": "steam"
    }
  ],
  "aliases": [],
  "shaders": [],
  "discord_id": "",
  "change_for": null
}