{
  "id": 257072,
  "name": "Banishers: Ghosts of New Eden - Red Echoes Edition",
  "slug": "banishers-ghosts-of-new-eden-red-echoes-edition",
  "year": null,
  "banner_url": "",
  "icon_url": "",
  "coverart": "https://lutris.net/media/igdb/cover_big/co70ta.jpg",
  "platforms": [],
  "provider_games": [
    {
      "name": "Banishers: Ghosts of New Eden - Red Echoes Edition",
      "slug": "banishers-ghosts-of-new-eden-red-echoes-edition",
      "service": "igdb"
    }
  ],
  "aliases": [],
  "shaders": [],
  "discord_id": "",
  "change_for": null
}