{
  "id": 64182,
  "name": "Renegade: The Battle for Jacob's Star",
  "slug": "renegade-the-battle-for-jacobs-star",
  "year": null,
  "banner_url": "",
  "icon_url": "",
  "coverart": "https://lutris.net/media/igdb/cover_big/mnwvxmsydkvmjwa3oyiq.jpg",
  "platforms": [],
  "provider_games": [
    {
      "name": "Renegade: The Battle for Jacob's Star",
      "slug": "renegade-the-battle-for-jacobs-star",
      "service": "igdb"
    },
    {
      "name": "Renegade: The Battle for Jacob's Star",
      "slug": "1379321630",
      "service": "gog"
    }
  ],
  "aliases": [],
  "shaders": [],
  "discord_id": "",
  "change_for": null
}