{
  "id": 201990,
  "name": "Multi Idle",
  "slug": "multi-idle",
  "year": null,
  "banner_url": "",
  "icon_url": "",
  "coverart": "https://lutris.net/media/igdb/cover_big/co4nkk.jpg",
  "platforms": [],
  "provider_games": [
    {
      "name": "Multi Idle",
      "slug": "multi-idle",
      "service": "igdb"
    }
  ],
  "aliases": [],
  "shaders": [],
  "discord_id": "",
  "change_for": null
}