{
  "id": 179658,
  "name": "The Lord of the Rings: The Return of the King",
  "slug": "the-lord-of-the-rings-the-return-of-the-king",
  "year": 2003,
  "banner_url": "",
  "icon_url": "",
  "coverart": "https://lutris.net/media/igdb/cover_big/co20of.jpg",
  "platforms": [
    {
      "name": "Nintendo Game Boy Advance"
    },
    {
      "name": "Nintendo GameCube"
    },
    {
      "name": "Sony PlayStation 2"
    },
    {
      "name": "Windows"
    }
  ],
  "provider_games": [
    {
      "name": "The Lord of the Rings: The Return of the King",
      "slug": "the-lord-of-the-rings-the-return-of-the-king",
      "service": "igdb"
    }
  ],
  "aliases": [],
  "shaders": [],
  "discord_id": "",
  "change_for": null
}