{
  "id": 70482,
  "name": "Herz von Afrika",
  "slug": "herz-von-afrika",
  "year": null,
  "banner_url": "",
  "icon_url": "",
  "coverart": null,
  "platforms": [],
  "provider_games": [
    {
      "name": "Herz von Afrika",
      "slug": "herz-von-afrika",
      "service": "igdb"
    }
  ],
  "aliases": [],
  "shaders": [],
  "discord_id": "",
  "change_for": null
}