{
  "id": 41086,
  "name": "Magic: The Gathering — Duels of the Planeswalkers 2012",
  "slug": "magic-the-gathering-duels-of-the-planeswalkers-201",
  "year": null,
  "banner_url": "https://lutris.net/games/banner/magic-the-gathering-duels-of-the-planeswalkers-201.jpg",
  "icon_url": "https://lutris.net/games/icon/magic-the-gathering-duels-of-the-planeswalkers-201.png",
  "coverart": null,
  "platforms": [],
  "provider_games": [
    {
      "name": "Magic: The Gathering — Duels of the Planeswalkers 2012",
      "slug": "49470",
      "service": "steam"
    }
  ],
  "aliases": [],
  "shaders": [],
  "discord_id": "",
  "change_for": null
}