{
  "id": 273942,
  "name": "Lost in the Past: A Heart's Remembrance Labyrinth",
  "slug": "lost-in-the-past-a-hearts-remembrance-labyrinth",
  "year": null,
  "banner_url": "",
  "icon_url": "",
  "coverart": "https://lutris.net/media/igdb/cover_big/co7rws.jpg",
  "platforms": [],
  "provider_games": [
    {
      "name": "Lost in the Past: A Heart's Remembrance Labyrinth",
      "slug": "lost-in-the-past-a-hearts-remembrance-labyrinth",
      "service": "igdb"
    }
  ],
  "aliases": [],
  "shaders": [],
  "discord_id": "",
  "change_for": null
}