{
  "id": 236065,
  "name": "Withersworn",
  "slug": "withersworn",
  "year": null,
  "banner_url": "",
  "icon_url": "",
  "coverart": "https://lutris.net/media/igdb/cover_big/co6517.jpg",
  "platforms": [],
  "provider_games": [
    {
      "name": "Withersworn",
      "slug": "withersworn",
      "service": "igdb"
    }
  ],
  "aliases": [],
  "shaders": [],
  "discord_id": "",
  "change_for": null
}