{
  "id": 285343,
  "name": "The Quizard's Domain",
  "slug": "the-quizards-domain",
  "year": null,
  "banner_url": "",
  "icon_url": "",
  "coverart": "https://lutris.net/media/igdb/cover_big/co872i.jpg",
  "platforms": [],
  "provider_games": [
    {
      "name": "The Quizard's Domain",
      "slug": "the-quizards-domain",
      "service": "igdb"
    }
  ],
  "aliases": [],
  "shaders": [],
  "discord_id": "",
  "change_for": null
}