{
  "id": 170103,
  "name": "HOKUSAI",
  "slug": "hokusai",
  "year": null,
  "banner_url": "",
  "icon_url": "",
  "coverart": "https://lutris.net/media/igdb/cover_big/co46cw.jpg",
  "platforms": [],
  "provider_games": [
    {
      "name": "Hokusai",
      "slug": "hokusai",
      "service": "igdb"
    }
  ],
  "aliases": [],
  "shaders": [],
  "discord_id": "",
  "change_for": null
}