{
  "id": 291650,
  "name": "Chrono Club: Race Against Time",
  "slug": "chrono-club-race-against-time",
  "year": null,
  "banner_url": "",
  "icon_url": "",
  "coverart": "https://lutris.net/media/igdb/cover_big/co8jyw.jpg",
  "platforms": [],
  "provider_games": [
    {
      "name": "Chrono Club: Race Against Time",
      "slug": "chrono-club-race-against-time",
      "service": "igdb"
    }
  ],
  "aliases": [],
  "shaders": [],
  "discord_id": "",
  "change_for": null
}