{
  "id": 222983,
  "name": "Lunch Time in Burger Kingdom",
  "slug": "lunch-time-in-burger-kingdom",
  "year": 2021,
  "banner_url": "",
  "icon_url": "",
  "coverart": "https://lutris.net/media/igdb/cover_big/co4wvg.jpg",
  "platforms": [
    {
      "name": "Browser"
    }
  ],
  "provider_games": [
    {
      "name": "Lunch Time in Burger Kingdom",
      "slug": "lunch-time-in-burger-kingdom",
      "service": "igdb"
    }
  ],
  "aliases": [],
  "shaders": [],
  "discord_id": "",
  "change_for": null
}