{
  "id": 163423,
  "name": "Re:Turn - One Way Trip",
  "slug": "re-turn-one-way-trip",
  "year": 2020,
  "banner_url": "",
  "icon_url": "",
  "coverart": "https://lutris.net/media/igdb/cover_big/co2h81.jpg",
  "platforms": [
    {
      "name": "Sony Playstation 4"
    },
    {
      "name": "Windows"
    },
    {
      "name": "Xbox One"
    }
  ],
  "provider_games": [
    {
      "name": "Re:Turn - One Way Trip",
      "slug": "re-turn-one-way-trip",
      "service": "igdb"
    }
  ],
  "aliases": [],
  "shaders": [],
  "discord_id": "",
  "change_for": null
}