{
  "id": 269695,
  "name": "Eurotunnel",
  "slug": "eurotunnel",
  "year": 2006,
  "banner_url": "",
  "icon_url": "",
  "coverart": null,
  "platforms": [
    {
      "name": "Nintendo DS"
    }
  ],
  "provider_games": [
    {
      "name": "Eurotunnel",
      "slug": "eurotunnel",
      "service": "igdb"
    }
  ],
  "aliases": [],
  "shaders": [],
  "discord_id": "",
  "change_for": null
}