{
  "id": 257502,
  "name": "Just Get 2048: A Simple Puzzle Game!",
  "slug": "just-get-2048-a-simple-puzzle-game",
  "year": null,
  "banner_url": "",
  "icon_url": "",
  "coverart": null,
  "platforms": [],
  "provider_games": [
    {
      "name": "Just Get 2048: A Simple Puzzle Game!",
      "slug": "just-get-2048-a-simple-puzzle-game",
      "service": "igdb"
    }
  ],
  "aliases": [],
  "shaders": [],
  "discord_id": "",
  "change_for": null
}