{
  "id": 34729,
  "name": "Live Gal [BET]",
  "slug": "live-gal-bet",
  "year": 1987,
  "banner_url": "",
  "icon_url": "https://lutris.net/games/icon/live-gal-bet.png",
  "coverart": null,
  "platforms": [
    {
      "name": "Arcade"
    }
  ],
  "provider_games": [
    {
      "name": "Live Gal [BET]",
      "slug": "livegal",
      "service": "mame"
    }
  ],
  "aliases": [],
  "shaders": [],
  "discord_id": "",
  "change_for": null
}