{
  "id": 169848,
  "name": "Forsaken Spire",
  "slug": "forsaken-spire",
  "year": null,
  "banner_url": "",
  "icon_url": "",
  "coverart": "https://lutris.net/media/igdb/cover_big/co465m.jpg",
  "platforms": [],
  "provider_games": [
    {
      "name": "Forsaken Spire",
      "slug": "forsaken-spire",
      "service": "igdb"
    }
  ],
  "aliases": [],
  "shaders": [],
  "discord_id": "",
  "change_for": null
}