{
  "id": 3919,
  "name": "Jisei",
  "slug": "jisei",
  "year": 2010,
  "banner_url": "https://lutris.net/games/banner/jisei.jpg",
  "icon_url": "",
  "coverart": "https://lutris.net/media/igdb/cover_big/co2y1y.jpg",
  "platforms": [
    {
      "name": "Android"
    },
    {
      "name": "Linux"
    },
    {
      "name": "Mac"
    },
    {
      "name": "Windows"
    }
  ],
  "provider_games": [
    {
      "name": "Jisei",
      "slug": "754460",
      "service": "steam"
    },
    {
      "name": "Jisei",
      "slug": "jisei",
      "service": "igdb"
    }
  ],
  "aliases": [],
  "shaders": [],
  "discord_id": "",
  "change_for": null
}