{
  "id": 151156,
  "name": "Sunset Mall",
  "slug": "sunset-mall",
  "year": null,
  "banner_url": "",
  "icon_url": "",
  "coverart": "https://lutris.net/media/igdb/cover_big/co2rgw.jpg",
  "platforms": [],
  "provider_games": [
    {
      "name": "Sunset Mall",
      "slug": "sunset-mall",
      "service": "igdb"
    }
  ],
  "aliases": [],
  "shaders": [],
  "discord_id": "",
  "change_for": null
}