{
  "id": 299732,
  "name": "iQuest Science: Grades 6-8",
  "slug": "iquest-science-grades-6-8--1",
  "year": null,
  "banner_url": "",
  "icon_url": "",
  "coverart": "https://lutris.net/media/igdb/cover_big/co8wae.jpg",
  "platforms": [],
  "provider_games": [
    {
      "name": "iQuest Science: Grades 6-8",
      "slug": "iquest-science-grades-6-8--1",
      "service": "igdb"
    }
  ],
  "aliases": [],
  "shaders": [],
  "discord_id": "",
  "change_for": null
}