{
  "id": 184469,
  "name": "Wizard's Terror",
  "slug": "wizards-terror",
  "year": null,
  "banner_url": "",
  "icon_url": "",
  "coverart": null,
  "platforms": [],
  "provider_games": [
    {
      "name": "Wizard's Terror",
      "slug": "wizards-terror",
      "service": "igdb"
    }
  ],
  "aliases": [],
  "shaders": [],
  "discord_id": "",
  "change_for": null
}