{
  "id": 142222,
  "name": "Agora: Soul of the Oracle",
  "slug": "agora-soul-of-the-oracle",
  "year": 1998,
  "banner_url": "",
  "icon_url": "",
  "coverart": "https://lutris.net/media/igdb/cover_big/co3tmk.jpg",
  "platforms": [
    {
      "name": "Mac"
    }
  ],
  "provider_games": [
    {
      "name": "Agora: Soul of the Oracle",
      "slug": "agora-soul-of-the-oracle",
      "service": "igdb"
    }
  ],
  "aliases": [],
  "shaders": [],
  "discord_id": "",
  "change_for": null
}