{
  "id": 102278,
  "name": "Fuuun Shaolin Kyo: Ankoku no Maou",
  "slug": "fuuun-shaolin-kyo-ankoku-no-maou",
  "year": 1988,
  "banner_url": "",
  "icon_url": "",
  "coverart": "https://lutris.net/media/igdb/cover_big/nnlzjb1daw0mnysdxmqm.jpg",
  "platforms": [
    {
      "name": "Super Famicom"
    }
  ],
  "provider_games": [
    {
      "name": "Fuuun Shaolin Kyo: Ankoku no Maou",
      "slug": "fuuun-shaolin-kyo-ankoku-no-maou",
      "service": "igdb"
    }
  ],
  "aliases": [],
  "shaders": [],
  "discord_id": "",
  "change_for": null
}