{
  "id": 34222,
  "name": "Genie",
  "slug": "genie",
  "year": 2017,
  "banner_url": "",
  "icon_url": "https://lutris.net/games/icon/genie.png",
  "coverart": "https://lutris.net/media/igdb/cover_big/co2bh3.jpg",
  "platforms": [
    {
      "name": "Arcade"
    },
    {
      "name": "Linux"
    },
    {
      "name": "Mac"
    },
    {
      "name": "Windows"
    }
  ],
  "provider_games": [
    {
      "name": "Genie",
      "slug": "genie",
      "service": "mame"
    },
    {
      "name": "Genie",
      "slug": "genie",
      "service": "igdb"
    }
  ],
  "aliases": [],
  "shaders": [],
  "discord_id": "",
  "change_for": null
}