{
  "id": 38734,
  "game_id": 294449,
  "game_slug": "fellchaser",
  "name": "Fellchaser",
  "year": 2024,
  "user": "vanstaveren",
  "runner": "steam",
  "slug": "fellchaser-steam",
  "version": "steam",
  "description": "",
  "notes": "",
  "credits": "",
  "created_at": "2024-09-08T23:47:42.073323Z",
  "updated_at": "2024-09-08T23:47:42.073349Z",
  "draft": false,
  "published": true,
  "published_by": null,
  "rating": "",
  "is_playable": null,
  "steamid": null,
  "gogid": null,
  "gogslug": "",
  "humbleid": "",
  "humblestoreid": "",
  "humblestoreid_real": "",
  "script": {
    "game": {
      "appid": 2793110
    }
  },
  "content": "game:\n  appid: 2793110\n",
  "discord_id": ""
}