{
  "id": 301792,
  "name": "20Q: The Simpsons",
  "slug": "20q-the-simpsons",
  "year": 2007,
  "banner_url": "",
  "icon_url": "",
  "coverart": "https://lutris.net/media/igdb/cover_big/co8yuy.jpg",
  "platforms": [],
  "provider_games": [
    {
      "name": "20Q: The Simpsons",
      "slug": "20q-the-simpsons",
      "service": "igdb"
    }
  ],
  "aliases": [],
  "shaders": [],
  "discord_id": "",
  "change_for": null
}