{
  "id": 34694,
  "game_id": 204779,
  "game_slug": "td-gogogo",
  "name": "TD GOGOGO",
  "year": null,
  "user": "vanstaveren",
  "runner": "steam",
  "slug": "td-gogogo-steam",
  "version": "steam",
  "description": "",
  "notes": "",
  "credits": "",
  "created_at": "2022-08-03T16:40:17.032673Z",
  "updated_at": "2023-01-11T06:08:00.964254Z",
  "draft": false,
  "published": true,
  "published_by": null,
  "rating": "",
  "is_playable": null,
  "steamid": null,
  "gogid": null,
  "gogslug": "",
  "humbleid": "",
  "humblestoreid": "",
  "humblestoreid_real": "",
  "script": {
    "game": {
      "appid": 1986420
    }
  },
  "content": "game:\n  appid: 1986420\n",
  "discord_id": ""
}