{
  "id": 95409,
  "name": "Puppy Dentist",
  "slug": "puppy-dentist",
  "year": null,
  "banner_url": "",
  "icon_url": "",
  "coverart": null,
  "platforms": [],
  "provider_games": [
    {
      "name": "Puppy Dentist",
      "slug": "puppy-dentist",
      "service": "igdb"
    }
  ],
  "aliases": [],
  "shaders": [],
  "discord_id": "",
  "change_for": null
}