{
  "id": 144616,
  "name": "Groove Balls",
  "slug": "groove-balls",
  "year": null,
  "banner_url": "",
  "icon_url": "",
  "coverart": "https://lutris.net/media/igdb/cover_big/co2q9y.jpg",
  "platforms": [],
  "provider_games": [
    {
      "name": "Groove Balls",
      "slug": "groove-balls",
      "service": "igdb"
    }
  ],
  "aliases": [],
  "shaders": [],
  "discord_id": "",
  "change_for": null
}