{
  "id": 117475,
  "name": "Hunter Shooting Camp",
  "slug": "hunter-shooting-camp",
  "year": 2021,
  "banner_url": "",
  "icon_url": "",
  "coverart": "https://lutris.net/media/igdb/cover_big/co3g8k.jpg",
  "platforms": [
    {
      "name": "Nintendo Switch"
    }
  ],
  "provider_games": [
    {
      "name": "Hunter Shooting Camp",
      "slug": "hunter-shooting-camp",
      "service": "igdb"
    }
  ],
  "aliases": [],
  "shaders": [],
  "discord_id": "",
  "change_for": null
}