{
  "id": 296062,
  "name": "The Game of the Goose",
  "slug": "the-game-of-the-goose--1",
  "year": null,
  "banner_url": "",
  "icon_url": "",
  "coverart": null,
  "platforms": [],
  "provider_games": [
    {
      "name": "The Game of the Goose",
      "slug": "the-game-of-the-goose--1",
      "service": "igdb"
    }
  ],
  "aliases": [],
  "shaders": [],
  "discord_id": "",
  "change_for": null
}