{
  "id": 7890,
  "name": "Spirit Run - Fire vs. Ice",
  "slug": "spirit-run-fire-vs-ice",
  "year": null,
  "banner_url": "https://lutris.net/games/banner/spirit-run-fire-vs-ice.jpg",
  "icon_url": "https://lutris.net/games/icon/spirit-run-fire-vs-ice.png",
  "coverart": null,
  "platforms": [],
  "provider_games": [
    {
      "name": "Spirit Run - Fire vs. Ice",
      "slug": "311490",
      "service": "steam"
    }
  ],
  "aliases": [],
  "shaders": [],
  "discord_id": "",
  "change_for": null
}