{
  "id": 9746,
  "name": "Delicious! Pretty Girls Mahjong Solitaire",
  "slug": "delicious-pretty-girls-mahjong-solitaire",
  "year": 2016,
  "banner_url": "https://lutris.net/games/banner/delicious-pretty-girls-mahjong-solitaire.jpg",
  "icon_url": "https://lutris.net/games/icon/delicious-pretty-girls-mahjong-solitaire.png",
  "coverart": "https://lutris.net/media/igdb/cover_big/co2yyj.jpg",
  "platforms": [
    {
      "name": "Mac"
    },
    {
      "name": "Nintendo Switch"
    },
    {
      "name": "Sony Playstation 4"
    },
    {
      "name": "Sony PlayStation 5"
    },
    {
      "name": "Windows"
    }
  ],
  "provider_games": [
    {
      "name": "Delicious! Pretty Girls Mahjong Solitaire",
      "slug": "540610",
      "service": "steam"
    },
    {
      "name": "Delicious! Pretty Girls Mahjong Solitaire",
      "slug": "delicious-pretty-girls-mahjong-solitaire",
      "service": "igdb"
    }
  ],
  "aliases": [],
  "shaders": [],
  "discord_id": "",
  "change_for": null
}