{
  "id": 68743,
  "name": "Dad by the Sword: Swordplay Simulation Action Tactics",
  "slug": "dad-by-the-sword-swordplay-simulation-action-tactics",
  "year": null,
  "banner_url": "",
  "icon_url": "",
  "coverart": "https://lutris.net/media/igdb/cover_big/xgmwcqhsgizbvlzjlfr3.jpg",
  "platforms": [],
  "provider_games": [
    {
      "name": "Dad by the Sword: Swordplay Simulation Action Tactics",
      "slug": "dad-by-the-sword-swordplay-simulation-action-tactics",
      "service": "igdb"
    }
  ],
  "aliases": [],
  "shaders": [],
  "discord_id": "",
  "change_for": null
}