{
  "id": 128045,
  "name": "Hellementalz",
  "slug": "hellementalz",
  "year": null,
  "banner_url": "",
  "icon_url": "",
  "coverart": "https://lutris.net/media/igdb/cover_big/mmyn2fxwnpi0ejpqruac.jpg",
  "platforms": [],
  "provider_games": [
    {
      "name": "Hellementalz",
      "slug": "hellementalz",
      "service": "igdb"
    }
  ],
  "aliases": [],
  "shaders": [],
  "discord_id": "",
  "change_for": null
}