{
  "id": 50754,
  "name": "Canvas 3: Nanairo No Kiseki",
  "slug": "canvas-3-nanairo-no-kiseki",
  "year": null,
  "banner_url": "",
  "icon_url": "",
  "coverart": null,
  "platforms": [],
  "provider_games": [
    {
      "name": "Canvas 3: Nanairo no Kiseki",
      "slug": "canvas-3-nanairo-no-kiseki",
      "service": "igdb"
    }
  ],
  "aliases": [],
  "shaders": [],
  "discord_id": "",
  "change_for": null
}