{
  "id": 63631,
  "name": "Shaman King: Funbari Spirits",
  "slug": "shaman-king-funbari-spirits",
  "year": null,
  "banner_url": "",
  "icon_url": "",
  "coverart": "https://lutris.net/media/igdb/cover_big/gmzgwwxz8fvsg5ji5wwb.jpg",
  "platforms": [],
  "provider_games": [
    {
      "name": "Shaman King: Funbari Spirits",
      "slug": "shaman-king-funbari-spirits",
      "service": "igdb"
    }
  ],
  "aliases": [],
  "shaders": [],
  "discord_id": "",
  "change_for": null
}