{
  "id": 21581,
  "name": "Rockfest",
  "slug": "rockfest",
  "year": 2018,
  "banner_url": "https://lutris.net/games/banner/rockfest.jpg",
  "icon_url": "https://lutris.net/games/icon/rockfest.png",
  "coverart": null,
  "platforms": [
    {
      "name": "Windows"
    }
  ],
  "provider_games": [
    {
      "name": "Rockfest",
      "slug": "754640",
      "service": "steam"
    },
    {
      "name": "Rockfest",
      "slug": "rockfest",
      "service": "igdb"
    }
  ],
  "aliases": [],
  "shaders": [],
  "discord_id": "425455011221471232",
  "change_for": null
}