{
  "id": 8386,
  "game_id": 4579,
  "game_slug": "autocraft",
  "name": "Autocraft",
  "year": 2014,
  "user": "ph9214",
  "runner": "steam",
  "slug": "autocraft-proton",
  "version": "Proton",
  "description": null,
  "notes": "",
  "credits": "",
  "created_at": "2018-05-23T03:12:08.540023Z",
  "updated_at": "2021-05-04T02:43:11.356009Z",
  "draft": false,
  "published": true,
  "published_by": null,
  "rating": "",
  "is_playable": null,
  "steamid": 287220,
  "gogid": null,
  "gogslug": "",
  "humbleid": "",
  "humblestoreid": "",
  "humblestoreid_real": "",
  "script": {
    "game": {
      "appid": 287220
    }
  },
  "content": "game:\n  appid: 287220\n",
  "discord_id": ""
}