{
  "id": 45393,
  "name": "Battleground Collection 1",
  "slug": "battleground-collection-1",
  "year": null,
  "banner_url": "",
  "icon_url": "",
  "coverart": null,
  "platforms": [],
  "provider_games": [
    {
      "name": "Battleground Collection 1",
      "slug": "battleground-collection-1",
      "service": "igdb"
    }
  ],
  "aliases": [],
  "shaders": [],
  "discord_id": "",
  "change_for": null
}