{
  "id": 102377,
  "name": "Boink Zoink Hoink",
  "slug": "boink-zoink-hoink",
  "year": 2018,
  "banner_url": "",
  "icon_url": "",
  "coverart": "https://lutris.net/media/igdb/cover_big/lxyiejmv4idifouxxjhf.jpg",
  "platforms": [
    {
      "name": "Android"
    },
    {
      "name": "Windows"
    }
  ],
  "provider_games": [
    {
      "name": "Boink Zoink Hoink",
      "slug": "boink-zoink-hoink",
      "service": "igdb"
    }
  ],
  "aliases": [],
  "shaders": [],
  "discord_id": "",
  "change_for": null
}