{
  "id": 67902,
  "name": "Retro One - Part 2",
  "slug": "retro-one-part-2",
  "year": null,
  "banner_url": "",
  "icon_url": "",
  "coverart": "https://lutris.net/media/igdb/cover_big/eaymj3bz5icuebalrxyc.jpg",
  "platforms": [],
  "provider_games": [
    {
      "name": "Retro One - Part 2",
      "slug": "retro-one-part-2",
      "service": "igdb"
    }
  ],
  "aliases": [],
  "shaders": [],
  "discord_id": "",
  "change_for": null
}