{
  "id": 203549,
  "name": "Comic Coloring Book: Complete Edition",
  "slug": "comic-coloring-book-complete-edition",
  "year": 2021,
  "banner_url": "",
  "icon_url": "",
  "coverart": "https://lutris.net/media/igdb/cover_big/co4cw3.jpg",
  "platforms": [
    {
      "name": "Nintendo Switch"
    }
  ],
  "provider_games": [
    {
      "name": "Comic Coloring Book: Complete Edition",
      "slug": "comic-coloring-book-complete-edition",
      "service": "igdb"
    }
  ],
  "aliases": [],
  "shaders": [],
  "discord_id": "",
  "change_for": null
}