{
  "id": 294853,
  "name": "Untitled RPG from WolfEye Studios",
  "slug": "untitled-rpg-from-wolfeye-studios",
  "year": null,
  "banner_url": "",
  "icon_url": "",
  "coverart": null,
  "platforms": [
    {
      "name": "Windows"
    }
  ],
  "provider_games": [
    {
      "name": "Untitled RPG from WolfEye Studios",
      "slug": "untitled-rpg-from-wolfeye-studios",
      "service": "igdb"
    }
  ],
  "aliases": [],
  "shaders": [],
  "discord_id": "",
  "change_for": null
}