{
  "id": 104788,
  "name": "Range Game",
  "slug": "range-game",
  "year": null,
  "banner_url": "",
  "icon_url": "",
  "coverart": "https://lutris.net/media/igdb/cover_big/co2r3r.jpg",
  "platforms": [],
  "provider_games": [
    {
      "name": "Range Game",
      "slug": "range-game",
      "service": "igdb"
    }
  ],
  "aliases": [],
  "shaders": [],
  "discord_id": "",
  "change_for": null
}