{
  "id": 54040,
  "name": "Taikyoku Igo: Goliath",
  "slug": "taikyoku-igo-goliath",
  "year": 1993,
  "banner_url": "",
  "icon_url": "",
  "coverart": "https://lutris.net/media/igdb/cover_big/ecp50w2xqgwcbjrni1oc.jpg",
  "platforms": [
    {
      "name": "Super Nintendo"
    }
  ],
  "provider_games": [
    {
      "name": "Taikyoku Igo: Goliath",
      "slug": "taikyoku-igo-goliath",
      "service": "igdb"
    }
  ],
  "aliases": [],
  "shaders": [],
  "discord_id": "",
  "change_for": null
}