{
  "id": 208887,
  "name": "Tap Tap Fish: Abyssrium Pole",
  "slug": "tap-tap-fish-abyssrium-pole",
  "year": 2020,
  "banner_url": "",
  "icon_url": "",
  "coverart": "https://lutris.net/media/igdb/cover_big/co5pjf.jpg",
  "platforms": [
    {
      "name": "Android"
    }
  ],
  "provider_games": [
    {
      "name": "Tap Tap Fish: Abyssrium Pole",
      "slug": "tap-tap-fish-abyssrium-pole",
      "service": "igdb"
    }
  ],
  "aliases": [],
  "shaders": [],
  "discord_id": "",
  "change_for": null
}