{
  "id": 167313,
  "name": "The lost dungeon of knight",
  "slug": "the-lost-dungeon-of-knight",
  "year": 2019,
  "banner_url": "",
  "icon_url": "",
  "coverart": "https://lutris.net/media/igdb/cover_big/co43yr.jpg",
  "platforms": [
    {
      "name": "Windows"
    }
  ],
  "provider_games": [
    {
      "name": "The lost dungeon of knight",
      "slug": "the-lost-dungeon-of-knight",
      "service": "igdb"
    }
  ],
  "aliases": [],
  "shaders": [],
  "discord_id": "",
  "change_for": null
}