{
  "id": 37719,
  "game_id": 234363,
  "game_slug": "find-the-energy",
  "name": "Find the Energy",
  "year": 2023,
  "user": "vanstaveren",
  "runner": "steam",
  "slug": "find-the-energy-steam",
  "version": "steam",
  "description": "",
  "notes": "",
  "credits": "",
  "created_at": "2023-08-28T22:11:09.377027Z",
  "updated_at": "2023-08-28T22:11:09.377057Z",
  "draft": false,
  "published": true,
  "published_by": null,
  "rating": "",
  "is_playable": null,
  "steamid": null,
  "gogid": null,
  "gogslug": "",
  "humbleid": "",
  "humblestoreid": "",
  "humblestoreid_real": "",
  "script": {
    "game": {
      "appid": 2283440
    }
  },
  "content": "game:\n  appid: 2283440\n",
  "discord_id": ""
}