{
  "id": 35241,
  "name": "Perfect Billiard",
  "slug": "perfect-billiard",
  "year": 1987,
  "banner_url": "https://lutris.net/games/banner/perfect-billiard.jpg",
  "icon_url": "https://lutris.net/games/icon/perfect-billiard.png",
  "coverart": null,
  "platforms": [
    {
      "name": "Arcade"
    }
  ],
  "provider_games": [
    {
      "name": "Perfect Billiard",
      "slug": "pbillrd",
      "service": "mame"
    }
  ],
  "aliases": [],
  "shaders": [],
  "discord_id": "",
  "change_for": null
}