{
  "id": 223181,
  "name": "Battleship Fleet Command",
  "slug": "battleship-fleet-command",
  "year": null,
  "banner_url": "",
  "icon_url": "",
  "coverart": null,
  "platforms": [],
  "provider_games": [
    {
      "name": "Battleship Fleet Command",
      "slug": "battleship-fleet-command",
      "service": "igdb"
    }
  ],
  "aliases": [],
  "shaders": [],
  "discord_id": "",
  "change_for": null
}