{
  "id": 9394,
  "game_id": 14060,
  "game_slug": "the-legend-of-zelda-the-minish-cap",
  "name": "The Legend of Zelda: The Minish Cap",
  "year": 2005,
  "user": "paperbenni",
  "runner": "libretro",
  "slug": "the-legend-of-zelda-the-minis-full",
  "version": "Full",
  "description": null,
  "notes": "",
  "credits": "",
  "created_at": "2018-07-26T09:20:28.176000Z",
  "updated_at": "2018-10-09T05:27:33.354698Z",
  "draft": false,
  "published": true,
  "published_by": null,
  "rating": "",
  "is_playable": null,
  "steamid": null,
  "gogid": null,
  "gogslug": "",
  "humbleid": "",
  "humblestoreid": "",
  "humblestoreid_real": "",
  "script": {
    "game": {
      "core": "vbam",
      "main_file": "file1"
    },
    "installer": [
      {
        "merge": {
          "dst": "$GAMEDIR",
          "src": "file1"
        }
      }
    ]
  },
  "content": "game:\r\n  core: vbam\r\n  main_file: file1\r\ninstaller:\r\n- merge:\r\n    dst: $GAMEDIR\r\n    src: file1",
  "discord_id": ""
}