{
  "id": 178890,
  "name": "Forza Motorsport 5",
  "slug": "forza-motorsport-5",
  "year": 2013,
  "banner_url": "",
  "icon_url": "",
  "coverart": "https://lutris.net/media/igdb/cover_big/co2q6o.jpg",
  "platforms": [
    {
      "name": "Xbox One"
    }
  ],
  "provider_games": [
    {
      "name": "Forza Motorsport 5",
      "slug": "forza-motorsport-5",
      "service": "igdb"
    }
  ],
  "aliases": [],
  "shaders": [],
  "discord_id": "",
  "change_for": null
}