{
  "id": 149990,
  "name": "VR Slugger",
  "slug": "vr-slugger",
  "year": 2017,
  "banner_url": "https://lutris.net/games/banner/vr-slugger.jpg",
  "icon_url": "",
  "coverart": "https://lutris.net/media/igdb/cover_big/co273z.jpg",
  "platforms": [
    {
      "name": "Windows"
    }
  ],
  "provider_games": [
    {
      "name": "VR Slugger",
      "slug": "616890",
      "service": "steam"
    },
    {
      "name": "VR Slugger",
      "slug": "vr-slugger",
      "service": "igdb"
    }
  ],
  "aliases": [],
  "shaders": [],
  "discord_id": "",
  "change_for": null
}