{
  "id": 8825,
  "name": "Moorhuhn - Tiger and Chicken",
  "slug": "moorhuhn-tiger-and-chicken",
  "year": 2014,
  "banner_url": "https://lutris.net/games/banner/moorhuhn-tiger-and-chicken.jpg",
  "icon_url": "https://lutris.net/games/icon/moorhuhn-tiger-and-chicken.png",
  "coverart": "https://lutris.net/media/igdb/cover_big/co21d3.jpg",
  "platforms": [
    {
      "name": "Windows"
    }
  ],
  "provider_games": [
    {
      "name": "Moorhuhn - Tiger and Chicken",
      "slug": "321940",
      "service": "steam"
    },
    {
      "name": "Moorhuhn: Tiger and Chicken",
      "slug": "moorhuhn-tiger-and-chicken",
      "service": "igdb"
    }
  ],
  "aliases": [],
  "shaders": [],
  "discord_id": "",
  "change_for": null
}