{
  "id": 248750,
  "name": "Clock Ticker",
  "slug": "clock-ticker",
  "year": null,
  "banner_url": "",
  "icon_url": "",
  "coverart": "https://lutris.net/media/igdb/cover_big/co6n7d.jpg",
  "platforms": [],
  "provider_games": [
    {
      "name": "Clock Ticker",
      "slug": "clock-ticker",
      "service": "igdb"
    }
  ],
  "aliases": [],
  "shaders": [],
  "discord_id": "",
  "change_for": null
}