{
  "id": 177933,
  "name": "Bad Piggies",
  "slug": "bad-piggies",
  "year": 2012,
  "banner_url": "",
  "icon_url": "",
  "coverart": "https://lutris.net/media/igdb/cover_big/co49p4.jpg",
  "platforms": [
    {
      "name": "Android"
    },
    {
      "name": "BlackBerry OS"
    },
    {
      "name": "Mac"
    },
    {
      "name": "Windows"
    },
    {
      "name": "Windows Phone"
    }
  ],
  "provider_games": [
    {
      "name": "Bad Piggies",
      "slug": "bad-piggies",
      "service": "igdb"
    }
  ],
  "aliases": [],
  "shaders": [],
  "discord_id": "",
  "change_for": null
}