{
  "id": 250395,
  "name": "Geometra - Join the Colors",
  "slug": "geometra-join-the-colors",
  "year": null,
  "banner_url": "",
  "icon_url": "",
  "coverart": null,
  "platforms": [],
  "provider_games": [
    {
      "name": "Geometra - Join the Colors",
      "slug": "geometra-join-the-colors",
      "service": "igdb"
    }
  ],
  "aliases": [],
  "shaders": [],
  "discord_id": "",
  "change_for": null
}