{
  "id": 163605,
  "name": "Stuck!",
  "slug": "stuck--1",
  "year": null,
  "banner_url": "",
  "icon_url": "",
  "coverart": null,
  "platforms": [
    {
      "name": "Browser"
    },
    {
      "name": "Windows"
    }
  ],
  "provider_games": [
    {
      "name": "Stuck!",
      "slug": "stuck--1",
      "service": "igdb"
    }
  ],
  "aliases": [],
  "shaders": [],
  "discord_id": "",
  "change_for": null
}