{
  "id": 5648,
  "name": "Feel-A-Maze",
  "slug": "feel-a-maze",
  "year": 2014,
  "banner_url": "https://lutris.net/games/banner/feel-a-maze.jpg",
  "icon_url": "https://lutris.net/games/icon/feel-a-maze.png",
  "coverart": "https://lutris.net/media/igdb/cover_big/co3zmq.jpg",
  "platforms": [
    {
      "name": "Windows"
    }
  ],
  "provider_games": [
    {
      "name": "Feel-A-Maze",
      "slug": "333870",
      "service": "steam"
    },
    {
      "name": "Feel-A-Maze",
      "slug": "feel-a-maze",
      "service": "igdb"
    }
  ],
  "aliases": [],
  "shaders": [],
  "discord_id": "",
  "change_for": null
}