{
  "id": 54035,
  "name": "Thoroughbred Breeder",
  "slug": "thoroughbred-breeder",
  "year": 1993,
  "banner_url": "",
  "icon_url": "",
  "coverart": "https://lutris.net/media/igdb/cover_big/lkksk8fyaq6a34ynibmj.jpg",
  "platforms": [
    {
      "name": "Super Nintendo"
    }
  ],
  "provider_games": [
    {
      "name": "Thoroughbred Breeder",
      "slug": "thoroughbred-breeder",
      "service": "igdb"
    }
  ],
  "aliases": [],
  "shaders": [],
  "discord_id": "",
  "change_for": null
}