{
  "id": 159002,
  "name": "Road Flash",
  "slug": "road-flash",
  "year": null,
  "banner_url": "",
  "icon_url": "",
  "coverart": "https://lutris.net/media/igdb/cover_big/co3yl4.jpg",
  "platforms": [],
  "provider_games": [
    {
      "name": "Road Flash",
      "slug": "road-flash",
      "service": "igdb"
    }
  ],
  "aliases": [],
  "shaders": [],
  "discord_id": "",
  "change_for": null
}