{
  "id": 102562,
  "name": "Stop - Categories Word Game",
  "slug": "stop-categories-word-game",
  "year": 2014,
  "banner_url": "",
  "icon_url": "",
  "coverart": "https://lutris.net/media/igdb/cover_big/kikoujjhyz4ejjqqe6zv.jpg",
  "platforms": [],
  "provider_games": [
    {
      "name": "Stop: Categories Word Game",
      "slug": "stop-categories-word-game",
      "service": "igdb"
    }
  ],
  "aliases": [],
  "shaders": [],
  "discord_id": "",
  "change_for": null
}