{
  "id": 296813,
  "name": "Arcshu: Kagerou no Jidai wo Koete",
  "slug": "arcshu-kagerou-no-jidai-wo-koete",
  "year": 1989,
  "banner_url": "",
  "icon_url": "",
  "coverart": "https://lutris.net/media/igdb/cover_big/co8q78.jpg",
  "platforms": [
    {
      "name": "MSX"
    },
    {
      "name": "PC-8801"
    },
    {
      "name": "PC-98"
    },
    {
      "name": "X68000"
    }
  ],
  "provider_games": [
    {
      "name": "Arcshu: Kagerou no Jidai wo Koete",
      "slug": "arcshu-kagerou-no-jidai-wo-koete",
      "service": "igdb"
    }
  ],
  "aliases": [],
  "shaders": [],
  "discord_id": "",
  "change_for": null
}