{
  "id": 171685,
  "name": "Somewhere in Space...",
  "slug": "somewhere-in-space-dot-dot-dot",
  "year": null,
  "banner_url": "",
  "icon_url": "",
  "coverart": null,
  "platforms": [
    {
      "name": "Windows"
    }
  ],
  "provider_games": [
    {
      "name": "Somewhere in Space...",
      "slug": "somewhere-in-space-dot-dot-dot",
      "service": "igdb"
    }
  ],
  "aliases": [],
  "shaders": [],
  "discord_id": "",
  "change_for": null
}