{
  "id": 285958,
  "name": "Infantry Attack: Golden Edition",
  "slug": "infantry-attack-golden-edition",
  "year": 2024,
  "banner_url": "",
  "icon_url": "",
  "coverart": null,
  "platforms": [
    {
      "name": "Nintendo Switch"
    }
  ],
  "provider_games": [
    {
      "name": "Infantry Attack: Golden Edition",
      "slug": "infantry-attack-golden-edition",
      "service": "igdb"
    }
  ],
  "aliases": [],
  "shaders": [],
  "discord_id": "",
  "change_for": null
}