{
  "id": 103028,
  "name": "Touhou Soujiki",
  "slug": "touhou-soujiki",
  "year": 2006,
  "banner_url": "",
  "icon_url": "",
  "coverart": "https://lutris.net/media/igdb/cover_big/co2ncx.jpg",
  "platforms": [
    {
      "name": "Windows"
    }
  ],
  "provider_games": [
    {
      "name": "Touhou Soujiki",
      "slug": "touhou-soujiki",
      "service": "igdb"
    }
  ],
  "aliases": [],
  "shaders": [],
  "discord_id": "",
  "change_for": null
}