{
  "id": 50286,
  "name": "China Syndrome",
  "slug": "china-syndrome",
  "year": 1982,
  "banner_url": "",
  "icon_url": "",
  "coverart": "https://lutris.net/media/igdb/cover_big/flsp7rjqweabv8kxuddi.jpg",
  "platforms": [],
  "provider_games": [
    {
      "name": "China Syndrome",
      "slug": "china-syndrome",
      "service": "igdb"
    }
  ],
  "aliases": [],
  "shaders": [],
  "discord_id": "",
  "change_for": null
}