{
  "id": 179475,
  "name": "Pico Pirates",
  "slug": "pico-pirates",
  "year": null,
  "banner_url": "",
  "icon_url": "",
  "coverart": "https://lutris.net/media/igdb/cover_big/co7s2g.jpg",
  "platforms": [],
  "provider_games": [
    {
      "name": "Pico Pirates",
      "slug": "pico-pirates",
      "service": "igdb"
    }
  ],
  "aliases": [],
  "shaders": [],
  "discord_id": "",
  "change_for": null
}