{
  "id": 242924,
  "name": "Farhoud Farmand's The Mountaineer",
  "slug": "farhoud-farmands-the-mountaineer",
  "year": 2011,
  "banner_url": "",
  "icon_url": "",
  "coverart": "https://lutris.net/media/igdb/cover_big/co6h2g.jpg",
  "platforms": [
    {
      "name": "Windows"
    }
  ],
  "provider_games": [
    {
      "name": "Farhoud Farmand's The Mountaineer",
      "slug": "farhoud-farmands-the-mountaineer",
      "service": "igdb"
    }
  ],
  "aliases": [],
  "shaders": [],
  "discord_id": "",
  "change_for": null
}