{
  "id": 181225,
  "name": "Digital Monster Ver. S: Digimon Tamers",
  "slug": "digital-monster-ver-s-digimon-tamers",
  "year": 1998,
  "banner_url": "",
  "icon_url": "",
  "coverart": "https://lutris.net/media/igdb/cover_big/co4aji.jpg",
  "platforms": [
    {
      "name": "Sega Saturn"
    }
  ],
  "provider_games": [
    {
      "name": "Digital Monster Ver. S: Digimon Tamers",
      "slug": "digital-monster-ver-s-digimon-tamers",
      "service": "igdb"
    }
  ],
  "aliases": [],
  "shaders": [],
  "discord_id": "",
  "change_for": null
}