{
  "id": 40160,
  "name": "Efflorescence of Lust",
  "slug": "efflorescence-of-lust",
  "year": null,
  "banner_url": "https://lutris.net/games/banner/efflorescence-of-lust.jpg",
  "icon_url": "https://lutris.net/games/icon/efflorescence-of-lust.png",
  "coverart": "https://lutris.net/media/igdb/cover_big/co7r0i.jpg",
  "platforms": [],
  "provider_games": [
    {
      "name": "Efflorescence of Lust",
      "slug": "1215260",
      "service": "steam"
    },
    {
      "name": "Efflorescence of Lust",
      "slug": "efflorescence-of-lust",
      "service": "igdb"
    }
  ],
  "aliases": [],
  "shaders": [],
  "discord_id": "",
  "change_for": null
}