{
  "id": 78357,
  "name": "Dragon Throne: Battle of Red Cliffs",
  "slug": "dragon-throne-battle-of-red-cliffs",
  "year": 2002,
  "banner_url": "",
  "icon_url": "",
  "coverart": "https://lutris.net/media/igdb/cover_big/co22pb.jpg",
  "platforms": [
    {
      "name": "Windows"
    }
  ],
  "provider_games": [
    {
      "name": "Dragon Throne: Battle of Red Cliffs",
      "slug": "dragon-throne-battle-of-red-cliffs",
      "service": "igdb"
    },
    {
      "name": "Dragon Throne: Battle of Red Cliffs",
      "slug": "2633500",
      "service": "steam"
    }
  ],
  "aliases": [],
  "shaders": [],
  "discord_id": "",
  "change_for": null
}