{
  "id": 5369,
  "name": "Energy Hook",
  "slug": "energy-hook",
  "year": 2016,
  "banner_url": "https://lutris.net/games/banner/energy-hook.jpg",
  "icon_url": "https://lutris.net/games/icon/energy-hook.png",
  "coverart": "https://lutris.net/media/igdb/cover_big/ocytxdw9c8lwzujyvgau.jpg",
  "platforms": [
    {
      "name": "Linux"
    },
    {
      "name": "Mac"
    },
    {
      "name": "Sony Playstation 4"
    },
    {
      "name": "Windows"
    }
  ],
  "provider_games": [
    {
      "name": "Energy Hook",
      "slug": "378070",
      "service": "steam"
    },
    {
      "name": "Energy Hook",
      "slug": "energy-hook",
      "service": "igdb"
    }
  ],
  "aliases": [],
  "shaders": [],
  "discord_id": "",
  "change_for": null
}