{
  "id": 302138,
  "name": "Lelu",
  "slug": "lelu",
  "year": null,
  "banner_url": "",
  "icon_url": "",
  "coverart": "https://lutris.net/media/igdb/cover_big/co912a.jpg",
  "platforms": [],
  "provider_games": [
    {
      "name": "Lelu",
      "slug": "lelu",
      "service": "igdb"
    }
  ],
  "aliases": [],
  "shaders": [],
  "discord_id": "",
  "change_for": null
}