{
  "id": 295030,
  "name": "Hentai Girls: Ultra Premium",
  "slug": "hentai-girls-ultra-premium",
  "year": 2024,
  "banner_url": "",
  "icon_url": "",
  "coverart": null,
  "platforms": [
    {
      "name": "Nintendo Switch"
    }
  ],
  "provider_games": [
    {
      "name": "Hentai Girls: Ultra Premium",
      "slug": "hentai-girls-ultra-premium",
      "service": "igdb"
    }
  ],
  "aliases": [],
  "shaders": [],
  "discord_id": "",
  "change_for": null
}