{
  "id": 223399,
  "name": "Edessa: School of Wizardry",
  "slug": "edessa-school-of-wizardry",
  "year": 2022,
  "banner_url": "",
  "icon_url": "",
  "coverart": "https://lutris.net/media/igdb/cover_big/co4yl5.jpg",
  "platforms": [
    {
      "name": "Windows"
    }
  ],
  "provider_games": [
    {
      "name": "Edessa: School of Wizardry",
      "slug": "edessa-school-of-wizardry",
      "service": "igdb"
    }
  ],
  "aliases": [],
  "shaders": [],
  "discord_id": "",
  "change_for": null
}