{
  "id": 181561,
  "name": "A Hero's Guide To Gardening",
  "slug": "a-heros-guide-to-gardening",
  "year": null,
  "banner_url": "",
  "icon_url": "",
  "coverart": null,
  "platforms": [],
  "provider_games": [
    {
      "name": "A Hero's Guide to Gardening",
      "slug": "a-heros-guide-to-gardening",
      "service": "igdb"
    }
  ],
  "aliases": [],
  "shaders": [],
  "discord_id": "",
  "change_for": null
}