{
  "id": 228044,
  "name": "Bulletstorm: Lite",
  "slug": "bulletstorm-lite",
  "year": 2018,
  "banner_url": "",
  "icon_url": "",
  "coverart": "https://lutris.net/media/igdb/cover_big/co51z8.jpg",
  "platforms": [
    {
      "name": "Windows"
    }
  ],
  "provider_games": [
    {
      "name": "Bulletstorm: Lite",
      "slug": "bulletstorm-lite",
      "service": "igdb"
    }
  ],
  "aliases": [],
  "shaders": [],
  "discord_id": "",
  "change_for": null
}