{
  "id": 197188,
  "name": "Tenko's Magical Sword Quest",
  "slug": "tenkos-magical-sword-quest",
  "year": null,
  "banner_url": "",
  "icon_url": "",
  "coverart": "https://lutris.net/media/igdb/cover_big/co4lcs.jpg",
  "platforms": [],
  "provider_games": [
    {
      "name": "Tenko's Magical Sword Quest",
      "slug": "tenkos-magical-sword-quest",
      "service": "igdb"
    }
  ],
  "aliases": [],
  "shaders": [],
  "discord_id": "",
  "change_for": null
}