{
  "id": 6262,
  "game_id": 5550,
  "game_slug": "megaglest",
  "name": "MegaGlest",
  "year": 2010,
  "user": "fanotriel",
  "runner": "steam",
  "slug": "megaglest-steam",
  "version": "Steam",
  "description": "",
  "notes": "",
  "credits": "",
  "created_at": "2017-11-06T21:22:17.284299Z",
  "updated_at": "2017-11-14T22:09:17.074170Z",
  "draft": false,
  "published": true,
  "published_by": null,
  "rating": "",
  "is_playable": null,
  "steamid": 578870,
  "gogid": null,
  "gogslug": "",
  "humbleid": "",
  "humblestoreid": "",
  "humblestoreid_real": "",
  "script": {
    "game": {
      "appid": 578870
    }
  },
  "content": "game:\n  appid: 578870\n",
  "discord_id": ""
}