{
  "id": 146209,
  "name": "Sword Art Online: Hollow Fragment",
  "slug": "sword-art-online-hollow-fragment",
  "year": 2014,
  "banner_url": "",
  "icon_url": "",
  "coverart": "https://lutris.net/media/igdb/cover_big/co3wfj.jpg",
  "platforms": [
    {
      "name": "PlayStation Vita"
    }
  ],
  "provider_games": [
    {
      "name": "Sword Art Online: Hollow Fragment",
      "slug": "sword-art-online-hollow-fragment",
      "service": "igdb"
    }
  ],
  "aliases": [],
  "shaders": [],
  "discord_id": "",
  "change_for": null
}