{
  "id": 31184,
  "name": "Spooky Bonus",
  "slug": "spooky-bonus",
  "year": 2015,
  "banner_url": "https://lutris.net/games/banner/spooky-bonus.jpg",
  "icon_url": "https://lutris.net/games/icon/spooky-bonus.png",
  "coverart": "https://lutris.net/media/igdb/cover_big/co24tw.jpg",
  "platforms": [
    {
      "name": "Mac"
    },
    {
      "name": "New Nintendo 3DS"
    },
    {
      "name": "Windows"
    }
  ],
  "provider_games": [
    {
      "name": "Spooky Bonus",
      "slug": "388450",
      "service": "steam"
    },
    {
      "name": "Spooky Bonus",
      "slug": "spooky-bonus",
      "service": "igdb"
    }
  ],
  "aliases": [],
  "shaders": [],
  "discord_id": "",
  "change_for": null
}