{
  "id": 44207,
  "name": "Professor Teaches Quickbooks 2016",
  "slug": "professor-teaches-quickbooks-2016",
  "year": null,
  "banner_url": "https://lutris.net/games/banner/professor-teaches-quickbooks-2016.jpg",
  "icon_url": "https://lutris.net/games/icon/professor-teaches-quickbooks-2016.png",
  "coverart": null,
  "platforms": [],
  "provider_games": [
    {
      "name": "Professor Teaches Quickbooks 2016",
      "slug": "418290",
      "service": "steam"
    }
  ],
  "aliases": [],
  "shaders": [],
  "discord_id": "",
  "change_for": null
}