{
  "id": 163206,
  "name": "Farm Frenzy 3: Madagascar",
  "slug": "farm-frenzy-3-madagascar",
  "year": null,
  "banner_url": "",
  "icon_url": "",
  "coverart": "https://lutris.net/media/igdb/cover_big/co40ko.jpg",
  "platforms": [],
  "provider_games": [
    {
      "name": "Farm Frenzy 3: Madagascar",
      "slug": "farm-frenzy-3-madagascar",
      "service": "igdb"
    }
  ],
  "aliases": [],
  "shaders": [],
  "discord_id": "",
  "change_for": null
}