{
  "id": 19837,
  "name": "Tenchu 2 - Birth of the Stealth Assassins",
  "slug": "tenchu-2-birth-of-the-stealth-assassins",
  "year": 2000,
  "banner_url": "https://lutris.net/games/banner/tenchu-2-birth-of-the-stealth-assassins.jpg",
  "icon_url": "",
  "coverart": "https://lutris.net/media/igdb/cover_big/co2f37.jpg",
  "platforms": [
    {
      "name": "Sony PlayStation"
    }
  ],
  "provider_games": [
    {
      "name": "Tenchu 2: Birth of the Stealth Assassins",
      "slug": "tenchu-2-birth-of-the-stealth-assassins",
      "service": "igdb"
    }
  ],
  "aliases": [],
  "shaders": [],
  "discord_id": "",
  "change_for": null
}