{
  "id": 240230,
  "name": "Clone Drone",
  "slug": "clone-drone",
  "year": null,
  "banner_url": "",
  "icon_url": "",
  "coverart": null,
  "platforms": [],
  "provider_games": [
    {
      "name": "Clone Drone",
      "slug": "clone-drone",
      "service": "igdb"
    }
  ],
  "aliases": [],
  "shaders": [],
  "discord_id": "",
  "change_for": null
}