{
  "id": 11578,
  "name": "Sleengster 2",
  "slug": "sleengster-2",
  "year": 2017,
  "banner_url": "https://lutris.net/games/banner/sleengster-2.jpg",
  "icon_url": "https://lutris.net/games/icon/sleengster-2.png",
  "coverart": "https://lutris.net/media/igdb/cover_big/co1jzr.jpg",
  "platforms": [
    {
      "name": "Windows"
    }
  ],
  "provider_games": [
    {
      "name": "Sleengster 2",
      "slug": "sleengster-2",
      "service": "igdb"
    }
  ],
  "aliases": [],
  "shaders": [],
  "discord_id": "",
  "change_for": null
}