{
  "id": 43431,
  "name": "Splitgate",
  "slug": "splitgate",
  "year": 2019,
  "banner_url": "https://lutris.net/games/banner/splitgate.jpg",
  "icon_url": "https://lutris.net/games/icon/splitgate.png",
  "coverart": "https://lutris.net/media/igdb/cover_big/co3cs5.jpg",
  "platforms": [
    {
      "name": "Linux"
    },
    {
      "name": "Sony Playstation 4"
    },
    {
      "name": "Sony PlayStation 5"
    },
    {
      "name": "Windows"
    },
    {
      "name": "Xbox One"
    },
    {
      "name": "Xbox Series X|S"
    }
  ],
  "provider_games": [
    {
      "name": "Splitgate",
      "slug": "677620",
      "service": "steam"
    },
    {
      "name": "Splitgate",
      "slug": "splitgate",
      "service": "igdb"
    }
  ],
  "aliases": [
    {
      "slug": "splitgate-arena-warfare",
      "name": "Splitgate"
    }
  ],
  "shaders": [],
  "discord_id": "",
  "change_for": null
}