{
  "id": 90472,
  "name": "Stick Man: Helping Santa",
  "slug": "stick-man-helping-santa",
  "year": null,
  "banner_url": "",
  "icon_url": "",
  "coverart": null,
  "platforms": [],
  "provider_games": [
    {
      "name": "Stick Man: Helping Santa",
      "slug": "stick-man-helping-santa",
      "service": "igdb"
    }
  ],
  "aliases": [],
  "shaders": [],
  "discord_id": "",
  "change_for": null
}