{
  "id": 83149,
  "name": "Kyuukyoku Mahjong II",
  "slug": "kyuukyoku-mahjong-ii",
  "year": 1993,
  "banner_url": "",
  "icon_url": "",
  "coverart": null,
  "platforms": [
    {
      "name": "TurboGrafx-16/PC Engine"
    }
  ],
  "provider_games": [
    {
      "name": "Kyuukyoku Mahjong II",
      "slug": "kyuukyoku-mahjong-ii",
      "service": "igdb"
    }
  ],
  "aliases": [],
  "shaders": [],
  "discord_id": "",
  "change_for": null
}