{
  "id": 23731,
  "name": "Scythe: Digital Edition",
  "slug": "scythe-digital-edition",
  "year": 2018,
  "banner_url": "https://lutris.net/games/banner/scythe-digital-edition.jpg",
  "icon_url": "https://lutris.net/games/icon/scythe-digital-edition.png",
  "coverart": "https://lutris.net/media/igdb/cover_big/co2fuq.jpg",
  "platforms": [
    {
      "name": "Mac"
    },
    {
      "name": "Windows"
    }
  ],
  "provider_games": [
    {
      "name": "Scythe: Digital Edition",
      "slug": "718560",
      "service": "steam"
    },
    {
      "name": "Scythe: Digital Edition",
      "slug": "1621160758",
      "service": "gog"
    },
    {
      "name": "Scythe: Digital Edition",
      "slug": "scythe-digital-edition",
      "service": "igdb"
    }
  ],
  "aliases": [],
  "shaders": [],
  "discord_id": "",
  "change_for": null
}