{
  "id": 28886,
  "name": "Armored Core 3",
  "slug": "armored-core-3",
  "year": 2002,
  "banner_url": "https://lutris.net/games/banner/armored-core-3.jpg",
  "icon_url": "",
  "coverart": "https://lutris.net/media/igdb/cover_big/co1w7k.jpg",
  "platforms": [
    {
      "name": "Sony PlayStation 2"
    },
    {
      "name": "Sony PSP"
    }
  ],
  "provider_games": [
    {
      "name": "Armored Core 3",
      "slug": "armored-core-3",
      "service": "igdb"
    }
  ],
  "aliases": [],
  "shaders": [],
  "discord_id": "",
  "change_for": null
}