{
  "id": 279520,
  "name": "Revelatio",
  "slug": "revelatio",
  "year": null,
  "banner_url": "",
  "icon_url": "",
  "coverart": "https://lutris.net/media/igdb/cover_big/co7z4q.jpg",
  "platforms": [],
  "provider_games": [
    {
      "name": "Revelatio",
      "slug": "revelatio",
      "service": "igdb"
    }
  ],
  "aliases": [],
  "shaders": [],
  "discord_id": "",
  "change_for": null
}