{
  "id": 115835,
  "name": "SEGA AGES FANTASY ZONE",
  "slug": "sega-ages-fantasy-zone",
  "year": 2020,
  "banner_url": "",
  "icon_url": "",
  "coverart": "https://lutris.net/media/igdb/cover_big/co2t9s.jpg",
  "platforms": [
    {
      "name": "Nintendo Switch"
    }
  ],
  "provider_games": [
    {
      "name": "Sega Ages Fantasy Zone",
      "slug": "sega-ages-fantasy-zone",
      "service": "igdb"
    }
  ],
  "aliases": [],
  "shaders": [],
  "discord_id": "",
  "change_for": null
}