{
  "id": 6610,
  "name": "I Can't Escape: Darkness",
  "slug": "i-cant-escape-darkness",
  "year": null,
  "banner_url": "https://lutris.net/games/banner/i-cant-escape-darkness.jpg",
  "icon_url": "https://lutris.net/games/icon/i-cant-escape-darkness.png",
  "coverart": null,
  "platforms": [],
  "provider_games": [
    {
      "name": "I Can't Escape: Darkness",
      "slug": "346090",
      "service": "steam"
    }
  ],
  "aliases": [],
  "shaders": [],
  "discord_id": "",
  "change_for": null
}