{
  "id": 42020,
  "name": "ColdSide",
  "slug": "coldside",
  "year": 2020,
  "banner_url": "https://lutris.net/games/banner/coldside.jpg",
  "icon_url": "https://lutris.net/games/icon/coldside.png",
  "coverart": "https://lutris.net/media/igdb/cover_big/co2les.jpg",
  "platforms": [
    {
      "name": "Windows"
    }
  ],
  "provider_games": [
    {
      "name": "ColdSide",
      "slug": "1098270",
      "service": "steam"
    },
    {
      "name": "ColdSide",
      "slug": "coldside",
      "service": "igdb"
    }
  ],
  "aliases": [],
  "shaders": [],
  "discord_id": "",
  "change_for": null
}