{
  "id": 17506,
  "name": "Sweet Half-Life",
  "slug": "sweet-half-life",
  "year": 2001,
  "banner_url": "https://lutris.net/games/banner/sweet-half-life.jpg",
  "icon_url": "",
  "coverart": null,
  "platforms": [
    {
      "name": "Windows"
    }
  ],
  "provider_games": [],
  "aliases": [],
  "shaders": [],
  "discord_id": "",
  "change_for": null
}