{
  "id": 220887,
  "name": "Heartbeat Scramble",
  "slug": "heartbeat-scramble",
  "year": 1996,
  "banner_url": "",
  "icon_url": "",
  "coverart": "https://lutris.net/media/igdb/cover_big/co4ze0.jpg",
  "platforms": [
    {
      "name": "Sega Saturn"
    }
  ],
  "provider_games": [
    {
      "name": "Heartbeat Scramble",
      "slug": "heartbeat-scramble",
      "service": "igdb"
    }
  ],
  "aliases": [],
  "shaders": [],
  "discord_id": "",
  "change_for": null
}