{
  "id": 164253,
  "name": "Gates of Mirnah",
  "slug": "gates-of-mirnah",
  "year": null,
  "banner_url": "",
  "icon_url": "",
  "coverart": "https://lutris.net/media/igdb/cover_big/co417g.jpg",
  "platforms": [],
  "provider_games": [
    {
      "name": "Gates of Mirnah",
      "slug": "gates-of-mirnah",
      "service": "igdb"
    }
  ],
  "aliases": [],
  "shaders": [],
  "discord_id": "",
  "change_for": null
}