{
  "id": 1480,
  "name": "Trainz: Settle & Carlisle",
  "slug": "trainz-settle-carlisle",
  "year": null,
  "banner_url": "https://lutris.net/games/banner/trainz-settle-carlisle.jpg",
  "icon_url": "https://lutris.net/games/icon/trainz-settle-carlisle.png",
  "coverart": null,
  "platforms": [],
  "provider_games": [
    {
      "name": "Trainz: Settle & Carlisle",
      "slug": "24650",
      "service": "steam"
    }
  ],
  "aliases": [],
  "shaders": [],
  "discord_id": "",
  "change_for": null
}