{
  "id": 42948,
  "name": "The Adventures of Johnny Castaway",
  "slug": "the-adventures-of-johnny-castaway",
  "year": 1992,
  "banner_url": "",
  "icon_url": "",
  "coverart": null,
  "platforms": [
    {
      "name": "Linux"
    },
    {
      "name": "Windows"
    }
  ],
  "provider_games": [],
  "aliases": [],
  "shaders": [],
  "discord_id": "",
  "change_for": null
}