{
  "id": 56805,
  "name": "Shima Shima Tora no Shimajiro: Tanoshi Ichinichi",
  "slug": "shima-shima-tora-no-shimajiro-tanoshi-ichinichi",
  "year": null,
  "banner_url": "",
  "icon_url": "",
  "coverart": "https://lutris.net/media/igdb/cover_big/yqrpha0mdsjstimdmtoz.jpg",
  "platforms": [],
  "provider_games": [
    {
      "name": "Shima Shima Tora no Shimajiro: Tanoshi Ichinichi",
      "slug": "shima-shima-tora-no-shimajiro-tanoshi-ichinichi",
      "service": "igdb"
    }
  ],
  "aliases": [],
  "shaders": [],
  "discord_id": "",
  "change_for": null
}