{
  "id": 5462,
  "name": "Dungeon Souls",
  "slug": "dungeon-souls",
  "year": 2015,
  "banner_url": "https://lutris.net/games/banner/dungeon-souls.jpg",
  "icon_url": "https://lutris.net/games/icon/dungeon-souls.png",
  "coverart": "https://lutris.net/media/igdb/cover_big/co1hkt.jpg",
  "platforms": [
    {
      "name": "Linux"
    },
    {
      "name": "Mac"
    },
    {
      "name": "Windows"
    }
  ],
  "provider_games": [
    {
      "name": "Dungeon Souls",
      "slug": "1982030524",
      "service": "gog"
    },
    {
      "name": "Dungeon Souls",
      "slug": "dungeonsouls",
      "service": "humblebundle"
    },
    {
      "name": "Dungeon Souls",
      "slug": "383230",
      "service": "steam"
    },
    {
      "name": "Dungeon Souls",
      "slug": "dungeon-souls",
      "service": "igdb"
    }
  ],
  "aliases": [],
  "shaders": [],
  "discord_id": "",
  "change_for": null
}