{
  "id": 243305,
  "name": "Foxnox",
  "slug": "foxnox",
  "year": null,
  "banner_url": "",
  "icon_url": "",
  "coverart": "https://lutris.net/media/igdb/cover_big/co6fua.jpg",
  "platforms": [],
  "provider_games": [
    {
      "name": "Foxnox",
      "slug": "foxnox",
      "service": "igdb"
    }
  ],
  "aliases": [],
  "shaders": [],
  "discord_id": "",
  "change_for": null
}