{
  "id": 256998,
  "name": "Run From Mummies",
  "slug": "run-from-mummies",
  "year": null,
  "banner_url": "",
  "icon_url": "",
  "coverart": "https://lutris.net/media/igdb/cover_big/co70t0.jpg",
  "platforms": [],
  "provider_games": [
    {
      "name": "Run From Mummies",
      "slug": "run-from-mummies",
      "service": "igdb"
    }
  ],
  "aliases": [],
  "shaders": [],
  "discord_id": "",
  "change_for": null
}