{
  "id": 168742,
  "name": "eFootball",
  "slug": "efootball",
  "year": 2021,
  "banner_url": "",
  "icon_url": "",
  "coverart": "https://lutris.net/media/igdb/cover_big/co3h8g.jpg",
  "platforms": [
    {
      "name": "Android"
    },
    {
      "name": "Sony Playstation 4"
    },
    {
      "name": "Sony PlayStation 5"
    },
    {
      "name": "Windows"
    },
    {
      "name": "Xbox One"
    },
    {
      "name": "Xbox Series X|S"
    }
  ],
  "provider_games": [
    {
      "name": "eFootball",
      "slug": "efootball",
      "service": "igdb"
    }
  ],
  "aliases": [],
  "shaders": [],
  "discord_id": "",
  "change_for": null
}