{
  "id": 37483,
  "name": "Monobeno-HAPPY END-",
  "slug": "monobeno-happy-end-",
  "year": null,
  "banner_url": "https://lutris.net/games/banner/monobeno-happy-end-.jpg",
  "icon_url": "https://lutris.net/games/icon/monobeno-happy-end-.png",
  "coverart": null,
  "platforms": [],
  "provider_games": [
    {
      "name": "Monobeno-HAPPY END-",
      "slug": "831660",
      "service": "steam"
    }
  ],
  "aliases": [],
  "shaders": [],
  "discord_id": "",
  "change_for": null
}