{
  "id": 71289,
  "name": "Digital Hazard",
  "slug": "digital-hazard",
  "year": null,
  "banner_url": "",
  "icon_url": "",
  "coverart": null,
  "platforms": [],
  "provider_games": [
    {
      "name": "Digital Hazard",
      "slug": "digital-hazard",
      "service": "igdb"
    }
  ],
  "aliases": [],
  "shaders": [],
  "discord_id": "",
  "change_for": null
}