{
  "id": 177523,
  "name": "Fairy Bakery Workshop",
  "slug": "fairy-bakery-workshop",
  "year": null,
  "banner_url": "",
  "icon_url": "",
  "coverart": "https://lutris.net/media/igdb/cover_big/co49ks.jpg",
  "platforms": [],
  "provider_games": [
    {
      "name": "Fairy Bakery Workshop",
      "slug": "fairy-bakery-workshop",
      "service": "igdb"
    }
  ],
  "aliases": [],
  "shaders": [],
  "discord_id": "",
  "change_for": null
}