{
  "id": 221398,
  "name": "Water Sort Jigsaw: Color Sort",
  "slug": "water-sort-jigsaw-color-sort",
  "year": null,
  "banner_url": "",
  "icon_url": "",
  "coverart": null,
  "platforms": [],
  "provider_games": [
    {
      "name": "Water Sort Jigsaw: Color Sort",
      "slug": "water-sort-jigsaw-color-sort",
      "service": "igdb"
    }
  ],
  "aliases": [],
  "shaders": [],
  "discord_id": "",
  "change_for": null
}