{
  "id": 255523,
  "name": "Arrow a Row",
  "slug": "arrow-a-row",
  "year": null,
  "banner_url": "",
  "icon_url": "",
  "coverart": "https://lutris.net/media/igdb/cover_big/co6ykt.jpg",
  "platforms": [],
  "provider_games": [
    {
      "name": "Arrow a Row",
      "slug": "arrow-a-row",
      "service": "igdb"
    }
  ],
  "aliases": [],
  "shaders": [],
  "discord_id": "",
  "change_for": null
}