{
  "id": 3806,
  "name": "Star Nomad",
  "slug": "star-nomad",
  "year": 2014,
  "banner_url": "https://lutris.net/games/banner/star-nomad.jpg",
  "icon_url": "",
  "coverart": null,
  "platforms": [
    {
      "name": "Mac"
    },
    {
      "name": "Windows"
    }
  ],
  "provider_games": [
    {
      "name": "Star Nomad",
      "slug": "338830",
      "service": "steam"
    },
    {
      "name": "Star Nomad",
      "slug": "star-nomad",
      "service": "igdb"
    }
  ],
  "aliases": [],
  "shaders": [],
  "discord_id": "",
  "change_for": null
}