{
  "id": 294766,
  "name": "Combat Mission Battle for Normandy",
  "slug": "combat-mission-battle-for-normandy-1",
  "year": 2011,
  "banner_url": "",
  "icon_url": "",
  "coverart": null,
  "platforms": [],
  "provider_games": [
    {
      "name": "Combat Mission Battle for Normandy",
      "slug": "1495681449",
      "service": "gog"
    }
  ],
  "aliases": [],
  "shaders": [],
  "discord_id": "",
  "change_for": null
}