{
  "id": 250895,
  "name": "Kawaii Kingdom",
  "slug": "kawaii-kingdom",
  "year": 2020,
  "banner_url": "",
  "icon_url": "",
  "coverart": "https://lutris.net/media/igdb/cover_big/co6pzv.jpg",
  "platforms": [
    {
      "name": "Android"
    }
  ],
  "provider_games": [
    {
      "name": "Kawaii Kingdom",
      "slug": "kawaii-kingdom",
      "service": "igdb"
    }
  ],
  "aliases": [],
  "shaders": [],
  "discord_id": "",
  "change_for": null
}