{
  "id": 276397,
  "name": "The Dream Within",
  "slug": "the-dream-within",
  "year": null,
  "banner_url": "",
  "icon_url": "",
  "coverart": "https://lutris.net/media/igdb/cover_big/co7ulb.jpg",
  "platforms": [],
  "provider_games": [
    {
      "name": "The Dream Within",
      "slug": "the-dream-within",
      "service": "igdb"
    }
  ],
  "aliases": [],
  "shaders": [],
  "discord_id": "",
  "change_for": null
}