{
  "id": 12871,
  "name": "Breaking Bones",
  "slug": "breaking-bones",
  "year": 2016,
  "banner_url": "https://lutris.net/games/banner/breaking-bones.jpg",
  "icon_url": "https://lutris.net/games/icon/breaking-bones.png",
  "coverart": null,
  "platforms": [
    {
      "name": "Windows"
    }
  ],
  "provider_games": [
    {
      "name": "Breaking Bones",
      "slug": "560570",
      "service": "steam"
    },
    {
      "name": "Breaking Bones",
      "slug": "breaking-bones",
      "service": "igdb"
    }
  ],
  "aliases": [],
  "shaders": [],
  "discord_id": "",
  "change_for": null
}