{
  "id": 259350,
  "name": "Naoko to Hide-bou: Sansuu no Tensai 2 - Hayasa no Bunshoudai Tsuukasan Part I",
  "slug": "naoko-to-hide-bou-sansuu-no-tensai-2-hayasa-no-bunshoudai-tsuukasan-part-i",
  "year": null,
  "banner_url": "",
  "icon_url": "",
  "coverart": "https://lutris.net/media/igdb/cover_big/co74yd.jpg",
  "platforms": [
    {
      "name": "3DO"
    }
  ],
  "provider_games": [
    {
      "name": "Naoko to Hide-bou: Sansuu no Tensai 2 - Hayasa no Bunshoudai Tsuukasan Part I",
      "slug": "naoko-to-hide-bou-sansuu-no-tensai-2-hayasa-no-bunshoudai-tsuukasan-part-i",
      "service": "igdb"
    }
  ],
  "aliases": [],
  "shaders": [],
  "discord_id": "",
  "change_for": null
}