{
  "id": 102082,
  "name": "FX Fighter",
  "slug": "fx-fighter",
  "year": 1995,
  "banner_url": "",
  "icon_url": "",
  "coverart": "https://lutris.net/media/igdb/cover_big/qu1jcac26heyw3geiss3.jpg",
  "platforms": [],
  "provider_games": [
    {
      "name": "FX Fighter",
      "slug": "fx-fighter",
      "service": "igdb"
    }
  ],
  "aliases": [],
  "shaders": [],
  "discord_id": "",
  "change_for": null
}