{
  "id": 222166,
  "name": "Brain Builder",
  "slug": "brain-builder",
  "year": null,
  "banner_url": "",
  "icon_url": "",
  "coverart": "https://lutris.net/media/igdb/cover_big/co4ybw.jpg",
  "platforms": [],
  "provider_games": [
    {
      "name": "Brain Builder",
      "slug": "brain-builder",
      "service": "igdb"
    }
  ],
  "aliases": [],
  "shaders": [],
  "discord_id": "",
  "change_for": null
}