{
  "id": 83534,
  "name": "Defenders: TD Origins",
  "slug": "defenders-td-origins",
  "year": null,
  "banner_url": "",
  "icon_url": "",
  "coverart": null,
  "platforms": [],
  "provider_games": [
    {
      "name": "Defenders: TD Origins",
      "slug": "defenders-td-origins",
      "service": "igdb"
    }
  ],
  "aliases": [],
  "shaders": [],
  "discord_id": "",
  "change_for": null
}