{
  "id": 22385,
  "name": "Fog of War",
  "slug": "fog-of-war",
  "year": 2017,
  "banner_url": "https://lutris.net/games/banner/fog-of-war.jpg",
  "icon_url": "https://lutris.net/games/icon/fog-of-war.png",
  "coverart": "https://lutris.net/media/igdb/cover_big/co2bfb.jpg",
  "platforms": [
    {
      "name": "Windows"
    }
  ],
  "provider_games": [
    {
      "name": "Fog of War",
      "slug": "574080",
      "service": "steam"
    },
    {
      "name": "Fog of War",
      "slug": "fog-of-war",
      "service": "igdb"
    }
  ],
  "aliases": [],
  "shaders": [],
  "discord_id": "",
  "change_for": null
}