{
  "id": 4791,
  "game_id": 1145,
  "game_slug": "blackwell-unbound",
  "name": "Blackwell Unbound",
  "year": 2007,
  "user": "FakeShemp",
  "runner": "ags",
  "slug": "blackwell-unbound-bundle-in-a-box-1",
  "version": "Bundle in a Box",
  "description": "Uses the files from the Windows installer from BIAB.",
  "notes": "",
  "credits": "",
  "created_at": "2017-07-04T08:43:15.240617Z",
  "updated_at": "2024-04-03T05:13:14.759945Z",
  "draft": false,
  "published": true,
  "published_by": null,
  "rating": "",
  "is_playable": null,
  "steamid": 80340,
  "gogid": 1207659050,
  "gogslug": "blackwell_bundle",
  "humbleid": "blackwellunbound",
  "humblestoreid": "blackwellunbound",
  "humblestoreid_real": "",
  "script": {
    "files": [
      {
        "file1": "N/A:Please select the BIAB archive"
      },
      {
        "file2": "https://lutris.nyc3.digitaloceanspaces.com/tools/innoextract/innoextract-1.8-dev-2019-01-13-linux.tar.xz"
      }
    ],
    "game": {
      "main_file": "Unbound.exe"
    },
    "installer": [
      {
        "extract": {
          "dst": "$CACHE",
          "file": "$file1"
        }
      },
      {
        "extract": {
          "dst": "$CACHE",
          "file": "$file2"
        }
      },
      {
        "execute": {
          "args": "-d \"$CACHE\" $CACHE/Unbound_Setup_v11.exe",
          "file": "$CACHE/innoextract"
        }
      },
      {
        "merge": {
          "dst": "$GAMEDIR",
          "src": "$CACHE/app"
        }
      }
    ]
  },
  "content": "files:\n- file1: N/A:Please select the BIAB archive\n- file2: https://lutris.nyc3.digitaloceanspaces.com/tools/innoextract/innoextract-1.8-dev-2019-01-13-linux.tar.xz\ngame:\n  main_file: Unbound.exe\ninstaller:\n- extract:\n    dst: $CACHE\n    file: $file1\n- extract:\n    dst: $CACHE\n    file: $file2\n- execute:\n    args: -d \"$CACHE\" $CACHE/Unbound_Setup_v11.exe\n    file: $CACHE/innoextract\n- merge:\n    dst: $GAMEDIR\n    src: $CACHE/app\n",
  "discord_id": ""
}