{
  "id": 13294,
  "name": "Nongünz",
  "slug": "nongunz",
  "year": 2017,
  "banner_url": "https://lutris.net/games/banner/nongunz.jpg",
  "icon_url": "https://lutris.net/games/icon/nongunz.png",
  "coverart": "https://lutris.net/media/igdb/cover_big/co24zw.jpg",
  "platforms": [
    {
      "name": "Linux"
    },
    {
      "name": "Mac"
    },
    {
      "name": "Windows"
    }
  ],
  "provider_games": [
    {
      "name": "Nongunz",
      "slug": "nongunz",
      "service": "igdb"
    }
  ],
  "aliases": [],
  "shaders": [],
  "discord_id": "",
  "change_for": null
}