{
  "id": 1508,
  "game_id": 4230,
  "game_slug": "breach-clear-deadline",
  "name": "Breach & Clear: Deadline",
  "year": null,
  "user": "Xodetaetl",
  "runner": "steam",
  "slug": "breach-clear-deadline-steam",
  "version": "Steam",
  "description": "",
  "notes": "",
  "credits": "",
  "created_at": "2015-04-25T17:55:13.365000Z",
  "updated_at": "2015-04-25T17:55:45.707000Z",
  "draft": false,
  "published": true,
  "published_by": null,
  "rating": "",
  "is_playable": null,
  "steamid": 310890,
  "gogid": 1434036647,
  "gogslug": "breach_clear_deadline",
  "humbleid": "",
  "humblestoreid": "",
  "humblestoreid_real": "",
  "script": {
    "game": {
      "appid": 310890
    }
  },
  "content": "game:\n  appid: 310890\n",
  "discord_id": ""
}