{
  "id": 101804,
  "name": "Pixel Warfare 4",
  "slug": "pixel-warfare-4",
  "year": null,
  "banner_url": "",
  "icon_url": "",
  "coverart": null,
  "platforms": [],
  "provider_games": [
    {
      "name": "Pixel Warfare 4",
      "slug": "pixel-warfare-4",
      "service": "igdb"
    }
  ],
  "aliases": [],
  "shaders": [],
  "discord_id": "",
  "change_for": null
}