{
  "id": 26615,
  "name": "Train Bandit",
  "slug": "train-bandit",
  "year": 2017,
  "banner_url": "https://lutris.net/games/banner/train-bandit.jpg",
  "icon_url": "https://lutris.net/games/icon/train-bandit.png",
  "coverart": "https://lutris.net/media/igdb/cover_big/kuwcrud39dauwasos1nn.jpg",
  "platforms": [
    {
      "name": "Mac"
    },
    {
      "name": "Windows"
    }
  ],
  "provider_games": [
    {
      "name": "Train Bandit",
      "slug": "655370",
      "service": "steam"
    },
    {
      "name": "Train Bandit",
      "slug": "train-bandit",
      "service": "igdb"
    }
  ],
  "aliases": [],
  "shaders": [],
  "discord_id": "",
  "change_for": null
}