{
  "id": 267312,
  "name": "MetroSim: The Subway Simulator",
  "slug": "metrosim-the-subway-simulator",
  "year": null,
  "banner_url": "",
  "icon_url": "",
  "coverart": "https://lutris.net/media/igdb/cover_big/co7eak.jpg",
  "platforms": [],
  "provider_games": [
    {
      "name": "MetroSim: The Subway Simulator",
      "slug": "metrosim-the-subway-simulator",
      "service": "igdb"
    }
  ],
  "aliases": [],
  "shaders": [],
  "discord_id": "",
  "change_for": null
}