{
  "id": 93479,
  "name": "Army Men For Kids",
  "slug": "army-men-for-kids",
  "year": null,
  "banner_url": "",
  "icon_url": "",
  "coverart": null,
  "platforms": [],
  "provider_games": [
    {
      "name": "Army Men For Kids",
      "slug": "army-men-for-kids",
      "service": "igdb"
    }
  ],
  "aliases": [],
  "shaders": [],
  "discord_id": "",
  "change_for": null
}