{
  "id": 143182,
  "name": "SimLife",
  "slug": "simlife",
  "year": 1992,
  "banner_url": "",
  "icon_url": "",
  "coverart": "https://lutris.net/media/igdb/cover_big/gdr9a3rxvvuyfbgh0a33.jpg",
  "platforms": [
    {
      "name": "Amiga"
    },
    {
      "name": "Windows"
    }
  ],
  "provider_games": [
    {
      "name": "SimLife",
      "slug": "simlife",
      "service": "igdb"
    }
  ],
  "aliases": [],
  "shaders": [],
  "discord_id": "",
  "change_for": null
}