{
  "id": 54343,
  "name": "Air Inferno",
  "slug": "air-inferno",
  "year": 1990,
  "banner_url": "",
  "icon_url": "",
  "coverart": "https://lutris.net/media/igdb/cover_big/qhvfzuy69vvrloru9xhr.jpg",
  "platforms": [],
  "provider_games": [
    {
      "name": "Air Inferno",
      "slug": "air-inferno",
      "service": "igdb"
    }
  ],
  "aliases": [],
  "shaders": [],
  "discord_id": "",
  "change_for": null
}