{
  "id": 54763,
  "name": "Corporation Master",
  "slug": "corporation-master",
  "year": null,
  "banner_url": "",
  "icon_url": "",
  "coverart": "https://lutris.net/media/igdb/cover_big/otbmsgr6epjmxkm5hzm7.jpg",
  "platforms": [],
  "provider_games": [
    {
      "name": "Corporation Master",
      "slug": "corporation-master",
      "service": "igdb"
    }
  ],
  "aliases": [],
  "shaders": [],
  "discord_id": "",
  "change_for": null
}