{
  "id": 140293,
  "name": "6 takes!",
  "slug": "6-takes",
  "year": null,
  "banner_url": "",
  "icon_url": "",
  "coverart": "https://lutris.net/media/igdb/cover_big/co3sdh.jpg",
  "platforms": [],
  "provider_games": [
    {
      "name": "6 Takes!",
      "slug": "6-takes",
      "service": "igdb"
    }
  ],
  "aliases": [],
  "shaders": [],
  "discord_id": "",
  "change_for": null
}