{
  "id": 244782,
  "name": "Golden Gate",
  "slug": "golden-gate--1",
  "year": null,
  "banner_url": "",
  "icon_url": "",
  "coverart": null,
  "platforms": [
    {
      "name": "Plug & Play"
    }
  ],
  "provider_games": [
    {
      "name": "Golden Gate",
      "slug": "golden-gate--1",
      "service": "igdb"
    }
  ],
  "aliases": [],
  "shaders": [],
  "discord_id": "",
  "change_for": null
}