{
  "id": 291246,
  "name": "Higashio Osamu Kanshuu: Pro Yakyuu Stadium '91",
  "slug": "higashio-osamu-kanshuu-pro-yakyuu-stadium-91",
  "year": 1991,
  "banner_url": "",
  "icon_url": "",
  "coverart": "https://lutris.net/media/igdb/cover_big/co8h9q.jpg",
  "platforms": [
    {
      "name": "Game Boy"
    }
  ],
  "provider_games": [
    {
      "name": "Higashio Osamu Kanshuu: Pro Yakyuu Stadium '91",
      "slug": "higashio-osamu-kanshuu-pro-yakyuu-stadium-91",
      "service": "igdb"
    }
  ],
  "aliases": [],
  "shaders": [],
  "discord_id": "",
  "change_for": null
}