{
  "id": 62404,
  "name": "Himitsu Chouhou Buin: 00Nanako-chan II",
  "slug": "himitsu-chouhou-buin-00nanako-chan-ii",
  "year": null,
  "banner_url": "",
  "icon_url": "",
  "coverart": "https://lutris.net/media/igdb/cover_big/vdthfthasxgam07hwta5.jpg",
  "platforms": [],
  "provider_games": [
    {
      "name": "Himitsu Chouhou Buin: 00Nanako-chan II",
      "slug": "himitsu-chouhou-buin-00nanako-chan-ii",
      "service": "igdb"
    }
  ],
  "aliases": [],
  "shaders": [],
  "discord_id": "",
  "change_for": null
}