{
  "id": 52479,
  "name": "Protector",
  "slug": "protector--1",
  "year": 1981,
  "banner_url": "",
  "icon_url": "",
  "coverart": "https://lutris.net/media/igdb/cover_big/zkzxs5jaqkdyv27nrjww.jpg",
  "platforms": [
    {
      "name": "Atari 8-bit"
    },
    {
      "name": "BBC Microcomputer System"
    },
    {
      "name": "Commodore VIC-20"
    }
  ],
  "provider_games": [
    {
      "name": "Protector",
      "slug": "protector--1",
      "service": "igdb"
    }
  ],
  "aliases": [],
  "shaders": [],
  "discord_id": "",
  "change_for": null
}