{
  "id": 256478,
  "name": "The Sailor’s Guide to Game Design",
  "slug": "the-sailors-guide-to-game-design",
  "year": null,
  "banner_url": "",
  "icon_url": "",
  "coverart": "https://lutris.net/media/igdb/cover_big/co6zh3.jpg",
  "platforms": [],
  "provider_games": [
    {
      "name": "The Sailor’s Guide to Game Design",
      "slug": "the-sailors-guide-to-game-design",
      "service": "igdb"
    }
  ],
  "aliases": [],
  "shaders": [],
  "discord_id": "",
  "change_for": null
}