{
  "id": 265413,
  "name": "Paradise Architect",
  "slug": "paradise-architect",
  "year": null,
  "banner_url": "",
  "icon_url": "",
  "coverart": "https://lutris.net/media/igdb/cover_big/co7ayj.jpg",
  "platforms": [],
  "provider_games": [
    {
      "name": "Paradise Architect",
      "slug": "paradise-architect",
      "service": "igdb"
    }
  ],
  "aliases": [],
  "shaders": [],
  "discord_id": "",
  "change_for": null
}