{
  "id": 289378,
  "name": "Trials Bike Basic",
  "slug": "trials-bike-basic",
  "year": 2003,
  "banner_url": "",
  "icon_url": "",
  "coverart": null,
  "platforms": [
    {
      "name": "Browser"
    }
  ],
  "provider_games": [
    {
      "name": "Trials Bike Basic",
      "slug": "trials-bike-basic",
      "service": "igdb"
    }
  ],
  "aliases": [],
  "shaders": [],
  "discord_id": "",
  "change_for": null
}