{
  "id": 274816,
  "name": "Fishin' for Average Caucasian Boyfriends",
  "slug": "fishin-for-average-caucasian-boyfriends",
  "year": null,
  "banner_url": "",
  "icon_url": "",
  "coverart": "https://lutris.net/media/igdb/cover_big/co7v4q.jpg",
  "platforms": [
    {
      "name": "Game Boy"
    },
    {
      "name": "Windows"
    }
  ],
  "provider_games": [
    {
      "name": "Fishin' for Average Caucasian Boyfriends",
      "slug": "fishin-for-average-caucasian-boyfriends",
      "service": "igdb"
    }
  ],
  "aliases": [],
  "shaders": [],
  "discord_id": "",
  "change_for": null
}