{
  "id": 73985,
  "name": "Legend of Junior",
  "slug": "legend-of-junior",
  "year": null,
  "banner_url": "",
  "icon_url": "",
  "coverart": null,
  "platforms": [],
  "provider_games": [
    {
      "name": "Legend of Junior",
      "slug": "legend-of-junior",
      "service": "igdb"
    }
  ],
  "aliases": [],
  "shaders": [],
  "discord_id": "",
  "change_for": null
}