{
  "id": 20334,
  "name": "Super Samurai Rampage",
  "slug": "super-samurai-rampage",
  "year": 2017,
  "banner_url": "https://lutris.net/games/banner/super-samurai-rampage.jpg",
  "icon_url": "https://lutris.net/games/icon/super-samurai-rampage.png",
  "coverart": "https://lutris.net/media/igdb/cover_big/gvve5djtfbmvzkjahj4p.jpg",
  "platforms": [
    {
      "name": "Windows"
    }
  ],
  "provider_games": [
    {
      "name": "Super Samurai Rampage",
      "slug": "675030",
      "service": "steam"
    },
    {
      "name": "Super Samurai Rampage",
      "slug": "super-samurai-rampage",
      "service": "igdb"
    }
  ],
  "aliases": [],
  "shaders": [],
  "discord_id": "",
  "change_for": null
}