{
  "id": 26387,
  "name": "Kartridge",
  "slug": "kartridge",
  "year": 2018,
  "banner_url": "https://lutris.net/games/banner/kartridge.jpg",
  "icon_url": "https://lutris.net/games/icon/kartridge.png",
  "coverart": null,
  "platforms": [
    {
      "name": "Windows"
    }
  ],
  "provider_games": [],
  "aliases": [],
  "shaders": [],
  "discord_id": "",
  "change_for": null
}