{
  "id": 223920,
  "name": "Cafe Tsuku: Is the order a Heart?",
  "slug": "cafe-tsuku-is-the-order-a-heart",
  "year": 2014,
  "banner_url": "",
  "icon_url": "",
  "coverart": "https://lutris.net/media/igdb/cover_big/co4v6n.jpg",
  "platforms": [
    {
      "name": "Windows"
    }
  ],
  "provider_games": [
    {
      "name": "Cafe Tsuku: Is the order a Heart?",
      "slug": "cafe-tsuku-is-the-order-a-heart",
      "service": "igdb"
    }
  ],
  "aliases": [],
  "shaders": [],
  "discord_id": "",
  "change_for": null
}