{
  "id": 152765,
  "name": "Wanna Run Again",
  "slug": "wanna-run-again",
  "year": null,
  "banner_url": "",
  "icon_url": "",
  "coverart": "https://lutris.net/media/igdb/cover_big/co3laj.jpg",
  "platforms": [],
  "provider_games": [
    {
      "name": "Wanna Run Again",
      "slug": "wanna-run-again",
      "service": "igdb"
    }
  ],
  "aliases": [],
  "shaders": [],
  "discord_id": "",
  "change_for": null
}