{
  "id": 32244,
  "name": "Enlisted",
  "slug": "enlisted",
  "year": 2020,
  "banner_url": "https://lutris.net/games/banner/enlisted.jpg",
  "icon_url": "",
  "coverart": "https://lutris.net/media/igdb/cover_big/co2q1y.jpg",
  "platforms": [
    {
      "name": "Sony Playstation 4"
    },
    {
      "name": "Sony PlayStation 5"
    },
    {
      "name": "Windows"
    },
    {
      "name": "Xbox One"
    },
    {
      "name": "Xbox Series X|S"
    }
  ],
  "provider_games": [
    {
      "name": "Enlisted",
      "slug": "enlisted",
      "service": "igdb"
    },
    {
      "name": "Enlisted",
      "slug": "2051620",
      "service": "steam"
    }
  ],
  "aliases": [],
  "shaders": [],
  "discord_id": "",
  "change_for": null
}