{
  "id": 305910,
  "name": "Siren Head: Sound Of Despair",
  "slug": "siren-head-sound-of-despair",
  "year": 2020,
  "banner_url": "",
  "icon_url": "",
  "coverart": "https://lutris.net/media/igdb/cover_big/co97hf.jpg",
  "platforms": [
    {
      "name": "Android"
    },
    {
      "name": "Windows"
    }
  ],
  "provider_games": [
    {
      "name": "Siren Head: Sound Of Despair",
      "slug": "siren-head-sound-of-despair",
      "service": "igdb"
    }
  ],
  "aliases": [],
  "shaders": [],
  "discord_id": "",
  "change_for": null
}