{
  "id": 172892,
  "name": "Nina Aquila: Legal Eagle - Chapter III: \"Legal Stage\"",
  "slug": "nina-aquila-legal-eagle-chapter-iii-legal-stage",
  "year": null,
  "banner_url": "",
  "icon_url": "",
  "coverart": "https://lutris.net/media/igdb/cover_big/co4hcp.jpg",
  "platforms": [],
  "provider_games": [
    {
      "name": "Nina Aquila: Legal Eagle - Chapter III: \"Legal Stage\"",
      "slug": "nina-aquila-legal-eagle-chapter-iii-legal-stage",
      "service": "igdb"
    }
  ],
  "aliases": [],
  "shaders": [],
  "discord_id": "",
  "change_for": null
}