{
  "id": 110457,
  "name": "Speed Driver 5: The New Generation",
  "slug": "speed-driver-5-the-new-generation",
  "year": 2019,
  "banner_url": "",
  "icon_url": "",
  "coverart": "https://lutris.net/media/igdb/cover_big/co2yzm.jpg",
  "platforms": [],
  "provider_games": [
    {
      "name": "Speed Driver 5: The New Generation",
      "slug": "speed-driver-5-the-new-generation",
      "service": "igdb"
    }
  ],
  "aliases": [],
  "shaders": [],
  "discord_id": "",
  "change_for": null
}