{
  "id": 61317,
  "name": "Monster Burner",
  "slug": "monster-burner",
  "year": null,
  "banner_url": "",
  "icon_url": "",
  "coverart": "https://lutris.net/media/igdb/cover_big/pq9ryvakxrsxnlefxrgc.jpg",
  "platforms": [],
  "provider_games": [
    {
      "name": "Monster Burner",
      "slug": "monster-burner",
      "service": "igdb"
    }
  ],
  "aliases": [],
  "shaders": [],
  "discord_id": "",
  "change_for": null
}