{
  "id": 278873,
  "name": "Wake Cup",
  "slug": "wake-cup",
  "year": null,
  "banner_url": "",
  "icon_url": "",
  "coverart": "https://lutris.net/media/igdb/cover_big/co7xdy.jpg",
  "platforms": [],
  "provider_games": [
    {
      "name": "Wake Cup",
      "slug": "wake-cup",
      "service": "igdb"
    }
  ],
  "aliases": [],
  "shaders": [],
  "discord_id": "",
  "change_for": null
}