{
  "id": 172958,
  "name": "Respawnables: Special Forces",
  "slug": "respawnables-special-forces",
  "year": 2012,
  "banner_url": "",
  "icon_url": "",
  "coverart": "https://lutris.net/media/igdb/cover_big/tww5bb0zi2ktjfeobnn0.jpg",
  "platforms": [
    {
      "name": "Android"
    }
  ],
  "provider_games": [
    {
      "name": "Respawnables: Special Forces",
      "slug": "respawnables-special-forces",
      "service": "igdb"
    }
  ],
  "aliases": [],
  "shaders": [],
  "discord_id": "",
  "change_for": null
}