{
  "id": 260341,
  "name": "Cryptid Hunter",
  "slug": "cryptid-hunter",
  "year": null,
  "banner_url": "",
  "icon_url": "",
  "coverart": "https://lutris.net/media/igdb/cover_big/co73g7.jpg",
  "platforms": [],
  "provider_games": [
    {
      "name": "Cryptid Hunter",
      "slug": "cryptid-hunter",
      "service": "igdb"
    }
  ],
  "aliases": [],
  "shaders": [],
  "discord_id": "",
  "change_for": null
}