{
  "id": 270738,
  "name": "Disgaea 7: Vows of the Virtueless - Limited Edition",
  "slug": "disgaea-7-vows-of-the-virtueless-limited-edition",
  "year": 2023,
  "banner_url": "",
  "icon_url": "",
  "coverart": "https://lutris.net/media/igdb/cover_big/co7nbs.jpg",
  "platforms": [
    {
      "name": "Nintendo Switch"
    },
    {
      "name": "Sony Playstation 4"
    },
    {
      "name": "Sony PlayStation 5"
    }
  ],
  "provider_games": [
    {
      "name": "Disgaea 7: Vows of the Virtueless - Limited Edition",
      "slug": "disgaea-7-vows-of-the-virtueless-limited-edition",
      "service": "igdb"
    }
  ],
  "aliases": [],
  "shaders": [],
  "discord_id": "",
  "change_for": null
}