{
  "id": 76925,
  "name": "New Hyu Stone",
  "slug": "new-hyu-stone",
  "year": null,
  "banner_url": "",
  "icon_url": "",
  "coverart": null,
  "platforms": [],
  "provider_games": [
    {
      "name": "New Hyu Stone",
      "slug": "new-hyu-stone",
      "service": "igdb"
    }
  ],
  "aliases": [],
  "shaders": [],
  "discord_id": "",
  "change_for": null
}