{
  "id": 200323,
  "name": "Switch Colors+",
  "slug": "switch-colors-plus",
  "year": null,
  "banner_url": "",
  "icon_url": "",
  "coverart": "https://lutris.net/media/igdb/cover_big/co4dze.jpg",
  "platforms": [],
  "provider_games": [
    {
      "name": "Switch Colors+",
      "slug": "switch-colors-plus",
      "service": "igdb"
    }
  ],
  "aliases": [],
  "shaders": [],
  "discord_id": "",
  "change_for": null
}