{
  "id": 73043,
  "name": "Decaying Flowers",
  "slug": "decaying-flowers",
  "year": null,
  "banner_url": "",
  "icon_url": "",
  "coverart": "https://lutris.net/media/igdb/cover_big/co4j2r.jpg",
  "platforms": [],
  "provider_games": [
    {
      "name": "Decaying Flowers",
      "slug": "decaying-flowers",
      "service": "igdb"
    }
  ],
  "aliases": [],
  "shaders": [],
  "discord_id": "",
  "change_for": null
}