{
  "id": 97231,
  "name": "Elementary Arithmetic Game",
  "slug": "elementary-arithmetic-game",
  "year": null,
  "banner_url": "",
  "icon_url": "",
  "coverart": "https://lutris.net/media/igdb/cover_big/co54b3.jpg",
  "platforms": [],
  "provider_games": [
    {
      "name": "Elementary Arithmetic Game",
      "slug": "elementary-arithmetic-game",
      "service": "igdb"
    }
  ],
  "aliases": [],
  "shaders": [],
  "discord_id": "",
  "change_for": null
}