{
  "id": 32545,
  "name": "DreadOut 2",
  "slug": "dreadout-2",
  "year": 2020,
  "banner_url": "https://lutris.net/games/banner/dreadout-2.jpg",
  "icon_url": "https://lutris.net/games/icon/dreadout-2.png",
  "coverart": "https://lutris.net/media/igdb/cover_big/co1zzt.jpg",
  "platforms": [
    {
      "name": "Windows"
    }
  ],
  "provider_games": [
    {
      "name": "DreadOut 2",
      "slug": "945710",
      "service": "steam"
    },
    {
      "name": "DreadOut 2",
      "slug": "dreadout-2",
      "service": "igdb"
    }
  ],
  "aliases": [],
  "shaders": [],
  "discord_id": "",
  "change_for": null
}