{
  "id": 226393,
  "name": "The Retired Strategist's Way to Save the Country",
  "slug": "the-retired-strategists-way-to-save-the-country",
  "year": null,
  "banner_url": "",
  "icon_url": "",
  "coverart": "https://lutris.net/media/igdb/cover_big/co5gfx.jpg",
  "platforms": [],
  "provider_games": [
    {
      "name": "The Retired Strategist's Way to Save the Country",
      "slug": "the-retired-strategists-way-to-save-the-country",
      "service": "igdb"
    }
  ],
  "aliases": [],
  "shaders": [],
  "discord_id": "",
  "change_for": null
}