{
  "id": 231745,
  "name": "E.G.L: Elephant Gay League",
  "slug": "e-dot-g-l-elephant-gay-league",
  "year": null,
  "banner_url": "",
  "icon_url": "",
  "coverart": null,
  "platforms": [],
  "provider_games": [
    {
      "name": "E.G.L: Elephant Gay League",
      "slug": "e-dot-g-l-elephant-gay-league",
      "service": "igdb"
    }
  ],
  "aliases": [],
  "shaders": [],
  "discord_id": "",
  "change_for": null
}