{
  "id": 217049,
  "name": "Brazilian Street Food Simulator",
  "slug": "brazilian-street-food-simulator",
  "year": null,
  "banner_url": "",
  "icon_url": "",
  "coverart": "https://lutris.net/media/igdb/cover_big/co560n.jpg",
  "platforms": [],
  "provider_games": [
    {
      "name": "Brazilian Street Food Simulator",
      "slug": "brazilian-street-food-simulator",
      "service": "igdb"
    }
  ],
  "aliases": [],
  "shaders": [],
  "discord_id": "",
  "change_for": null
}