{
  "id": 270265,
  "name": "Bean's Quest 2: Bean Dreams",
  "slug": "beans-quest-2-bean-dreams",
  "year": 2014,
  "banner_url": "",
  "icon_url": "",
  "coverart": null,
  "platforms": [
    {
      "name": "Android"
    }
  ],
  "provider_games": [
    {
      "name": "Bean's Quest 2: Bean Dreams",
      "slug": "beans-quest-2-bean-dreams",
      "service": "igdb"
    }
  ],
  "aliases": [],
  "shaders": [],
  "discord_id": "",
  "change_for": null
}