{
  "id": 57167,
  "name": "I_AM.exe",
  "slug": "i-am-dot-exe",
  "year": 2018,
  "banner_url": "",
  "icon_url": "",
  "coverart": "https://lutris.net/media/igdb/cover_big/qenf3bjobiu8odicxrvn.jpg",
  "platforms": [
    {
      "name": "Windows"
    }
  ],
  "provider_games": [
    {
      "name": "I_AM.exe",
      "slug": "i-am-dot-exe",
      "service": "igdb"
    }
  ],
  "aliases": [],
  "shaders": [],
  "discord_id": "",
  "change_for": null
}