{
  "id": 1599,
  "game_id": 3947,
  "game_slug": "phantom-breaker-battle-grounds",
  "name": "Phantom Breaker: Battle Grounds",
  "year": 2013,
  "user": "KimplE",
  "runner": "steam",
  "slug": "phantom-breaker-battle-ground-proton",
  "version": "Proton",
  "description": "",
  "notes": "",
  "credits": "",
  "created_at": "2015-09-29T18:59:37.936591Z",
  "updated_at": "2021-05-04T02:43:10.347765Z",
  "draft": false,
  "published": true,
  "published_by": null,
  "rating": "",
  "is_playable": null,
  "steamid": 329490,
  "gogid": null,
  "gogslug": "",
  "humbleid": "",
  "humblestoreid": "",
  "humblestoreid_real": "",
  "script": {
    "game": {
      "appid": 329490
    }
  },
  "content": "game:\n  appid: 329490\n",
  "discord_id": ""
}