{
  "id": 247,
  "game_id": 248,
  "game_slug": "multiwinia",
  "name": "Multiwinia",
  "year": 2008,
  "user": "strider",
  "runner": "steam",
  "slug": "multiwinia-steam",
  "version": "steam",
  "description": null,
  "notes": "",
  "credits": "",
  "created_at": "2013-12-19T23:56:19.652000Z",
  "updated_at": "2013-12-19T23:56:19.652000Z",
  "draft": false,
  "published": true,
  "published_by": null,
  "rating": "",
  "is_playable": null,
  "steamid": 1530,
  "gogid": 1207659074,
  "gogslug": "scanner_sombre_pack",
  "humbleid": "multiwinia",
  "humblestoreid": "multiwinia",
  "humblestoreid_real": "multiwinia",
  "script": {
    "game": {
      "appid": 1530
    }
  },
  "content": "game:\n  appid: 1530\n",
  "discord_id": ""
}