{
  "id": 281330,
  "name": "Chipped",
  "slug": "chipped",
  "year": null,
  "banner_url": "",
  "icon_url": "",
  "coverart": "https://lutris.net/media/igdb/cover_big/co7z65.jpg",
  "platforms": [],
  "provider_games": [
    {
      "name": "Chipped",
      "slug": "chipped",
      "service": "igdb"
    }
  ],
  "aliases": [],
  "shaders": [],
  "discord_id": "",
  "change_for": null
}