{
  "id": 85851,
  "name": "Battle Isle IV: The Andosia War",
  "slug": "battle-isle-iv-the-andosia-war",
  "year": 2000,
  "banner_url": "",
  "icon_url": "",
  "coverart": null,
  "platforms": [
    {
      "name": "Windows"
    }
  ],
  "provider_games": [
    {
      "name": "Battle Isle IV: The Andosia War",
      "slug": "battle-isle-iv-the-andosia-war",
      "service": "igdb"
    }
  ],
  "aliases": [],
  "shaders": [],
  "discord_id": "",
  "change_for": null
}