{
  "id": 63077,
  "name": "Hot and Cold: A 3D Hidden Object Adventure",
  "slug": "hot-and-cold-a-3d-hidden-object-adventure",
  "year": 2009,
  "banner_url": "",
  "icon_url": "",
  "coverart": "https://lutris.net/media/igdb/cover_big/ob1wlltoaurtlykclmnd.jpg",
  "platforms": [
    {
      "name": "Nintendo DSi"
    }
  ],
  "provider_games": [
    {
      "name": "Hot and Cold: A 3D Hidden Object Adventure",
      "slug": "hot-and-cold-a-3d-hidden-object-adventure",
      "service": "igdb"
    }
  ],
  "aliases": [],
  "shaders": [],
  "discord_id": "",
  "change_for": null
}