{
  "id": 63147,
  "name": "Sparkle Snapshots",
  "slug": "sparkle-snapshots",
  "year": 2009,
  "banner_url": "",
  "icon_url": "",
  "coverart": "https://lutris.net/media/igdb/cover_big/zukfnkcynoc1uvtkvr0e.jpg",
  "platforms": [
    {
      "name": "Nintendo DSi"
    }
  ],
  "provider_games": [
    {
      "name": "Sparkle Snapshots",
      "slug": "sparkle-snapshots",
      "service": "igdb"
    }
  ],
  "aliases": [],
  "shaders": [],
  "discord_id": "",
  "change_for": null
}