{
  "id": 184373,
  "name": "Starwatchers: The Search for Cosmic Jam",
  "slug": "starwatchers-the-search-for-cosmic-jam",
  "year": null,
  "banner_url": "",
  "icon_url": "",
  "coverart": null,
  "platforms": [],
  "provider_games": [
    {
      "name": "Starwatchers: The Search for Cosmic Jam",
      "slug": "starwatchers-the-search-for-cosmic-jam",
      "service": "igdb"
    }
  ],
  "aliases": [],
  "shaders": [],
  "discord_id": "",
  "change_for": null
}