{
  "id": 69008,
  "name": "Simple 1500 Series Vol. 5: The Igo",
  "slug": "simple-1500-series-vol-5-the-igo",
  "year": null,
  "banner_url": "",
  "icon_url": "",
  "coverart": "https://lutris.net/media/igdb/cover_big/t2djvbfoi8whj53hkfnb.jpg",
  "platforms": [],
  "provider_games": [
    {
      "name": "Simple 1500 Series Vol. 5: The Igo",
      "slug": "simple-1500-series-vol-5-the-igo",
      "service": "igdb"
    }
  ],
  "aliases": [],
  "shaders": [],
  "discord_id": "",
  "change_for": null
}