{
  "id": 239130,
  "name": "Farm Shop: Time Management Game",
  "slug": "farm-shop-time-management-game",
  "year": null,
  "banner_url": "",
  "icon_url": "",
  "coverart": null,
  "platforms": [],
  "provider_games": [
    {
      "name": "Farm Shop: Time Management Game",
      "slug": "farm-shop-time-management-game",
      "service": "igdb"
    }
  ],
  "aliases": [],
  "shaders": [],
  "discord_id": "",
  "change_for": null
}