{
  "id": 249345,
  "name": "Imaginary girl: Prequel",
  "slug": "imaginary-girl-prequel",
  "year": null,
  "banner_url": "",
  "icon_url": "",
  "coverart": "https://lutris.net/media/igdb/cover_big/co6mi1.jpg",
  "platforms": [],
  "provider_games": [
    {
      "name": "Imaginary Girl: Prequel",
      "slug": "imaginary-girl-prequel",
      "service": "igdb"
    }
  ],
  "aliases": [],
  "shaders": [],
  "discord_id": "",
  "change_for": null
}