{
  "id": 24800,
  "name": "Tile Battle",
  "slug": "tile-battle",
  "year": 2018,
  "banner_url": "https://lutris.net/games/banner/tile-battle.jpg",
  "icon_url": "https://lutris.net/games/icon/tile-battle.png",
  "coverart": "https://lutris.net/media/igdb/cover_big/co23u5.jpg",
  "platforms": [
    {
      "name": "Windows"
    }
  ],
  "provider_games": [
    {
      "name": "Tile Battle",
      "slug": "682180",
      "service": "steam"
    },
    {
      "name": "Tile Battle",
      "slug": "tile-battle",
      "service": "igdb"
    }
  ],
  "aliases": [],
  "shaders": [],
  "discord_id": "",
  "change_for": null
}