{
  "id": 143467,
  "name": "Wild Journey",
  "slug": "wild-journey",
  "year": 2021,
  "banner_url": "https://lutris.net/games/banner/wild-journey.jpg",
  "icon_url": "",
  "coverart": "https://lutris.net/media/igdb/cover_big/co3n8p.jpg",
  "platforms": [
    {
      "name": "Windows"
    }
  ],
  "provider_games": [
    {
      "name": "Wild Journey",
      "slug": "wild-journey",
      "service": "igdb"
    },
    {
      "name": "Wild Journey",
      "slug": "1525460",
      "service": "steam"
    }
  ],
  "aliases": [],
  "shaders": [],
  "discord_id": "",
  "change_for": null
}