{
  "id": 144076,
  "name": "Crash Course",
  "slug": "crash-course",
  "year": 1977,
  "banner_url": "",
  "icon_url": "",
  "coverart": "https://lutris.net/media/igdb/cover_big/co3vyb.jpg",
  "platforms": [],
  "provider_games": [
    {
      "name": "Crash Course",
      "slug": "crash-course",
      "service": "igdb"
    }
  ],
  "aliases": [],
  "shaders": [],
  "discord_id": "",
  "change_for": null
}