{
  "id": 265029,
  "name": "Polyturbo Drift Racing Simulator",
  "slug": "polyturbo-drift-racing-simulator",
  "year": 2023,
  "banner_url": "",
  "icon_url": "",
  "coverart": "https://lutris.net/media/igdb/cover_big/co7bh2.jpg",
  "platforms": [
    {
      "name": "Nintendo Switch"
    }
  ],
  "provider_games": [
    {
      "name": "Polyturbo Drift Racing Simulator",
      "slug": "polyturbo-drift-racing-simulator",
      "service": "igdb"
    }
  ],
  "aliases": [],
  "shaders": [],
  "discord_id": "",
  "change_for": null
}