{
  "id": 92517,
  "name": "Poly Art: Coloring Puzzle Game",
  "slug": "poly-art-coloring-puzzle-game",
  "year": null,
  "banner_url": "",
  "icon_url": "",
  "coverart": null,
  "platforms": [],
  "provider_games": [
    {
      "name": "Poly Art: Coloring Puzzle Game",
      "slug": "poly-art-coloring-puzzle-game",
      "service": "igdb"
    }
  ],
  "aliases": [],
  "shaders": [],
  "discord_id": "",
  "change_for": null
}