{
  "id": 180306,
  "name": "Roskis: A Boozy Beginning",
  "slug": "roskis-a-boozy-beginning",
  "year": null,
  "banner_url": "",
  "icon_url": "",
  "coverart": "https://lutris.net/media/igdb/cover_big/co4eni.jpg",
  "platforms": [],
  "provider_games": [
    {
      "name": "Roskis: A Boozy Beginning",
      "slug": "roskis-a-boozy-beginning",
      "service": "igdb"
    }
  ],
  "aliases": [],
  "shaders": [],
  "discord_id": "",
  "change_for": null
}