{
  "id": 161951,
  "name": "Forest Home",
  "slug": "forest-home",
  "year": 2019,
  "banner_url": "https://lutris.net/games/banner/forest-home.jpg",
  "icon_url": "",
  "coverart": "https://lutris.net/media/igdb/cover_big/co3ztk.jpg",
  "platforms": [
    {
      "name": "Nintendo Switch"
    },
    {
      "name": "Windows"
    }
  ],
  "provider_games": [
    {
      "name": "Forest Home",
      "slug": "1145970",
      "service": "steam"
    },
    {
      "name": "Forest Home",
      "slug": "forest-home",
      "service": "igdb"
    }
  ],
  "aliases": [],
  "shaders": [],
  "discord_id": "",
  "change_for": null
}