{
  "id": 229467,
  "name": "Poor Bunny!",
  "slug": "poor-bunny",
  "year": 2023,
  "banner_url": "",
  "icon_url": "",
  "coverart": "https://lutris.net/media/igdb/cover_big/co66pg.jpg",
  "platforms": [
    {
      "name": "Android"
    },
    {
      "name": "Browser"
    }
  ],
  "provider_games": [
    {
      "name": "Poor Bunny!",
      "slug": "poor-bunny",
      "service": "igdb"
    }
  ],
  "aliases": [],
  "shaders": [],
  "discord_id": "",
  "change_for": null
}