{
  "id": 15815,
  "name": "Deltaplan Simulator",
  "slug": "deltaplan-simulator",
  "year": 2017,
  "banner_url": "https://lutris.net/games/banner/deltaplan-simulator.jpg",
  "icon_url": "https://lutris.net/games/icon/deltaplan-simulator.png",
  "coverart": "https://lutris.net/media/igdb/cover_big/co2arr.jpg",
  "platforms": [
    {
      "name": "Windows"
    }
  ],
  "provider_games": [
    {
      "name": "Deltaplan Simulator",
      "slug": "655040",
      "service": "steam"
    },
    {
      "name": "Deltaplan Simulator",
      "slug": "deltaplan-simulator",
      "service": "igdb"
    }
  ],
  "aliases": [],
  "shaders": [],
  "discord_id": "",
  "change_for": null
}