{
  "id": 147471,
  "name": "九州：商旅（Nine Provinces: Caravan）",
  "slug": "jiu-zhou-shang-lu-nine-provinces-caravan",
  "year": 2019,
  "banner_url": "",
  "icon_url": "",
  "coverart": "https://lutris.net/media/igdb/cover_big/co364z.jpg",
  "platforms": [
    {
      "name": "Windows"
    }
  ],
  "provider_games": [
    {
      "name": "九州：商旅（Nine Provinces: Caravan）",
      "slug": "jiu-zhou-shang-lu-nine-provinces-caravan",
      "service": "igdb"
    }
  ],
  "aliases": [],
  "shaders": [],
  "discord_id": "",
  "change_for": null
}