{
  "id": 181507,
  "name": "Quixzel Rush Halloween Party",
  "slug": "quixzel-rush-halloween-party--1",
  "year": null,
  "banner_url": "",
  "icon_url": "",
  "coverart": null,
  "platforms": [],
  "provider_games": [
    {
      "name": "Quixzel Rush Halloween Party",
      "slug": "quixzel-rush-halloween-party--1",
      "service": "igdb"
    }
  ],
  "aliases": [],
  "shaders": [],
  "discord_id": "",
  "change_for": null
}