{
  "id": 15919,
  "name": "Nusakana",
  "slug": "nusakana",
  "year": 2015,
  "banner_url": "https://lutris.net/games/banner/nusakana.jpg",
  "icon_url": "https://lutris.net/games/icon/nusakana.png",
  "coverart": "https://lutris.net/media/igdb/cover_big/co3q9d.jpg",
  "platforms": [
    {
      "name": "Windows"
    }
  ],
  "provider_games": [
    {
      "name": "Nusakana",
      "slug": "401290",
      "service": "steam"
    },
    {
      "name": "Nusakana",
      "slug": "nusakana",
      "service": "igdb"
    }
  ],
  "aliases": [],
  "shaders": [],
  "discord_id": "",
  "change_for": null
}