{
  "id": 8829,
  "game_id": 19427,
  "game_slug": "where-we-lay-our-scene",
  "name": "Where We Lay Our Scene",
  "year": 2016,
  "user": "kimchitea",
  "runner": "linux",
  "slug": "where-we-lay-our-scene-itchio",
  "version": "itch.io",
  "description": null,
  "notes": "",
  "credits": "",
  "created_at": "2018-06-20T23:11:23.621000Z",
  "updated_at": "2024-04-03T05:34:38.289624Z",
  "draft": false,
  "published": true,
  "published_by": null,
  "rating": "",
  "is_playable": null,
  "steamid": null,
  "gogid": null,
  "gogslug": "",
  "humbleid": "",
  "humblestoreid": "",
  "humblestoreid_real": "",
  "script": {
    "files": [
      {
        "file1": "N/A:Please select the itch.io archive"
      }
    ],
    "game": {
      "exe": "WWLOS.sh"
    },
    "installer": [
      {
        "extract": {
          "file": "$file1"
        }
      }
    ]
  },
  "content": "files:\n- file1: N/A:Please select the itch.io archive\ngame:\n  exe: WWLOS.sh\ninstaller:\n- extract:\n    file: $file1\n",
  "discord_id": ""
}