{
  "id": 202953,
  "name": "Underworld Dreams: The False King",
  "slug": "underworld-dreams-the-false-king",
  "year": null,
  "banner_url": "",
  "icon_url": "",
  "coverart": "https://lutris.net/media/igdb/cover_big/co4iri.jpg",
  "platforms": [],
  "provider_games": [
    {
      "name": "Underworld Dreams: The False King",
      "slug": "underworld-dreams-the-false-king",
      "service": "igdb"
    }
  ],
  "aliases": [],
  "shaders": [],
  "discord_id": "",
  "change_for": null
}