{
  "id": 32627,
  "name": "HOT PINK",
  "slug": "hot-pink",
  "year": null,
  "banner_url": "https://lutris.net/games/banner/hot-pink.jpg",
  "icon_url": "https://lutris.net/games/icon/hot-pink.png",
  "coverart": null,
  "platforms": [],
  "provider_games": [
    {
      "name": "HOT PINK",
      "slug": "684320",
      "service": "steam"
    },
    {
      "name": "Hot Pink",
      "slug": "hot-pink",
      "service": "igdb"
    }
  ],
  "aliases": [],
  "shaders": [],
  "discord_id": "",
  "change_for": null
}