{
  "id": 6661,
  "name": "ToeJam & Earl",
  "slug": "toejam-earl",
  "year": 1991,
  "banner_url": "https://lutris.net/games/banner/toejam-earl.jpg",
  "icon_url": "",
  "coverart": null,
  "platforms": [
    {
      "name": "Sega Genesis / Mega Drive"
    }
  ],
  "provider_games": [],
  "aliases": [],
  "shaders": [],
  "discord_id": "",
  "change_for": null
}