{
  "id": 64414,
  "name": "IHRA Drag Racing 2004",
  "slug": "ihra-drag-racing-2004",
  "year": null,
  "banner_url": "",
  "icon_url": "",
  "coverart": "https://lutris.net/media/igdb/cover_big/majyypcp1lyf1auvbnqr.jpg",
  "platforms": [],
  "provider_games": [
    {
      "name": "IHRA Drag Racing 2004",
      "slug": "ihra-drag-racing-2004",
      "service": "igdb"
    }
  ],
  "aliases": [],
  "shaders": [],
  "discord_id": "",
  "change_for": null
}