{
  "id": 29240,
  "game_id": 4713,
  "game_slug": "rollercoaster-tycoon-2",
  "name": "RollerCoaster Tycoon 2",
  "year": 2002,
  "user": "Japie3krekel",
  "runner": "wine",
  "slug": "rollercoaster-tycoon-2-cdrom",
  "version": "CDROM",
  "description": "Requires the original CD-ROM.\nfor use with OpenRCT install OpenRCT and select the install folder in OpenRTC (~/Games/rollercoaster-tycoon-2/drive_c/Program Files/Infogrames/RollerCoaster Tycoon 2)",
  "notes": "",
  "credits": "",
  "created_at": "2021-08-29T22:34:10.719000Z",
  "updated_at": "2021-12-23T03:04:44.186794Z",
  "draft": false,
  "published": true,
  "published_by": 1,
  "rating": "",
  "is_playable": null,
  "steamid": 285330,
  "gogid": 1207658957,
  "gogslug": "rollercoaster_tycoon_bundle",
  "humbleid": "",
  "humblestoreid": "",
  "humblestoreid_real": "",
  "script": {
    "game": {
      "arch": "win32",
      "exe": "drive_c/Program Files/Infogrames/RollerCoaster Tycoon 2/rct2.exe",
      "prefix": "$GAMEDIR"
    },
    "installer": [
      {
        "task": {
          "name": "create_prefix",
          "prefix": "$GAMEDIR"
        }
      },
      {
        "insert-disc": {
          "description": "Insert disc",
          "requires": "Setup.exe"
        }
      },
      {
        "merge": {
          "dst": "$GAMEDIR/drive_c/CDROM",
          "src": "$DISC"
        }
      },
      {
        "task": {
          "executable": "$GAMEDIR/drive_c/CDROM/Setup.exe",
          "name": "wineexec",
          "prefix": "$GAMEDIR"
        }
      }
    ]
  },
  "content": "game:\n  arch: win32\n  exe: drive_c/Program Files/Infogrames/RollerCoaster Tycoon 2/rct2.exe\n  prefix: $GAMEDIR\ninstaller:\n- task:\n    name: create_prefix\n    prefix: $GAMEDIR\n- insert-disc:\n    description: Insert disc\n    requires: Setup.exe\n- merge:\n    dst: $GAMEDIR/drive_c/CDROM\n    src: $DISC\n- task:\n    executable: $GAMEDIR/drive_c/CDROM/Setup.exe\n    name: wineexec\n    prefix: $GAMEDIR\n",
  "discord_id": ""
}