{
  "id": 2816,
  "game_id": 7199,
  "game_slug": "no-mans-sky",
  "name": "No Man's Sky",
  "year": 2016,
  "user": "Lulu",
  "runner": "wine",
  "slug": "no-mans-sky-gog",
  "version": "GOG",
  "description": null,
  "notes": "",
  "credits": "",
  "created_at": "2016-09-30T17:00:19.499000Z",
  "updated_at": "2020-01-28T13:19:14.951105Z",
  "draft": false,
  "published": true,
  "published_by": 20548,
  "rating": "",
  "is_playable": null,
  "steamid": 275850,
  "gogid": 1446213994,
  "gogslug": "no_mans_sky",
  "humbleid": "",
  "humblestoreid": "",
  "humblestoreid_real": "",
  "script": {
    "files": [
      {
        "game": "N/A:Select the Windows installer downloaded from GOG"
      }
    ],
    "game": {
      "arch": "win64",
      "exe": "drive_c/GOG Games/No Man's Sky/Binaries/NMS.exe",
      "prefix": "$GAMEDIR"
    },
    "installer": [
      {
        "task": {
          "arch": "win64",
          "executable": "game",
          "name": "wineexec",
          "prefix": "$GAMEDIR"
        }
      }
    ]
  },
  "content": "files:\r\n- game: N/A:Select the Windows installer downloaded from GOG\r\ngame:\r\n  arch: win64\r\n  exe: drive_c/GOG Games/No Man's Sky/Binaries/NMS.exe\r\n  prefix: $GAMEDIR\r\ninstaller:\r\n- task:\r\n    arch: win64\r\n    executable: game\r\n    name: wineexec\r\n    prefix: $GAMEDIR",
  "discord_id": ""
}