{
  "id": 12823,
  "name": "Kingdom of Aurelia: Mystery of the Poisoned Dagger",
  "slug": "kingdom-of-aurelia-mystery-of-the-poisoned-dagger",
  "year": 2016,
  "banner_url": "https://lutris.net/games/banner/kingdom-of-aurelia-mystery-of-the-poisoned-dagger.jpg",
  "icon_url": "https://lutris.net/games/icon/kingdom-of-aurelia-mystery-of-the-poisoned-dagger.png",
  "coverart": "https://lutris.net/media/igdb/cover_big/co21ay.jpg",
  "platforms": [
    {
      "name": "Mac"
    },
    {
      "name": "Windows"
    }
  ],
  "provider_games": [
    {
      "name": "Kingdom of Aurelia: Mystery of the Poisoned Dagger",
      "slug": "550390",
      "service": "steam"
    },
    {
      "name": "Kingdom of Aurelia: Mystery of the Poisoned Dagger",
      "slug": "kingdom-of-aurelia-mystery-of-the-poisoned-dagger",
      "service": "igdb"
    }
  ],
  "aliases": [],
  "shaders": [],
  "discord_id": "",
  "change_for": null
}