{
  "id": 133279,
  "name": "Aesoteric Collection",
  "slug": "aesoteric-collection",
  "year": null,
  "banner_url": "",
  "icon_url": "",
  "coverart": "https://lutris.net/media/igdb/cover_big/co3l29.jpg",
  "platforms": [],
  "provider_games": [
    {
      "name": "Aesoteric Collection",
      "slug": "aesoteric-collection",
      "service": "igdb"
    }
  ],
  "aliases": [],
  "shaders": [],
  "discord_id": "",
  "change_for": null
}