{
  "id": 115503,
  "name": "Torment: Tides of Numenera - Legacy Edition",
  "slug": "torment-tides-of-numenera-legacy-edition",
  "year": null,
  "banner_url": "",
  "icon_url": "",
  "coverart": null,
  "platforms": [],
  "provider_games": [
    {
      "name": "Torment: Tides of Numenera - Legacy Edition",
      "slug": "torment-tides-of-numenera-legacy-edition",
      "service": "igdb"
    }
  ],
  "aliases": [],
  "shaders": [],
  "discord_id": "",
  "change_for": null
}