{
  "id": 81677,
  "name": "The Professor's Brain Trainer: Logic",
  "slug": "the-professors-brain-trainer-logic",
  "year": null,
  "banner_url": "",
  "icon_url": "",
  "coverart": "https://lutris.net/media/igdb/cover_big/qn4gaeufalfyx6e8xcnn.jpg",
  "platforms": [],
  "provider_games": [
    {
      "name": "The Professor's Brain Trainer: Logic",
      "slug": "the-professors-brain-trainer-logic",
      "service": "igdb"
    }
  ],
  "aliases": [],
  "shaders": [],
  "discord_id": "",
  "change_for": null
}