{
  "id": 208377,
  "name": "Bullet Waltz",
  "slug": "bullet-waltz",
  "year": null,
  "banner_url": "",
  "icon_url": "",
  "coverart": null,
  "platforms": [],
  "provider_games": [
    {
      "name": "Bullet Waltz",
      "slug": "bullet-waltz",
      "service": "igdb"
    }
  ],
  "aliases": [],
  "shaders": [],
  "discord_id": "",
  "change_for": null
}