{
  "id": 38495,
  "game_id": 280457,
  "game_slug": "mad-viking-games-vr-experience",
  "name": "Mad Viking Games: VR Experience",
  "year": null,
  "user": "vanstaveren",
  "runner": "steam",
  "slug": "mad-viking-games-vr-experienc-steam",
  "version": "steam",
  "description": "",
  "notes": "",
  "credits": "",
  "created_at": "2024-05-19T21:45:26.456958Z",
  "updated_at": "2024-05-19T21:45:26.456983Z",
  "draft": false,
  "published": true,
  "published_by": null,
  "rating": "",
  "is_playable": null,
  "steamid": null,
  "gogid": null,
  "gogslug": "",
  "humbleid": "",
  "humblestoreid": "",
  "humblestoreid_real": "",
  "script": {
    "game": {
      "appid": 2553260
    }
  },
  "content": "game:\n  appid: 2553260\n",
  "discord_id": ""
}