{
  "id": 149216,
  "name": "Electro Ride",
  "slug": "electro-ride",
  "year": 2020,
  "banner_url": "https://lutris.net/games/banner/electro-ride.jpg",
  "icon_url": "",
  "coverart": "https://lutris.net/media/igdb/cover_big/co3pu1.jpg",
  "platforms": [
    {
      "name": "Windows"
    }
  ],
  "provider_games": [
    {
      "name": "Electro Ride",
      "slug": "696150",
      "service": "steam"
    },
    {
      "name": "Electro Ride",
      "slug": "electro-ride",
      "service": "igdb"
    }
  ],
  "aliases": [],
  "shaders": [],
  "discord_id": "",
  "change_for": null
}