{
  "id": 198903,
  "name": "Island of Lust",
  "slug": "island-of-lust",
  "year": null,
  "banner_url": "",
  "icon_url": "",
  "coverart": "https://lutris.net/media/igdb/cover_big/co4ggo.jpg",
  "platforms": [],
  "provider_games": [
    {
      "name": "Island of Lust",
      "slug": "island-of-lust",
      "service": "igdb"
    }
  ],
  "aliases": [],
  "shaders": [],
  "discord_id": "",
  "change_for": null
}