{
  "id": 2488,
  "game_id": 7201,
  "game_slug": "hero-zero",
  "name": "Hero Zero",
  "year": 2016,
  "user": "jpalmer82",
  "runner": "steam",
  "slug": "hero-zero-proton",
  "version": "Proton",
  "description": "Hero Zero (Steam Windows)",
  "notes": "",
  "credits": "",
  "created_at": "2016-08-17T21:11:47.998198Z",
  "updated_at": "2021-05-04T02:43:12.095917Z",
  "draft": false,
  "published": true,
  "published_by": null,
  "rating": "",
  "is_playable": null,
  "steamid": 482920,
  "gogid": null,
  "gogslug": "",
  "humbleid": "",
  "humblestoreid": "",
  "humblestoreid_real": "",
  "script": {
    "game": {
      "appid": 482920
    }
  },
  "content": "game:\n  appid: 482920\n",
  "discord_id": ""
}