{
  "id": 113870,
  "name": "Eat Beat: Dead Spike-san",
  "slug": "eat-beat-dead-spike-san",
  "year": 2015,
  "banner_url": "",
  "icon_url": "",
  "coverart": "https://lutris.net/media/igdb/cover_big/frs4abqoajf6nxv8vtqy.jpg",
  "platforms": [
    {
      "name": "Android"
    },
    {
      "name": "Nintendo Switch"
    }
  ],
  "provider_games": [
    {
      "name": "Eat Beat: Dead Spike-san",
      "slug": "eat-beat-dead-spike-san",
      "service": "igdb"
    }
  ],
  "aliases": [],
  "shaders": [],
  "discord_id": "",
  "change_for": null
}