{
  "id": 273870,
  "name": "Super Chinese Labyrinth",
  "slug": "super-chinese-labyrinth",
  "year": null,
  "banner_url": "",
  "icon_url": "",
  "coverart": null,
  "platforms": [
    {
      "name": "Nintendo Game Boy Advance"
    }
  ],
  "provider_games": [
    {
      "name": "Super Chinese Labyrinth",
      "slug": "super-chinese-labyrinth",
      "service": "igdb"
    }
  ],
  "aliases": [],
  "shaders": [],
  "discord_id": "",
  "change_for": null
}