{
  "id": 101239,
  "name": "The Winter's Deal",
  "slug": "the-winters-deal",
  "year": null,
  "banner_url": "",
  "icon_url": "",
  "coverart": null,
  "platforms": [],
  "provider_games": [
    {
      "name": "The Winter's Deal",
      "slug": "the-winters-deal",
      "service": "igdb"
    }
  ],
  "aliases": [],
  "shaders": [],
  "discord_id": "",
  "change_for": null
}