{
  "id": 261682,
  "name": "Omen Exitio: Hunger",
  "slug": "omen-exitio-hunger",
  "year": 2024,
  "banner_url": "",
  "icon_url": "",
  "coverart": null,
  "platforms": [
    {
      "name": "Mac"
    },
    {
      "name": "Windows"
    }
  ],
  "provider_games": [
    {
      "name": "Omen Exitio: Hunger",
      "slug": "omen-exitio-hunger",
      "service": "igdb"
    }
  ],
  "aliases": [],
  "shaders": [],
  "discord_id": "",
  "change_for": null
}