{
  "id": 152451,
  "name": "A Cheesy Game",
  "slug": "a-cheesy-game",
  "year": null,
  "banner_url": "",
  "icon_url": "",
  "coverart": "https://lutris.net/media/igdb/cover_big/co38ia.jpg",
  "platforms": [],
  "provider_games": [
    {
      "name": "A Cheesy Game",
      "slug": "a-cheesy-game",
      "service": "igdb"
    }
  ],
  "aliases": [],
  "shaders": [],
  "discord_id": "",
  "change_for": null
}