{
  "id": 259905,
  "name": "Paris Saint-Germain Club Football 2005",
  "slug": "paris-saint-germain-club-football-2005",
  "year": 2004,
  "banner_url": "",
  "icon_url": "",
  "coverart": "https://lutris.net/media/igdb/cover_big/co74az.jpg",
  "platforms": [
    {
      "name": "Sony PlayStation 2"
    }
  ],
  "provider_games": [
    {
      "name": "Paris Saint-Germain Club Football 2005",
      "slug": "paris-saint-germain-club-football-2005",
      "service": "igdb"
    }
  ],
  "aliases": [],
  "shaders": [],
  "discord_id": "",
  "change_for": null
}