{
  "id": 152016,
  "name": "JQ: dogs & cats",
  "slug": "jq-dogs-and-cats",
  "year": 2018,
  "banner_url": "",
  "icon_url": "",
  "coverart": "https://lutris.net/media/igdb/cover_big/co3bud.jpg",
  "platforms": [
    {
      "name": "Windows"
    }
  ],
  "provider_games": [
    {
      "name": "JQ: dogs & cats",
      "slug": "jq-dogs-and-cats",
      "service": "igdb"
    }
  ],
  "aliases": [],
  "shaders": [],
  "discord_id": "",
  "change_for": null
}