{
  "id": 236826,
  "name": "Super Little Jogger",
  "slug": "super-little-jogger",
  "year": null,
  "banner_url": "",
  "icon_url": "",
  "coverart": null,
  "platforms": [],
  "provider_games": [
    {
      "name": "Super Little Jogger",
      "slug": "super-little-jogger",
      "service": "igdb"
    }
  ],
  "aliases": [],
  "shaders": [],
  "discord_id": "",
  "change_for": null
}