{
  "id": 19525,
  "game_id": 180,
  "game_slug": "fear-3",
  "name": "F.E.A.R. 3",
  "year": 2011,
  "user": "soredake",
  "runner": "steam",
  "slug": "fear-3-proton",
  "version": "Proton",
  "description": null,
  "notes": "",
  "credits": "",
  "created_at": "2020-04-08T09:13:24.188320Z",
  "updated_at": "2020-04-08T09:13:29.019972Z",
  "draft": false,
  "published": true,
  "published_by": null,
  "rating": "",
  "is_playable": null,
  "steamid": 21100,
  "gogid": 1217589235,
  "gogslug": "fear_3",
  "humbleid": "",
  "humblestoreid": "",
  "humblestoreid_real": "",
  "script": {
    "game": {
      "appid": 21100
    }
  },
  "content": "game:\n  appid: 21100\n",
  "discord_id": ""
}