{
  "id": 262137,
  "name": "Eikoh Seminar Koushiki DS Kyouzai: Chuugaku Eitango - Eitan Zamurai DS",
  "slug": "eikoh-seminar-koushiki-ds-kyouzai-chuugaku-eitango-eitan-zamurai-ds",
  "year": 2009,
  "banner_url": "",
  "icon_url": "",
  "coverart": "https://lutris.net/media/igdb/cover_big/co76ad.jpg",
  "platforms": [
    {
      "name": "Nintendo DS"
    }
  ],
  "provider_games": [
    {
      "name": "Eikoh Seminar Koushiki DS Kyouzai: Chuugaku Eitango - Eitan Zamurai DS",
      "slug": "eikoh-seminar-koushiki-ds-kyouzai-chuugaku-eitango-eitan-zamurai-ds",
      "service": "igdb"
    }
  ],
  "aliases": [],
  "shaders": [],
  "discord_id": "",
  "change_for": null
}