{
  "id": 12067,
  "name": "Vincere Totus Astrum",
  "slug": "vincere-totus-astrum",
  "year": 2017,
  "banner_url": "https://lutris.net/games/banner/vincere-totus-astrum.jpg",
  "icon_url": "",
  "coverart": "https://lutris.net/media/igdb/cover_big/mii0uinrwuyzn5knnjkc.jpg",
  "platforms": [
    {
      "name": "Windows"
    }
  ],
  "provider_games": [
    {
      "name": "Vincere Totus Astrum",
      "slug": "314610",
      "service": "steam"
    },
    {
      "name": "Vincere Totus Astrum",
      "slug": "vincere-totus-astrum",
      "service": "igdb"
    }
  ],
  "aliases": [],
  "shaders": [],
  "discord_id": "",
  "change_for": null
}