{
  "id": 57540,
  "name": "Barbie Sparkling Ice Show",
  "slug": "barbie-sparkling-ice-show",
  "year": null,
  "banner_url": "",
  "icon_url": "",
  "coverart": "https://lutris.net/media/igdb/cover_big/mnwx8obogc8zigw6xhxg.jpg",
  "platforms": [],
  "provider_games": [
    {
      "name": "Barbie: Sparkling Ice Show",
      "slug": "barbie-sparkling-ice-show",
      "service": "igdb"
    }
  ],
  "aliases": [],
  "shaders": [],
  "discord_id": "",
  "change_for": null
}