{
  "id": 254803,
  "name": "R00000",
  "slug": "r00000",
  "year": null,
  "banner_url": "",
  "icon_url": "",
  "coverart": "https://lutris.net/media/igdb/cover_big/co6wbq.jpg",
  "platforms": [],
  "provider_games": [
    {
      "name": "R00000",
      "slug": "r00000",
      "service": "igdb"
    }
  ],
  "aliases": [],
  "shaders": [],
  "discord_id": "",
  "change_for": null
}