{
  "id": 99988,
  "name": "Chucky Mendoza and the Curse of the Pharaoh",
  "slug": "chucky-mendoza-and-the-curse-of-the-pharaoh",
  "year": 2014,
  "banner_url": "",
  "icon_url": "",
  "coverart": "https://lutris.net/media/igdb/cover_big/co23kr.jpg",
  "platforms": [
    {
      "name": "Windows"
    }
  ],
  "provider_games": [
    {
      "name": "Chucky Mendoza and the Curse of the Pharaoh",
      "slug": "chucky-mendoza-and-the-curse-of-the-pharaoh",
      "service": "igdb"
    }
  ],
  "aliases": [],
  "shaders": [],
  "discord_id": "",
  "change_for": null
}