{
  "id": 104005,
  "name": "Ratchet & Clank: A Crack in Time - Collector's Edition",
  "slug": "ratchet-and-clank-a-crack-in-time-collectors-edition",
  "year": 2009,
  "banner_url": "",
  "icon_url": "",
  "coverart": "https://lutris.net/media/igdb/cover_big/zwc1yh1sedlcslgx5u9x.jpg",
  "platforms": [
    {
      "name": "Sony Playstation 3"
    }
  ],
  "provider_games": [
    {
      "name": "Ratchet & Clank: A Crack in Time - Collector's Edition",
      "slug": "ratchet-and-clank-a-crack-in-time-collectors-edition",
      "service": "igdb"
    }
  ],
  "aliases": [],
  "shaders": [],
  "discord_id": "",
  "change_for": null
}