{
  "id": 32865,
  "name": "Pompei: The Legend of Vesuvius",
  "slug": "pompei-the-legend-of-vesuvius",
  "year": 2000,
  "banner_url": "https://lutris.net/games/banner/pompei-the-legend-of-vesuvius.jpg",
  "icon_url": "",
  "coverart": "https://lutris.net/media/igdb/cover_big/tzhf4thjgvs2xonezljp.jpg",
  "platforms": [
    {
      "name": "Mac"
    },
    {
      "name": "Windows"
    }
  ],
  "provider_games": [
    {
      "name": "Pompei: The Legend of Vesuvius",
      "slug": "pompei-the-legend-of-vesuvius",
      "service": "igdb"
    }
  ],
  "aliases": [],
  "shaders": [],
  "discord_id": "",
  "change_for": null
}