{
  "id": 4767,
  "game_id": 12024,
  "game_slug": "avernum-3",
  "name": "Avernum 3",
  "year": 2002,
  "user": "FakeShemp",
  "runner": "wine",
  "slug": "avernum-3-humble",
  "version": "Humble",
  "description": "From \"The First Avernum Trilogy\"",
  "notes": "",
  "credits": "",
  "created_at": "2017-07-03T13:24:24.467073Z",
  "updated_at": "2018-05-19T03:41:54.799184Z",
  "draft": false,
  "published": true,
  "published_by": null,
  "rating": "",
  "is_playable": null,
  "steamid": null,
  "gogid": 1207663373,
  "gogslug": "avernum_the_complete_saga",
  "humbleid": "",
  "humblestoreid": "",
  "humblestoreid_real": "",
  "script": {
    "files": [
      {
        "file1": "N/A:Please select the Humble archive"
      }
    ],
    "game": {
      "arch": "win32",
      "exe": "drive_c/Program Files/Avernum 3/Avernum 3.exe",
      "prefix": "$GAMEDIR"
    },
    "installer": [
      {
        "extract": {
          "dst": "$CACHE",
          "file": "$file1"
        }
      },
      {
        "task": {
          "executable": "$CACHE/Avernum3Full.exe",
          "name": "wineexec",
          "prefix": "$GAMEDIR"
        }
      }
    ]
  },
  "content": "files:\n- file1: N/A:Please select the Humble archive\ngame:\n  arch: win32\n  exe: drive_c/Program Files/Avernum 3/Avernum 3.exe\n  prefix: $GAMEDIR\ninstaller:\n- extract:\n    dst: $CACHE\n    file: $file1\n- task:\n    executable: $CACHE/Avernum3Full.exe\n    name: wineexec\n    prefix: $GAMEDIR\n",
  "discord_id": ""
}