{
  "id": 5041,
  "game_id": 12230,
  "game_slug": "sweet-and-spices",
  "name": "Sweet and Spices",
  "year": 2016,
  "user": "FakeShemp",
  "runner": "linux",
  "slug": "sweet-and-spices-itchio",
  "version": "itch.io",
  "description": "",
  "notes": "",
  "credits": "",
  "created_at": "2017-07-13T20:34:03.167864Z",
  "updated_at": "2024-04-03T05:34:36.978429Z",
  "draft": false,
  "published": true,
  "published_by": null,
  "rating": "",
  "is_playable": null,
  "steamid": null,
  "gogid": null,
  "gogslug": "",
  "humbleid": "",
  "humblestoreid": "",
  "humblestoreid_real": "",
  "script": {
    "files": [
      {
        "file1": "N/A:Please select the itch.io archive"
      }
    ],
    "game": {
      "exe": "Sweet & Spices.sh"
    },
    "installer": [
      {
        "extract": {
          "file": "$file1"
        }
      }
    ]
  },
  "content": "files:\n- file1: N/A:Please select the itch.io archive\ngame:\n  exe: Sweet & Spices.sh\ninstaller:\n- extract:\n    file: $file1\n",
  "discord_id": ""
}