{
  "id": 31084,
  "name": "Fire Emblem: Genealogy of the Holy War",
  "slug": "fire-emblem-genealogy-of-the-holy-war",
  "year": 1996,
  "banner_url": "https://lutris.net/games/banner/fire-emblem-genealogy-of-the-holy-war.jpg",
  "icon_url": "",
  "coverart": "https://lutris.net/media/igdb/cover_big/co25q2.jpg",
  "platforms": [
    {
      "name": "Nintendo Wii"
    },
    {
      "name": "Nintendo Wii U"
    },
    {
      "name": "Super Famicom"
    },
    {
      "name": "Super Nintendo"
    }
  ],
  "provider_games": [
    {
      "name": "Fire Emblem: Genealogy of the Holy War",
      "slug": "fire-emblem-genealogy-of-the-holy-war",
      "service": "igdb"
    }
  ],
  "aliases": [],
  "shaders": [],
  "discord_id": "",
  "change_for": null
}