{
  "id": 121906,
  "name": "Frio- Lost in old town",
  "slug": "frio-lost-in-old-town",
  "year": null,
  "banner_url": "https://lutris.net/games/banner/frio-lost-in-old-town.jpg",
  "icon_url": "",
  "coverart": "https://lutris.net/media/igdb/cover_big/co9cus.jpg",
  "platforms": [],
  "provider_games": [
    {
      "name": "Frio- Lost in old town",
      "slug": "453500",
      "service": "steam"
    },
    {
      "name": "Frio: Lost In Old Town",
      "slug": "frio-lost-in-old-town",
      "service": "igdb"
    }
  ],
  "aliases": [],
  "shaders": [],
  "discord_id": "",
  "change_for": null
}