{
  "id": 307540,
  "name": "Sweet Hospital",
  "slug": "sweet-hospital",
  "year": null,
  "banner_url": "",
  "icon_url": "",
  "coverart": null,
  "platforms": [],
  "provider_games": [
    {
      "name": "Sweet Hospital",
      "slug": "sweet-hospital",
      "service": "igdb"
    }
  ],
  "aliases": [],
  "shaders": [],
  "discord_id": "",
  "change_for": null
}