{
  "id": 248761,
  "name": "Cradles",
  "slug": "cradles",
  "year": null,
  "banner_url": "",
  "icon_url": "",
  "coverart": "https://lutris.net/media/igdb/cover_big/co6n78.jpg",
  "platforms": [],
  "provider_games": [
    {
      "name": "Cradles",
      "slug": "cradles",
      "service": "igdb"
    }
  ],
  "aliases": [],
  "shaders": [],
  "discord_id": "",
  "change_for": null
}