{
  "id": 298165,
  "name": "Anika's Odyssey: Land of the Taniwha",
  "slug": "anikas-odyssey-land-of-the-taniwha--1",
  "year": 2007,
  "banner_url": "",
  "icon_url": "",
  "coverart": "https://lutris.net/media/igdb/cover_big/co8tcj.jpg",
  "platforms": [
    {
      "name": "Browser"
    }
  ],
  "provider_games": [
    {
      "name": "Anika's Odyssey: Land of the Taniwha",
      "slug": "anikas-odyssey-land-of-the-taniwha--1",
      "service": "igdb"
    }
  ],
  "aliases": [],
  "shaders": [],
  "discord_id": "",
  "change_for": null
}