{
  "id": 219807,
  "name": "Meteorites 3D",
  "slug": "meteorites-3d",
  "year": null,
  "banner_url": "",
  "icon_url": "",
  "coverart": "https://lutris.net/media/igdb/cover_big/co515z.jpg",
  "platforms": [],
  "provider_games": [
    {
      "name": "Meteorites 3D",
      "slug": "meteorites-3d",
      "service": "igdb"
    }
  ],
  "aliases": [],
  "shaders": [],
  "discord_id": "",
  "change_for": null
}