{
  "id": 143266,
  "name": "Battlefield Bundle",
  "slug": "battlefield-bundle",
  "year": 2015,
  "banner_url": "",
  "icon_url": "",
  "coverart": "https://lutris.net/media/igdb/cover_big/p7nivhkk3hbehjwwminl.jpg",
  "platforms": [
    {
      "name": "Xbox One"
    }
  ],
  "provider_games": [
    {
      "name": "Battlefield Bundle",
      "slug": "battlefield-bundle",
      "service": "igdb"
    }
  ],
  "aliases": [],
  "shaders": [],
  "discord_id": "",
  "change_for": null
}