{
  "id": 26038,
  "name": "Nibbles",
  "slug": "nibbles",
  "year": 1991,
  "banner_url": "https://lutris.net/games/banner/nibbles.jpg",
  "icon_url": "",
  "coverart": "https://lutris.net/media/igdb/cover_big/bjbthx3xqtctmtcbsuuj.jpg",
  "platforms": [
    {
      "name": "Linux"
    }
  ],
  "provider_games": [
    {
      "name": "Nibbles",
      "slug": "nibbles",
      "service": "igdb"
    }
  ],
  "aliases": [],
  "shaders": [],
  "discord_id": "",
  "change_for": null
}