{
  "id": 112252,
  "name": "Famista 64",
  "slug": "famista-64",
  "year": null,
  "banner_url": "",
  "icon_url": "",
  "coverart": "https://lutris.net/media/igdb/cover_big/g15dnhxcg6pzlrvpjhpl.jpg",
  "platforms": [],
  "provider_games": [
    {
      "name": "Famista 64",
      "slug": "famista-64",
      "service": "igdb"
    }
  ],
  "aliases": [],
  "shaders": [],
  "discord_id": "",
  "change_for": null
}