{
  "id": 274733,
  "name": "Boxe Virtual",
  "slug": "boxe-virtual",
  "year": 2001,
  "banner_url": "",
  "icon_url": "",
  "coverart": null,
  "platforms": [
    {
      "name": "Family Computer"
    }
  ],
  "provider_games": [
    {
      "name": "Boxe Virtual",
      "slug": "boxe-virtual",
      "service": "igdb"
    }
  ],
  "aliases": [],
  "shaders": [],
  "discord_id": "",
  "change_for": null
}