{
  "id": 50617,
  "name": "Alien Logic",
  "slug": "alien-logic",
  "year": 1994,
  "banner_url": "",
  "icon_url": "",
  "coverart": "https://lutris.net/media/igdb/cover_big/nfbdeyklazv033deaqzp.jpg",
  "platforms": [],
  "provider_games": [
    {
      "name": "Alien Logic",
      "slug": "alien-logic",
      "service": "igdb"
    }
  ],
  "aliases": [],
  "shaders": [],
  "discord_id": "",
  "change_for": null
}