{
  "id": 240278,
  "name": "Shinkei Suijaku: Indo-hen",
  "slug": "shinkei-suijaku-indo-hen",
  "year": null,
  "banner_url": "",
  "icon_url": "",
  "coverart": null,
  "platforms": [],
  "provider_games": [
    {
      "name": "Shinkei Suijaku: Indo-hen",
      "slug": "shinkei-suijaku-indo-hen",
      "service": "igdb"
    }
  ],
  "aliases": [],
  "shaders": [],
  "discord_id": "",
  "change_for": null
}