{
  "id": 74355,
  "name": "Bird View Burger Barn",
  "slug": "bird-view-burger-barn",
  "year": null,
  "banner_url": "",
  "icon_url": "",
  "coverart": null,
  "platforms": [],
  "provider_games": [
    {
      "name": "Bird View Burger Barn",
      "slug": "bird-view-burger-barn",
      "service": "igdb"
    }
  ],
  "aliases": [],
  "shaders": [],
  "discord_id": "",
  "change_for": null
}