{
  "id": 119598,
  "name": "Morbolbo: Enter the Maze",
  "slug": "morbolbo-enter-the-maze",
  "year": 2020,
  "banner_url": "",
  "icon_url": "",
  "coverart": "https://lutris.net/media/igdb/cover_big/co1wkd.jpg",
  "platforms": [
    {
      "name": "Windows"
    }
  ],
  "provider_games": [
    {
      "name": "Morbolbo: Enter the Maze",
      "slug": "morbolbo-enter-the-maze",
      "service": "igdb"
    }
  ],
  "aliases": [],
  "shaders": [],
  "discord_id": "",
  "change_for": null
}