{
  "id": 303782,
  "name": "Dodge Spree",
  "slug": "dodge-spree",
  "year": 2011,
  "banner_url": "",
  "icon_url": "",
  "coverart": null,
  "platforms": [
    {
      "name": "Android"
    }
  ],
  "provider_games": [
    {
      "name": "Dodge Spree",
      "slug": "dodge-spree",
      "service": "igdb"
    }
  ],
  "aliases": [],
  "shaders": [],
  "discord_id": "",
  "change_for": null
}