{
  "id": 40205,
  "name": "E.V.O.: Search for Eden",
  "slug": "evo-search-for-eden",
  "year": 1993,
  "banner_url": "https://lutris.net/games/banner/evo-search-for-eden.jpg",
  "icon_url": "",
  "coverart": null,
  "platforms": [
    {
      "name": "Super Nintendo"
    }
  ],
  "provider_games": [],
  "aliases": [],
  "shaders": [],
  "discord_id": "",
  "change_for": null
}