{
  "id": 33540,
  "name": "Borderline",
  "slug": "borderline",
  "year": 1981,
  "banner_url": "https://lutris.net/games/banner/borderline.jpg",
  "icon_url": "https://lutris.net/games/icon/borderline.png",
  "coverart": "https://lutris.net/media/igdb/cover_big/knyipiglocavdkai6pmc.jpg",
  "platforms": [
    {
      "name": "Arcade"
    },
    {
      "name": "SG-1000"
    }
  ],
  "provider_games": [
    {
      "name": "Borderline",
      "slug": "brdrline",
      "service": "mame"
    },
    {
      "name": "Borderline",
      "slug": "borderline",
      "service": "igdb"
    }
  ],
  "aliases": [],
  "shaders": [],
  "discord_id": "",
  "change_for": null
}