{
  "id": 28176,
  "name": "UWT - 2. 3DS Max Modeling - Chapter 4.5",
  "slug": "uwt-2-3ds-max-modeling-chapter-45",
  "year": null,
  "banner_url": "https://lutris.net/games/banner/uwt-2-3ds-max-modeling-chapter-45.jpg",
  "icon_url": "https://lutris.net/games/icon/uwt-2-3ds-max-modeling-chapter-45.png",
  "coverart": null,
  "platforms": [],
  "provider_games": [
    {
      "name": "UWT - 2. 3DS Max Modeling - Chapter 4.5",
      "slug": "423034",
      "service": "steam"
    }
  ],
  "aliases": [],
  "shaders": [],
  "discord_id": "",
  "change_for": null
}