{
  "id": 86689,
  "name": "Three Musketeers Secrets: Constance's Mission",
  "slug": "three-musketeers-secrets-constances-mission",
  "year": null,
  "banner_url": "",
  "icon_url": "",
  "coverart": null,
  "platforms": [],
  "provider_games": [
    {
      "name": "Three Musketeers Secrets: Constance's Mission",
      "slug": "three-musketeers-secrets-constances-mission",
      "service": "igdb"
    }
  ],
  "aliases": [],
  "shaders": [],
  "discord_id": "",
  "change_for": null
}