{
  "id": 192137,
  "name": "Vanaris Tactics - Prologue",
  "slug": "vanaris-tactics-prologue",
  "year": null,
  "banner_url": "https://lutris.net/games/banner/vanaris-tactics-prologue.jpg",
  "icon_url": "https://lutris.net/games/icon/vanaris-tactics-prologue.png",
  "coverart": null,
  "platforms": [],
  "provider_games": [
    {
      "name": "Vanaris Tactics - Prologue",
      "slug": "1610350",
      "service": "steam"
    }
  ],
  "aliases": [],
  "shaders": [],
  "discord_id": "",
  "change_for": null
}