{
  "id": 35399,
  "name": "Puzzle De Bowling",
  "slug": "puzzle-de-bowling",
  "year": 1999,
  "banner_url": "https://lutris.net/games/banner/puzzle-de-bowling.jpg",
  "icon_url": "https://lutris.net/games/icon/puzzle-de-bowling.png",
  "coverart": "https://lutris.net/media/igdb/cover_big/yhaz2upsujxn0machi9k.jpg",
  "platforms": [
    {
      "name": "Arcade"
    }
  ],
  "provider_games": [
    {
      "name": "Puzzle De Bowling",
      "slug": "pzlbowl",
      "service": "mame"
    },
    {
      "name": "Puzzle De Bowling",
      "slug": "puzzle-de-bowling",
      "service": "igdb"
    }
  ],
  "aliases": [],
  "shaders": [],
  "discord_id": "",
  "change_for": null
}