{
  "id": 227854,
  "name": "Food Truck Tycoon: Premium Edition",
  "slug": "food-truck-tycoon-premium-edition",
  "year": null,
  "banner_url": "",
  "icon_url": "",
  "coverart": null,
  "platforms": [],
  "provider_games": [
    {
      "name": "Food Truck Tycoon: Premium Edition",
      "slug": "food-truck-tycoon-premium-edition",
      "service": "igdb"
    }
  ],
  "aliases": [],
  "shaders": [],
  "discord_id": "",
  "change_for": null
}