{
  "id": 132650,
  "name": "Yoshiwara Higanbana",
  "slug": "yoshiwara-higanbana",
  "year": 2021,
  "banner_url": "",
  "icon_url": "",
  "coverart": "https://lutris.net/media/igdb/cover_big/co3b52.jpg",
  "platforms": [
    {
      "name": "Windows"
    }
  ],
  "provider_games": [
    {
      "name": "Yoshiwara Higanbana",
      "slug": "yoshiwara-higanbana",
      "service": "igdb"
    }
  ],
  "aliases": [],
  "shaders": [],
  "discord_id": "",
  "change_for": null
}