{
  "id": 36107,
  "name": "Thunder Hoop",
  "slug": "thunder-hoop",
  "year": 1992,
  "banner_url": "",
  "icon_url": "https://lutris.net/games/icon/thunder-hoop.png",
  "coverart": "https://lutris.net/media/igdb/cover_big/co3rm3.jpg",
  "platforms": [
    {
      "name": "Arcade"
    }
  ],
  "provider_games": [
    {
      "name": "Thunder Hoop",
      "slug": "thoop",
      "service": "mame"
    },
    {
      "name": "Thunder Hoop",
      "slug": "thunder-hoop",
      "service": "igdb"
    }
  ],
  "aliases": [],
  "shaders": [],
  "discord_id": "",
  "change_for": null
}