{
  "id": 29172,
  "name": "Groupy",
  "slug": "groupy",
  "year": null,
  "banner_url": "https://lutris.net/games/banner/groupy.jpg",
  "icon_url": "https://lutris.net/games/icon/groupy.png",
  "coverart": null,
  "platforms": [],
  "provider_games": [
    {
      "name": "Groupy",
      "slug": "912170",
      "service": "steam"
    }
  ],
  "aliases": [],
  "shaders": [],
  "discord_id": "",
  "change_for": null
}