{
  "id": 61296,
  "name": "Desert Kingdom Portable",
  "slug": "desert-kingdom-portable",
  "year": null,
  "banner_url": "",
  "icon_url": "",
  "coverart": "https://lutris.net/media/igdb/cover_big/co5ids.jpg",
  "platforms": [],
  "provider_games": [
    {
      "name": "Desert Kingdom Portable",
      "slug": "desert-kingdom-portable",
      "service": "igdb"
    }
  ],
  "aliases": [],
  "shaders": [],
  "discord_id": "",
  "change_for": null
}