{
  "id": 255507,
  "name": "Road Drawing 3D",
  "slug": "road-drawing-3d",
  "year": null,
  "banner_url": "",
  "icon_url": "",
  "coverart": null,
  "platforms": [],
  "provider_games": [
    {
      "name": "Road Drawing 3D",
      "slug": "road-drawing-3d",
      "service": "igdb"
    }
  ],
  "aliases": [],
  "shaders": [],
  "discord_id": "",
  "change_for": null
}