{
  "id": 121365,
  "name": "Aurora: Weather Warfare",
  "slug": "aurora-weather-warfare",
  "year": 2021,
  "banner_url": "",
  "icon_url": "",
  "coverart": "https://lutris.net/media/igdb/cover_big/co2lkb.jpg",
  "platforms": [
    {
      "name": "Windows"
    }
  ],
  "provider_games": [
    {
      "name": "Aurora: Weather Warfare",
      "slug": "aurora-weather-warfare",
      "service": "igdb"
    }
  ],
  "aliases": [],
  "shaders": [],
  "discord_id": "",
  "change_for": null
}