{
  "id": 61398,
  "name": "Europa Concept",
  "slug": "europa-concept",
  "year": null,
  "banner_url": "",
  "icon_url": "",
  "coverart": "https://lutris.net/media/igdb/cover_big/qj7qmqrsaue73lgwiifx.jpg",
  "platforms": [],
  "provider_games": [
    {
      "name": "Europa Concept",
      "slug": "europa-concept",
      "service": "igdb"
    }
  ],
  "aliases": [],
  "shaders": [],
  "discord_id": "",
  "change_for": null
}