{
  "id": 245940,
  "name": "Coryphaeus Championships",
  "slug": "coryphaeus-championships--1",
  "year": null,
  "banner_url": "",
  "icon_url": "",
  "coverart": "https://lutris.net/media/igdb/cover_big/co6i9y.jpg",
  "platforms": [
    {
      "name": "Windows"
    }
  ],
  "provider_games": [
    {
      "name": "Coryphaeus Championships",
      "slug": "coryphaeus-championships--1",
      "service": "igdb"
    }
  ],
  "aliases": [],
  "shaders": [],
  "discord_id": "",
  "change_for": null
}