{
  "id": 210973,
  "name": "Asphalt 4: Elite Racing HD",
  "slug": "asphalt-4-elite-racing-hd",
  "year": 2008,
  "banner_url": "",
  "icon_url": "",
  "coverart": "https://lutris.net/media/igdb/cover_big/co5gbn.jpg",
  "platforms": [
    {
      "name": "Legacy Cellphone"
    }
  ],
  "provider_games": [
    {
      "name": "Asphalt 4: Elite Racing HD",
      "slug": "asphalt-4-elite-racing-hd",
      "service": "igdb"
    }
  ],
  "aliases": [],
  "shaders": [],
  "discord_id": "",
  "change_for": null
}