{
  "id": 216501,
  "name": "Assassin's Creed: Codename Jade",
  "slug": "assassins-creed-codename-jade",
  "year": null,
  "banner_url": "",
  "icon_url": "",
  "coverart": "https://lutris.net/media/igdb/cover_big/co57hu.jpg",
  "platforms": [],
  "provider_games": [
    {
      "name": "Assassin's Creed: Codename Jade",
      "slug": "assassins-creed-codename-jade",
      "service": "igdb"
    }
  ],
  "aliases": [],
  "shaders": [],
  "discord_id": "",
  "change_for": null
}