{
  "id": 184207,
  "name": "AntWar.io",
  "slug": "antwar-dot-io",
  "year": null,
  "banner_url": "",
  "icon_url": "",
  "coverart": null,
  "platforms": [],
  "provider_games": [
    {
      "name": "AntWar.io",
      "slug": "antwar-dot-io",
      "service": "igdb"
    }
  ],
  "aliases": [],
  "shaders": [],
  "discord_id": "",
  "change_for": null
}