{
  "id": 222201,
  "name": "Shaun the Sheep: Shear Speed",
  "slug": "shaun-the-sheep-shear-speed",
  "year": 2015,
  "banner_url": "",
  "icon_url": "",
  "coverart": "https://lutris.net/media/igdb/cover_big/co4ya5.jpg",
  "platforms": [
    {
      "name": "Android"
    }
  ],
  "provider_games": [
    {
      "name": "Shaun the Sheep: Shear Speed",
      "slug": "shaun-the-sheep-shear-speed",
      "service": "igdb"
    }
  ],
  "aliases": [],
  "shaders": [],
  "discord_id": "",
  "change_for": null
}