{
  "id": 103346,
  "name": "Where's Wally? Fantastic Journey 1",
  "slug": "wheres-wally-fantastic-journey-1",
  "year": 2011,
  "banner_url": "",
  "icon_url": "",
  "coverart": "https://lutris.net/media/igdb/cover_big/yg0ikmiwdyhuuakvelh3.jpg",
  "platforms": [
    {
      "name": "Nintendo Wii"
    }
  ],
  "provider_games": [
    {
      "name": "Where's Wally? Fantastic Journey 1",
      "slug": "wheres-wally-fantastic-journey-1",
      "service": "igdb"
    }
  ],
  "aliases": [],
  "shaders": [],
  "discord_id": "",
  "change_for": null
}