{
  "id": 240298,
  "name": "Flipo: Gravity Adventure",
  "slug": "flipo-gravity-adventure",
  "year": null,
  "banner_url": "",
  "icon_url": "",
  "coverart": null,
  "platforms": [],
  "provider_games": [
    {
      "name": "Flipo: Gravity Adventure",
      "slug": "flipo-gravity-adventure",
      "service": "igdb"
    }
  ],
  "aliases": [],
  "shaders": [],
  "discord_id": "",
  "change_for": null
}