{
  "id": 107181,
  "name": "Justice Beaver: The Great Timber Tantrum",
  "slug": "justice-beaver-the-great-timber-tantrum",
  "year": null,
  "banner_url": "",
  "icon_url": "",
  "coverart": "https://lutris.net/media/igdb/cover_big/co2uwe.jpg",
  "platforms": [
    {
      "name": "Super Nintendo"
    }
  ],
  "provider_games": [
    {
      "name": "Justice Beaver: The Great Timber Tantrum",
      "slug": "justice-beaver-the-great-timber-tantrum",
      "service": "igdb"
    }
  ],
  "aliases": [],
  "shaders": [],
  "discord_id": "",
  "change_for": null
}