{
  "id": 29082,
  "name": "Commander Keen: Aliens Ate My Babysitter!",
  "slug": "commander-keen-aliens-ate-my-babysitter",
  "year": 1991,
  "banner_url": "https://lutris.net/games/banner/commander-keen-aliens-ate-my-babysitter.jpg",
  "icon_url": "",
  "coverart": null,
  "platforms": [
    {
      "name": "MS-DOS"
    }
  ],
  "provider_games": [],
  "aliases": [],
  "shaders": [],
  "discord_id": "",
  "change_for": null
}