{
  "id": 305207,
  "name": "Goddess Of Swing",
  "slug": "goddess-of-swing",
  "year": 2025,
  "banner_url": "",
  "icon_url": "",
  "coverart": "https://lutris.net/media/igdb/cover_big/co9bjb.jpg",
  "platforms": [
    {
      "name": "Windows"
    }
  ],
  "provider_games": [
    {
      "name": "Goddess Of Swing",
      "slug": "goddess-of-swing",
      "service": "igdb"
    }
  ],
  "aliases": [],
  "shaders": [],
  "discord_id": "",
  "change_for": null
}