{
  "id": 121736,
  "name": "绮罗四时谭",
  "slug": "qi-luo-si-shi-tan",
  "year": 2019,
  "banner_url": "",
  "icon_url": "",
  "coverart": "https://lutris.net/media/igdb/cover_big/co37n0.jpg",
  "platforms": [
    {
      "name": "Windows"
    }
  ],
  "provider_games": [
    {
      "name": "绮罗四时谭",
      "slug": "qi-luo-si-shi-tan",
      "service": "igdb"
    }
  ],
  "aliases": [],
  "shaders": [],
  "discord_id": "",
  "change_for": null
}