{
  "id": 28361,
  "name": "神楽道中記(KaguraDouchuuki)",
  "slug": "kaguradouchuuki",
  "year": null,
  "banner_url": "https://lutris.net/games/banner/kaguradouchuuki.jpg",
  "icon_url": "https://lutris.net/games/icon/kaguradouchuuki.png",
  "coverart": null,
  "platforms": [],
  "provider_games": [
    {
      "name": "神楽道中記(KaguraDouchuuki)",
      "slug": "378790",
      "service": "steam"
    }
  ],
  "aliases": [],
  "shaders": [],
  "discord_id": "",
  "change_for": null
}