{
  "id": 192394,
  "name": "Squad Battles: The Proud and the Few",
  "slug": "squad-battles-the-proud-and-the-few",
  "year": null,
  "banner_url": "",
  "icon_url": "",
  "coverart": "https://lutris.net/media/igdb/cover_big/co4bi5.jpg",
  "platforms": [],
  "provider_games": [
    {
      "name": "Squad Battles: The Proud and the Few",
      "slug": "squad-battles-the-proud-and-the-few",
      "service": "igdb"
    }
  ],
  "aliases": [],
  "shaders": [],
  "discord_id": "",
  "change_for": null
}