{
  "id": 282919,
  "name": "Legends of Aden",
  "slug": "legends-of-aden",
  "year": null,
  "banner_url": "",
  "icon_url": "",
  "coverart": "https://lutris.net/media/igdb/cover_big/co8416.jpg",
  "platforms": [],
  "provider_games": [
    {
      "name": "Legends of Aden",
      "slug": "legends-of-aden",
      "service": "igdb"
    }
  ],
  "aliases": [],
  "shaders": [],
  "discord_id": "",
  "change_for": null
}