{
  "id": 144286,
  "name": "Tokyo Wakusei Planetokio",
  "slug": "tokyo-wakusei-planetokio",
  "year": 1999,
  "banner_url": "",
  "icon_url": "",
  "coverart": "https://lutris.net/media/igdb/cover_big/co2u96.jpg",
  "platforms": [
    {
      "name": "Sony PlayStation"
    }
  ],
  "provider_games": [
    {
      "name": "Tokyo Wakusei Planetokio",
      "slug": "tokyo-wakusei-planetokio",
      "service": "igdb"
    }
  ],
  "aliases": [],
  "shaders": [],
  "discord_id": "",
  "change_for": null
}