{
  "id": 259609,
  "name": "500 Caliber Contractz",
  "slug": "500-caliber-contractz",
  "year": null,
  "banner_url": "",
  "icon_url": "",
  "coverart": "https://lutris.net/media/igdb/cover_big/co74ho.jpg",
  "platforms": [
    {
      "name": "Windows"
    }
  ],
  "provider_games": [
    {
      "name": "500 Caliber Contractz",
      "slug": "500-caliber-contractz",
      "service": "igdb"
    }
  ],
  "aliases": [],
  "shaders": [],
  "discord_id": "",
  "change_for": null
}