{
  "id": 215572,
  "name": "Incaved",
  "slug": "incaved",
  "year": null,
  "banner_url": "",
  "icon_url": "",
  "coverart": "https://lutris.net/media/igdb/cover_big/co58v1.jpg",
  "platforms": [],
  "provider_games": [
    {
      "name": "Incaved",
      "slug": "incaved",
      "service": "igdb"
    }
  ],
  "aliases": [],
  "shaders": [],
  "discord_id": "",
  "change_for": null
}