{
  "id": 111986,
  "name": "Super B-Daman: Fighting Phoenix",
  "slug": "super-b-daman-fighting-phoenix",
  "year": null,
  "banner_url": "",
  "icon_url": "",
  "coverart": "https://lutris.net/media/igdb/cover_big/iynohgtepoyd5tjbabbs.jpg",
  "platforms": [],
  "provider_games": [
    {
      "name": "Super B-Daman: Fighting Phoenix",
      "slug": "super-b-daman-fighting-phoenix",
      "service": "igdb"
    }
  ],
  "aliases": [],
  "shaders": [],
  "discord_id": "",
  "change_for": null
}