{
  "id": 37225,
  "game_id": 150480,
  "game_slug": "into-the-infinite",
  "name": "Into The Infinite",
  "year": 2019,
  "user": "vanstaveren",
  "runner": "steam",
  "slug": "into-the-infinite-steam",
  "version": "steam",
  "description": "",
  "notes": "",
  "credits": "",
  "created_at": "2023-03-21T04:09:25.899847Z",
  "updated_at": "2023-03-21T04:09:25.899896Z",
  "draft": false,
  "published": true,
  "published_by": null,
  "rating": "",
  "is_playable": null,
  "steamid": null,
  "gogid": null,
  "gogslug": "",
  "humbleid": "",
  "humblestoreid": "",
  "humblestoreid_real": "",
  "script": {
    "game": {
      "appid": 1225380
    }
  },
  "content": "game:\n  appid: 1225380\n",
  "discord_id": ""
}