{
  "id": 36822,
  "name": "Sudden Strike 3: Arms for Victory",
  "slug": "sudden-strike-3-arms-for-victory",
  "year": 2017,
  "banner_url": "",
  "icon_url": "",
  "coverart": "https://lutris.net/media/igdb/cover_big/co28c6.jpg",
  "platforms": [
    {
      "name": "Windows"
    }
  ],
  "provider_games": [
    {
      "name": "Sudden Strike 3: Arms for Victory",
      "slug": "2134842136",
      "service": "gog"
    },
    {
      "name": "Sudden Strike 3: Arms for Victory",
      "slug": "sudden-strike-3-arms-for-victory",
      "service": "igdb"
    }
  ],
  "aliases": [],
  "shaders": [],
  "discord_id": "",
  "change_for": null
}