{
  "id": 235045,
  "name": "Striden: Fogbound",
  "slug": "striden-fogbound",
  "year": null,
  "banner_url": "",
  "icon_url": "",
  "coverart": "https://lutris.net/media/igdb/cover_big/co6508.jpg",
  "platforms": [],
  "provider_games": [
    {
      "name": "Striden: Fogbound",
      "slug": "striden-fogbound",
      "service": "igdb"
    }
  ],
  "aliases": [],
  "shaders": [],
  "discord_id": "",
  "change_for": null
}