{
  "id": 243004,
  "name": "Doctor Who: Black Hole",
  "slug": "doctor-who-black-hole",
  "year": 2008,
  "banner_url": "",
  "icon_url": "",
  "coverart": "https://lutris.net/media/igdb/cover_big/co6h3y.jpg",
  "platforms": [
    {
      "name": "Browser"
    }
  ],
  "provider_games": [
    {
      "name": "Doctor Who: Black Hole",
      "slug": "doctor-who-black-hole",
      "service": "igdb"
    }
  ],
  "aliases": [],
  "shaders": [],
  "discord_id": "",
  "change_for": null
}