{
  "id": 274434,
  "name": "Gun vs. Zombies",
  "slug": "gun-vs-zombies",
  "year": null,
  "banner_url": "",
  "icon_url": "",
  "coverart": "https://lutris.net/media/igdb/cover_big/co7sg9.jpg",
  "platforms": [],
  "provider_games": [
    {
      "name": "Gun vs. Zombies",
      "slug": "gun-vs-zombies",
      "service": "igdb"
    }
  ],
  "aliases": [],
  "shaders": [],
  "discord_id": "",
  "change_for": null
}