{
  "id": 289666,
  "name": "Wall Street Massacre",
  "slug": "wall-street-massacre",
  "year": 2009,
  "banner_url": "",
  "icon_url": "",
  "coverart": null,
  "platforms": [
    {
      "name": "Browser"
    }
  ],
  "provider_games": [],
  "aliases": [],
  "shaders": [],
  "discord_id": "",
  "change_for": null
}