{
  "id": 16269,
  "name": "Terra Mystica",
  "slug": "terra-mystica",
  "year": 2017,
  "banner_url": "https://lutris.net/games/banner/terra-mystica.jpg",
  "icon_url": "https://lutris.net/games/icon/terra-mystica.png",
  "coverart": "https://lutris.net/media/igdb/cover_big/co23e8.jpg",
  "platforms": [
    {
      "name": "Linux"
    },
    {
      "name": "Mac"
    },
    {
      "name": "Windows"
    }
  ],
  "provider_games": [
    {
      "name": "Terra Mystica",
      "slug": "628900",
      "service": "steam"
    },
    {
      "name": "Terra Mystica",
      "slug": "terra-mystica",
      "service": "igdb"
    }
  ],
  "aliases": [],
  "shaders": [],
  "discord_id": "",
  "change_for": null
}