{
  "id": 136478,
  "name": "Ultra Strangeness",
  "slug": "ultra-strangeness",
  "year": null,
  "banner_url": "",
  "icon_url": "",
  "coverart": "https://lutris.net/media/igdb/cover_big/co3pd8.jpg",
  "platforms": [],
  "provider_games": [
    {
      "name": "Ultra Strangeness",
      "slug": "ultra-strangeness",
      "service": "igdb"
    }
  ],
  "aliases": [],
  "shaders": [],
  "discord_id": "",
  "change_for": null
}