{
  "id": 197708,
  "name": "Ultraman: Fighting Heroes",
  "slug": "ultraman-fighting-heroes",
  "year": null,
  "banner_url": "",
  "icon_url": "",
  "coverart": "https://lutris.net/media/igdb/cover_big/co8o73.jpg",
  "platforms": [],
  "provider_games": [
    {
      "name": "Ultraman: Fighting Heroes",
      "slug": "ultraman-fighting-heroes",
      "service": "igdb"
    }
  ],
  "aliases": [],
  "shaders": [],
  "discord_id": "",
  "change_for": null
}