{
  "id": 251305,
  "name": "Men in Pants",
  "slug": "men-in-pants",
  "year": null,
  "banner_url": "",
  "icon_url": "",
  "coverart": null,
  "platforms": [],
  "provider_games": [
    {
      "name": "Men in Pants",
      "slug": "men-in-pants",
      "service": "igdb"
    }
  ],
  "aliases": [],
  "shaders": [],
  "discord_id": "",
  "change_for": null
}