{
  "id": 186289,
  "name": "Sakura no Gakkou",
  "slug": "sakura-no-gakkou",
  "year": null,
  "banner_url": "",
  "icon_url": "",
  "coverart": null,
  "platforms": [],
  "provider_games": [
    {
      "name": "Sakura no Gakkou",
      "slug": "sakura-no-gakkou",
      "service": "igdb"
    }
  ],
  "aliases": [],
  "shaders": [],
  "discord_id": "",
  "change_for": null
}