{
  "id": 109966,
  "name": "Muv-Luv Unlimited: The Day After - Episode 01",
  "slug": "muv-luv-unlimited-the-day-after-episode-01",
  "year": 2011,
  "banner_url": "",
  "icon_url": "",
  "coverart": "https://lutris.net/media/igdb/cover_big/co2sy8.jpg",
  "platforms": [
    {
      "name": "Windows"
    }
  ],
  "provider_games": [
    {
      "name": "Muv-Luv Unlimited: The Day After - Episode 01",
      "slug": "muv-luv-unlimited-the-day-after-episode-01",
      "service": "igdb"
    }
  ],
  "aliases": [],
  "shaders": [],
  "discord_id": "",
  "change_for": null
}