{
  "id": 17910,
  "name": "Alter Ego: Female Edition",
  "slug": "alter-ego-female-edition",
  "year": 1986,
  "banner_url": "https://lutris.net/games/banner/alter-ego-female-edition.jpg",
  "icon_url": "",
  "coverart": null,
  "platforms": [
    {
      "name": "Apple //e"
    },
    {
      "name": "Commodore 64"
    },
    {
      "name": "MS-DOS"
    }
  ],
  "provider_games": [],
  "aliases": [],
  "shaders": [],
  "discord_id": "",
  "change_for": null
}