{
  "id": 40936,
  "name": "Samsung Smart View",
  "slug": "samsung-smart-view",
  "year": null,
  "banner_url": "https://lutris.net/games/banner/samsung-smart-view.jpg",
  "icon_url": "",
  "coverart": null,
  "platforms": [
    {
      "name": "Windows"
    }
  ],
  "provider_games": [],
  "aliases": [],
  "shaders": [],
  "discord_id": "",
  "change_for": null
}