{
  "id": 176571,
  "name": "Doubutsu no Mori",
  "slug": "doubutsu-no-mori--1",
  "year": 2001,
  "banner_url": "",
  "icon_url": "",
  "coverart": "https://lutris.net/media/igdb/cover_big/co1o49.jpg",
  "platforms": [
    {
      "name": "Nintendo 64"
    }
  ],
  "provider_games": [
    {
      "name": "Doubutsu no Mori",
      "slug": "doubutsu-no-mori--1",
      "service": "igdb"
    }
  ],
  "aliases": [],
  "shaders": [],
  "discord_id": "",
  "change_for": null
}