{
  "id": 270906,
  "name": "Chick Road Rage",
  "slug": "chick-road-rage",
  "year": null,
  "banner_url": "",
  "icon_url": "",
  "coverart": "https://lutris.net/media/igdb/cover_big/co7ljn.jpg",
  "platforms": [],
  "provider_games": [
    {
      "name": "Chick Road Rage",
      "slug": "chick-road-rage",
      "service": "igdb"
    }
  ],
  "aliases": [],
  "shaders": [],
  "discord_id": "",
  "change_for": null
}