{
  "id": 184120,
  "name": "Snowdown",
  "slug": "snowdown",
  "year": null,
  "banner_url": "",
  "icon_url": "",
  "coverart": "https://lutris.net/media/igdb/cover_big/co4kpp.jpg",
  "platforms": [],
  "provider_games": [
    {
      "name": "Snowdown",
      "slug": "snowdown",
      "service": "igdb"
    }
  ],
  "aliases": [],
  "shaders": [],
  "discord_id": "",
  "change_for": null
}