{
  "id": 234880,
  "name": "Mosaic Chronicles Deluxe",
  "slug": "mosaic-chronicles-deluxe",
  "year": 2023,
  "banner_url": "",
  "icon_url": "",
  "coverart": "https://lutris.net/media/igdb/cover_big/co67jh.jpg",
  "platforms": [
    {
      "name": "Nintendo Switch"
    }
  ],
  "provider_games": [
    {
      "name": "Mosaic Chronicles Deluxe",
      "slug": "mosaic-chronicles-deluxe",
      "service": "igdb"
    }
  ],
  "aliases": [],
  "shaders": [],
  "discord_id": "",
  "change_for": null
}