{
  "id": 229838,
  "name": "Quiz Thiz Italy",
  "slug": "quiz-thiz-italy",
  "year": 2023,
  "banner_url": "",
  "icon_url": "",
  "coverart": "https://lutris.net/media/igdb/cover_big/co6bao.jpg",
  "platforms": [
    {
      "name": "Sony Playstation 4"
    },
    {
      "name": "Sony PlayStation 5"
    }
  ],
  "provider_games": [
    {
      "name": "Quiz Thiz Italy",
      "slug": "quiz-thiz-italy",
      "service": "igdb"
    }
  ],
  "aliases": [],
  "shaders": [],
  "discord_id": "",
  "change_for": null
}