{
  "id": 267703,
  "name": "Djikstra's Enigmatic Puzzle Cube",
  "slug": "djikstras-enigmatic-puzzle-cube",
  "year": null,
  "banner_url": "",
  "icon_url": "",
  "coverart": "https://lutris.net/media/igdb/cover_big/co7fa6.jpg",
  "platforms": [],
  "provider_games": [
    {
      "name": "Djikstra's Enigmatic Puzzle Cube",
      "slug": "djikstras-enigmatic-puzzle-cube",
      "service": "igdb"
    }
  ],
  "aliases": [],
  "shaders": [],
  "discord_id": "",
  "change_for": null
}