{
  "id": 35619,
  "name": "Success Joe",
  "slug": "success-joe",
  "year": 1990,
  "banner_url": "",
  "icon_url": "https://lutris.net/games/icon/success-joe.png",
  "coverart": null,
  "platforms": [
    {
      "name": "Arcade"
    }
  ],
  "provider_games": [
    {
      "name": "Success Joe",
      "slug": "scessjoe",
      "service": "mame"
    },
    {
      "name": "Success Joe",
      "slug": "success-joe",
      "service": "igdb"
    }
  ],
  "aliases": [],
  "shaders": [],
  "discord_id": "",
  "change_for": null
}