{
  "id": 248574,
  "name": "Pochi and Nyaa",
  "slug": "pochi-and-nyaa--1",
  "year": 2004,
  "banner_url": "",
  "icon_url": "",
  "coverart": "https://lutris.net/media/igdb/cover_big/co6l7f.jpg",
  "platforms": [
    {
      "name": "Sony PlayStation 2"
    }
  ],
  "provider_games": [
    {
      "name": "Pochi and Nyaa",
      "slug": "pochi-and-nyaa--1",
      "service": "igdb"
    }
  ],
  "aliases": [],
  "shaders": [],
  "discord_id": "",
  "change_for": null
}