{
  "id": 70929,
  "name": "Comic Kicker Euro 2000",
  "slug": "comic-kicker-euro-2000",
  "year": null,
  "banner_url": "",
  "icon_url": "",
  "coverart": null,
  "platforms": [],
  "provider_games": [
    {
      "name": "Comic Kicker Euro 2000",
      "slug": "comic-kicker-euro-2000",
      "service": "igdb"
    }
  ],
  "aliases": [],
  "shaders": [],
  "discord_id": "",
  "change_for": null
}