{
  "id": 271981,
  "name": "MindKatt",
  "slug": "mindkatt",
  "year": null,
  "banner_url": "",
  "icon_url": "",
  "coverart": "https://lutris.net/media/igdb/cover_big/co7pxm.jpg",
  "platforms": [],
  "provider_games": [
    {
      "name": "MindKatt",
      "slug": "mindkatt",
      "service": "igdb"
    }
  ],
  "aliases": [],
  "shaders": [],
  "discord_id": "",
  "change_for": null
}