{
  "id": 183139,
  "name": "Cardinal Ramship Pirate",
  "slug": "cardinal-ramship-pirate",
  "year": null,
  "banner_url": "",
  "icon_url": "",
  "coverart": null,
  "platforms": [],
  "provider_games": [
    {
      "name": "Cardinal Ramship Pirate",
      "slug": "cardinal-ramship-pirate",
      "service": "igdb"
    }
  ],
  "aliases": [],
  "shaders": [],
  "discord_id": "",
  "change_for": null
}