{
  "id": 54071,
  "name": "Black Rock City",
  "slug": "black-rock-city",
  "year": null,
  "banner_url": "",
  "icon_url": "",
  "coverart": "https://lutris.net/media/igdb/cover_big/nxmiynkugfgwxlos5pmh.jpg",
  "platforms": [],
  "provider_games": [
    {
      "name": "Black Rock City",
      "slug": "black-rock-city",
      "service": "igdb"
    }
  ],
  "aliases": [],
  "shaders": [],
  "discord_id": "",
  "change_for": null
}