{
  "id": 71041,
  "name": "Brixout XP",
  "slug": "brixout-xp",
  "year": null,
  "banner_url": "",
  "icon_url": "",
  "coverart": null,
  "platforms": [],
  "provider_games": [
    {
      "name": "Brixout XP",
      "slug": "brixout-xp",
      "service": "igdb"
    }
  ],
  "aliases": [],
  "shaders": [],
  "discord_id": "",
  "change_for": null
}