{
  "id": 33634,
  "name": "Casino Fever 6.1",
  "slug": "casino-fever-61",
  "year": 2000,
  "banner_url": "",
  "icon_url": "https://lutris.net/games/icon/casino-fever-61.png",
  "coverart": null,
  "platforms": [
    {
      "name": "Arcade"
    }
  ],
  "provider_games": [
    {
      "name": "Casino Fever 6.1",
      "slug": "cfever61",
      "service": "mame"
    }
  ],
  "aliases": [],
  "shaders": [],
  "discord_id": "",
  "change_for": null
}