{
  "id": 269585,
  "name": "Snakebird Complete",
  "slug": "snakebird-complete",
  "year": 2023,
  "banner_url": "https://lutris.net/games/banner/snakebird-complete.jpg",
  "icon_url": "",
  "coverart": null,
  "platforms": [
    {
      "name": "Windows"
    }
  ],
  "provider_games": [],
  "aliases": [],
  "shaders": [],
  "discord_id": "",
  "change_for": null
}