{
  "id": 253371,
  "name": "Neon Little Soul",
  "slug": "neon-little-soul",
  "year": null,
  "banner_url": "",
  "icon_url": "",
  "coverart": "https://lutris.net/media/igdb/cover_big/co6u4p.jpg",
  "platforms": [],
  "provider_games": [
    {
      "name": "Neon Little Soul",
      "slug": "neon-little-soul",
      "service": "igdb"
    }
  ],
  "aliases": [],
  "shaders": [],
  "discord_id": "",
  "change_for": null
}