{
  "id": 60237,
  "name": "Move It!",
  "slug": "move-it--1",
  "year": null,
  "banner_url": "",
  "icon_url": "",
  "coverart": "https://lutris.net/media/igdb/cover_big/htaft4absmzktoy9emmx.jpg",
  "platforms": [],
  "provider_games": [
    {
      "name": "Move It!",
      "slug": "move-it--1",
      "service": "igdb"
    }
  ],
  "aliases": [],
  "shaders": [],
  "discord_id": "",
  "change_for": null
}