{
  "id": 95396,
  "name": "4-in-1 Version 1",
  "slug": "4-in-1-version-1",
  "year": null,
  "banner_url": "",
  "icon_url": "",
  "coverart": null,
  "platforms": [
    {
      "name": "Game Boy"
    }
  ],
  "provider_games": [
    {
      "name": "4-in-1 Version 1",
      "slug": "4-in-1-version-1",
      "service": "igdb"
    }
  ],
  "aliases": [],
  "shaders": [],
  "discord_id": "",
  "change_for": null
}