{
  "id": 211545,
  "name": "Zombies Noir",
  "slug": "zombies-noir",
  "year": 2022,
  "banner_url": "",
  "icon_url": "",
  "coverart": "https://lutris.net/media/igdb/cover_big/co5fcb.jpg",
  "platforms": [
    {
      "name": "Oculus Quest 2"
    }
  ],
  "provider_games": [
    {
      "name": "Zombies Noir",
      "slug": "zombies-noir",
      "service": "igdb"
    }
  ],
  "aliases": [],
  "shaders": [],
  "discord_id": "",
  "change_for": null
}