{
  "id": 44583,
  "name": "Slave Princess Sarah",
  "slug": "slave-princess-sarah",
  "year": 2019,
  "banner_url": "https://lutris.net/games/banner/slave-princess-sarah.jpg",
  "icon_url": "https://lutris.net/games/icon/slave-princess-sarah.png",
  "coverart": "https://lutris.net/media/igdb/cover_big/co41mu.jpg",
  "platforms": [
    {
      "name": "Windows"
    }
  ],
  "provider_games": [
    {
      "name": "Slave Princess Sarah",
      "slug": "slave-princess-sarah",
      "service": "igdb"
    },
    {
      "name": "Slave Princess Sarah",
      "slug": "1202280",
      "service": "steam"
    }
  ],
  "aliases": [],
  "shaders": [],
  "discord_id": "",
  "change_for": null
}