{
  "id": 38139,
  "game_id": 256254,
  "game_slug": "joy-n-help-me",
  "name": "Joy-N Help Me",
  "year": null,
  "user": "vanstaveren",
  "runner": "steam",
  "slug": "joy-n-help-me-steam",
  "version": "steam",
  "description": "",
  "notes": "",
  "credits": "",
  "created_at": "2024-01-09T00:14:49.455306Z",
  "updated_at": "2024-01-09T00:14:49.455328Z",
  "draft": false,
  "published": true,
  "published_by": null,
  "rating": "",
  "is_playable": null,
  "steamid": null,
  "gogid": null,
  "gogslug": "",
  "humbleid": "",
  "humblestoreid": "",
  "humblestoreid_real": "",
  "script": {
    "game": {
      "appid": 2508670
    }
  },
  "content": "game:\n  appid: 2508670\n",
  "discord_id": ""
}