{
  "id": 165546,
  "name": "TOEM",
  "slug": "toem",
  "year": 2021,
  "banner_url": "https://lutris.net/games/banner/toem.jpg",
  "icon_url": "",
  "coverart": "https://lutris.net/media/igdb/cover_big/co2f7r.jpg",
  "platforms": [
    {
      "name": "Mac"
    },
    {
      "name": "Nintendo Switch"
    },
    {
      "name": "Sony PlayStation 5"
    },
    {
      "name": "Windows"
    }
  ],
  "provider_games": [
    {
      "name": "TOEM",
      "slug": "1307580",
      "service": "steam"
    },
    {
      "name": "Toem",
      "slug": "toem",
      "service": "igdb"
    },
    {
      "name": "TOEM",
      "slug": "1436499377",
      "service": "gog"
    }
  ],
  "aliases": [],
  "shaders": [],
  "discord_id": "",
  "change_for": null
}