{
  "id": 3212,
  "name": "Renaissance Heroes",
  "slug": "renaissance-heroes",
  "year": null,
  "banner_url": "https://lutris.net/games/banner/renaissance-heroes.jpg",
  "icon_url": "https://lutris.net/games/icon/renaissance-heroes.png",
  "coverart": "https://lutris.net/media/igdb/cover_big/hvfipquewe0tayd1gkgi.jpg",
  "platforms": [],
  "provider_games": [
    {
      "name": "Renaissance Heroes",
      "slug": "221790",
      "service": "steam"
    },
    {
      "name": "Renaissance Heroes",
      "slug": "renaissance-heroes",
      "service": "igdb"
    }
  ],
  "aliases": [],
  "shaders": [],
  "discord_id": "",
  "change_for": null
}