{
  "id": 144188,
  "name": "Star Soldier: Vanishing Earth",
  "slug": "star-soldier-vanishing-earth",
  "year": 1998,
  "banner_url": "",
  "icon_url": "",
  "coverart": "https://lutris.net/media/igdb/cover_big/co300f.jpg",
  "platforms": [
    {
      "name": "Nintendo 64"
    }
  ],
  "provider_games": [
    {
      "name": "Star Soldier: Vanishing Earth",
      "slug": "star-soldier-vanishing-earth",
      "service": "igdb"
    }
  ],
  "aliases": [],
  "shaders": [],
  "discord_id": "",
  "change_for": null
}