{
  "id": 128646,
  "name": "The Knight of Nephiart",
  "slug": "the-knight-of-nephiart",
  "year": 2022,
  "banner_url": "",
  "icon_url": "",
  "coverart": "https://lutris.net/media/igdb/cover_big/co3943.jpg",
  "platforms": [
    {
      "name": "Nintendo Switch"
    },
    {
      "name": "Sony PlayStation 5"
    },
    {
      "name": "Windows"
    }
  ],
  "provider_games": [
    {
      "name": "The Knight of Nephiart",
      "slug": "the-knight-of-nephiart",
      "service": "igdb"
    }
  ],
  "aliases": [],
  "shaders": [],
  "discord_id": "",
  "change_for": null
}