{
  "id": 71121,
  "name": "Lynx Othello",
  "slug": "lynx-othello",
  "year": null,
  "banner_url": "",
  "icon_url": "",
  "coverart": null,
  "platforms": [],
  "provider_games": [
    {
      "name": "Lynx Othello",
      "slug": "lynx-othello",
      "service": "igdb"
    }
  ],
  "aliases": [],
  "shaders": [],
  "discord_id": "",
  "change_for": null
}