{
  "id": 280233,
  "name": "Hydrogen Game",
  "slug": "hydrogen-game",
  "year": null,
  "banner_url": "",
  "icon_url": "",
  "coverart": "https://lutris.net/media/igdb/cover_big/co80q7.jpg",
  "platforms": [],
  "provider_games": [
    {
      "name": "Hydrogen Game",
      "slug": "hydrogen-game",
      "service": "igdb"
    }
  ],
  "aliases": [],
  "shaders": [],
  "discord_id": "",
  "change_for": null
}