{
  "id": 135970,
  "name": "VIP Rebels",
  "slug": "vip-rebels",
  "year": null,
  "banner_url": "",
  "icon_url": "",
  "coverart": "https://lutris.net/media/igdb/cover_big/co3opo.jpg",
  "platforms": [],
  "provider_games": [
    {
      "name": "VIP Rebels",
      "slug": "vip-rebels",
      "service": "igdb"
    }
  ],
  "aliases": [],
  "shaders": [],
  "discord_id": "",
  "change_for": null
}