{
  "id": 2065,
  "name": "Thinking with Time Machine",
  "slug": "thinking-with-time-machine",
  "year": 2014,
  "banner_url": "https://lutris.net/games/banner/thinking-with-time-machine.jpg",
  "icon_url": "https://lutris.net/games/icon/thinking-with-time-machine.png",
  "coverart": "https://lutris.net/media/igdb/cover_big/co1vve.jpg",
  "platforms": [
    {
      "name": "Linux"
    },
    {
      "name": "Mac"
    },
    {
      "name": "Windows"
    }
  ],
  "provider_games": [
    {
      "name": "Thinking with Time Machine",
      "slug": "286080",
      "service": "steam"
    },
    {
      "name": "Thinking with Time Machine",
      "slug": "thinking-with-time-machine",
      "service": "igdb"
    }
  ],
  "aliases": [],
  "shaders": [],
  "discord_id": "",
  "change_for": null
}