{
  "id": 29527,
  "name": "Mario's Time Machine",
  "slug": "marios-time-machine",
  "year": 1993,
  "banner_url": "https://lutris.net/games/banner/marios-time-machine.jpg",
  "icon_url": "",
  "coverart": "https://lutris.net/media/igdb/cover_big/co1wwm.jpg",
  "platforms": [
    {
      "name": "MS-DOS"
    },
    {
      "name": "NES"
    },
    {
      "name": "Super Nintendo"
    }
  ],
  "provider_games": [
    {
      "name": "Mario's Time Machine",
      "slug": "marios-time-machine",
      "service": "igdb"
    }
  ],
  "aliases": [],
  "shaders": [],
  "discord_id": "",
  "change_for": null
}