{
  "id": 290692,
  "name": "Jenny of the Prairie",
  "slug": "jenny-of-the-prairie",
  "year": 1984,
  "banner_url": "",
  "icon_url": "",
  "coverart": "https://lutris.net/media/igdb/cover_big/co8fz1.jpg",
  "platforms": [
    {
      "name": "Apple II"
    },
    {
      "name": "Atari 8-bit"
    },
    {
      "name": "Commodore C64/128"
    }
  ],
  "provider_games": [
    {
      "name": "Jenny of the Prairie",
      "slug": "jenny-of-the-prairie",
      "service": "igdb"
    }
  ],
  "aliases": [],
  "shaders": [],
  "discord_id": "",
  "change_for": null
}