{
  "id": 162910,
  "name": "Fight // Flight",
  "slug": "fight-slash-slash-flight",
  "year": null,
  "banner_url": "",
  "icon_url": "",
  "coverart": "https://lutris.net/media/igdb/cover_big/co4x3a.jpg",
  "platforms": [],
  "provider_games": [
    {
      "name": "Fight // Flight",
      "slug": "fight-slash-slash-flight",
      "service": "igdb"
    }
  ],
  "aliases": [],
  "shaders": [],
  "discord_id": "",
  "change_for": null
}