{
  "id": 45152,
  "name": "Cookie Collector 2",
  "slug": "cookie-collector-2--1",
  "year": null,
  "banner_url": "",
  "icon_url": "",
  "coverart": "https://lutris.net/media/igdb/cover_big/oz61ggv7ev3zu5kizxhr.jpg",
  "platforms": [],
  "provider_games": [
    {
      "name": "Cookie Collector 2",
      "slug": "cookie-collector-2--1",
      "service": "igdb"
    }
  ],
  "aliases": [],
  "shaders": [],
  "discord_id": "",
  "change_for": null
}