{
  "id": 36276,
  "name": "UFO Catcher Mini",
  "slug": "ufo-catcher-mini",
  "year": 1991,
  "banner_url": "",
  "icon_url": "https://lutris.net/games/icon/ufo-catcher-mini.png",
  "coverart": null,
  "platforms": [
    {
      "name": "Arcade"
    }
  ],
  "provider_games": [
    {
      "name": "UFO Catcher Mini",
      "slug": "ufomini",
      "service": "mame"
    }
  ],
  "aliases": [],
  "shaders": [],
  "discord_id": "",
  "change_for": null
}