{
  "id": 153201,
  "name": "EX0: Dark Moon",
  "slug": "ex0-dark-moon",
  "year": 2017,
  "banner_url": "https://lutris.net/games/banner/ex0-dark-moon.jpg",
  "icon_url": "",
  "coverart": "https://lutris.net/media/igdb/cover_big/co2b5u.jpg",
  "platforms": [
    {
      "name": "Windows"
    }
  ],
  "provider_games": [
    {
      "name": "EX0: Dark Moon",
      "slug": "736180",
      "service": "steam"
    },
    {
      "name": "EX0: Dark Moon",
      "slug": "ex0-dark-moon",
      "service": "igdb"
    }
  ],
  "aliases": [],
  "shaders": [],
  "discord_id": "",
  "change_for": null
}