{
  "id": 171256,
  "name": "Silenced",
  "slug": "silenced",
  "year": null,
  "banner_url": "",
  "icon_url": "",
  "coverart": "https://lutris.net/media/igdb/cover_big/co47c6.jpg",
  "platforms": [],
  "provider_games": [
    {
      "name": "Silenced",
      "slug": "silenced",
      "service": "igdb"
    }
  ],
  "aliases": [],
  "shaders": [],
  "discord_id": "",
  "change_for": null
}