{
  "id": 102038,
  "name": "The Italian Job",
  "slug": "the-italian-job--1",
  "year": 2001,
  "banner_url": "",
  "icon_url": "",
  "coverart": "https://lutris.net/media/igdb/cover_big/co2lcg.jpg",
  "platforms": [
    {
      "name": "Sony PlayStation"
    },
    {
      "name": "Windows"
    }
  ],
  "provider_games": [
    {
      "name": "The Italian Job",
      "slug": "the-italian-job--1",
      "service": "igdb"
    }
  ],
  "aliases": [],
  "shaders": [],
  "discord_id": "",
  "change_for": null
}