{
  "id": 179,
  "name": "Back to the Future: Ep 5 - OUTATIME",
  "slug": "back-to-the-future-ep-5-outatime",
  "year": 2011,
  "banner_url": "https://lutris.net/games/banner/back-to-the-future-ep-5-outatime.jpg",
  "icon_url": "https://lutris.net/games/icon/back-to-the-future-ep-5-outatime.png",
  "coverart": null,
  "platforms": [
    {
      "name": "Windows"
    }
  ],
  "provider_games": [
    {
      "name": "Back to the Future: Ep 5 - OUTATIME",
      "slug": "94530",
      "service": "steam"
    }
  ],
  "aliases": [],
  "shaders": [],
  "discord_id": "",
  "change_for": null
}