{
  "id": 278925,
  "name": "Suspended Animation",
  "slug": "suspended-animation",
  "year": null,
  "banner_url": "",
  "icon_url": "",
  "coverart": "https://lutris.net/media/igdb/cover_big/co7xcj.jpg",
  "platforms": [],
  "provider_games": [
    {
      "name": "Suspended Animation",
      "slug": "suspended-animation",
      "service": "igdb"
    }
  ],
  "aliases": [],
  "shaders": [],
  "discord_id": "",
  "change_for": null
}