{
  "id": 91527,
  "name": "Tap Tap Snake",
  "slug": "tap-tap-snake",
  "year": null,
  "banner_url": "",
  "icon_url": "",
  "coverart": null,
  "platforms": [],
  "provider_games": [
    {
      "name": "Tap Tap Snake",
      "slug": "tap-tap-snake",
      "service": "igdb"
    }
  ],
  "aliases": [],
  "shaders": [],
  "discord_id": "",
  "change_for": null
}