{
  "id": 272271,
  "name": "Mashin Eiyuuden Wataru 2: Shinsei Ryuujin-maru Sanjou!",
  "slug": "mashin-eiyuuden-wataru-2-shinsei-ryuujin-maru-sanjou",
  "year": null,
  "banner_url": "",
  "icon_url": "",
  "coverart": null,
  "platforms": [],
  "provider_games": [
    {
      "name": "Mashin Eiyuuden Wataru 2: Shinsei Ryuujin-maru Sanjou!",
      "slug": "mashin-eiyuuden-wataru-2-shinsei-ryuujin-maru-sanjou",
      "service": "igdb"
    }
  ],
  "aliases": [],
  "shaders": [],
  "discord_id": "",
  "change_for": null
}