{
  "id": 68650,
  "name": "Mary Shelley's Frankenstein Pinball",
  "slug": "mary-shelleys-frankenstein-pinball",
  "year": null,
  "banner_url": "",
  "icon_url": "",
  "coverart": "https://lutris.net/media/igdb/cover_big/hpl0lf4zn3rpqzcfykug.jpg",
  "platforms": [],
  "provider_games": [
    {
      "name": "Mary Shelley's Frankenstein Pinball",
      "slug": "mary-shelleys-frankenstein-pinball",
      "service": "igdb"
    }
  ],
  "aliases": [],
  "shaders": [],
  "discord_id": "",
  "change_for": null
}