{
  "id": 211280,
  "name": "Smash Therapy",
  "slug": "smash-therapy",
  "year": null,
  "banner_url": "",
  "icon_url": "",
  "coverart": "https://lutris.net/media/igdb/cover_big/co5fn2.jpg",
  "platforms": [],
  "provider_games": [
    {
      "name": "Smash Therapy",
      "slug": "smash-therapy",
      "service": "igdb"
    }
  ],
  "aliases": [],
  "shaders": [],
  "discord_id": "",
  "change_for": null
}