{
  "id": 140118,
  "name": "Metal Knight: Mission - Terminate Resistance",
  "slug": "metal-knight-mission-terminate-resistance",
  "year": 1999,
  "banner_url": "",
  "icon_url": "",
  "coverart": "https://lutris.net/media/igdb/cover_big/co3s6a.jpg",
  "platforms": [
    {
      "name": "Windows"
    }
  ],
  "provider_games": [
    {
      "name": "Metal Knight: Mission - Terminate Resistance",
      "slug": "metal-knight-mission-terminate-resistance",
      "service": "igdb"
    }
  ],
  "aliases": [],
  "shaders": [],
  "discord_id": "",
  "change_for": null
}