{
  "id": 38857,
  "name": "Ungrounded",
  "slug": "ungrounded",
  "year": 2017,
  "banner_url": "https://lutris.net/games/banner/ungrounded.jpg",
  "icon_url": "",
  "coverart": "https://lutris.net/media/igdb/cover_big/co2d9z.jpg",
  "platforms": [
    {
      "name": "Linux"
    },
    {
      "name": "Mac"
    },
    {
      "name": "Windows"
    }
  ],
  "provider_games": [
    {
      "name": "Ungrounded",
      "slug": "ungrounded",
      "service": "igdb"
    }
  ],
  "aliases": [],
  "shaders": [],
  "discord_id": "",
  "change_for": null
}