{
  "id": 294314,
  "name": "Kour 64",
  "slug": "kour-64",
  "year": null,
  "banner_url": "",
  "icon_url": "",
  "coverart": "https://lutris.net/media/igdb/cover_big/co8oox.jpg",
  "platforms": [],
  "provider_games": [
    {
      "name": "Kour 64",
      "slug": "kour-64",
      "service": "igdb"
    }
  ],
  "aliases": [],
  "shaders": [],
  "discord_id": "",
  "change_for": null
}