{
  "id": 203939,
  "name": "That Really Boils My Piss",
  "slug": "that-really-boils-my-piss",
  "year": null,
  "banner_url": "",
  "icon_url": "",
  "coverart": "https://lutris.net/media/igdb/cover_big/co4xns.jpg",
  "platforms": [],
  "provider_games": [
    {
      "name": "That Really Boils My Piss",
      "slug": "that-really-boils-my-piss",
      "service": "igdb"
    }
  ],
  "aliases": [],
  "shaders": [],
  "discord_id": "",
  "change_for": null
}