{
  "id": 151831,
  "name": "Pro Basketball Manager 2016: US Edition",
  "slug": "pro-basketball-manager-2016-us-edition",
  "year": 2016,
  "banner_url": "https://lutris.net/games/banner/pro-basketball-manager-2016-us-edition.jpg",
  "icon_url": "",
  "coverart": null,
  "platforms": [
    {
      "name": "Windows"
    }
  ],
  "provider_games": [
    {
      "name": "Pro Basketball Manager 2016 - US Edition",
      "slug": "412560",
      "service": "steam"
    },
    {
      "name": "Pro Basketball Manager 2016: US Edition",
      "slug": "pro-basketball-manager-2016-us-edition",
      "service": "igdb"
    }
  ],
  "aliases": [],
  "shaders": [],
  "discord_id": "",
  "change_for": null
}