{
  "id": 115935,
  "name": "Of Mice and Sand",
  "slug": "of-mice-and-sand",
  "year": 2016,
  "banner_url": "",
  "icon_url": "",
  "coverart": "https://lutris.net/media/igdb/cover_big/co2qvl.jpg",
  "platforms": [
    {
      "name": "Nintendo 3DS"
    },
    {
      "name": "Nintendo Switch"
    }
  ],
  "provider_games": [
    {
      "name": "Of Mice and Sand",
      "slug": "of-mice-and-sand",
      "service": "igdb"
    }
  ],
  "aliases": [],
  "shaders": [],
  "discord_id": "",
  "change_for": null
}