{
  "id": 237564,
  "name": "Let's Sing 2020: Platinum Edition",
  "slug": "lets-sing-2020-platinum-edition",
  "year": 2020,
  "banner_url": "",
  "icon_url": "",
  "coverart": null,
  "platforms": [
    {
      "name": "Nintendo Switch"
    }
  ],
  "provider_games": [
    {
      "name": "Let's Sing 2020: Platinum Edition",
      "slug": "lets-sing-2020-platinum-edition",
      "service": "igdb"
    }
  ],
  "aliases": [],
  "shaders": [],
  "discord_id": "",
  "change_for": null
}