{
  "id": 226748,
  "name": "From TV Animation One Piece: Maboroshi no Grand Line Boukenki!",
  "slug": "from-tv-animation-one-piece-maboroshi-no-grand-line-boukenki",
  "year": 2002,
  "banner_url": "",
  "icon_url": "",
  "coverart": null,
  "platforms": [
    {
      "name": "Nintendo Game Boy Color"
    }
  ],
  "provider_games": [
    {
      "name": "From TV Animation One Piece: Maboroshi no Grand Line Boukenki!",
      "slug": "from-tv-animation-one-piece-maboroshi-no-grand-line-boukenki",
      "service": "igdb"
    }
  ],
  "aliases": [],
  "shaders": [],
  "discord_id": "",
  "change_for": null
}