{
  "id": 822,
  "name": "BioShock Infinite",
  "slug": "bioshock-infinite",
  "year": 2013,
  "banner_url": "https://lutris.net/games/banner/bioshock-infinite.jpg",
  "icon_url": "https://lutris.net/games/icon/bioshock-infinite.png",
  "coverart": "https://lutris.net/media/igdb/cover_big/co2n12.jpg",
  "platforms": [
    {
      "name": "Linux"
    },
    {
      "name": "Mac"
    },
    {
      "name": "Nintendo Switch"
    },
    {
      "name": "Sony Playstation 3"
    },
    {
      "name": "Sony Playstation 4"
    },
    {
      "name": "Windows"
    },
    {
      "name": "Xbox 360"
    },
    {
      "name": "Xbox One"
    }
  ],
  "provider_games": [
    {
      "name": "BioShock Infinite Complete Edition",
      "slug": "1752654506",
      "service": "gog"
    },
    {
      "name": "BioShock Infinite",
      "slug": "8870",
      "service": "steam"
    },
    {
      "name": "BioShock Infinite",
      "slug": "bioshock-infinite",
      "service": "igdb"
    }
  ],
  "aliases": [],
  "shaders": [],
  "discord_id": "425442995681230858",
  "change_for": null
}