{
  "id": 266562,
  "name": "The King of Alzoria",
  "slug": "the-king-of-alzoria",
  "year": null,
  "banner_url": "",
  "icon_url": "",
  "coverart": null,
  "platforms": [],
  "provider_games": [
    {
      "name": "The King of Alzoria",
      "slug": "the-king-of-alzoria",
      "service": "igdb"
    }
  ],
  "aliases": [],
  "shaders": [],
  "discord_id": "",
  "change_for": null
}