{
  "id": 205830,
  "name": "Fallout 76: The Pitt - Deluxe Edition",
  "slug": "fallout-76-the-pitt-deluxe-edition",
  "year": 2022,
  "banner_url": "",
  "icon_url": "",
  "coverart": "https://lutris.net/media/igdb/cover_big/co5fbk.jpg",
  "platforms": [
    {
      "name": "Xbox One"
    }
  ],
  "provider_games": [
    {
      "name": "Fallout 76: The Pitt - Deluxe Edition",
      "slug": "fallout-76-the-pitt-deluxe-edition",
      "service": "igdb"
    }
  ],
  "aliases": [],
  "shaders": [],
  "discord_id": "",
  "change_for": null
}