{
  "id": 108340,
  "name": "Crazy Taxi Classic",
  "slug": "crazy-taxi-classic",
  "year": 2012,
  "banner_url": "",
  "icon_url": "",
  "coverart": "https://lutris.net/media/igdb/cover_big/jcggmaayyixcnkh9n01c.jpg",
  "platforms": [
    {
      "name": "Android"
    }
  ],
  "provider_games": [
    {
      "name": "Crazy Taxi Classic",
      "slug": "crazy-taxi-classic",
      "service": "igdb"
    }
  ],
  "aliases": [],
  "shaders": [],
  "discord_id": "",
  "change_for": null
}