{
  "id": 193744,
  "name": "Super Wizard Fever",
  "slug": "super-wizard-fever",
  "year": 2016,
  "banner_url": "",
  "icon_url": "",
  "coverart": null,
  "platforms": [],
  "provider_games": [
    {
      "name": "Super Wizard Fever",
      "slug": "super-wizard-fever",
      "service": "igdb"
    }
  ],
  "aliases": [],
  "shaders": [],
  "discord_id": "",
  "change_for": null
}