{
  "id": 158805,
  "name": "Die Original Moorhuhn Jagd",
  "slug": "die-original-moorhuhn-jagd",
  "year": 1999,
  "banner_url": "",
  "icon_url": "",
  "coverart": "https://lutris.net/media/igdb/cover_big/lzl9inda3tyyrsk6vusl.jpg",
  "platforms": [
    {
      "name": "Windows"
    }
  ],
  "provider_games": [
    {
      "name": "Die Original Moorhuhn Jagd",
      "slug": "die-original-moorhuhn-jagd",
      "service": "igdb"
    }
  ],
  "aliases": [],
  "shaders": [],
  "discord_id": "",
  "change_for": null
}