{
  "id": 51265,
  "name": "Tiny Toon Adventures: Buster and the Beanstalk",
  "slug": "tiny-toon-adventures-buster-and-the-beanstalk",
  "year": 1996,
  "banner_url": "",
  "icon_url": "",
  "coverart": "https://lutris.net/media/igdb/cover_big/buh5t2fmxvqrqo1hjrcx.jpg",
  "platforms": [
    {
      "name": "Mac"
    },
    {
      "name": "Windows"
    }
  ],
  "provider_games": [
    {
      "name": "Tiny Toon Adventures: Buster and the Beanstalk",
      "slug": "tiny-toon-adventures-buster-and-the-beanstalk",
      "service": "igdb"
    }
  ],
  "aliases": [],
  "shaders": [],
  "discord_id": "",
  "change_for": null
}