{
  "id": 303549,
  "name": "Puzkin: Magnetic Odyssey",
  "slug": "puzkin-magnetic-odyssey",
  "year": 2026,
  "banner_url": "",
  "icon_url": "",
  "coverart": "https://lutris.net/media/igdb/cover_big/co96ry.jpg",
  "platforms": [
    {
      "name": "Android"
    },
    {
      "name": "Mac"
    },
    {
      "name": "Nintendo Switch"
    },
    {
      "name": "Windows"
    }
  ],
  "provider_games": [
    {
      "name": "Puzkin: Magnetic Odyssey",
      "slug": "puzkin-magnetic-odyssey",
      "service": "igdb"
    }
  ],
  "aliases": [],
  "shaders": [],
  "discord_id": "",
  "change_for": null
}