{
  "id": 61632,
  "name": "Boku wa Koukuu Kanseikan: Airport Hero 3D - Honolulu",
  "slug": "boku-wa-koukuu-kanseikan-airport-hero-3d-honolulu",
  "year": null,
  "banner_url": "",
  "icon_url": "",
  "coverart": "https://lutris.net/media/igdb/cover_big/np2seewnrokvncfvojiy.jpg",
  "platforms": [],
  "provider_games": [
    {
      "name": "Boku wa Koukuu Kanseikan: Airport Hero 3D - Honolulu",
      "slug": "boku-wa-koukuu-kanseikan-airport-hero-3d-honolulu",
      "service": "igdb"
    }
  ],
  "aliases": [],
  "shaders": [],
  "discord_id": "",
  "change_for": null
}