{
  "id": 51674,
  "name": "Amazing Bumpman",
  "slug": "amazing-bumpman",
  "year": 1986,
  "banner_url": "",
  "icon_url": "",
  "coverart": "https://lutris.net/media/igdb/cover_big/dk7lceb5eyabq6tupruw.jpg",
  "platforms": [
    {
      "name": "Colecovision"
    }
  ],
  "provider_games": [
    {
      "name": "Amazing Bumpman",
      "slug": "amazing-bumpman",
      "service": "igdb"
    }
  ],
  "aliases": [],
  "shaders": [],
  "discord_id": "",
  "change_for": null
}