{
  "id": 53831,
  "name": "Make Your Own Murder Party",
  "slug": "make-your-own-murder-party",
  "year": 1986,
  "banner_url": "",
  "icon_url": "",
  "coverart": "https://lutris.net/media/igdb/cover_big/vrzajfkxifalabl9knpn.jpg",
  "platforms": [
    {
      "name": "Apple II"
    },
    {
      "name": "Commodore C64/128"
    }
  ],
  "provider_games": [
    {
      "name": "Make Your Own Murder Party",
      "slug": "make-your-own-murder-party",
      "service": "igdb"
    }
  ],
  "aliases": [],
  "shaders": [],
  "discord_id": "",
  "change_for": null
}