{
  "id": 69218,
  "name": "Kotoko-chan is 'different'.",
  "slug": "kotoko-chan-is-different",
  "year": null,
  "banner_url": "",
  "icon_url": "",
  "coverart": "https://lutris.net/media/igdb/cover_big/fbbtpuu5636ltecshppt.jpg",
  "platforms": [],
  "provider_games": [
    {
      "name": "Kotoko-chan is 'different'.",
      "slug": "kotoko-chan-is-different",
      "service": "igdb"
    }
  ],
  "aliases": [],
  "shaders": [],
  "discord_id": "",
  "change_for": null
}