{
  "id": 123673,
  "name": "Surface: Game of Gods - Collector's Edition",
  "slug": "surface-game-of-gods-collectors-edition",
  "year": 2017,
  "banner_url": "https://lutris.net/games/banner/surface-game-of-gods-collectors-edition.jpg",
  "icon_url": "",
  "coverart": null,
  "platforms": [
    {
      "name": "Windows"
    }
  ],
  "provider_games": [
    {
      "name": "Surface: Game of Gods Collector's Edition",
      "slug": "696020",
      "service": "steam"
    },
    {
      "name": "Surface: Game of Gods - Collector's Edition",
      "slug": "surface-game-of-gods-collectors-edition",
      "service": "igdb"
    }
  ],
  "aliases": [],
  "shaders": [],
  "discord_id": "",
  "change_for": null
}