{
  "id": 233577,
  "name": "That's So Raven",
  "slug": "thats-so-raven",
  "year": 2004,
  "banner_url": "",
  "icon_url": "",
  "coverart": null,
  "platforms": [
    {
      "name": "Nintendo Game Boy Advance"
    }
  ],
  "provider_games": [
    {
      "name": "That's So Raven",
      "slug": "thats-so-raven",
      "service": "igdb"
    }
  ],
  "aliases": [],
  "shaders": [],
  "discord_id": "",
  "change_for": null
}