{
  "id": 216722,
  "name": "Kiki&Lala's Twinkle Puzzle",
  "slug": "kiki-and-lalas-twinkle-puzzle",
  "year": 2018,
  "banner_url": "",
  "icon_url": "",
  "coverart": "https://lutris.net/media/igdb/cover_big/co56kv.jpg",
  "platforms": [
    {
      "name": "Android"
    }
  ],
  "provider_games": [
    {
      "name": "Kiki&Lala's Twinkle Puzzle",
      "slug": "kiki-and-lalas-twinkle-puzzle",
      "service": "igdb"
    }
  ],
  "aliases": [],
  "shaders": [],
  "discord_id": "",
  "change_for": null
}