{
  "id": 261807,
  "name": "Halloween Survivors",
  "slug": "halloween-survivors",
  "year": null,
  "banner_url": "",
  "icon_url": "",
  "coverart": "https://lutris.net/media/igdb/cover_big/co7701.jpg",
  "platforms": [],
  "provider_games": [
    {
      "name": "Halloween Survivors",
      "slug": "halloween-survivors",
      "service": "igdb"
    }
  ],
  "aliases": [],
  "shaders": [],
  "discord_id": "",
  "change_for": null
}