{
  "id": 282004,
  "name": "Squarelets",
  "slug": "squarelets",
  "year": null,
  "banner_url": "",
  "icon_url": "",
  "coverart": "https://lutris.net/media/igdb/cover_big/co82iz.jpg",
  "platforms": [],
  "provider_games": [
    {
      "name": "Squarelets",
      "slug": "squarelets",
      "service": "igdb"
    }
  ],
  "aliases": [],
  "shaders": [],
  "discord_id": "",
  "change_for": null
}