{
  "id": 220690,
  "name": "Jewel Craft",
  "slug": "jewel-craft",
  "year": null,
  "banner_url": "",
  "icon_url": "",
  "coverart": null,
  "platforms": [],
  "provider_games": [
    {
      "name": "Jewel Craft",
      "slug": "jewel-craft",
      "service": "igdb"
    }
  ],
  "aliases": [],
  "shaders": [],
  "discord_id": "",
  "change_for": null
}