{
  "id": 201061,
  "name": "Tales of Fandom Vol. 2: Luke Version",
  "slug": "tales-of-fandom-vol-2-luke-version",
  "year": 2007,
  "banner_url": "",
  "icon_url": "",
  "coverart": null,
  "platforms": [
    {
      "name": "Sony PlayStation 2"
    }
  ],
  "provider_games": [
    {
      "name": "Tales of Fandom Vol. 2: Luke Version",
      "slug": "tales-of-fandom-vol-2-luke-version",
      "service": "igdb"
    }
  ],
  "aliases": [],
  "shaders": [],
  "discord_id": "",
  "change_for": null
}