{
  "id": 146054,
  "name": "Werewolf Princess Kaguya",
  "slug": "werewolf-princess-kaguya",
  "year": 2020,
  "banner_url": "",
  "icon_url": "",
  "coverart": "https://lutris.net/media/igdb/cover_big/co2nyg.jpg",
  "platforms": [
    {
      "name": "Nintendo Switch"
    },
    {
      "name": "Windows"
    }
  ],
  "provider_games": [
    {
      "name": "Werewolf Princess Kaguya",
      "slug": "werewolf-princess-kaguya",
      "service": "igdb"
    }
  ],
  "aliases": [],
  "shaders": [],
  "discord_id": "",
  "change_for": null
}