{
  "id": 247559,
  "name": "Cinnamoroll: Koko ni Iru yo",
  "slug": "cinnamoroll-koko-ni-iru-yo",
  "year": 2003,
  "banner_url": "",
  "icon_url": "",
  "coverart": null,
  "platforms": [
    {
      "name": "Nintendo Game Boy Advance"
    }
  ],
  "provider_games": [
    {
      "name": "Cinnamoroll: Koko ni Iru yo",
      "slug": "cinnamoroll-koko-ni-iru-yo",
      "service": "igdb"
    }
  ],
  "aliases": [],
  "shaders": [],
  "discord_id": "",
  "change_for": null
}