{
  "id": 6693,
  "game_id": 15169,
  "game_slug": "space-sleuth",
  "name": "Space Sleuth",
  "year": 2015,
  "user": "FakeShemp",
  "runner": "wine",
  "slug": "space-sleuth-itchio",
  "version": "itch.io",
  "description": null,
  "notes": "",
  "credits": "",
  "created_at": "2017-12-16T17:18:00.306969Z",
  "updated_at": "2018-05-19T03:41:48.266687Z",
  "draft": false,
  "published": true,
  "published_by": null,
  "rating": "",
  "is_playable": null,
  "steamid": null,
  "gogid": null,
  "gogslug": "",
  "humbleid": "",
  "humblestoreid": "",
  "humblestoreid_real": "",
  "script": {
    "files": [
      {
        "file1": "N/A:Please select the itch.io archive"
      }
    ],
    "game": {
      "arch": "win32",
      "exe": "drive_c/Program Files/Space Sleuth/Space Sleuth.exe",
      "prefix": "$GAMEDIR"
    },
    "installer": [
      {
        "extract": {
          "dst": "$GAMEDIR/drive_c/Program Files/Space Sleuth",
          "file": "$file1"
        }
      }
    ]
  },
  "content": "files:\n- file1: N/A:Please select the itch.io archive\ngame:\n  arch: win32\n  exe: drive_c/Program Files/Space Sleuth/Space Sleuth.exe\n  prefix: $GAMEDIR\ninstaller:\n- extract:\n    dst: $GAMEDIR/drive_c/Program Files/Space Sleuth\n    file: $file1\n",
  "discord_id": ""
}