{
  "id": 78948,
  "name": "NHL Eastside Hockey Manager",
  "slug": "nhl-eastside-hockey-manager",
  "year": null,
  "banner_url": "",
  "icon_url": "",
  "coverart": "https://lutris.net/media/igdb/cover_big/co2i2i.jpg",
  "platforms": [],
  "provider_games": [
    {
      "name": "NHL Eastside Hockey Manager",
      "slug": "nhl-eastside-hockey-manager",
      "service": "igdb"
    }
  ],
  "aliases": [],
  "shaders": [],
  "discord_id": "",
  "change_for": null
}