{
  "id": 23671,
  "name": "Timequest",
  "slug": "timequest",
  "year": 1991,
  "banner_url": "https://lutris.net/games/banner/timequest.jpg",
  "icon_url": "",
  "coverart": "https://lutris.net/media/igdb/cover_big/co3vqo.jpg",
  "platforms": [
    {
      "name": "MS-DOS"
    }
  ],
  "provider_games": [
    {
      "name": "Timequest",
      "slug": "1501698573",
      "service": "gog"
    },
    {
      "name": "Timequest",
      "slug": "timequest",
      "service": "igdb"
    },
    {
      "name": "Timequest",
      "slug": "1297560",
      "service": "steam"
    }
  ],
  "aliases": [],
  "shaders": [],
  "discord_id": "",
  "change_for": null
}