{
  "id": 74749,
  "name": "NightZero:Mistiltein",
  "slug": "nightzero-mistiltein",
  "year": null,
  "banner_url": "",
  "icon_url": "",
  "coverart": null,
  "platforms": [],
  "provider_games": [
    {
      "name": "NightZero:Mistiltein",
      "slug": "nightzero-mistiltein",
      "service": "igdb"
    }
  ],
  "aliases": [],
  "shaders": [],
  "discord_id": "",
  "change_for": null
}