{
  "id": 192667,
  "name": "Fynite",
  "slug": "fynite",
  "year": null,
  "banner_url": "",
  "icon_url": "",
  "coverart": "https://lutris.net/media/igdb/cover_big/co4nkd.jpg",
  "platforms": [],
  "provider_games": [
    {
      "name": "Fynite",
      "slug": "fynite",
      "service": "igdb"
    }
  ],
  "aliases": [],
  "shaders": [],
  "discord_id": "",
  "change_for": null
}