{
  "id": 225546,
  "name": "Flappy Putin: Hardbass Gopnik",
  "slug": "flappy-putin-hardbass-gopnik",
  "year": 2018,
  "banner_url": "",
  "icon_url": "",
  "coverart": "https://lutris.net/media/igdb/cover_big/co4rp2.jpg",
  "platforms": [
    {
      "name": "Android"
    }
  ],
  "provider_games": [
    {
      "name": "Flappy Putin: Hardbass Gopnik",
      "slug": "flappy-putin-hardbass-gopnik",
      "service": "igdb"
    }
  ],
  "aliases": [],
  "shaders": [],
  "discord_id": "",
  "change_for": null
}