{
  "id": 127585,
  "name": "Decisive Battles of WWII: Korsun Pocket",
  "slug": "decisive-battles-of-wwii-korsun-pocket",
  "year": 2003,
  "banner_url": "",
  "icon_url": "",
  "coverart": "https://lutris.net/media/igdb/cover_big/k8pglfluphsjjoworhsv.jpg",
  "platforms": [
    {
      "name": "Windows"
    }
  ],
  "provider_games": [
    {
      "name": "Decisive Battles of WWII: Korsun Pocket",
      "slug": "decisive-battles-of-wwii-korsun-pocket",
      "service": "igdb"
    }
  ],
  "aliases": [],
  "shaders": [],
  "discord_id": "",
  "change_for": null
}