{
  "id": 84309,
  "name": "Shin Nihon Pro Wrestling: Chou Senshi in Tokyo Dome -Fantastic Story-",
  "slug": "shin-nihon-pro-wrestling-chou-senshi-in-tokyo-dome-fantastic-story",
  "year": 1993,
  "banner_url": "",
  "icon_url": "",
  "coverart": null,
  "platforms": [
    {
      "name": "Super Nintendo"
    }
  ],
  "provider_games": [
    {
      "name": "Shin Nihon Pro Wrestling: Chou Senshi in Tokyo Dome -Fantastic Story-",
      "slug": "shin-nihon-pro-wrestling-chou-senshi-in-tokyo-dome-fantastic-story",
      "service": "igdb"
    }
  ],
  "aliases": [],
  "shaders": [],
  "discord_id": "",
  "change_for": null
}