{
  "id": 170240,
  "name": "Jigsaw Puzzle: Animals",
  "slug": "jigsaw-puzzle-animals",
  "year": null,
  "banner_url": "",
  "icon_url": "",
  "coverart": "https://lutris.net/media/igdb/cover_big/co46h3.jpg",
  "platforms": [],
  "provider_games": [
    {
      "name": "Jigsaw Puzzle: Animals",
      "slug": "jigsaw-puzzle-animals",
      "service": "igdb"
    }
  ],
  "aliases": [],
  "shaders": [],
  "discord_id": "",
  "change_for": null
}