{
  "id": 243049,
  "name": "Mr. Stretch and the Stolen Fortune",
  "slug": "mr-stretch-and-the-stolen-fortune",
  "year": null,
  "banner_url": "",
  "icon_url": "",
  "coverart": "https://lutris.net/media/igdb/cover_big/co6gux.jpg",
  "platforms": [],
  "provider_games": [
    {
      "name": "Mr. Stretch and the Stolen Fortune",
      "slug": "mr-stretch-and-the-stolen-fortune",
      "service": "igdb"
    }
  ],
  "aliases": [],
  "shaders": [],
  "discord_id": "",
  "change_for": null
}