{
  "id": 268112,
  "name": "Shanghai Legend",
  "slug": "shanghai-legend",
  "year": null,
  "banner_url": "",
  "icon_url": "",
  "coverart": null,
  "platforms": [],
  "provider_games": [
    {
      "name": "Shanghai Legend",
      "slug": "shanghai-legend",
      "service": "igdb"
    }
  ],
  "aliases": [],
  "shaders": [],
  "discord_id": "",
  "change_for": null
}