{
  "id": 95398,
  "name": "Arkanoid For Painters",
  "slug": "arkanoid-for-painters",
  "year": null,
  "banner_url": "",
  "icon_url": "",
  "coverart": null,
  "platforms": [],
  "provider_games": [
    {
      "name": "Arkanoid For Painters",
      "slug": "arkanoid-for-painters",
      "service": "igdb"
    }
  ],
  "aliases": [],
  "shaders": [],
  "discord_id": "",
  "change_for": null
}