{
  "id": 182288,
  "name": "Gothic 1 Remake",
  "slug": "gothic-1-remake",
  "year": null,
  "banner_url": "",
  "icon_url": "",
  "coverart": "https://lutris.net/media/igdb/cover_big/co30p1.jpg",
  "platforms": [],
  "provider_games": [
    {
      "name": "Gothic 1 Remake",
      "slug": "gothic-1-remake",
      "service": "igdb"
    }
  ],
  "aliases": [],
  "shaders": [],
  "discord_id": "",
  "change_for": null
}