{
  "id": 281867,
  "name": "Rearea",
  "slug": "rearea",
  "year": null,
  "banner_url": "",
  "icon_url": "",
  "coverart": "https://lutris.net/media/igdb/cover_big/co82sg.jpg",
  "platforms": [],
  "provider_games": [
    {
      "name": "Rearea",
      "slug": "rearea",
      "service": "igdb"
    }
  ],
  "aliases": [],
  "shaders": [],
  "discord_id": "",
  "change_for": null
}