{
  "id": 279154,
  "name": "Multiverse Battle Royale",
  "slug": "multiverse-battle-royale",
  "year": null,
  "banner_url": "",
  "icon_url": "",
  "coverart": "https://lutris.net/media/igdb/cover_big/co7xaf.jpg",
  "platforms": [],
  "provider_games": [
    {
      "name": "Multiverse Battle Royale",
      "slug": "multiverse-battle-royale",
      "service": "igdb"
    }
  ],
  "aliases": [],
  "shaders": [],
  "discord_id": "",
  "change_for": null
}