{
  "id": 204466,
  "name": "Super Mario Flashback",
  "slug": "super-mario-flashback",
  "year": 2020,
  "banner_url": "https://lutris.net/games/banner/super-mario-flashback.jpg",
  "icon_url": "",
  "coverart": "https://lutris.net/media/igdb/cover_big/co309k.jpg",
  "platforms": [
    {
      "name": "Windows"
    }
  ],
  "provider_games": [
    {
      "name": "Super Mario Flashback",
      "slug": "super-mario-flashback",
      "service": "igdb"
    }
  ],
  "aliases": [],
  "shaders": [],
  "discord_id": null,
  "change_for": null
}