{
  "id": 86610,
  "name": "Gift Shop",
  "slug": "gift-shop",
  "year": null,
  "banner_url": "",
  "icon_url": "",
  "coverart": null,
  "platforms": [],
  "provider_games": [
    {
      "name": "Gift Shop",
      "slug": "gift-shop",
      "service": "igdb"
    }
  ],
  "aliases": [],
  "shaders": [],
  "discord_id": "",
  "change_for": null
}