{
  "id": 273373,
  "name": "Onyx",
  "slug": "onyx--2",
  "year": null,
  "banner_url": "",
  "icon_url": "",
  "coverart": "https://lutris.net/media/igdb/cover_big/co7qgw.jpg",
  "platforms": [],
  "provider_games": [
    {
      "name": "Onyx",
      "slug": "onyx--2",
      "service": "igdb"
    }
  ],
  "aliases": [],
  "shaders": [],
  "discord_id": "",
  "change_for": null
}