{
  "id": 137737,
  "name": "Fear Corporation",
  "slug": "fear-corporation",
  "year": null,
  "banner_url": "",
  "icon_url": "",
  "coverart": "https://lutris.net/media/igdb/cover_big/co3r16.jpg",
  "platforms": [],
  "provider_games": [
    {
      "name": "Fear Corporation",
      "slug": "fear-corporation",
      "service": "igdb"
    }
  ],
  "aliases": [],
  "shaders": [],
  "discord_id": "",
  "change_for": null
}