{
  "id": 75619,
  "name": "Smile Poker",
  "slug": "smile-poker",
  "year": null,
  "banner_url": "",
  "icon_url": "",
  "coverart": null,
  "platforms": [],
  "provider_games": [
    {
      "name": "Smile Poker",
      "slug": "smile-poker",
      "service": "igdb"
    }
  ],
  "aliases": [],
  "shaders": [],
  "discord_id": "",
  "change_for": null
}