{
  "id": 230999,
  "name": "Ningyou Genkai",
  "slug": "ningyou-genkai",
  "year": null,
  "banner_url": "",
  "icon_url": "",
  "coverart": "https://lutris.net/media/igdb/cover_big/co67di.jpg",
  "platforms": [],
  "provider_games": [
    {
      "name": "Ningyou Genkai",
      "slug": "ningyou-genkai",
      "service": "igdb"
    }
  ],
  "aliases": [],
  "shaders": [],
  "discord_id": "",
  "change_for": null
}