{
  "id": 82857,
  "name": "Best in Show Solitaire",
  "slug": "best-in-show-solitaire",
  "year": 2016,
  "banner_url": "https://lutris.net/games/banner/best-in-show-solitaire.jpg",
  "icon_url": "",
  "coverart": null,
  "platforms": [
    {
      "name": "Windows"
    }
  ],
  "provider_games": [
    {
      "name": "Best in Show Solitaire",
      "slug": "514780",
      "service": "steam"
    },
    {
      "name": "Best in Show Solitaire",
      "slug": "best-in-show-solitaire",
      "service": "igdb"
    }
  ],
  "aliases": [],
  "shaders": [],
  "discord_id": "",
  "change_for": null
}