{
  "id": 93726,
  "name": "Rainbow Unicorn Candy Salon",
  "slug": "rainbow-unicorn-candy-salon",
  "year": null,
  "banner_url": "",
  "icon_url": "",
  "coverart": null,
  "platforms": [],
  "provider_games": [
    {
      "name": "Rainbow Unicorn Candy Salon",
      "slug": "rainbow-unicorn-candy-salon",
      "service": "igdb"
    }
  ],
  "aliases": [],
  "shaders": [],
  "discord_id": "",
  "change_for": null
}