{
  "id": 225927,
  "name": "Space Spider",
  "slug": "space-spider",
  "year": null,
  "banner_url": "",
  "icon_url": "",
  "coverart": "https://lutris.net/media/igdb/cover_big/co4rdd.jpg",
  "platforms": [],
  "provider_games": [
    {
      "name": "Space Spider",
      "slug": "space-spider",
      "service": "igdb"
    }
  ],
  "aliases": [],
  "shaders": [],
  "discord_id": "",
  "change_for": null
}