{
  "id": 5892,
  "game_id": 4954,
  "game_slug": "super-win-the-game",
  "name": "Super Win the Game",
  "year": 2014,
  "user": "Hammering",
  "runner": "steam",
  "slug": "super-win-the-game-steam",
  "version": "Steam",
  "description": "",
  "notes": "",
  "credits": "",
  "created_at": "2017-10-03T23:24:35.191149Z",
  "updated_at": "2017-10-19T04:57:46.999259Z",
  "draft": false,
  "published": true,
  "published_by": null,
  "rating": "",
  "is_playable": null,
  "steamid": 310700,
  "gogid": null,
  "gogslug": "",
  "humbleid": "",
  "humblestoreid": "",
  "humblestoreid_real": "",
  "script": {
    "game": {
      "appid": 310700
    }
  },
  "content": "game:\n  appid: 310700\n",
  "discord_id": ""
}