{
  "id": 272563,
  "name": "Koikatsu! Sunshine HF Patch",
  "slug": "koikatsu-sunshine-hf-patch",
  "year": 2021,
  "banner_url": "",
  "icon_url": "",
  "coverart": null,
  "platforms": [
    {
      "name": "Windows"
    }
  ],
  "provider_games": [],
  "aliases": [],
  "shaders": [],
  "discord_id": "",
  "change_for": null
}