{
  "id": 193857,
  "name": "DangerousIsland",
  "slug": "dangerousisland",
  "year": null,
  "banner_url": "",
  "icon_url": "",
  "coverart": "https://lutris.net/media/igdb/cover_big/co4lpg.jpg",
  "platforms": [],
  "provider_games": [
    {
      "name": "DangerousIsland",
      "slug": "dangerousisland",
      "service": "igdb"
    }
  ],
  "aliases": [],
  "shaders": [],
  "discord_id": "",
  "change_for": null
}