{
  "id": 7206,
  "game_id": 14274,
  "game_slug": "sweet-volley-high",
  "name": "Sweet Volley High",
  "year": 2016,
  "user": "t-rex91",
  "runner": "steam",
  "slug": "sweet-volley-high-steam",
  "version": "Steam",
  "description": null,
  "notes": "",
  "credits": "",
  "created_at": "2018-01-30T20:59:04.805876Z",
  "updated_at": "2018-01-30T22:29:19.027895Z",
  "draft": false,
  "published": true,
  "published_by": null,
  "rating": "",
  "is_playable": null,
  "steamid": 523730,
  "gogid": null,
  "gogslug": "",
  "humbleid": "",
  "humblestoreid": "",
  "humblestoreid_real": "",
  "script": {
    "game": {
      "appid": 523730
    }
  },
  "content": "game:\n  appid: 523730\n",
  "discord_id": ""
}