{
  "id": 24798,
  "name": "Cavern Crumblers",
  "slug": "cavern-crumblers",
  "year": 2017,
  "banner_url": "https://lutris.net/games/banner/cavern-crumblers.jpg",
  "icon_url": "https://lutris.net/games/icon/cavern-crumblers.png",
  "coverart": "https://lutris.net/media/igdb/cover_big/co2ah4.jpg",
  "platforms": [
    {
      "name": "Linux"
    },
    {
      "name": "Mac"
    },
    {
      "name": "Windows"
    }
  ],
  "provider_games": [
    {
      "name": "Cavern Crumblers",
      "slug": "653870",
      "service": "steam"
    },
    {
      "name": "Cavern Crumblers",
      "slug": "cavern-crumblers",
      "service": "igdb"
    }
  ],
  "aliases": [],
  "shaders": [],
  "discord_id": "",
  "change_for": null
}