{
  "id": 193702,
  "name": "Jack & Detective",
  "slug": "jack-and-detective",
  "year": null,
  "banner_url": "",
  "icon_url": "",
  "coverart": "https://lutris.net/media/igdb/cover_big/co4nr4.jpg",
  "platforms": [],
  "provider_games": [
    {
      "name": "Jack & Detective",
      "slug": "jack-and-detective",
      "service": "igdb"
    }
  ],
  "aliases": [],
  "shaders": [],
  "discord_id": "",
  "change_for": null
}