{
  "id": 122834,
  "name": "Plunker",
  "slug": "plunker",
  "year": null,
  "banner_url": "",
  "icon_url": "",
  "coverart": "https://lutris.net/media/igdb/cover_big/co2qz7.jpg",
  "platforms": [],
  "provider_games": [
    {
      "name": "Plunker",
      "slug": "plunker",
      "service": "igdb"
    }
  ],
  "aliases": [],
  "shaders": [],
  "discord_id": "",
  "change_for": null
}