{
  "id": 30550,
  "name": "Hidden Object: Home Makeover",
  "slug": "hidden-object-home-makeover",
  "year": null,
  "banner_url": "https://lutris.net/games/banner/hidden-object-home-makeover.jpg",
  "icon_url": "https://lutris.net/games/icon/hidden-object-home-makeover.png",
  "coverart": "https://lutris.net/media/igdb/cover_big/kgzuf6rnzlay5gr04wml.jpg",
  "platforms": [],
  "provider_games": [
    {
      "name": "Hidden Object: Home Makeover",
      "slug": "971090",
      "service": "steam"
    },
    {
      "name": "Hidden Object - Home Makeover",
      "slug": "hidden-object-home-makeover",
      "service": "igdb"
    }
  ],
  "aliases": [],
  "shaders": [],
  "discord_id": "",
  "change_for": null
}