{
  "id": 14352,
  "name": "ZeGame",
  "slug": "zegame",
  "year": 2016,
  "banner_url": "https://lutris.net/games/banner/zegame.jpg",
  "icon_url": "https://lutris.net/games/icon/zegame.png",
  "coverart": "https://lutris.net/media/igdb/cover_big/co2rxp.jpg",
  "platforms": [
    {
      "name": "Android"
    },
    {
      "name": "Linux"
    },
    {
      "name": "Mac"
    },
    {
      "name": "Windows"
    }
  ],
  "provider_games": [
    {
      "name": "ZeGame",
      "slug": "437520",
      "service": "steam"
    },
    {
      "name": "ZeGame",
      "slug": "zegame",
      "service": "igdb"
    }
  ],
  "aliases": [],
  "shaders": [],
  "discord_id": "",
  "change_for": null
}