{
  "id": 209612,
  "name": "Chuzzle: Christmas Edition",
  "slug": "chuzzle-christmas-edition",
  "year": 2008,
  "banner_url": "",
  "icon_url": "",
  "coverart": "https://lutris.net/media/igdb/cover_big/co5vpz.jpg",
  "platforms": [
    {
      "name": "Windows"
    }
  ],
  "provider_games": [
    {
      "name": "Chuzzle: Christmas Edition",
      "slug": "chuzzle-christmas-edition",
      "service": "igdb"
    }
  ],
  "aliases": [],
  "shaders": [],
  "discord_id": "",
  "change_for": null
}