{
  "id": 265088,
  "name": "Car Parking Real Driving Sim",
  "slug": "car-parking-real-driving-sim",
  "year": null,
  "banner_url": "",
  "icon_url": "",
  "coverart": "https://lutris.net/media/igdb/cover_big/co7bd3.jpg",
  "platforms": [],
  "provider_games": [
    {
      "name": "Car Parking Real Driving Sim",
      "slug": "car-parking-real-driving-sim",
      "service": "igdb"
    }
  ],
  "aliases": [],
  "shaders": [],
  "discord_id": "",
  "change_for": null
}