{
  "id": 60633,
  "name": "Double S.T.E.A.L. The Second Clash",
  "slug": "double-steal-the-second-clash",
  "year": null,
  "banner_url": "",
  "icon_url": "",
  "coverart": "https://lutris.net/media/igdb/cover_big/o0np3cvoc2hjlgo87w4w.jpg",
  "platforms": [],
  "provider_games": [
    {
      "name": "Double S.T.E.A.L. The Second Clash",
      "slug": "double-steal-the-second-clash",
      "service": "igdb"
    }
  ],
  "aliases": [],
  "shaders": [],
  "discord_id": "",
  "change_for": null
}