{
  "id": 12167,
  "name": "Hidden Mysteries: Titanic",
  "slug": "hidden-mysteries-titanic",
  "year": 2016,
  "banner_url": "https://lutris.net/games/banner/hidden-mysteries-titanic.jpg",
  "icon_url": "https://lutris.net/games/icon/hidden-mysteries-titanic.png",
  "coverart": "https://lutris.net/media/igdb/cover_big/co2dd9.jpg",
  "platforms": [
    {
      "name": "Windows"
    }
  ],
  "provider_games": [
    {
      "name": "Hidden Mysteries: Titanic",
      "slug": "369280",
      "service": "steam"
    },
    {
      "name": "Hidden Mysteries: Titanic",
      "slug": "hidden-mysteries-titanic",
      "service": "igdb"
    },
    {
      "name": "Hidden Mysteries: Titanic",
      "slug": "2042791644",
      "service": "gog"
    }
  ],
  "aliases": [],
  "shaders": [],
  "discord_id": "",
  "change_for": null
}