{
  "id": 156053,
  "name": "Rhythm Jungle",
  "slug": "rhythm-jungle",
  "year": 2018,
  "banner_url": "",
  "icon_url": "",
  "coverart": null,
  "platforms": [],
  "provider_games": [
    {
      "name": "Rhythm Jungle",
      "slug": "rhythm-jungle",
      "service": "igdb"
    }
  ],
  "aliases": [],
  "shaders": [],
  "discord_id": "",
  "change_for": null
}