{
  "id": 24161,
  "name": "Close Combat: Last Stand Arnhem",
  "slug": "close-combat-last-stand-arnhem",
  "year": 2011,
  "banner_url": "https://lutris.net/games/banner/close-combat-last-stand-arnhem.jpg",
  "icon_url": "",
  "coverart": "https://lutris.net/media/igdb/cover_big/co2prm.jpg",
  "platforms": [
    {
      "name": "Windows"
    }
  ],
  "provider_games": [
    {
      "name": "Close Combat: Last Stand Arnhem",
      "slug": "1516759579",
      "service": "gog"
    },
    {
      "name": "Close Combat: Last Stand Arnhem",
      "slug": "936530",
      "service": "steam"
    },
    {
      "name": "Close Combat: Last Stand Arnhem",
      "slug": "close-combat-last-stand-arnhem",
      "service": "igdb"
    }
  ],
  "aliases": [],
  "shaders": [],
  "discord_id": "",
  "change_for": null
}