{
  "id": 261867,
  "name": "Spell Slingin' Tower Defense",
  "slug": "spell-slingin-tower-defense",
  "year": null,
  "banner_url": "",
  "icon_url": "",
  "coverart": "https://lutris.net/media/igdb/cover_big/co76mf.jpg",
  "platforms": [],
  "provider_games": [
    {
      "name": "Spell Slingin' Tower Defense",
      "slug": "spell-slingin-tower-defense",
      "service": "igdb"
    }
  ],
  "aliases": [],
  "shaders": [],
  "discord_id": "",
  "change_for": null
}