{
  "id": 95286,
  "name": "Mexican Train Dominoes 2",
  "slug": "mexican-train-dominoes-2",
  "year": 2017,
  "banner_url": "",
  "icon_url": "",
  "coverart": "https://lutris.net/media/igdb/cover_big/co1i7f.jpg",
  "platforms": [
    {
      "name": "Legacy Cellphone"
    }
  ],
  "provider_games": [
    {
      "name": "Mexican Train Dominoes 2",
      "slug": "mexican-train-dominoes-2",
      "service": "igdb"
    }
  ],
  "aliases": [],
  "shaders": [],
  "discord_id": "",
  "change_for": null
}