{
  "id": 127900,
  "name": "Life is Strange 2: Episode 4 - Faith",
  "slug": "life-is-strange-2-episode-4-faith",
  "year": 2019,
  "banner_url": "",
  "icon_url": "",
  "coverart": "https://lutris.net/media/igdb/cover_big/co3go5.jpg",
  "platforms": [
    {
      "name": "Linux"
    },
    {
      "name": "Mac"
    },
    {
      "name": "Sony Playstation 4"
    },
    {
      "name": "Windows"
    },
    {
      "name": "Xbox One"
    }
  ],
  "provider_games": [
    {
      "name": "Life is Strange 2: Episode 4 - Faith",
      "slug": "life-is-strange-2-episode-4-faith",
      "service": "igdb"
    }
  ],
  "aliases": [],
  "shaders": [],
  "discord_id": "",
  "change_for": null
}