{
  "id": 265012,
  "name": "Alien Slayer",
  "slug": "alien-slayer",
  "year": null,
  "banner_url": "",
  "icon_url": "",
  "coverart": "https://lutris.net/media/igdb/cover_big/co7bhm.jpg",
  "platforms": [],
  "provider_games": [
    {
      "name": "Alien Slayer",
      "slug": "alien-slayer",
      "service": "igdb"
    }
  ],
  "aliases": [],
  "shaders": [],
  "discord_id": "",
  "change_for": null
}