{
  "id": 31447,
  "name": "A Divided Light",
  "slug": "a-divided-light",
  "year": null,
  "banner_url": "https://lutris.net/games/banner/a-divided-light.jpg",
  "icon_url": "https://lutris.net/games/icon/a-divided-light.png",
  "coverart": null,
  "platforms": [],
  "provider_games": [
    {
      "name": "A Divided Light",
      "slug": "a-divided-light",
      "service": "igdb"
    }
  ],
  "aliases": [],
  "shaders": [],
  "discord_id": "",
  "change_for": null
}