{
  "id": 227586,
  "name": "My Giant Friend",
  "slug": "my-giant-friend",
  "year": null,
  "banner_url": "",
  "icon_url": "",
  "coverart": "https://lutris.net/media/igdb/cover_big/co5fp8.jpg",
  "platforms": [],
  "provider_games": [
    {
      "name": "My Giant Friend",
      "slug": "my-giant-friend",
      "service": "igdb"
    }
  ],
  "aliases": [],
  "shaders": [],
  "discord_id": "",
  "change_for": null
}