{
  "id": 40085,
  "name": "Virtual Cottage",
  "slug": "virtual-cottage",
  "year": 2020,
  "banner_url": "https://lutris.net/games/banner/virtual-cottage.jpg",
  "icon_url": "",
  "coverart": "https://lutris.net/media/igdb/cover_big/co2v7o.jpg",
  "platforms": [
    {
      "name": "Linux"
    },
    {
      "name": "Windows"
    }
  ],
  "provider_games": [
    {
      "name": "Virtual Cottage",
      "slug": "1369320",
      "service": "steam"
    },
    {
      "name": "Virtual Cottage",
      "slug": "virtual-cottage",
      "service": "igdb"
    }
  ],
  "aliases": [],
  "shaders": [],
  "discord_id": "",
  "change_for": null
}