{
  "id": 90732,
  "name": "Safety for Kid - Getting Lost",
  "slug": "safety-for-kid-getting-lost",
  "year": null,
  "banner_url": "",
  "icon_url": "",
  "coverart": null,
  "platforms": [],
  "provider_games": [
    {
      "name": "Safety for Kid - Getting Lost",
      "slug": "safety-for-kid-getting-lost",
      "service": "igdb"
    }
  ],
  "aliases": [],
  "shaders": [],
  "discord_id": "",
  "change_for": null
}