{
  "id": 96336,
  "name": "Cut the Rope 2: Om Nom's Quest",
  "slug": "cut-the-rope-2-om-noms-quest",
  "year": null,
  "banner_url": "",
  "icon_url": "",
  "coverart": null,
  "platforms": [],
  "provider_games": [
    {
      "name": "Cut the Rope 2: Om Nom's Quest",
      "slug": "cut-the-rope-2-om-noms-quest",
      "service": "igdb"
    }
  ],
  "aliases": [],
  "shaders": [],
  "discord_id": "",
  "change_for": null
}