{
  "id": 235334,
  "name": "Angry Birds Double Crossed",
  "slug": "angry-birds-double-crossed",
  "year": null,
  "banner_url": "",
  "icon_url": "",
  "coverart": "https://lutris.net/media/igdb/cover_big/co67ws.jpg",
  "platforms": [],
  "provider_games": [
    {
      "name": "Angry Birds Double Crossed",
      "slug": "angry-birds-double-crossed",
      "service": "igdb"
    }
  ],
  "aliases": [],
  "shaders": [],
  "discord_id": "",
  "change_for": null
}