{
  "id": 144324,
  "name": "The King of Route 66",
  "slug": "the-king-of-route-66",
  "year": 2003,
  "banner_url": "",
  "icon_url": "",
  "coverart": "https://lutris.net/media/igdb/cover_big/gdeiahhvscfc4qqynlxz.jpg",
  "platforms": [
    {
      "name": "Sony PlayStation 2"
    }
  ],
  "provider_games": [
    {
      "name": "The King of Route 66",
      "slug": "the-king-of-route-66",
      "service": "igdb"
    }
  ],
  "aliases": [],
  "shaders": [],
  "discord_id": "",
  "change_for": null
}