{
  "id": 10200,
  "name": "Genital Jousting",
  "slug": "genital-jousting",
  "year": 2018,
  "banner_url": "https://lutris.net/games/banner/genital-jousting.jpg",
  "icon_url": "https://lutris.net/games/icon/genital-jousting.png",
  "coverart": "https://lutris.net/media/igdb/cover_big/co418c.jpg",
  "platforms": [
    {
      "name": "Mac"
    },
    {
      "name": "Windows"
    }
  ],
  "provider_games": [
    {
      "name": "Genital Jousting",
      "slug": "469820",
      "service": "steam"
    },
    {
      "name": "Genital Jousting",
      "slug": "genital-jousting",
      "service": "igdb"
    }
  ],
  "aliases": [],
  "shaders": [],
  "discord_id": "443156066562473993",
  "change_for": null
}