{
  "id": 52844,
  "name": "Sev Zero",
  "slug": "sev-zero",
  "year": 2014,
  "banner_url": "",
  "icon_url": "",
  "coverart": "https://lutris.net/media/igdb/cover_big/npftm0mvpncuvmjqepvm.jpg",
  "platforms": [
    {
      "name": "Amazon Fire TV"
    }
  ],
  "provider_games": [
    {
      "name": "Sev Zero",
      "slug": "sev-zero",
      "service": "igdb"
    }
  ],
  "aliases": [],
  "shaders": [],
  "discord_id": "",
  "change_for": null
}