{
  "id": 151857,
  "name": "Shine's Adventures 4 (Nightmare)",
  "slug": "shines-adventures-4-nightmare",
  "year": 2020,
  "banner_url": "",
  "icon_url": "",
  "coverart": "https://lutris.net/media/igdb/cover_big/co2lzr.jpg",
  "platforms": [
    {
      "name": "Windows"
    }
  ],
  "provider_games": [
    {
      "name": "Shine's Adventures 4 (Nightmare)",
      "slug": "shines-adventures-4-nightmare",
      "service": "igdb"
    }
  ],
  "aliases": [],
  "shaders": [],
  "discord_id": "",
  "change_for": null
}