{
  "id": 56809,
  "name": "Othello World II: Yume to Michi e no Chousen",
  "slug": "othello-world-ii-yume-to-michi-e-no-chousen",
  "year": null,
  "banner_url": "",
  "icon_url": "",
  "coverart": "https://lutris.net/media/igdb/cover_big/aw49fxhqeqkmnwxtmwnj.jpg",
  "platforms": [],
  "provider_games": [
    {
      "name": "Othello World II: Yume to Michi e no Chousen",
      "slug": "othello-world-ii-yume-to-michi-e-no-chousen",
      "service": "igdb"
    }
  ],
  "aliases": [],
  "shaders": [],
  "discord_id": "",
  "change_for": null
}