{
  "id": 109394,
  "name": "Darker",
  "slug": "darker",
  "year": 1995,
  "banner_url": "",
  "icon_url": "",
  "coverart": "https://lutris.net/media/igdb/cover_big/co2y52.jpg",
  "platforms": [],
  "provider_games": [
    {
      "name": "Darker",
      "slug": "darker",
      "service": "igdb"
    }
  ],
  "aliases": [],
  "shaders": [],
  "discord_id": "",
  "change_for": null
}