{
  "id": 202428,
  "name": "Letter Bender",
  "slug": "letter-bender",
  "year": null,
  "banner_url": "",
  "icon_url": "",
  "coverart": "https://lutris.net/media/igdb/cover_big/co4lho.jpg",
  "platforms": [],
  "provider_games": [
    {
      "name": "Letter Bender",
      "slug": "letter-bender",
      "service": "igdb"
    }
  ],
  "aliases": [],
  "shaders": [],
  "discord_id": "",
  "change_for": null
}