{
  "id": 277992,
  "name": "Faded",
  "slug": "faded",
  "year": null,
  "banner_url": "",
  "icon_url": "",
  "coverart": "https://lutris.net/media/igdb/cover_big/co7vjh.jpg",
  "platforms": [],
  "provider_games": [
    {
      "name": "Faded",
      "slug": "faded",
      "service": "igdb"
    }
  ],
  "aliases": [],
  "shaders": [],
  "discord_id": "",
  "change_for": null
}