{
  "id": 88447,
  "name": "Dominos Pro",
  "slug": "dominos-pro--1",
  "year": 2013,
  "banner_url": "",
  "icon_url": "",
  "coverart": "https://lutris.net/media/igdb/cover_big/jrwf97otrzwquh7wo7xn.jpg",
  "platforms": [],
  "provider_games": [
    {
      "name": "Dominos Pro",
      "slug": "dominos-pro--1",
      "service": "igdb"
    }
  ],
  "aliases": [],
  "shaders": [],
  "discord_id": "",
  "change_for": null
}