{
  "id": 183334,
  "name": "Emotions: A Day In A Life",
  "slug": "emotions-a-day-in-a-life",
  "year": null,
  "banner_url": "",
  "icon_url": "",
  "coverart": null,
  "platforms": [],
  "provider_games": [
    {
      "name": "Emotions: A Day In A Life",
      "slug": "emotions-a-day-in-a-life",
      "service": "igdb"
    }
  ],
  "aliases": [],
  "shaders": [],
  "discord_id": "",
  "change_for": null
}