{
  "id": 144494,
  "name": "Your Shape Fitness Evolved 2013",
  "slug": "your-shape-fitness-evolved-2013",
  "year": 2012,
  "banner_url": "",
  "icon_url": "",
  "coverart": "https://lutris.net/media/igdb/cover_big/pdm8zrgpeae5g3b2wdvs.jpg",
  "platforms": [
    {
      "name": "Nintendo Wii U"
    }
  ],
  "provider_games": [
    {
      "name": "Your Shape Fitness Evolved 2013",
      "slug": "your-shape-fitness-evolved-2013",
      "service": "igdb"
    }
  ],
  "aliases": [],
  "shaders": [],
  "discord_id": "",
  "change_for": null
}