{
  "id": 250733,
  "name": "Adult Puzzles - Pole Dancer",
  "slug": "adult-puzzles-pole-dancer",
  "year": null,
  "banner_url": "https://lutris.net/games/banner/adult-puzzles-pole-dancer.jpg",
  "icon_url": "https://lutris.net/games/icon/adult-puzzles-pole-dancer.png",
  "coverart": "https://lutris.net/media/igdb/cover_big/co7r1c.jpg",
  "platforms": [],
  "provider_games": [
    {
      "name": "Adult Puzzles - Pole Dancer",
      "slug": "1796590",
      "service": "steam"
    },
    {
      "name": "Adult Puzzles: Pole Dancer",
      "slug": "adult-puzzles-pole-dancer",
      "service": "igdb"
    }
  ],
  "aliases": [],
  "shaders": [],
  "discord_id": "",
  "change_for": null
}