{
  "id": 87478,
  "name": "Amiga Encounter",
  "slug": "amiga-encounter",
  "year": 1991,
  "banner_url": "",
  "icon_url": "",
  "coverart": "https://lutris.net/media/igdb/cover_big/nqmdfyy84kdtkuqigddd.jpg",
  "platforms": [
    {
      "name": "Amiga"
    }
  ],
  "provider_games": [
    {
      "name": "Amiga Encounter",
      "slug": "amiga-encounter",
      "service": "igdb"
    }
  ],
  "aliases": [],
  "shaders": [],
  "discord_id": "",
  "change_for": null
}