{
  "id": 223756,
  "name": "Dawntide",
  "slug": "dawntide--1",
  "year": null,
  "banner_url": "",
  "icon_url": "",
  "coverart": "https://lutris.net/media/igdb/cover_big/co4vhz.jpg",
  "platforms": [],
  "provider_games": [
    {
      "name": "Dawntide",
      "slug": "dawntide--1",
      "service": "igdb"
    }
  ],
  "aliases": [],
  "shaders": [],
  "discord_id": "",
  "change_for": null
}