{
  "id": 65086,
  "name": "RON 13:13 Retaliation",
  "slug": "ron-13-13-retaliation",
  "year": null,
  "banner_url": "",
  "icon_url": "",
  "coverart": null,
  "platforms": [],
  "provider_games": [
    {
      "name": "RON 13:13 Retaliation",
      "slug": "ron-13-13-retaliation",
      "service": "igdb"
    }
  ],
  "aliases": [],
  "shaders": [],
  "discord_id": "",
  "change_for": null
}