{
  "id": 16034,
  "name": "Witly - your language teacher in VR",
  "slug": "witly-your-language-teacher-in-vr",
  "year": null,
  "banner_url": "https://lutris.net/games/banner/witly-your-language-teacher-in-vr.jpg",
  "icon_url": "https://lutris.net/games/icon/witly-your-language-teacher-in-vr.png",
  "coverart": null,
  "platforms": [],
  "provider_games": [
    {
      "name": "Witly - your language teacher in VR",
      "slug": "566130",
      "service": "steam"
    }
  ],
  "aliases": [],
  "shaders": [],
  "discord_id": "",
  "change_for": null
}