{
  "id": 119277,
  "name": "PAGUI",
  "slug": "pagui",
  "year": null,
  "banner_url": "https://lutris.net/games/banner/pagui.jpg",
  "icon_url": "",
  "coverart": "https://lutris.net/media/igdb/cover_big/co25gf.jpg",
  "platforms": [],
  "provider_games": [
    {
      "name": "PAGUI",
      "slug": "986680",
      "service": "steam"
    },
    {
      "name": "Pagui",
      "slug": "pagui",
      "service": "igdb"
    }
  ],
  "aliases": [],
  "shaders": [],
  "discord_id": "",
  "change_for": null
}