{
  "id": 21018,
  "game_id": 11639,
  "game_slug": "return-to-zork",
  "name": "Return to Zork",
  "year": 1993,
  "user": "appoloin",
  "runner": "scummvm",
  "slug": "return-to-zork-cdrom",
  "version": "CDrom",
  "description": null,
  "notes": "",
  "credits": "",
  "created_at": "2020-05-30T11:17:58.031000Z",
  "updated_at": "2021-01-10T08:44:48.556795Z",
  "draft": false,
  "published": true,
  "published_by": 1,
  "rating": "",
  "is_playable": null,
  "steamid": 585240,
  "gogid": 1207658907,
  "gogslug": "return_to_zork",
  "humbleid": "",
  "humblestoreid": "",
  "humblestoreid_real": "",
  "script": {
    "files": [
      {
        "game": "N/A:Select the file RTZCD.PRJ"
      }
    ],
    "game": {
      "game_id": "made",
      "path": "$GAMEDIR"
    },
    "installer": [
      {
        "write_file": {
          "content": "#!/bin/bash\nsrc=$1\ndst=$2\nsrc_path=$(echo \"$1\" | sed -r \"s/(.+)\\/.+/\\1/\")\ncp -avr \"$src_path/.\"  \"$dst\"",
          "file": "$CACHE/bulkcopy.sh"
        }
      },
      {
        "chmodx": "$CACHE/bulkcopy.sh"
      },
      {
        "execute": {
          "args": "$game $GAMEDIR",
          "file": "$CACHE/bulkcopy.sh"
        }
      },
      {
        "execute": {
          "args": "-R 775  \"$GAMEDIR\"",
          "file": "/bin/chmod"
        }
      }
    ],
    "scummvm": {
      "fullscreen": true
    }
  },
  "content": "files:\n- game: N/A:Select the file RTZCD.PRJ\ngame:\n  game_id: made\n  path: $GAMEDIR\ninstaller:\n- write_file:\n    content: '#!/bin/bash\n\n      src=$1\n\n      dst=$2\n\n      src_path=$(echo \"$1\" | sed -r \"s/(.+)\\/.+/\\1/\")\n\n      cp -avr \"$src_path/.\"  \"$dst\"'\n    file: $CACHE/bulkcopy.sh\n- chmodx: $CACHE/bulkcopy.sh\n- execute:\n    args: $game $GAMEDIR\n    file: $CACHE/bulkcopy.sh\n- execute:\n    args: -R 775  \"$GAMEDIR\"\n    file: /bin/chmod\nscummvm:\n  fullscreen: true\n",
  "discord_id": ""
}