{
  "id": 36749,
  "name": "product_title_1623867313",
  "slug": "product_title_1623867313",
  "year": null,
  "banner_url": "",
  "icon_url": "",
  "coverart": null,
  "platforms": [],
  "provider_games": [
    {
      "name": "Cris Tales",
      "slug": "1623867313",
      "service": "gog"
    }
  ],
  "aliases": [],
  "shaders": [],
  "discord_id": "",
  "change_for": null
}