{
  "id": 8778,
  "name": "Fairy Tale Mysteries: The Puppet Thief",
  "slug": "fairy-tale-mysteries-the-puppet-thief",
  "year": 2016,
  "banner_url": "https://lutris.net/games/banner/fairy-tale-mysteries-the-puppet-thief.jpg",
  "icon_url": "https://lutris.net/games/icon/fairy-tale-mysteries-the-puppet-thief.png",
  "coverart": "https://lutris.net/media/igdb/cover_big/co21od.jpg",
  "platforms": [
    {
      "name": "Linux"
    },
    {
      "name": "Mac"
    },
    {
      "name": "Windows"
    }
  ],
  "provider_games": [
    {
      "name": "Fairy Tale Mysteries: The Puppet Thief",
      "slug": "429600",
      "service": "steam"
    },
    {
      "name": "Fairy Tale Mysteries: The Puppet Thief",
      "slug": "fairy-tale-mysteries-the-puppet-thief",
      "service": "igdb"
    }
  ],
  "aliases": [],
  "shaders": [],
  "discord_id": "",
  "change_for": null
}