{
  "id": 226477,
  "name": "A Bavarian Tale: Totgeschwiegen",
  "slug": "a-bavarian-tale-totgeschwiegen",
  "year": 2021,
  "banner_url": "https://lutris.net/games/banner/a-bavarian-tale-totgeschwiegen.jpg",
  "icon_url": "",
  "coverart": null,
  "platforms": [
    {
      "name": "Windows"
    }
  ],
  "provider_games": [
    {
      "name": "Inspector Schmidt - A Bavarian Tale",
      "slug": "1694560",
      "service": "steam"
    },
    {
      "name": "A Bavarian Tale: Totgeschwiegen",
      "slug": "a-bavarian-tale-totgeschwiegen",
      "service": "igdb"
    }
  ],
  "aliases": [],
  "shaders": [],
  "discord_id": "",
  "change_for": null
}