{
  "id": 184918,
  "name": "My granny Lala and me",
  "slug": "my-granny-lala-and-me",
  "year": null,
  "banner_url": "",
  "icon_url": "",
  "coverart": null,
  "platforms": [],
  "provider_games": [
    {
      "name": "My granny Lala and me",
      "slug": "my-granny-lala-and-me",
      "service": "igdb"
    }
  ],
  "aliases": [],
  "shaders": [],
  "discord_id": "",
  "change_for": null
}