{
  "id": 109188,
  "name": "O'Leary Manager 2000",
  "slug": "oleary-manager-2000",
  "year": 2000,
  "banner_url": "",
  "icon_url": "",
  "coverart": "https://lutris.net/media/igdb/cover_big/p26lapqrmna33r2qkz5p.jpg",
  "platforms": [
    {
      "name": "Nintendo Game Boy Color"
    }
  ],
  "provider_games": [
    {
      "name": "O'Leary Manager 2000",
      "slug": "oleary-manager-2000",
      "service": "igdb"
    }
  ],
  "aliases": [],
  "shaders": [],
  "discord_id": "",
  "change_for": null
}