{
  "id": 58770,
  "name": "Disney's Buzz Lightyear 2nd Grade",
  "slug": "disneys-buzz-lightyear-2nd-grade",
  "year": 2000,
  "banner_url": "",
  "icon_url": "",
  "coverart": "https://lutris.net/media/igdb/cover_big/jpkabxcllluv2sk0iwlk.jpg",
  "platforms": [
    {
      "name": "Mac"
    },
    {
      "name": "Windows"
    }
  ],
  "provider_games": [
    {
      "name": "Disney's Buzz Lightyear 2nd Grade",
      "slug": "disneys-buzz-lightyear-2nd-grade",
      "service": "igdb"
    }
  ],
  "aliases": [],
  "shaders": [],
  "discord_id": "",
  "change_for": null
}