{
  "id": 204983,
  "name": "SOL DIVIDE -SWORD OF DARKNESS-",
  "slug": "sol-divide-sword-of-darkness-",
  "year": null,
  "banner_url": "https://lutris.net/games/banner/sol-divide-sword-of-darkness-.jpg",
  "icon_url": "https://lutris.net/games/icon/sol-divide-sword-of-darkness-.png",
  "coverart": null,
  "platforms": [],
  "provider_games": [
    {
      "name": "SOL DIVIDE -SWORD OF DARKNESS-",
      "slug": "1279450",
      "service": "steam"
    }
  ],
  "aliases": [],
  "shaders": [],
  "discord_id": "",
  "change_for": null
}