{
  "id": 202023,
  "name": "I Am Butter",
  "slug": "i-am-butter",
  "year": null,
  "banner_url": "",
  "icon_url": "",
  "coverart": "https://lutris.net/media/igdb/cover_big/co4inv.jpg",
  "platforms": [],
  "provider_games": [
    {
      "name": "I Am Butter",
      "slug": "i-am-butter",
      "service": "igdb"
    }
  ],
  "aliases": [],
  "shaders": [],
  "discord_id": "",
  "change_for": null
}