{
  "id": 79933,
  "name": "Windwalkers",
  "slug": "windwalkers",
  "year": null,
  "banner_url": "",
  "icon_url": "",
  "coverart": "https://lutris.net/media/igdb/cover_big/jaa0pybjmrwe3wvy9vlg.jpg",
  "platforms": [],
  "provider_games": [
    {
      "name": "Windwalkers",
      "slug": "windwalkers",
      "service": "igdb"
    }
  ],
  "aliases": [],
  "shaders": [],
  "discord_id": "",
  "change_for": null
}