{
  "id": 51536,
  "name": "Creatures Playground",
  "slug": "creatures-playground",
  "year": null,
  "banner_url": "",
  "icon_url": "",
  "coverart": "https://lutris.net/media/igdb/cover_big/co7orm.jpg",
  "platforms": [],
  "provider_games": [
    {
      "name": "Creatures Playground",
      "slug": "creatures-playground",
      "service": "igdb"
    }
  ],
  "aliases": [],
  "shaders": [],
  "discord_id": "",
  "change_for": null
}