{
  "id": 280541,
  "name": "Out Racing: Arcade Memory",
  "slug": "out-racing-arcade-memory",
  "year": 2024,
  "banner_url": "",
  "icon_url": "",
  "coverart": "https://lutris.net/media/igdb/cover_big/co80el.jpg",
  "platforms": [
    {
      "name": "Nintendo Switch"
    }
  ],
  "provider_games": [
    {
      "name": "Out Racing: Arcade Memory",
      "slug": "out-racing-arcade-memory",
      "service": "igdb"
    }
  ],
  "aliases": [],
  "shaders": [],
  "discord_id": "",
  "change_for": null
}