{
  "id": 37448,
  "game_id": 11693,
  "game_slug": "cultures",
  "name": "Cultures",
  "year": 2001,
  "user": "KakiDev",
  "runner": "wine",
  "slug": "cultures-gog",
  "version": "Gog",
  "description": "",
  "notes": "",
  "credits": "",
  "created_at": "2023-05-11T21:57:41.709844Z",
  "updated_at": "2024-01-24T06:38:21.357116Z",
  "draft": false,
  "published": true,
  "published_by": 1,
  "rating": "",
  "is_playable": null,
  "steamid": null,
  "gogid": 1207663793,
  "gogslug": "cultures_12",
  "humbleid": "",
  "humblestoreid": "",
  "humblestoreid_real": "",
  "script": {
    "files": [
      {
        "installer": "N/A:Select the GOG installer"
      }
    ],
    "game": {
      "exe": "$GAMEDIR/drive_c/game/Cultures.exe",
      "prefix": "$GAMEDIR",
      "working_dir": "$GAMEDIR/drive_c/game"
    },
    "installer": [
      {
        "task": {
          "args": "/SILENT /LANG=en /SP- /NOCANCEL /SUPPRESSMSGBOXES /NOGUI /DIR=\"C:/game\"",
          "executable": "installer",
          "name": "wineexec"
        }
      }
    ],
    "wine": {
      "overrides": {
        "libogg-0.dll": "n,b",
        "libvorbis-0.dll": "n,b",
        "libvorbisfile-3.dll": "n,b",
        "winmm.dll": "n,b"
      }
    }
  },
  "content": "files:\n- installer: N/A:Select the GOG installer\ngame:\n  exe: $GAMEDIR/drive_c/game/Cultures.exe\n  prefix: $GAMEDIR\n  working_dir: $GAMEDIR/drive_c/game\ninstaller:\n- task:\n    args: /SILENT /LANG=en /SP- /NOCANCEL /SUPPRESSMSGBOXES /NOGUI /DIR=\"C:/game\"\n    executable: installer\n    name: wineexec\nwine:\n  overrides:\n    libogg-0.dll: n,b\n    libvorbis-0.dll: n,b\n    libvorbisfile-3.dll: n,b\n    winmm.dll: n,b\n",
  "discord_id": ""
}