{
  "id": 239395,
  "name": "Fast & Furious Arcade",
  "slug": "fast-and-furious-arcade--1",
  "year": 2022,
  "banner_url": "",
  "icon_url": "",
  "coverart": "https://lutris.net/media/igdb/cover_big/co635u.jpg",
  "platforms": [
    {
      "name": "Arcade"
    }
  ],
  "provider_games": [
    {
      "name": "Fast & Furious Arcade",
      "slug": "fast-and-furious-arcade--1",
      "service": "igdb"
    }
  ],
  "aliases": [],
  "shaders": [],
  "discord_id": "",
  "change_for": null
}