{
  "id": 23588,
  "name": "Mad Tower Tycoon",
  "slug": "mad-tower-tycoon",
  "year": 2020,
  "banner_url": "https://lutris.net/games/banner/mad-tower-tycoon.jpg",
  "icon_url": "https://lutris.net/games/icon/mad-tower-tycoon.png",
  "coverart": "https://lutris.net/media/igdb/cover_big/co2nl6.jpg",
  "platforms": [
    {
      "name": "Nintendo Switch"
    },
    {
      "name": "Sony Playstation 4"
    },
    {
      "name": "Windows"
    },
    {
      "name": "Xbox One"
    }
  ],
  "provider_games": [
    {
      "name": "Mad Tower Tycoon",
      "slug": "910880",
      "service": "steam"
    },
    {
      "name": "Mad Tower Tycoon",
      "slug": "mad-tower-tycoon",
      "service": "igdb"
    }
  ],
  "aliases": [],
  "shaders": [],
  "discord_id": "",
  "change_for": null
}