{
  "id": 481,
  "name": "Puddle",
  "slug": "puddle",
  "year": 2012,
  "banner_url": "https://lutris.net/games/banner/puddle.jpg",
  "icon_url": "https://lutris.net/games/icon/puddle.png",
  "coverart": "https://lutris.net/media/igdb/cover_big/co31vx.jpg",
  "platforms": [
    {
      "name": "Android"
    },
    {
      "name": "Linux"
    },
    {
      "name": "Mac"
    },
    {
      "name": "Nintendo Wii U"
    },
    {
      "name": "Ouya"
    },
    {
      "name": "PlayStation Vita"
    },
    {
      "name": "Sony Playstation 3"
    },
    {
      "name": "Sony Playstation 4"
    },
    {
      "name": "Windows"
    },
    {
      "name": "Xbox 360"
    }
  ],
  "provider_games": [
    {
      "name": "Puddle",
      "slug": "1207659122",
      "service": "gog"
    },
    {
      "name": "Puddle",
      "slug": "222140",
      "service": "steam"
    },
    {
      "name": "Puddle",
      "slug": "puddle",
      "service": "igdb"
    }
  ],
  "aliases": [],
  "shaders": [],
  "discord_id": "",
  "change_for": null
}