{
  "id": 36804,
  "game_id": 32647,
  "game_slug": "daymare-1998",
  "name": "Daymare: 1998",
  "year": 2019,
  "user": "ugly",
  "runner": "wine",
  "slug": "daymare-1998-gog",
  "version": "GOG",
  "description": "",
  "notes": "Unplayable - Game crashes at main menu",
  "credits": "",
  "created_at": "2023-01-01T21:12:54.628000Z",
  "updated_at": "2023-06-13T01:34:13.820175Z",
  "draft": false,
  "published": true,
  "published_by": 1,
  "rating": "",
  "is_playable": null,
  "steamid": 842100,
  "gogid": 1544460195,
  "gogslug": "daymare_1998",
  "humbleid": "",
  "humblestoreid": "",
  "humblestoreid_real": "",
  "script": {
    "files": [
      {
        "goginstaller": "N/A:Select the game's setup file"
      }
    ],
    "game": {
      "arch": "win64",
      "exe": "drive_c/GOG Games/Daymare 1998/WindowsNoEditor/Daymare_MASTER.exe",
      "prefix": "$GAMEDIR"
    },
    "installer": [
      {
        "task": {
          "arch": "win64",
          "description": "Creating 64bit Wine prefix.",
          "name": "create_prefix",
          "prefix": "$GAMEDIR"
        }
      },
      {
        "task": {
          "arch": "win64",
          "description": "Setting Windows 10 mode for Wine",
          "key": "Version",
          "name": "set_regedit",
          "path": "HKEY_CURRENT_USER\\Software\\Wine",
          "prefix": "$GAMEDIR",
          "value": "win10"
        }
      },
      {
        "task": {
          "arch": "win64",
          "description": "Installing game",
          "executable": "goginstaller",
          "name": "wineexec",
          "prefix": "$GAMEDIR"
        }
      }
    ],
    "system": {
      "env": {
        "DXVK_HUD": 0,
        "DXVK_LOG_LEVEL": "none",
        "DXVK_STATE_CACHE": 1,
        "DXVK_STATE_CACHE_PATH": "$GAMEDIR",
        "__GL_SHADER_DISK_CACHE": 1,
        "__GL_SHADER_DISK_CACHE_PATH": "$GAMEDIR",
        "mesa_glthread": "true"
      }
    }
  },
  "content": "files:\n- goginstaller: N/A:Select the game's setup file\ngame:\n  arch: win64\n  exe: drive_c/GOG Games/Daymare 1998/WindowsNoEditor/Daymare_MASTER.exe\n  prefix: $GAMEDIR\ninstaller:\n- task:\n    arch: win64\n    description: Creating 64bit Wine prefix.\n    name: create_prefix\n    prefix: $GAMEDIR\n- task:\n    arch: win64\n    description: Setting Windows 10 mode for Wine\n    key: Version\n    name: set_regedit\n    path: HKEY_CURRENT_USER\\Software\\Wine\n    prefix: $GAMEDIR\n    value: win10\n- task:\n    arch: win64\n    description: Installing game\n    executable: goginstaller\n    name: wineexec\n    prefix: $GAMEDIR\nsystem:\n  env:\n    DXVK_HUD: 0\n    DXVK_LOG_LEVEL: none\n    DXVK_STATE_CACHE: 1\n    DXVK_STATE_CACHE_PATH: $GAMEDIR\n    __GL_SHADER_DISK_CACHE: 1\n    __GL_SHADER_DISK_CACHE_PATH: $GAMEDIR\n    mesa_glthread: 'true'\n",
  "discord_id": ""
}