{
  "id": 99,
  "name": "Day of Defeat",
  "slug": "day-of-defeat",
  "year": 2003,
  "banner_url": "https://lutris.net/games/banner/day-of-defeat.jpg",
  "icon_url": "https://lutris.net/games/icon/day-of-defeat.png",
  "coverart": "https://lutris.net/media/igdb/cover_big/co2o9j.jpg",
  "platforms": [
    {
      "name": "Linux"
    },
    {
      "name": "Mac"
    },
    {
      "name": "Windows"
    }
  ],
  "provider_games": [
    {
      "name": "Day of Defeat",
      "slug": "30",
      "service": "steam"
    },
    {
      "name": "Day of Defeat",
      "slug": "day-of-defeat",
      "service": "igdb"
    }
  ],
  "aliases": [],
  "shaders": [],
  "discord_id": "",
  "change_for": null
}