{
  "id": 270523,
  "name": "The Bet",
  "slug": "the-bet",
  "year": 2021,
  "banner_url": "",
  "icon_url": "",
  "coverart": null,
  "platforms": [
    {
      "name": "MSX2"
    }
  ],
  "provider_games": [
    {
      "name": "The Bet",
      "slug": "the-bet",
      "service": "igdb"
    }
  ],
  "aliases": [],
  "shaders": [],
  "discord_id": "",
  "change_for": null
}