{
  "id": 81397,
  "name": "MLB 2K10 DS",
  "slug": "mlb-2k10-ds",
  "year": null,
  "banner_url": "",
  "icon_url": "",
  "coverart": null,
  "platforms": [],
  "provider_games": [
    {
      "name": "MLB 2K10 DS",
      "slug": "mlb-2k10-ds",
      "service": "igdb"
    }
  ],
  "aliases": [],
  "shaders": [],
  "discord_id": "",
  "change_for": null
}