{
  "id": 290883,
  "name": "BirdLingo: A birdsong learning game",
  "slug": "birdlingo-a-birdsong-learning-game",
  "year": null,
  "banner_url": "",
  "icon_url": "",
  "coverart": "https://lutris.net/media/igdb/cover_big/co8llx.jpg",
  "platforms": [],
  "provider_games": [
    {
      "name": "BirdLingo: A birdsong learning game",
      "slug": "birdlingo-a-birdsong-learning-game",
      "service": "igdb"
    }
  ],
  "aliases": [],
  "shaders": [],
  "discord_id": "",
  "change_for": null
}