{
  "id": 174214,
  "name": "Kengo: Legend of the 9",
  "slug": "kengo-legend-of-the-9",
  "year": 2006,
  "banner_url": "",
  "icon_url": "",
  "coverart": "https://lutris.net/media/igdb/cover_big/m6mwpqdcuvjarlctzphs.jpg",
  "platforms": [
    {
      "name": "Xbox 360"
    }
  ],
  "provider_games": [
    {
      "name": "Kengo: Legend of the 9",
      "slug": "kengo-legend-of-the-9",
      "service": "igdb"
    }
  ],
  "aliases": [],
  "shaders": [],
  "discord_id": "",
  "change_for": null
}