{
  "id": 215450,
  "name": "Trip",
  "slug": "trip--2",
  "year": null,
  "banner_url": "",
  "icon_url": "",
  "coverart": "https://lutris.net/media/igdb/cover_big/co58yl.jpg",
  "platforms": [],
  "provider_games": [
    {
      "name": "Trip",
      "slug": "trip--2",
      "service": "igdb"
    }
  ],
  "aliases": [],
  "shaders": [],
  "discord_id": "",
  "change_for": null
}