{
  "id": 163015,
  "name": "Fighting Vipers 2",
  "slug": "fighting-vipers-2",
  "year": 1998,
  "banner_url": "",
  "icon_url": "",
  "coverart": "https://lutris.net/media/igdb/cover_big/co40hs.jpg",
  "platforms": [
    {
      "name": "Dreamcast"
    }
  ],
  "provider_games": [
    {
      "name": "Fighting Vipers 2",
      "slug": "fighting-vipers-2",
      "service": "igdb"
    }
  ],
  "aliases": [],
  "shaders": [],
  "discord_id": "",
  "change_for": null
}