{
  "id": 161641,
  "name": "Fugitive Criminal",
  "slug": "fugitive-criminal",
  "year": null,
  "banner_url": "",
  "icon_url": "",
  "coverart": "https://lutris.net/media/igdb/cover_big/co4001.jpg",
  "platforms": [],
  "provider_games": [
    {
      "name": "Fugitive Criminal",
      "slug": "fugitive-criminal",
      "service": "igdb"
    }
  ],
  "aliases": [],
  "shaders": [],
  "discord_id": "",
  "change_for": null
}