{
  "id": 293461,
  "name": "Fantasy Beauties - Premium Edition",
  "slug": "fantasy-beauties-premium-edition",
  "year": null,
  "banner_url": "",
  "icon_url": "",
  "coverart": "https://lutris.net/media/igdb/cover_big/co8kwy.jpg",
  "platforms": [],
  "provider_games": [
    {
      "name": "Fantasy Beauties - Premium Edition",
      "slug": "fantasy-beauties-premium-edition",
      "service": "igdb"
    }
  ],
  "aliases": [],
  "shaders": [],
  "discord_id": "",
  "change_for": null
}