{
  "id": 158358,
  "name": "Siegecraft Defender",
  "slug": "siegecraft-defender",
  "year": 2013,
  "banner_url": "",
  "icon_url": "",
  "coverart": "https://lutris.net/media/igdb/cover_big/co8d7u.jpg",
  "platforms": [],
  "provider_games": [
    {
      "name": "Siegecraft Defender",
      "slug": "siegecraft-defender",
      "service": "igdb"
    }
  ],
  "aliases": [],
  "shaders": [],
  "discord_id": "",
  "change_for": null
}