{
  "id": 121950,
  "name": "Maximum Momentum",
  "slug": "maximum-momentum",
  "year": null,
  "banner_url": "",
  "icon_url": "",
  "coverart": "https://lutris.net/media/igdb/cover_big/co3boc.jpg",
  "platforms": [],
  "provider_games": [
    {
      "name": "Maximum Momentum",
      "slug": "maximum-momentum",
      "service": "igdb"
    }
  ],
  "aliases": [],
  "shaders": [],
  "discord_id": "",
  "change_for": null
}