{
  "id": 268695,
  "name": "Eon of the Green: Area Crescent",
  "slug": "eon-of-the-green-area-crescent",
  "year": null,
  "banner_url": "",
  "icon_url": "",
  "coverart": "https://lutris.net/media/igdb/cover_big/co7g74.jpg",
  "platforms": [],
  "provider_games": [
    {
      "name": "Eon of the Green: Area Crescent",
      "slug": "eon-of-the-green-area-crescent",
      "service": "igdb"
    }
  ],
  "aliases": [],
  "shaders": [],
  "discord_id": "",
  "change_for": null
}