{
  "id": 233239,
  "name": "Hopping Girl Kohane EX",
  "slug": "hopping-girl-kohane-ex",
  "year": 2023,
  "banner_url": "",
  "icon_url": "",
  "coverart": "https://lutris.net/media/igdb/cover_big/co63bn.jpg",
  "platforms": [
    {
      "name": "Nintendo Switch"
    },
    {
      "name": "Sony Playstation 4"
    }
  ],
  "provider_games": [
    {
      "name": "Hopping Girl Kohane EX",
      "slug": "hopping-girl-kohane-ex",
      "service": "igdb"
    }
  ],
  "aliases": [],
  "shaders": [],
  "discord_id": "",
  "change_for": null
}