{
  "id": 6513,
  "game_id": 11761,
  "game_slug": "discouraged-workers-teen",
  "name": "Discouraged Workers TEEN",
  "year": 2016,
  "user": "FakeShemp",
  "runner": "steam",
  "slug": "discouraged-workers-teen-steam",
  "version": "Steam",
  "description": null,
  "notes": "",
  "credits": "",
  "created_at": "2017-12-01T17:42:43.626649Z",
  "updated_at": "2017-12-01T17:42:48.781658Z",
  "draft": false,
  "published": true,
  "published_by": null,
  "rating": "",
  "is_playable": null,
  "steamid": 432180,
  "gogid": null,
  "gogslug": "",
  "humbleid": "",
  "humblestoreid": "",
  "humblestoreid_real": "",
  "script": {
    "game": {
      "appid": 432180
    }
  },
  "content": "game:\n  appid: 432180\n",
  "discord_id": ""
}