{
  "id": 203376,
  "name": "Stairway to Heaven's Gate",
  "slug": "stairway-to-heavens-gate",
  "year": 2022,
  "banner_url": "",
  "icon_url": "",
  "coverart": "https://lutris.net/media/igdb/cover_big/co4da6.jpg",
  "platforms": [
    {
      "name": "Windows"
    }
  ],
  "provider_games": [
    {
      "name": "Stairway to Heaven's Gate",
      "slug": "stairway-to-heavens-gate",
      "service": "igdb"
    }
  ],
  "aliases": [],
  "shaders": [],
  "discord_id": "",
  "change_for": null
}