{
  "id": 222566,
  "name": "Gorgon's quest",
  "slug": "gorgons-quest",
  "year": null,
  "banner_url": "",
  "icon_url": "",
  "coverart": "https://lutris.net/media/igdb/cover_big/co5ds3.jpg",
  "platforms": [],
  "provider_games": [
    {
      "name": "Gorgon's quest",
      "slug": "gorgons-quest",
      "service": "igdb"
    }
  ],
  "aliases": [],
  "shaders": [],
  "discord_id": "",
  "change_for": null
}