{
  "id": 277192,
  "name": "Sea of Thieves: 2024 Deluxe Edition",
  "slug": "sea-of-thieves-2024-deluxe-edition",
  "year": 2024,
  "banner_url": "",
  "icon_url": "",
  "coverart": "https://lutris.net/media/igdb/cover_big/co7wgn.jpg",
  "platforms": [
    {
      "name": "Xbox One"
    },
    {
      "name": "Xbox Series X|S"
    }
  ],
  "provider_games": [
    {
      "name": "Sea of Thieves: 2024 Deluxe Edition",
      "slug": "sea-of-thieves-2024-deluxe-edition",
      "service": "igdb"
    }
  ],
  "aliases": [],
  "shaders": [],
  "discord_id": "",
  "change_for": null
}