{
  "id": 278430,
  "name": "Shultz's Treasure",
  "slug": "shultzs-treasure",
  "year": 1983,
  "banner_url": "",
  "icon_url": "",
  "coverart": "https://lutris.net/media/igdb/cover_big/co7xw3.jpg",
  "platforms": [],
  "provider_games": [
    {
      "name": "Shultz's Treasure",
      "slug": "shultzs-treasure",
      "service": "igdb"
    }
  ],
  "aliases": [],
  "shaders": [],
  "discord_id": "",
  "change_for": null
}