{
  "id": 90069,
  "name": "Kabaneri of the Iron Fortress -Revolt- Beginning Tracks",
  "slug": "kabaneri-of-the-iron-fortress-revolt-beginning-tracks",
  "year": null,
  "banner_url": "",
  "icon_url": "",
  "coverart": null,
  "platforms": [],
  "provider_games": [
    {
      "name": "Kabaneri of the Iron Fortress -Revolt- Beginning Tracks",
      "slug": "kabaneri-of-the-iron-fortress-revolt-beginning-tracks",
      "service": "igdb"
    }
  ],
  "aliases": [],
  "shaders": [],
  "discord_id": "",
  "change_for": null
}