{
  "id": 23099,
  "name": "Cursed Town",
  "slug": "cursed-town",
  "year": null,
  "banner_url": "https://lutris.net/games/banner/cursed-town.jpg",
  "icon_url": "https://lutris.net/games/icon/cursed-town.png",
  "coverart": "https://lutris.net/media/igdb/cover_big/co4j4q.jpg",
  "platforms": [],
  "provider_games": [
    {
      "name": "Deadly Station",
      "slug": "850310",
      "service": "steam"
    },
    {
      "name": "Cursed Town",
      "slug": "cursed-town",
      "service": "igdb"
    }
  ],
  "aliases": [],
  "shaders": [],
  "discord_id": "",
  "change_for": null
}