{
  "id": 239621,
  "name": "Fruit Chef",
  "slug": "fruit-chef",
  "year": null,
  "banner_url": "",
  "icon_url": "",
  "coverart": null,
  "platforms": [],
  "provider_games": [
    {
      "name": "Fruit Chef",
      "slug": "fruit-chef",
      "service": "igdb"
    }
  ],
  "aliases": [],
  "shaders": [],
  "discord_id": "",
  "change_for": null
}